2149
2157
2157
2157
2157
2157
2157
2161
2161
2161
2155
2155
2155
2160
2160
2160
2160
2158
2158
2158
2159
2159
2159
2159
2159
2159
2154
2154
2154
2160
2160
2160
2160
2157
2157
2157
2158
2158
2158
2159
2159
2159
2158
2158
2158
2157
2157
2157
2157
2160
2160
2160
2154
2154
2154
2164
2164
2164
2154
2154
2154
2160
2160
2160
2160
2161
2161
2161
2161
2161
2161
2159
2159
2159
2159
2159
2159
2159
2159
2159
2159
2162
2162
2159
2159
2161
2161
2161
2157
2157
2157
2159
2159
2159
2157
2157
2157
2155
2155
2155
2155
2157
2157
2157
2154
2154
2154
2158
2158
2158
2153
2153
2153
2160
2160
2160
2160
2156
2156
2156
2159
2159
2159
2158
2158
2158
2149
2149
2149
2159
2159
2159
2159
2159
2159
2159
2156
2156
2156
2158
2158
2158
2156
2156
2156
2158
2158
2158
2158
2156
2156
2156
2158
2158
2158
2160
2160
2160
2160
2160
2160
2159
2159
2159
2159
2157
2157
2157
2148
2148
2148
2154
2154
2154
2154
2154
2154
2158
2158
2158
2158
2158
2158
2158
2155
2155
2155
2160
2160
2160
2157
2157
2157
2159
2159
2159
2159
2158
2158
2158
2158
2158
2158
2159
2159
2159
2155
2155
2155
2160
2160
2160
2160
2160
2160
2160
2163
2163
2163
2163
2163
2163
2160
2160
2160
2158
2158
2158
2158
2158
2158
2158
2156
2156
2156
2159
2159
2159
2155
2155
2155
2164
2164
2164
2164
2160
2160
2160
2158
2158
2158
2160
2160
2160
2158
2158
2158
2160
2160
2160
2160
2163
2163
2163
2156
2156
2156
2154
2154
2154
2155
2155
2155
2154
2154
2154
2154
2160
2160
2160
2156
2156
2156
2163
2163
2163
2152
2152
2152
2161
2161
2161
2161
2160
2160
2160
2155
2155
2155
2156
2156
2156
2156
2156
2156
2161
2161
2161
2161
2157
2157
2157
2154
2154
2154
2161
2161
2161
2158
2158
2158
2162
2162
2162
2162
2161
2161
2161
2157
2157
2157
2158
2158
2158
2158
2158
2158
2159
2159
2159
2159
2157
2157
2157
2152
2152
2152
2159
2159
2159
2153
2153
2153
2161
2161
2161
2161
2153
2153
2153
2156
2156
2156
2161
2161
2161
2155
2155
2155
2161
2161
2161
2161
2158
2158
2158
2158
2158
2158
2159
2159
2159
2157
2157
2157
2160
2160
2160
2160
2167
2167
2167
2153
2153
2153
2161
2161
2161
2156
2156
2156
2162
2162
2162
2162
2155
2155
2155
2157
2157
2157
2155
2155
2155
2154
2154
2154
2159
2159
2159
2159
2160
2160
2160
2156
2156
2156
2161
2161
2161
2155
2155
2155
2159
2159
2159
2159
2154
2154
2154
2157
2157
2157
2158
2158
2158
2156
2156
2156
2165
2165
2165
2165
2163
2163
2163
2155
2155
2155
2158
2158
2158
2157
2157
2157
2159
2159
2159
2159
2155
2155
2155
2155
2155
2155
2162
2162
2162
2154
2154
2154
2159
2159
2159
2159
2157
2157
2157
2157
2157
2157
2158
2158
2158
2155
2155
2155
2161
2161
2161
2161
2157
2157
2157
2155
2155
2155
2159
2159
2159
2156
2156
2156
2159
2159
2159
2159
2157
2157
2157
2149
2149
2149
2157
2157
2157
2151
2151
2151
2160
2160
2160
2160
2157
2157
2157
2154
2154
2154
2157
2157
2157
2156
2156
2156
2166
2166
2166
2166
2158
2158
2158
2155
2155
2155
2159
2159
2159
2157
2157
2157
2159
2159
2159
2159
2158
2158
2158
2158
2158
2158
2157
2157
2157
2154
2154
2154
2158
2158
2158
2158
2155
2155
2155
2158
2158
2158
2163
2163
2163
2157
2157
2157
2157
2157
2157
2157
2158
2158
2158
2156
2156
2156
2159
2159
2159
2158
2158
2158
2157
2157
2157
2157
2154
2154
2154
2157
2157
2157
2159
2159
2159
2160
2160
2160
2160
2160
2160
2160
2155
2155
2155
2158
2158
2158
2158
2158
2158
2155
2155
2155
2159
2159
2159
2159
2159
2159
2159
2156
2156
2156
2154
2154
2154
2154
2154
2154
2157
2157
2157
2157
2157
2157
2157
2153
2153
2153
2160
2160
2160
2158
2158
2158
2160
2160
2160
2160
2160
2160
2160
2153
2153
2153
2160
2160
2160
2156
2156
2156
2159
2159
2159
2159
2159
2159
2159
2158
2158
2158
2158
2158
2158
2157
2157
2157
2161
2161
2161
2161
2163
2163
2163
2152
2152
2152
2161
2161
2161
2158
2158
2158
2160
2160
2160
2160
2156
2156
2156
2156
2156
2156
2160
2160
2160
2156
2156
2156
2155
2155
2155
2155
2158
2158
2158
2157
2157
2157
2158
2158
2158
2159
2159
2159
2161
2161
2161
2161
2163
2163
2163
2153
2153
2153
2154
2154
2154
2157
2157
2157
2151
2151
2151
2151
2158
2158
2158
2153
2153
2153
2161
2161
2161
2155
2155
2155
2158
2158
2158
2158
2158
2158
2158
2157
2157
2157
2159
2159
2159
2154
2154
2154
2160
2160
2160
2160
2158
2158
2158
2155
2155
2155
2164
2164
2164
2157
2157
2157
2161
2161
2161
2161
2157
2157
2157
2158
2158
2158
2159
2159
2159
2156
2156
2156
2160
2160
2160
2160
2159
2159
2159
2158
2158
2158
2157
2157
2157
2154
2154
2154
2161
2161
2161
2161
2157
2157
2157
2157
2157
2157
2158
2158
2158
2157
2157
2157
2160
2160
2160
2160
2157
2157
2157
2155
2155
2155
2160
2160
2160
2156
2156
2156
2161
2161
2161
2161
2160
2160
2160
2156
2156
2156
2150
2150
2150
2154
2154
2154
2156
2156
2156
2156
2159
2159
2159
2158
2158
2158
2158
2158
2158
2158
2158
2158
2160
2160
2160
2160
2157
2157
2157
2156
2156
2156
2161
2161
2161
2155
2155
2155
2160
2160
2160
2160
2157
2157
2157
2150
2150
2150
2165
2165
2165
2156
2156
2156
2158
2158
2158
2158
2157
2157
2157
2157
2157
2157
2160
2160
2160
2155
2155
2155
2161
2161
2161
2161
2159
2159
2159
2157
2157
2157
2160
2160
2160
2158
2158
2158
2161
2161
2161
2161
2163
2163
2163
2152
2152
2152
2161
2161
2161
2157
2157
2157
2158
2158
2158
2158
2159
2159
2159
