2057
2061
2061
2061
2055
2055
2055
2065
2065
2065
2065
2061
2061
2061
2058
2058
2058
2060
2060
2060
2058
2058
2058
2061
2061
2061
2061
2057
2057
2057
2059
2059
2059
2060
2060
2060
2058
2058
2058
2061
2061
2061
2061
2062
2062
2062
2055
2055
2055
2062
2062
2062
2056
2056
2056
2060
2060
2060
2060
2064
2064
2064
2056
2056
2056
2057
2057
2057
2056
2056
2056
2060
2060
2060
2060
2061
2061
2061
2055
2055
2055
2060
2060
2057
2057
2061
2061
2061
2057
2057
2057
2066
2066
2066
2066
2063
2063
2063
2057
2057
2057
2060
2060
2060
2055
2055
2055
2064
2064
2064
2064
2063
2063
2063
2059
2059
2059
2060
2060
2060
2055
2055
2055
2061
2061
2061
2061
2057
2057
2057
2058
2058
2058
2064
2064
2064
2058
2058
2058
2061
2061
2061
2061
2057
2057
2057
2058
2058
2058
2059
2059
2059
2060
2060
2060
2061
2061
2061
2061
2059
2059
2059
2056
2056
2056
2060
2060
2060
2063
2063
2063
2062
2062
2062
2062
2060
2060
2060
2056
2056
2056
2064
2064
2064
2060
2060
2060
2057
2057
2057
2057
2060
2060
2060
2057
2057
2057
2059
2059
2059
2057
2057
2057
2059
2059
2059
2059
2060
2060
2060
2055
2055
2055
2061
2061
2061
2055
2055
2055
2059
2059
2059
2059
2060
2060
2060
2052
2052
2052
2059
2059
2059
2058
2058
2058
2060
2060
2060
2060
2060
2060
2060
2056
2056
2056
2060
2060
2060
2053
2053
2053
2059
2059
2059
2059
2059
2059
2059
2056
2056
2056
2060
2060
2060
2054
2054
2054
2063
2063
2063
2063
2060
2060
2060
2058
2058
2058
2058
2058
2058
2056
2056
2056
2059
2059
2059
2059
2060
2060
2060
2056
2056
2056
2059
2059
2059
2056
2056
2056
2062
2062
2062
2062
2060
2060
2060
2058
2058
2058
2060
2060
2060
2058
2058
2058
2061
2061
2061
2061
2062
2062
2062
2058
2058
2058
2061
2061
2061
2057
2057
2057
2061
2061
2061
2061
2060
2060
2060
2057
2057
2057
2060
2060
2060
2056
2056
2056
2059
2059
2059
2059
2062
2062
2062
2055
2055
2055
2060
2060
2060
2057
2057
2057
2059
2059
2059
2059
2062
2062
2062
2056
2056
2056
2063
2063
2063
2055
2055
2055
2062
2062
2062
2062
2060
2060
2060
2057
2057
2057
2060
2060
2060
2057
2057
2057
2061
2061
2061
2061
2059
2059
2059
2057
2057
2057
2052
2052
2052
2050
2050
2050
2060
2060
2060
2060
2061
2061
2061
2056
2056
2056
2060
2060
2060
2057
2057
2057
2061
2061
2061
2061
2061
2061
2061
2056
2056
2056
2060
2060
2060
2055
2055
2055
2061
2061
2061
2061
2061
2061
2061
2057
2057
2057
2063
2063
2063
2062
2062
2062
2063
2063
2063
2063
2057
2057
2057
2057
2057
2057
2059
2059
2059
2057
2057
2057
2056
2056
2056
2056
2061
2061
2061
2057
2057
2057
2062
2062
2062
2058
2058
2058
2060
2060
2060
2060
2059
2059
2059
2061
2061
2061
2061
2061
2061
2052
2052
2052
2061
2061
2061
2061
2063
2063
2063
2056
2056
2056
2063
2063
2063
2055
2055
2055
2062
2062
2062
2062
2058
2058
2058
2055
2055
2055
2061
2061
2061
2054
2054
2054
2064
2064
2064
2064
2061
2061
2061
2056
2056
2056
2062
2062
2062
2055
2055
2055
2059
2059
2059
2059
2061
2061
2061
2054
2054
2054
2061
2061
2061
2056
2056
2056
2060
2060
2060
2060
2061
2061
2061
2059
2059
2059
2059
2059
2059
2058
2058
2058
2059
2059
2059
2059
2060
2060
2060
2053
2053
2053
2059
2059
2059
2056
2056
2056
2058
2058
2058
2058
2059
2059
2059
2058
2058
2058
2058
2058
2058
2056
2056
2056
2060
2060
2060
2060
2056
2056
2056
2055
2055
2055
2067
2067
2067
2055
2055
2055
2063
2063
2063
2063
2060
2060
2060
2061
2061
2061
2064
2064
2064
2054
2054
2054
2059
2059
2059
2059
2059
2059
2059
2056
2056
2056
2057
2057
2057
2052
2052
2052
2060
2060
2060
2060
2059
2059
2059
2053
2053
2053
2058
2058
2058
2051
2051
2051
2061
2061
2061
2061
2060
2060
2060
2057
2057
2057
2062
2062
2062
2056
2056
2056
2060
2060
2060
2060
2060
2060
2060
2054
2054
2054
2061
2061
2061
2057
2057
2057
2061
2061
2061
2061
2060
2060
2060
2059
2059
2059
2062
2062
2062
2058
2058
2058
2058
2058
2058
2058
2059
2059
2059
2056
2056
2056
2061
2061
2061
2056
2056
2056
2061
2061
2061
2061
2063
2063
2063
2059
2059
2059
2060
2060
2060
2061
2061
2061
2061
2061
2061
2061
2063
2063
2063
2056
2056
2056
2063
2063
2063
2056
2056
2056
2063
2063
2063
2063
2060
2060
2060
2057
2057
2057
2060
2060
2060
2054
2054
2054
2065
2065
2065
2065
2058
2058
2058
2054
2054
2054
2060
2060
2060
2058
2058
2058
2060
2060
2060
2060
2062
2062
2062
2057
2057
2057
2059
2059
2059
2058
2058
2058
2058
2058
2058
2058
2064
2064
2064
2059
2059
2059
2063
2063
2063
2055
2055
2055
2060
2060
2060
2060
2059
2059
2059
2058
2058
2058
2061
2061
2061
2055
2055
2055
2063
2063
2063
2063
2060
2060
2060
2056
2056
2056
2063
2063
2063
2056
2056
2056
2062
2062
2062
2062
2061
2061
2061
2054
2054
2054
2060
2060
2060
2054
2054
2054
2060
2060
2060
2060
2059
2059
2059
2056
2056
2056
2060
2060
2060
2063
2063
2063
2066
2066
2066
2066
2060
2060
2060
2057
2057
2057
2061
2061
2061
2056
2056
2056
2061
2061
2061
2061
2059
2059
2059
2055
2055
2055
2058
2058
2058
2057
2057
2057
2060
2060
2060
2060
2054
2054
2054
2058
2058
2058
2064
2064
2064
2056
2056
2056
2061
2061
2061
2061
2064
2064
2064
2052
2052
2052
2059
2059
2059
2057
2057
2057
2060
2060
2060
2060
2049
2049
2049
2058
2058
2058
2064
2064
2064
2056
2056
2056
2053
2053
2053
2053
2061
2061
2061
2057
2057
2057
2061
2061
2061
