2091
2091
2083
2083
2083
2083
2083
2083
2082
2082
2082
2082
2082
2082
2082
2087
2087
2087
2084
2084
2084
2082
2082
2082
2084
2084
2084
2084
2082
2082
2082
2082
2082
2082
2085
2085
2085
2081
2081
2081
2082
2082
2082
2082
2086
2086
2086
2080
2080
2080
2083
2083
2083
2084
2084
2084
2085
2085
2085
2085
2083
2083
2083
2084
2084
2084
2077
2077
2077
2087
2087
2087
2079
2079
2079
2079
2082
2082
2082
2083
2083
2083
2076
2076
2076
2083
2083
2083
2079
2079
2079
2079
2089
2089
2089
2082
2082
2082
2086
2086
2086
2081
2081
2081
2083
2083
2083
2083
2079
2079
2079
2088
2088
2088
2083
2083
2083
2080
2080
2080
2082
2082
2082
2082
2082
2082
2082
2084
2084
2084
2082
2082
2082
2081
2081
2081
2080
2080
2080
2080
2081
2081
2081
2085
2085
2085
2084
2084
2084
2082
2082
2082
2082
2082
2082
2082
2078
2078
2078
2084
2084
2084
2077
2077
2077
2078
2078
2078
2084
2084
2084
2084
2078
2078
2078
2084
2084
2084
2085
2085
2085
2078
2078
2078
2089
2089
2089
2089
2084
2084
2084
2085
2085
2085
2081
2081
2081
2082
2082
2082
2081
2081
2081
2081
2082
2082
2082
2083
2083
2083
2084
2084
2084
2081
2081
2081
2082
2082
2082
2082
2080
2080
2080
2083
2083
2083
2083
2083
2083
2081
2081
2081
2081
2081
2081
2081
2084
2084
2084
2085
2085
2085
2082
2082
2082
2081
2081
2081
2083
2083
2083
2083
2080
2080
2080
2083
2083
2083
2081
2081
2081
2086
2086
2086
2083
2083
2083
2083
2083
2083
2083
2084
2084
2084
2082
2082
2082
2083
2083
2083
2081
2081
2081
2081
2079
2079
2079
2083
2083
2083
2082
2082
2082
2084
2084
2084
2084
2084
2084
2084
2085
2085
2085
2082
2082
2082
2078
2078
2078
2081
2081
2081
2083
2083
2083
2083
2083
2083
2083
2082
2082
2082
2082
2082
2082
2082
2082
2082
2083
2083
2083
2083
2086
2086
2086
2079
2079
2079
2082
2082
2082
2081
2081
2081
2080
2080
2080
2080
2082
2082
2082
2080
2080
2080
2081
2081
2081
2078
2078
2078
2077
2077
2077
2077
2082
2082
2082
2084
2084
2084
2086
2086
2086
2082
2082
2082
2081
2081
2081
2081
2081
2081
2081
2088
2088
2088
2084
2084
2084
2084
2084
2084
2085
2085
2085
2085
2081
2081
2081
2083
2083
2083
2085
2085
2085
2082
2082
2082
2089
2089
2089
2089
2088
2088
2088
2083
2083
2083
2084
2084
2084
2081
2081
2081
2083
2083
2083
2083
2085
2085
2085
2076
2076
2076
2086
2086
2086
2079
2079
2079
2084
2084
2084
2084
2082
2082
2082
2081
2081
2081
2087
2087
2087
2086
2086
2086
2080
2080
2080
2080
2082
2082
2082
2083
2083
2083
2085
2085
2085
2083
2083
2083
2079
2079
2079
2079
2083
2083
2083
2085
2085
2085
2081
2081
2081
2084
2084
2084
2084
2084
2084
2084
2081
2081
2081
2082
2082
2082
2083
2083
2083
2082
2082
2082
2083
2083
2083
2083
2077
2077
2077
2086
2086
2086
2082
2082
2082
2083
2083
2083
2083
2083
2083
2083
2079
2079
2079
2083
2083
2083
2080
2080
2080
2082
2082
2082
2081
2081
2081
2081
2078
2078
2078
2078
2078
2078
2078
2078
2078
2084
2084
2084
2078
2078
2078
2078
2082
2082
2082
2082
2082
2082
2082
2082
2082
2083
2083
2083
2078
2078
2078
2078
2083
2083
2083
2084
2084
2084
2082
2082
2082
2081
2081
2081
2083
2083
2083
2083
2082
2082
2082
2085
2085
2085
2084
2084
2084
2081
2081
2081
2081
2081
2081
2081
2079
2079
2079
2083
2083
2083
2082
2082
2082
2083
2083
2083
2087
2087
2087
2087
2079
2079
2079
2086
2086
2086
2078
2078
2078
2083
2083
2083
2083
2083
2083
2083
2084
2084
2084
2081
2081
2081
2079
2079
2079
2082
2082
2082
2081
2081
2081
2081
2083
2083
2083
2082
2082
2082
2081
2081
2081
2083
2083
2083
2078
2078
2078
2078
2083
2083
2083
2083
2083
2083
2082
2082
2082
2081
2081
2081
2081
2081
2081
2081
2081
2081
2081
2084
2084
2084
2082
2082
2082
2085
2085
2085
2084
2084
2084
2084
2082
2082
2082
2082
2082
2082
2086
2086
2086
2082
2082
2082
2083
2083
2083
2083
2086
2086
2086
2083
2083
2083
2077
2077
2077
2088
2088
2088
2079
2079
2079
2079
2083
2083
2083
2082
2082
2082
2084
2084
2084
2083
2083
2083
2087
2087
2087
2087
2084
2084
2084
2085
2085
2085
2084
2084
2084
2081
2081
2081
2085
2085
2085
2085
2084
2084
2084
2084
2084
2084
2083
2083
2083
2087
2087
2087
2079
2079
2079
2079
2080
2080
2080
2081
2081
2081
2080
2080
2080
2081
2081
2081
2082
2082
2082
2082
2082
2082
2082
2083
2083
2083
2081
2081
2081
2081
2081
2081
2084
2084
2084
2084
2082
2082
2082
2078
2078
2078
2083
2083
2083
2081
2081
2081
2087
2087
2087
2087
2081
2081
2081
2085
2085
2085
2086
2086
2086
2085
2085
2085
2085
2085
2085
2085
2083
2083
2083
2084
2084
2084
2083
2083
2083
2079
2079
2079
2084
2084
2084
2084
2083
2083
2083
2082
2082
2082
2085
2085
2085
2083
2083
2083
2082
2082
2082
2082
2081
2081
2081
2084
2084
2084
2085
2085
2085
2081
2081
2081
2082
2082
2082
2082
2082
2082
2082
2083
2083
2083
2078
2078
2078
2084
2084
2084
2083
2083
2083
2083
2079
2079
2079
2088
2088
2088
2084
2084
2084
2082
2082
2082
2087
2087
2087
2087
2081
2081
2081
2085
2085
2085
2082
2082
2082
2082
2082
2082
2081
2081
2081
2081
2083
2083
2083
2086
2086
2086
2082
2082
2082
2082
2082
2082
2082
2082
2082
2082
2081
2081
2081
2085
2085
2085
2080
2080
2080
2077
2077
2077
2083
2083
2083
2083
2081
2081
2081
2081
2081
2081
2082
2082
2082
2082
2082
2082
2078
2078
2078
2078
2089
2089
2089
2079
2079
2079
2085
2085
2085
2081
2081
2081
2086
2086
2086
2086
2082
2082
2082
2086
2086
2086
2086
2086
2086
2087
2087
2087
2084
2084
2084
2084
2082
2082
2082
2086
2086
2086
2084
2084
2084
2079
2079
2079
2084
2084
2084
2084
2081
2081
2081
2083
2083
2083
2081
2081
2081
2082
2082
2082
2083
2083
2083
2083
2081
2081
2081
2077
2077
2077
2081
2081
2081
2084
2084
2084
2081
2081
2081
2081
2083
2083
2083
2082
2082
2082
2083
2083
2083
2093
2093
2093
2083
2083
2083
2083
2081
2081
2081
2086
2086
2086
2086
2086
2086
2081
2081
2081
2079
2079
2079
2079
2085
2085
2085
2082
2082
2082
2087
2087
2087
2082
2082
2082
2079
2079
2079
2079
2080
2080
2080
2082
2082
2082
2084
2084
2084
2079
2079
2079
2081
2081
2081
2081
2082
2082
2082
2080
2080
2080
2082
2082
2082
2085
2085
2085
2083
2083
2083
2083
2084
2084
2084
2085
2085
2085
2080
2080
2080
2081
2081
2081
2086
2086
2086
2086
2081
2081
2081
2084
2084
2084
2083
2083
2083
2084
2084
2084
2084
2084
2084
2084
2078
2078
2078
2084
2084
2084
2082
2082
2082
2080
2080
2080
2083
2083
2083
2083
2081
2081
2081
2081
2081
2081
2081
2081
2081
2080
2080
2080
2088
2088
2088
2088
2079
2079
2079
2083
2083
2083
2080
2080
2080
2083
2083
2083
2081
2081
2081
2081
2082
2082
2082
2086
2086
2086
2082
2082
2082
2085
2085
2085
2081
2081
2081
2081
2080
2080
2080
2084
2084
2084
2085
2085
2085
2082
2082
2082
2087
2087
2087
2087
2078
2078
2078
2083
2083
2083
2078
2078
2078
2082
2082
2082
2081
2081
2081
2081
2085
2085
2085
2088
2088
2088
2078
2078
2078
2084
2084
2084
2081
2081
2081
2081
2077
2077
2077
2086
2086
2086
2079
2079
2079
2080
2080
2080
2081
2081
2081
2081
2082
2082
2082
2083
2083
2083
2080
2080
2080
2083
2083
2083
2084
2084
2084
2084
2084
2084
2084
2084
2084
2084
2084
2084
2084
2080
2080
2080
2080
2080
2080
2080
2082
2082
2082
2084
2084
2084
2081
2081
2081
2081
2081
2081
2082
2082
2082
2082
2082
2082
2082
2084
2084
2084
2082
2082
2082
2083
2083
2083
2081
2081
2081
2081
2077
2077
2077
2087
2087
2087
2078
2078
2078
2082
2082
2082
2083
2083
2083
2083
2083
2083
2083
2083
2083
2083
2080
2080
2080
2083
2083
2083
2076
2076
2076
2076
2084
2084
2084
2084
2084
2084
2082
2082
2082
2083
2083
2083
2082
2082
2082
2082
2083
2083
2083
2082
2082
2082
2083
2083
2083
2082
2082
2082
2082
2082
2082
2082
2083
2083
2083
2083
2083
2083
2083
2083
2083
2083
2083
2083
2082
2082
2082
2082
2082
2082
2082
2084
2084
2084
2087
2087
2087
2083
2083
2083
2075
2075
2075
2075
2078
2078
2078
2088
2088
2088
2078
2078
2078
2083
2083
2083
2082
2082
2082
2082
2079
2079
2079
2087
2087
2087
2084
2084
2084
2082
2082
2082
2087
2087
2087
2087
2082
2082
2082
2085
2085
2085
2081
2081
2081
2083
2083
2083
2083
2083
2083
2083
2087
2087
2087
2085
2085
2085
2080
2080
2080
2083
2083
2083
2082
2082
2082
2082
2081
2081
2081
2088
2088
2088
2082
2082
2082
2086
2086
2086
2083
2083
2083
2083
2083
2083
2083
2083
2083
2083
2080
2080
2080
2083
2083
2083
2083
2083
2083
2083
2086
2086
2086
2086
2086
2086
2081
2081
2081
2081
2081
2081
2084
2084
2084
2084
2087
2087
2087
2084
2084
2084
2085
2085
2085
2082
2082
2082
2083
2083
2083
2083
2082
2082
2082
2078
2078
2078
2082
2082
2082
2087
2087
2087
2080
2080
2080
2080
2082
2082
2082
2085
2085
2085
2084
2084
2084
2081
2081
2081
2084
2084
2084
2084
2081
2081
2081
2085
2085
2085
2081
2081
2081
2081
2081
2081
2081
2081
2081
2081
2080
2080
2080
2086
2086
2086
2088
2088
2088
2083
2083
2083
2081
2081
2081
2081
2083
2083
2083
2085
2085
2085
2075
2075
2075
2083
2083
2083
2080
2080
2080
2080
2076
2076
2076
2088
2088
2088
2083
2083
2083
2080
2080
2080
2088
2088
2088
2088
2082
2082
2082
2084
2084
2084
2084
2084
2084
2079
2079
2079
2085
2085
2085
2085
2081
2081
2081
2084
2084
2084
2080
2080
2080
2083
2083
2083
2081
2081
2081
2081
2083
2083
2083
2085
2085
2085
2084
2084
2084
2080
2080
2080
2083
2083
2083
2083
2084
2084
2084
2085
2085
2085
2082
2082
2082
2087
2087
2087
2081
2081
2081
2081
2085
2085
2085
2082
2082
2082
2082
2082
2082
2081
2081
2081
2088
2088
2088
2088
2081
2081
2081
2084
2084
2084
2083
2083
2083
2087
2087
2087
2083
2083
2083
2083
2083
2083
2083
2083
2083
2083
2082
2082
2082
2086
2086
2086
2084
2084
2084
2084
2083
2083
2083
2081
2081
2081
2084
2084
2084
2082
2082
2082
2084
2084
2084
2084
2082
2082
2082
2086
2086
2086
2080
2080
2080
2082
2082
2082
2082
2082
2082
2082
2080
2080
2080
2084
2084
2084
2082
2082
2082
2081
2081
2081
2083
2083
2083
2083
2082
2082
2082
2077
2077
2077
2084
2084
2084
2080
2080
2080
2083
2083
2083
2083
2083
2083
2083
2080
2080
2080
2089
2089
2089
2081
2081
2081
2082
2082
2082
2082
2075
2075
2075
2083
2083
2083
2084
2084
2084
2082
2082
2082
2083
2083
2083
2083
2081
2081
2081
2086
2086
2086
2084
2084
2084
2081
2081
2081
2081
2081
2081
2081
2081
2081
2081
2084
2084
2084
2082
2082
2082
2083
2083
2083
2081
2081
2081
2081
2084
2084
2084
2085
2085
2085
2080
2080
2080
2082
2082
2082
2082
2082
2082
2082
2080
2080
2080
2083
2083
2083
2086
2086
2086
2081
2081
2081
2083
2083
2083
2083
2082
2082
2082
2083
2083
2083
2082
2082
2082
2079
2079
2079
2080
2080
2080
2080
2087
2087
2087
2087
2087
2087
2083
2083
2083
2080
2080
2080
2084
2084
2084
2084
2082
2082
2082
2083
2083
2083
2085
2085
2085
2082
2082
2082
2081
2081
2081
2081
2082
2082
2082
2088
2088
2088
2085
2085
2085
2083
2083
2083
2087
2087
2087
2087
2086
2086
2086
2081
2081
2081
2090
2090
2090
2082
2082
2082
2083
2083
2083
2083
2082
2082
2082
2079
2079
2079
2082
2082
2082
2086
2086
2086
2085
2085
2085
2085
2082
2082
2082
2085
2085
2085
2086
2086
2086
2081
2081
2081
2088
2088
2088
2088
2084
2084
2084
2082
2082
2082
2083
2083
2083
2084
2084
2084
2085
2085
2085
2085
2085
2085
2085
2085
2085
2085
2081
2081
2081
2084
2084
2084
2080
2080
2080
2080
2081
2081
2081
2085
2085
2085
2083
2083
2083
2083
2083
2083
2083
2083
2083
2083
2079
2079
2079
2086
2086
2086
2081
2081
2081
2082
2082
2082
2086
2086
2086
2086
2076
2076
2076
2088
2088
2088
2084
2084
2084
2079
2079
2079
2086
2086
2086
2086
2084
2084
2084
2078
2078
2078
2083
2083
2083
2079
2079
2079
2087
2087
2087
2087
2085
2085
2085
2085
2085
2085
2079
2079
2079
2083
2083
2083
2082
2082
2082
2082
2085
2085
2085
2084
2084
2084
2081
2081
2081
2080
2080
2080
2082
2082
2082
2082
2078
2078
2078
2085
2085
2085
2081
2081
2081
2075
2075
2075
2081
2081
2081
2081
2083
2083
2083
2079
2079
2079
2085
2085
2085
2082
2082
2082
2083
2083
2083
2083
2085
2085
2085
2085
2085
2085
2075
2075
2075
2084
2084
2084
2082
2082
2082
2082
2081
2081
2081
2084
2084
2084
2083
2083
2083
2082
2082
2082
2082
2082
2082
2082
2081
2081
2081
2085
2085
2085
2082
2082
2082
2082
2082
2082
2086
2086
2086
2086
2081
2081
2081
2083
2083
2083
2078
2078
2078
2081
2081
2081
2083
2083
2083
2083
2079
2079
2079
2083
2083
2083
2083
2083
2083
2083
2083
2083
2083
2083
2083
2083
2079
2079
2079
2080
2080
2080
2080
2080
2080
2087
2087
2087
2081
2081
2081
2081
2087
2087
2087
2086
2086
2086
2078
2078
2078
2088
2088
2088
2081
2081
2081
2081
2083
2083
2083
2085
2085
2085
2082
2082
2082
2082
2082
2082
2081
2081
2081
2081
2082
2082
2082
2084
2084
2084
2081
2081
2081
2085
2085
2085
2084
2084
2084
2084
2081
2081
2081
2084
2084
2084
2084
2084
2084
2081
2081
2081
2084
2084
2084
2084
2085
2085
2085
2085
2085
2085
2080
2080
2080
2085
2085
2085
2082
2082
2082
2082
2078
2078
2078
2086
2086
2086
2083
2083
2083
2078
2078
2078
2088
2088
2088
2088
2081
2081
2081
2086
2086
2086
2082
2082
2082
2082
2082
2082
2080
2080
2080
2080
2080
2080
2080
2084
2084
2084
2080
2080
2080
2082
2082
2082
2078
2078
2078
2078
2081
2081
2081
2083
2083
2083
2083
2083
2083
2083
2083
2083
2084
2084
2084
2084
2083
2083
2083
2078
2078
2078
2083
2083
2083
2081
2081
2081
2083
2083
2083
2083
2080
2080
2080
2089
2089
2089
2078
2078
2078
2083
2083
2083
2082
2082
2082
2082
2081
2081
2081
2083
2083
2083
2077
2077
2077
2077
2077
2077
2081
2081
2081
2081
2082
2082
2082
2081
2081
2081
2081
2081
2081
2090
2090
2090
2083
2083
2083
2083
2085
2085
2085
2084
2084
2084
2082
2082
2082
2084
2084
2084
2081
2081
2081
2081
2083
2083
2083
2085
2085
2085
2087
2087
2087
2082
2082
2082
2081
2081
2081
2081
2083
2083
2083
2085
2085
2085
2082
2082
2082
2083
2083
2083
2081
2081
2081
2081
2084
2084
2084
2085
2085
2085
2084
2084
2084
2078
2078
2078
2082
2082
2082
2082
2083
2083
2083
2082
2082
2082
2083
2083
2083
2083
2083
2083
2078
2078
2078
2078
2085
2085
2085
2085
2085
2085
2083
2083
2083
2083
2083
2083
2082
2082
2082
2082
2081
2081
2081
2085
2085
2085
2082
2082
2082
2089
2089
2089
2083
2083
2083
2083
2082
2082
2082
2085
2085
2085
2082
2082
2082
2084
2084
2084
2084
2084
2084
2084
2082
2082
2082
2081
2081
2081
2080
2080
2080
2077
2077
2077
2083
2083
2083
2083
2079
2079
2079
2080
2080
2080
2085
2085
2085
2081
2081
2081
2082
2082
2082
2082
2083
2083
2083
2080
2080
2080
2082
2082
2082
2084
2084
2084
2082
2082
2082
2082
2083
2083
2083
2085
2085
2085
2076
2076
2076
2082
2082
2082
2078
2078
2078
2078
2085
2085
2085
2084
2084
2084
2083
2083
2083
2081
2081
2081
2082
2082
2082
2082
2082
2082
2082
2084
2084
2084
2083
2083
2083
2082
2082
2082
2083
2083
2083
2083
2083
2083
2083
2081
2081
2081
2085
2085
2085
2082
2082
2082
2083
2083
2083
2083
2080
2080
2080
2084
2084
2084
2092
2092
2092
2083
2083
2083
2080
2080
2080
2080
2081
2081
2081
2087
2087
2087
2082
2082
2082
2080
2080
2080
2081
2081
2081
2081
2079
2079
2079
2081
2081
2081
2084
2084
2084
2081
2081
2081
2084
2084
2084
2084
2080
2080
2080
2084
2084
2084
2079
2079
2079
2080
2080
2080
2083
2083
2083
2083
2086
2086
2086
2081
2081
2081
2086
2086
2086
2081
2081
2081
2083
2083
2083
2083
2084
2084
2084
2082
2082
2082
2083
2083
2083
2081
2081
2081
2078
2078
2078
2078
2083
2083
2083
2081
2081
2081
2086
2086
2086
2082
2082
2082
2081
2081
2081
2081
2084
2084
2084
2082
2082
2082
2082
2082
2082
2079
2079
2079
2082
2082
2082
2082
2083
2083
2083
2080
2080
2080
2083
2083
2083
2075
2075
2075
2081
2081
2081
2081
2083
2083
2083
2084
2084
2084
2084
2084
2084
2082
2082
2082
2082
2082
2082
2082
2087
2087
2087
2084
2084
2084
2084
2084
2084
2082
2082
2082
2084
2084
2084
2084
2084
2084
2084
2081
2081
2081
2081
2081
2081
2086
2086
2086
2082
2082
2082
2082
2083
2083
2083
2080
2080
2080
2082
2082
2082
2084
2084
2084
2081
2081
2081
2081
2084
2084
2084
2083
2083
2083
2079
2079
2079
2083
2083
2083
2083
2083
2083
2083
2083
2083
2083
2083
2083
2083
2083
2083
2083
2080
2080
2080
2082
2082
2082
2082
2078
2078
2078
2087
2087
2087
2082
2082
2082
2082
2082
2082
2083
2083
2083
2083
2079
2079
2079
2087
2087
2087
2082
2082
2082
2080
2080
2080
2085
2085
2085
2085
2079
2079
2079
2084
2084
2084
2084
2084
2084
2081
2081
2081
2086
2086
2086
2086
2084
2084
2084
2085
2085
2085
2082
2082
2082
2083
2083
2083
2082
2082
2082
2082
2082
2082
2082
2082
2082
2082
2082
2082
2082
2081
2081
2081
2077
2077
2077
2077
2081
2081
2081
2086
2086
2086
2079
2079
2079
2082
2082
2082
2082
2082
2082
2082
2084
2084
2084
2082
2082
2082
2081
2081
2081
2084
2084
2084
2082
2082
2082
2082
2083
2083
2083
2082
2082
2082
2084
2084
2084
2084
2084
2084
2085
2085
2085
2085
2082
2082
2082
2084
2084
2084
2083
2083
2083
2080
2080
2080
2083
2083
2083
2083
2083
2083
2083
2084
2084
2084
2083
2083
2083
2081
2081
2081
2083
2083
2083
2083
2080
2080
2080
2091
2091
2091
2085
2085
2085
2082
2082
2082
2069
2069
2069
2069
2081
2081
2081
2084
2084
2084
2077
2077
2077
2083
2083
2083
2078
2078
2078
2078
2081
2081
2081
2084
2084
2084
2083
2083
2083
2084
2084
2084
2087
2087
2087
2087
2079
2079
2079
2079
2079
2079
2085
2085
2085
2079
2079
2079
2077
2077
2077
2077
2080
2080
2080
2083
2083
2083
2081
2081
2081
2081
2081
2081
2088
2088
2088
2088
2082
2082
2082
2083
2083
2083
2083
2083
2083
2083
2083
2083
2083
2083
2083
2083
2079
2079
2079
2085
2085
2085
2082
2082
2082
2087
2087
2087
2082
2082
2082
2082
2082
2082
2082
2086
2086
2086
2086
2086
2086
2081
2081
2081
2082
2082
2082
2082
2082
2082
2082
2083
2083
2083
2082
2082
2082
2082
2082
2082
2079
2079
2079
2079
2082
2082
2082
2084
2084
2084
2080
2080
2080
2082
2082
2082
2083
2083
2083
2083
2080
2080
2080
2090
2090
2090
2082
2082
2082
2082
2082
2082
2084
2084
2084
2084
2082
2082
2082
2083
2083
2083
2087
2087
2087
2081
2081
2081
2083
2083
2083
2083
2084
2084
2084
2085
2085
2085
2082
2082
2082
2088
2088
2088
2084
2084
2084
2084
2082
2082
2082
2086
2086
2086
2081
2081
2081
2076
2076
2076
2088
2088
2088
2088
2082
2082
2082
2085
2085
2085
2083
2083
2083
2082
2082
2082
2082
2082
2082
2082
2081
2081
2081
2085
2085
2085
2082
2082
2082
2079
2079
2079
2081
2081
2081
2081
2083
2083
2083
2085
2085
2085
2083
2083
2083
2084
2084
2084
2079
2079
2079
2079
2082
2082
2082
2090
2090
2090
2083
2083
2083
2086
2086
2086
2082
2082
2082
2082
2077
2077
2077
2087
2087
2087
2084
2084
2084
2079
2079
2079
2077
2077
2077
2077
2077
2077
2077
2082
2082
2082
2082
2082
2082
2083
2083
2083
2079
2079
2079
2079
2082
2082
2082
2085
2085
2085
2080
2080
2080
2079
2079
2079
2085
2085
2085
2085
2086
2086
2086
2077
2077
2077
2083
2083
2083
2080
2080
2080
2080
2080
2080
2080
2082
2082
2082
2081
2081
2081
2085
2085
2085
2082
2082
2082
2081
2081
2081
2081
2087
2087
2087
2084
2084
2084
2079
2079
2079
2082
2082
2082
2083
2083
2083
2083
2083
2083
2083
2089
2089
2089
2084
2084
2084
2077
2077
2077
2082
2082
2082
2082
2082
2082
2082
2082
2082
2082
2081
2081
2081
2085
2085
2085
2088
2088
2088
2088
2082
2082
2082
2081
2081
2081
2082
2082
2082
2082
2082
2082
2082
2082
2082
2082
2083
2083
2083
2082
2082
2082
2084
2084
2084
2079
2079
2079
2083
2083
2083
2083
2082
2082
2082
2074
2074
2074
2089
2089
2089
2080
2080
2080
2086
2086
2086
2086
2084
2084
2084
2081
2081
2081
2086
2086
2086
2085
2085
2085
2085
2085
2085
2085
2082
2082
2082
2083
2083
2083
2084
2084
2084
2078
2078
2078
2082
2082
2082
2082
2083
2083
2083
2089
2089
2089
2082
2082
2082
2079
2079
2079
2083
2083
2083
2083
2082
2082
2082
2084
2084
2084
2086
2086
2086
2082
2082
2082
2086
2086
2086
2086
2082
2082
2082
2085
2085
2085
2078
2078
2078
2079
2079
2079
2083
2083
2083
2083
2081
2081
2081
2086
2086
2086
2082
2082
2082
2081
2081
2081
2080
2080
2080
2080
2083
2083
2083
2090
2090
2090
2081
2081
2081
2083
2083
2083
2083
2083
2083
2083
2080
2080
2080
2082
2082
2082
2083
2083
2083
2083
2083
2083
2082
2082
2082
2082
2081
2081
2081
2084
2084
2084
2083
2083
2083
2081
2081
2081
2082
2082
2082
2082
2084
2084
2084
2081
2081
2081
2080
2080
2080
2080
2080
2080
2081
2081
2081
2081
2079
2079
2079
2087
2087
2087
2085
2085
2085
2086
2086
2086
2086
2086
2086
2086
2084
2084
2084
2083
2083
2083
2079
2079
2079
2085
2085
2085
2081
2081
2081
2081
2081
2081
2081
2085
2085
2085
2081
2081
2081
2080
2080
2080
2083
2083
2083
2083
2080
2080
2080
2083
2083
2083
2084
2084
2084
2083
2083
2083
2081
2081
2081
2081
2076
2076
2076
2084
2084
2084
2082
2082
2082
2083
2083
2083
2084
2084
2084
2084
2082
2082
2082
2084
2084
2084
2084
2084
2084
2077
2077
2077
2079
2079
2079
2079
2081
2081
2081
2081
2081
2081
2081
2081
2081
2083
2083
2083
2080
2080
2080
2080
2081
2081
2081
2085
2085
2085
2082
2082
2082
2081
2081
2081
2089
2089
2089
2089
2077
2077
2077
2082
2082
2082
2082
2082
2082
2081
2081
2081
2083
2083
2083
2083
2085
2085
2085
2084
2084
2084
2084
2084
2084
2082
2082
2082
2082
2082
2082
2082
2085
2085
2085
2087
2087
2087
2081
2081
2081
2082
2082
2082
2087
2087
2087
2087
2081
2081
2081
2085
2085
2085
2080
2080
2080
2079
2079
2079
2080
2080
2080
2080
2081
2081
2081
2086
2086
2086
2083
2083
2083
2084
2084
2084
2082
2082
2082
2082
2082
2082
2082
2086
2086
2086
2082
2082
2082
2084
2084
2084
2084
2084
2084
2084
2084
2084
2084
2083
2083
2083
2080
2080
2080
2081
2081
2081
2082
2082
2082
2082
2083
2083
2083
2084
2084
2084
2082
2082
2082
2084
2084
2084
2078
2078
2078
2078
2084
2084
2084
2086
2086
2086
2079
2079
2079
2081
2081
2081
2085
2085
2085
2085
2082
2082
2082
2085
2085
2085
2084
2084
2084
2082
2082
2082
2083
2083
2083
2083
2072
2072
2072
2083
2083
2083
2080
2080
2080
2084
2084
2084
2082
2082
2082
2082
2080
2080
2080
2082
2082
2082
2081
2081
2081
2080
2080
2080
2084
2084
2084
2084
2083
2083
2083
2083
2083
2083
2084
2084
2084
2079
2079
2079
2084
2084
2084
2084
2084
2084
2084
2080
2080
2080
2090
2090
2090
2086
2086
2086
2083
2083
2083
2083
2079
2079
2079
2083
2083
2083
2082
2082
2082
2080
2080
2080
2082
2082
2082
2082
2083
2083
2083
2083
2083
2083
2081
2081
2081
2084
2084
2084
2082
2082
2082
2082
2083
2083
2083
2080
2080
2080
2082
2082
2082
2083
2083
2083
2083
2083
2083
2083
2077
2077
2077
2078
2078
2078
2087
2087
2087
2079
2079
2079
2085
2085
2085
2085
2084
2084
2084
2077
2077
2077
2084
2084
2084
2082
2082
2082
2081
2081
2081
2081
2083
2083
2083
2085
2085
2085
2085
2085
2085
2081
2081
2081
2082
2082
2082
2082
2081
2081
2081
2084
2084
2084
2085
2085
2085
2082
2082
2082
2087
2087
2087
2087
2077
2077
2077
2083
2083
2083
2083
2083
2083
2085
2085
2085
2084
2084
2084
2084
2086
2086
2086
2082
2082
2082
2082
2082
2082
2084
2084
2084
2081
2081
2081
2081
2079
2079
2079
2080
2080
2080
2084
2084
2084
2081
2081
2081
2079
2079
2079
2079
2079
2079
2079
2084
2084
2084
2079
2079
2079
2083
2083
2083
2085
2085
2085
2085
2083
2083
2083
2083
2083
2083
2080
2080
2080
2083
2083
2083
2082
2082
2082
2082
2081
2081
2081
2082
2082
2082
2083
2083
2083
2085
2085
2085
2083
2083
2083
2083
2085
2085
2085
2083
2083
2083
2087
2087
2087
2085
2085
2085
2081
2081
2081
2081
2087
2087
2087
2086
2086
2086
2082
2082
2082
2079
2079
2079
2081
2081
2081
2081
2080
2080
2080
2087
2087
2087
2086
2086
2086
2083
2083
2083
2080
2080
2080
2080
2082
2082
2082
2084
2084
2084
2081
2081
2081
2081
2081
2081
2084
2084
2084
2084
2081
2081
2081
2084
2084
2084
2081
2081
2081
2083
2083
2083
2083
2083
2083
2083
2086
2086
2086
2080
2080
2080
2085
2085
2085
2081
2081
2081
2082
2082
2082
2082
2087
2087
2087
2091
2091
2091
2077
2077
2077
2077
2077
2077
2088
2088
2088
2088
2081
2081
2081
2083
2083
2083
2088
2088
2088
2084
2084
2084
2084
2084
2084
2084
2082
2082
2082
2086
2086
2086
2083
2083
2083
2083
2083
2083
2083
2083
2083
2083
2080
2080
2080
2087
2087
2087
2083
2083
2083
2088
2088
2088
2083
2083
2083
2083
2086
2086
2086
2079
2079
2079
2086
2086
2086
2082
2082
2082
2086
2086
2086
2086
2083
2083
2083
2084
2084
2084
2077
2077
2077
2083
2083
2083
2084
2084
2084
2084
2081
2081
2081
2084
2084
2084
2080
2080
2080
2081
2081
2081
2083
2083
2083
2083
2082
2082
2082
2087
2087
2087
2085
2085
2085
2079
2079
2079
2083
2083
2083
2083
2083
2083
2083
2082
2082
2082
2082
2082
2082
2083
2083
2083
2079
2079
2079
2079
2088
2088
2088
2081
2081
2081
2083
2083
2083
2079
2079
2079
2085
2085
2085
2085
2079
2079
2079
2088
2088
2088
2085
2085
2085
2084
2084
2084
2085
2085
2085
2085
2082
2082
2082
2081
2081
2081
2080
2080
2080
2082
2082
2082
2082
2082
2082
2082
2081
2081
2081
2083
2083
2083
2083
2083
2083
2084
2084
2084
2081
2081
2081
2081
2081
2081
2081
2086
2086
2086
2080
2080
2080
2083
2083
2083
2085
2085
2085
2085
2077
2077
2077
2087
2087
2087
2084
2084
2084
2082
2082
2082
2083
2083
2083
2083
2087
2087
2087
2085
2085
2085
2077
2077
2077
2080
2080
2080
2088
2088
2088
2088
2086
2086
2086
2082
2082
2082
2084
2084
2084
2082
2082
2082
2085
2085
2085
2085
2082
2082
2082
2081
2081
2081
2081
2081
2081
2082
2082
2082
2084
2084
2084
2084
2081
2081
2081
2078
2078
2078
2083
2083
2083
2083
2083
2083
2083
2083
2083
2083
2083
2083
2083
2082
2082
2082
2082
2082
2082
2081
2081
2081
2078
2078
2078
2078
2083
2083
2083
2085
2085
2085
2081
2081
2081
2078
2078
2078
2082
2082
2082
2082
2082
2082
2082
2082
2082
2082
2083
2083
2083
2084
2084
2084
2083
2083
2083
2083
2081
2081
2081
2083
2083
2083
2084
2084
2084
2081
2081
2081
2085
2085
2085
2085
2080
2080
2080
2085
2085
2085
2082
2082
2082
2080
2080
2080
2082
2082
2082
2082
2086
2086
2086
2083
2083
2083
2081
2081
2081
2081
2081
2081
2083
2083
2083
2083
2081
2081
2081
2084
2084
2084
2079
2079
2079
2079
2079
2079
2087
2087
2087
2087
2084
2084
2084
2082
2082
2082
2083
2083
2083
2082
2082
2082
2082
2082
2082
2082
2079
2079
2079
2086
2086
2086
2080
2080
2080
2083
2083
2083
2084
2084
2084
2084
2082
2082
2082
2086
2086
2086
2083
2083
2083
2085
2085
2085
2082
2082
2082
2082
2087
2087
2087
2081
2081
2081
2084
2084
2084
2080
2080
2080
2083
2083
2083
2083
2088
2088
2088
2086
2086
2086
2077
2077
2077
2079
2079
2079
2085
2085
2085
2085
2083
2083
2083
2082
2082
2082
2084
2084
2084
2085
2085
2085
2086
2086
2086
2086
2082
2082
2082
2081
2081
2081
2082
2082
2082
2083
2083
2083
2082
2082
2082
2082
2082
2082
2082
2084
2084
2084
2080
2080
2080
2083
2083
2083
2082
2082
2082
2082
2088
2088
2088
2086
2086
2086
2083
2083
2083
2085
2085
2085
2082
2082
2082
2082
2079
2079
2079
2088
2088
2088
2082
2082
2082
2081
2081
2081
2085
2085
2085
2085
2081
2081
2081
2082
2082
2082
2081
2081
2081
2084
2084
2084
2086
2086
2086
2086
2083
2083
2083
2083
2083
2083
2076
2076
2076
2083
2083
2083
2083
2083
2083
2083
2082
2082
2082
2084
2084
2084
2082
2082
2082
2081
2081
2081
2081
2081
2081
2081
2084
2084
2084
2075
2075
2075
2086
2086
2086
2083
2083
2083
2082
2082
2082
2082
2078
2078
2078
2090
2090
2090
2083
2083
2083
2080
2080
2080
2081
2081
2081
2081
2085
2085
2085
2085
2085
2085
2083
2083
2083
2080
2080
2080
2078
2078
2078
2078
2083
2083
2083
2087
2087
2087
2079
2079
2079
2087
2087
2087
2082
2082
2082
2082
2080
2080
2080
2083
2083
2083
2083
2083
2083
2085
2085
2085
2084
2084
2084
2084
2087
2087
2087
2084
2084
2084
2076
2076
2076
2084
2084
2084
2084
2084
2084
2084
2080
2080
2080
2082
2082
2082
2087
2087
2087
2082
2082
2082
2080
2080
2080
2080
2084
2084
2084
2086
2086
2086
2083
2083
2083
2080
2080
2080
2083
2083
2083
2083
2081
2081
2081
2087
2087
2087
2083
2083
2083
2082
2082
2082
2083
2083
2083
2083
2082
2082
2082
2083
2083
2083
2082
2082
2082
2082
2082
2082
2086
2086
2086
2086
2075
2075
2075
2086
2086
2086
2085
2085
2085
2083
2083
2083
2084
2084
2084
2084
2078
2078
2078
2081
2081
2081
2085
2085
2085
2086
2086
2086
2082
2082
2082
2082
2081
2081
2081
2076
2076
2076
2082
2082
2082
2082
2082
2082
2083
2083
2083
2083
2082
2082
2082
2083
2083
2083
2083
2083
2083
2083
2083
2083
2081
2081
2081
2081
2077
2077
2077
2084
2084
2084
2087
2087
2087
2083
2083
2083
2078
2078
2078
2078
2079
2079
2079
2085
2085
2085
2083
2083
2083
2081
2081
2081
2082
2082
2082
2082
2082
2082
2082
2085
2085
2085
2082
2082
2082
2087
2087
2087
2084
2084
2084
2084
2083
2083
2083
2081
2081
2081
2080
2080
2080
2079
2079
2079
2085
2085
2085
2085
2084
2084
2084
2083
2083
2083
2085
2085
2085
2083
2083
2083
2076
2076
2076
2076
2087
2087
2087
2083
2083
2083
2080
2080
2080
2080
2080
2080
2084
2084
2084
2084
2082
2082
2082
2084
2084
2084
2079
2079
2079
2084
2084
2084
2086
2086
2086
2086
2085
2085
2085
2086
2086
2086
2077
2077
2077
2084
2084
2084
2082
2082
2082
2082
2080
2080
2080
2082
2082
2082
2081
2081
2081
2087
2087
2087
2083
2083
2083
2083
2082
2082
2082
2083
2083
2083
2084
2084
2084
2083
2083
2083
2085
2085
2085
2085
2077
2077
2077
2083
2083
2083
2082
2082
2082
2081
2081
2081
2084
2084
2084
2084
2091
2091
2091
2081
2081
2081
2081
2081
2081
2085
2085
2085
2083
2083
2083
2083
2081
2081
2081
2081
2081
2081
2082
2082
2082
2081
2081
2081
2084
2084
2084
2084
2080
2080
2080
2082
2082
2082
2084
2084
2084
2082
2082
2082
2082
2082
2082
2082
2084
2084
2084
2082
2082
2082
2081
2081
2081
2081
2081
2081
2084
2084
2084
2084
2077
2077
2077
2083
2083
2083
2085
2085
2085
2080
2080
2080
2081
2081
2081
2081
2084
2084
2084
2085
2085
2085
2085
2085
2085
2083
2083
2083
2081
2081
2081
2081
2081
2081
2081
2080
2080
2080
2082
2082
2082
2083
2083
2083
2080
2080
2080
2080
2085
2085
2085
2075
2075
2075
2083
2083
2083
2078
2078
2078
2085
2085
2085
2085
2082
2082
2082
2083
2083
2083
2082
2082
2082
2083
2083
2083
2083
2083
2083
2083
2083
2083
2083
2083
2083
2083
2082
2082
2082
2081
2081
2081
2080
2080
2080
2080
2076
2076
2076
2083
2083
2083
2083
2083
2083
2079
2079
2079
2081
2081
2081
2081
2080
2080
2080
2090
2090
2090
2086
2086
2086
2081
2081
2081
2080
2080
2080
2080
2079
2079
2079
2085
2085
2085
2081
2081
2081
2081
2081
2081
2084
2084
2084
2084
2082
2082
2082
2082
2082
2082
2084
2084
2084
2083
2083
2083
2086
2086
2086
2086
2083
2083
2083
2087
2087
2087
2082
2082
2082
2083
2083
2083
2077
2077
2077
2077
2078
2078
2078
2083
2083
2083
2081
2081
2081
2079
2079
2079
2085
2085
2085
2085
2083
2083
2083
2085
2085
2085
2082
2082
2082
2081
2081
2081
2081
2081
2081
2081
2081
2081
2081
2083
2083
2083
2083
2083
2083
2077
2077
2077
2083
2083
2083
2083
2079
2079
2079
2084
2084
2084
2079
2079
2079
2086
2086
2086
2079
2079
2079
2079
2082
2082
2082
2083
2083
2083
2084
2084
2084
2082
2082
2082
2081
2081
2081
2081
2077
2077
2077
2085
2085
2085
2081
2081
2081
2081
2081
2081
2087
2087
2087
2087
2078
2078
2078
2080
2080
2080
2084
2084
2084
2084
2084
2084
2081
2081
2081
2081
2082
2082
2082
2082
2082
2082
2084
2084
2084
2077
2077
2077
2080
2080
2080
2080
2082
2082
2082
2084
2084
2084
2081
2081
2081
2083
2083
2083
2081
2081
2081
2081
2078
2078
2078
2082
2082
2082
2083
2083
2083
2083
2083
2083
2081
2081
2081
2081
2079
2079
2079
2085
2085
2085
2077
2077
2077
2081
2081
2081
2080
2080
2080
2080
2081
2081
2081
2084
2084
2084
2083
2083
2083
2083
2083
2083
2083
2083
2083
2083
2079
2079
2079
2085
2085
2085
2081
2081
2081
2080
2080
2080
2082
2082
2082
2082
2077
2077
2077
2088
2088
2088
2082
2082
2082
2081
2081
2081
2082
2082
2082
2082
2081
2081
2081
2083
2083
2083
2089
2089
2089
2082
2082
2082
2081
2081
2081
2081
2082
2082
2082
2082
2082
2082
2075
2075
2075
2083
2083
2083
2087
2087
2087
2087
2080
2080
2080
2083
2083
2083
2082
2082
2082
2081
2081
2081
2089
2089
2089
2089
2084
2084
2084
2084
2084
2084
2085
2085
2085
2082
2082
2082
2085
2085
2085
2085
2083
2083
2083
2079
2079
2079
2084
2084
2084
2077
2077
2077
2084
2084
2084
2084
2084
2084
2084
2082
2082
2082
2080
2080
2080
2081
2081
2081
2076
2076
2076
2076
2068
2068
2068
2081
2081
2081
2087
2087
2087
2082
2082
2082
2080
2080
2080
2080
2080
2080
2080
2081
2081
2081
2087
2087
2087
2085
2085
2085
2084
2084
2084
2084
2081
2081
2081
2088
2088
2088
2081
2081
2081
2084
2084
2084
2084
2084
2084
2084
2084
2084
2084
2080
2080
2080
2080
2080
2080
2082
2082
2082
2081
2081
2081
2081
2080
2080
2080
2082
2082
2082
2081
2081
2081
2088
2088
2088
2081
2081
2081
2081
2080
2080
2080
2086
2086
2086
2084
2084
2084
2082
2082
2082
2077
2077
2077
2077
2078
2078
2078
2084
2084
2084
2080
2080
2080
2084
2084
2084
2081
2081
2081
2081
2081
2081
2081
2081
2081
2081
2081
2081
2081
2081
2081
2081
2083
2083
2083
2083
2082
2082
2082
2089
2089
2089
2078
2078
2078
2083
2083
2083
2080
2080
2080
2080
2081
2081
2081
2087
2087
2087
2082
2082
2082
2083
2083
2083
2082
2082
2082
2082
2081
2081
2081
2083
2083
2083
2082
2082
2082
2083
2083
2083
2088
2088
2088
2088
2088
2088
2088
2081
2081
2081
2087
2087
2087
2083
2083
2083
2082
2082
2082
2082
2079
2079
2079
2082
2082
2082
2086
2086
2086
2084
2084
2084
2084
2084
2084
2084
2083
2083
2083
2086
2086
2086
2082
2082
2082
2080
2080
2080
2083
2083
2083
2083
2083
2083
2083
2085
2085
2085
2084
2084
2084
2081
2081
2081
2079
2079
2079
2079
2075
2075
2075
2085
2085
2085
2086
2086
2086
2080
2080
2080
2085
2085
2085
2085
2077
2077
2077
2082
2082
2082
2077
2077
2077
2082
2082
2082
2082
2082
2082
2082
2082
2082
2082
2083
2083
2083
2082
2082
2082
2083
2083
2083
2081
2081
2081
2081
2081
2081
2081
2081
2081
2081
2088
2088
2088
2083
2083
2083
2081
2081
2081
2081
2081
2081
2081
2081
2081
2081
2081
2081
2081
2086
2086
2086
2082
2082
2082
2082
2081
2081
2081
2082
2082
2082
2083
2083
2083
2082
2082
2082
2082
2082
2082
2082
2083
2083
2083
2084
2084
2084
2082
2082
2082
2081
2081
2081
2080
2080
2080
2080
2080
2080
2080
2082
2082
2082
2080
2080
2080
2085
2085
2085
2083
2083
2083
2083
2081
2081
2081
2082
2082
2082
2082
2082
2082
2081
2081
2081
2081
2081
2081
2081
2084
2084
2084
2088
2088
2088
2079
2079
2079
2081
2081
2081
2084
2084
2084
2084
2077
2077
2077
2089
2089
2089
2083
2083
2083
2083
2083
2083
2083
2083
2083
2083
2081
2081
2081
2083
2083
2083
2080
2080
2080
2081
2081
2081
2086
2086
2086
2086
2085
2085
2085
2084
2084
2084
2084
2084
2084
2082
2082
2082
2084
2084
2084
2084
2078
2078
2078
2087
2087
2087
2085
2085
2085
2082
2082
2082
2076
2076
2076
2076
2080
2080
2080
2084
2084
2084
2085
2085
2085
2086
2086
2086
2084
2084
2084
2084
2083
2083
2083
2082
2082
2082
2083
2083
2083
2081
2081
2081
2086
2086
2086
2086
2082
2082
2082
2081
2081
2081
2081
2081
2081
2080
2080
2080
2086
2086
2086
2086
2086
2086
2086
2092
2092
2092
2085
2085
2085
2080
2080
2080
2078
2078
2078
2078
2088
2088
2088
2083
2083
2083
2084
2084
2084
2081
2081
2081
2081
2081
2081
2081
2083
2083
2083
2084
2084
2084
2080
2080
2080
2083
2083
2083
2081
2081
2081
2081
2078
2078
2078
2075
2075
2075
2079
2079
2079
2092
2092
2092
2085
2085
2085
2085
2080
2080
2080
2083
2083
2083
2084
2084
2084
2083
2083
2083
2081
2081
2081
2081
2081
2081
2081
2083
2083
2083
2082
2082
2082
2087
2087
2087
2087
2087
2087
2087
2087
2087
2087
2082
2082
2082
2079
2079
2079
2083
2083
2083
2083
2083
2083
2083
2079
2079
2079
2087
2087
2087
2082
2082
2082
2083
2083
2083
2077
2077
2077
2077
2078
2078
2078
2082
2082
2082
2074
2074
2074
2079
2079
2079
2084
2084
2084
2084
2083
2083
2083
2079
2079
2079
2081
2081
2081
2082
2082
2082
2081
2081
2081
2081
2081
2081
2081
2081
2081
2081
2086
2086
2086
2084
2084
2084
2079
2079
2079
2079
2084
2084
2084
2084
2084
2084
2079
2079
2079
2080
2080
2080
2078
2078
2078
2078
2084
2084
2084
2083
2083
2083
2085
2085
2085
2083
2083
2083
2082
2082
2082
2082
2083
2083
2083
2084
2084
2084
2077
2077
2077
2080
2080
2080
2085
2085
2085
2085
2083
2083
2083
2091
2091
2091
2083
2083
2083
2077
2077
2077
2080
2080
2080
2080
2082
2082
2082
2079
2079
2079
2083
2083
2083
2082
2082
2082
2083
2083
2083
2083
2082
2082
2082
2085
2085
2085
2084
2084
2084
2082
2082
2082
2083
2083
2083
2083
2082
2082
2082
2086
2086
2086
2082
2082
2082
2081
2081
2081
2085
2085
2085
2085
2080
2080
2080
2083
2083
2083
2082
2082
2082
2082
2082
2082
2081
2081
2081
2081
2081
2081
2081
2082
2082
2082
2080
2080
2080
2081
2081
2081
2081
2081
2081
2081
2079
2079
2079
2087
2087
2087
2084
2084
2084
2078
2078
2078
2079
2079
2079
2079
2082
2082
2082
2087
2087
2087
2080
2080
2080
2082
2082
2082
2081
2081
2081
2081
2081
2081
2081
2082
2082
2082
2083
2083
2083
2083
2083
2083
2080
2080
2080
2080
2080
2080
2080
2083
2083
2083
2079
2079
2079
2080
2080
2080
2085
2085
2085
2085
2080
2080
2080
2081
2081
2081
2085
2085
2085
2082
2082
2082
2084
2084
2084
2084
2083
2083
2083
2083
2083
2083
2083
2083
2083
2083
2083
2083
2084
2084
2084
2084
2082
2082
2082
2085
2085
2085
2084
2084
2084
2086
2086
2086
2082
2082
2082
2082
2084
2084
2084
2079
2079
2079
2086
2086
2086
2086
2086
2086
2081
2081
2081
2081
2085
2085
2085
2085
2085
2085
2086
2086
2086
2081
2081
2081
2086
2086
2086
2086
2077
2077
2077
2084
2084
2084
2079
2079
2079
2082
2082
2082
2084
2084
2084
2084
2080
2080
2080
2082
2082
2082
2087
2087
2087
2080
2080
2080
2083
2083
2083
2083
2081
2081
2081
2081
2081
2081
2085
2085
2085
2084
2084
2084
2084
2084
2084
2084
2083
2083
2083
2083
2083
2083
2082
2082
2082
2082
2082
2082
2082
2082
2082
2082
2078
2078
2078
2082
2082
2082
2084
2084
2084
2083
2083
2083
2082
2082
2082
2082
2083
2083
2083
2080
2080
2080
2078
2078
2078
2078
2078
2078
2081
2081
2081
2081
2079
2079
2079
2083
2083
2083
2079
2079
2079
2083
2083
2083
2082
2082
2082
2082
2082
2082
2082
2084
2084
2084
2083
2083
2083
2082
2082
2082
2082
2082
2082
2082
2086
2086
2086
2088
2088
2088
2080
2080
2080
2080
2080
2080
2081
2081
2081
2081
2083
2083
2083
2083
2083
2083
2083
2083
2083
2083
2083
2083
2084
2084
2084
2084
2081
2081
2081
2084
2084
2084
2082
2082
2082
2082
2082
2082
2080
2080
2080
2080
2080
2080
2080
2084
2084
2084
2089
2089
2089
2085
2085
2085
2080
2080
2080
2080
2082
2082
2082
2083
2083
2083
2082
2082
2082
2081
2081
2081
2083
2083
2083
2083
2083
2083
2083
2084
2084
2084
2082
2082
2082
2084
2084
2084
2083
2083
2083
2083
2080
2080
2080
2087
2087
2087
2083
2083
2083
2082
2082
2082
2084
2084
2084
2084
2082
2082
2082
2077
2077
2077
2085
2085
2085
2084
2084
2084
2085
2085
2085
2085
2082
2082
2082
2084
2084
2084
2083
2083
2083
2082
2082
2082
2085
2085
2085
2085
2080
2080
2080
2084
2084
2084
2085
2085
2085
2082
2082
2082
2082
2082
2082
2082
2085
2085
2085
2083
2083
2083
2090
2090
2090
2079
2079
2079
2084
2084
2084
2084
2083
2083
2083
2084
2084
2084
2089
2089
2089
2082
2082
2082
2083
2083
2083
2083
2081
2081
2081
2082
2082
2082
2082
2082
2082
2078
2078
2078
2082
2082
2082
2082
2084
2084
2084
2077
2077
2077
2083
2083
2083
2081
2081
2081
2084
2084
2084
2084
2079
2079
2079
2081
2081
2081
2080
2080
2080
2082
2082
2082
2084
2084
2084
2084
2081
2081
2081
2085
2085
2085
2086
2086
2086
2081
2081
2081
2077
2077
2077
2077
2075
2075
2075
2086
2086
2086
2085
2085
2085
2086
2086
2086
2081
2081
2081
2081
2082
2082
2082
2084
2084
2084
2085
2085
2085
2084
2084
2084
2082
2082
2082
2082
2080
2080
2080
2086
2086
2086
2082
2082
2082
2083
2083
2083
2084
2084
2084
2084
2079
2079
2079
2085
2085
2085
2084
2084
2084
2080
2080
2080
2080
2080
2080
2080
2079
2079
2079
2079
2079
2079
2084
2084
2084
2089
2089
2089
2084
2084
2084
2084
2064
2064
2064
2085
2085
2085
2084
2084
2084
2081
2081
2081
2081
2081
2081
2081
2080
2080
2080
2083
2083
2083
2082
2082
2082
2083
2083
2083
2083
2083
2083
2083
2086
2086
2086
2085
2085
2085
2084
2084
2084
2082
2082
2082
2082
2082
2082
2082
2081
2081
2081
2082
2082
2082
2084
2084
2084
2078
2078
2078
2082
2082
2082
2082
2081
2081
2081
2082
2082
2082
2081
2081
2081
2082
2082
2082
2081
2081
2081
2081
2085
2085
2085
2086
2086
2086
2086
2086
2086
2083
2083
2083
2082
2082
2082
2082
2081
2081
2081
2082
2082
2082
2079
2079
2079
2083
2083
2083
2082
2082
2082
2082
2082
2082
2082
2083
2083
2083
2080
2080
2080
2081
2081
2081
2084
2084
2084
2084
2088
2088
2088
2083
2083
2083
2083
2083
2083
2082
2082
2082
2083
2083
2083
2083
2083
2083
2083
2086
2086
2086
2082
2082
2082
2080
2080
2080
2087
2087
2087
2087
2082
2082
2082
2085
2085
2085
2085
2085
2085
2082
2082
2082
2081
2081
2081
2081
2081
2081
2081
2074
2074
2074
2087
2087
2087
2083
2083
2083
2090
2090
2090
2090
2085
2085
2085
2087
2087
2087
2086
2086
2086
2078
2078
2078
2084
2084
2084
2084
2080
2080
2080
2084
2084
2084
2082
2082
2082
2083
2083
2083
2083
2083
2083
2083
2082
2082
2082
2089
2089
2089
2081
2081
2081
2079
2079
2079
2082
2082
2082
2082
2079
2079
2079
2083
2083
2083
2083
2083
2083
2079
2079
2079
2080
2080
2080
2080
2085
2085
2085
2083
2083
2083
2086
2086
2086
2084
2084
2084
2078
2078
2078
2078
2082
2082
2082
2082
2082
2082
2083
2083
2083
2083
2083
2083
2087
2087
2087
2087
2078
2078
2078
2085
2085
2085
2085
2085
2085
2085
2085
2085
2082
2082
2082
2082
2082
2082
2082
2083
2083
2083
2085
2085
2085
2085
2085
2085
2084
2084
2084
2084
2082
2082
2082
2084
2084
2084
2084
2084
2084
2088
2088
2088
2082
2082
2082
2082
2086
2086
2086
2087
2087
2087
2078
2078
2078
2081
2081
2081
2085
2085
2085
2085
2082
2082
2082
2083
2083
2083
2076
2076
2076
2079
2079
2079
2085
2085
2085
2085
2087
2087
2087
2084
2084
2084
2084
2084
2084
2082
2082
2082
2087
2087
2087
2087
2079
2079
2079
2084
2084
2084
2078
2078
2078
2084
2084
2084
2082
2082
2082
2082
2083
2083
2083
2085
2085
2085
2086
2086
2086
2083
2083
2083
2080
2080
2080
2080
2082
2082
2082
2086
2086
2086
2083
2083
2083
2078
2078
2078
2082
2082
2082
2082
2080
2080
2080
2083
2083
2083
2082
2082
2082
2084
2084
2084
2084
2084
2084
2084
2079
2079
2079
2078
2078
2078
2086
2086
2086
2089
2089
2089
2085
2085
2085
2085
2084
2084
2084
2082
2082
2082
2080
2080
2080
2082
2082
2082
2084
2084
2084
2084
2076
2076
2076
2084
2084
2084
2082
2082
2082
2083
2083
2083
2083
2083
2083
2083
2086
2086
2086
2086
2086
2086
2079
2079
2079
2085
2085
2085
2085
2085
2085
2085
2083
2083
2083
2081
2081
2081
2085
2085
2085
2082
2082
2082
2081
2081
2081
2081
2083
2083
2083
2078
2078
2078
2082
2082
2082
2083
2083
2083
2084
2084
2084
2084
2080
2080
2080
2084
2084
2084
2081
2081
2081
2083
2083
2083
2084
2084
2084
2084
2081
2081
2081
2084
2084
2084
2083
2083
2083
2081
2081
2081
2086
2086
2086
2086
2081
2081
2081
2083
2083
2083
2078
2078
2078
2082
2082
2082
2082
2082
2082
2082
2083
2083
2083
2085
2085
2085
2082
2082
2082
2080
2080
2080
2083
2083
2083
2083
2081
2081
2081
2079
2079
2079
2086
2086
2086
2081
2081
2081
2082
2082
2082
2082
2081
2081
2081
2078
2078
2078
2084
2084
2084
2079
2079
2079
2081
2081
2081
2081
2080
2080
2080
2081
2081
2081
2085
2085
2085
2084
2084
2084
2081
2081
2081
2081
2078
2078
2078
2082
2082
2082
2083
2083
2083
2083
2083
2083
2087
2087
2087
2087
2082
2082
2082
2082
2082
2082
2086
2086
2086
2084
2084
2084
2083
2083
2083
2083
2076
2076
2076
2082
2082
2082
2083
2083
2083
2084
2084
2084
2083
2083
2083
2083
2085
2085
2085
2089
2089
2089
2083
2083
2083
2086
2086
2086
2078
2078
2078
2078
2082
2082
2082
2083
2083
2083
2084
2084
2084
2088
2088
2088
2082
2082
2082
2082
2081
2081
2081
2081
2081
2081
2084
2084
2084
2082
2082
2082
2082
2082
2082
2082
2083
2083
2083
2084
2084
2084
2084
2084
2084
2080
2080
2080
2080
2080
2080
2080
2079
2079
2079
2082
2082
2082
2085
2085
2085
2086
2086
2086
2082
2082
2082
2082
2084
2084
2084
2081
2081
2081
2081
2081
2081
2082
2082
2082
2083
2083
2083
2083
2081
2081
2081
2084
2084
2084
2083
2083
2083
2082
2082
2082
2083
2083
2083
2083
2083
2083
2083
2084
2084
2084
2078
2078
2078
2081
2081
2081
2079
2079
2079
2079
2081
2081
2081
2077
2077
2077
2081
2081
2081
2082
2082
2082
2083
2083
2083
2083
2083
2083
2083
2084
2084
2084
2084
2084
2084
2083
2083
2083
2086
2086
2086
2086
2078
2078
2078
2086
2086
2086
2086
2086
2086
2083
2083
2083
2078
2078
2078
2078
2083
2083
2083
2082
2082
2082
2082
2082
2082
2081
2081
2081
2082
2082
2082
2082
2081
2081
2081
2082
2082
2082
2084
2084
2084
2081
2081
2081
2085
2085
2085
2085
2081
2081
2081
2078
2078
2078
2081
2081
2081
2083
2083
2083
2084
2084
2084
2084
2081
2081
2081
2087
2087
2087
2083
2083
2083
2083
2083
2083
2082
2082
2082
2082
2082
2082
2082
2085
2085
2085
2082
2082
2082
2082
2082
2082
2083
2083
2083
2083
2080
2080
2080
2083
2083
2083
2082
2082
2082
2082
2082
2082
2085
2085
2085
2085
2082
2082
2082
2083
2083
2083
2076
2076
2076
2081
2081
2081
2085
2085
2085
2085
2082
2082
2082
2085
2085
2085
2083
2083
2083
2081
2081
2081
2085
2085
2085
2085
2079
2079
2079
2085
2085
2085
2085
2085
2085
2082
2082
2082
2080
2080
2080
2080
2083
2083
2083
2085
2085
2085
2083
2083
2083
2082
2082
2082
2081
2081
2081
2081
2083
2083
2083
2082
2082
2082
2078
2078
2078
2082
2082
2082
2081
2081
2081
2081
2079
2079
2079
2084
2084
2084
2081
2081
2081
2082
2082
2082
2082
2082
2082
2082
2086
2086
2086
2086
2086
2086
2079
2079
2079
2077
2077
2077
2081
2081
2081
2081
2079
2079
2079
2083
2083
2083
2085
2085
2085
2083
2083
2083
2081
2081
2081
2081
2079
2079
2079
2083
2083
2083
2083
2083
2083
2080
2080
2080
2080
2080
2080
2080
2082
2082
2082
2078
2078
2078
2081
2081
2081
2084
2084
2084
2083
2083
2083
2083
2084
2084
2084
2092
2092
2092
2081
2081
2081
2078
2078
2078
2083
2083
2083
2083
2086
2086
2086
2085
2085
2085
2082
2082
2082
2082
2082
2082
2086
2086
2086
2086
2084
2084
2084
2084
2084
2084
2086
2086
2086
2081
2081
2081
2087
2087
2087
2087
2084
2084
2084
2087
2087
2087
2083
2083
2083
2082
2082
2082
2079
2079
2079
2079
2081
2081
2081
2085
2085
2085
2082
2082
2082
2084
2084
2084
2081
2081
2081
2081
2081
2081
2081
2082
2082
2082
2084
2084
2084
2081
2081
2081
2083
2083
2083
2083
2085
2085
2085
2080
2080
2080
2081
2081
2081
2077
2077
2077
2078
2078
2078
2078
2081
2081
2081
2079
2079
2079
2083
2083
2083
2083
2083
2083
2082
2082
2082
2082
2079
2079
2079
2084
2084
2084
2081
2081
2081
2081
2081
2081
2082
2082
2082
2082
2085
2085
2085
2087
2087
2087
2082
2082
2082
2080
2080
2080
2085
2085
2085
2085
2078
2078
2078
2082
2082
2082
2082
2082
2082
2085
2085
2085
2084
2084
2084
2084
2082
2082
2082
2085
2085
2085
2083
2083
2083
2083
2083
2083
2082
2082
2082
2082
2083
2083
2083
2083
2083
2083
2080
2080
2080
2085
2085
2085
2085
2085
2085
2085
2083
2083
2083
2093
2093
2093
2080
2080
2080
2085
2085
2085
2084
2084
2084
2084
2081
2081
2081
2085
2085
2085
2084
2084
2084
2081
2081
2081
2083
2083
2083
2083
2086
2086
2086
2086
2086
2086
2080
2080
2080
2082
2082
2082
2081
2081
2081
2081
2086
2086
2086
2080
2080
2080
2079
2079
2079
2084
2084
2084
2083
2083
2083
2083
2082
2082
2082
2082
2082
2082
2084
2084
2084
2084
2084
2084
2083
2083
2083
2083
2083
2083
2083
2081
2081
2081
2082
2082
2082
2082
2082
2082
2082
2082
2082
2082
2076
2076
2076
2086
2086
2086
2077
2077
2077
2074
2074
2074
2077
2077
2077
2077
2084
2084
2084
2084
2084
2084
2082
2082
2082
2082
2082
2082
2081
2081
2081
2081
2081
2081
2081
2083
2083
2083
2086
2086
2086
2083
2083
2083
2081
2081
2081
2081
2081
2081
2081
2082
2082
2082
2085
2085
2085
2085
2085
2085
2081
2081
2081
2081
2080
2080
2080
2082
2082
2082
2081
2081
2081
2082
2082
2082
2085
2085
2085
2085
2082
2082
2082
2084
2084
2084
2083
2083
2083
2082
2082
2082
2082
2082
2082
2082
2083
2083
2083
2089
2089
2089
2082
2082
2082
2085
2085
2085
2083
2083
2083
2083
2084
2084
2084
2085
2085
2085
2077
2077
2077
2079
2079
2079
2077
2077
2077
2077
2082
2082
2082
2082
2082
2082
2081
2081
2081
2083
2083
2083
2086
2086
2086
2086
2087
2087
2087
2086
2086
2086
2079
2079
2079
2083
2083
2083
2079
2079
2079
2079
2081
2081
2081
2080
2080
2080
2078
2078
2078
2084
2084
2084
2087
2087
2087
2087
2083
2083
2083
2083
2083
2083
2083
2083
2083
2087
2087
2087
2082
2082
2082
2082
2083
2083
2083
2083
2083
2083
2080
2080
2080
2088
2088
2088
2084
2084
2084
2084
2085
2085
2085
2079
2079
2079
2079
2079
2079
2080
2080
2080
2080
2080
2080
2080
2082
2082
2082
2084
2084
2084
2086
2086
2086
2081
2081
2081
2083
2083
2083
2083
2082
2082
2082
2084
2084
2084
2081
2081
2081
2084
2084
2084
2084
2084
2084
2084
2080
2080
2080
2088
2088
2088
2087
2087
2087
2084
2084
2084
2079
2079
2079
2079
2078
2078
2078
2084
2084
2084
2082
2082
2082
2086
2086
2086
2084
2084
2084
2084
2080
2080
2080
2084
2084
2084
2083
2083
2083
2088
2088
2088
2083
2083
2083
2083
2081
2081
2081
2084
2084
2084
2081
2081
2081
2085
2085
2085
2082
2082
2082
2082
2085
2085
2085
2083
2083
2083
2084
2084
2084
2081
2081
2081
2085
2085
2085
2085
2082
2082
2082
2087
2087
2087
2083
2083
2083
2083
2083
2083
2083
2083
2083
2083
2084
2084
2084
2083
2083
2083
2084
2084
2084
2084
2084
2084
2083
2083
2083
2083
2083
2083
2083
2078
2078
2078
2083
2083
2083
2081
2081
2081
2087
2087
2087
2087
2083
2083
2083
2081
2081
2081
2080
2080
2080
2080
2080
2080
2086
2086
2086
2086
2081
2081
2081
2082
2082
2082
2084
2084
2084
2084
2084
2084
2081
2081
2081
2081
2079
2079
2079
2085
2085
2085
2088
2088
2088
2085
2085
2085
2084
2084
2084
2084
2073
2073
2073
2081
2081
2081
2079
2079
2079
2087
2087
2087
2086
2086
2086
2086
2083
2083
2083
2085
2085
2085
2081
2081
2081
2083
2083
2083
2083
2083
2083
2083
2082
2082
2082
2084
2084
2084
2083
2083
2083
2083
2083
2083
2082
2082
2082
2082
2083
2083
2083
2078
2078
2078
2078
2078
2078
2078
2078
2078
2087
2087
2087
2087
2083
2083
2083
2085
2085
2085
2083
2083
2083
2082
2082
2082
2081
2081
2081
2081
2083
2083
2083
2082
2082
2082
2083
2083
2083
2084
2084
2084
2082
2082
2082
2082
2082
2082
2082
2084
2084
2084
2082
2082
2082
2083
2083
2083
2087
2087
2087
2087
2084
2084
2084
2085
2085
2085
2079
2079
2079
2087
2087
2087
2080
2080
2080
2080
2082
2082
2082
2085
2085
2085
2084
2084
2084
2080
2080
2080
2083
2083
2083
2083
2081
2081
2081
2083
2083
2083
2081
2081
2081
2084
2084
2084
2085
2085
2085
2085
2080
2080
2080
2078
2078
2078
2088
2088
2088
2085
2085
2085
2079
2079
2079
2079
2085
2085
2085
2087
2087
2087
2082
2082
2082
2075
2075
2075
2080
2080
2080
2080
2082
2082
2082
2085
2085
2085
2082
2082
2082
2083
2083
2083
2083
2083
2083
2083
2081
2081
2081
2082
2082
2082
2083
2083
2083
2081
2081
2081
2083
2083
2083
2083
2086
2086
2086
2084
2084
2084
2079
2079
2079
2082
2082
2082
2082
2082
2082
2082
2083
2083
2083
2086
2086
2086
2086
2086
2086
2081
2081
2081
2083
2083
2083
2083
2083
2083
2083
2084
2084
2084
2085
2085
2085
2083
2083
2083
2088
2088
2088
2088
2087
2087
2087
2080
2080
2080
2083
2083
2083
2083
2083
2083
2083
2083
2083
2083
2083
2083
2083
2082
2082
2082
2087
2087
2087
2087
2087
2087
2079
2079
2079
2079
2082
2082
2082
2088
2088
2088
2084
2084
2084
2080
2080
2080
2084
2084
2084
2084
2080
2080
2080
2086
2086
2086
2083
2083
2083
2082
2082
2082
2084
2084
2084
2084
2084
2084
2084
2080
2080
2080
2083
2083
2083
2084
2084
2084
2080
2080
2080
2080
2085
2085
2085
2078
2078
2078
2086
2086
2086
2085
2085
2085
2083
2083
2083
2083
2082
2082
2082
2083
2083
2083
2082
2082
2082
2083
2083
2083
2082
2082
2082
2082
2082
2082
2082
2085
2085
2085
2082
2082
2082
2086
2086
2086
2081
2081
2081
2081
2085
2085
2085
2082
2082
2082
2081
2081
2081
2083
2083
2083
2081
2081
2081
2081
2083
2083
2083
2083
2083
2083
2084
2084
2084
2083
2083
2083
2081
2081
2081
2081
2082
2082
2082
2085
2085
2085
2082
2082
2082
2083
2083
2083
2080
2080
2080
2080
2079
2079
2079
2090
2090
2090
2079
2079
2079
2085
2085
2085
2087
2087
2087
2087
2083
2083
2083
2085
2085
2085
2082
2082
2082
2082
2082
2082
2083
2083
2083
2083
2082
2082
2082
2080
2080
2080
2082
2082
2082
2076
2076
2076
2084
2084
2084
2084
2079
2079
2079
2085
2085
2085
2081
2081
2081
2086
2086
2086
2084
2084
2084
2084
2083
2083
2083
2087
2087
2087
2082
2082
2082
2082
2082
2082
2080
2080
2080
2080
2083
2083
2083
2084
2084
2084
2076
2076
2076
2083
2083
2083
2084
2084
2084
2084
2083
2083
2083
2083
2083
2083
2083
2083
2083
2084
2084
2084
2084
2084
2084
2084
2081
2081
2081
2085
2085
2085
2086
2086
2086
2080
2080
2080
2078
2078
2078
2078
2081
2081
2081
2079
2079
2079
2081
2081
2081
2087
2087
2087
2085
2085
2085
2085
2082
2082
2082
2090
2090
2090
2082
2082
2082
2081
2081
2081
2082
2082
2082
2082
2079
2079
2079
2085
2085
2085
2083
2083
2083
2081
2081
2081
2086
2086
2086
2086
2083
2083
2083
2085
2085
2085
2087
2087
2087
2086
2086
2086
2087
2087
2087
2087
2082
2082
2082
2085
