2167
2167
2167
2165
2165
2165
2164
2164
2164
2170
2170
2170
2164
2164
2164
2173
2173
2173
2173
2165
2165
2165
2165
2165
2165
2169
2169
2169
2162
2162
2162
2172
2172
2172
2172
2169
2169
2169
2163
2163
2163
2171
2171
2171
2163
2163
2163
2169
2169
2169
2169
2170
2170
2170
2166
2166
2166
2166
2166
2166
2163
2163
2163
2167
2167
2167
2167
2166
2166
2166
2164
2164
2164
2169
2169
2169
2163
2163
2163
2169
2169
2169
2169
2168
2168
2168
2163
2163
2163
2169
2169
2169
2164
2164
2164
2169
2169
2169
2169
2167
2167
2167
2165
2165
2165
2168
2168
2168
2163
2163
2163
2171
2171
2171
2171
2167
2167
2167
2164
2164
2164
2170
2170
2170
2163
2163
2163
2174
2174
2174
2174
2171
2171
2171
2168
2168
2168
2170
2170
2170
2164
2164
2164
2163
2163
2163
2163
2167
2167
2167
2163
2163
2163
2170
2170
2170
2163
2163
2163
2170
2170
2170
2170
2163
2163
2163
2166
2166
2166
2167
2167
2167
2163
2163
2163
2168
2168
2168
2168
2168
2168
2168
2164
2164
2164
2169
2169
2169
2165
2165
2165
2170
2170
2170
2170
2171
2171
2171
2165
2165
2165
2170
2170
2170
2150
2150
2150
2168
2168
2168
2168
2164
2164
2164
2165
2165
2165
2168
2168
2168
2165
2165
2165
2171
2171
2171
2171
2162
2162
2162
2163
2163
2163
2167
2167
2167
2162
2162
2162
2170
2170
2170
2170
2165
2165
2165
2166
2166
2166
2170
2170
2170
2164
2164
2164
2166
2166
2166
2166
2168
2168
2168
2167
2167
2167
2167
2167
2167
2162
2162
2162
2167
2167
2167
2167
2170
2170
2170
2168
2168
2168
2170
2170
2170
2165
2165
2165
2170
2170
2170
2170
2169
2169
2169
2165
2165
2165
2174
2174
2174
2163
2163
2163
2168
2168
2168
2168
2169
2169
2169
2162
2162
2162
2168
2168
2168
2162
2162
2162
2168
2168
2168
2168
2168
2168
2168
2164
2164
2164
2169
2169
2169
2156
2156
2156
2165
2165
2165
2165
2164
2164
2164
2166
2166
2166
2166
2166
2166
2163
2163
2163
2170
2170
2170
2170
2171
2171
2171
2162
2162
2162
2166
2166
2166
2164
2164
2164
2164
2164
2164
2164
2168
2168
2168
2165
2165
2165
2172
2172
2172
2162
2162
2162
2172
2172
2172
2172
2166
2166
2166
2169
2169
2169
2170
2170
2170
2167
2167
2167
2171
2171
2171
2171
2169
2169
2169
2163
2163
2163
2170
2170
2170
2162
2162
2162
2168
2168
2168
2168
2167
2167
2167
2165
2165
2165
2167
2167
2167
2162
2162
2162
2170
2170
2170
2170
2169
2169
2169
2163
2163
2163
2169
2169
2169
2162
2162
2162
2165
2165
2165
2165
2169
2169
2169
2166
2166
2166
2168
2168
2168
2165
2165
2165
2168
2168
2168
2168
2166
2166
2166
2165
2165
2165
2170
2170
2170
2165
2165
2165
2170
2170
2170
2170
2165
2165
2165
2165
2165
2165
2170
2170
2170
2165
2165
2165
2171
2171
2171
2171
2169
2169
2169
2167
2167
2167
2169
2169
2169
2164
2164
2164
2173
2173
2173
2173
2170
2170
2170
2162
2162
2162
2170
2170
2170
2163
2163
2163
2168
2168
2168
2168
2168
2168
2168
2164
2164
2164
2164
2164
2164
2164
2164
2164
2168
2168
2168
2168
2167
2167
2167
2164
2164
2164
2170
2170
2170
2166
2166
2166
2170
2170
2170
2170
2170
2170
2170
2164
2164
2164
2169
2169
2169
2168
2168
2168
2169
2169
2169
2169
2177
2177
2177
2163
2163
2163
2169
2169
2169
2163
2163
2163
2170
2170
2170
2170
2170
2170
2170
2163
2163
2163
2168
2168
2168
2163
2163
2163
2164
2164
2164
2164
2166
2166
2166
2161
2161
2161
2170
2170
2170
2165
2165
2165
2172
2172
2172
2172
2167
2167
2167
2163
2163
2163
2168
2168
2168
2163
2163
2163
2167
2167
2167
2167
2165
2165
2165
2165
2165
2165
2170
2170
2170
2167
2167
2167
2170
2170
2170
2170
2167
2167
2167
2161
2161
2161
2173
2173
2173
2165
2165
2165
2167
2167
2167
2167
2169
2169
2169
2161
2161
2161
2171
2171
2171
2167
2167
2167
2168
2168
2168
2168
2164
2164
2164
2167
2167
2167
2171
2171
2171
2165
2165
2165
2169
2169
2169
2169
2169
2169
2169
2165
2165
2165
2176
2176
2176
2162
2162
2162
2164
2164
2164
2164
2171
2171
2171
2165
2165
2165
2170
2170
2170
2163
2163
2163
2175
2175
2175
2175
2169
2169
2169
2163
2163
2163
2170
2170
2170
2163
2163
2163
2169
2169
2169
2169
2166
2166
2166
2161
2161
2161
2175
2175
2175
2163
2163
2163
2166
2166
2166
2166
2170
2170
2170
2165
2165
2165
2173
2173
2173
2162
2162
2162
2167
2167
2167
2167
2169
2169
2169
2162
2162
2162
2167
2167
2167
2163
2163
2163
2170
2170
2170
2170
2172
2172
2172
2162
2162
2162
2167
2167
2167
2166
2166
2166
2171
2171
2171
2171
2167
2167
2167
2165
2165
2165
2167
2167
2167
2168
2168
2168
2171
2171
2171
2171
2169
2169
2169
2161
2161
2161
2166
2166
2166
2168
2168
2168
2172
2172
2172
2172
2170
2170
2170
2163
2163
2163
2166
2166
2166
2162
2162
2162
2166
2166
2166
2166
2169
2169
2169
2166
2166
2166
2167
2167
2167
2162
2162
2162
2171
2171
2171
2171
2168
2168
2168
2164
2164
2164
2171
2171
2171
2162
2162
2162
2175
2175
2175
2175
2165
2165
2165
2164
2164
2164
2170
2170
2170
2168
2168
2168
2171
2171
2171
2171
2170
2170
2170
2164
2164
2164
2169
2169
2169
2167
2167
2167
2172
2172
2172
2172
2167
2167
2167
2167
2167
2167
2168
2168
2168
2169
2169
2169
2171
2171
2171
2171
2167
2167
2167
2167
2167
2167
2168
2168
2168
2162
2162
2162
2169
2169
2169
2169
2167
2167
2167
2163
2163
2163
2171
2171
2171
2166
2166
2166
2169
2169
2169
2169
2168
2168
2168
2165
2165
2165
2172
2172
2172
2163
2163
2163
2172
2172
2172
2172
2168
2168
2168
2165
2165
2165
2167
2167
2167
2164
2164
2164
2167
2167
2167
2167
2170
2170
2170
2164
2164
2164
2171
2171
2171
2157
2157
2157
2165
2165
2165
2165
2169
2169
2169
2165
2165
2165
2166
2166
2166
2166
2166
2166
2165
2165
2165
2165
2168
2168
2168
2163
2163
2163
2170
2170
2170
2164
2164
2164
2173
2173
2173
2173
2167
2167
2167
2162
2162
2162
2169
2169
2169
2164
2164
2164
2168
2168
2168
2168
2161
2161
2161
2164
2164
2164
2168
2168
2168
2163
2163
2163
2169
2169
2169
2169
2168
2168
2168
2168
2168
2168
2168
2168
2168
2166
2166
2166
2166
2166
2166
2166
2172
2172
2172
2164
2164
2164
2171
2171
2171
2167
2167
2167
2169
2169
2169
2169
2174
2174
2174
2163
2163
2163
2170
2170
2170
2162
2162
2162
2165
2165
2165
2165
2169
2169
2169
2165
2165
2165
2167
2167
2167
2167
2167
2167
2173
2173
2173
2173
2169
2169
2169
2163
2163
2163
2169
2169
2169
2164
2164
2164
2167
2167
2167
2167
2168
2168
2168
2163
2163
2163
2174
2174
2174
2165
2165
2165
2168
2168
2168
2168
2171
2171
2171
2164
2164
2164
2167
2167
2167
2164
2164
2164
2170
2170
2170
2170
2168
2168
2168
2165
2165
2165
2168
2168
2168
2169
2169
2169
2169
2169
2169
2169
2171
2171
2171
2165
2165
2165
2170
2170
2170
2166
2166
2166
2169
2169
2169
2169
2169
2169
2169
2166
2166
2166
2168
2168
2168
2164
2164
2164
2171
2171
2171
2171
2170
2170
2170
2162
2162
2162
2170
2170
2170
2165
2165
2165
2172
2172
2172
2172
2169
2169
2169
2164
2164
2164
2170
2170
2170
2165
2165
2165
2170
2170
2170
2170
2170
2170
2170
2164
2164
2164
2169
2169
2169
2165
2165
2165
2171
2171
2171
2171
2168
2168
2168
2165
2165
2165
2169
2169
2169
2169
2169
2169
2167
2167
2167
2167
2174
2174
2174
2167
2167
2167
2170
2170
2170
2165
2165
2165
2171
2171
2171
2171
2168
2168
2168
2169
2169
2169
2170
2170
2170
2166
2166
2166
2172
2172
2172
2172
2170
2170
2170
2166
2166
2166
2166
2166
2166
2162
2162
2162
2168
2168
2168
2168
2170
2170
2170
2162
2162
2162
2172
2172
2172
2165
2165
2165
2170
2170
2170
2170
2170
2170
2170
2163
2163
2163
2168
2168
2168
2164
2164
2164
2169
2169
2169
2169
2168
2168
2168
2165
2165
2165
2168
2168
2168
2166
2166
2166
2168
2168
2168
2168
2171
2171
2171
2168
2168
2168
2170
2170
2170
2164
2164
2164
2167
2167
2167
2167
2173
2173
2173
2164
2164
2164
2169
2169
2169
2166
2166
2166
2170
2170
2170
2170
2170
2170
2170
2168
2168
2168
2170
2170
2170
2166
2166
2166
2164
2164
2164
2164
2166
2166
2166
2164
2164
2164
2167
2167
2167
2160
2160
2160
2167
2167
2167
2167
2169
2169
2169
2160
2160
2160
2168
2168
2168
2166
2166
2166
2168
2168
2168
2168
2167
2167
2167
2165
2165
2165
2166
2166
2166
2166
2166
2166
2168
2168
2168
2168
2170
2170
2170
2167
2167
2167
2171
2171
2171
2167
2167
2167
2171
2171
2171
2171
2168
2168
2168
2165
2165
2165
2173
2173
2173
2167
2167
2167
2173
2173
2173
2173
2167
2167
2167
2165
2165
2165
2169
2169
2169
2166
2166
2166
2167
2167
2167
2167
2169
2169
2169
2159
2159
2159
2165
2165
2165
2167
2167
2167
2166
2166
2166
2166
2168
2168
2168
2163
2163
2163
2167
2167
2167
2165
2165
2165
2166
2166
2166
2166
2170
2170
2170
2168
2168
2168
2167
2167
2167
2165
2165
2165
2168
2168
2168
2168
2167
2167
2167
2166
2166
2166
2167
2167
2167
2167
2167
2167
2168
2168
2168
2168
2164
2164
2164
2165
2165
2165
2171
2171
2171
2159
2159
2159
2166
2166
2166
2166
2168
2168
2168
2158
2158
2158
2167
2167
2167
2163
2163
2163
2163
2163
2163
2163
2169
2169
2169
2162
2162
2162
2165
2165
2165
2165
2165
2165
2170
2170
2170
2170
2170
2170
2170
2164
2164
2164
2173
2173
2173
2166
2166
2166
2169
2169
2169
2169
2168
2168
2168
2164
2164
2164
2168
2168
2168
2165
2165
2165
2170
2170
2170
2170
2168
2168
2168
2166
2166
2166
2167
2167
2167
2161
2161
2161
2167
2167
2167
2167
2168
2168
2168
2163
2163
2163
2166
2166
2166
2166
2166
2166
2163
2163
2163
2163
2169
2169
2169
2160
2160
2160
2165
2165
2165
2165
2165
2165
2170
2170
2170
2170
2166
2166
2166
2163
2163
2163
2165
2165
2165
2162
2162
2162
2171
2171
2171
2171
2169
2169
2169
2163
2163
2163
2161
2161
2161
2164
2164
2164
2169
2169
2169
2169
2167
2167
2167
2161
2161
2161
2171
2171
2171
2167
2167
2167
2171
2171
2171
2171
2166
2166
2166
2167
2167
2167
2171
2171
2171
2166
2166
2166
2168
2168
2168
2168
2167
2167
2167
2164
2164
2164
2173
2173
2173
2163
2163
2163
2173
2173
2173
2173
2165
2165
2165
2161
2161
2161
2169
2169
2169
2164
2164
2164
2171
2171
2171
2171
2172
2172
2172
2166
2166
2166
2163
2163
2163
2165
2165
2165
2171
2171
2171
2171
2169
2169
2169
2165
2165
2165
2170
2170
2170
2163
2163
2163
2169
2169
2169
2169
2167
2167
2167
2165
2165
2165
2170
2170
2170
2163
2163
2163
2168
2168
2168
2168
2169
2169
2169
2167
2167
2167
2171
2171
2171
2166
2166
2166
2167
2167
2167
2167
2170
2170
2170
2166
2166
2166
2170
2170
2170
2165
2165
2165
2167
2167
2167
2167
2170
2170
2170
2162
2162
2162
2164
2164
2164
2164
2164
2164
2171
2171
2171
2171
2168
2168
2168
2165
2165
2165
2171
2171
2171
2167
2167
2167
2168
2168
2168
2168
2168
2168
2168
2164
2164
2164
2169
2169
2169
2164
2164
2164
2169
2169
2169
2169
2170
2170
2170
2162
2162
2162
2168
2168
2168
2165
2165
2165
2169
2169
2169
2169
2170
2170
2170
2159
2159
2159
2169
2169
2169
2164
2164
2164
2169
2169
2169
2169
2168
2168
2168
2163
2163
2163
2172
2172
2172
2164
2164
2164
2166
2166
2166
2166
2170
2170
2170
2166
2166
2166
2168
2168
2168
2166
2166
2166
2170
2170
2170
2170
2171
2171
2171
2164
2164
2164
2169
2169
2169
2163
2163
2163
2168
2168
2168
2168
2167
2167
2167
2165
2165
2165
2170
2170
2170
2164
2164
2164
2170
2170
2170
2170
2168
2168
2168
2164
2164
2164
2168
2168
2168
2165
2165
2165
2166
2166
2166
2166
2168
2168
2168
2164
2164
2164
2174
2174
2174
2165
2165
2165
2168
2168
2168
2168
2166
2166
2166
2163
2163
2163
2167
2167
2167
2165
2165
2165
2169
2169
2169
2169
2172
2172
2172
2164
2164
2164
2168
2168
2168
2163
2163
2163
2166
2166
2166
2166
2168
2168
2168
2166
2166
2166
2170
2170
2170
2165
2165
2165
2169
2169
2169
2169
2169
2169
2169
2160
2160
2160
2168
2168
2168
2166
2166
2166
2171
2171
2171
2171
2170
2170
2170
2164
2164
2164
2169
2169
2169
2167
2167
2167
2166
2166
2166
2166
2160
2160
2160
2165
2165
2165
2168
2168
2168
2162
2162
2162
2167
2167
2167
2167
2167
2167
2167
2164
2164
2164
2170
2170
2170
2163
2163
2163
2167
2167
2167
2167
2167
2167
2167
2165
2165
2165
2169
2169
2169
2164
2164
2164
2171
2171
2171
2171
2168
2168
2168
2169
2169
2169
2167
2167
2167
2165
2165
2165
2163
2163
2163
2163
2168
2168
2168
2163
2163
2163
2171
2171
2171
2168
2168
2168
2168
2168
2168
2168
2167
2167
2167
2163
2163
2163
2173
2173
2173
2164
2164
2164
2174
2174
2174
2174
2168
2168
2168
2164
2164
2164
2167
2167
2167
2168
2168
2168
2171
2171
2171
2171
2169
2169
2169
2162
2162
2162
2167
2167
2167
2157
2157
2157
2168
2168
2168
2168
2166
2166
2166
2168
2168
2168
2169
2169
2169
2164
2164
2164
2166
2166
2166
2166
2169
2169
2169
2161
2161
2161
2173
2173
2173
2165
2165
2165
2170
2170
2170
2170
2168
2168
2168
2163
2163
2163
2164
2164
2164
2162
2162
2162
2170
2170
2170
2170
2168
2168
2168
2163
2163
2163
2166
2166
2166
2166
2166
2166
2169
2169
2169
2169
2169
2169
2169
2162
2162
2162
2170
2170
2170
2165
2165
2165
2171
2171
2171
2171
2170
2170
2170
2171
2171
2171
2170
2170
2170
2164
2164
2164
2168
2168
2168
2168
2167
2167
2167
2162
2162
2162
2172
2172
2172
2165
2165
2165
2167
2167
2167
2167
2170
2170
2170
2160
2160
2160
2168
2168
2168
2163
2163
2163
2170
2170
2170
2170
2169
2169
2169
2163
2163
2163
2170
2170
2170
2163
2163
2163
2168
2168
2168
2168
2166
2166
2166
2169
2169
2169
2168
2168
2168
2164
2164
2164
2169
2169
2169
2169
2166
2166
2166
2161
2161
2161
2170
2170
2170
2164
2164
2164
2166
2166
2166
2166
2168
2168
2168
2163
2163
2163
2168
2168
2168
2163
2163
2163
2168
2168
2168
2168
2165
2165
2165
2166
2166
2166
2169
2169
2169
2163
2163
2163
2169
2169
2169
2169
2170
2170
2170
2161
2161
2161
2170
2170
2170
2162
2162
2162
2165
2165
2165
2165
2168
2168
2168
2158
2158
2158
2168
2168
2168
2162
2162
2162
2170
2170
2170
2170
2171
2171
2171
2162
2162
2162
2166
2166
2166
2164
2164
2164
2171
2171
2171
2171
2168
2168
2168
2165
2165
2165
2172
2172
2172
2166
2166
2166
2165
2165
2165
2165
2168
2168
2168
2166
2166
2166
2168
2168
2168
2166
2166
2166
2168
2168
2168
2168
2172
2172
2172
2162
2162
2162
2167
2167
2167
2165
2165
2165
2170
2170
2170
2170
2169
2169
2169
2164
2164
2164
2166
2166
2166
2166
2166
2166
2169
2169
2169
2169
2169
2169
2169
2163
2163
2163
2168
2168
2168
2170
2170
2170
2169
2169
2169
2169
2169
2169
2169
2165
2165
2165
2168
2168
2168
2164
2164
2164
2169
2169
2169
2169
2171
2171
2171
2162
2162
2162
2169
2169
2169
2163
2163
2163
2166
2166
2166
2166
2170
2170
2170
2164
2164
2164
2168
2168
2168
2164
2164
2164
2172
2172
2172
2172
2169
2169
2169
2168
2168
2168
2170
2170
2170
2164
2164
2164
2166
2166
2166
2166
2167
2167
2167
2161
2161
2161
2168
2168
2168
2165
2165
2165
2170
2170
2170
2170
2168
2168
2168
2165
2165
2165
2167
2167
2167
2162
2162
2162
2168
2168
2168
2168
2164
2164
2164
2163
2163
2163
2170
2170
2170
2166
2166
2166
2169
2169
2169
2169
2169
2169
2169
2165
2165
2165
2168
2168
2168
2164
2164
2164
2169
2169
2169
2169
2167
2167
2167
2165
2165
2165
2167
2167
2167
2163
2163
2163
2169
2169
2169
2169
2171
2171
2171
2164
2164
2164
2168
2168
2168
2165
2165
2165
2168
2168
2168
2168
2169
2169
2169
2164
2164
2164
2168
2168
2168
2162
2162
2162
2170
2170
2170
2170
2170
2170
2170
2165
2165
2165
2171
2171
2171
2162
2162
2162
2165
2165
2165
2165
2167
2167
2167
2166
2166
2166
2167
2167
2167
2163
2163
2163
2172
2172
2172
2172
2169
2169
2169
2163
2163
2163
2169
2169
2169
2165
2165
2165
2171
2171
2171
2171
2168
2168
2168
2162
2162
2162
2166
2166
2166
2165
2165
2165
2168
2168
2168
2168
2169
2169
2169
2162
2162
2162
2168
2168
2168
2164
2164
2164
2170
2170
2170
2170
2167
2167
2167
2164
2164
2164
2169
2169
2169
2165
2165
2165
2169
2169
2169
2169
2169
2169
2169
2165
2165
2165
2169
2169
2169
2165
2165
2165
2168
2168
2168
2168
2170
2170
2170
2164
2164
2164
2171
2171
2171
2162
2162
2162
2169
2169
2169
2169
2168
2168
2168
2165
2165
2165
2167
2167
2167
2164
2164
2164
2168
2168
2168
2168
2169
2169
2169
2164
2164
2164
2167
2167
2167
2163
2163
2163
2169
2169
2169
2169
2168
2168
2168
2162
2162
2162
2168
2168
2168
2166
2166
2166
2172
2172
2172
2172
2169
2169
2169
2158
2158
2158
2169
2169
2169
2162
2162
2162
2171
2171
2171
2171
2167
2167
2167
2164
2164
2164
2167
2167
2167
2163
2163
2163
2167
2167
2167
2167
2168
2168
2168
2164
2164
2164
2171
2171
2171
2169
2169
2169
2171
2171
2171
2171
2166
2166
2166
2165
2165
2165
2168
2168
2168
2163
2163
2163
2170
2170
2170
2170
2170
2170
2170
2165
2165
2165
2171
2171
2171
2162
2162
2162
2171
2171
2171
2171
2170
2170
2170
2165
2165
2165
2166
2166
2166
2162
2162
2162
2167
2167
2167
2167
2168
2168
2168
2165
2165
2165
2173
2173
2173
2167
2167
2167
2169
2169
2169
2169
2168
2168
2168
2166
2166
2166
2166
2166
2166
2161
2161
2161
2170
2170
2170
2170
2168
2168
2168
2163
2163
2163
2169
2169
2169
2166
2166
2166
2164
2164
2164
2164
2167
2167
2167
2160
2160
2160
2168
2168
2168
2165
2165
2165
2168
2168
2168
2168
2166
2166
2166
2163
2163
2163
2170
2170
2170
2166
2166
2166
2168
2168
2168
2168
2167
2167
2167
2162
2162
2162
2169
2169
2169
2165
2165
2165
2169
2169
2169
2169
2174
2174
2174
2165
2165
2165
2169
2169
2169
2166
2166
2166
2171
2171
2171
2171
2167
2167
2167
2164
2164
2164
2171
2171
2171
2164
2164
2164
2170
2170
2170
2170
2168
2168
2168
2165
2165
2165
2168
2168
2168
2163
2163
2163
2169
2169
2169
2169
2171
2171
2171
2164
2164
2164
2167
2167
2167
2162
2162
2162
2168
2168
2168
2168
2164
2164
2164
2164
2164
2164
2168
2168
2168
2163
2163
2163
2170
2170
2170
2170
2164
2164
2164
2163
2163
2163
2169
2169
2169
2163
2163
2163
2165
2165
2165
2165
2168
2168
2168
2161
2161
2161
2171
2171
2171
2164
2164
2164
2167
2167
2167
2167
2169
2169
2169
2165
2165
2165
2166
2166
2166
2164
2164
2164
2169
2169
2169
2169
2169
2169
2169
2165
2165
2165
2166
2166
2166
2165
2165
2165
2167
2167
2167
2167
2170
2170
2170
2162
2162
2162
2169
2169
2169
2164
2164
2164
2169
2169
2169
2169
2162
2162
2162
2164
2164
2164
2167
2167
2167
2168
2168
2168
2170
2170
2170
2170
2168
2168
2168
2162
2162
2162
2169
2169
2169
2163
2163
2163
2167
2167
2167
2167
2166
2166
2166
2163
2163
2163
2168
2168
2168
2162
2162
2162
2169
2169
2169
2169
2167
2167
2167
2164
2164
2164
2168
2168
2168
2166
2166
2166
2170
2170
2170
2170
2167
2167
2167
2165
2165
2165
2167
2167
2167
2162
2162
2162
2168
2168
2168
2168
2169
2169
2169
2165
2165
2165
2172
2172
2172
2163
2163
2163
2168
2168
2168
2168
2166
2166
2166
2162
2162
2162
2166
2166
2166
2166
2166
2166
2169
2169
2169
2169
2167
2167
2167
2163
2163
2163
2165
2165
2165
2166
2166
2166
2173
2173
2173
2173
2170
2170
2170
2166
2166
2166
2166
2166
2166
2161
2161
2161
2168
2168
2168
2168
2168
2168
2168
2160
2160
2160
2168
2168
2168
2165
2165
2165
2171
2171
2171
2171
2169
2169
2169
2168
2168
2168
2173
2173
2173
2162
2162
2162
2168
2168
2168
2168
2169
2169
2169
2164
2164
2164
2167
2167
2167
2166
2166
2166
2171
2171
2171
2171
2172
2172
2172
2165
2165
2165
2168
2168
2168
2162
2162
2162
2168
2168
2168
2168
2163
2163
2163
2164
2164
2164
2168
2168
2168
2169
2169
2169
2171
2171
2171
2171
2167
2167
2167
2163
2163
2163
2169
2169
2169
2164
2164
2164
2173
2173
2173
2173
2169
2169
2169
2165
2165
2165
2170
2170
2170
2164
2164
2164
2172
2172
2172
2172
2169
2169
2169
2163
2163
2163
2165
2165
2165
2166
2166
2166
2169
2169
2169
2169
2165
2165
2165
2164
2164
2164
2168
2168
2168
2162
2162
2162
2170
2170
2170
2170
2172
2172
2172
2164
2164
2164
2168
2168
2168
2165
2165
2165
2171
2171
2171
2171
2170
2170
2170
2167
2167
2167
2167
2167
2167
2165
2165
2165
2163
2163
2163
2163
2167
2167
2167
2165
2165
2165
2173
2173
2173
2165
2165
2165
2169
2169
2169
2169
2169
2169
2169
2165
2165
2165
2166
2166
2166
2164
2164
2164
2171
2171
2171
2171
2167
2167
2167
2165
2165
2165
2169
2169
2169
2165
2165
2165
2167
2167
2167
2167
2169
2169
2169
2156
2156
2156
2167
2167
2167
2163
2163
2163
2165
2165
2165
2165
2161
2161
2161
2165
2165
2165
2170
2170
2170
2164
2164
2164
2167
2167
2167
2167
2168
2168
2168
2166
2166
2166
2170
2170
2170
2161
2161
2161
2168
2168
2168
2168
2168
2168
2168
2165
2165
2165
2168
2168
2168
2172
2172
2172
2171
2171
2171
2171
2170
2170
2170
2165
2165
2165
2170
2170
2170
2168
2168
2168
2167
2167
2167
2167
2167
2167
2167
2164
2164
2164
2170
2170
2170
2164
2164
2164
2169
2169
2169
2169
2169
2169
2169
2162
2162
2162
2171
2171
2171
2166
2166
2166
2169
2169
2169
2169
2168
2168
2168
2165
2165
2165
2167
2167
2167
2165
2165
2165
2167
2167
2167
2167
2161
2161
2161
2164
2164
2164
2172
2172
2172
2164
2164
2164
2173
2173
2173
2173
2168
2168
2168
2166
2166
2166
2170
2170
2170
2165
2165
2165
2175
2175
2175
2175
2168
2168
2168
2161
2161
2161
2165
2165
2165
2162
2162
2162
2170
2170
2170
2170
2173
2173
2173
2164
2164
2164
2169
2169
2169
2161
2161
2161
2168
2168
2168
2168
2165
2165
2165
2166
2166
2166
2174
2174
2174
2164
2164
2164
2168
2168
2168
2168
2166
2166
2166
2164
2164
2164
2166
2166
2166
2162
2162
2162
2167
2167
2167
2167
2170
2170
2170
2163
2163
2163
2169
2169
2169
2164
2164
2164
2169
2169
2169
2169
2166
2166
2166
2165
2165
2165
2169
2169
2169
2163
2163
2163
2168
2168
2168
2168
2165
2165
2165
2162
2162
2162
2167
2167
2167
2166
2166
2166
2168
2168
2168
2168
2167
2167
2167
2162
2162
2162
2167
2167
2167
2167
2167
2167
2172
2172
2172
2172
2170
2170
2170
2168
2168
2168
2169
2169
2169
2163
2163
2163
2166
2166
2166
2166
2167
2167
2167
2163
2163
2163
2167
2167
2167
2165
2165
2165
2168
2168
2168
2168
2168
2168
2168
2165
2165
2165
2165
2165
2165
2164
2164
2164
2169
2169
2169
2169
2160
2160
2160
2164
2164
2164
2168
2168
2168
2165
2165
2165
2164
2164
2164
2164
2167
2167
2167
2165
2165
2165
2169
2169
2169
2165
2165
2165
2171
2171
2171
2171
2171
2171
2171
2163
2163
2163
2169
2169
2169
2165
2165
2165
2171
2171
2171
2171
2170
2170
2170
2164
2164
2164
2167
2167
2167
2165
2165
2165
2166
2166
2166
2166
2168
2168
2168
2170
2170
2170
2172
2172
2172
2165
2165
2165
2176
2176
2176
2176
2169
2169
2169
2168
2168
2168
2170
2170
2170
2163
2163
2163
2168
2168
2168
2168
2168
2168
2168
2165
2165
2165
2170
2170
2170
2167
2167
2167
2171
2171
2171
2171
2169
2169
2169
2164
2164
2164
2167
2167
2167
2164
2164
2164
2171
2171
2171
2171
2169
2169
2169
2165
2165
2165
2166
2166
2166
2159
2159
2159
2167
2167
2167
2167
2168
2168
2168
2164
2164
2164
2169
2169
2169
2163
2163
2163
2172
2172
2172
2172
2168
2168
2168
2166
2166
2166
2170
2170
2170
2165
2165
2165
2169
2169
2169
2169
2170
2170
2170
2160
2160
2160
2165
2165
2165
2167
2167
2167
2169
2169
2169
2169
2169
2169
2169
2165
2165
2165
2169
2169
2169
2162
2162
2162
2169
2169
2169
2169
2174
2174
2174
2164
2164
2164
2164
2164
2164
2165
2165
2165
2171
2171
2171
2171
2166
2166
2166
2161
2161
2161
2169
2169
2169
2163
2163
2163
2165
2165
2165
2165
2169
2169
2169
2167
2167
2167
2167
2167
2167
2163
2163
2163
2169
2169
2169
2169
2168
2168
2168
2159
2159
2159
2166
2166
2166
2164
2164
2164
2166
2166
2166
2166
2170
2170
2170
2167
2167
2167
2169
2169
2169
2166
2166
2166
2170
2170
2170
2170
2163
2163
2163
2163
2163
2163
2168
2168
2168
2163
2163
2163
2168
2168
2168
2168
2169
2169
2169
2161
2161
2161
2168
2168
2168
2162
2162
2162
2171
2171
2171
2171
2170
2170
2170
2164
2164
2164
2172
2172
2172
2164
2164
2164
2168
2168
2168
2168
2170
2170
2170
2163
2163
2163
2168
2168
2168
2165
2165
2165
2167
2167
2167
2167
2170
2170
2170
2165
2165
2165
2169
2169
2169
2167
2167
2167
2169
2169
2169
2169
2173
2173
2173
2166
2166
2166
2167
2167
2167
2162
2162
2162
2169
2169
2169
2169
2169
2169
2169
2164
2164
2164
2170
2170
2170
2163
2163
2163
2168
2168
2168
2168
2169
2169
2169
2163
2163
2163
2166
2166
2166
2171
2171
2171
2170
2170
2170
2170
2167
2167
2167
2162
2162
2162
2168
2168
2168
2163
2163
2163
2164
2164
2164
2164
2168
2168
2168
2168
2168
2168
2169
2169
2169
2159
2159
2159
2173
2173
2173
2173
2169
2169
2169
2165
2165
2165
2169
2169
2169
2162
2162
2162
2168
2168
2168
2168
2169
2169
2169
2165
2165
2165
2167
2167
2167
2169
2169
2169
2170
2170
2170
2170
2172
2172
2172
2164
2164
2164
2170
2170
2170
2165
2165
2165
2167
2167
2167
2167
2168
2168
2168
2166
2166
2166
2171
2171
2171
2161
2161
2161
2170
2170
2170
2170
2169
2169
2169
2168
2168
2168
2169
2169
2169
2163
2163
2163
2170
2170
2170
2170
2168
2168
2168
2166
2166
2166
2167
2167
2167
2165
2165
2165
2169
2169
2169
2169
2168
2168
2168
2161
2161
2161
2164
2164
2164
2159
2159
2159
2169
2169
2169
2169
2168
2168
2168
2168
2168
2168
2169
2169
2169
2165
2165
2165
2170
2170
2170
2170
2170
2170
2170
2162
2162
2162
2167
2167
2167
2165
2165
2165
2171
2171
2171
2171
2171
2171
2171
2166
2166
2166
2171
2171
2171
2165
2165
2165
2170
2170
2170
2170
2165
2165
2165
2168
2168
2168
2168
2168
2168
2159
2159
2159
2163
2163
2163
2163
2171
2171
2171
2163
2163
2163
2169
2169
2169
2165
2165
2165
2173
2173
2173
2173
2170
2170
2170
2164
2164
2164
2168
2168
2168
2163
2163
2163
2170
2170
2170
2170
2168
2168
2168
2162
2162
2162
2168
2168
2168
2163
2163
2163
2167
2167
2167
2167
2169
2169
2169
2165
2165
2165
2168
2168
2168
2163
2163
2163
2169
2169
2169
2169
2167
2167
2167
2166
2166
2166
2168
2168
2168
2164
2164
2164
2168
2168
2168
2168
2168
2168
2168
2159
2159
2159
2168
2168
2168
2165
2165
2165
2169
2169
2169
2169
2168
2168
2168
2163
2163
2163
2163
2163
2163
2165
2165
2165
2168
2168
2168
2168
2170
2170
2170
2164
2164
2164
2174
2174
2174
2166
2166
2166
2172
2172
2172
2172
2166
2166
2166
2165
2165
2165
2169
2169
2169
2156
2156
2156
2164
2164
2164
2164
2167
2167
2167
2165
2165
2165
2168
2168
2168
2165
2165
2165
2165
2165
2165
2165
2166
2166
2166
2163
2163
2163
2167
2167
2167
2162
2162
2162
2170
2170
2170
2170
2169
2169
2169
2163
2163
2163
2165
2165
2165
2165
2165
2165
2169
2169
2169
2169
2170
2170
2170
2163
2163
2163
2170
2170
2170
2164
2164
2164
2170
2170
2170
2170
2170
2170
2170
2163
2163
2163
2167
2167
2167
2161
2161
2161
2159
2159
2159
2159
2170
2170
2170
2167
2167
2167
2169
2169
2169
2166
2166
2166
2169
2169
2169
2169
2168
2168
2168
2167
2167
2167
2169
2169
2169
2162
2162
2162
2168
2168
2168
2168
2168
2168
2168
2163
2163
2163
2170
2170
2170
2170
2170
2170
2168
2168
2168
2168
2168
2168
2168
2162
2162
2162
2165
2165
2165
2164
2164
2164
2167
2167
2167
2167
2168
2168
2168
2162
2162
2162
2167
2167
2167
2164
2164
2164
2170
2170
2170
2170
2168
2168
2168
2165
2165
2165
2174
2174
2174
2165
2165
2165
2168
2168
2168
2168
2170
2170
2170
2163
2163
2163
2165
2165
2165
2164
2164
2164
2169
2169
2169
2169
2170
2170
2170
2161
2161
2161
2167
2167
2167
2166
2166
2166
2167
2167
2167
2167
2168
2168
2168
2166
2166
2166
2168
2168
2168
2163
2163
2163
2170
2170
2170
2170
2165
2165
2165
2164
2164
2164
2168
2168
2168
2165
2165
2165
2170
2170
2170
2170
2169
2169
2169
2164
2164
2164
2168
2168
2168
2165
2165
2165
2169
2169
2169
2169
2168
2168
2168
2163
2163
2163
2166
2166
2166
2162
2162
2162
2167
2167
2167
2167
2168
2168
2168
2158
2158
2158
2167
2167
2167
2166
2166
2166
2172
2172
2172
2172
2169
2169
2169
2161
2161
2161
2169
2169
2169
2166
2166
2166
2169
2169
2169
2169
2169
2169
2169
2162
2162
2162
2173
2173
2173
2165
2165
2165
2169
2169
2169
2169
2164
2164
2164
2165
2165
2165
2169
2169
2169
2160
2160
2160
2170
2170
2170
2170
2166
2166
2166
2164
2164
2164
2169
2169
2169
2162
2162
2162
2169
2169
2169
2169
2168
2168
2168
2163
2163
2163
2170
2170
2170
2164
2164
2164
2168
2168
2168
2168
2168
2168
2168
2163
2163
2163
2171
2171
2171
2165
2165
2165
2168
2168
2168
2168
2167
2167
2167
2163
2163
2163
2169
2169
2169
2163
2163
2163
2166
2166
2166
2166
2169
2169
2169
2164
2164
2164
2171
2171
2171
2162
2162
2162
2173
2173
2173
2173
2169
2169
2169
2157
2157
2157
2166
2166
2166
2163
2163
2163
2168
2168
2168
2168
2169
2169
2169
2163
2163
2163
2167
2167
2167
2161
2161
2161
2167
2167
2167
2167
2168
2168
2168
2165
2165
2165
2172
2172
2172
2165
2165
2165
2168
2168
2168
2168
2164
2164
2164
2164
2164
2164
2169
2169
2169
2167
2167
2167
2181
2181
2181
2181
2171
2171
2171
2161
2161
2161
2168
2168
2168
2163
2163
2163
2169
2169
2169
2169
2167
2167
2167
2164
2164
2164
2169
2169
2169
2165
2165
2165
2167
2167
2167
2167
2165
2165
2165
2163
2163
2163
2165
2165
2165
2161
2161
2161
2171
2171
2171
2171
2165
2165
2165
2166
2166
2166
2171
2171
2171
2166
2166
2166
2166
2166
2166
2166
2167
2167
2167
2163
2163
2163
2171
2171
2171
2164
2164
2164
2170
2170
2170
2170
2170
2170
2170
2161
2161
2161
2166
2166
2166
2165
2165
2165
2168
2168
2168
2168
2170
2170
2170
2166
2166
2166
2170
2170
2170
2163
2163
2163
2169
2169
2169
2169
2165
2165
2165
2165
2165
2165
2168
2168
2168
2162
2162
2162
2170
2170
2170
2170
2171
2171
2171
2163
2163
2163
2168
2168
2168
2165
2165
2165
2168
2168
2168
2168
2169
2169
2169
2166
2166
2166
2165
2165
2165
2163
2163
2163
2169
2169
2169
2169
2168
2168
2168
2165
2165
2165
2162
2162
2162
2165
2165
2165
2170
2170
2170
2170
2169
2169
2169
2164
2164
2164
2166
2166
2166
2163
2163
2163
2170
2170
2170
2170
2168
2168
2168
2164
2164
2164
2166
2166
2166
2165
2165
2165
2170
2170
2170
2170
2166
2166
2166
2163
2163
2163
2169
2169
2169
2166
2166
2166
2165
2165
2165
2165
2169
2169
2169
2164
2164
2164
2169
2169
2169
2168
2168
2168
2169
2169
2169
2169
2169
2169
2169
2165
2165
2165
2166
2166
2166
2161
2161
2161
2171
2171
2171
2171
2162
2162
2162
2162
2162
2162
2168
2168
2168
2165
2165
2165
2169
2169
2169
2169
2170
2170
2170
2169
2169
2169
2167
2167
2167
2161
2161
2161
2167
2167
2167
2167
2168
2168
2168
2160
2160
2160
2172
2172
2172
2164
2164
2164
2168
2168
2168
2168
2170
2170
2170
2164
2164
2164
2169
2169
2169
2161
2161
2161
2165
2165
2165
2165
2172
2172
2172
2164
2164
2164
2169
2169
2169
2161
2161
2161
2168
2168
2168
2168
2166
2166
2166
2162
2162
2162
2170
2170
2170
2167
2167
2167
2168
2168
2168
2168
2169
2169
2169
2163
2163
2163
2172
2172
2172
2165
2165
2165
2170
2170
2170
2170
2168
2168
2168
2166
2166
2166
2173
2173
2173
2163
2163
2163
2169
2169
2169
2169
2170
2170
2170
2162
2162
2162
2169
2169
2169
2161
2161
2161
2169
2169
2169
2169
2166
2166
2166
2166
2166
2166
2169
2169
2169
2164
2164
2164
2174
2174
2174
2174
2170
2170
2170
2164
2164
2164
2167
2167
2167
2165
2165
2165
2167
2167
2167
2167
2168
2168
2168
2163
2163
2163
2169
2169
2169
2165
2165
2165
2170
2170
2170
2170
2173
2173
2173
2163
2163
2163
2170
2170
2170
2167
2167
2167
2166
2166
2166
2166
2166
2166
2166
2164
2164
2164
2168
2168
2168
2163
2163
2163
2171
2171
2171
2171
2168
2168
2168
2170
2170
2170
2169
2169
2169
2165
2165
2165
2169
2169
2169
2169
2166
2166
2166
2167
2167
2167
2167
2167
2167
2165
2165
2165
2169
2169
2169
2169
2168
2168
2168
2165
2165
2165
2168
2168
2168
2163
2163
2163
2167
2167
2167
2167
2166
2166
2166
2163
2163
2163
2171
2171
2171
2165
2165
2165
2166
2166
2166
2166
2171
2171
2171
2162
2162
2162
2166
2166
2166
2163
2163
2163
2172
2172
2172
2172
2167
2167
2167
2163
2163
2163
2170
2170
2170
2163
2163
2163
2175
2175
2175
2175
2168
2168
2168
2165
2165
2165
2169
2169
2169
2165
2165
2165
2169
2169
2169
2169
2165
2165
2165
2164
2164
2164
2169
2169
2169
2164
2164
2164
2168
2168
2168
2168
2168
2168
2168
2166
2166
2166
2170
2170
2170
2164
2164
2164
2173
2173
2173
2173
2168
2168
2168
2164
2164
2164
2167
2167
2167
2165
2165
2165
2167
2167
2167
2167
2167
2167
2167
2166
2166
2166
2165
2165
2165
2165
2165
2165
2171
2171
2171
2171
2169
2169
2169
2161
2161
2161
2167
2167
2167
2165
2165
2165
2170
2170
2170
2170
2168
2168
2168
2164
2164
2164
2170
2170
2170
2163
2163
2163
2161
2161
2161
2161
2166
2166
2166
2161
2161
2161
2170
2170
2170
2167
2167
2167
2169
2169
2169
2169
2167
2167
2167
2163
2163
2163
2171
2171
2171
2165
2165
2165
2168
2168
2168
2168
2172
2172
2172
2165
2165
2165
2170
2170
2170
2162
2162
2162
2168
2168
2168
2168
2165
2165
2165
2161
2161
2161
2168
2168
2168
2163
2163
2163
2169
2169
2169
2169
2173
2173
2173
2167
2167
2167
2168
2168
2168
2164
2164
2164
2168
2168
2168
2168
2171
2171
2171
2162
2162
2162
2167
2167
2167
2164
2164
2164
2169
2169
2169
2169
2166
2166
2166
2164
2164
2164
2173
2173
2173
2165
2165
2165
2169
2169
2169
2169
2167
2167
2167
2163
2163
2163
2171
2171
2171
2168
2168
2168
2169
2169
2169
2169
2168
2168
2168
2165
2165
2165
2167
2167
2167
2163
2163
2163
2173
2173
2173
2173
2168
2168
2168
2168
2168
2168
2171
2171
2171
2165
2165
2165
2169
2169
2169
2169
2168
2168
2168
2161
2161
2161
2167
2167
2167
2163
2163
2163
2168
2168
2168
2168
2170
2170
2170
2164
2164
2164
2170
2170
2170
2164
2164
2164
2170
2170
2170
2170
2166
2166
2166
2165
2165
2165
2170
2170
2170
2164
2164
2164
2166
2166
2166
2166
2169
2169
2169
2160
2160
2160
2167
2167
2167
2163
2163
2163
2169
2169
2169
2169
2167
2167
2167
2165
2165
2165
2172
2172
2172
2163
2163
2163
2172
2172
2172
2172
2168
2168
2168
2162
2162
2162
2168
2168
2168
2162
2162
2162
2165
2165
2165
2165
2171
2171
2171
2165
2165
2165
2168
2168
2168
2168
2168
2168
2167
2167
2167
2167
2168
2168
2168
2167
2167
2167
2168
2168
2168
2169
2169
2169
2169
2169
2169
2169
2168
2168
2168
2162
2162
2162
2168
2168
2168
2162
2162
2162
2166
2166
2166
2166
2168
2168
2168
2165
2165
2165
2173
2173
2173
2162
2162
2162
2170
2170
2170
2170
2170
2170
2170
2165
2165
2165
2166
2166
2166
2167
2167
2167
2169
2169
2169
2169
2170
2170
2170
2160
2160
2160
2169
2169
2169
2166
2166
2166
2161
2161
2161
2161
2166
2166
2166
2161
2161
2161
2171
2171
2171
2165
2165
2165
2169
2169
2169
2169
2169
2169
2169
2165
2165
2165
2171
2171
2171
2163
2163
2163
2169
2169
2169
2169
2173
2173
2173
2164
2164
2164
2165
2165
2165
2164
2164
2164
2169
2169
2169
2169
2165
2165
2165
2163
2163
2163
2168
2168
2168
2165
2165
2165
2171
2171
2171
2171
2170
2170
2170
2156
2156
2156
2168
2168
2168
2163
2163
2163
2170
2170
2170
2170
2166
2166
2166
2163
2163
2163
2164
2164
2164
2165
2165
2165
2168
2168
2168
2168
2168
2168
2168
2163
2163
2163
2170
2170
2170
2172
2172
2172
2170
2170
2170
2170
2170
2170
2170
2165
2165
2165
2168
2168
2168
2166
2166
2166
2170
2170
2170
2170
2168
2168
2168
2168
2168
2168
2169
2169
2169
2165
2165
2165
2169
2169
2169
2169
2169
2169
2169
2167
2167
2167
2171
2171
2171
2165
2165
2165
2169
2169
2169
2169
2168
2168
2168
2162
2162
2162
2170
2170
2170
2165
2165
2165
2167
2167
2167
2167
2163
2163
2163
2164
2164
2164
2168
2168
2168
2161
2161
2161
2164
2164
2164
2164
2166
2166
2166
2170
2170
2170
2170
2170
2170
2161
2161
2161
2167
2167
2167
2167
2169
2169
2169
2163
2163
2163
2169
2169
2169
2167
2167
2167
2170
2170
2170
2170
2169
2169
2169
2164
2164
2164
2170
2170
2170
2160
2160
2160
2172
2172
2172
2172
2164
2164
2164
2164
2164
2164
2165
2165
2165
2162
2162
2162
2166
2166
2166
2166
2167
2167
2167
2165
2165
2165
2170
2170
2170
2172
2172
2172
2172
2172
2172
2172
2169
2169
2169
2164
2164
2164
2168
2168
2168
2162
2162
2162
2166
2166
2166
2166
2168
2168
2168
2167
2167
2167
2169
2169
2169
2168
2168
2168
2169
2169
2169
2169
2162
2162
2162
2163
2163
2163
2165
2165
2165
2164
2164
2164
2169
2169
2169
2169
2170
2170
2170
2163
2163
2163
2168
2168
2168
2164
2164
2164
2162
2162
2162
2162
2166
2166
2166
2165
2165
2165
2171
2171
2171
2163
2163
2163
2169
2169
2169
2169
2168
2168
2168
2160
2160
2160
2167
2167
2167
2165
2165
2165
2168
2168
2168
2168
2176
2176
2176
2165
2165
2165
2168
2168
2168
2164
2164
2164
2166
2166
2166
2166
2167
2167
2167
2166
2166
2166
2168
2168
2168
2163
2163
2163
2165
2165
2165
2165
2170
2170
2170
2169
2169
2169
2170
2170
2170
2164
2164
2164
2171
2171
2171
2171
2168
2168
2168
2165
2165
2165
2176
2176
2176
2165
2165
2165
2168
2168
2168
2168
2166
2166
2166
2164
2164
2164
2171
2171
2171
2164
2164
2164
2171
2171
2171
2171
2167
2167
2167
2162
2162
2162
2167
2167
2167
2165
2165
2165
2165
2165
2165
2165
2168
2168
2168
2161
2161
2161
2169
2169
2169
2165
2165
2165
2170
2170
2170
2170
2168
2168
2168
2166
2166
2166
2167
2167
2167
2161
2161
2161
2168
2168
2168
2168
2168
2168
2168
2165
2165
2165
2170
2170
2170
2169
2169
2169
2169
2169
2169
2169
2161
2161
2161
2163
2163
2163
2168
2168
2168
2164
2164
2164
2164
2164
2164
2164
2167
2167
2167
2165
2165
2165
2167
2167
2167
2163
2163
2163
2169
2169
2169
2169
2167
2167
2167
2164
2164
2164
2167
2167
2167
2164
2164
2164
2171
2171
2171
2171
2167
2167
2167
2162
2162
2162
2167
2167
2167
2166
2166
2166
2169
2169
2169
2169
2168
2168
2168
2164
2164
2164
2169
2169
2169
2165
2165
2165
2169
2169
2169
2169
2168
2168
2168
2161
2161
2161
2167
2167
2167
2164
2164
2164
2168
2168
2168
2168
2168
2168
2168
2165
2165
2165
2168
2168
2168
2163
2163
2163
2168
2168
2168
2168
2167
2167
2167
2165
2165
2165
2168
2168
2168
2164
2164
2164
2168
2168
2168
2168
2165
2165
2165
2162
2162
2162
2169
2169
2169
2160
2160
2160
2169
2169
2169
2169
2171
2171
2171
2163
2163
2163
2167
2167
2167
2163
2163
2163
2171
2171
2171
2171
2165
2165
2165
2162
2162
2162
2168
2168
2168
2164
2164
2164
2169
2169
2169
2169
2169
2169
2169
2163
2163
2163
2166
2166
2166
2161
2161
2161
2170
2170
2170
2170
2167
2167
2167
2163
2163
2163
2168
2168
2168
2168
2168
2168
2170
2170
2170
2170
2170
2170
2170
2165
2165
2165
2166
2166
2166
2164
2164
2164
2173
2173
2173
2173
2169
2169
2169
2158
2158
2158
2169
2169
2169
2164
2164
2164
2171
2171
2171
2171
2167
2167
2167
2161
2161
2161
2168
2168
2168
2165
2165
2165
2169
2169
2169
2169
2169
2169
2169
2163
2163
2163
2169
2169
2169
2171
2171
2171
2170
2170
2170
2170
2168
2168
2168
2165
2165
2165
2165
2165
2165
2162
2162
2162
2168
2168
2168
2168
2168
2168
2168
2167
2167
2167
2166
2166
2166
2165
2165
2165
2170
2170
2170
2170
2167
2167
2167
2163
2163
2163
2166
2166
2166
2163
2163
2163
2169
2169
2169
2169
2168
2168
2168
2168
2168
2168
2173
2173
2173
2165
2165
2165
2170
2170
2170
2170
2171
2171
2171
2163
2163
2163
2166
2166
2166
2161
2161
2161
2167
2167
2167
2167
2173
2173
2173
2168
2168
2168
2170
2170
2170
2164
2164
2164
2165
2165
2165
2165
2168
2168
2168
2161
2161
2161
2168
2168
2168
2165
2165
2165
2170
2170
2170
2170
2170
2170
2170
2160
2160
2160
2169
2169
2169
2161
2161
2161
2170
2170
2170
2170
2169
2169
2169
2164
2164
2164
2169
2169
2169
2164
2164
2164
2167
2167
2167
2167
2168
2168
2168
2166
2166
2166
2168
2168
2168
2163
2163
2163
2167
2167
2167
2167
2169
2169
2169
2164
2164
2164
2169
2169
2169
2163
2163
2163
2169
2169
2169
2169
2168
2168
2168
2163
2163
2163
2165
2165
2165
2166
2166
2166
2169
2169
2169
2169
2170
2170
2170
2164
2164
2164
2167
2167
2167
2166
2166
2166
2169
2169
2169
2169
2170
2170
2170
2162
2162
2162
2168
2168
2168
2164
2164
2164
2167
2167
2167
2167
2169
2169
2169
2164
2164
2164
2170
2170
2170
2165
2165
2165
2168
2168
2168
2168
2168
2168
2168
2165
2165
2165
2168
2168
2168
2165
2165
2165
2168
2168
2168
2168
2167
2167
2167
2163
2163
2163
2166
2166
2166
2166
2166
2166
2172
2172
2172
2172
2169
2169
2169
2165
2165
2165
2172
2172
2172
2164
2164
2164
2165
2165
2165
2165
2169
2169
2169
2160
2160
2160
2169
2169
2169
2163
2163
2163
2171
2171
2171
2171
2169
2169
2169
2164
2164
2164
2162
2162
2162
2164
2164
2164
2169
2169
2169
2169
2168
2168
2168
2165
2165
2165
2176
2176
2176
2170
2170
2170
2169
2169
2169
2169
2165
2165
2165
2164
2164
2164
2167
2167
2167
2165
2165
2165
2172
2172
2172
2172
2164
2164
2164
2169
2169
2169
2171
2171
2171
2165
2165
2165
2169
2169
2169
2169
2170
2170
2170
2164
2164
2164
2169
2169
2169
2165
2165
2165
2169
2169
2169
2169
2170
2170
2170
2165
2165
2165
2169
2169
2169
2163
2163
2163
2168
2168
2168
2168
2164
2164
2164
2162
2162
2162
2169
2169
2169
2164
2164
2164
2167
2167
2167
2167
2169
2169
2169
2170
2170
2170
2167
2167
2167
2164
2164
2164
2168
2168
2168
2168
2168
2168
2168
2163
2163
2163
2167
2167
2167
2165
2165
2165
2168
2168
2168
2168
2169
2169
2169
2164
2164
2164
2169
2169
2169
2159
2159
2159
2168
2168
2168
2168
2172
2172
2172
2164
2164
2164
2168
2168
2168
2164
2164
2164
2167
2167
2167
2167
2167
2167
2167
2167
2167
2167
2168
2168
2168
2167
2167
2167
2171
2171
2171
2171
2167
2167
2167
2165
2165
2165
2169
2169
2169
2161
2161
2161
2169
2169
2169
2169
2168
2168
2168
2164
2164
2164
2170
2170
2170
2167
2167
2167
2166
2166
2166
2166
2166
2166
2166
2162
2162
2162
2174
2174
2174
2165
2165
2165
2168
2168
2168
2168
2167
2167
2167
2163
2163
2163
2169
2169
2169
2169
2169
2169
2172
2172
2172
2172
2168
2168
2168
2160
2160
2160
2170
2170
2170
2160
2160
2160
2167
2167
2167
2167
2170
2170
2170
2160
2160
2160
2171
2171
2171
2163
2163
2163
2168
2168
2168
2168
2173
2173
2173
2163
2163
2163
2168
2168
2168
2163
2163
2163
2170
2170
2170
2170
2167
2167
2167
2165
2165
2165
2169
2169
2169
2163
2163
2163
2168
2168
2168
2168
2171
2171
2171
2165
2165
2165
2167
2167
2167
2163
2163
2163
2169
2169
2169
2169
2166
2166
2166
2163
2163
2163
2169
2169
2169
2165
2165
2165
2166
2166
2166
2166
2165
2165
2165
2165
2165
2165
2168
2168
2168
2169
2169
2169
2170
2170
2170
2170
2172
2172
2172
2163
2163
2163
2168
2168
2168
2165
2165
2165
2166
2166
2166
2166
2167
2167
2167
2163
2163
2163
2170
2170
2170
2164
2164
2164
2170
2170
2170
2170
2169
2169
2169
2164
2164
2164
2171
2171
2171
2165
2165
2165
2168
2168
2168
2168
2162
2162
2162
2164
2164
2164
2169
2169
2169
2167
2167
2167
2168
2168
2168
2168
2171
2171
2171
2167
2167
2167
2170
2170
2170
2162
2162
2162
2170
2170
2170
2170
2167
2167
2167
2159
2159
2159
2168
2168
2168
2166
2166
2166
2169
2169
2169
2169
2167
2167
2167
2164
2164
2164
2168
2168
2168
2162
2162
2162
2170
2170
2170
2170
2166
2166
2166
2166
2166
2166
2169
2169
2169
2166
2166
2166
2169
2169
2169
2169
2172
2172
2172
2164
2164
2164
2170
2170
2170
2165
2165
2165
2166
2166
2166
2166
2169
2169
2169
2162
2162
2162
2168
2168
2168
2166
2166
2166
2170
2170
2170
2170
2170
2170
2170
2166
2166
2166
2170
2170
2170
2163
2163
2163
2169
2169
2169
2169
2166
2166
2166
2164
2164
2164
2168
2168
2168
2162
2162
2162
2169
2169
2169
2169
2165
2165
2165
2165
2165
2165
2168
2168
2168
2164
2164
2164
2168
2168
2168
2168
2169
2169
2169
2168
2168
2168
2168
2168
2168
2165
2165
2165
2170
2170
2170
2170
2168
2168
2168
2163
2163
2163
2168
2168
2168
2164
2164
2164
2170
2170
2170
2170
2166
2166
2166
2165
2165
2165
2168
2168
2168
2165
2165
2165
2168
2168
2168
2168
2169
2169
2169
2164
2164
2164
2169
2169
2169
2165
2165
2165
2171
2171
2171
2171
2166
2166
2166
2162
2162
2162
2168
2168
2168
2164
2164
2164
2170
2170
2170
2170
2168
2168
2168
2166
2166
2166
2167
2167
2167
2165
2165
2165
2169
2169
2169
2169
2169
2169
2169
2163
2163
2163
2172
2172
2172
2164
2164
2164
2172
2172
2172
2172
2165
2165
2165
2165
2165
2165
2168
2168
2168
2160
2160
2160
2170
2170
2170
2170
2168
2168
2168
2161
2161
2161
2171
2171
2171
2163
2163
2163
2165
2165
2165
2165
2168
2168
2168
2161
2161
2161
2169
2169
2169
2164
2164
2164
2170
2170
2170
2170
2168
2168
2168
2165
2165
2165
2167
2167
2167
2167
2167
2167
2169
2169
2169
2169
2171
2171
2171
2163
2163
2163
2168
2168
2168
2159
2159
2159
2169
2169
2169
2169
2167
2167
2167
2165
2165
2165
2171
2171
2171
2165
2165
2165
2167
2167
2167
2167
2167
2167
2167
2169
2169
2169
2168
2168
2168
2165
2165
2165
2169
2169
2169
2169
2165
2165
2165
2162
2162
2162
2166
2166
2166
2164
2164
2164
2169
2169
2169
2169
2167
2167
2167
2164
2164
2164
2167
2167
2167
2164
2164
2164
2169
2169
2169
2169
2164
2164
2164
2163
2163
2163
2168
2168
2168
2164
2164
2164
2165
2165
2165
2165
2170
2170
2170
2165
2165
2165
2167
2167
2167
2164
2164
2164
2170
2170
2170
2170
2169
2169
2169
2162
2162
2162
2170
2170
2170
2164
2164
2164
2169
2169
2169
2169
2167
2167
2167
2163
2163
2163
2167
2167
2167
2166
2166
2166
2172
2172
2172
2172
2167
2167
2167
2165
2165
2165
2169
2169
2169
2164
2164
2164
2166
2166
2166
2166
2167
2167
2167
2167
2167
2167
2170
2170
2170
2161
2161
2161
2167
2167
2167
2167
2167
2167
2167
2165
2165
2165
2166
2166
2166
2163
2163
2163
2171
2171
2171
2171
2165
2165
2165
2164
2164
2164
2170
2170
2170
2164
2164
2164
2168
2168
2168
2168
2166
2166
2166
2163
2163
2163
2169
2169
2169
2166
2166
2166
2172
2172
2172
2172
2166
2166
2166
2168
2168
2168
2167
2167
2167
2161
2161
2161
2170
2170
2170
2170
2168
2168
2168
2164
2164
2164
2173
2173
2173
2165
2165
2165
2167
2167
2167
2167
2169
2169
2169
2161
2161
2161
2169
2169
2169
2162
2162
2162
2170
2170
2170
2170
2168
2168
2168
2164
2164
2164
2167
2167
2167
2162
2162
2162
2173
2173
2173
2173
2166
2166
2166
2160
2160
2160
2167
2167
2167
2165
2165
2165
2167
2167
2167
2167
2169
2169
2169
2162
2162
2162
2164
2164
2164
2164
2164
2164
2168
2168
2168
2168
2169
2169
2169
2164
2164
2164
2169
2169
2169
2165
2165
2165
2169
2169
2169
2169
2166
2166
2166
2165
2165
2165
2169
2169
2169
2164
2164
2164
2168
2168
2168
2168
2168
2168
2168
2164
2164
2164
2168
2168
2168
2166
2166
2166
2169
2169
2169
2169
2166
2166
2166
2165
2165
2165
2169
2169
2169
2163
2163
2163
2168
2168
2168
2168
2167
2167
2167
2162
2162
2162
2171
2171
2171
2162
2162
2162
2165
2165
2165
2165
2171
2171
2171
2162
2162
2162
2168
2168
2168
2164
2164
2164
2167
2167
2167
2167
2170
2170
2170
2167
2167
2167
2170
2170
2170
2161
2161
2161
2167
2167
2167
2167
2171
2171
2171
2163
2163
2163
2171
2171
2171
2160
2160
2160
2165
2165
2165
2165
2166
2166
2166
2162
2162
2162
2172
2172
2172
2162
2162
2162
2170
2170
2170
2170
2167
2167
2167
2164
2164
2164
2168
2168
2168
2159
2159
2159
2167
2167
2167
2167
2170
2170
2170
2164
2164
2164
2171
2171
2171
2166
2166
2166
2168
2168
2168
2168
2166
2166
2166
2163
2163
2163
2166
2166
2166
2158
2158
2158
2167
2167
2167
2167
2171
2171
2171
2166
2166
2166
2169
2169
2169
2165
2165
2165
2168
2168
2168
2168
2165
2165
2165
2163
2163
2163
2167
2167
2167
2161
2161
2161
2163
2163
2163
2163
2166
2166
2166
2170
2170
2170
2169
2169
2169
2163
2163
2163
2170
2170
2170
2170
2168
2168
2168
2165
2165
2165
2172
2172
2172
2164
2164
2164
2169
2169
2169
2169
2168
2168
2168
2163
2163
2163
2170
2170
2170
2164
2164
2164
2170
2170
2170
2170
2168
2168
2168
2161
2161
2161
2169
2169
2169
2164
2164
2164
2171
2171
2171
2171
2168
2168
2168
2164
2164
2164
2167
2167
2167
2164
2164
2164
2169
2169
2169
2169
2167
2167
2167
2165
2165
2165
2168
2168
2168
2165
2165
2165
2169
2169
2169
2169
2169
2169
2169
2164
2164
2164
2169
2169
2169
2170
2170
2170
2168
2168
2168
2168
2166
2166
2166
2164
2164
2164
2166
2166
2166
2164
2164
2164
2169
2169
2169
2169
2169
2169
2169
2161
2161
2161
2167
2167
2167
2162
2162
2162
2167
2167
2167
2167
2168
2168
2168
2162
2162
2162
2163
2163
2163
2164
2164
2164
2169
2169
2169
2169
2169
2169
2169
2163
2163
2163
2166
2166
2166
2163
2163
2163
2169
2169
2169
2169
2166
2166
2166
2163
2163
2163
2168
2168
2168
2163
2163
2163
2168
2168
2168
2168
2169
2169
2169
2164
2164
2164
2167
2167
2167
2164
2164
2164
2169
2169
2169
2169
2168
2168
2168
2164
2164
2164
2169
2169
2169
2164
2164
2164
2169
2169
2169
2169
2167
2167
2167
2164
2164
2164
2170
2170
2170
2166
2166
2166
2170
2170
2170
2170
2164
2164
2164
2164
2164
2164
2168
2168
2168
2163
2163
2163
2168
2168
2168
2168
2167
2167
2167
2162
2162
2162
2169
2169
2169
2164
2164
2164
2170
2170
2170
2170
2169
2169
2169
2165
2165
2165
2169
2169
2169
2162
2162
2162
2170
2170
2170
2170
2168
2168
2168
2165
2165
2165
2173
2173
2173
2161
2161
2161
2168
2168
2168
2168
2167
2167
2167
2165
2165
2165
2170
2170
2170
2166
2166
2166
2164
2164
2164
2164
2170
2170
2170
2163
2163
2163
2168
2168
2168
2162
2162
2162
2168
2168
2168
2168
2168
2168
2168
2161
2161
2161
2167
2167
2167
2167
2167
2167
2166
2166
2166
2166
2168
2168
2168
2162
2162
2162
2167
2167
2167
2163
2163
2163
2169
2169
2169
2169
2160
2160
2160
2166
2166
2166
2168
2168
2168
2167
2167
2167
2165
2165
2165
2165
2166
2166
2166
2159
2159
2159
2168
2168
2168
2163
2163
2163
2169
2169
2169
2169
2170
2170
2170
2166
2166
2166
2178
2178
2178
2162
2162
2162
2168
2168
2168
2168
2169
2169
2169
2166
2166
2166
2167
2167
2167
2167
2167
2167
2169
2169
2169
2169
2170
2170
2170
2164
2164
2164
2169
2169
2169
2165
2165
2165
2172
2172
2172
2172
2168
2168
2168
2164
2164
2164
2169
2169
2169
2163
2163
2163
2168
2168
2168
2168
2168
2168
2168
2165
2165
2165
2170
2170
2170
2163
2163
2163
2167
2167
2167
2167
2169
2169
2169
2165
2165
2165
2169
2169
2169
2166
2166
2166
2170
2170
2170
2170
2171
2171
2171
2167
2167
2167
2168
2168
2168
2167
2167
2167
2169
2169
2169
2169
2168
2168
2168
2163
2163
2163
2169
2169
2169
2166
2166
2166
2169
2169
2169
2169
2169
2169
2169
2163
2163
2163
2164
2164
2164
2164
2164
2164
2171
2171
2171
2171
2168
2168
2168
2165
2165
2165
2171
2171
2171
2161
2161
2161
2165
2165
2165
2165
2170
2170
2170
2164
2164
2164
2170
2170
2170
2165
2165
2165
2167
2167
2167
2167
2168
2168
2168
2163
2163
2163
2170
2170
2170
2166
2166
2166
2169
2169
2169
2169
2169
2169
2169
2164
2164
2164
2167
2167
2167
2165
2165
2165
2167
2167
2167
2167
2172
2172
2172
2163
2163
2163
2167
2167
2167
2164
2164
2164
2168
2168
2168
2168
2168
2168
2168
2161
2161
2161
2168
2168
2168
2165
2165
2165
2171
2171
2171
2171
2171
2171
2171
2167
2167
2167
2168
2168
2168
2163
2163
2163
2168
2168
2168
2168
2167
2167
2167
2164
2164
2164
2171
2171
2171
2165
2165
2165
2167
2167
2167
2167
2169
2169
2169
2164
2164
2164
2169
2169
2169
2161
2161
2161
2168
2168
2168
2168
2170
2170
2170
2165
2165
2165
2168
2168
2168
2164
2164
2164
2172
2172
2172
2172
2167
2167
2167
2165
2165
2165
2165
2165
2165
2167
2167
2167
2172
2172
2172
2172
2169
2169
2169
2165
2165
2165
2168
2168
2168
2164
2164
2164
2169
2169
2169
2169
2173
2173
2173
2163
2163
2163
2167
2167
2167
2165
2165
2165
2169
2169
2169
2169
2167
2167
2167
2164
2164
2164
2170
2170
2170
2165
2165
2165
2173
2173
2173
2173
2166
2166
2166
2160
2160
2160
2167
2167
2167
2164
2164
2164
2171
2171
2171
2171
2165
2165
2165
2160
2160
2160
2169
2169
2169
2164
2164
2164
2170
2170
2170
2170
2171
2171
2171
2164
2164
2164
2171
2171
2171
2169
2169
2169
2171
2171
2171
2171
2170
2170
2170
2163
2163
2163
2168
2168
2168
2164
2164
2164
2172
2172
2172
2172
2170
2170
2170
2162
2162
2162
2167
2167
2167
2165
2165
2165
2169
2169
2169
2169
2168
2168
2168
2163
2163
2163
2168
2168
2168
2164
2164
2164
2167
2167
2167
2167
2169
2169
2169
2164
2164
2164
2170
2170
2170
2165
2165
2165
2172
2172
2172
2172
2166
2166
2166
2165
2165
2165
2168
2168
2168
2161
2161
2161
2169
2169
2169
2169
2170
2170
2170
2164
2164
2164
2167
2167
2167
2161
2161
2161
2171
2171
2171
2171
2169
2169
2169
2164
2164
2164
2165
2165
2165
2162
2162
2162
2168
2168
2168
2168
2164
2164
2164
2166
2166
2166
2170
2170
2170
2163
2163
2163
2170
2170
2170
2170
2166
2166
2166
2165
2165
2165
2170
2170
2170
2164
2164
2164
2170
2170
2170
2170
2161
2161
2161
2162
2162
2162
2170
2170
2170
2165
2165
2165
2169
2169
2169
2169
2172
2172
2172
2163
2163
2163
2169
2169
2169
2167
2167
2167
2167
2167
2167
2167
2171
2171
2171
2163
2163
2163
2169
2169
2169
2163
2163
2163
2168
2168
2168
2168
2170
2170
2170
2164
2164
2164
2171
2171
2171
2163
2163
2163
2170
2170
2170
2170
2169
2169
2169
2164
2164
2164
2171
2171
2171
2162
2162
2162
2169
2169
2169
2169
2168
2168
2168
2164
2164
2164
2170
2170
2170
2165
2165
2165
2166
2166
2166
2166
2167
2167
2167
2164
2164
2164
2168
2168
2168
2163
2163
2163
2171
2171
2171
2171
2170
2170
2170
2157
2157
2157
2166
2166
2166
2164
2164
2164
2167
2167
2167
2167
2168
2168
2168
2163
2163
2163
2178
2178
2178
2166
2166
2166
2168
2168
2168
2168
2169
2169
2169
2164
2164
2164
2166
2166
2166
2167
2167
2167
2168
2168
2168
2168
2166
2166
2166
2162
2162
2162
2166
2166
2166
2162
2162
2162
2173
2173
2173
2173
2166
2166
2166
2162
2162
2162
2168
2168
2168
2163
2163
2163
2170
2170
2170
2170
2168
2168
2168
2163
2163
2163
2167
2167
2167
2163
2163
2163
2169
2169
2169
2169
2166
2166
2166
2164
2164
2164
2171
2171
2171
2165
2165
2165
2171
2171
2171
2171
2168
2168
2168
2162
2162
2162
2167
2167
2167
2165
2165
2165
2171
2171
2171
2171
2167
2167
2167
2163
2163
2163
2168
2168
2168
2165
2165
2165
2167
2167
2167
2167
2166
2166
2166
2163
2163
2163
2166
2166
2166
2163
2163
2163
2167
2167
2167
2167
2164
2164
2164
2164
2164
2164
2171
2171
2171
2165
2165
2165
2168
2168
2168
2168
2167
2167
2167
2162
2162
2162
2168
2168
2168
2161
2161
2161
2174
2174
2174
2174
2168
2168
2168
2165
2165
2165
2164
2164
2164
2163
2163
2163
2169
