2104
2104
2104
2106
2106
2106
2105
2105
2105
2102
2102
2102
2102
2102
2102
2107
2107
2107
2107
2103
2103
2103
2103
2103
2103
2105
2105
2105
2101
2101
2101
2105
2105
2105
2105
2105
2105
2105
2099
2099
2099
2104
2104
2104
2101
2101
2101
2106
2106
2106
2106
2105
2105
2105
2103
2103
2103
2107
2107
2107
2102
2102
2102
2108
2108
2108
2108
2105
2105
2105
2105
2105
2105
2104
2104
2104
2102
2102
2102
2099
2099
2099
2099
2107
2107
2107
2107
2102
2102
2102
2102
2102
2102
2102
2102
2102
2101
2101
2101
2104
2104
2104
2104
2102
2102
2102
2105
2105
2105
2103
2103
2103
2103
2103
2103
2104
2104
2104
2104
2108
2108
2108
2103
2103
2103
2103
2103
2103
2101
2101
2101
2108
2108
2108
2108
2103
2103
2103
2097
2097
2097
2105
2105
2105
2105
2105
2105
2105
2105
2105
2105
2100
2100
2100
2106
2106
2106
2104
2104
2104
2102
2102
2102
2105
2105
2105
2105
2103
2103
2103
2102
2102
2102
2105
2105
2105
2100
2100
2100
2104
2104
2104
2104
2104
2104
2104
2101
2101
2101
2101
2101
2101
2103
2103
2103
2105
2105
2105
2105
2105
2105
2105
2099
2099
2099
2105
2105
2105
2100
2100
2100
2101
2101
2101
2101
2114
2114
2114
2102
2102
2102
2100
2100
2100
2106
2106
2106
2102
2102
2102
2102
2103
2103
2103
2106
2106
2106
2111
2111
2111
2103
2103
2103
2106
2106
2106
2106
2106
2106
2106
2095
2095
2095
2106
2106
2106
2101
2101
2101
2106
2106
2106
2106
2103
2103
2103
2103
2103
2103
2107
2107
2107
2100
2100
2100
2106
2106
2106
2106
2104
2104
2104
2102
2102
2102
2106
2106
2106
2104
2104
2104
2103
2103
2103
2103
2099
2099
2099
2102
2102
2102
2106
2106
2106
2101
2101
2101
2103
2103
2103
2103
2105
2105
2105
2105
2105
2105
2109
2109
2109
2104
2104
2104
2105
2105
2105
2105
2103
2103
2103
2102
2102
2102
2107
2107
2107
2105
2105
2105
2100
2100
2100
2100
2106
2106
2106
2102
2102
2102
2104
2104
2104
2106
2106
2106
2101
2101
2101
2101
2103
2103
2103
2103
2103
2103
2103
2103
2103
2109
2109
2109
2109
2109
2109
2109
2103
2103
2103
2103
2103
2103
2109
2109
2109
2107
2107
2107
2097
2097
2097
2097
2102
2102
2102
2103
2103
2103
2107
2107
2107
2095
2095
2095
2106
2106
2106
2106
2101
2101
2101
2100
2100
2100
2102
2102
2102
2103
2103
2103
2105
2105
2105
2105
2106
2106
2106
2100
2100
2100
2105
2105
2105
2100
2100
2100
2109
2109
2109
2109
2104
2104
2104
2101
2101
2101
2108
2108
2108
2104
2104
2104
2107
2107
2107
2107
2103
2103
2103
2101
2101
2101
2103
2103
2103
2104
2104
2104
2104
2104
2104
2104
2105
2105
2105
2106
2106
2106
2106
2106
2106
2105
2105
2105
2107
2107
2107
2107
2101
2101
2101
2102
2102
2102
2106
2106
2106
2101
2101
2101
2105
2105
2105
2105
2104
2104
2104
2101
2101
2101
2106
2106
2106
2099
2099
2099
2107
2107
2107
2107
2101
2101
2101
2101
2101
2101
2105
2105
2105
2102
2102
2102
2102
2102
2102
2102
2104
2104
2104
2102
2102
2102
2102
2102
2102
2103
2103
2103
2106
2106
2106
2106
2104
2104
2104
2105
2105
2105
2105
2105
2105
2098
2098
2098
2104
2104
2104
2104
2101
2101
2101
2102
2102
2102
2107
2107
2107
2109
2109
2109
2104
2104
2104
2104
2105
2105
2105
2103
2103
2103
2098
2098
2098
2101
2101
2101
2104
2104
2104
2104
2103
2103
2103
2109
2109
2109
2105
2105
2105
2103
2103
2103
2107
2107
2107
2107
2104
2104
2104
2101
2101
2101
2105
2105
2105
2099
2099
2099
2109
2109
2109
2109
2104
2104
2104
2101
2101
2101
2108
2108
2108
2105
2105
2105
2107
2107
2107
2107
2103
2103
2103
2100
2100
2100
2102
2102
2102
2103
2103
2103
2101
2101
2101
2101
2101
2101
2101
2104
2104
2104
2106
2106
2106
2102
2102
2102
2104
2104
2104
2104
2105
2105
2105
2102
2102
2102
2103
2103
2103
2102
2102
2102
2105
2105
2105
2105
2109
2109
2109
2102
2102
2102
2107
2107
2107
2103
2103
2103
2102
2102
2102
2102
2103
2103
2103
2102
2102
2102
2106
2106
2106
2101
2101
2101
2106
2106
2106
2106
2105
2105
2105
2104
2104
2104
2105
2105
2105
2105
2105
2105
2102
2102
2102
2102
2101
2101
2101
2102
2102
2102
2100
2100
2100
2103
2103
2103
2105
2105
2105
2105
2107
2107
2107
2106
2106
2106
2108
2108
2108
2104
2104
2104
2103
2103
2103
2103
2106
2106
2106
2098
2098
2098
2107
2107
2107
2101
2101
2101
2106
2106
2106
2106
2105
2105
2105
2105
2105
2105
2105
2105
2105
2108
2108
2108
2101
2101
2101
2101
2107
2107
2107
2103
2103
2103
2101
2101
2101
2101
2101
2101
2108
2108
2108
2108
2103
2103
2103
2100
2100
2100
2107
2107
2107
2101
2101
2101
2105
2105
2105
2105
2111
2111
2111
2104
2104
2104
2103
2103
2103
2106
2106
2106
2103
2103
2103
2103
2104
2104
2104
2101
2101
2101
2108
2108
2108
2101
2101
2101
2105
2105
2105
2105
2107
2107
2107
2099
2099
2099
2103
2103
2103
2101
2101
2101
2106
2106
2106
2106
2106
2106
2106
2103
2103
2103
2105
2105
2105
2103
2103
2103
2102
2102
2102
2102
2104
2104
2104
2102
2102
2102
2097
2097
2097
2098
2098
2098
2109
2109
2109
2109
2105
2105
2105
2106
2106
2106
2109
2109
2109
2101
2101
2101
2105
2105
2105
2105
2102
2102
2102
2098
2098
2098
2106
2106
2106
2102
2102
2102
2107
2107
2107
2107
2100
2100
2100
2103
2103
2103
2103
2103
2103
2102
2102
2102
2107
2107
2107
2107
2104
2104
2104
2100
2100
2100
2106
2106
2106
2100
2100
2100
2105
2105
2105
2105
2106
2106
2106
2100
2100
2100
2099
2099
2099
2101
2101
2101
2106
2106
2106
2106
2105
