2086
2086
2086
2085
2085
2085
2090
2090
2090
2086
2086
2086
2087
2087
2087
2087
2088
2088
2088
2084
2084
2084
2094
2094
2094
2083
2083
2083
2090
2090
2090
2090
2094
2094
2094
2086
2086
2086
2090
2090
2090
2083
2083
2083
2088
2088
2088
2088
2080
2080
2080
2087
2087
2087
2089
2089
2089
2089
2089
2089
2087
2087
2087
2087
2089
2089
2089
2086
2086
2086
2091
2091
2091
2092
2092
2092
2092
2092
2092
2092
2092
2092
2092
2091
2085
2085
2085
2085
2085
2085
2090
2090
2090
2091
2091
2091
2090
2090
2090
2090
2090
2090
2090
2085
2085
2085
2089
2089
2089
2085
2085
2085
2089
2089
2089
2089
2090
2090
2090
2088
2088
2088
2089
2089
2089
2083
2083
2083
2088
2088
2088
2088
2087
2087
2087
2086
2086
2086
2087
2087
2087
2086
2086
2086
2085
2085
2085
2085
2089
2089
2089
2084
2084
2084
2086
2086
2086
2085
2085
2085
2089
2089
2089
2089
2091
2091
2091
2083
2083
2083
2089
2089
2089
2085
2085
2085
2089
2089
2089
2089
2087
2087
2087
2086
2086
2086
2089
2089
2089
2084
2084
2084
2091
2091
2091
2091
2088
2088
2088
2087
2087
2087
2089
2089
2089
2085
2085
2085
2093
2093
2093
2093
2086
2086
2086
2083
2083
2083
2089
2089
2089
2082
2082
2082
2087
2087
2087
2087
2089
2089
2089
2085
2085
2085
2097
2097
2097
2085
2085
2085
2089
2089
2089
2089
2097
2097
2097
2085
2085
2085
2088
2088
2088
2086
2086
2086
2090
2090
2090
2090
2089
2089
2089
2087
2087
2087
2092
2092
2092
2085
2085
2085
2091
2091
2091
2091
2088
2088
2088
2084
2084
2084
2089
2089
2089
2087
2087
2087
2092
2092
2092
2092
2089
2089
2089
2082
2082
2082
2090
2090
2090
2085
2085
2085
2087
2087
2087
2087
2087
2087
2087
2082
2082
2082
2091
2091
2091
2086
2086
2086
2087
2087
2087
2087
2092
2092
2092
2089
2089
2089
2090
2090
2090
2085
2085
2085
2088
2088
2088
2088
2090
2090
2090
2087
2087
2087
2088
2088
2088
2085
2085
2085
2088
2088
2088
2088
2093
2093
2093
2084
2084
2084
2090
2090
2090
2083
2083
2083
2085
2085
2085
2085
2090
2090
2090
2087
2087
2087
2090
2090
2090
2091
2091
2091
2086
2086
2086
2086
2099
2099
2099
2086
2086
2086
2096
2096
2096
2088
2088
2088
2087
2087
2087
2087
2093
2093
2093
2086
2086
2086
2086
2086
2086
2086
2086
2086
2090
2090
2090
2090
2093
2093
2093
2093
2093
2093
2090
2090
2090
2087
2087
2087
2090
2090
2090
2090
2094
2094
2094
2086
2086
2086
2089
2089
2089
2084
2084
2084
2088
2088
2088
2088
2090
2090
2090
2087
2087
2087
2091
2091
2091
2083
2083
2083
2087
2087
2087
2087
2088
2088
2088
2088
2088
2088
2086
2086
2086
2085
2085
2085
2092
2092
2092
2092
2096
2096
2096
2084
2084
2084
2093
2093
2093
2086
2086
2086
2092
2092
2092
2092
2094
2094
2094
2084
2084
2084
2092
2092
2092
2085
2085
2085
2088
2088
2088
2088
2089
2089
2089
2085
2085
2085
2090
2090
2090
2086
2086
2086
2094
2094
2094
2094
2082
2082
2082
2087
2087
2087
2090
2090
2090
2085
2085
2085
2092
2092
2092
2092
2089
2089
2089
2088
2088
2088
2086
2086
2086
2085
2085
2085
2084
2084
2084
2084
2089
2089
2089
2084
2084
2084
2093
2093
2093
2087
2087
2087
2091
2091
2091
2091
2091
2091
2091
2088
2088
2088
2083
2083
2083
2084
2084
2084
2092
2092
2092
2092
2089
2089
2089
2084
2084
2084
2082
2082
2082
2087
2087
2087
2090
2090
2090
2090
2089
2089
2089
2087
2087
2087
2093
2093
2093
2085
2085
2085
2091
2091
2091
2091
2088
2088
2088
2085
2085
2085
2093
2093
2093
2079
2079
2079
2089
2089
2089
2089
2088
2088
2088
2083
2083
2083
2091
2091
2091
2086
2086
2086
2091
2091
2091
2091
2090
2090
2090
2086
2086
2086
2092
2092
2092
2087
2087
2087
2088
2088
2088
2088
2086
2086
2086
2088
2088
2088
2088
2088
2088
2088
2088
2088
2089
2089
2089
2089
2090
2090
2090
2083
2083
2083
2089
2089
2089
2085
2085
2085
2088
2088
2088
2088
2093
2093
2093
2083
2083
2083
2089
2089
2089
2082
2082
2082
2094
2094
2094
2094
2089
2089
2089
2086
2086
2086
2090
2090
2090
2088
2088
2088
2088
2088
2088
2088
2090
2090
2090
2085
2085
2085
2085
2085
2085
2083
2083
2083
2092
2092
2092
2092
2088
2088
2088
2087
2087
2087
2093
2093
2093
2086
2086
2086
2090
2090
2090
2090
2094
2094
2094
2088
2088
2088
2097
2097
2097
2087
2087
2087
2090
2090
2090
2090
2090
2090
2090
2083
2083
2083
2089
2089
2089
2089
2089
2089
2089
2089
2089
2089
2087
2087
2087
2086
2086
2086
2089
2089
2089
2088
2088
2088
2087
2087
2087
2087
2091
2091
2091
2082
2082
2082
2088
2088
2088
2088
2088
2088
2088
2088
2088
2088
2093
2093
2093
2089
2089
2089
2088
2088
2088
2085
2085
2085
2091
2091
2091
2091
2095
2095
2095
2087
2087
2087
2090
2090
2090
2088
2088
2088
2088
2088
2088
2088
2090
2090
2090
2092
2092
2092
2087
2087
2087
2085
2085
2085
2088
2088
2088
2088
2086
2086
2086
2088
2088
2088
2088
2088
2088
2088
2088
2088
2090
2090
2090
2090
2092
2092
2092
2086
2086
2086
2094
2094
2094
2089
2089
2089
2090
2090
2090
2090
2091
2091
2091
2087
2087
2087
2095
2095
2095
2085
2085
2085
2090
2090
2090
2090
2090
2090
2090
2086
2086
2086
2091
2091
2091
2084
2084
2084
2092
2092
2092
2092
2097
2097
2097
2087
2087
2087
2090
2090
2090
2086
2086
2086
2088
2088
2088
2088
2092
2092
2092
2085
2085
2085
2089
2089
2089
2085
2085
2085
2098
2098
2098
2098
2092
2092
2092
2084
2084
2084
2092
2092
2092
2085
2085
2085
2087
2087
2087
2087
2089
2089
2089
2085
