2115
2115
2115
2116
2116
2116
2115
2115
2115
2108
2108
2108
2108
2115
2115
2115
2118
2118
2118
2115
2115
2115
2113
2113
2113
2112
2112
2112
2112
2112
2112
2112
2117
2117
2117
2115
2115
2115
2116
2116
2116
2107
2107
2107
2107
2115
2115
2115
2116
2116
2116
2116
2116
2116
2119
2119
2119
2115
2115
2115
2115
2114
2114
2114
2117
2117
2117
2117
2117
2117
2115
2115
2115
2113
2113
2113
2113
2115
2115
2115
2117
2117
2117
2116
2116
2116
2116
2116
2116
2115
2115
2115
2115
2119
2119
2119
2116
2116
2116
2116
2116
2116
2114
2114
2114
2114
2114
2114
2114
2114
2114
2114
2114
2114
2114
2114
2114
2114
2118
2118
2118
2122
2122
2122
2122
2115
2115
2115
2117
2117
2117
2115
2115
2115
2113
2113
2113
2116
2116
2116
2116
2115
2115
2115
2116
2116
2116
2111
2111
2111
2115
2115
2115
2107
2107
2107
2107
2114
2114
2114
2117
2117
2117
2114
2114
2114
2117
2117
2117
2115
2115
2115
2115
2117
2117
2117
2117
2117
2117
2117
2117
2117
2114
2114
2114
2114
2114
2114
2114
2113
2113
2113
2116
2116
2116
2118
2118
2118
2116
2116
2116
2112
2112
2112
2112
2114
2114
2114
2115
2115
2115
2116
2116
2116
2118
2118
2118
2115
2115
2115
2115
2114
2114
2114
2112
2112
2112
2114
2114
2114
2114
2114
2114
2110
2110
2110
2110
2117
2117
2117
2115
2115
2115
2115
2115
2115
2113
2113
2113
2117
2117
2117
2117
2116
2116
2116
2113
2113
2113
2111
2111
2111
2115
2115
2115
2116
2116
2116
2116
2116
2116
2116
2116
2116
2116
2115
2115
2115
2115
2115
2115
2115
2115
2115
2115
2118
2118
2118
2116
2116
2116
2114
2114
2114
2117
2117
2117
2113
2113
2113
2113
2114
2114
2114
2116
2116
2116
2116
2116
2116
2116
2116
2116
2113
2113
2113
2113
2115
2115
2115
2115
2115
2115
2117
2117
2117
2116
2116
2116
2115
2115
2115
2115
2115
2115
2115
2116
2116
2116
2114
2114
2114
2116
2116
2116
2114
2114
2114
2114
2116
2116
2116
2118
2118
2118
2118
2118
2118
2113
2113
2113
2117
2117
2117
2117
2115
2115
2115
2117
2117
2117
2113
2113
2113
2119
2119
2119
2111
2111
2111
2111
2116
2116
2116
2111
2111
2111
2116
2116
2116
2118
2118
2118
2115
2115
2115
2115
2117
2117
2117
2116
2116
2116
2114
2114
2114
2116
2116
2116
2113
2113
2113
2113
2114
2114
2114
2115
2115
2115
2114
2114
2114
2117
2117
2117
2114
2114
2114
2114
2113
2113
2113
2109
2109
2109
2115
2115
2115
2112
2112
2112
2112
2112
2112
2112
2116
2116
2116
2115
2115
2115
2113
2113
2113
2115
2115
2115
2112
2112
2112
2112
2117
2117
2117
2121
2121
2121
2115
2115
2115
2114
2114
2114
2115
2115
2115
2115
2116
2116
2116
2115
2115
2115
2116
2116
2116
2115
2115
2115
2114
2114
2114
2114
2117
2117
2117
2116
2116
2116
2115
2115
2115
2115
2115
2115
2116
2116
2116
2116
2115
2115
2115
2116
2116
2116
2117
2117
2117
2119
2119
2119
2115
2115
2115
2115
2114
2114
2114
2115
2115
2115
2117
2117
2117
2115
2115
2115
2114
2114
2114
2114
2117
2117
2117
2117
2117
2117
2115
2115
2115
2110
2110
2110
2114
2114
2114
2114
2115
2115
2115
2115
2115
2115
2110
2110
2110
2119
2119
2119
2114
2114
2114
2114
2115
2115
2115
2111
2111
2111
2116
2116
2116
2113
2113
2113
2118
2118
2118
2118
2112
2112
2112
2116
2116
2116
2116
2116
2116
2116
2116
2116
2113
2113
2113
2113
2113
2113
2113
2119
2119
2119
2117
2117
2117
2116
2116
2116
2116
2116
2116
2116
2116
2116
2116
2114
2114
2114
2117
2117
2117
2118
2118
2118
2117
2117
2117
2117
2117
2117
2117
2116
2116
2116
2114
2114
2114
2117
2117
2117
2116
2116
2116
2116
2116
2116
2116
2119
2119
2119
2116
2116
2116
2116
2116
2116
2115
2115
2115
2115
2126
2126
2126
2114
2114
2114
2116
2116
2116
2115
2115
2115
2116
2116
2116
2116
2115
2115
2115
2114
2114
2114
2116
2116
2116
2115
2115
2115
2118
2118
2118
2118
2115
2115
2115
2115
2115
2115
2116
2116
2116
2115
2115
2115
2115
2115
2115
2115
2113
2113
2113
2119
2119
2119
2112
2112
2112
2115
2115
2115
2115
2115
2115
2115
2114
2114
2114
2117
2117
2117
2114
2114
2114
2115
2115
2115
2113
2113
2113
2113
2119
2119
2119
2115
2115
2115
2116
2116
2116
2118
2118
2118
2115
2115
2115
2115
2115
2115
2115
2114
2114
2114
2114
2114
2114
2114
2114
2114
2108
2108
2108
2108
2115
2115
2115
2115
2115
2115
2116
2116
2116
2117
2117
2117
2118
2118
2118
2118
2116
2116
2116
2114
2114
2114
2114
2114
2114
2120
2120
2120
2108
2108
2108
2108
2116
2116
2116
2110
2110
2110
2114
2114
2114
2114
2114
2114
2115
2115
2115
2115
2112
2112
2112
2114
2114
2114
2114
2114
2114
2115
2115
2115
2116
2116
2116
2116
2119
2119
2119
2114
2114
2114
2117
2117
2117
2116
2116
2116
2117
2117
2117
2117
2110
2110
2110
2110
2110
2110
2115
2115
2115
2116
2116
2116
2114
2114
2114
2114
2118
2118
2118
2115
2115
2115
2114
2114
2114
2114
2114
2114
2111
2111
2111
2111
2114
2114
2114
2115
2115
2115
2116
2116
2116
2114
2114
2114
2116
2116
2116
2116
2115
2115
2115
2117
2117
2117
2114
2114
2114
2115
2115
2115
2115
2115
2115
2115
2115
2115
2115
2119
2119
2119
2115
2115
2115
2115
2115
2115
2115
2115
2115
2115
2112
2112
2112
2115
2115
2115
2114
2114
2114
2114
2114
2114
2113
2113
2113
2113
2118
2118
2118
2117
2117
2117
2114
2114
2114
2116
2116
2116
2116
2116
2116
2116
2118
2118
2118
2115
2115
2115
2113
2113
2113
2120
2120
2120
2113
2113
2113
2113
2117
2117
2117
2116
2116
2116
2116
2116
2116
2115
2115
2115
2113
2113
2113
2113
2116
2116
2116
2118
2118
2118
2115
2115
2115
2116
2116
2116
2113
2113
2113
2113
2116
2116
2116
2116
2116
2116
2115
2115
2115
2116
2116
2116
2114
2114
2114
2114
2114
2114
2114
2114
2114
2114
2117
2117
2117
2115
2115
2115
2115
2115
2115
2115
2114
2114
2114
2115
2115
2115
2117
2117
2117
2114
2114
2114
2114
2114
2114
2114
2115
2115
2115
2115
2115
2115
2111
2111
2111
2115
2115
2115
2110
2110
2110
2110
2114
2114
2114
2116
2116
2116
2116
2116
2116
2122
2122
2122
2115
2115
2115
2115
2116
2116
2116
2117
2117
2117
2108
2108
2108
2115
2115
2115
2113
2113
2113
2113
2115
2115
2115
2116
2116
2116
2116
2116
2116
2115
2115
2115
2116
2116
2116
2116
2115
2115
2115
2116
2116
2116
2116
2116
2116
2116
2116
2116
2113
2113
2113
2113
2114
2114
2114
2115
2115
2115
2115
2115
2115
2115
2115
2115
2113
2113
2113
2113
2114
2114
2114
2114
2114
2114
2116
2116
2116
2114
2114
2114
2112
2112
2112
2112
2115
2115
2115
2117
2117
2117
2118
2118
2118
2113
2113
2113
2111
2111
2111
2111
2114
2114
2114
2111
2111
2111
2116
2116
2116
2116
2116
2116
2115
2115
2115
2115
2113
2113
2113
2116
2116
2116
2115
2115
2115
2116
2116
2116
2117
2117
2117
2117
2115
2115
2115
2114
2114
2114
2114
2114
2114
2113
2113
2113
2109
2109
2109
2109
2115
2115
2115
2114
2114
2114
2112
2112
2112
2116
2116
2116
2116
2116
2116
2116
2115
2115
2115
2117
2117
2117
2114
2114
2114
2115
2115
2115
2117
2117
2117
2117
2112
2112
2112
2117
2117
2117
2117
2117
2117
2116
2116
2116
2115
2115
2115
2115
2113
2113
2113
2117
2117
2117
2116
2116
2116
2116
2116
2116
2115
2115
2115
2115
2113
2113
2113
2115
2115
2115
2115
2115
2115
2115
2115
2115
2111
2111
2111
2111
2114
2114
2114
2114
2114
2114
2116
2116
2116
2110
2110
2110
2115
2115
2115
2115
2114
2114
2114
2115
2115
2115
2113
2113
2113
2117
2117
2117
2109
2109
2109
2109
2117
2117
2117
2116
2116
2116
2115
2115
2115
2116
2116
2116
2112
2112
2112
2112
2113
2113
2113
2116
2116
2116
2110
2110
2110
2115
2115
2115
2111
2111
2111
2111
2113
2113
2113
2111
2111
2111
2116
2116
2116
2115
2115
2115
2113
2113
2113
2113
2114
2114
2114
2114
2114
2114
2114
2114
2114
2117
2117
2117
2115
2115
2115
2115
2116
2116
2116
2114
2114
2114
2113
2113
2113
2116
2116
2116
2114
2114
2114
2114
2117
2117
2117
2114
2114
2114
2115
2115
2115
2117
2117
2117
2115
2115
2115
2115
2115
2115
2115
2117
2117
2117
2116
2116
2116
2114
2114
2114
2114
2114
2114
2114
2118
2118
2118
2111
2111
2111
2114
2114
2114
2116
2116
2116
2116
2116
2116
2116
2118
2118
2118
2117
2117
2117
2115
2115
2115
2116
2116
2116
2115
2115
2115
2115
2117
2117
2117
2114
2114
2114
2117
2117
2117
2116
2116
2116
2113
2113
2113
2113
2114
2114
2114
2117
2117
2117
2113
2113
2113
2115
2115
2115
2115
2115
2115
2115
2116
2116
2116
2115
2115
2115
2115
2115
2115
2115
2115
2115
2119
2119
2119
2119
2114
2114
2114
2114
2114
2114
2113
2113
2113
2115
2115
2115
2113
2113
2113
2113
2116
2116
2116
2115
2115
2115
2115
2115
2115
2116
2116
2116
2115
2115
2115
2115
2114
2114
2114
2117
2117
2117
2116
2116
2116
2115
2115
2115
2115
2115
2115
2115
2116
2116
2116
2113
2113
2113
2117
2117
2117
2113
2113
2113
2114
2114
2114
2114
2114
2114
2114
2116
2116
2116
2111
2111
2111
2116
2116
2116
2114
2114
2114
2114
2116
2116
2116
2113
2113
2113
2115
2115
2115
2115
2115
2115
2114
2114
2114
2114
2115
2115
2115
2117
2117
2117
2113
2113
2113
2117
2117
2117
2114
2114
2114
2114
2117
2117
2117
2117
2117
2117
2115
2115
2115
2117
2117
2117
2117
2117
2117
2117
2115
2115
2115
2114
2114
2114
2115
2115
2115
2116
2116
2116
2113
2113
2113
2113
2115
2115
2115
2114
2114
2114
2114
2114
2114
2117
2117
2117
2118
2118
2118
2118
2118
2118
2118
2116
2116
2116
2115
2115
2115
2115
2115
2115
2119
2119
2119
2119
2115
2115
2115
2116
2116
2116
2116
2116
2116
2114
2114
2114
2114
2114
2114
2114
2112
2112
2112
2115
2115
2115
2124
2124
2124
2116
2116
2116
2117
2117
2117
2117
2113
2113
2113
2113
2113
2113
2117
2117
2117
2114
2114
2114
2116
2116
2116
2116
2115
2115
2115
2114
2114
2114
2115
2115
2115
2115
2115
2115
2113
2113
2113
2113
2116
2116
2116
2115
2115
2115
2115
2115
2115
2116
2116
2116
2117
2117
2117
2117
2116
2116
2116
2115
2115
2115
2114
2114
2114
2117
2117
2117
2114
2114
2114
2114
2116
2116
2116
2116
2116
2116
2115
2115
2115
2117
2117
2117
2113
2113
2113
2113
2115
2115
2115
2114
2114
2114
2114
2114
2114
2114
2114
2114
2114
2114
2114
2114
2116
2116
2116
2115
2115
2115
2114
2114
2114
2115
2115
2115
2115
2115
2115
2115
2114
2114
2114
2115
2115
2115
2115
2115
2115
2114
2114
2114
2116
2116
2116
2116
2117
2117
2117
2117
2117
2117
2115
2115
2115
2109
2109
2109
2116
2116
2116
2116
2113
2113
2113
2115
2115
2115
2111
2111
2111
2114
2114
2114
2113
2113
2113
2113
2116
2116
2116
2116
2116
2116
2115
2115
2115
2110
2110
2110
2113
2113
2113
2113
2115
2115
2115
2115
2115
2115
2113
2113
2113
2118
2118
2118
2115
2115
2115
2115
2113
2113
2113
2115
2115
2115
2117
2117
2117
2115
2115
2115
2116
2116
2116
2116
2115
2115
2115
2117
2117
2117
2115
2115
2115
2114
2114
2114
2115
2115
2115
2115
2114
2114
2114
2113
2113
2113
2113
2113
2113
2116
2116
2116
2113
2113
2113
2113
2113
2113
2113
2118
2118
2118
2116
2116
2116
2116
2116
2116
2113
2113
2113
2113
2116
2116
2116
2115
2115
2115
2116
2116
2116
2112
2112
2112
2115
2115
2115
2115
2116
2116
2116
2115
2115
2115
2114
2114
2114
2119
2119
2119
2115
2115
2115
2115
2115
2115
2115
2115
2115
2115
2115
2115
2115
2116
2116
2116
2112
2112
2112
2112
2113
2113
2113
2117
2117
2117
2116
2116
2116
2112
2112
2112
2117
2117
2117
2117
2117
2117
2117
2114
2114
2114
2117
2117
2117
2114
2114
2114
2113
2113
2113
2113
2119
2119
2119
2116
2116
2116
2114
2114
2114
2117
2117
2117
2105
2105
2105
2105
2120
2120
2120
2116
2116
2116
2114
2114
2114
2116
2116
2116
2114
2114
2114
2114
2117
2117
2117
2114
2114
2114
2114
2114
2114
2115
2115
2115
2111
2111
2111
2111
2117
2117
2117
2117
2117
2117
2115
2115
2115
2118
2118
2118
2116
2116
2116
2116
2115
2115
2115
2115
2115
2115
2111
2111
2111
2116
2116
2116
2113
2113
2113
2113
2114
2114
2114
2119
2119
2119
2116
2116
2116
2117
2117
2117
2114
2114
2114
2114
2116
2116
2116
2116
2116
2116
2116
2116
2116
2113
2113
2113
2112
2112
2112
2112
2115
2115
2115
2114
2114
2114
2115
2115
2115
2115
2115
2115
2115
2115
2115
2115
2113
2113
2113
2115
2115
2115
2112
2112
2112
2114
2114
2114
2112
2112
2112
2112
2118
2118
2118
2115
2115
2115
2111
2111
2111
2117
2117
2117
2117
2117
2117
2117
2116
2116
2116
2119
2119
2119
2116
2116
2116
2114
2114
2114
2118
2118
2118
2118
2116
2116
2116
2115
2115
2115
2114
2114
2114
2115
2115
2115
2114
2114
2114
2114
2116
2116
2116
2116
2116
2116
2118
2118
2118
2114
2114
2114
2114
2114
2114
2114
2117
2117
2117
2115
2115
2115
2115
2115
2115
2116
2116
2116
2116
2116
2116
2116
2116
2116
2116
2116
2116
2116
2116
2116
2116
2113
2113
2113
2115
2115
2115
2115
2112
2112
2112
2115
2115
2115
2119
2119
2119
2114
2114
2114
2118
2118
2118
2118
2116
2116
2116
2122
2122
2122
2115
2115
2115
2119
2119
2119
2117
2117
2117
2117
2113
2113
2113
2117
2117
2117
2115
2115
2115
2115
2115
2115
2114
2114
2114
2114
2116
2116
2116
2113
2113
2113
2116
2116
2116
2113
2113
2113
2113
2113
2113
2113
2116
2116
2116
2113
2113
2113
2115
2115
2115
2116
2116
2116
2116
2116
2116
2116
2114
2114
2114
2117
2117
2117
2118
2118
2118
2116
2116
2116
2117
2117
2117
2117
2115
2115
2115
2119
2119
2119
2113
2113
2113
2113
2113
2113
2115
2115
2115
2115
2117
2117
2117
2115
2115
2115
2117
2117
2117
2116
2116
2116
2115
2115
2115
2115
2113
2113
2113
2116
2116
2116
2117
2117
2117
2115
2115
2115
2112
2112
2112
2112
2113
2113
2113
2118
2118
2118
2114
2114
2114
2117
2117
2117
2117
2117
2117
2117
2113
2113
2113
2117
2117
2117
2113
2113
2113
2115
2115
2115
2113
2113
2113
2113
2115
2115
2115
2116
2116
2116
2115
2115
2115
2118
2118
2118
2114
2114
2114
2114
2116
2116
2116
2114
2114
2114
2116
2116
2116
2115
2115
2115
2116
2116
2116
2116
2116
2116
2116
2118
2118
2118
2117
2117
2117
2115
2115
2115
2114
2114
2114
2114
2113
2113
2113
2118
2118
2118
2114
2114
2114
2114
2114
2114
2115
2115
2115
2115
2116
2116
2116
2119
2119
2119
2117
2117
2117
2116
2116
2116
2115
2115
2115
2115
2118
2118
2118
2117
2117
2117
2115
2115
2115
2115
2115
2115
2121
2121
2121
2121
2114
2114
2114
2118
2118
2118
2116
2116
2116
2111
2111
2111
2115
2115
2115
2115
2113
2113
2113
2116
2116
2116
2114
2114
2114
2115
2115
2115
2116
2116
2116
2116
2114
2114
2114
2116
2116
2116
2117
2117
2117
2116
2116
2116
2112
2112
2112
2112
2116
2116
2116
2115
2115
2115
2115
2115
2115
2116
2116
2116
2116
2116
2116
2116
2114
2114
2114
2116
2116
2116
2115
2115
2115
2116
2116
2116
2115
2115
2115
2115
2114
2114
2114
2114
2114
2114
2112
2112
2112
2116
2116
2116
2114
2114
2114
2114
2113
2113
2113
2114
2114
2114
2116
2116
2116
2115
2115
2115
2115
2115
2115
2115
2116
2116
2116
2114
2114
2114
2114
2114
2114
2114
2114
2114
2113
2113
2113
2113
2114
2114
2114
2115
2115
2115
2115
2115
2115
2116
2116
2116
2114
2114
2114
2114
2117
2117
2117
2115
2115
2115
2118
2118
2118
2117
2117
2117
2115
2115
2115
2115
2114
2114
2114
2114
2114
2114
2115
2115
2115
2116
2116
2116
2114
2114
2114
2114
2115
2115
2115
2114
2114
2114
2115
2115
2115
2119
2119
2119
2115
2115
2115
2115
2113
2113
2113
2117
2117
2117
2116
2116
2116
2115
2115
2115
2117
2117
2117
2117
2114
2114
2114
2118
2118
2118
2115
2115
2115
2117
2117
2117
2116
2116
2116
2116
2116
2116
2116
2116
2116
2116
2118
2118
2118
2118
2118
2118
2115
2115
2115
2115
2113
2113
2113
2119
2119
2119
2118
2118
2118
2116
2116
2116
2113
2113
2113
2113
2114
2114
2114
2117
2117
2117
2112
2112
2112
2111
2111
2111
2115
2115
2115
2115
2113
2113
2113
2125
2125
2125
2111
2111
2111
2116
2116
2116
2116
2116
2116
2116
2117
2117
2117
2120
2120
2120
2117
2117
2117
2115
2115
2115
2112
2112
2112
2112
2115
2115
2115
2115
2115
2115
2114
2114
2114
2116
2116
2116
2115
2115
2115
2115
2115
2115
2115
2117
2117
2117
2112
2112
2112
2114
2114
2114
2117
2117
2117
2117
2113
2113
2113
2116
2116
2116
2116
2116
2116
2115
2115
2115
2114
2114
2114
2114
2119
2119
2119
2115
2115
2115
2115
2115
2115
2119
2119
2119
2116
2116
2116
2116
2115
2115
2115
2114
2114
2114
2115
2115
2115
2115
2115
2115
2118
2118
2118
2118
2115
2115
2115
2114
2114
2114
2115
2115
2115
2113
2113
2113
2115
2115
2115
2115
2112
2112
2112
2113
2113
2113
2118
2118
2118
2114
2114
2114
2113
2113
2113
2113
2115
2115
2115
2116
2116
2116
2116
2116
2116
2117
2117
2117
2113
2113
2113
2113
2113
2113
2113
2118
2118
2118
2113
2113
2113
2116
2116
2116
2113
2113
2113
2113
2114
2114
2114
2114
2114
2114
2114
2114
2114
2116
2116
2116
2113
2113
2113
2113
2114
2114
2114
2114
2114
2114
2115
2115
2115
2116
2116
2116
2113
2113
2113
2113
2120
2120
2120
2116
2116
2116
2116
2116
2116
2113
2113
2113
2112
2112
2112
2112
2115
2115
2115
2115
2115
2115
2111
2111
2111
2115
2115
2115
2112
2112
2112
2112
2114
2114
2114
2119
2119
2119
2113
2113
2113
2116
2116
2116
2118
2118
2118
2118
2116
2116
2116
2121
2121
2121
2120
2120
2120
2116
2116
2116
2115
2115
2115
2115
2113
2113
2113
2116
2116
2116
2114
2114
2114
2114
2114
2114
2112
2112
2112
2112
2116
2116
2116
2116
2116
2116
2116
2116
2116
2111
2111
2111
2118
2118
2118
2118
2118
2118
2118
2116
2116
2116
2116
2116
2116
2115
2115
2115
2114
2114
2114
2114
2115
2115
2115
2115
2115
2115
2116
2116
2116
2115
2115
2115
2115
2115
2115
2115
2109
2109
2109
2113
2113
2113
2114
2114
2114
2116
2116
2116
2113
2113
2113
2113
2113
2113
2113
2117
2117
2117
2116
2116
2116
2117
2117
2117
2118
2118
2118
2118
2115
2115
2115
2117
2117
2117
2115
2115
2115
2114
2114
2114
2113
2113
2113
2113
2110
2110
2110
2117
2117
2117
2115
2115
2115
2116
2116
2116
2113
2113
2113
2113
2113
2113
2113
2116
2116
2116
2116
2116
2116
2113
2113
2113
2113
2113
2113
2113
2114
2114
2114
2113
2113
2113
2116
2116
2116
2115
2115
2115
2118
2118
2118
2118
2114
2114
2114
2116
2116
2116
2117
2117
2117
2113
2113
2113
2115
2115
2115
2115
2115
2115
2115
2116
2116
2116
2116
2116
2116
2116
2116
2116
2116
2116
2116
2116
2116
2116
2116
2117
2117
2117
2115
2115
2115
2117
2117
2117
2115
2115
2115
2115
2114
2114
2114
2114
2114
2114
2105
2105
2105
2115
2115
2115
2113
2113
2113
2113
2115
2115
2115
2116
2116
2116
2117
2117
2117
2115
2115
2115
2111
2111
2111
2111
2117
2117
2117
2115
2115
2115
2119
2119
2119
2113
2113
2113
2118
2118
2118
2118
2115
2115
2115
2114
2114
2114
2116
2116
2116
2117
2117
2117
2114
2114
2114
2114
2115
2115
2115
2116
2116
2116
2115
2115
2115
2112
2112
2112
2116
2116
2116
2116
2117
2117
2117
2117
2117
2117
2115
2115
2115
2116
2116
2116
2115
2115
2115
2115
2113
2113
2113
2118
2118
2118
2116
2116
2116
2115
2115
2115
2113
2113
2113
2113
2114
2114
2114
2116
2116
2116
2114
2114
2114
2111
2111
2111
2112
2112
2112
2112
2103
2103
2103
2114
2114
2114
2112
2112
2112
2114
2114
2114
2116
2116
2116
2116
2112
2112
2112
2115
2115
2115
2117
2117
2117
2117
2117
2117
2116
2116
2116
2116
2116
2116
2116
2112
2112
2112
2115
2115
2115
2113
2113
2113
2113
2113
2113
2113
2115
2115
2115
2116
2116
2116
2113
2113
2113
2114
2114
2114
2117
2117
2117
2117
2115
2115
2115
2116
2116
2116
2114
2114
2114
2114
2114
2114
2116
2116
2116
2116
2114
2114
2114
2116
2116
2116
2115
2115
2115
2117
2117
2117
2114
2114
2114
2114
2115
2115
2115
2115
2115
2115
2117
2117
2117
2115
2115
2115
2113
2113
2113
2113
2113
2113
2113
2118
2118
2118
2117
2117
2117
2114
2114
2114
2112
2112
2112
2112
2113
2113
2113
2115
2115
2115
2117
2117
2117
2117
2117
2117
2113
2113
2113
2113
2114
2114
2114
2112
2112
2112
2112
2112
2112
2115
2115
2115
2114
2114
2114
2114
2116
2116
2116
2112
2112
2112
2113
2113
2113
2114
2114
2114
2116
2116
2116
2116
2123
2123
2123
2113
2113
2113
2115
2115
2115
2116
2116
2116
2114
2114
2114
2114
2119
2119
2119
2114
2114
2114
2110
2110
2110
2114
2114
2114
2114
2114
2114
2114
2114
2114
2114
2114
2114
2114
2115
2115
2115
2116
2116
2116
2115
2115
2115
2115
2118
2118
2118
2115
2115
2115
2115
2115
2115
2116
2116
2116
2116
2116
2116
2116
2115
2115
2115
2114
2114
2114
2116
2116
2116
2117
2117
2117
2116
2116
2116
2116
2112
2112
2112
2122
2122
2122
2117
2117
2117
2117
2117
2117
2115
2115
2115
2115
2114
2114
2114
2113
2113
2113
2110
2110
2110
2115
2115
2115
2114
2114
2114
2114
2114
2114
2114
2115
2115
2115
2114
2114
2114
2116
2116
2116
2111
2111
2111
2111
2111
2111
2111
2116
2116
2116
2113
2113
2113
2116
2116
2116
2115
2115
2115
2115
2115
2115
2115
2116
2116
2116
2116
2116
2116
2115
2115
2115
2115
2115
2115
2115
2115
2115
2115
2116
2116
2116
2115
2115
2115
2115
2115
2115
2119
2119
2119
2119
2115
2115
2115
2116
2116
2116
2114
2114
2114
2112
2112
2112
2116
2116
2116
2116
2112
2112
2112
2116
2116
2116
2112
2112
2112
2116
2116
2116
2116
2116
2116
2116
2116
2116
2116
2119
2119
2119
2114
2114
2114
2114
2114
2114
2113
2113
2113
2113
2113
2113
2113
2119
2119
2119
2114
2114
2114
2118
2118
2118
2113
2113
2113
2113
2115
2115
2115
2115
2115
2115
2114
2114
2114
2114
2114
2114
2115
2115
2115
2115
2113
2113
2113
2116
2116
2116
2116
2116
2116
2115
2115
2115
2115
2115
2115
2115
2116
2116
2116
2114
2114
2114
2115
2115
2115
2119
2119
2119
2114
2114
2114
2114
2114
2114
2114
2117
2117
2117
2111
2111
2111
2115
2115
2115
2111
2111
2111
2111
2112
2112
2112
2117
2117
2117
2116
2116
2116
2115
2115
2115
2116
2116
2116
2116
2112
2112
2112
2117
2117
2117
2117
2117
2117
2115
2115
2115
2117
2117
2117
2117
2116
2116
2116
2115
2115
2115
2116
2116
2116
2114
2114
2114
2115
2115
2115
2115
2114
2114
2114
2115
2115
2115
2115
2115
2115
2117
2117
2117
2115
2115
2115
2115
2115
2115
2115
2116
2116
2116
2116
2116
2116
2112
2112
2112
2114
2114
2114
2114
2113
2113
2113
2114
2114
2114
2118
2118
2118
2117
2117
2117
2117
2117
2117
2117
2114
2114
2114
2120
2120
2120
2115
2115
2115
2115
2115
2115
2116
2116
2116
2116
2116
2116
2116
2116
2116
2116
2118
2118
2118
2115
2115
2115
2113
2113
2113
2113
2116
2116
2116
2115
2115
2115
2113
2113
2113
2114
2114
2114
2109
2109
2109
2109
2115
2115
2115
2115
2115
2115
2116
2116
2116
2113
2113
2113
2114
2114
2114
2114
2112
2112
2112
2114
2114
2114
2113
2113
2113
2115
2115
2115
2114
2114
2114
2114
2114
2114
2114
2114
2114
2114
2117
2117
2117
2116
2116
2116
2116
2116
2116
2116
2117
2117
2117
2120
2120
2120
2115
2115
2115
2114
2114
2114
2116
2116
2116
2116
2114
2114
2114
2116
2116
2116
2114
2114
2114
2115
2115
2115
2115
2115
2115
2115
2115
2115
2115
2119
2119
2119
2115
2115
2115
2116
2116
2116
2110
2110
2110
2110
2115
2115
2115
2115
2115
2115
2115
2115
2115
2115
2115
2115
2114
2114
2114
2114
2109
2109
2109
2115
2115
2115
2113
2113
2113
2117
2117
2117
2113
2113
2113
2113
2116
2116
2116
2112
2112
2112
2117
2117
2117
2115
2115
2115
2113
2113
2113
2113
2114
2114
2114
2115
2115
2115
2115
2115
2115
2113
2113
2113
2113
2113
2113
2113
2114
2114
2114
2115
2115
2115
2112
2112
2112
2113
2113
2113
2114
2114
2114
2114
2115
2115
2115
2122
2122
2122
2116
2116
2116
2117
2117
2117
2113
2113
2113
2113
2111
2111
2111
2114
2114
2114
2118
2118
2118
2114
2114
2114
2115
2115
2115
2115
2119
2119
2119
2116
2116
2116
2122
2122
2122
2116
2116
2116
2113
2113
2113
2113
2116
2116
2116
2120
2120
2120
2115
2115
2115
2115
2115
2115
2115
2115
2115
2115
2116
2116
2116
2116
2116
2116
2117
2117
2117
2115
2115
2115
2114
2114
2114
2114
2111
2111
2111
2115
2115
2115
2114
2114
2114
2115
2115
2115
2115
2115
2115
2115
2116
2116
2116
2119
2119
2119
2115
2115
2115
2114
2114
2114
2114
2114
2114
2114
2110
2110
2110
2116
2116
2116
2115
2115
2115
2116
2116
2116
2113
2113
2113
2113
2114
2114
2114
2115
2115
2115
2116
2116
2116
2117
2117
2117
2111
2111
2111
2111
2115
2115
2115
2115
2115
2115
2116
2116
2116
2114
2114
2114
2113
2113
2113
2113
2116
2116
2116
2117
2117
2117
2113
2113
2113
2113
2113
2113
2112
2112
2112
2112
2114
2114
2114
2116
2116
2116
2113
2113
2113
2115
2115
2115
2109
2109
2109
2109
2115
2115
2115
2114
2114
2114
2116
2116
2116
2113
2113
2113
2110
2110
2110
2110
2112
2112
2112
2114
2114
2114
2114
2114
2114
2114
2114
2114
2113
2113
2113
2113
2116
2116
2116
2114
2114
2114
2115
2115
2115
2113
2113
2113
2118
2118
2118
2118
2114
2114
2114
2116
2116
2116
2116
2116
2116
2118
2118
2118
2117
2117
2117
2117
2113
2113
2113
2116
2116
2116
2115
2115
2115
2113
2113
2113
2113
2113
2113
2113
2113
2113
2113
2116
2116
2116
2117
2117
2117
2119
2119
2119
2117
2117
2117
2117
2113
2113
2113
2119
2119
2119
2117
2117
2117
2117
2117
2117
2114
2114
2114
2114
2118
2118
2118
2116
2116
2116
2115
2115
2115
2115
2115
2115
2114
2114
2114
2114
2113
2113
2113
2117
2117
2117
2116
2116
2116
2117
2117
2117
2112
2112
2112
2112
2114
2114
2114
2116
2116
2116
2113
2113
2113
2113
2113
2113
2117
2117
2117
2117
2114
2114
2114
2113
2113
2113
2117
2117
2117
2115
2115
2115
2115
2115
2115
2115
2116
2116
2116
2116
2116
2116
2116
2116
2116
2119
2119
2119
2114
2114
2114
2114
2115
2115
2115
2117
2117
2117
2115
2115
2115
2118
2118
2118
2113
2113
2113
2113
2115
2115
2115
2114
2114
2114
2117
2117
2117
2116
2116
2116
2116
2116
2116
2116
2116
2116
2116
2117
2117
2117
2114
2114
2114
2115
2115
2115
2118
2118
2118
2118
2116
2116
2116
2116
2116
2116
2115
2115
2115
2113
2113
2113
2116
2116
2116
2116
2115
2115
2115
2117
2117
2117
2115
2115
2115
2117
2117
2117
2115
2115
2115
2115
2114
2114
2114
2117
2117
2117
2115
2115
2115
2115
2115
2115
2114
2114
2114
2114
2117
2117
2117
2116
2116
2116
2114
2114
2114
2114
2114
2114
2116
2116
2116
2116
2115
2115
2115
2117
2117
2117
2113
2113
2113
2115
2115
2115
2120
2120
2120
2120
2115
2115
2115
2118
2118
2118
2116
2116
2116
2118
2118
2118
2117
2117
2117
2117
2116
2116
2116
2116
2116
2116
2117
2117
2117
2118
2118
2118
2117
2117
2117
2117
2113
2113
2113
2117
2117
2117
2118
2118
2118
2114
2114
2114
2117
2117
2117
2117
2116
2116
2116
2120
2120
2120
2116
2116
2116
2117
2117
2117
2114
2114
2114
2114
2119
2119
2119
2114
2114
2114
2117
2117
2117
2116
2116
2116
2113
2113
2113
2113
2116
2116
2116
2115
2115
2115
2116
2116
2116
2116
2116
2116
2111
2111
2111
2111
2115
2115
2115
2119
2119
2119
2115
2115
2115
2109
2109
2109
2117
2117
2117
2117
2111
2111
2111
2114
2114
2114
2116
2116
2116
2117
2117
2117
2115
2115
2115
2115
2117
2117
2117
2114
2114
2114
2117
2117
2117
2118
2118
2118
2112
2112
2112
2112
2114
2114
2114
2120
2120
2120
2115
2115
2115
2120
2120
2120
2115
2115
2115
2115
2115
2115
2115
2118
2118
2118
2113
2113
2113
2114
2114
2114
2114
2114
2114
2114
2117
2117
2117
2117
2117
2117
2113
2113
2113
2114
2114
2114
2113
2113
2113
2113
2117
2117
2117
2116
2116
2116
2117
2117
2117
2114
2114
2114
2116
2116
2116
2116
2114
2114
2114
2117
2117
2117
2119
2119
2119
2114
2114
2114
2116
2116
2116
2116
2115
2115
2115
2118
2118
2118
2116
2116
2116
2115
2115
2115
2117
2117
2117
2117
2121
2121
2121
2117
2117
2117
2115
2115
2115
2119
2119
2119
2114
2114
2114
2114
2115
2115
2115
2115
2115
2115
2112
2112
2112
2114
2114
2114
2114
2114
2114
2114
2117
2117
2117
2119
2119
2119
2117
2117
2117
2112
2112
2112
2114
2114
2114
2114
2116
2116
2116
2115
2115
2115
2117
2117
2117
2117
2117
2117
2115
2115
2115
2115
2113
2113
2113
2118
2118
2118
2121
2121
2121
2117
2117
2117
2115
2115
2115
2115
2115
2115
2115
2122
2122
2122
2116
2116
2116
2115
2115
2115
2118
2118
2118
2118
2120
2120
2120
2118
2118
2118
2115
2115
2115
2113
2113
2113
2114
2114
2114
2114
2117
2117
2117
2116
2116
2116
2114
2114
2114
2115
2115
2115
2116
2116
2116
2116
2115
2115
2115
2120
2120
2120
2115
2115
2115
2114
2114
2114
2115
2115
2115
2115
2110
2110
2110
2116
2116
2116
2114
2114
2114
2116
2116
2116
2113
2113
2113
2113
2111
2111
2111
2115
2115
2115
2113
2113
2113
2116
2116
2116
2115
2115
2115
2115
2116
2116
2116
2118
2118
2118
2114
2114
2114
2115
2115
2115
2114
2114
2114
2114
2121
2121
2121
2115
2115
2115
2113
2113
2113
2119
2119
2119
2114
2114
2114
2114
2115
2115
2115
2115
2115
2115
2117
2117
2117
2115
2115
2115
2115
2115
2115
2115
2116
2116
2116
2120
2120
2120
2114
2114
2114
2115
2115
2115
2113
2113
2113
2113
2111
2111
2111
2115
2115
2115
2117
2117
2117
2116
2116
2116
2112
2112
2112
2112
2117
2117
2117
2114
2114
2114
2114
2114
2114
2115
2115
2115
2113
2113
2113
2113
2114
2114
2114
2118
2118
2118
2115
2115
2115
2115
2115
2115
2119
2119
2119
2119
2121
2121
2121
2115
2115
2115
2116
2116
2116
2116
2116
2116
2116
2116
2116
2116
2116
2116
2116
2115
2115
2115
2115
2115
2115
2118
2118
2118
2118
2118
2118
2118
2115
2115
2115
2114
2114
2114
2113
2113
2113
2115
2115
2115
2116
2116
2116
2116
2111
2111
2111
2115
2115
2115
2115
2115
2115
2114
2114
2114
2113
2113
2113
2113
2116
2116
2116
2114
2114
2114
2117
2117
2117
2116
2116
2116
2111
2111
2111
2111
2115
2115
2115
2115
2115
2115
2114
2114
2114
2114
2114
2114
2111
2111
2111
2111
2109
2109
2109
2115
2115
2115
2115
2115
2115
2115
2115
2115
2109
2109
2109
2109
2116
2116
2116
2116
2116
2116
2118
2118
2118
2114
2114
2114
2114
2114
2114
2114
2114
2114
2114
2112
2112
2112
2118
2118
2118
2112
2112
2112
2111
2111
2111
2111
2115
2115
2115
2117
2117
2117
2114
2114
2114
2114
2114
2114
2113
2113
2113
2113
2115
2115
2115
2119
2119
2119
2111
2111
2111
2116
2116
2116
2115
2115
2115
2115
2116
2116
2116
2121
2121
2121
2114
2114
2114
2113
2113
2113
2115
2115
2115
2115
2111
2111
2111
2116
2116
2116
2114
2114
2114
2116
2116
2116
2115
2115
2115
2115
2114
2114
2114
2117
2117
2117
2113
2113
2113
2114
2114
2114
2115
2115
2115
2115
2118
2118
2118
2115
2115
2115
2117
2117
2117
2115
2115
2115
2117
2117
2117
2117
2115
2115
2115
2116
2116
2116
2113
2113
2113
2115
2115
2115
2113
2113
2113
2113
2114
2114
2114
2115
2115
2115
2117
2117
2117
2113
2113
2113
2117
2117
2117
2117
2115
2115
2115
2120
2120
2120
2112
2112
2112
2113
2113
2113
2115
2115
2115
2115
2112
2112
2112
2117
2117
2117
2115
2115
2115
2115
2115
2115
2117
2117
2117
2117
2116
2116
2116
2116
2116
2116
2113
2113
2113
2115
2115
2115
2115
2115
2115
2115
2116
2116
2116
2116
2116
2116
2116
2116
2116
2117
2117
2117
2115
2115
2115
2115
2117
2117
2117
2115
2115
2115
2115
2115
2115
2115
2115
2115
2114
2114
2114
2114
2115
2115
2115
2116
2116
2116
2117
2117
2117
2116
2116
2116
2113
2113
2113
2113
2115
2115
2115
2117
2117
2117
2118
2118
2118
2115
2115
2115
2115
2115
2115
2115
2117
2117
2117
2118
2118
2118
2117
2117
2117
2113
2113
2113
2113
2113
2113
2113
2114
2114
2114
2117
2117
2117
2116
2116
2116
2116
2116
2116
2111
2111
2111
2111
2118
2118
2118
2112
2112
2112
2113
2113
2113
2115
2115
2115
2116
2116
2116
2116
2116
2116
2116
2117
2117
2117
2113
2113
2113
2115
2115
2115
2115
2115
2115
2115
2116
2116
2116
2118
2118
2118
2114
2114
2114
2117
2117
2117
2115
2115
2115
2115
2118
2118
2118
2116
2116
2116
2113
2113
2113
2117
2117
2117
2116
2116
2116
2116
2116
2116
2116
2115
2115
2115
2119
2119
2119
2116
2116
2116
2113
2113
2113
2113
2117
2117
2117
2119
2119
2119
2115
2115
2115
2115
2115
2115
2111
2111
2111
2111
2115
2115
2115
2116
2116
2116
2116
2116
2116
2114
2114
2114
2114
2114
2114
2114
2115
2115
2115
2115
2115
2115
2116
2116
2116
2116
2116
2116
2119
2119
2119
2119
2114
2114
2114
2120
2120
2120
2119
2119
2119
2118
2118
2118
2116
2116
2116
2116
2114
2114
2114
2117
2117
2117
2114
2114
2114
2115
2115
2115
2114
2114
2114
2114
2113
2113
2113
2114
2114
2114
2115
2115
2115
2116
2116
2116
2115
2115
2115
2115
2113
2113
2113
2113
2113
2113
2113
2113
2113
2116
2116
2116
2116
2116
2116
2116
2113
2113
2113
2116
2116
2116
2116
2116
2116
2114
2114
2114
2113
2113
2113
2113
2114
2114
2114
2117
2117
2117
2113
2113
2113
2117
2117
2117
2113
2113
2113
2113
2115
2115
2115
2115
2115
2115
2115
2115
2115
2115
2115
2115
2114
2114
2114
2114
2114
2114
2114
2117
2117
2117
2112
2112
2112
2116
2116
2116
2114
2114
2114
2114
2116
2116
2116
2116
2116
2116
2115
2115
2115
2120
2120
2120
2111
2111
2111
2111
2114
2114
2114
2113
2113
2113
2116
2116
2116
2114
2114
2114
2116
2116
2116
2116
2113
2113
2113
2117
2117
2117
2120
2120
2120
2115
2115
2115
2115
2115
2115
2115
2115
2115
2115
2115
2115
2115
2115
2115
2115
2115
2115
2115
2119
2119
2119
2119
2117
2117
2117
2120
2120
2120
2115
2115
2115
2113
2113
2113
2115
2115
2115
2115
2113
2113
2113
2116
2116
2116
2118
2118
2118
2115
2115
2115
2114
2114
2114
2114
2115
2115
2115
2116
2116
2116
2113
2113
2113
2117
2117
2117
2116
2116
2116
2116
2117
2117
2117
2115
2115
2115
2117
2117
2117
2118
2118
2118
2116
2116
2116
2116
2116
2116
2116
2115
2115
2115
2121
2121
2121
2116
2116
2116
2118
2118
2118
2118
2114
2114
2114
2120
2120
2120
2115
2115
2115
2115
2115
2115
2116
2116
2116
2116
2113
2113
2113
2115
2115
2115
2116
2116
2116
2116
2116
2116
2114
2114
2114
2114
2112
2112
2112
2114
2114
2114
2119
2119
2119
2116
2116
2116
2114
2114
2114
2114
2114
2114
2114
2118
2118
2118
2114
2114
2114
2115
2115
2115
2114
2114
2114
2114
2117
2117
2117
2116
2116
2116
2116
2116
2116
2115
2115
2115
2117
2117
2117
2117
2117
2117
2117
2117
2117
2117
2110
2110
2110
2113
2113
2113
2117
2117
2117
2117
2115
2115
2115
2118
2118
2118
2118
2118
2118
2115
2115
2115
2115
2115
2115
2115
2121
2121
2121
2114
2114
2114
2115
2115
2115
2113
2113
2113
2116
2116
2116
2116
2115
2115
2115
2115
2115
2115
2119
2119
2119
2112
2112
2112
2112
2112
2112
2112
2115
2115
2115
2113
2113
2113
2113
2113
2113
2117
2117
2117
2115
2115
2115
2115
2113
2113
2113
2115
2115
2115
2116
2116
2116
2114
2114
2114
2116
2116
2116
2116
2116
2116
2116
2115
2115
2115
2119
2119
2119
2117
2117
2117
2115
2115
2115
2115
2117
2117
2117
2117
2117
2117
2117
2117
2117
2115
2115
2115
2113
2113
2113
2113
2116
2116
2116
2115
2115
2115
2117
2117
2117
2115
2115
2115
2116
2116
2116
2116
2117
2117
2117
2117
2117
2117
2115
2115
2115
2117
2117
2117
2112
2112
2112
2112
2115
2115
2115
2115
2115
2115
2114
2114
2114
2115
2115
2115
2114
2114
2114
2114
2109
2109
2109
2114
2114
2114
2117
2117
2117
2115
2115
2115
2111
2111
2111
2111
2115
2115
2115
2115
2115
2115
2115
2115
2115
2115
2115
2115
2111
2111
2111
2111
2115
2115
2115
2118
2118
2118
2114
2114
2114
2114
2114
2114
2112
2112
2112
2112
2115
2115
2115
2115
2115
2115
2113
2113
2113
2113
2113
2113
2112
2112
2112
2112
2118
2118
2118
2118
2118
2118
2116
2116
2116
2115
2115
2115
2112
2112
2112
2112
2115
2115
2115
2112
2112
2112
2116
2116
2116
2116
2116
2116
2115
2115
2115
2115
2119
2119
2119
2117
2117
2117
2113
2113
2113
2117
2117
2117
2114
2114
2114
2114
2114
2114
2114
2118
2118
2118
2112
2112
2112
2114
2114
2114
2116
2116
2116
2116
2120
2120
2120
2117
2117
2117
2114
2114
2114
2114
2114
2114
2115
2115
2115
2115
2117
2117
2117
2115
2115
2115
2115
2115
2115
2117
2117
2117
2115
2115
2115
2115
2114
2114
2114
2117
2117
2117
2116
2116
2116
2115
2115
2115
2114
2114
2114
2114
2107
2107
2107
2115
2115
2115
2113
2113
2113
2116
2116
2116
2113
2113
2113
2113
2119
2119
2119
2116
2116
2116
2115
2115
2115
2115
2115
2115
2117
2117
2117
2117
2117
2117
2117
2116
2116
2116
2117
2117
2117
2116
2116
2116
2115
2115
2115
2115
2115
2115
2115
2116
2116
2116
2115
2115
2115
2118
2118
2118
2115
2115
2115
2115
2119
2119
2119
2116
2116
2116
2115
2115
2115
2117
2117
2117
2114
2114
2114
2114
2116
2116
2116
2117
2117
2117
2114
2114
2114
2114
2114
2114
2115
2115
2115
2115
2116
2116
2116
2113
2113
2113
2113
2113
2113
2118
2118
2118
2118
2118
2118
2118
2120
2120
2120
2114
2114
2114
2115
2115
2115
2114
2114
2114
2113
2113
2113
2113
2115
2115
2115
2119
2119
2119
2113
2113
2113
2114
2114
2114
2119
2119
2119
2119
2115
2115
2115
2116
2116
2116
2114
2114
2114
2116
2116
2116
2113
2113
2113
2113
2115
2115
2115
2116
2116
2116
2116
2116
2116
2114
2114
2114
2116
2116
2116
2116
2115
2115
2115
2114
2114
2114
2116
2116
2116
2116
2116
2116
2116
2116
2116
2116
2112
2112
2112
2117
2117
2117
2116
2116
2116
2116
2116
2116
2115
2115
2115
2115
2115
2115
2115
2116
2116
2116
2115
2115
2115
2114
2114
2114
2113
2113
2113
2113
2116
2116
2116
2115
2115
2115
2115
2115
2115
2116
2116
2116
2114
2114
2114
2114
2114
2114
2114
2117
2117
2117
2117
2117
2117
2115
2115
2115
2114
2114
2114
2114
2114
2114
2114
2113
2113
2113
2117
2117
2117
2115
2115
2115
2113
2113
2113
2113
2115
2115
2115
2116
2116
2116
2114
2114
2114
2114
2114
2114
2112
2112
2112
2112
2113
2113
2113
2125
2125
2125
2117
2117
2117
2118
2118
2118
2114
2114
2114
2114
2112
2112
2112
2116
2116
2116
2115
2115
2115
2115
2115
2115
2114
2114
2114
2114
2114
2114
2114
2114
2114
2114
2115
2115
2115
2113
2113
2113
2111
2111
2111
2111
2115
2115
2115
2114
2114
2114
2116
2116
2116
2116
2116
2116
2116
2116
2116
2116
2113
2113
2113
2116
2116
2116
2113
2113
2113
2113
2113
2113
2113
2113
2113
2113
2115
2115
2115
2115
2115
2115
2116
2116
2116
2114
2114
2114
2114
2114
2114
2114
2112
2112
2112
2117
2117
2117
2115
2115
2115
2119
2119
2119
2116
2116
2116
2116
2114
2114
2114
2115
2115
2115
2119
2119
2119
2119
2119
2119
2117
2117
2117
2117
2113
2113
2113
2117
2117
2117
2116
2116
2116
2115
2115
2115
2115
2115
2115
2115
2118
2118
2118
2119
2119
2119
2112
2112
2112
2118
2118
2118
2115
2115
2115
2115
2113
2113
2113
2116
2116
2116
2117
2117
2117
2115
2115
2115
2115
2115
2115
2115
2114
2114
2114
2116
2116
2116
2116
2116
2116
2116
2116
2116
2117
2117
2117
2117
2113
2113
2113
2116
2116
2116
2116
2116
2116
2119
2119
2119
2112
2112
2112
2112
2114
2114
2114
2117
2117
2117
2117
2117
2117
2113
2113
2113
2112
2112
2112
2112
2115
2115
2115
2115
2115
2115
2114
2114
2114
2116
2116
2116
2117
2117
2117
2117
2118
2118
2118
2116
2116
2116
2116
2116
2116
2117
2117
2117
2117
2117
2117
2117
2116
2116
2116
2118
2118
2118
2115
2115
2115
2116
2116
2116
2115
2115
2115
2115
2117
2117
2117
2116
2116
2116
2116
2116
2116
2116
2116
2116
2115
2115
2115
2115
2113
2113
2113
2116
2116
2116
2117
2117
2117
2116
2116
2116
2116
2116
2116
2116
2113
2113
2113
2116
2116
2116
2111
2111
2111
2117
2117
2117
2115
2115
2115
2115
2113
2113
2113
2116
2116
2116
2117
2117
2117
2116
2116
2116
2111
2111
2111
2111
2115
2115
2115
2116
2116
2116
2116
2116
2116
2119
2119
2119
2115
2115
2115
2115
2115
2115
2115
2115
2115
2115
2113
2113
2113
2118
2118
2118
2119
2119
2119
2119
2115
2115
2115
2116
2116
2116
2115
2115
2115
2117
2117
2117
2118
2118
2118
2118
2115
2115
2115
2118
2118
2118
2118
2118
2118
2118
2118
2118
2115
2115
2115
2115
2117
2117
2117
2116
2116
2116
2117
2117
2117
2118
2118
2118
2114
2114
2114
2114
2112
2112
2112
2118
2118
2118
2115
2115
2115
2115
2115
2115
2108
2108
2108
2108
2113
2113
2113
2114
2114
2114
2116
2116
2116
2111
2111
2111
2114
2114
2114
2114
2112
2112
2112
2115
2115
2115
2117
2117
2117
2117
2117
2117
2115
2115
2115
2115
2116
2116
2116
2117
2117
2117
2115
2115
2115
2114
2114
2114
2119
2119
2119
2119
2115
2115
2115
2115
2115
2115
2117
2117
2117
2116
2116
2116
2114
2114
2114
2114
2114
2114
2114
2116
2116
2116
2114
2114
2114
2119
2119
2119
2115
2115
2115
2115
2116
2116
2116
2115
2115
2115
2114
2114
2114
2114
2114
2114
2113
2113
2113
2113
2116
2116
2116
2111
2111
2111
2116
2116
2116
2114
2114
2114
2113
2113
2113
2113
2114
2114
2114
2115
2115
2115
2115
2115
2115
2113
2113
2113
2110
2110
2110
2110
2114
2114
2114
2115
2115
2115
2113
2113
2113
2116
2116
2116
2115
2115
2115
2115
2115
2115
2115
2115
2115
2115
2115
2115
2115
2116
2116
2116
2113
2113
2113
2113
2112
2112
2112
2115
2115
2115
2115
2115
2115
2116
2116
2116
2113
2113
2113
2113
2116
2116
2116
2114
2114
2114
2115
2115
2115
2116
2116
2116
2113
2113
2113
2113
2115
2115
2115
2115
2115
2115
2116
2116
2116
2115
2115
2115
2114
2114
2114
2114
2112
2112
2112
2116
2116
2116
2113
2113
2113
2112
2112
2112
2114
2114
2114
2114
2115
2115
2115
2116
2116
2116
2115
2115
2115
2114
2114
2114
2112
2112
2112
2112
2115
2115
2115
2118
2118
2118
2115
2115
2115
2115
2115
2115
2116
2116
2116
2116
2111
2111
2111
2116
2116
2116
2117
2117
2117
2114
2114
2114
2113
2113
2113
2113
2116
2116
2116
2117
2117
2117
2113
2113
2113
2114
2114
2114
2115
2115
2115
2115
2115
2115
2115
2115
2115
2115
2116
2116
2116
2117
2117
2117
2114
2114
2114
2114
2117
2117
2117
2115
2115
2115
2117
2117
2117
2114
2114
2114
2114
2114
2114
2114
2117
2117
2117
2116
2116
2116
2118
2118
2118
2116
2116
2116
2117
2117
2117
2117
2116
2116
2116
2118
2118
2118
2114
2114
2114
2116
2116
2116
2114
2114
2114
2114
2113
2113
2113
2114
2114
2114
2116
2116
2116
2116
2116
2116
2114
2114
2114
2114
2115
2115
2115
2113
2113
2113
2119
2119
2119
2116
2116
2116
2112
2112
2112
2112
2113
2113
2113
2115
2115
2115
2115
2115
2115
2118
2118
2118
2117
2117
2117
2117
2114
2114
2114
2115
2115
2115
2114
2114
2114
2113
2113
2113
2114
2114
2114
2114
2116
2116
2116
2115
2115
2115
2113
2113
2113
2115
2115
2115
2114
2114
2114
2114
2115
2115
2115
2119
2119
2119
2116
2116
2116
2113
2113
2113
2116
2116
2116
2116
2117
2117
2117
2115
2115
2115
2116
2116
2116
2109
2109
2109
2115
2115
2115
2115
2116
2116
2116
2116
2116
2116
2111
2111
2111
2112
2112
2112
2112
2112
2112
2112
2112
2112
2112
2119
2119
2119
2116
2116
2116
2115
2115
2115
2115
2115
2115
2115
2114
2114
2114
2120
2120
2120
2116
2116
2116
2116
2116
2116
2115
2115
2115
2115
2116
2116
2116
2116
2116
2116
2113
2113
2113
2115
2115
2115
2113
2113
2113
2113
2115
2115
2115
2114
2114
2114
2115
2115
2115
2116
2116
2116
2114
2114
2114
2114
2117
2117
2117
2117
2117
2117
2116
2116
2116
2113
2113
2113
2115
2115
2115
2115
2116
2116
2116
2116
2116
2116
2117
2117
2117
2114
2114
2114
2118
2118
2118
2118
2114
2114
2114
2115
2115
2115
2116
2116
2116
2118
2118
2118
2118
2118
2118
2118
2118
2118
2118
2115
2115
2115
2112
2112
2112
2114
2114
2114
2115
2115
2115
2115
2115
2115
2115
2113
2113
2113
2116
2116
2116
2114
2114
2114
2114
2114
2114
2114
2114
2114
2114
2113
2113
2113
2114
2114
2114
2114
2114
2114
2115
2115
2115
2115
2119
2119
2119
2117
2117
2117
2116
2116
2116
2117
2117
2117
2116
2116
2116
2116
2112
2112
2112
2115
2115
2115
2116
2116
2116
2117
2117
2117
2117
2117
2117
2117
2116
2116
2116
2120
2120
2120
2117
2117
2117
2115
2115
2115
2115
2115
2115
2115
2111
2111
2111
2115
2115
2115
2116
2116
2116
2115
2115
2115
2113
2113
2113
2113
2116
2116
2116
2118
2118
2118
2117
2117
2117
2116
2116
2116
2115
2115
2115
2115
2113
2113
2113
2113
2113
2113
2117
2117
2117
2115
2115
2115
2113
2113
2113
2113
2117
2117
2117
2120
2120
2120
2117
2117
2117
2117
2117
2117
2114
2114
2114
2114
2114
2114
2114
2116
2116
2116
2110
2110
2110
2115
2115
2115
2113
2113
2113
2113
2114
2114
2114
2108
2108
2108
2116
2116
2116
2116
2116
2116
2112
2112
2112
2112
2113
2113
2113
2116
2116
2116
2115
2115
2115
2120
2120
2120
2116
2116
2116
2116
2113
2113
2113
2118
2118
2118
2111
2111
2111
2117
2117
2117
2115
2115
2115
2115
2114
2114
2114
2118
2118
2118
2116
2116
2116
2115
2115
2115
2113
2113
2113
2113
2116
2116
2116
2116
2116
2116
2116
2116
2116
2114
2114
2114
2114
2114
2114
2114
2115
2115
2115
2115
2115
2115
2115
2115
2115
2114
2114
2114
2114
2114
2114
2114
2115
2115
2115
2118
2118
2118
2115
2115
2115
2114
2114
2114
2116
2116
2116
2116
2117
2117
2117
2115
2115
2115
2117
2117
2117
2110
2110
2110
2114
2114
2114
2114
2114
2114
2114
2116
2116
2116
2116
2116
2116
2116
2116
2116
2114
2114
2114
2114
2114
2114
2114
2120
2120
2120
2116
2116
2116
2115
2115
2115
2115
2115
2115
2115
2113
2113
2113
2116
2116
2116
2116
2116
2116
2118
2118
2118
2115
2115
2115
2115
2113
2113
2113
2117
2117
2117
2115
2115
2115
2116
2116
2116
2113
2113
2113
2113
2115
2115
2115
2116
2116
2116
2115
2115
2115
2119
2119
2119
2118
2118
2118
2118
2115
2115
2115
2118
2118
2118
2118
2118
2118
2118
2118
2118
2115
2115
2115
2115
2113
2113
2113
2121
2121
2121
2116
2116
2116
2115
2115
2115
2114
2114
2114
2114
2116
2116
2116
2118
2118
2118
2115
2115
2115
2117
2117
2117
2121
2121
2121
2121
2117
2117
2117
2115
2115
2115
2116
2116
2116
2117
2117
2117
2115
2115
2115
2115
2121
2121
2121
2115
2115
2115
2116
2116
2116
2116
2116
2116
2118
2118
2118
2118
2115
2115
2115
2117
2117
2117
2117
2117
2117
2117
2117
2117
2117
2117
2117
2117
2114
2114
2114
2115
2115
2115
2113
2113
2113
2118
2118
2118
2113
2113
2113
2113
2111
2111
2111
2115
2115
2115
2113
2113
2113
2115
2115
2115
2110
2110
2110
2110
2112
2112
2112
2116
2116
2116
2115
2115
2115
2115
2115
2115
2111
2111
2111
2111
2115
2115
2115
2117
2117
2117
2114
2114
2114
2113
2113
2113
2115
2115
2115
2115
2117
2117
2117
2115
2115
2115
2116
2116
2116
2118
2118
2118
2116
2116
2116
2116
2115
2115
2115
2116
2116
2116
2118
2118
2118
2113
2113
2113
2115
2115
2115
2115
2112
2112
2112
2113
2113
2113
2115
2115
2115
2114
2114
2114
2115
2115
2115
2115
2111
2111
2111
2115
2115
2115
2116
2116
2116
2116
2116
2116
2114
2114
2114
2114
2114
2114
2114
2115
2115
2115
2113
2113
2113
2114
2114
2114
2118
2118
2118
2118
2114
2114
2114
2114
2114
2114
2117
2117
2117
2113
2113
2113
2116
2116
2116
2116
2111
2111
2111
2113
2113
2113
2115
2115
2115
2117
2117
2117
2115
2115
2115
2115
2117
2117
2117
2116
2116
2116
2113
2113
2113
2115
2115
2115
2116
2116
2116
2116
2110
2110
2110
2116
2116
2116
2116
2116
2116
2116
2116
2116
2111
2111
2111
2111
2114
2114
2114
2115
2115
2115
2114
2114
2114
2115
2115
2115
2116
2116
2116
2116
2116
2116
2116
2115
2115
2115
2113
2113
2113
2117
2117
2117
2111
2111
2111
2111
2114
2114
2114
2115
2115
2115
2116
2116
2116
2118
2118
2118
2110
2110
2110
2110
2114
2114
2114
2116
2116
2116
2117
2117
2117
2112
2112
2112
2114
2114
2114
2114
2117
2117
2117
2114
2114
2114
2117
2117
2117
2116
2116
2116
2117
2117
2117
2117
2114
2114
2114
2115
2115
2115
2115
2115
2115
2116
2116
2116
2118
2118
2118
2118
2119
2119
2119
2115
2115
2115
2118
2118
2118
2117
2117
2117
2115
2115
2115
2115
2115
2115
2115
2118
2118
2118
2112
2112
2112
2117
2117
2117
2115
2115
2115
2115
2115
2115
2115
2117
2117
2117
2111
2111
2111
2116
2116
2116
2120
2120
2120
2120
2114
2114
2114
2116
2116
2116
2113
2113
2113
2114
2114
2114
2112
2112
2112
2112
2115
2115
2115
2117
2117
2117
2116
2116
2116
2116
2116
2116
2115
2115
2115
2115
2115
2115
2115
2111
2111
2111
2115
2115
2115
2113
2113
2113
2116
2116
2116
2116
2115
2115
2115
2113
2113
2113
2116
2116
2116
2107
2107
2107
2115
2115
2115
2115
2114
2114
2114
2113
2113
2113
2115
2115
2115
2118
2118
2118
2114
2114
2114
2114
2117
2117
2117
2116
2116
2116
2118
2118
2118
2117
2117
2117
2112
2112
2112
2112
2113
2113
2113
2117
2117
2117
2116
2116
2116
2113
2113
2113
2115
2115
2115
2115
2112
2112
2112
2115
2115
2115
2116
2116
2116
2116
2116
2116
2114
2114
2114
2114
2114
2114
2114
2118
2118
2118
2116
2116
2116
2116
2116
2116
2111
2111
2111
2111
2115
2115
2115
2117
2117
2117
2114
2114
2114
2115
2115
2115
2117
2117
2117
2117
2117
2117
2117
2116
2116
2116
2117
2117
2117
2116
2116
2116
2115
2115
2115
2115
2113
2113
2113
2114
2114
2114
2116
2116
2116
2115
2115
2115
2117
2117
2117
2117
2116
2116
2116
2115
2115
2115
2114
2114
2114
2117
2117
2117
2115
2115
2115
2115
2113
2113
2113
2113
2113
2113
2117
2117
2117
2115
2115
2115
2114
2114
2114
2114
2116
2116
2116
2117
2117
2117
2118
2118
2118
2116
2116
2116
2116
2116
2116
2116
2118
2118
2118
2117
2117
2117
2118
2118
2118
2113
2113
2113
2114
2114
2114
2114
2115
2115
2115
2116
2116
2116
2117
2117
2117
2119
2119
2119
2116
2116
2116
2116
2114
2114
2114
2116
2116
2116
2113
2113
2113
2117
2117
2117
2114
2114
2114
2114
2115
2115
2115
2117
2117
2117
2116
2116
2116
2114
2114
2114
2114
2114
2114
2114
2121
2121
2121
2117
2117
2117
2115
2115
2115
2119
2119
2119
2115
2115
2115
2115
2114
2114
2114
2117
2117
2117
2124
2124
2124
2116
2116
2116
2116
2116
2116
2116
2114
2114
2114
2117
2117
2117
2114
2114
2114
2116
2116
2116
2116
2116
2116
2116
2111
2111
2111
2117
2117
2117
2117
2117
2117
2117
2117
2117
2114
2114
2114
2114
2113
2113
2113
2116
2116
2116
2117
2117
2117
2115
2115
2115
2114
2114
2114
2114
2116
2116
2116
2117
2117
2117
2115
2115
2115
2115
2115
2115
2114
2114
2114
2114
2117
2117
2117
2116
2116
2116
2115
2115
2115
2117
2117
2117
2115
2115
2115
2115
2112
2112
2112
2115
2115
2115
2115
2115
2115
2117
2117
2117
2115
2115
2115
2115
2114
2114
2114
2117
2117
2117
2116
2116
2116
2115
2115
2115
2118
2118
2118
2118
2114
2114
2114
2117
2117
2117
2115
2115
2115
2112
2112
2112
2113
2113
2113
2113
2110
2110
2110
2118
2118
2118
2115
2115
2115
2118
2118
2118
2113
2113
2113
2113
2115
2115
2115
2118
2118
2118
2113
2113
2113
2113
2113
2113
2113
2113
2113
2113
2114
2114
2114
2116
2116
2116
2117
2117
2117
2113
2113
2113
2116
2116
2116
2116
2119
2119
2119
2115
2115
2115
2116
2116
2116
2114
2114
2114
2114
2114
2114
2114
2115
2115
2115
2117
2117
2117
2113
2113
2113
2117
2117
2117
2114
2114
2114
2114
2116
2116
2116
2114
2114
2114
2114
2114
2114
2117
2117
2117
2114
2114
2114
2114
2113
2113
2113
2127
2127
2127
2113
2113
2113
2117
2117
2117
2114
2114
2114
2114
2113
2113
2113
2114
2114
2114
2116
2116
2116
2115
2115
2115
2114
2114
2114
2114
2113
2113
2113
2118
2118
2118
2114
2114
2114
2114
2114
2114
2117
2117
2117
2117
2116
2116
2116
2113
2113
2113
2116
2116
2116
2112
2112
2112
2115
2115
2115
2115
2115
2115
2115
2115
2115
2115
2116
2116
2116
2117
2117
2117
2115
2115
2115
2115
2116
2116
2116
2115
2115
2115
2115
2115
2115
2117
2117
2117
2116
2116
2116
2116
2115
2115
2115
2115
2115
2115
2116
2116
2116
2110
2110
2110
2113
2113
2113
2113
2116
2116
2116
2117
2117
2117
2115
2115
2115
2115
2115
2115
2115
2115
2115
2115
2113
2113
2113
2115
2115
2115
2114
2114
2114
2115
2115
2115
2109
2109
2109
2109
2114
2114
2114
2116
2116
2116
2120
2120
2120
2118
2118
2118
2116
2116
2116
2116
2112
2112
2112
2117
2117
2117
2118
2118
2118
2116
2116
2116
2117
2117
2117
2117
2114
2114
2114
2113
2113
2113
2116
2116
2116
2116
2116
2116
2115
2115
2115
2115
2115
2115
2115
2118
2118
2118
2115
2115
2115
2114
2114
2114
2113
2113
2113
2113
2118
2118
2118
2117
2117
2117
2113
2113
2113
2117
2117
2117
2116
2116
2116
2116
2114
2114
2114
2115
2115
2115
2116
2116
2116
2116
2116
2116
2114
2114
2114
2114
2115
2115
2115
2114
2114
2114
2116
2116
2116
2114
2114
2114
2113
2113
2113
2113
2112
2112
2112
2115
2115
2115
2117
2117
2117
2119
2119
2119
2115
2115
2115
2115
2112
2112
2112
2116
2116
2116
2115
2115
2115
2115
2115
2115
2114
2114
2114
2114
2115
2115
2115
2118
2118
2118
2114
2114
2114
2115
2115
2115
2115
2115
2115
2115
2120
2120
2120
2116
2116
2116
2115
2115
2115
2116
2116
2116
2116
2116
2116
2116
2116
2116
2116
2117
2117
2117
2115
2115
2115
2116
2116
2116
2121
2121
2121
2121
2112
2112
2112
2109
2109
2109
2115
2115
2115
2119
2119
2119
2115
2115
2115
2115
2115
2115
2115
2116
2116
2116
2114
2114
2114
2109
2109
2109
2112
2112
2112
2112
2112
2112
2112
2115
2115
2115
2117
2117
2117
2114
2114
2114
2114
2114
2114
2114
2112
2112
2112
2116
2116
2116
2114
2114
2114
2115
2115
2115
2111
2111
2111
2111
2114
2114
2114
2115
2115
2115
2113
2113
2113
2116
2116
2116
2113
2113
2113
2113
2115
2115
2115
2115
2115
2115
2114
2114
2114
2116
2116
2116
2114
2114
2114
2114
2113
2113
2113
2116
2116
2116
2116
2116
2116
2117
2117
2117
2116
2116
2116
2116
2116
2116
2116
2117
2117
2117
2115
2115
2115
2114
2114
2114
2117
2117
2117
2117
2115
2115
2115
2116
2116
2116
2115
2115
2115
2115
2115
2115
2113
2113
2113
2113
2114
2114
2114
2118
2118
2118
2120
2120
2120
2115
2115
2115
2113
2113
2113
2113
2117
2117
2117
2114
2114
2114
2113
2113
2113
2115
2115
2115
2116
2116
2116
2116
2118
2118
2118
2115
2115
2115
2115
2115
2115
2119
2119
2119
2113
2113
2113
2113
2117
2117
2117
2117
2117
2117
2111
2111
2111
2115
2115
2115
2114
2114
2114
2114
2115
2115
2115
2114
2114
2114
2110
2110
2110
2114
2114
2114
2120
2120
2120
2120
2115
2115
2115
2116
2116
2116
2116
2116
2116
2113
2113
2113
2114
2114
2114
2114
2113
2113
2113
2117
2117
2117
2112
2112
2112
2113
2113
2113
2114
2114
2114
2114
2113
2113
2113
2113
2113
2113
2111
2111
2111
2115
2115
2115
2113
2113
2113
2113
2114
2114
2114
2113
2113
2113
2114
2114
2114
2117
2117
2117
2113
2113
2113
2113
2115
2115
2115
2116
2116
2116
2115
2115
2115
2116
2116
2116
2117
2117
2117
2117
2113
2113
2113
2115
2115
2115
2114
2114
2114
2116
2116
2116
2113
2113
2113
2113
2116
2116
2116
2115
2115
2115
2116
2116
2116
2114
2114
2114
2115
2115
2115
2115
2113
2113
2113
2116
2116
2116
2117
2117
2117
2118
2118
2118
2114
2114
2114
2114
2117
2117
2117
2116
2116
2116
2116
2116
2116
2114
2114
2114
2116
2116
2116
2116
2117
2117
2117
2118
2118
2118
2115
2115
2115
2114
2114
2114
2112
2112
2112
2112
2114
2114
2114
