1985
1987
1987
1987
1987
1985
1985
1985
1982
1982
1982
1983
1983
1983
1983
1983
1983
1986
1986
1986
1986
1987
1987
1987
1981
1981
1981
1987
1987
1987
1983
1983
1983
1988
1988
1988
1988
1990
1990
1990
1983
1983
1983
1987
1987
1987
1984
1984
1984
1987
1987
1987
1987
1988
1988
1988
1983
1983
1983
1986
1986
1986
1984
1984
1984
1987
1987
1987
1987
1990
1990
1990
1984
1984
1984
1988
1988
1988
1983
1983
1983
1988
1988
1988
1978
1978
1978
1978
1985
1985
1985
1979
1979
1979
1985
1985
1985
1982
1982
1982
1989
1989
1989
1989
1988
1988
1988
1987
1987
1987
1982
1982
1982
1983
1983
1983
1986
1986
1986
1986
1986
1986
1986
1982
1982
1982
1989
1989
1989
1981
1981
1981
1987
1987
1987
1987
1986
1986
1986
1983
1983
1983
1991
1991
1991
1980
1980
1980
1986
1986
1986
1986
1987
1987
1987
1981
1981
1981
1992
1992
1992
1983
1983
1983
1986
1986
1986
1986
1992
1992
1992
1982
1982
1982
1988
1988
1988
1983
1983
1983
1990
1990
1990
1990
1985
1985
1985
1981
1981
1981
1987
1987
1987
1983
1983
1983
1989
1989
1989
1989
1991
1991
1991
1983
1983
1983
1987
1987
1987
1989
1989
1989
1988
1988
1988
1988
1986
1986
1986
1983
1983
1983
1988
1988
1988
1979
1979
1979
1987
1987
1987
1987
1986
1986
1986
1982
1982
1982
1985
1985
1985
1984
1984
1984
1986
1986
1986
1986
1987
1987
1987
1983
1983
1983
1989
1989
1989
1982
1982
1982
1989
1989
1989
1989
1987
1987
1987
1982
1982
1982
1990
1990
1990
1985
1985
1985
1988
1988
1988
1988
1986
1986
1986
1982
1982
1982
1985
1985
1985
1984
1984
1984
1989
1989
1989
1989
1982
1982
1982
1980
1980
1980
1985
1985
1985
1982
1982
1982
1988
1988
1988
1988
1995
1995
1995
1983
1983
1983
1986
1986
1986
1985
1985
1985
1987
1987
1987
1987
1985
1985
1985
1982
1982
1982
1987
1987
1987
1983
1983
1983
1988
1988
1988
1988
1986
1986
1986
1983
1983
1983
1985
1985
1985
1983
1983
1983
1987
1987
1987
1987
1985
1985
1985
1983
1983
1983
1990
1990
1990
1983
1983
1983
1985
1985
1985
1985
1985
1985
1985
1983
1983
1983
1987
1987
1987
1983
1983
1983
1984
1984
1984
1984
1984
1984
1984
1983
1983
1983
1987
1987
1987
1983
1983
1983
1990
1990
1990
1990
1983
1983
1983
1983
1983
1983
1988
1988
1988
1984
1984
1984
1985
1985
1985
1985
1983
1983
1983
1978
1978
1978
1988
1988
1988
1983
1983
1983
1986
1986
1986
1986
1987
1987
1987
1984
1984
1984
1983
1983
1983
1983
1983
1983
1983
1983
1983
1983
1980
1980
1980
1982
1982
1982
1989
1989
1989
1982
1982
1982
1987
1987
1987
1987
1983
1983
1983
1986
1986
1986
1989
1989
1989
1980
1980
1980
1985
1985
1985
1985
1986
1986
1986
1982
1982
1982
1988
1988
1988
1986
1986
1986
1990
1990
1990
1990
1988
1988
1988
1977
1977
1977
1987
1987
1987
1988
1988
1988
1994
1994
1994
1994
1987
1987
1987
1982
1982
1982
1986
1986
1986
1986
1986
1986
1987
1987
1987
1987
1987
1987
1987
1983
1983
1983
1991
1991
1991
1983
1983
1983
1984
1984
1984
1984
1987
1987
1987
1982
1982
1982
1990
1990
1990
1982
1982
1982
1989
1989
1989
1989
1988
1988
1988
1981
1981
1981
1984
1984
1984
1984
1984
1984
1990
1990
1990
1990
1988
1988
1988
1985
1985
1985
1988
1988
1988
1981
1981
1981
1989
1989
1989
1989
1990
1990
1990
1982
1982
1982
1987
1987
1987
1987
1987
1987
1985
1985
1985
1985
1988
1988
1988
1982
1982
1982
1988
1988
1988
1982
1982
1982
1987
1987
1987
1987
1988
1988
1988
1983
1983
1983
1986
1986
1986
1981
1981
1981
1992
1992
1992
1992
1986
1986
1986
1982
1982
1982
1987
1987
1987
1983
1983
1983
1986
1986
1986
1986
1985
1985
1985
1983
1983
1983
1987
1987
1987
1981
1981
1981
1988
1988
1988
1988
1988
1988
1988
1978
1978
1978
1985
1985
1985
1981
1981
1981
1983
1983
1983
1983
1986
1986
1986
1988
1988
1988
1986
1986
1986
1980
1980
1980
1985
1985
1985
1985
1989
1989
1989
1984
1984
1984
1988
1988
1988
1984
1984
1984
1987
1987
1987
1987
1989
1989
1989
1982
1982
1982
1986
1986
1986
1982
1982
1982
1987
1987
1987
1987
1988
1988
1988
1981
1981
1981
1987
1987
1987
1983
1983
1983
1987
1987
1987
1987
1987
1987
1987
1982
1982
1982
1988
1988
1988
1981
1981
1981
1987
1987
1987
1987
1987
1987
1987
1980
1980
1980
1986
1986
1986
1983
1983
1983
1988
1988
1988
1988
1985
1985
1985
1985
1985
1985
1988
1988
1988
1986
1986
1986
1995
1995
1995
1995
1986
1986
1986
1989
1989
1989
1986
1986
1986
1984
1984
1984
1987
1987
1987
1987
1984
1984
1984
1982
1982
1982
1984
1984
1984
1985
1985
1985
1984
1984
1984
1984
1984
1984
1984
1985
1985
1985
1979
1979
1979
1984
1984
1984
1986
1986
1986
1986
1982
1982
1982
1983
1983
1983
1987
1987
1987
1981
1981
1981
1985
1985
1985
1985
1988
1988
1988
1980
1980
1980
1988
1988
1988
1978
1978
1978
1989
1989
1989
1989
1985
1985
1985
1984
1984
1984
1984
1984
1984
1981
1981
1981
1986
1986
1986
1986
1982
1982
1982
1983
1983
1983
1990
1990
1990
1983
1983
1983
1982
1982
1982
1982
1989
1989
1989
1983
1983
1983
1986
1986
1986
1979
1979
1979
1987
1987
1987
1987
1985
1985
1985
1982
1982
1982
1984
1984
1984
1984
1984
1984
1989
1989
1989
1989
1984
1984
1984
1980
1980
1980
1984
1984
1984
1984
1984
1984
1985
1985
1985
1985
1986
1986
1986
1983
1983
1983
1986
1986
1986
1984
1984
1984
1988
1988
1988
1988
1988
1988
1988
1979
1979
1979
1988
1988
1988
1982
1982
1982
1982
1982
1982
1982
