2116
2116
2116
2116
2116
2109
2109
2109
2116
2116
2116
2110
2110
2110
2114
2114
2114
2114
2115
2115
2115
2110
2110
2110
2116
2116
2116
2109
2109
2109
2118
2118
2118
2118
2116
2116
2116
2111
2111
2111
2119
2119
2119
2111
2111
2111
2113
2113
2113
2113
2114
2114
2114
2112
2112
2112
2116
2116
2116
2110
2110
2110
2115
2115
2115
2115
2111
2111
2111
2110
2110
2110
2116
2116
2116
2107
2107
2107
2116
2116
2116
2116
2117
2117
2116
2115
2115
2115
2109
2109
2109
2119
2119
2119
2115
2115
2115
2117
2117
2117
2117
2119
2119
2119
2112
2112
2112
2118
2118
2118
2113
2113
2113
2117
2117
2117
2117
2117
2117
2117
2110
2110
2110
2116
2116
2116
2109
2109
2109
2116
2116
2116
2116
2113
2113
2113
2111
2111
2111
2113
2113
2113
2116
2116
2116
2116
2116
2116
2116
2114
2114
2114
2112
2112
2112
2120
2120
2120
2110
2110
2110
2116
2116
2116
2116
2115
2115
2115
2109
2109
2109
2115
2115
2115
2112
2112
2112
2116
2116
2116
2116
2114
2114
2114
2112
2112
2112
2113
2113
2113
2109
2109
2109
2112
2112
2112
2112
2115
2115
2115
2110
2110
2110
2117
2117
2117
2111
2111
2111
2118
2118
2118
2118
2116
2116
2116
2111
2111
2111
2117
2117
2117
2111
2111
2111
2116
2116
2116
2116
2108
2108
2108
2111
2111
2111
2117
2117
2117
2111
2111
2111
2117
2117
2117
2117
2116
2116
2116
2113
2113
2113
2117
2117
2117
2112
2112
2112
2116
2116
2116
2116
2115
2115
2115
2112
2112
2112
2113
2113
2113
2112
2112
2112
2115
2115
2115
2115
2113
2113
2113
2111
2111
2111
2116
2116
2116
2111
2111
2111
2120
2120
2120
2120
2115
2115
2115
2112
2112
2112
2117
2117
2117
2112
2112
2112
2117
2117
2117
2117
2112
2112
2112
2113
2113
2113
2119
2119
2119
2114
2114
2114
2113
2113
2113
2113
2116
2116
2116
2112
2112
2112
2116
2116
2116
2115
2115
2115
2117
2117
2117
2117
2111
2111
2111
2110
2110
2110
2117
2117
2117
2113
2113
2113
2116
2116
2116
2116
2117
2117
2117
2111
2111
2111
2115
2115
2115
2111
2111
2111
2115
2115
2115
2115
2114
2114
2114
2110
2110
2110
2116
2116
2116
2111
2111
2111
2116
2116
2116
2116
2116
2116
2116
2118
2118
2118
2118
2118
2118
2110
2110
2110
2118
2118
2118
2118
2115
2115
2115
2109
2109
2109
2113
2113
2113
2112
2112
2112
2109
2109
2109
2109
2115
2115
2115
2112
2112
2112
2117
2117
2117
2109
2109
2109
2116
2116
2116
2116
2116
2116
2116
2111
2111
2111
2111
2111
2111
2103
2103
2103
2114
2114
2114
2114
2112
2112
2112
2112
2112
2112
2122
2122
2122
2109
2109
2109
2115
2115
2115
2115
2115
2115
2115
2112
2112
2112
2119
2119
2119
2111
2111
2111
2115
2115
2115
2115
2118
2118
2118
2119
2119
2119
2114
2114
2114
2111
2111
2111
2112
2112
2112
2112
2118
2118
2118
2115
2115
2115
2118
2118
2118
2110
2110
2110
2115
2115
2115
2115
2109
2109
2109
2112
2112
2112
2117
2117
2117
2111
2111
2111
2116
2116
2116
2116
2116
2116
2116
2110
2110
2110
2116
2116
2116
2112
2112
2112
2117
2117
2117
2117
2110
2110
2110
2110
2110
2110
2111
2111
2111
2111
2111
2111
2117
2117
2117
2117
2115
2115
2115
2110
2110
2110
2117
2117
2117
2111
2111
2111
2118
2118
2118
2118
2115
2115
2115
2112
2112
2112
2116
2116
2116
2112
2112
2112
2115
2115
2115
2115
2112
2112
2112
2112
2112
2112
2115
2115
2115
2112
2112
2112
2114
2114
2114
2114
2116
2116
2116
2103
2103
2103
2116
2116
2116
2113
2113
2113
2113
2113
2113
2113
2122
2122
2122
2113
2113
2113
2118
2118
2118
2110
2110
2110
2116
2116
2116
2116
2113
2113
2113
2113
2113
2113
2116
2116
2116
2111
2111
2111
2117
2117
2117
2117
2114
2114
2114
2116
2116
2116
2118
2118
2118
2110
2110
2110
2114
2114
2114
2114
2115
2115
2115
2112
2112
2112
2112
2112
2112
2110
2110
2110
2115
2115
2115
2115
2118
2118
2118
2109
2109
2109
2119
2119
2119
2111
2111
2111
2119
2119
2119
2119
2117
2117
2117
2110
2110
2110
2117
2117
2117
2112
2112
2112
2116
2116
2116
2116
2115
2115
2115
2114
2114
2114
2117
2117
2117
2118
2118
2118
2114
2114
2114
2114
2115
2115
2115
2113
2113
2113
2115
2115
2115
2113
2113
2113
2116
2116
2116
2116
2117
2117
2117
2111
2111
2111
2115
2115
2115
2112
2112
2112
2116
2116
2116
2116
2116
2116
2116
2109
2109
2109
2109
2109
2109
2111
2111
2111
2116
2116
2116
2116
2115
2115
2115
2119
2119
2119
2117
2117
2117
2112
2112
2112
2116
2116
2116
2116
2115
2115
2115
2110
2110
2110
2116
2116
2116
2110
2110
2110
2118
2118
2118
2118
2116
2116
2116
2110
2110
2110
2112
2112
2112
2109
2109
2109
2110
2110
2110
2110
2115
2115
2115
2111
2111
2111
2117
2117
2117
2116
2116
2116
2117
2117
2117
2117
2116
2116
2116
2111
2111
2111
2115
2115
2115
2111
2111
2111
2115
2115
2115
2115
2114
2114
2114
2113
2113
2113
2120
2120
2120
2113
2113
2113
2117
2117
2117
2117
2112
2112
2112
2113
2113
2113
2114
2114
2114
2110
2110
2110
2112
2112
2112
2112
2110
2110
2110
2115
2115
2115
2117
2117
2117
2108
2108
2108
2118
2118
2118
2118
2112
2112
2112
2111
2111
2111
2117
2117
2117
2107
2107
2107
2113
2113
2113
2113
2112
2112
2112
2111
2111
2111
2116
2116
2116
2107
2107
2107
2117
2117
2117
2117
2114
2114
2114
2112
2112
2112
2116
2116
2116
2111
2111
2111
2117
2117
2117
2117
2117
2117
2117
2111
2111
2111
2122
2122
2122
2113
2113
2113
2114
2114
2114
2114
2109
2109
2109
2110
2110
2110
2114
2114
2114
2111
2111
2111
2113
2113
2113
2113
2116
2116
2116
