2008
2008
2012
2012
2012
2008
2008
2008
2015
2015
2015
2007
2007
2007
2007
2011
2011
2011
2012
2012
2012
2009
2009
2009
2014
2014
2014
2010
2010
2010
2010
2007
2007
2007
2011
2011
2011
2011
2011
2011
2012
2012
2012
2011
2011
2011
2011
2003
2003
2003
2009
2009
2009
2016
2016
2016
2013
2013
2013
2010
2010
2010
2010
1999
1999
1999
2011
2011
2011
2013
2013
2013
2012
2012
2012
2013
2013
2013
2013
2019
2019
2019
2010
2012
2012
2005
2005
2005
2007
2007
2007
2009
2009
2009
2009
2009
2009
2009
2006
2006
2006
2011
2011
2011
2011
2011
2011
2014
2014
2014
2012
2012
2012
2012
2007
2007
2007
2012
2012
2012
2010
2010
2010
2013
2013
2013
2012
2012
2012
2012
2013
2013
2013
2011
2011
2011
2009
2009
2009
2012
2012
2012
2011
2011
2011
2011
2006
2006
2006
2009
2009
2009
2010
2010
2010
2011
2011
2011
2003
2003
2003
2003
2014
2014
2014
2011
2011
2011
2008
2008
2008
2013
2013
2013
2011
2011
2011
2011
2008
2008
2008
2010
2010
2010
2007
2007
2007
2012
2012
2012
2008
2008
2008
2008
2012
2012
2012
2009
2009
2009
2010
2010
2010
2010
2010
2010
2013
2013
2013
2013
2006
2006
2006
2011
2011
2011
2011
2011
2011
2010
2010
2010
2011
2011
2011
2011
2009
2009
2009
2013
2013
2013
2010
2010
2010
2010
2010
2010
2009
2009
2009
2009
2009
2009
2009
2014
2014
2014
2012
2012
2012
2015
2015
2015
2011
2011
2011
2011
2011
2011
2011
2012
2012
2012
2014
2014
2014
2013
2013
2013
2009
2009
2009
2009
2007
2007
2007
2011
2011
2011
2008
2008
2008
2011
2011
2011
2012
2012
2012
2012
2010
2010
2010
2013
2013
2013
2008
2008
2008
2012
2012
2012
2009
2009
2009
2009
2009
2009
2009
2010
2010
2010
2013
2013
2013
2013
2013
2013
2008
2008
2008
2008
2005
2005
2005
2013
2013
2013
2011
2011
2011
2010
2010
2010
2010
2010
2010
2010
2006
2006
2006
2008
2008
2008
2011
2011
2011
2010
2010
2010
2009
2009
2009
2009
2010
2010
2010
2010
2010
2010
2008
2008
2008
2011
2011
2011
2004
2004
2004
2004
2014
2014
2014
2011
2011
2011
2011
2011
2011
2011
2011
2011
2012
2012
2012
2012
2013
2013
2013
2009
2009
2009
2012
2012
2012
2011
2011
2011
2009
2009
2009
2009
2011
2011
2011
2012
2012
2012
2009
2009
2009
2011
2011
2011
2010
2010
2010
2010
2008
2008
2008
2008
2008
2008
2009
2009
2009
2011
2011
2011
2016
2016
2016
2016
2011
2011
2011
2011
2011
2011
2009
2009
2009
2012
2012
2012
2013
2013
2013
2013
2009
2009
2009
2010
2010
2010
2008
2008
2008
2012
2012
2012
2009
2009
2009
2009
2012
2012
2012
2011
2011
2011
2011
2011
2011
2011
2011
2011
2011
2011
2011
2011
2010
2010
2010
2011
2011
2011
2008
2008
2008
2009
2009
2009
2009
2009
2009
2009
2015
2015
2015
2012
2012
2012
2011
2011
2011
2010
2010
2010
2016
2016
2016
2016
2009
2009
2009
2016
2016
2016
2009
2009
2009
2010
2010
2010
2012
2012
2012
2012
2009
2009
2009
2012
2012
2012
2014
2014
2014
2012
2012
2012
2010
2010
2010
2010
2009
2009
2009
2010
2010
2010
2011
2011
2011
2009
2009
2009
2008
2008
2008
2008
2009
2009
2009
2012
2012
2012
2010
2010
2010
2010
2010
2010
2011
2011
2011
2011
2014
2014
2014
2012
2012
2012
2012
2012
2012
2009
2009
2009
2010
2010
2010
2010
2009
2009
2009
2011
2011
2011
2010
2010
2010
1997
1997
1997
2008
2008
2008
2008
2010
2010
2010
2016
2016
2016
2011
2011
2011
2011
2011
2011
2005
2005
2005
2005
2011
2011
2011
2012
2012
2012
2012
2012
2012
2015
2015
2015
2011
2011
2011
2011
2010
2010
2010
2011
2011
2011
2011
2011
2011
2013
2013
2013
2013
2013
2013
2013
2011
2011
2011
2012
2012
2012
2014
2014
2014
2007
2007
2007
2010
2010
2010
2010
2011
2011
2011
2010
2010
2010
2010
2010
2010
2011
2011
2011
2009
2009
2009
2009
2011
2011
2011
2010
2010
2010
2014
2014
2014
2010
2010
2010
2013
2013
2013
2013
2009
2009
2009
2015
2015
2015
2009
2009
2009
2009
2009
2009
2009
2009
2009
2009
2012
2012
2012
2015
2015
2015
2006
2006
2006
2010
2010
2010
2006
2006
2006
2006
2012
2012
2012
2011
2011
2011
2014
2014
2014
2011
2011
2011
2012
2012
2012
2012
2007
2007
2007
2007
2007
2007
2012
2012
2012
2013
2013
2013
2012
2012
2012
2012
2013
2013
2013
2007
2007
2007
2010
2010
2010
2011
2011
2011
2011
2011
2011
2011
2009
2009
2009
2014
2014
2014
2012
2012
2012
2011
2011
2011
2011
2011
2011
2011
2012
2012
2012
2009
2009
2009
2011
2011
2011
2014
2014
2014
2010
2010
2010
2010
2010
2010
2010
2010
2010
2010
2010
2010
2010
2012
2012
2012
2010
2010
2010
2010
2010
2010
2010
2011
2011
2011
2014
2014
2014
2010
2010
2010
2010
2010
2010
2010
2004
2004
2004
2011
2011
2011
2008
2008
2008
2016
2016
2016
2011
2011
2011
2011
2007
2007
2007
2007
2007
2007
2007
2007
2007
2011
2011
2011
2012
2012
2012
2012
2011
2011
2011
2004
2004
2004
2010
2010
2010
2011
2011
2011
2010
2010
2010
2010
2009
2009
2009
2005
2005
2005
2010
2010
2010
2012
2012
2012
2010
2010
2010
2010
2011
2011
2011
2013
2013
2013
2007
2007
2007
2010
2010
2010
2010
2010
2010
2010
2008
2008
2008
2017
2017
2017
2011
2011
2011
2010
2010
2010
2009
2009
2009
2009
2000
2000
2000
2010
2010
2010
2007
2007
2007
2012
2012
2012
2011
2011
2011
2011
2010
2010
2010
2013
2013
2013
2012
2012
2012
2013
2013
2013
2010
2010
2010
2010
2010
2010
2010
2017
2017
2017
2011
2011
2011
2012
2012
2012
2012
2012
2012
2012
2011
2011
2011
2012
2012
2012
