2204
2204
2206
2206
2206
2203
2203
2203
2203
2203
2203
2203
2203
2203
2203
2203
2203
2203
2199
2199
2199
2203
2203
2203
2203
2202
2202
2202
2199
2199
2199
2199
2199
2199
2205
2205
2205
2204
2204
2204
2204
2203
2203
2203
2200
2200
2200
2203
2203
2203
2205
2205
2205
2202
2202
2202
2202
2204
2204
2204
2204
2204
2204
2201
2201
2201
2205
2205
2205
2203
2203
2203
2203
2206
2206
2206
2200
2200
2200
2206
2206
2206
2202
2205
2205
2200
2200
2200
2204
2204
2204
2204
2201
2201
2201
2205
2205
2205
2202
2202
2202
2203
2203
2203
2203
2203
2203
2203
2199
2199
2199
2204
2204
2204
2203
2203
2203
2206
2206
2206
2202
2202
2202
2202
2203
2203
2203
2200
2200
2200
2205
2205
2205
2202
2202
2202
2204
2204
2204
2204
2204
2204
2204
2203
2203
2203
2203
2203
2203
2203
2203
2203
2203
2203
2203
2203
2203
2203
2203
2202
2202
2202
2205
2205
2205
2204
2204
2204
2202
2202
2202
2202
2203
2203
2203
2205
2205
2205
2203
2203
2203
2204
2204
2204
2201
2201
2201
2201
2205
2205
2205
2203
2203
2203
2201
2201
2201
2202
2202
2202
2199
2199
2199
2199
2202
2202
2202
2200
2200
2200
2202
2202
2202
2203
2203
2203
2201
2201
2201
2201
2203
2203
2203
2201
2201
2201
2203
2203
2203
2202
2202
2202
2200
2200
2200
2200
2203
2203
2203
2191
2191
2191
2204
2204
2204
2202
2202
2202
2201
2201
2201
2201
2201
2201
2201
2203
2203
2203
2206
2206
2206
2200
2200
2200
2203
2203
2203
2203
2199
2199
2199
2202
2202
2202
2204
2204
2204
2200
2200
2200
2204
2204
2204
2204
2205
2205
2205
2205
2205
2205
2202
2202
2202
2204
2204
2204
2201
2201
2201
2201
2205
2205
2205
2202
2202
2202
2204
2204
2204
2197
2197
2197
2196
2196
2196
2196
2203
2203
2203
2205
2205
2205
2204
2204
2204
2201
2201
2201
2203
2203
2203
2203
2201
2201
2201
2203
2203
2203
2201
2201
2201
2202
2202
2202
2200
2200
2200
2200
2203
2203
2203
2203
2203
2203
2204
2204
2204
2205
2205
2205
2201
2201
2201
2201
2202
2202
2202
2202
2202
2202
2206
2206
2206
2202
2202
2202
2206
2206
2206
2206
2204
2204
2204
2204
2204
2204
2206
2206
2206
2204
2204
2204
2204
2204
2204
2204
2205
2205
2205
2206
2206
2206
2204
2204
2204
2202
2202
2202
2204
2204
2204
2204
2202
2202
2202
2205
2205
2205
2203
2203
2203
2205
2205
2205
2202
2202
2202
2202
2203
2203
2203
2205
2205
2205
2205
2205
2205
2196
2196
2196
2199
2199
2199
2199
2202
2202
2202
2202
2202
2202
2205
2205
2205
2203
2203
2203
2204
2204
2204
2204
2202
2202
2202
2206
2206
2206
2204
2204
2204
2200
2200
2200
2204
2204
2204
2204
2204
2204
2204
2201
2201
2201
2204
2204
2204
2212
2212
2212
2203
2203
2203
2203
2203
2203
2203
2201
2201
2201
2199
2199
2199
2203
2203
2203
2201
2201
2201
2201
2198
2198
2198
2203
2203
2203
2205
2205
2205
2203
2203
2203
2203
2203
2203
2203
2202
2202
2202
2206
2206
2206
2201
2201
2201
2203
2203
2203
2205
2205
2205
2205
2203
2203
2203
2203
2203
2203
2203
2203
2203
2202
2202
2202
2207
2207
2207
2207
2204
2204
2204
2201
2201
2201
2206
2206
2206
2202
2202
2202
2203
2203
2203
2203
2202
2202
2202
2202
2202
2202
2203
2203
2203
2200
2200
2200
2205
2205
2205
2205
2201
2201
2201
2203
2203
2203
2201
2201
2201
2204
2204
2204
2202
2202
2202
2202
2205
2205
2205
2206
2206
2206
2203
2203
2203
2199
2199
2199
2203
2203
2203
2203
2204
2204
2204
2205
2205
2205
2202
2202
2202
2203
2203
2203
2201
2201
2201
2201
2202
2202
2202
2209
2209
2209
2203
2203
2203
2205
2205
2205
2203
2203
2203
2203
2202
2202
2202
2203
2203
2203
2203
2203
2203
2200
2200
2200
2205
2205
2205
2205
2203
2203
2203
2203
2203
2203
2205
2205
2205
2204
2204
2204
2204
2204
2204
2204
2208
2208
2208
2201
2201
2201
2204
2204
2204
2204
2204
2204
2204
2204
2204
2204
2204
2204
2204
2201
2201
2201
2206
2206
2206
2202
2202
2202
2205
2205
2205
2205
2203
2203
2203
2200
2200
2200
2199
2199
2199
2203
2203
2203
2206
2206
2206
2206
2204
2204
2204
2205
2205
2205
2204
2204
2204
2204
2204
2204
2197
2197
2197
2197
2199
2199
2199
2204
2204
2204
2202
2202
2202
2203
2203
2203
2203
2203
2203
2203
2202
2202
2202
2201
2201
2201
2203
2203
2203
2202
2202
2202
2204
2204
2204
2204
2204
2204
2204
2203
2203
2203
2203
2203
2203
2206
2206
2206
2203
2203
2203
2203
2205
2205
2205
2197
2197
2197
2202
2202
2202
2201
2201
2201
2202
2202
2202
2202
2203
2203
2203
2199
2199
2199
2202
2202
2202
2204
2204
2204
2207
2207
2207
2207
2199
2199
2199
2202
2202
2202
2204
2204
2204
2204
2204
2204
2203
2203
2203
2203
2198
2198
2198
2203
2203
2203
2204
2204
2204
2205
2205
2205
2202
2202
2202
2202
2205
2205
2205
2204
2204
2204
2202
2202
2202
2200
2200
2200
2204
2204
2204
2204
2201
2201
2201
2206
2206
2206
2195
2195
2195
2203
2203
2203
2200
2200
2200
2200
2200
2200
2200
2202
2202
2202
2208
2208
2208
2203
2203
2203
2205
2205
2205
2205
2201
2201
2201
2202
2202
2202
2204
2204
2204
2204
2204
2204
2205
2205
2205
2205
2202
2202
2202
2203
2203
2203
2205
2205
2205
2207
2207
2207
2202
2202
2202
2202
2201
2201
2201
2201
2201
2201
2204
2204
2204
2200
2200
2200
2203
2203
2203
2203
2203
2203
2203
2205
2205
2205
2205
2205
2205
2203
2203
2203
2205
2205
2205
2205
2200
2200
2200
2203
2203
2203
2201
2201
2201
2204
2204
2204
2202
2202
2202
2202
2202
2202
2202
2205
2205
2205
2204
2204
2204
2200
2200
2200
