2201
2201
2201
2201
2202
2202
2202
2201
2201
2201
2199
2199
2199
2201
2201
2201
2205
2205
2205
2205
2200
2200
2200
2200
2200
2200
2200
2200
2200
2199
2199
2199
2198
2198
2198
2198
2196
2196
2196
2203
2203
2203
2195
2195
2195
2201
2201
2201
2202
2202
2202
2202
2201
2201
2201
2198
2198
2198
2200
2200
2200
2201
2201
2201
2199
2199
2199
2199
2195
2195
2195
2200
2200
2200
2200
2200
2200
2201
2201
2201
2200
2200
2200
2200
2196
2196
2196
2200
2200
2200
2202
2202
2202
2199
2199
2199
2199
2199
2199
2199
2199
2199
2199
2206
2206
2206
2197
2197
2197
2202
2202
2202
2197
2197
2197
2197
2200
2200
2200
2201
2201
2201
2197
2197
2197
2203
2203
2203
2198
2198
2198
2198
2198
2198
2198
2206
2206
2206
2199
2199
2199
2202
2202
2202
2204
2204
2204
2204
2197
2197
2197
2199
2199
2199
2199
2199
2199
2200
2200
2200
2200
2200
2200
2200
2198
2198
2198
2198
2198
2198
2206
2206
2206
2199
2199
2199
2200
2200
2200
2200
2205
2205
2205
2203
2203
2203
2200
2200
2200
2196
2196
2196
2199
2199
2199
2199
2201
2201
2201
2200
2200
2200
2197
2197
2197
2203
2203
2203
2200
2200
2200
2200
2200
2200
2200
2198
2198
2198
2198
2198
2198
2198
2198
2198
2201
2201
2201
2201
2199
2199
2199
2197
2197
2197
2201
2201
2201
2199
2199
2199
2197
2197
2197
2197
2200
2200
2200
2203
2203
2203
2197
2197
2197
2202
2202
2202
2201
2201
2201
2201
2202
2202
2202
2201
2201
2201
2199
2199
2199
2201
2201
2201
2199
2199
2199
2199
2198
2198
2198
2201
2201
2201
2196
2196
2196
2201
2201
2201
2196
2196
2196
2196
2202
2202
2202
2203
2203
2203
2197
2197
2197
2203
2203
2203
2199
2199
2199
2199
2201
2201
2201
2198
2198
2198
2199
2199
2199
2195
2195
2195
2201
2201
2201
2201
2199
2199
2199
2200
2200
2200
2203
2203
2203
2201
2201
2201
2205
2205
2205
2205
2200
2200
2200
2201
2201
2201
2197
2197
2197
2200
2200
2200
2201
2201
2201
2201
2198
2198
2198
2195
2195
2195
2199
2199
2199
2202
2202
2202
2195
2195
2195
2195
2194
2194
2194
2200
2200
2200
2197
2197
2197
2199
2199
2199
2198
2198
2198
2198
2201
2201
2201
2199
2199
2199
2197
2197
2197
2200
2200
2200
2199
2199
2199
2199
2199
2199
2199
2206
2206
2206
2197
2197
2197
2198
2198
2198
2201
2201
2201
2201
2193
2193
2193
2200
2200
2200
2198
2198
2198
2203
2203
2203
2202
2202
2202
2202
2199
2199
2199
2199
2199
2199
2200
2200
2200
2201
2201
2201
2196
2196
2196
2196
2199
2199
2199
2200
2200
2200
2200
2200
2200
2196
2196
2196
2201
2201
2201
2201
2201
2201
2201
2200
2200
2200
2198
2198
2198
2202
2202
2202
2201
2201
2201
2201
2199
2199
2199
2205
2205
2205
2197
2197
2197
2201
2201
2201
2199
2199
2199
2199
2205
2205
2205
2198
2198
2198
2204
2204
2204
2198
2198
2198
2200
2200
2200
2200
2201
2201
2201
2205
2205
2205
2199
2199
2199
2200
2200
2200
2206
2206
2206
2206
2198
2198
2198
2199
2199
2199
2200
2200
2200
2205
2205
2205
2201
2201
2201
2201
2199
2199
2199
2200
2200
2200
2197
2197
2197
2200
2200
2200
2201
2201
2201
2201
2200
2200
2200
2198
2198
2198
2199
2199
2199
2200
2200
2200
2199
2199
2199
2199
2201
2201
2201
2200
2200
2200
2204
2204
2204
2203
2203
2203
2198
2198
2198
2198
2199
2199
2199
2200
2200
2200
2198
2198
2198
2200
2200
2200
2200
2200
2200
2200
2193
2193
2193
2204
2204
2204
2201
2201
2201
2198
2198
2198
2198
2198
2198
2198
2201
2201
2201
2201
2201
2201
2194
2194
2194
2204
2204
2204
2202
2202
2202
2202
2197
2197
2197
2200
2200
2200
2197
2197
2197
2198
2198
2198
2195
2195
2195
2195
2200
2200
2200
2201
2201
2201
2199
2199
2199
2202
2202
2202
2200
2200
2200
2200
2199
2199
2199
2202
2202
2202
2199
2199
2199
2200
2200
2200
2198
2198
2198
2198
2195
2195
2195
2202
2202
2202
2196
2196
2196
2200
2200
2200
2199
2199
2199
2199
2198
2198
2198
2200
2200
2200
2201
2201
2201
2202
2202
2202
2203
2203
2203
2203
2191
2191
2191
2201
2201
2201
2203
2203
2203
2201
2201
2201
2205
2205
2205
2205
2200
2200
2200
2203
2203
2203
2203
2203
2203
2200
2200
2200
2202
2202
2202
2202
2198
2198
2198
2201
2201
2201
2198
2198
2198
2197
2197
2197
2200
2200
2200
2200
2201
2201
2201
2200
2200
2200
2201
2201
2201
2200
2200
2200
2199
2199
2199
2199
2199
2199
2199
2203
2203
2203
2200
2200
2200
2198
2198
2198
2199
2199
2199
2199
2197
2197
2197
2198
2198
2198
2200
2200
2200
2203
2203
2203
2200
2200
2200
2200
2200
2200
2200
2204
2204
2204
2202
2202
2202
2198
2198
2198
2199
2199
2199
2199
2200
2200
2200
2198
2198
2198
2199
2199
2199
2200
2200
2200
2197
2197
2197
2197
2200
2200
2200
2201
2201
2201
2197
2197
2197
2200
2200
2200
2198
2198
2198
2198
2202
2202
2202
2201
2201
2201
2199
2199
2199
2199
2199
2199
2201
2201
2201
2201
2201
2201
2201
2198
2198
2198
2200
2200
2200
2200
2200
2200
2200
2200
2200
2200
2199
2199
2199
2201
2201
2201
2199
2199
2199
2201
2201
2201
2199
2199
2199
2199
2199
2199
2199
2202
2202
2202
2204
2204
2204
2199
2199
2199
2201
2201
2201
2201
2199
2199
2199
2202
2202
2202
2198
2198
2198
2198
2198
2198
2201
2201
2201
2201
2197
2197
2197
2194
2194
2194
2200
2200
2200
2201
2201
2201
2206
2206
2206
2206
2199
2199
2199
2201
2201
2201
2199
2199
2199
2199
2199
2199
2201
2201
2201
2201
2202
2202
2202
2201
2201
2201
2199
2199
2199
2201
2201
2201
2192
2192
2192
2192
2193
2193
2193
2200
2200
2200
2200
2200
2200
2198
2198
2198
2201
2201
2201
2201
2196
2196
2196
2200
2200
2200
2200
2200
2200
2203
2203
2203
2199
2199
2199
2199
2200
2200
2200
2202
2202
2202
2196
2196
2196
2201
2201
2201
2198
2198
2198
2198
2202
2202
2202
2200
2200
2200
2199
2199
2199
2204
2204
2204
2199
2199
2199
2199
2201
2201
2201
2211
2211
2211
2200
2200
2200
2198
2198
2198
2199
2199
2199
2199
2198
2198
2198
2200
2200
2200
2200
2200
2200
2194
2194
2194
2200
2200
2200
2200
2202
2202
2202
2201
2201
2201
2196
2196
2196
2202
2202
2202
2199
2199
2199
2199
2200
2200
2200
2197
2197
2197
2201
2201
2201
2198
2198
2198
2200
2200
2200
2200
2195
2195
2195
2198
2198
2198
2201
2201
2201
2198
2198
2198
2201
2201
2201
2201
2197
2197
2197
2201
2201
2201
2196
2196
2196
2200
2200
2200
2202
2202
2202
2202
2198
2198
2198
2202
2202
2202
2199
2199
2199
2199
2199
2199
2201
2201
2201
2201
2199
2199
2199
2200
2200
2200
2200
2200
2200
2201
2201
2201
2201
2201
2201
2201
2200
2200
2200
2201
2201
2201
2201
2201
2201
2201
2201
2201
2197
2197
2197
2197
2201
2201
2201
2200
2200
2200
2203
2203
2203
2200
2200
2200
2198
2198
2198
2198
2200
2200
2200
2197
2197
2197
2197
2197
2197
2199
2199
2199
2201
2201
2201
2201
2196
2196
2196
2201
2201
2201
2202
2202
2202
2202
2202
2202
2199
2199
2199
2199
2200
2200
2200
2199
2199
2199
2201
2201
2201
2199
2199
2199
2202
2202
2202
2202
2197
2197
2197
2201
2201
2201
2200
2200
2200
2202
2202
2202
2197
2197
2197
2197
2198
2198
2198
2203
2203
2203
2193
2193
2193
2202
2202
2202
2198
2198
2198
2198
2197
2197
2197
2200
2200
2200
2200
2200
2200
2200
2200
2200
2200
2200
2200
2200
2203
2203
2203
2200
2200
2200
2204
2204
2204
2198
2198
2198
2198
2198
2198
2198
2199
2199
2199
2200
2200
2200
2196
2196
2196
2198
2198
2198
2199
2199
2199
2199
2200
2200
2200
2197
2197
2197
2199
2199
2199
2206
2206
2206
2195
2195
2195
2195
2198
2198
2198
2201
2201
2201
2196
2196
2196
2200
2200
2200
2201
2201
2201
2201
2198
2198
2198
2199
2199
2199
2198
2198
2198
2199
2199
2199
2198
2198
2198
2198
2199
2199
2199
2199
2199
2199
2202
2202
2202
2202
2202
2202
2199
2199
2199
2199
2200
2200
2200
2199
2199
2199
2202
2202
2202
2202
2202
2202
2203
2203
2203
2203
2193
2193
2193
2202
2202
2202
2201
2201
2201
2196
2196
2196
2196
2196
2196
2196
2199
2199
2199
2200
2200
2200
2197
2197
2197
2201
2201
2201
2205
2205
2205
2205
2199
2199
2199
2200
2200
2200
2200
2200
2200
2203
2203
2203
2198
2198
2198
2198
2197
2197
2197
2203
2203
2203
2200
2200
2200
2199
2199
2199
2201
2201
2201
2201
2196
2196
2196
2199
2199
2199
2200
2200
2200
2201
2201
2201
2198
2198
2198
2198
2199
2199
2199
2203
2203
2203
2198
2198
2198
2206
2206
2206
2200
2200
2200
2200
2198
2198
2198
2197
2197
2197
2196
2196
2196
2200
2200
2200
2195
2195
2195
2195
2199
2199
2199
2202
2202
2202
2199
2199
2199
2197
2197
2197
2199
2199
2199
2199
2190
2190
2190
2203
2203
2203
2198
2198
2198
2200
2200
2200
2199
2199
2199
2199
2199
2199
2199
2200
2200
2200
2202
2202
2202
2201
2201
2201
2196
2196
2196
2196
2197
2197
2197
2199
2199
2199
2199
2199
2199
2197
2197
2197
2199
2199
2199
2199
2200
2200
2200
2199
2199
2199
2199
2199
2199
2204
2204
2204
2200
2200
2200
2200
2200
2200
2200
2202
2202
2202
2201
2201
2201
2196
2196
2196
2198
2198
2198
2198
2197
2197
2197
2202
2202
2202
2200
2200
2200
2202
2202
2202
2198
2198
2198
2198
2199
2199
2199
2204
2204
2204
2201
2201
2201
2201
2201
2201
2197
2197
2197
2197
2197
2197
2197
2202
2202
2202
2199
2199
2199
2196
2196
2196
2201
2201
2201
2201
2199
2199
2199
2199
2199
2199
2199
2199
2199
2199
2199
2199
2200
2200
2200
2200
2195
2195
2195
2205
2205
2205
2197
2197
2197
2202
2202
2202
2198
2198
2198
2198
2203
2203
2203
2197
2197
2197
2196
2196
2196
2203
2203
2203
2197
2197
2197
2197
2201
2201
2201
2199
2199
2199
2199
2199
2199
2197
2197
2197
2208
2208
2208
2208
2198
2198
2198
2202
2202
2202
2198
2198
2198
2203
2203
2203
2200
2200
2200
2200
2198
2198
2198
2201
2201
2201
2199
2199
2199
2201
2201
2201
2202
2202
2202
2202
2199
2199
2199
2203
2203
2203
2201
2201
2201
2201
2201
2201
2199
2199
2199
2199
2198
2198
2198
2201
2201
2201
2199
2199
2199
2202
2202
2202
2200
2200
2200
2200
2200
2200
2200
2204
2204
2204
2202
2202
2202
2198
2198
2198
2195
2195
2195
2195
2200
2200
2200
2201
2201
2201
2199
2199
2199
2204
2204
2204
2200
2200
2200
2200
2200
2200
2200
2196
2196
2196
2199
2199
2199
2198
2198
2198
2196
2196
2196
2196
2202
2202
2202
2200
2200
2200
2201
2201
2201
2201
2201
2201
2201
2201
2201
2201
2199
2199
2199
2201
2201
2201
2200
2200
2200
2201
2201
2201
2198
2198
2198
2198
2201
2201
2201
2198
2198
2198
2200
2200
2200
2200
2200
2200
2199
2199
2199
2199
2197
2197
2197
2204
2204
2204
2192
2192
2192
2200
2200
2200
2200
2200
2200
2200
2197
2197
2197
2205
2205
2205
2199
2199
2199
2202
2202
2202
2196
2196
2196
2196
2199
2199
2199
2200
2200
2200
2202
2202
2202
2198
2198
2198
2200
2200
2200
2200
2200
2200
2200
2199
2199
2199
2198
2198
2198
2200
2200
2200
2200
2200
2200
2200
2201
2201
2201
2203
2203
2203
2200
2200
2200
2195
2195
2195
2201
2201
2201
2201
2199
2199
2199
2200
2200
2200
2201
2201
2201
2201
2201
2201
2201
2201
2201
2201
2197
2197
2197
2201
2201
2201
2196
2196
2196
2200
2200
2200
2196
2196
2196
2196
2203
2203
2203
2201
2201
2201
2198
2198
2198
2198
2198
2198
2202
2202
2202
2202
2199
2199
2199
2201
2201
2201
2201
2201
2201
2199
2199
2199
2198
2198
2198
2198
2201
2201
2201
2198
2198
2198
2198
2198
2198
2200
2200
2200
2197
2197
2197
2197
2202
2202
2202
2199
2199
2199
2201
2201
2201
2201
2201
2201
2196
2196
2196
2196
2200
2200
2200
2198
2198
2198
2202
2202
2202
2199
2199
2199
2199
2199
2199
2199
2191
2191
2191
2199
2199
2199
2199
2199
2199
2195
2195
2195
2202
2202
2202
2202
2200
2200
2200
2201
2201
2201
2205
2205
2205
2201
2201
2201
2199
2199
2199
2199
2201
2201
2201
2194
2194
2194
2199
2199
2199
2201
2201
2201
2201
2201
2201
2201
2199
2199
2199
2201
2201
2201
2200
2200
2200
2201
2201
2201
2197
2197
2197
2197
2198
2198
2198
2199
2199
2199
2201
2201
2201
2202
2202
2202
2201
2201
2201
2201
2197
2197
2197
2201
2201
2201
2199
2199
2199
2196
2196
2196
2200
2200
2200
2200
2195
2195
2195
2198
2198
2198
2201
2201
2201
2202
2202
2202
2199
2199
2199
2199
2197
2197
2197
2198
2198
2198
2200
2200
2200
2208
2208
2208
2201
2201
2201
2201
2200
2200
2200
2199
2199
2199
2199
2199
2199
2194
2194
2194
2201
2201
2201
2201
2198
2198
2198
2198
2198
2198
2199
2199
2199
2202
2202
2202
2205
2205
2205
2205
2202
2202
2202
2198
2198
2198
2201
2201
2201
2205
2205
2205
2199
2199
2199
2199
2199
2199
2199
2198
2198
2198
2199
2199
2199
2200
2200
2200
2199
2199
2199
2199
2200
2200
2200
2205
2205
2205
2200
2200
2200
2198
2198
2198
2197
2197
2197
2197
2203
2203
2203
2199
2199
2199
2199
2199
2199
2198
2198
2198
2197
2197
2197
2197
2199
2199
2199
2199
2199
2199
2201
2201
2201
2199
2199
2199
2199
2199
2199
2199
2198
2198
2198
2200
2200
2200
2201
2201
2201
2199
2199
2199
2200
2200
2200
2200
2199
2199
2199
2200
2200
2200
2192
2192
2192
2201
2201
2201
2199
2199
2199
2199
2200
2200
2200
2200
2200
2200
2200
2200
2200
2204
2204
2204
2198
2198
2198
2198
2197
2197
2197
2199
2199
2199
2200
2200
2200
2200
2200
2200
2200
2200
2200
2200
2198
2198
2198
2199
2199
2199
2200
2200
2200
2200
2200
2200
2198
2198
2198
2198
2198
2198
2198
2199
2199
2199
2199
2199
2199
2209
2209
2209
2198
2198
2198
2198
2200
2200
2200
2199
2199
2199
2205
2205
2205
2201
2201
2201
2202
2202
2202
2202
2199
2199
2199
2196
2196
2196
2201
2201
2201
2201
2201
2201
2205
2205
2205
2205
2199
2199
2199
2202
2202
2202
2200
2200
2200
2202
2202
2202
2199
2199
2199
2199
2197
2197
2197
2203
2203
2203
2198
2198
2198
2198
2198
2198
2202
2202
2202
2202
2201
2201
2201
2199
2199
2199
2199
2199
2199
2198
2198
2198
2200
2200
2200
2200
2197
2197
2197
2201
2201
2201
2199
2199
2199
2206
2206
2206
2202
2202
2202
2202
2200
2200
2200
2195
2195
2195
2201
2201
2201
2203
2203
2203
2201
2201
2201
2201
2199
2199
2199
2201
2201
2201
2199
2199
2199
2200
2200
2200
2201
2201
2201
2201
2200
2200
2200
2208
2208
2208
2197
2197
2197
2200
2200
2200
2200
2200
2200
2200
2198
2198
2198
2199
2199
2199
2198
2198
2198
2203
2203
2203
2199
2199
2199
2199
2200
2200
2200
2199
2199
2199
2195
2195
2195
2201
2201
2201
2199
2199
2199
2199
2201
2201
2201
2201
2201
2201
2199
2199
2199
2200
2200
2200
2199
2199
2199
2199
2196
2196
2196
2201
2201
2201
2190
2190
2190
2201
2201
2201
2201
2201
2201
2201
2199
2199
2199
2192
2192
2192
2200
2200
2200
2199
2199
2199
2201
2201
2201
2201
2198
2198
2198
2199
2199
2199
2201
2201
2201
2200
2200
2200
2199
2199
2199
2199
2195
2195
2195
2198
2198
2198
2203
2203
2203
2195
2195
2195
2201
2201
2201
2201
2199
2199
2199
2201
2201
2201
2199
2199
2199
2199
2199
2199
2203
2203
2203
2203
2200
2200
2200
2200
2200
2200
2197
2197
2197
2197
2197
2197
2198
2198
2198
2198
2201
2201
2201
2202
2202
2202
2200
2200
2200
2199
2199
2199
2198
2198
2198
2198
2200
2200
2200
2202
2202
2202
2202
2202
2202
2202
2202
2202
2199
2199
2199
2199
2201
2201
2201
2197
2197
2197
2200
2200
2200
2201
2201
2201
2200
2200
2200
2200
2196
2196
2196
2202
2202
2202
2197
2197
2197
2201
2201
2201
2199
2199
2199
2199
2198
2198
2198
2205
2205
2205
2198
2198
2198
2201
2201
2201
2200
2200
2200
2200
2203
2203
2203
2201
2201
2201
2198
2198
2198
2197
2197
2197
2200
2200
2200
2200
2201
2201
2201
2199
2199
2199
2204
2204
2204
2201
2201
2201
2193
2193
2193
2193
2198
2198
2198
2199
2199
2199
2198
2198
2198
2201
2201
2201
2199
2199
2199
2199
2197
2197
2197
2204
2204
2204
2197
2197
2197
2201
2201
2201
2200
2200
2200
2200
2198
2198
2198
2199
2199
2199
2197
2197
2197
2201
2201
2201
2199
2199
2199
2199
2201
2201
2201
2202
2202
2202
2196
2196
2196
2205
2205
2205
2201
2201
2201
2201
2200
2200
2200
2199
2199
2199
2199
2199
2199
2196
2196
2196
2198
2198
2198
2198
2201
2201
2201
2199
2199
2199
2201
2201
2201
2207
2207
2207
2199
2199
2199
2199
2199
2199
2199
2198
2198
2198
2202
2202
2202
2201
2201
2201
2199
2199
2199
2199
2195
2195
2195
2201
2201
2201
2198
2198
2198
2200
2200
2200
2203
2203
2203
2203
2198
2198
2198
2198
2198
2198
2197
2197
2197
2199
2199
2199
2199
2199
2199
2199
2196
2196
2196
2200
2200
2200
2193
2193
2193
2202
2202
2202
2192
2192
2192
2192
2204
2204
2204
2200
2200
2200
2197
2197
2197
2202
2202
2202
2200
2200
2200
2200
2200
2200
2200
2200
2200
2200
2189
2189
2189
2201
2201
2201
2202
2202
2202
2202
2202
2202
2202
2201
2201
2201
2199
2199
2199
2201
2201
2201
2202
2202
2202
2202
2199
2199
2199
2200
2200
2200
2200
2200
2200
2202
2202
2202
2201
2201
2201
2201
2199
2199
2199
2200
2200
2200
2200
2200
2200
2199
2199
2199
2198
2198
2198
2198
2195
2195
2195
2201
2201
2201
2203
2203
2203
2197
2197
2197
2200
2200
2200
2200
2198
2198
2198
2201
2201
2201
2205
2205
2205
2198
2198
2198
2198
2198
2198
2198
2201
2201
2201
2202
2202
2202
2199
2199
2199
2202
2202
2202
2202
2202
2202
2202
2199
2199
2199
2202
2202
2202
2199
2199
2199
2198
2198
2198
2202
2202
2202
2202
2201
2201
2201
2201
2201
2201
2200
2200
2200
2201
2201
2201
2205
2205
2205
2205
2195
2195
2195
2201
2201
2201
2199
2199
2199
2203
2203
2203
2201
2201
2201
2201
2204
2204
2204
2200
2200
2200
2198
2198
2198
2201
2201
2201
2203
2203
2203
2203
2199
2199
2199
2200
2200
2200
2196
2196
2196
2203
2203
2203
2201
2201
2201
2201
2199
2199
2199
2201
2201
2201
2197
2197
2197
2203
2203
2203
2201
2201
2201
2201
2200
2200
2200
2203
2203
2203
2199
2199
2199
2202
2202
2202
2198
2198
2198
2198
2195
2195
2195
2202
2202
2202
2198
2198
2198
2202
2202
2202
2200
2200
2200
2200
2197
2197
2197
2202
2202
2202
2197
2197
2197
2204
2204
2204
2200
2200
2200
2200
2200
2200
2200
2203
2203
2203
2196
2196
2196
2202
2202
2202
2201
2201
2201
2201
2198
2198
2198
2199
2199
2199
2198
2198
2198
2205
2205
2205
2197
2197
2197
2197
2197
2197
2197
2200
2200
2200
2198
2198
2198
2195
2195
2195
2202
2202
2202
2202
2197
2197
2197
2200
2200
2200
2200
2200
2200
2200
2200
2200
2198
2198
2198
2198
2199
2199
2199
2200
2200
2200
2201
2201
2201
2202
2202
2202
2203
2203
2203
2203
2202
2202
2202
2200
2200
2200
2203
2203
2203
2201
2201
2201
2200
2200
2200
2200
2201
2201
2201
2199
2199
2199
2199
2199
2199
2199
2199
2199
2202
2202
2202
2202
2190
2190
2190
2200
2200
2200
2200
2200
2200
2198
2198
2198
2199
2199
2199
2199
2198
2198
2198
2200
2200
2200
2194
2194
2194
2201
2201
2201
2200
2200
2200
2200
2198
2198
2198
2201
2201
2201
2202
2202
2202
2202
2202
2202
2200
2200
2200
2200
2200
2200
2200
2201
2201
2201
2199
2199
2199
2201
2201
2201
2199
2199
2199
2199
2202
2202
2202
2197
2197
2197
2201
2201
2201
2200
2200
2200
2203
2203
2203
2203
2198
2198
2198
2197
2197
2197
2202
2202
2202
2199
2199
2199
2201
2201
2201
2201
2200
2200
2200
2198
2198
2198
2204
2204
2204
2200
2200
2200
2201
2201
2201
2201
2207
2207
2207
2202
2202
2202
2204
2204
2204
2190
2190
2190
2204
2204
2204
2204
2199
2199
2199
2201
2201
2201
2198
2198
2198
2200
2200
2200
2198
2198
2198
2198
2199
2199
2199
2204
2204
2204
2199
2199
2199
2199
2199
2199
2199
2199
2199
2199
2199
2199
2199
2202
2202
2202
2199
2199
2199
2200
2200
2200
2198
2198
2198
2198
2199
2199
2199
2198
2198
2198
2200
2200
2200
2202
2202
2202
2200
2200
2200
2200
2202
2202
2202
2200
2200
2200
2200
2200
2200
2205
2205
2205
2200
2200
2200
2200
2198
2198
2198
2199
2199
2199
2198
2198
2198
2198
2198
2198
2201
2201
2201
2201
2199
2199
2199
2201
2201
2201
2198
2198
2198
2197
2197
2197
2195
2195
2195
2195
2199
2199
2199
2200
2200
2200
2201
2201
2201
2199
2199
2199
2198
2198
2198
2198
2198
2198
2198
2200
2200
2200
2198
2198
2198
2199
2199
2199
2198
2198
2198
2198
2197
2197
2197
2201
2201
2201
2200
2200
2200
2203
2203
2203
2200
2200
2200
2200
2197
2197
2197
2203
2203
2203
2203
2203
2203
2199
2199
2199
2197
2197
2197
2197
2202
2202
2202
2206
2206
2206
2198
2198
2198
2198
2198
2198
2201
2201
2201
2201
2198
2198
2198
2200
2200
2200
2205
2205
2205
2202
2202
2202
2196
2196
2196
2196
2200
2200
2200
2199
2199
2199
2198
2198
2198
2201
2201
2201
2203
2203
2203
2203
2199
2199
2199
2201
2201
2201
2203
2203
2203
2202
2202
2202
2200
2200
2200
2200
2199
2199
2199
2204
2204
2204
2200
2200
2200
2203
2203
2203
2200
2200
2200
2200
2200
2200
2200
2200
2200
2200
2198
2198
2198
2200
2200
2200
2204
2204
2204
2204
2201
2201
2201
2203
2203
2203
2198
2198
2198
2199
2199
2199
2203
2203
2203
2203
2192
2192
2192
2200
2200
2200
2202
2202
2202
2201
2201
2201
2199
2199
2199
2199
2199
2199
2199
2200
2200
2200
2196
2196
2196
2202
2202
2202
2205
2205
2205
2205
2196
2196
2196
2199
2199
2199
2197
2197
2197
2200
2200
2200
2199
2199
2199
2199
2199
2199
2199
2203
2203
2203
2199
2199
2199
2202
2202
2202
2198
2198
2198
2198
2196
2196
2196
2203
2203
2203
2197
2197
2197
2204
2204
2204
2198
2198
2198
2198
2197
2197
2197
2201
2201
2201
2198
2198
2198
2204
2204
2204
2200
2200
2200
2200
2197
2197
2197
2205
2205
2205
2198
2198
2198
2203
2203
2203
2193
2193
2193
2193
2204
2204
2204
2201
2201
2201
2197
2197
2197
2200
2200
2200
2201
2201
2201
2201
2199
2199
2199
2203
2203
2203
2198
2198
2198
2198
2198
2198
2193
2193
2193
2193
2196
2196
2196
2198
2198
2198
2198
2198
2198
2202
2202
2202
2199
2199
2199
2199
2197
2197
2197
2200
2200
2200
2200
2200
2200
2198
2198
2198
2195
2195
2195
2195
2205
2205
2205
2200
2200
2200
2198
2198
2198
2204
2204
2204
2199
2199
2199
2199
2195
2195
2195
2199
2199
2199
2202
2202
2202
2203
2203
2203
2196
2196
2196
2196
2201
2201
2201
2201
2201
2201
2198
2198
2198
2199
2199
2199
2200
2200
2200
2200
2199
2199
2199
2201
2201
2201
2207
2207
2207
2200
2200
2200
2197
2197
2197
2197
2201
2201
2201
2201
2201
2201
2200
2200
2200
2199
2199
2199
2197
2197
2197
2197
2193
2193
2193
2199
2199
2199
2202
2202
2202
2201
2201
2201
2200
2200
2200
2200
2200
2200
2200
2201
2201
2201
2198
2198
2198
2202
2202
2202
2195
2195
2195
2195
2201
2201
2201
2197
2197
2197
2197
2197
2197
2197
2197
2197
2199
2199
2199
2199
2198
2198
2198
2196
2196
2196
2202
2202
2202
2200
2200
2200
2200
2200
2200
2200
2199
2199
2199
2199
2199
2199
2198
2198
2198
2198
2198
2198
2200
2200
2200
2200
2203
2203
2203
2200
2200
2200
2192
2192
2192
2200
2200
2200
2200
2200
2200
2200
2200
2200
2200
2207
2207
2207
2198
2198
2198
2200
2200
2200
2202
2202
2202
2202
2198
2198
2198
2201
2201
2201
2200
2200
2200
2199
2199
2199
2201
2201
2201
2201
2199
2199
2199
2202
2202
2202
2200
2200
2200
2201
2201
2201
2198
2198
2198
2198
2198
2198
2198
2199
2199
2199
2200
2200
2200
2205
2205
2205
2199
2199
2199
2199
2199
2199
2199
2202
2202
2202
2190
2190
2190
2199
2199
2199
2200
2200
2200
2200
2199
2199
2199
2198
2198
2198
2198
2198
2198
2199
2199
2199
2201
2201
2201
2201
2198
2198
2198
2203
2203
2203
2209
2209
2209
2200
2200
2200
2199
2199
2199
2199
2200
2200
2200
2201
2201
2201
2199
2199
2199
2196
2196
2196
2201
2201
2201
2201
2199
2199
2199
2201
2201
2201
2200
2200
2200
2202
2202
2202
2198
2198
2198
2198
2197
2197
2197
2201
2201
2201
2197
2197
2197
2201
2201
2201
2203
2203
2203
2203
2197
2197
2197
2201
2201
2201
2201
2201
2201
2202
2202
2202
2197
2197
2197
2197
2198
2198
2198
2199
2199
2199
2196
2196
2196
2199
2199
2199
2202
2202
2202
2202
2197
2197
2197
2203
2203
2203
2201
2201
2201
2199
2199
2199
2197
2197
2197
2197
2200
2200
2200
2198
2198
2198
2203
2203
2203
2198
2198
2198
2199
2199
2199
2199
2200
2200
2200
2199
2199
2199
2199
2199
2199
2201
2201
2201
2201
2201
2201
2201
2199
2199
2199
2200
2200
2200
2200
2200
2200
2201
2201
2201
2198
2198
2198
2198
2201
2201
2201
2199
2199
2199
2200
2200
2200
2200
2200
2200
2199
2199
2199
2199
2198
2198
2198
2203
2203
2203
2202
2202
2202
2200
2200
2200
2198
2198
2198
2198
2198
2198
2198
2201
2201
2201
2203
2203
2203
2200
2200
2200
2194
2194
2194
2194
2199
2199
2199
2201
2201
2201
2199
2199
2199
2205
2205
2205
2198
2198
2198
2198
2199
2199
2199
2201
2201
2201
2199
2199
2199
2200
2200
2200
2199
2199
2199
2199
2196
2196
2196
2200
2200
2200
2199
2199
2199
2197
2197
2197
2198
2198
2198
2198
2197
2197
2197
2218
2218
2218
2196
2196
2196
2204
2204
2204
2201
2201
2201
2201
2199
2199
2199
2200
2200
2200
2198
2198
2198
2205
2205
2205
2197
2197
2197
2197
2205
2205
2205
2201
2201
2201
2201
2201
2201
2202
2202
2202
2197
2197
2197
2197
2199
2199
2199
2199
2199
2199
2199
2199
2199
2202
2202
2202
2206
2206
2206
2206
2199
2199
2199
2201
2201
2201
2200
2200
2200
2197
2197
2197
2200
2200
2200
2200
2200
2200
2200
2200
2200
2200
2204
2204
2204
2201
2201
2201
2200
2200
2200
2200
2198
2198
2198
2200
2200
2200
2200
2200
2200
2199
2199
2199
2197
2197
2197
2197
2199
2199
2199
2200
2200
2200
2199
2199
2199
2202
2202
2202
2200
2200
2200
2200
2199
2199
2199
2205
2205
2205
2200
2200
2200
2198
2198
2198
2198
2198
2198
2198
2192
2192
2192
2201
2201
2201
2198
2198
2198
2202
2202
2202
2205
2205
2205
2205
2199
2199
2199
2199
2199
2199
2202
2202
2202
2201
2201
2201
2199
2199
2199
2199
2198
2198
2198
2199
2199
2199
2202
2202
2202
2201
2201
2201
2200
2200
2200
2200
2198
2198
2198
2202
2202
2202
2200
2200
2200
2201
2201
2201
2209
2209
2209
2209
2197
2197
2197
2200
2200
2200
2198
2198
2198
2201
2201
2201
2203
2203
2203
2203
2198
2198
2198
2202
2202
2202
2197
2197
2197
2204
2204
2204
2198
2198
2198
2198
2200
2200
2200
2200
2200
2200
2199
2199
2199
2203
2203
2203
2197
2197
2197
2197
2202
2202
2202
2202
2202
2202
2202
2202
2202
2201
2201
2201
2199
2199
2199
2199
2199
2199
2199
2197
2197
2197
2198
2198
2198
2200
2200
2200
2199
2199
2199
2199
2203
2203
2203
2200
2200
2200
2198
2198
2198
2198
2198
2198
2200
2200
2200
2200
2197
2197
2197
2200
2200
2200
2198
2198
2198
2199
2199
2199
2200
2200
2200
2200
2200
2200
2200
2204
2204
2204
2199
2199
2199
2203
2203
2203
2200
2200
2200
2200
2198
2198
2198
2197
2197
2197
2199
2199
2199
2199
2199
2199
2199
2199
2199
2199
2198
2198
2198
2200
2200
2200
2201
2201
2201
2202
2202
2202
2199
2199
2199
2199
2198
2198
2198
2201
2201
2201
2199
2199
2199
2199
2199
2199
2196
2196
2196
2196
2199
2199
2199
2202
2202
2202
2201
2201
2201
2202
2202
2202
2201
2201
2201
2201
2197
2197
2197
2201
2201
2201
2199
2199
2199
2197
2197
2197
2200
2200
2200
2200
2200
2200
2200
2197
2197
2197
2200
2200
2200
2199
2199
2199
2198
2198
2198
2198
2198
2198
2198
2195
2195
2195
2201
2201
2201
2199
2199
2199
2200
2200
2200
2200
2199
2199
2199
2200
2200
2200
2202
2202
2202
2199
2199
2199
2209
2209
2209
2209
2198
2198
2198
2201
2201
2201
2200
2200
2200
2203
2203
2203
2204
2204
2204
2204
2200
2200
2200
2201
2201
2201
2206
2206
2206
2199
2199
2199
2196
2196
2196
2196
2199
2199
2199
2205
2205
2205
2200
2200
2200
2203
2203
2203
2200
2200
2200
2200
2203
2203
2203
2201
2201
2201
2200
2200
2200
2201
2201
2201
2199
2199
2199
2199
2202
2202
2202
2200
2200
2200
2198
2198
2198
2200
2200
2200
2204
2204
2204
2204
2195
2195
2195
2201
2201
2201
2201
2201
2201
2202
2202
2202
2201
2201
2201
2201
2198
2198
2198
2203
2203
2203
2202
2202
2202
2204
2204
2204
2189
2189
2189
2189
2199
2199
2199
2201
2201
2201
2199
2199
2199
2198
2198
2198
2199
2199
2199
2199
2199
2199
2199
2199
2199
2199
2199
2199
2199
2201
2201
2201
2204
2204
2204
2204
2197
2197
2197
2206
2206
2206
2199
2199
2199
2199
2199
2199
2199
2199
2199
2199
2199
2199
2199
2199
2199
2199
2195
2195
2195
2200
2200
2200
2200
2200
2200
2200
2197
2197
2197
2204
2204
2204
2198
2198
2198
2199
2199
2199
2199
2199
2199
2199
2201
2201
2201
2204
2204
2204
2202
2202
2202
2201
2201
2201
2200
2200
2200
2200
2197
2197
2197
2199
2199
2199
2195
2195
2195
2198
2198
2198
2200
2200
2200
2200
2204
2204
2204
2202
2202
2202
2200
2200
2200
2198
2198
2198
2200
2200
2200
2200
2199
2199
2199
2199
2199
2199
2198
2198
2198
2200
2200
2200
2199
2199
2199
2199
2202
2202
2202
2203
2203
2203
2198
2198
2198
2203
2203
2203
2201
2201
2201
2201
2198
2198
2198
2202
2202
2202
2192
2192
2192
2200
2200
2200
2204
2204
2204
2204
2200
2200
2200
2204
2204
2204
2201
2201
2201
2202
2202
2202
2201
2201
2201
2201
2197
2197
2197
2196
2196
2196
2199
2199
2199
2201
2201
2201
2200
2200
2200
2200
2199
2199
2199
2201
2201
2201
2201
2201
2201
2200
2200
2200
2197
2197
2197
2197
2199
2199
2199
2197
2197
2197
2198
2198
2198
2201
2201
2201
2193
2193
2193
2193
2202
2202
2202
2202
2202
2202
2198
2198
2198
2197
2197
2197
2199
2199
2199
2199
2198
2198
2198
2200
2200
2200
2199
2199
2199
2199
2199
2199
2200
2200
2200
2200
2199
2199
2199
2200
2200
2200
2198
2198
2198
2203
2203
2203
2199
2199
2199
2199
2199
2199
2199
2201
2201
2201
2198
2198
2198
2201
2201
2201
2197
2197
2197
2197
2205
2205
2205
2201
2201
2201
2199
2199
2199
2198
2198
2198
2201
2201
2201
2201
2202
2202
2202
2199
2199
2199
2200
2200
2200
2201
2201
2201
2199
2199
2199
2199
2199
2199
2199
2201
2201
2201
2201
2201
2201
2203
2203
2203
2199
2199
2199
2199
2198
2198
2198
2199
2199
2199
2200
2200
2200
2199
2199
2199
2202
2202
2202
2202
2203
2203
2203
2200
2200
2200
2193
2193
2193
2196
2196
2196
2200
2200
2200
2200
2195
2195
2195
2204
2204
2204
2202
2202
2202
2201
2201
2201
2196
2196
2196
2196
2201
2201
2201
2201
2201
2201
2195
2195
2195
2198
2198
2198
2203
2203
2203
2203
2199
2199
2199
2204
2204
2204
2204
2204
2204
2200
2200
2200
2197
2197
2197
2197
2198
2198
2198
2199
2199
2199
2197
2197
2197
2197
2197
2197
2200
2200
2200
2200
2200
2200
2200
2195
2195
2195
2198
2198
2198
2200
2200
2200
2203
2203
2203
2203
2199
2199
2199
2201
2201
2201
2200
2200
2200
2203
2203
2203
2200
2200
2200
2200
2198
2198
2198
2199
2199
2199
2198
2198
2198
2201
2201
2201
2201
2201
2201
2201
2198
2198
2198
2202
2202
2202
2197
2197
2197
2199
2199
2199
2200
2200
2200
2200
2197
2197
2197
2204
2204
2204
2200
2200
2200
2202
2202
2202
2199
2199
2199
2199
2201
2201
2201
2202
2202
2202
2201
2201
2201
2199
2199
2199
2199
2199
2199
2199
2198
2198
2198
2203
2203
2203
2199
2199
2199
2201
2201
2201
2198
2198
2198
2198
2199
2199
2199
2201
2201
2201
2197
2197
2197
2200
2200
2200
2202
2202
2202
2202
2200
2200
2200
2194
2194
2194
2198
2198
2198
2200
2200
2200
2197
2197
2197
2197
2197
2197
2197
2202
2202
2202
2203
2203
2203
2200
2200
2200
2200
2200
2200
2200
2199
2199
2199
2200
2200
2200
2194
2194
2194
2202
2202
2202
2201
2201
2201
2201
2198
2198
2198
2201
2201
2201
2197
2197
2197
2198
2198
2198
2201
2201
2201
2201
2198
2198
2198
2206
2206
2206
2197
2197
2197
2197
2197
2197
2196
2196
2196
2196
2194
2194
2194
2199
2199
2199
2199
2199
2199
2201
2201
2201
2198
2198
2198
2198
2199
2199
2199
2200
2200
2200
2199
2199
2199
2201
2201
2201
2202
2202
2202
2202
2198
2198
2198
2200
2200
2200
2197
2197
2197
2201
2201
2201
2200
2200
2200
2200
2199
2199
2199
2201
2201
2201
2198
2198
2198
2199
2199
2199
2199
2199
2199
2199
2199
2199
2199
2197
2197
2197
2200
2200
2200
2199
2199
2199
2200
2200
2200
2200
2199
2199
2199
2201
2201
2201
2199
2199
2199
2201
2201
2201
2200
2200
2200
2200
2197
2197
2197
2203
2203
2203
2200
2200
2200
2200
2200
2200
2202
2202
2202
2202
2199
2199
2199
2197
2197
2197
2198
2198
2198
2201
2201
2201
2198
2198
2198
2198
2200
2200
2200
2206
2206
2206
2201
2201
2201
2199
2199
2199
2201
2201
2201
2201
2199
2199
2199
2201
2201
2201
2197
2197
2197
2208
2208
2208
2201
2201
2201
2201
2198
2198
2198
2198
2198
2198
2199
2199
2199
2202
2202
2202
2205
2205
2205
2205
2192
2192
2192
2199
2199
2199
2199
2199
2199
2195
2195
2195
2196
2196
2196
2196
2199
2199
2199
2201
2201
2201
2197
2197
2197
2198
2198
2198
2192
2192
2192
2192
2201
2201
2201
2202
2202
2202
2200
2200
2200
2197
2197
2197
2200
2200
2200
2200
2198
2198
2198
2201
2201
2201
2201
2201
2201
2200
2200
2200
2206
2206
2206
2206
2197
2197
2197
2201
2201
2201
2196
2196
2196
2198
2198
2198
2199
2199
2199
2199
2199
2199
2199
2199
2199
2199
2199
2199
2199
2200
2200
2200
2203
2203
2203
2203
2196
2196
2196
2202
2202
2202
2199
2199
2199
2200
2200
2200
2197
2197
2197
2197
2197
2197
2197
2198
2198
2198
2200
2200
2200
2203
2203
2203
2199
2199
2199
2199
2203
2203
2203
2198
2198
2198
2199
2199
2199
2201
2201
2201
2199
2199
2199
2199
2200
2200
2200
2201
2201
2201
2199
2199
2199
2201
2201
2201
2203
2203
2203
2203
2197
2197
2197
2202
2202
2202
2199
2199
2199
2199
2199
2199
2202
2202
2202
2202
2199
2199
2199
2201
2201
2201
2200
2200
2200
2201
2201
2201
2199
2199
2199
2199
2197
2197
2197
2202
2202
2202
2198
2198
2198
2199
2199
2199
2197
2197
2197
2197
2199
2199
2199
2201
2201
2201
2203
2203
2203
2204
2204
2204
2200
2200
2200
2200
2197
2197
2197
2198
2198
2198
2200
2200
2200
2201
2201
2201
2203
2203
2203
2203
2200
2200
2200
2200
2200
2200
2198
2198
2198
2199
2199
2199
2200
2200
2200
2200
2199
2199
2199
2201
2201
2201
2196
2196
2196
2202
2202
2202
2199
2199
2199
2199
2199
2199
2199
2198
2198
2198
2201
2201
2201
2202
2202
2202
2202
2202
2202
2202
2199
2199
2199
2201
2201
2201
2202
2202
2202
2202
2202
2202
2199
2199
2199
2199
2198
2198
2198
2203
2203
2203
2198
2198
2198
2202
2202
2202
2200
2200
2200
2200
2199
2199
2199
2192
2192
2192
2199
2199
2199
2202
2202
2202
2198
2198
2198
2198
2194
2194
2194
2207
2207
2207
2200
2200
2200
2200
2200
2200
2200
2200
2200
2200
2200
2200
2200
2197
2197
2197
2198
2198
2198
2202
2202
2202
2199
2199
2199
2199
2201
2201
2201
2208
2208
2208
2198
2198
2198
2196
2196
2196
2200
2200
2200
2200
2198
2198
2198
2199
2199
2199
2196
2196
2196
2200
2200
2200
2203
2203
2203
2203
2196
2196
2196
2199
2199
2199
2200
2200
2200
2203
2203
2203
2198
2198
2198
2198
2199
2199
2199
2202
2202
2202
2197
2197
2197
2204
2204
2204
2199
2199
2199
2199
2194
2194
2194
2201
2201
2201
2200
2200
2200
2202
2202
2202
2197
2197
2197
2197
2199
2199
2199
2198
2198
2198
2201
2201
2201
2199
2199
2199
2197
2197
2197
2197
2199
2199
2199
2200
2200
2200
2199
2199
2199
2198
2198
2198
2201
2201
2201
2201
2199
2199
2199
2202
2202
2202
2200
2200
2200
2200
2200
2200
2200
2200
2200
2200
2198
2198
2198
2201
2201
2201
2196
2196
2196
2200
2200
2200
2197
2197
2197
2197
2199
2199
2199
2204
2204
2204
2199
2199
2199
2203
2203
2203
2200
2200
2200
2200
2197
2197
2197
2202
2202
2202
2202
2202
2202
2200
2200
2200
2193
2193
2193
2193
2196
2196
2196
2196
2196
2196
2198
2198
2198
2200
2200
2200
2200
2200
2200
2200
2201
2201
2201
2202
2202
2202
2198
2198
2198
2202
2202
2202
2197
2197
2197
2197
2190
2190
2190
2195
2195
2195
2198
2198
2198
2198
2198
2198
2203
2203
2203
2203
2198
2198
2198
2196
2196
2196
2195
2195
2195
2199
2199
2199
2199
2199
2199
2199
2203
2203
2203
2200
2200
2200
2196
2196
2196
2200
2200
2200
2200
2200
2200
2200
2199
2199
2199
2202
2202
2202
2196
2196
2196
2201
2201
2201
2197
2197
2197
2197
2198
2198
2198
2200
2200
2200
2192
2192
2192
2201
2201
2201
2201
2201
2201
2201
2199
2199
2199
2197
2197
2197
2199
2199
2199
2199
2199
2199
2202
2202
2202
2202
2200
2200
2200
2200
2200
2200
2204
2204
2204
2204
2204
2204
2196
2196
2196
2196
2198
2198
2198
2202
2202
2202
2199
2199
2199
2197
2197
2197
2200
2200
2200
2200
2200
2200
2200
2199
2199
2199
2201
2201
2201
2201
2201
2201
2199
2199
2199
2199
2198
2198
2198
2202
2202
2202
2199
2199
2199
2199
2199
2199
2200
2200
2200
2200
2198
2198
2198
2197
2197
2197
2199
2199
2199
2207
2207
2207
2199
2199
2199
2199
2200
2200
2200
2201
2201
2201
2199
2199
2199
2199
2199
2199
2200
2200
2200
2200
2196
2196
2196
2199
2199
2199
2199
2199
2199
2202
2202
2202
2200
2200
2200
2200
2201
2201
2201
2206
2206
2206
2201
2201
2201
2196
2196
2196
2201
2201
2201
2201
2199
2199
2199
2198
2198
2198
2196
2196
2196
2198
2198
2198
2201
2201
2201
2201
2191
2191
2191
2201
2201
2201
2197
2197
2197
2203
2203
2203
2197
2197
2197
2197
2200
2200
2200
2202
2202
2202
2200
2200
2200
2200
2200
2200
2199
2199
2199
2199
2198
2198
2198
2202
2202
2202
2204
2204
2204
2202
2202
2202
2201
2201
2201
2201
2197
2197
2197
2200
2200
2200
2197
2197
2197
2199
2199
2199
2200
2200
2200
2200
2200
2200
2200
2200
2200
2200
2199
2199
2199
2201
2201
2201
2198
2198
2198
2198
2200
2200
2200
2198
2198
2198
2199
2199
2199
2198
2198
2198
2201
2201
2201
2201
2199
2199
2199
2202
2202
2202
2199
2199
2199
2201
2201
2201
2199
2199
2199
2199
2198
2198
2198
2200
2200
2200
2200
2200
2200
2207
2207
2207
2200
2200
2200
2200
2198
2198
2198
2201
2201
2201
2200
2200
2200
2201
2201
2201
2196
2196
2196
2196
2194
2194
2194
2200
2200
2200
2200
2200
2200
2201
2201
2201
2200
2200
2200
2200
2198
2198
2198
2198
2198
2198
2198
2198
2198
2202
2202
2202
2203
2203
2203
2203
2200
2200
2200
2202
2202
2202
2198
2198
2198
2194
2194
2194
2200
2200
2200
2200
2197
2197
2197
2199
2199
2199
2198
2198
2198
2199
2199
2199
2199
2199
2199
2199
2199
2199
2199
2201
2201
2201
2200
2200
2200
2197
2197
2197
2199
2199
2199
2199
2198
2198
2198
2200
2200
2200
2199
2199
2199
2203
2203
2203
2200
2200
2200
2200
2199
2199
2199
2200
2200
2200
2205
2205
2205
2198
2198
2198
2198
2198
2198
2198
2203
2203
2203
2200
2200
2200
2199
2199
2199
2198
2198
2198
2200
2200
2200
2200
2198
2198
2198
2201
2201
2201
2199
2199
2199
2203
2203
2203
2200
2200
2200
2200
2200
2200
2200
2199
2199
2199
2197
2197
2197
2201
2201
2201
2199
2199
2199
2199
2196
2196
2196
2201
2201
2201
2198
2198
2198
2199
2199
2199
2200
2200
2200
2200
2202
2202
2202
2202
2202
2202
2197
2197
2197
2199
2199
2199
2199
2199
2199
2199
2199
2199
2199
2199
2199
2199
2198
2198
2198
2202
2202
2202
2194
2194
2194
2194
2207
2207
2207
2201
2201
2201
2196
2196
2196
2199
2199
2199
2201
2201
2201
2201
2196
2196
2196
2195
2195
2195
2205
2205
2205
2201
2201
2201
2199
2199
2199
2199
2198
2198
2198
2201
2201
2201
2201
2201
2201
2201
2201
2201
2198
2198
2198
2198
2199
2199
2199
2197
2197
2197
2195
2195
2195
2195
2195
2195
2201
2201
2201
2201
2198
2198
2198
2199
2199
2199
2201
2201
2201
2199
2199
2199
2198
2198
2198
2198
2200
2200
2200
2201
2201
2201
2198
2198
2198
2200
2200
2200
2203
2203
2203
2203
2199
2199
2199
2200
2200
2200
2203
2203
2203
2201
2201
2201
2195
2195
2195
2195
2198
2198
2198
2199
2199
2199
2199
2199
2199
2206
2206
2206
2202
2202
2202
2202
2198
2198
2198
2201
2201
2201
2196
2196
2196
2201
2201
2201
2200
2200
2200
2200
2199
2199
2199
2199
2199
2199
2199
2199
2199
2197
2197
2197
2197
2197
2197
2197
2195
2195
2195
2200
2200
2200
2198
2198
2198
2202
2202
2202
2190
2190
2190
2190
2199
2199
2199
2201
2201
2201
2199
2199
2199
2201
2201
2201
2198
2198
2198
2198
2197
2197
2197
2200
2200
2200
2196
2196
2196
2199
2199
2199
2204
2204
2204
2204
2203
2203
2203
2200
2200
2200
2201
2201
2201
2198
2198
2198
2198
2198
2198
2198
2196
2196
2196
2206
2206
2206
2198
2198
2198
2199
2199
2199
2200
2200
2200
2200
2200
2200
2200
2205
2205
2205
2200
2200
2200
2203
2203
2203
2201
2201
2201
2201
2199
2199
2199
2199
2199
2199
2200
2200
2200
2200
2200
2200
2203
2203
2203
2203
2199
2199
2199
2199
2199
2199
2194
2194
2194
2198
2198
2198
2201
2201
2201
2201
2199
2199
2199
2200
2200
2200
2196
2196
2196
2201
2201
2201
2198
2198
2198
2198
2200
2200
2200
2200
2200
2200
2201
2201
2201
2203
2203
2203
2197
2197
2197
2197
2198
2198
2198
2201
2201
2201
2198
2198
2198
2203
2203
2203
2202
2202
2202
2202
2199
2199
2199
2199
2199
2199
2200
2200
2200
2200
2200
2200
2196
2196
2196
2196
2193
2193
2193
2201
2201
2201
2201
2201
2201
2206
2206
2206
2198
2198
2198
2198
2201
2201
2201
2203
2203
2203
2198
2198
2198
2201
2201
2201
2194
2194
2194
2194
2203
2203
2203
2202
2202
2202
2199
2199
2199
2200
2200
2200
2200
2200
2200
2200
2195
2195
2195
2202
2202
2202
2200
2200
2200
2200
2200
2200
2200
2200
2200
2200
2198
2198
2198
2201
2201
2201
2200
2200
2200
2201
2201
2201
2196
2196
2196
2196
2196
2196
2196
2199
2199
2199
2205
2205
2205
2200
2200
2200
2197
2197
2197
2197
2197
2197
2197
2198
2198
2198
2208
2208
2208
2201
2201
2201
2199
2199
2199
2199
2199
2199
2199
2199
2199
2199
2195
2195
2195
2198
2198
2198
2201
2201
2201
2201
2201
2201
2201
2201
2201
2201
2202
2202
2202
2200
2200
2200
2197
2197
2197
2197
2198
2198
2198
2198
2198
2198
2194
2194
2194
2197
2197
2197
2201
2201
2201
2201
2200
2200
2200
2199
2199
2199
2202
2202
2202
2203
2203
2203
2198
2198
2198
2198
2198
2198
2198
2200
2200
2200
2200
2200
2200
2201
2201
2201
2202
2202
2202
2202
2197
2197
2197
2198
2198
2198
2197
2197
2197
2200
2200
2200
2205
2205
2205
2205
2198
2198
2198
2202
2202
2202
2199
2199
2199
2199
2199
2199
2200
2200
2200
2200
2201
2201
2201
2200
2200
2200
2199
2199
2199
2203
2203
2203
2196
2196
2196
2196
2194
2194
2194
2201
2201
2201
2198
2198
2198
2199
2199
2199
2198
2198
2198
2198
2201
2201
2201
2199
2199
2199
2199
2199
2199
2204
2204
2204
2199
2199
2199
2199
2199
2199
2199
2198
2198
2198
2202
2202
2202
2200
2200
2200
2202
2202
2202
2202
2197
2197
2197
2199
2199
2199
2199
2199
2199
2203
2203
2203
2199
2199
2199
2199
2201
2201
2201
2200
2200
2200
2200
2200
2200
2202
2202
2202
2199
2199
2199
2199
2201
2201
2201
2201
2201
2201
2201
2201
2201
2195
2195
2195
2200
2200
2200
2200
2196
2196
2196
2202
2202
2202
2196
2196
2196
2201
2201
2201
2200
2200
2200
2200
2199
2199
2199
2202
2202
2202
2201
2201
2201
2197
2197
2197
2199
2199
2199
2199
2199
2199
2199
2202
2202
2202
2201
2201
2201
2201
2201
2201
2204
2204
2204
2204
2191
2191
2191
2200
2200
2200
2201
2201
2201
2200
2200
2200
2200
2200
2200
2200
2199
2199
2199
2200
2200
2200
2199
2199
2199
2199
2199
2199
2198
2198
2198
2198
2197
2197
2197
2199
2199
2199
2200
2200
2200
2201
2201
2201
2200
2200
2200
2200
2198
2198
2198
2197
2197
2197
2198
2198
2198
2199
2199
2199
2200
2200
2200
2200
2197
2197
2197
2201
2201
2201
2196
2196
2196
2201
2201
2201
2200
2200
2200
2200
2199
2199
2199
2201
2201
2201
2193
2193
2193
2199
2199
2199
2199
2199
2199
2199
2200
2200
2200
2200
2200
2200
2195
2195
2195
2202
2202
2202
2199
2199
2199
2199
2196
2196
2196
2199
2199
2199
2199
2199
2199
2202
2202
2202
2199
2199
2199
2199
2203
2203
2203
2202
2202
2202
2199
2199
2199
2199
2199
2199
2198
2198
2198
2198
2197
2197
2197
2202
2202
2202
2199
2199
2199
2205
2205
2205
2201
2201
2201
2201
2203
2203
2203
2200
2200
2200
2197
2197
2197
2200
2200
2200
2197
2197
2197
2197
2188
2188
2188
2198
2198
2198
2199
2199
2199
2210
2210
2210
2200
2200
2200
2200
2197
2197
2197
2204
2204
2204
2198
2198
2198
2203
2203
2203
2200
2200
2200
2200
2198
2198
2198
2201
2201
2201
2203
2203
2203
2200
2200
2200
2198
2198
2198
2198
2201
2201
2201
2200
2200
2200
2200
2200
2200
2198
2198
2198
2201
2201
2201
2201
2201
2201
2201
2199
2199
2199
2198
2198
2198
2200
2200
2200
2197
2197
2197
2197
2198
2198
2198
2202
2202
2202
2202
2202
2202
2203
2203
2203
2200
2200
2200
2200
2201
2201
2201
2198
2198
2198
2196
2196
2196
2201
2201
2201
2200
2200
2200
2200
2198
2198
2198
2200
2200
2200
2199
2199
2199
2201
2201
2201
2198
2198
2198
2198
2198
2198
2198
2201
2201
2201
2199
2199
2199
2202
2202
2202
2199
2199
2199
2199
2197
2197
2197
2202
2202
2202
2198
2198
2198
2198
2198
2198
2200
2200
2200
2200
2202
2202
2202
2197
2197
2197
2199
2199
2199
2202
2202
2202
2201
2201
2201
2201
2204
2204
2204
2199
2199
2199
2199
2199
2199
2200
2200
2200
2202
2202
2202
2202
2199
2199
2199
2198
2198
2198
2198
2198
2198
2199
2199
2199
2200
2200
2200
2200
2203
2203
2203
2202
2202
2202
2194
2194
2194
2198
2198
2198
2199
2199
2199
2199
2193
2193
2193
2201
2201
2201
2199
2199
2199
2199
2199
2199
2199
2199
2199
2199
2201
2201
2201
2201
2201
2201
2202
2202
2202
2201
2201
2201
2200
2200
2200
2200
2201
2201
2201
2206
2206
2206
2201
2201
2201
2198
2198
2198
2201
2201
2201
2201
2199
2199
2199
2196
2196
2196
2195
2195
2195
2199
2199
2199
2198
2198
2198
2198
2197
2197
2197
2201
2201
2201
2203
2203
2203
2203
2203
2203
2202
2202
2202
2202
2196
2196
2196
2199
2199
2199
2196
2196
2196
2200
2200
2200
2197
2197
2197
2197
2197
2197
2197
2201
2201
2201
2198
2198
2198
2196
2196
2196
2198
2198
2198
2198
2198
2198
2198
2201
2201
2201
2202
2202
2202
2200
2200
2200
2201
2201
2201
2201
2196
2196
2196
2200
2200
2200
2199
2199
2199
2198
2198
2198
2202
2202
2202
2202
2197
2197
2197
2200
2200
2200
2199
2199
2199
2198
2198
2198
2199
2199
2199
2199
2199
2199
2199
2200
2200
2200
2201
2201
2201
2199
2199
2199
2203
2203
2203
2203
2193
2193
2193
2203
2203
2203
2198
2198
2198
2199
2199
2199
2199
2199
2199
2199
2200
2200
2200
2200
2200
2200
2198
2198
2198
2200
2200
2200
2201
2201
2201
2201
2199
2199
2199
2201
2201
2201
2198
2198
2198
2202
2202
2202
2200
2200
2200
2200
2201
2201
2201
2198
2198
2198
2198
2198
2198
2200
2200
2200
2198
2198
2198
2198
2196
2196
2196
2201
2201
2201
2201
2201
2201
2201
2201
2201
2199
2199
2199
2199
2203
2203
2203
2196
2196
2196
2196
2196
2196
2199
2199
2199
2199
2199
2199
2199
2197
2197
2197
2195
2195
2195
2200
2200
2200
2202
2202
2202
2203
2203
2203
2203
2194
2194
2194
2201
2201
2201
2195
2195
2195
2199
2199
2199
2199
2199
2199
2199
2197
2197
2197
2199
2199
2199
2200
2200
2200
2198
2198
2198
2197
2197
2197
2197
2198
2198
2198
2202
2202
2202
2200
2200
2200
2201
2201
2201
2199
2199
2199
2199
2197
2197
2197
2199
2199
2199
2197
2197
2197
2196
2196
2196
2197
2197
2197
2197
2195
2195
2195
2203
2203
2203
2200
2200
2200
2203
2203
2203
2202
2202
2202
2202
2199
2199
2199
2195
2195
2195
2200
2200
2200
2200
2200
2200
2199
2199
2199
2199
2198
2198
2198
2201
2201
2201
2198
2198
2198
2200
2200
2200
2199
2199
2199
2199
2200
2200
2200
2202
2202
2202
2201
2201
2201
2200
2200
2200
2192
2192
2192
2192
2199
2199
2199
2199
2199
2199
2199
2199
2199
2199
2199
2199
2200
2200
2200
2200
2198
2198
2198
2198
2198
2198
2200
2200
2200
2200
2200
2200
2198
2198
2198
2198
2198
2198
2198
2199
2199
2199
2204
2204
2204
2200
2200
2200
2201
2201
2201
2201
2199
2199
2199
2202
2202
2202
2198
2198
2198
2194
2194
2194
2198
2198
2198
2198
2200
2200
2200
2204
2204
2204
2194
2194
2194
2200
2200
2200
2195
2195
2195
2195
2202
2202
2202
2200
2200
2200
2198
2198
2198
2200
2200
2200
2200
2200
2200
2200
2200
2200
2200
2201
2201
2201
2199
2199
2199
2201
2201
2201
2197
2197
2197
2197
2204
2204
2204
2198
2198
2198
2199
2199
2199
2200
2200
2200
2199
2199
2199
2199
2197
2197
2197
2211
2211
2211
2198
2198
2198
2203
2203
2203
2200
2200
2200
2200
2199
2199
2199
2200
2200
2200
2197
2197
2197
2198
2198
2198
2201
2201
2201
2201
2197
2197
2197
2197
2197
2197
2200
2200
2200
2197
2197
2197
2197
2197
2197
2197
2200
2200
2200
2199
2199
2199
2195
2195
2195
2202
2202
2202
2196
2196
2196
2196
2200
2200
2200
2199
2199
2199
2201
2201
2201
2203
2203
2203
2201
2201
2201
2201
2199
2199
2199
2201
2201
2201
2200
2200
2200
2198
2198
2198
2197
2197
2197
2197
2191
2191
2191
2201
2201
2201
2198
2198
2198
2203
2203
2203
2201
2201
2201
2201
2201
2201
2201
2197
2197
2197
2199
2199
2199
2200
2200
2200
2200
2200
2200
2200
2198
2198
2198
2201
2201
2201
2205
2205
2205
2199
2199
2199
2199
2199
2199
2199
2201
2201
2201
2199
2199
2199
2198
2198
2198
2203
2203
2203
2200
2200
2200
2200
2198
2198
2198
2199
2199
2199
2199
2199
2199
2200
2200
2200
2200
2200
2200
2200
2200
2200
2200
2201
2201
2201
2198
2198
2198
2198
2198
2198
2200
2200
2200
2200
2201
2201
2201
2200
2200
2200
2198
2198
2198
2200
2200
2200
2199
2199
2199
2199
2199
2199
2199
2197
2197
2197
2199
2199
2199
2201
2201
2201
2198
2198
2198
2198
2195
2195
2195
2201
2201
2201
2200
2200
2200
2199
2199
2199
2199
2199
2199
2199
2209
2209
2209
2202
2202
2202
2197
2197
2197
2197
2197
2197
2199
2199
2199
2199
2194
2194
2194
2205
2205
2205
2200
2200
2200
2201
2201
2201
2197
2197
2197
2197
2202
2202
2202
2199
2199
2199
2197
2197
2197
2199
2199
2199
2197
2197
2197
2197
2196
2196
2196
2196
2196
2196
2206
2206
2206
2201
2201
2201
2197
2197
2197
2197
2202
2202
2202
2203
2203
2203
2198
2198
2198
2197
2197
2197
2198
2198
2198
2198
2200
2200
2200
2192
2192
2192
2198
2198
2198
2197
2197
2197
2200
2200
2200
2200
2196
2196
2196
2202
2202
2202
2199
2199
2199
2201
2201
2201
2196
2196
2196
2196
2199
2199
2199
2204
2204
2204
2199
2199
2199
2199
2199
2199
2200
2200
2200
2200
2193
2193
2193
2201
2201
2201
2200
2200
2200
2199
2199
2199
2198
2198
2198
2198
2198
2198
2198
2201
2201
2201
2200
2200
2200
2200
2200
2200
2202
2202
2202
2202
2184
2184
2184
2199
2199
2199
2198
2198
2198
2198
2198
2198
2197
2197
2197
2197
2199
2199
2199
2199
2199
2199
2199
2199
2199
2200
2200
2200
2197
2197
2197
2197
2200
2200
2200
2198
2198
2198
2195
2195
2195
2201
2201
2201
2200
2200
2200
2200
2201
2201
2201
2201
2201
2201
2196
2196
2196
2201
2201
2201
2199
2199
2199
2199
2200
2200
2200
2195
2195
2195
2200
2200
2200
2199
2199
2199
2201
2201
2201
2201
2198
2198
2198
2199
2199
2199
2200
2200
2200
2200
2200
2200
2197
2197
2197
2197
2201
2201
2201
2202
2202
2202
2198
2198
2198
2202
2202
2202
2198
2198
2198
2198
2199
2199
2199
2198
2198
2198
2204
2204
2204
2201
2201
2201
2197
2197
2197
2197
2201
2201
2201
2201
2201
2201
2200
2200
2200
2201
2201
2201
2200
2200
2200
2200
2196
2196
2196
2198
2198
2198
2198
2198
2198
2202
2202
2202
2202
2202
2202
2202
2199
2199
2199
2201
2201
2201
2200
2200
2200
2202
2202
2202
2200
2200
2200
2200
2194
2194
2194
2201
2201
2201
2203
2203
2203
2201
2201
2201
2198
2198
2198
2198
2204
2204
2204
2211
2211
2211
2199
2199
2199
2201
2201
2201
2200
2200
2200
2200
2199
2199
2199
2195
2195
2195
2200
2200
2200
2202
2202
2202
2195
2195
2195
2195
2200
2200
2200
2199
2199
2199
2201
2201
2201
2202
2202
2202
2201
2201
2201
2201
2198
2198
2198
2198
2198
2198
2194
2194
2194
2201
2201
2201
2199
2199
2199
2199
2205
2205
2205
2199
2199
2199
2196
2196
2196
2196
2196
2196
2198
2198
2198
2198
2199
2199
2199
2202
2202
2202
2198
2198
2198
2203
2203
2203
2202
2202
2202
2202
2203
2203
2203
2200
2200
2200
2198
2198
2198
2199
2199
2199
2201
2201
2201
2201
2199
2199
2199
2203
2203
2203
2199
2199
2199
2199
2199
2199
2200
2200
2200
2200
2200
2200
2200
2201
2201
2201
2199
2199
2199
2199
2199
2199
2199
2199
2199
2199
2201
2201
2201
2200
2200
2200
2199
2199
2199
2200
2200
2200
2198
2198
2198
2198
2201
2201
2201
2201
2201
2201
2202
2202
2202
2199
2199
2199
2198
2198
2198
2198
2201
2201
2201
2199
2199
2199
2198
2198
2198
2200
2200
2200
2198
2198
2198
2198
2195
2195
2195
2202
2202
2202
2197
2197
2197
2198
2198
2198
2198
2198
2198
2198
2199
2199
2199
2200
2200
2200
2201
2201
2201
2201
2201
2201
2199
2199
2199
2199
2200
2200
2200
2197
2197
2197
2197
2197
2197
2200
2200
2200
2197
2197
2197
2197
2196
2196
2196
2200
2200
2200
2200
2200
2200
2199
2199
2199
2199
2199
2199
2199
2204
2204
2204
2198
2198
2198
2199
2199
2199
2203
2203
2203
2198
2198
2198
2198
2205
2205
2205
2204
2204
2204
2201
2201
2201
2197
2197
2197
2198
2198
2198
2198
2199
2199
2199
2192
2192
2192
2197
2197
2197
2203
2203
2203
2202
2202
2202
2202
2198
2198
2198
2202
2202
2202
2202
2202
2202
2201
2201
2201
2197
2197
2197
2197
2200
2200
2200
2201
2201
2201
2198
2198
2198
2196
2196
2196
2198
2198
2198
2198
2201
2201
2201
2201
2201
2201
2200
2200
2200
2202
2202
2202
2201
2201
2201
2201
2199
2199
2199
2205
2205
2205
2199
2199
2199
2200
2200
2200
2197
2197
2197
2197
2198
2198
2198
2199
2199
2199
2195
2195
2195
2200
2200
2200
2199
2199
2199
2199
2199
2199
2199
2200
2200
2200
2201
2201
2201
2199
2199
2199
2200
2200
2200
2200
2197
2197
2197
2201
2201
2201
2201
2201
2201
2202
2202
2202
2198
2198
2198
2198
2199
2199
2199
2202
2202
2202
2200
2200
2200
2200
2200
2200
2199
2199
2199
2199
2199
2199
2199
2200
2200
2200
2199
2199
2199
2202
2202
2202
2195
2195
2195
2195
2195
2195
2195
2199
2199
2199
2200
2200
2200
2198
2198
2198
2198
2198
2198
2198
2199
2199
2199
2202
2202
2202
2199
2199
2199
2200
2200
2200
2196
2196
2196
2196
2206
2206
2206
2201
2201
2201
2201
2201
2201
2202
2202
2202
2199
2199
2199
2199
2202
2202
2202
2201
2201
2201
2202
2202
2202
2200
2200
2200
2196
2196
2196
2196
2200
2200
2200
2201
2201
2201
2201
2201
2201
2199
2199
2199
2200
2200
2200
2200
2200
2200
2200
2199
2199
2199
2200
2200
2200
2199
2199
2199
2199
2199
2199
2199
2200
2200
2200
2202
2202
2202
2200
2200
2200
2200
2200
2200
2199
2199
2199
2199
2197
2197
2197
2198
2198
2198
2199
2199
2199
2202
2202
2202
2200
2200
2200
2200
2201
2201
2201
2203
2203
2203
2197
2197
2197
2199
2199
2199
2202
2202
2202
2202
2199
2199
2199
2200
2200
2200
2199
2199
2199
2196
2196
2196
2201
2201
2201
2201
2198
2198
2198
2201
2201
2201
2199
2199
2199
2202
2202
2202
2200
2200
2200
2200
2196
2196
2196
2198
2198
2198
2195
2195
2195
2199
2199
2199
2197
2197
2197
2197
2200
2200
2200
2200
2200
2200
2201
2201
2201
2204
2204
2204
