2015
2015
2015
2018
2018
2018
2015
2015
2015
2014
2014
2014
2020
2020
2020
2020
2016
2016
2016
2016
2016
2016
2019
2019
2019
2017
2017
2017
2015
2015
2015
2015
2017
2017
2017
2018
2018
2018
2016
2016
2016
2017
2017
2017
2013
2013
2013
2013
2018
2018
2018
2021
2021
2021
2017
2017
2017
2017
2017
2017
2014
2014
2014
2014
2019
2019
2019
2017
2017
2017
2015
2015
2015
2013
2013
2013
2018
2018
2018
2018
2018
2018
2018
2017
2017
2017
2017
2017
2017
2014
2014
2014
2020
2020
2020
2020
2015
2015
2015
2019
2019
2019
2017
2017
2017
2016
2016
2016
2017
2017
2017
2017
2016
2016
2016
2017
2017
2017
2016
2016
2016
2015
2015
2015
2018
2018
2018
2018
2015
2015
2015
2015
2015
2015
2015
2015
2015
2013
2013
2013
2014
2014
2014
2014
2015
2015
2015
2017
2017
2017
2014
2014
2014
2017
2017
2017
2019
2019
2019
2019
2016
2016
2016
2017
2017
2017
2017
2017
2017
2017
2017
2017
2022
2022
2022
2022
2016
2016
2016
2017
2017
2017
2018
2018
2018
2016
2016
2016
2016
2016
2016
2016
2017
2017
2017
2020
2020
2020
2018
2018
2018
2009
2009
2009
2015
2015
2015
2015
2018
2018
2018
2018
2018
2018
2019
2019
2019
2017
2017
2017
2019
2019
2019
2019
2015
2015
2015
2016
2016
2016
2018
2018
2018
2016
2016
2016
2017
2017
2017
2017
2015
2015
2015
2013
2013
2013
2017
2017
2017
2016
2016
2016
2017
2017
2017
2017
2015
2015
2015
2014
2014
2014
2018
2018
2018
2014
2014
2014
2014
2014
2014
2014
2014
2014
2014
2015
2015
2015
2017
2017
2017
2015
2015
2015
2016
2016
2016
2016
2017
2017
2017
2016
2016
2016
2018
2018
2018
2014
2014
2014
2014
2014
2014
2014
2018
2018
2018
2016
2016
2016
2014
2014
2014
2017
2017
2017
2017
2017
2017
2017
2017
2017
2017
2014
2014
2014
2014
2014
2014
2018
2018
2018
2021
2021
2021
2021
2016
2016
2016
2018
2018
2018
2015
2015
2015
2017
2017
2017
2019
2019
2019
2019
2016
2016
2016
2015
2015
2015
2019
2019
2019
2020
2020
2020
2018
2018
2018
2018
2016
2016
2016
2018
2018
2018
2016
2016
2016
2019
2019
2019
2018
2018
2018
2018
2018
2018
2018
2019
2019
2019
2017
2017
2017
2019
2019
2019
2018
2018
2018
2018
2016
2016
2016
2016
2016
2016
2018
2018
2018
2016
2016
2016
2017
2017
2017
2017
2016
2016
2016
2016
2016
2016
2020
2020
2020
2013
2013
2013
2017
2017
2017
2017
2017
2017
2017
2015
2015
2015
2016
2016
2016
2015
2015
2015
2014
2014
2014
2014
2018
2018
2018
2019
2019
2019
2013
2013
2013
2015
2015
2015
2012
2012
2012
2012
2017
2017
2017
2016
2016
2016
2015
2015
2015
2015
2015
2015
2013
2013
2013
2013
2012
2012
2012
2018
2018
2018
2011
2011
2011
2011
2011
2011
2017
2017
2017
2017
2017
2017
2017
2013
2013
2013
2018
2018
2018
2014
2014
2014
2017
2017
2017
2017
2014
2014
2014
2015
2015
2015
2018
2018
2018
2018
2018
2018
2013
2013
2013
2013
2016
2016
2016
2017
2017
2017
2016
2016
2016
2016
2016
2016
2017
2017
2017
2017
2017
2017
2017
2018
2018
2018
2019
2019
2019
2019
2019
2019
2016
2016
2016
2016
2016
2016
2016
2016
2016
2016
2016
2016
2016
2018
2018
2018
2015
2015
2015
2015
2020
2020
2020
2020
2020
2020
2017
2017
2017
2009
2009
2009
2013
2013
2013
2013
2017
2017
2017
2015
2015
2015
2016
2016
2016
2016
2016
2016
2018
2018
2018
2018
2015
2015
2015
2019
2019
2019
2019
2019
2019
2018
2018
2018
2014
2014
2014
2014
2017
2017
2017
2020
2020
2020
2017
2017
2017
2015
2015
2015
2016
2016
2016
2016
2017
2017
2017
2018
2018
2018
2018
2018
2018
2016
2016
2016
2017
2017
2017
2017
2011
2011
2011
2015
2015
2015
2015
2015
2015
2019
2019
2019
2016
2016
2016
2016
2017
2017
2017
2015
2015
2015
2015
2015
2015
2019
2019
2019
2017
2017
2017
2017
2016
2016
2016
2016
2016
2016
2015
2015
2015
2016
2016
2016
2015
2015
2015
2015
2018
2018
2018
2016
2016
2016
2015
2015
2015
2015
2015
2015
2022
2022
2022
2022
2017
2017
2017
2019
2019
2019
2018
2018
2018
2017
2017
2017
2021
2021
2021
2021
2015
2015
2015
2013
2013
2013
2016
2016
2016
2015
2015
2015
2015
2015
2015
2015
2010
2010
2010
2017
2017
2017
2015
2015
2015
2019
2019
2019
2016
2016
2016
2016
2015
2015
2015
2017
2017
2017
2019
2019
2019
2016
2016
2016
2014
2014
2014
2014
2016
2016
2016
2016
2016
2016
2018
2018
2018
2015
2015
2015
2016
2016
2016
2016
2017
2017
2017
2020
2020
2020
2014
2014
2014
2016
2016
2016
2017
2017
2017
2017
2016
2016
2016
2017
2017
2017
2017
2017
2017
2014
2014
2014
2015
2015
2015
2015
2015
2015
2015
2012
2012
2012
2017
2017
2017
2015
2015
2015
2017
2017
2017
2017
2019
2019
2019
2017
2017
2017
2015
2015
2015
2014
2014
2014
2016
2016
2016
2016
2019
2019
2019
2016
2016
2016
2015
2015
2015
2017
2017
2017
2017
2017
2017
2017
2018
2018
2018
2017
2017
2017
2016
2016
2016
2017
2017
2017
2017
2017
2017
2017
2016
2016
2016
2020
2020
2020
2016
2016
2016
2017
2017
2017
2016
2016
2016
2016
2014
2014
2014
2021
2021
2021
2017
2017
2017
2017
2017
2017
2017
2017
2017
2017
2013
2013
2013
2018
2018
2018
2018
2018
2018
2015
2015
2015
2015
2015
2015
2015
2015
2015
2015
2017
2017
2017
2017
2017
2017
2016
2016
2016
2015
2015
2015
2015
2016
2016
2016
2019
2019
2019
2019
2019
2019
2015
2015
2015
2017
2017
2017
2017
2017
2017
2017
2017
2017
2017
2016
2016
2016
2018
2018
2018
2016
2016
2016
2016
2015
2015
2015
2018
2018
2018
2016
2016
2016
2017
2017
2017
2015
2015
2015
2015
2016
2016
2016
2016
2016
2016
2015
2015
2015
2017
2017
2017
2017
2017
2017
2017
2008
2008
2008
2017
2017
2017
2017
2017
2017
2020
2020
2020
2015
2015
2015
2015
2015
2015
2015
2017
2017
2017
2015
2015
2015
2015
2015
2015
2016
2016
2016
2016
2015
2015
2015
2018
2018
2018
2013
2013
2013
2018
2018
2018
2017
2017
2017
2017
2019
2019
2019
2016
2016
2016
2017
2017
2017
2016
2016
2016
2018
2018
2018
2018
2017
2017
2017
2016
2016
2016
2017
2017
2017
2016
2016
2016
2016
2016
2016
2016
2017
2017
2017
2019
2019
2019
2016
2016
2016
2014
2014
2014
2017
2017
2017
2017
2021
2021
2021
2017
2017
2017
2017
2017
2017
2018
2018
2018
2010
2010
2010
2010
2024
2024
2024
2017
2017
2017
2020
2020
2020
2016
2016
2016
2014
2014
2014
2014
2018
2018
2018
2017
2017
2017
2014
2014
2014
2016
2016
2016
2017
2017
2017
2017
2017
2017
2017
2021
2021
2021
2017
2017
2017
2016
2016
2016
2017
2017
2017
2017
2016
2016
2016
2020
2020
2020
2015
2015
2015
2016
2016
2016
2016
2016
2016
2016
2015
2015
2015
2019
2019
2019
2016
2016
2016
2018
2018
2018
2017
2017
2017
2017
2015
2015
2015
2016
2016
2016
2020
2020
2020
2016
2016
2016
2016
2016
2016
2016
2016
2016
2016
2020
2020
2020
2016
2016
2016
2016
2016
2016
2017
2017
2017
2017
2018
2018
2018
2017
2017
2017
2019
2019
2019
2015
2015
2015
2019
2019
2019
2019
2017
2017
2017
2013
2013
2013
2013
2013
2013
2018
2018
2018
2018
2018
2018
2018
2014
2014
2014
2018
2018
2018
2018
2018
2018
2019
2019
2019
2017
2017
2017
2017
2014
2014
2014
2015
2015
2015
2015
2015
2015
2017
2017
2017
2019
2019
2019
2019
2015
2015
2015
2016
2016
2016
2019
2019
2019
2017
2017
2017
2017
2017
2017
2017
2016
2016
2016
2018
2018
2018
2021
2021
2021
2019
2019
2019
2016
2016
2016
2016
2015
2015
2015
2016
2016
2016
2015
2015
2015
2015
2015
2015
2016
2016
2016
2016
2017
2017
2017
2021
2021
2021
2024
2024
2024
2017
2017
2017
2013
2013
2013
2013
2015
2015
2015
2017
2017
2017
2019
2019
2019
2014
2014
2014
2017
2017
2017
2017
2016
2016
2016
2016
2016
2016
2016
2016
2016
2011
2011
2011
2017
2017
2017
2017
2018
2018
2018
2018
2018
2018
2017
2017
2017
2017
2017
2017
2016
2016
2016
2016
2019
2019
2019
2016
2016
2016
2012
2012
2012
2014
2014
2014
2013
2013
2013
2013
2016
2016
2016
2017
2017
2017
2017
2017
2017
2014
2014
2014
2015
2015
2015
2015
2018
2018
2018
2020
2020
2020
2016
2016
2016
2012
2012
2012
2014
2014
2014
2014
2015
2015
2015
2016
2016
2016
2015
2015
2015
2016
2016
2016
2015
2015
2015
2015
2023
2023
2023
2016
2016
2016
2016
2016
2016
2021
2021
2021
2018
2018
2018
2018
2015
2015
2015
2016
2016
2016
2018
2018
2018
2017
2017
2017
2014
2014
2014
2014
2017
2017
2017
2015
2015
2015
2018
2018
2018
2018
2018
2018
2019
2019
2019
2019
2016
2016
2016
2018
2018
2018
2015
2015
2015
2016
2016
2016
2018
2018
2018
2018
2015
2015
2015
2014
2014
2014
2016
2016
2016
2015
2015
2015
2019
2019
2019
2019
2017
2017
2017
2015
2015
2015
2015
2015
2015
2016
2016
2016
2017
2017
2017
2017
2017
2017
2017
2018
2018
2018
2017
2017
2017
2021
2021
2021
2016
2016
2016
2016
2017
2017
2017
2017
2017
2017
2011
2011
2011
2016
2016
2016
2016
2016
2016
2016
2014
2014
2014
2015
2015
2015
2015
2015
2015
2018
2018
2018
2019
2019
2019
2019
2016
2016
2016
2014
2014
2014
2017
2017
2017
2016
2016
2016
2018
2018
2018
2018
2016
2016
2016
2014
2014
2014
2018
2018
2018
2017
2017
2017
2018
2018
2018
2018
2017
2017
2017
2017
2017
2017
2017
2017
2017
2013
2013
2013
2017
2017
2017
2017
2011
2011
2011
2017
2017
2017
2016
2016
2016
2017
2017
2017
2015
2015
2015
2015
2015
2015
2015
2018
2018
2018
2019
2019
2019
2018
2018
2018
2015
2015
2015
2015
2014
2014
2014
2019
2019
2019
2017
2017
2017
2016
2016
2016
2016
2016
2016
2016
2018
2018
2018
2017
2017
2017
2017
2017
2017
2015
2015
2015
2019
2019
2019
2019
2019
2019
2019
2018
2018
2018
2014
2014
2014
2015
2015
2015
2015
2015
2015
2015
2015
2015
2015
2017
2017
2017
2015
2015
2015
2015
2015
2015
2017
2017
2017
2017
2017
2017
2017
2015
2015
2015
2016
2016
2016
2018
2018
2018
2016
2016
2016
2016
2016
2016
2016
2016
2016
2016
2018
2018
2018
2017
2017
2017
2018
2018
2018
2018
2018
2018
2018
2018
2018
2018
2017
2017
2017
2013
2013
2013
2017
2017
2017
2017
2017
2017
2017
2015
2015
2015
2017
2017
2017
2015
2015
2015
2020
2020
2020
2020
2016
2016
2016
2022
2022
2022
2018
2018
2018
2015
2015
2015
2016
2016
2016
2016
2019
2019
2019
2015
2015
2015
2015
2015
2015
2020
2020
2020
2016
2016
2016
2016
2014
2014
2014
2016
2016
2016
2014
2014
2014
2020
2020
2020
2019
2019
2019
2019
2016
2016
2016
2018
2018
2018
2017
2017
2017
2016
2016
2016
2017
2017
2017
2017
2019
2019
2019
2019
2019
2019
2013
2013
2013
2014
2014
2014
2017
2017
2017
2017
2015
2015
2015
2015
2015
2015
2015
2015
2015
2016
2016
2016
2018
2018
2018
2018
2015
2015
2015
2016
2016
2016
2017
2017
2017
2017
2017
2017
2012
2012
2012
2012
2012
2012
2012
2017
2017
2017
2018
2018
2018
2014
2014
2014
2017
2017
2017
2017
2013
2013
2013
2018
2018
2018
2018
2018
2018
2016
2016
2016
2014
2014
2014
2014
2018
2018
2018
2016
2016
2016
2018
2018
2018
2015
2015
2015
2016
2016
2016
2016
2016
2016
2016
2016
2016
2016
2014
2014
2014
2016
2016
2016
2018
2018
2018
2018
2017
2017
2017
2018
2018
2018
2015
2015
2015
2017
2017
2017
2013
2013
2013
2013
2016
2016
2016
2015
2015
2015
2016
2016
2016
2016
2016
2016
2019
2019
2019
2019
2015
2015
2015
2015
2015
2015
2015
2015
2015
2022
2022
2022
2016
2016
2016
2016
2016
2016
2016
2017
2017
2017
2022
2022
2022
2016
2016
2016
2017
2017
2017
2017
2016
2016
2016
2017
2017
2017
2017
2017
2017
2018
2018
2018
2015
2015
2015
2015
2017
2017
2017
2022
2022
2022
2018
2018
2018
2018
2018
2018
2020
2020
2020
2020
2015
2015
2015
2018
2018
2018
2016
2016
2016
2019
2019
2019
2015
2015
2015
2015
2017
2017
2017
2017
2017
2017
2017
2017
2017
2018
2018
2018
2017
2017
2017
2017
2013
2013
2013
2017
2017
2017
2016
2016
2016
2015
2015
2015
2018
2018
2018
2018
2018
2018
2018
2018
2018
2018
2016
2016
2016
2014
2014
2014
2016
2016
2016
2016
2018
2018
2018
2017
2017
2017
2018
2018
2018
2017
2017
2017
2015
2015
2015
2015
2016
2016
2016
2015
2015
2015
2015
2015
2015
2015
2015
2015
2018
2018
2018
2018
2011
2011
2011
2017
2017
2017
2024
2024
2024
2017
2017
2017
2016
2016
2016
2016
2016
2016
2016
2018
2018
2018
2018
2018
2018
2017
2017
2017
2018
2018
2018
2018
2014
2014
2014
2016
2016
2016
2014
2014
2014
2015
2015
2015
2018
2018
2018
2018
2017
2017
2017
2018
2018
2018
2016
2016
2016
2018
2018
2018
2017
2017
2017
2017
2017
2017
2017
2017
2017
2017
2017
2017
2017
2016
2016
2016
2019
2019
2019
2019
2016
2016
2016
2016
2016
2016
2018
2018
2018
2016
2016
2016
2015
2015
2015
2015
2017
2017
2017
2014
2014
2014
2014
2014
2014
2013
2013
2013
2019
2019
2019
2019
2015
2015
2015
2018
2018
2018
2015
2015
2015
2016
2016
2016
2017
2017
2017
2017
2018
2018
2018
2017
2017
2017
2013
2013
2013
2017
2017
2017
2017
2017
2017
2017
2015
2015
2015
2016
2016
2016
2017
2017
2017
2018
2018
2018
2017
2017
2017
2017
2018
2018
2018
2015
2015
2015
2018
2018
2018
2020
2020
2020
2014
2014
2014
2014
2016
2016
2016
2019
2019
2019
2017
2017
2017
2014
2014
2014
2016
2016
2016
2016
2015
2015
2015
2018
2018
2018
2017
2017
2017
2011
2011
2011
2017
2017
2017
2017
2017
2017
2017
2019
2019
2019
2015
2015
2015
2015
2015
2015
2017
2017
2017
2017
2017
2017
2017
2013
2013
2013
2014
2014
2014
2015
2015
2015
2016
2016
2016
2016
2017
2017
2017
2016
2016
2016
2018
2018
2018
2016
2016
2016
2015
2015
2015
2015
2015
2015
2015
2016
2016
2016
2019
2019
2019
2014
2014
2014
2013
2013
2013
2013
2015
2015
2015
2019
2019
2019
2016
2016
2016
2018
2018
2018
2015
2015
2015
2015
2014
2014
2014
2019
2019
2019
2015
2015
2015
2021
2021
2021
2020
2020
2020
2020
2015
2015
2015
2016
2016
2016
2021
2021
2021
2015
2015
2015
2019
2019
2019
2019
2016
2016
2016
2018
2018
2018
2018
2018
2018
2016
2016
2016
2015
2015
2015
2015
2017
2017
2017
2014
2014
2014
2016
2016
2016
2017
2017
2017
2015
2015
2015
2015
2016
2016
2016
2019
2019
2019
2010
2010
2010
2016
2016
2016
2015
2015
2015
2015
2013
2013
2013
2015
2015
2015
2016
2016
2016
2016
2016
2016
2017
2017
2017
2017
2016
2016
2016
2017
2017
2017
2015
2015
2015
2018
2018
2018
2019
2019
2019
2019
2015
2015
2015
2016
2016
2016
2018
2018
2018
2016
2016
2016
2016
2016
2016
2016
2017
2017
2017
2017
2017
2017
2016
2016
2016
2014
2014
2014
2015
2015
2015
2015
2017
2017
2017
2016
2016
2016
2017
2017
2017
2018
2018
2018
2016
2016
2016
2016
2022
2022
2022
2014
2014
2014
2014
2014
2014
2018
2018
2018
2016
2016
2016
2016
2016
2016
2016
2017
2017
2017
2017
2017
2017
2017
2017
2017
2016
2016
2016
2016
2015
2015
2015
2021
2021
2021
2025
2025
2025
2012
2012
2012
2014
2014
2014
2014
2018
2018
2018
2015
2015
2015
2017
2017
2017
2016
2016
2016
2020
2020
2020
2020
2012
2012
2012
2017
2017
2017
2015
2015
2015
2016
2016
2016
2015
2015
2015
2015
2017
2017
2017
2016
2016
2016
2016
2016
2016
2015
2015
2015
2016
2016
2016
2016
2014
2014
2014
2015
2015
2015
2016
2016
2016
2020
2020
2020
2020
2020
2020
2020
2016
2016
2016
2017
2017
2017
2018
2018
2018
2015
2015
2015
2019
2019
2019
2019
2017
2017
2017
2017
2017
2017
2024
2024
2024
2016
2016
2016
2016
2016
2016
2016
2016
2016
2016
2016
2016
2016
2016
2016
2016
2019
2019
2019
2015
2015
2015
2015
2015
2015
2015
2014
2014
2014
2017
2017
2017
2021
2021
2021
2019
2019
2019
2019
2018
2018
2018
2016
2016
2016
2016
2016
2016
2017
2017
2017
2017
2017
2017
2017
2017
2017
2017
2018
2018
2018
2016
2016
2016
2019
2019
2019
2018
2018
2018
2018
2018
2018
2018
2017
2017
2017
2019
2019
2019
2015
2015
2015
2017
2017
2017
2017
2017
2017
2017
2022
2022
2022
2015
2015
2015
2014
2014
2014
2014
2014
2014
2014
2016
2016
2016
2018
2018
2018
2017
2017
2017
2015
2015
2015
2019
2019
2019
2019
2020
2020
2020
2014
2014
2014
2015
2015
2015
2018
2018
2018
2019
2019
2019
2019
2015
2015
2015
2019
2019
2019
2017
2017
2017
2016
2016
2016
2015
2015
2015
2015
2018
2018
2018
2017
2017
2017
2017
2017
2017
2015
2015
2015
2017
2017
2017
2017
2016
2016
2016
2016
2016
2016
2018
2018
2018
2017
2017
2017
2017
2017
2017
2017
2016
2016
2016
2017
2017
2017
2015
2015
2015
2017
2017
2017
2019
2019
2019
2019
2014
2014
2014
2014
2014
2014
2016
2016
2016
2015
2015
2015
2017
2017
2017
2017
2021
2021
2021
2017
2017
2017
2016
2016
2016
2016
2016
2016
2016
2016
2016
2016
2017
2017
2017
2017
2017
2017
2016
2016
2016
2021
2021
2021
2019
2019
2019
2019
2017
2017
2017
2021
2021
2021
2013
2013
2013
2017
2017
2017
2016
2016
2016
2016
2016
2016
2016
2016
2016
2016
2016
2016
2016
2014
2014
2014
2016
2016
2016
2016
2016
2016
2016
2012
2012
2012
2017
2017
2017
2016
2016
2016
2011
2011
2011
2011
2018
2018
2018
2017
2017
2017
2016
2016
2016
2014
2014
2014
2017
2017
2017
2017
2017
2017
2017
2017
2017
2017
2016
2016
2016
2010
2010
2010
2021
2021
2021
2021
2015
2015
2015
2017
2017
2017
2017
2017
2017
2015
2015
2015
2016
2016
2016
2016
2015
2015
2015
2015
2015
2015
2021
2021
2021
2015
2015
2015
2017
2017
2017
2017
2017
2017
2017
2022
2022
2022
2021
2021
2021
2017
2017
2017
2016
2016
2016
2016
2016
2016
2016
2020
2020
2020
2017
2017
2017
2015
2015
2015
2015
2015
2015
2015
2019
2019
2019
2019
2019
2019
2019
2019
2019
2016
2016
2016
2017
2017
2017
2017
2014
2014
2014
2016
2016
2016
2016
2016
2016
2017
2017
2017
2016
2016
2016
2016
2017
2017
2017
2016
2016
2016
2018
2018
2018
2015
2015
2015
2018
2018
2018
2018
2016
2016
2016
2016
2016
2016
2018
2018
2018
2017
2017
2017
2016
2016
2016
2016
2016
2016
2016
2012
2012
2012
2018
2018
2018
2017
2017
2017
2019
2019
2019
2019
2018
2018
2018
2016
2016
2016
2016
2016
2016
2015
2015
2015
2018
2018
2018
2018
2016
2016
2016
2015
2015
2015
2016
2016
2016
2012
2012
2012
2018
2018
2018
2018
2016
2016
2016
2016
2016
2016
2014
2014
2014
2015
2015
2015
2015
2015
2015
2015
2017
2017
2017
2016
2016
2016
2017
2017
2017
2017
2017
2017
2017
2017
2017
2017
2017
2017
2017
2015
2015
2015
2017
2017
2017
2015
2015
2015
2017
2017
2017
2017
2019
2019
2019
2018
2018
2018
2016
2016
2016
2014
2014
2014
2021
2021
2021
2021
2017
2017
2017
2016
2016
2016
2016
2016
2016
2012
2012
2012
2017
2017
2017
2017
2016
2016
2016
2015
2015
2015
2015
2015
2015
2015
2015
2015
2017
2017
2017
2017
2014
2014
2014
2016
2016
2016
2017
2017
2017
2014
2014
2014
2017
2017
2017
2017
2017
2017
2017
2016
2016
2016
2015
2015
2015
2016
2016
2016
2017
2017
2017
2017
2017
2017
2017
2014
2014
2014
2016
2016
2016
2015
2015
2015
2016
2016
2016
2016
2017
2017
2017
2019
2019
2019
2019
2019
2019
2015
2015
2015
2015
2015
2015
2015
2020
2020
2020
2016
2016
2016
2018
2018
2018
2017
2017
2017
2017
2017
2017
2017
2017
2017
2017
2015
2015
2015
2015
2015
2015
2018
2018
2018
2017
2017
2017
2017
2016
2016
2016
2018
2018
2018
2018
2018
2018
2016
2016
2016
2021
2021
2021
2021
2017
2017
2017
2020
2020
2020
2019
2019
2019
2016
2016
2016
2013
2013
2013
2013
2015
2015
2015
2013
2013
2013
2017
2017
2017
2015
2015
2015
2020
2020
2020
2020
2020
2020
2020
2019
2019
2019
2018
2018
2018
2018
2018
2018
2017
2017
2017
2017
2020
2020
2020
2018
2018
2018
2017
2017
2017
2013
2013
2013
2016
2016
2016
2016
2016
2016
2016
2014
2014
2014
2013
2013
2013
2014
2014
2014
2014
2014
2014
2014
2015
2015
2015
2018
2018
2018
2017
2017
2017
2017
2017
2017
2017
2017
2017
2017
2013
2013
2013
2019
2019
2019
2019
2019
2019
2016
2016
2016
2017
2017
2017
2017
2015
2015
2015
2016
2016
2016
2016
2016
2016
2015
2015
2015
2015
2015
2015
2015
2011
2011
2011
2017
2017
2017
2015
2015
2015
2005
2005
2005
2015
2015
2015
2015
2017
2017
2017
2019
2019
2019
2016
2016
2016
2015
2015
2015
2016
2016
2016
2016
2017
2017
2017
2013
2013
2013
2015
2015
2015
2014
2014
2014
2016
2016
2016
2016
2014
2014
2014
2015
2015
2015
2019
2019
2019
2015
2015
2015
2018
2018
2018
2018
2022
2022
2022
2018
2018
2018
2013
2013
2013
2016
2016
2016
2015
2015
2015
2015
2013
2013
2013
2017
2017
2017
2017
2017
2017
2017
2017
2017
2018
2018
2018
2018
2015
2015
2015
2015
2015
2015
2014
2014
2014
2012
2012
2012
2015
2015
2015
2015
2015
2015
2015
2017
2017
2017
2015
2015
2015
2016
2016
2016
2015
2015
2015
2015
2014
2014
2014
2018
2018
2018
2022
2022
2022
2016
2016
2016
2015
2015
2015
2015
2017
2017
2017
2018
2018
2018
2015
2015
2015
2017
2017
2017
2020
2020
2020
2020
2016
2016
2016
2020
2020
2020
2018
2018
2018
2015
2015
2015
2017
2017
2017
2017
2016
2016
2016
2014
2014
2014
2017
2017
2017
2016
2016
2016
2017
2017
2017
2017
2019
2019
2019
2020
2020
2020
2013
2013
2013
2014
2014
2014
2015
2015
2015
2015
2016
2016
2016
2016
2016
2016
2019
2019
2019
2015
2015
2015
2017
2017
2017
2017
2017
2017
2017
2021
2021
2021
2015
2015
2015
2016
2016
2016
2015
2015
2015
2015
2015
2015
2015
2015
2015
2015
2016
2016
2016
2013
2013
2013
2018
2018
2018
2018
2019
2019
2019
2020
2020
2020
2019
2019
2019
2015
2015
2015
2016
2016
2016
2016
2020
2020
2020
2018
2018
2018
2016
2016
2016
2016
2016
2016
2017
2017
2017
2017
2015
2015
2015
2017
2017
2017
2017
2017
2017
2015
2015
2015
2017
2017
2017
2017
2016
2016
2016
2016
2016
2016
2016
2016
2016
2017
2017
2017
2013
2013
2013
2013
2017
2017
2017
2015
2015
2015
2014
2014
2014
2015
2015
2015
2015
2015
2015
2015
2018
2018
2018
2017
2017
2017
2016
2016
2016
2018
2018
2018
2014
2014
2014
2014
2011
2011
2011
2015
2015
2015
2018
2018
2018
2021
2021
2021
2019
2019
2019
2019
2017
2017
2017
2018
2018
2018
2015
2015
2015
2016
2016
2016
2015
2015
2015
2015
2016
2016
2016
2015
2015
2015
2020
2020
2020
2017
2017
2017
2019
2019
2019
2019
2015
2015
2015
2022
2022
2022
2018
2018
2018
2016
2016
2016
2015
2015
2015
2015
2015
2015
2015
2015
2015
2015
2018
2018
2018
2017
2017
2017
2013
2013
2013
2013
2012
2012
2012
2016
2016
2016
2016
2016
2016
2013
2013
2013
2017
2017
2017
2017
2015
2015
2015
2014
2014
2014
2015
2015
2015
2021
2021
2021
2019
2019
2019
2019
2017
2017
2017
2017
2017
2017
2020
2020
2020
2016
2016
2016
2016
2016
2016
2016
2016
2016
2016
2017
2017
2017
2015
2015
2015
2013
2013
2013
2020
2020
2020
2020
2015
2015
2015
2016
2016
2016
2017
2017
2017
2016
2016
2016
2011
2011
2011
2011
2015
2015
2015
2017
2017
2017
2017
2017
2017
2021
2021
2021
2020
2020
2020
2020
2015
2015
2015
2017
2017
2017
2016
2016
2016
2015
2015
2015
2018
2018
2018
2018
2017
2017
2017
2019
2019
2019
2018
2018
2018
2022
2022
2022
2016
2016
2016
2016
2017
2017
2017
2019
2019
2019
2020
2020
2020
2016
2016
2016
2014
2014
2014
2014
2014
2014
2014
2016
2016
2016
2016
2016
2016
2019
2019
2019
2021
2021
2021
2021
2016
2016
2016
2014
2014
2014
2016
2016
2016
2014
2014
2014
2016
2016
2016
2016
2016
2016
2016
2014
2014
2014
2015
2015
2015
2021
2021
2021
2017
2017
2017
2017
2015
2015
2015
2017
2017
2017
2019
2019
2019
2014
2014
2014
2017
2017
2017
2017
2019
2019
2019
2016
2016
2016
2019
2019
2019
2017
2017
2017
2017
2017
2017
2017
2018
2018
2018
2014
2014
2014
2018
2018
2018
2017
2017
2017
2013
2013
2013
2013
2019
2019
2019
2020
2020
2020
2014
2014
2014
2015
2015
2015
2015
2015
2015
2015
2021
2021
2021
2015
2015
2015
2017
2017
2017
2015
2015
2015
2018
2018
2018
2018
2024
2024
2024
2014
2014
2014
2014
2014
2014
2018
2018
2018
2023
2023
2023
2023
2015
2015
2015
2017
2017
2017
2014
2014
2014
2014
2014
2014
2018
2018
2018
2018
2015
2015
2015
2017
2017
2017
2018
2018
2018
2017
2017
2017
2014
2014
2014
2014
2015
2015
2015
2018
2018
2018
2016
2016
2016
2015
2015
2015
2021
2021
2021
2021
2015
2015
2015
2016
2016
2016
2016
2016
2016
2018
2018
2018
2015
2015
2015
2015
2012
2012
2012
2017
2017
2017
2016
2016
2016
2019
2019
2019
2016
2016
2016
2016
2016
2016
2016
2016
2016
2016
2018
2018
2018
2018
2018
2018
2019
2019
2019
2019
2017
2017
2017
2017
2017
2017
2015
2015
2015
2015
2015
2015
2017
2017
2017
2017
2016
2016
2016
2017
2017
2017
2017
2017
2017
2018
2018
2018
2016
2016
2016
2016
2018
2018
2018
2016
2016
2016
2020
2020
2020
2017
2017
2017
2019
2019
2019
2019
2016
2016
2016
2018
2018
2018
2015
2015
2015
2013
2013
2013
2016
2016
2016
2016
2018
2018
2018
2017
2017
2017
2017
2017
2017
2019
2019
2019
2015
2015
2015
2015
2020
2020
2020
2018
2018
2018
2020
2020
2020
2019
2019
2019
2017
2017
2017
2017
2016
2016
2016
2017
2017
2017
2018
2018
2018
2017
2017
2017
2015
2015
2015
2015
2016
2016
2016
2013
2013
2013
2015
2015
2015
2014
2014
2014
2018
2018
2018
2018
2016
2016
2016
2015
2015
2015
2016
2016
2016
2015
2015
2015
2021
2021
2021
2021
2018
2018
2018
2020
2020
2020
2022
2022
2022
2019
2019
2019
2014
2014
2014
2014
2015
2015
2015
2018
2018
2018
2015
2015
2015
2017
2017
2017
2017
2017
2017
2017
2012
2012
2012
2016
2016
2016
2012
2012
2012
2016
2016
2016
2018
2018
2018
2018
2016
2016
2016
2012
2012
2012
2018
2018
2018
2016
2016
2016
2018
2018
2018
2018
2019
2019
2019
2019
2019
2019
2015
2015
2015
2015
2015
2015
2015
2015
2015
2015
2020
2020
2020
2015
2015
2015
2018
2018
2018
2015
2015
2015
2016
2016
2016
2016
2013
2013
2013
2015
2015
2015
2015
2015
2015
2016
2016
2016
2019
2019
2019
2019
2015
2015
2015
2018
2018
2018
2019
2019
2019
2016
2016
2016
2017
2017
2017
2017
2011
2011
2011
2018
2018
2018
2013
2013
2013
2017
2017
2017
2020
2020
2020
2020
2015
2015
2015
2018
2018
2018
2017
2017
2017
2017
2017
2017
2018
2018
2018
2018
2015
2015
2015
2018
2018
2018
2015
2015
2015
2014
2014
2014
2016
2016
2016
2016
2013
2013
2013
2020
2020
2020
2017
2017
2017
2015
2015
2015
2017
2017
2017
2017
2020
2020
2020
2017
2017
2017
2020
2020
2020
2017
2017
2017
2015
2015
2015
2015
2016
2016
2016
2018
2018
2018
2016
2016
2016
2015
2015
2015
2017
2017
2017
2017
2016
2016
2016
2009
2009
2009
2019
2019
2019
2019
2019
2019
2022
2022
2022
2022
2021
2021
2021
2016
2016
2016
2017
2017
2017
2016
2016
2016
2017
2017
2017
2017
2016
2016
2016
2021
2021
2021
2018
2018
2018
2015
2015
2015
2016
2016
2016
2016
2018
2018
2018
2017
2017
2017
2019
2019
2019
2016
2016
2016
2017
2017
2017
2017
2015
2015
2015
2018
2018
2018
2015
2015
2015
2014
2014
2014
2018
2018
2018
2018
2016
2016
2016
2019
2019
2019
2016
2016
2016
2018
2018
2018
2017
2017
2017
2017
2016
2016
2016
2016
2016
2016
2013
2013
2013
2017
2017
2017
2016
2016
2016
2016
2015
2015
2015
2017
2017
2017
2019
2019
2019
2018
2018
2018
2019
2019
2019
2019
2018
2018
2018
2015
2015
2015
2014
2014
2014
2015
2015
2015
2014
2014
2014
2014
2014
2014
2014
2015
2015
2015
2014
2014
2014
2015
2015
2015
2018
2018
2018
2018
2017
2017
2017
2015
2015
2015
2016
2016
2016
2014
2014
2014
2015
2015
2015
2015
2018
2018
2018
2016
2016
2016
2019
2019
2019
2015
2015
2015
2017
2017
2017
2017
2017
2017
2017
2015
2015
2015
2017
2017
2017
2016
2016
2016
2017
2017
2017
2017
2016
2016
2016
2016
2016
2016
2018
2018
2018
2016
2016
2016
2016
2016
2016
2016
2022
2022
2022
2015
2015
2015
2013
2013
2013
2016
2016
2016
2017
2017
2017
2017
2017
2017
2017
2016
2016
2016
2013
2013
2013
2015
2015
2015
2015
2015
2015
2015
2017
2017
2017
2016
2016
2016
2017
2017
2017
2015
2015
2015
2013
2013
2013
2013
2014
2014
2014
2018
2018
2018
2016
2016
2016
2016
2016
2016
2016
2016
2016
2016
2016
2016
2016
2018
2018
2018
2020
2020
2020
2018
2018
2018
2014
2014
2014
2014
2017
2017
2017
2015
2015
2015
2017
2017
2017
2014
2014
2014
2017
2017
2017
2017
2017
2017
2017
2016
2016
2016
2015
2015
2015
2014
2014
2014
2021
2021
2021
2021
2013
2013
2013
2016
2016
2016
2015
2015
2015
2017
2017
2017
2016
2016
2016
2016
2017
2017
2017
2018
2018
2018
2018
2018
2018
2017
2017
2017
2019
2019
2019
2019
2017
2017
2017
2018
2018
2018
2018
2018
2018
2016
2016
2016
2014
2014
2014
2014
2014
2014
2014
2016
2016
2016
2018
2018
2018
2020
2020
2020
2015
2015
2015
2015
2022
2022
2022
2017
2017
2017
2017
2017
2017
2017
2017
2017
2016
2016
2016
2016
2019
2019
2019
2019
2019
2019
2020
2020
2020
2014
2014
2014
2015
2015
2015
2015
2015
2015
2015
2016
2016
2016
2015
2015
2015
2016
2016
2016
2020
2020
2020
2020
2014
2014
2014
2014
2014
2014
2013
2013
2013
2016
2016
2016
2018
2018
2018
2018
2017
2017
2017
2015
2015
2015
2016
2016
2016
2017
2017
2017
2015
2015
2015
2015
2013
2013
2013
2018
2018
2018
2015
2015
2015
2018
2018
2018
2016
2016
2016
2016
2018
2018
2018
2016
2016
2016
2019
2019
2019
2013
2013
2013
2016
2016
2016
2016
2015
2015
2015
2018
2018
2018
2014
2014
2014
2016
2016
2016
2016
2016
2016
2016
2014
2014
2014
2016
2016
2016
2016
2016
2016
2015
2015
2015
2019
2019
2019
2019
2014
2014
2014
2017
2017
2017
2018
2018
2018
2013
2013
2013
2019
2019
2019
2019
2016
2016
2016
2017
2017
2017
2023
2023
2023
2017
2017
2017
2016
2016
2016
2016
2015
2015
2015
2018
2018
2018
2015
2015
2015
2017
2017
2017
2017
2017
2017
2017
2015
2015
2015
2021
2021
2021
2016
2016
2016
2016
2016
2016
2014
2014
2014
2014
2021
2021
2021
2017
2017
2017
2016
2016
2016
2016
2016
2016
2015
2015
2015
2015
2016
2016
2016
2014
2014
2014
2016
2016
2016
2016
2016
2016
2017
2017
2017
2017
2017
2017
2017
2019
2019
2019
2021
2021
2021
2014
2014
2014
2014
2014
2014
2014
2015
2015
2015
2008
2008
2008
2017
2017
2017
2014
2014
2014
2017
2017
2017
2017
2014
2014
2014
2018
2018
2018
2016
2016
2016
2015
2015
2015
2016
2016
2016
2016
2011
2011
2011
2019
2019
2019
2011
2011
2011
2015
2015
2015
2018
2018
2018
2018
2013
2013
2013
2016
2016
2016
2015
2015
2015
2016
2016
2016
2009
2009
2009
2009
2015
2015
2015
2022
2022
2022
2016
2016
2016
2016
2016
2016
2019
2019
2019
2019
2016
2016
2016
2016
2016
2016
2018
2018
2018
2017
2017
2017
2017
2017
2017
2017
2016
2016
2016
2016
2016
2016
2019
2019
2019
2017
2017
2017
2017
2017
2017
2017
2015
2015
2015
2019
2019
2019
2019
2019
2019
2015
2015
2015
2010
2010
2010
2010
2019
2019
2019
2015
2015
2015
2015
2015
2015
2015
2015
2015
2016
2016
2016
2016
2015
2015
2015
2017
2017
2017
2016
2016
2016
2021
2021
2021
2016
2016
2016
2016
2016
2016
2016
2014
2014
2014
2015
2015
2015
2017
2017
2017
2015
2015
2015
2015
2015
2015
2015
2014
2014
2014
2019
2019
2019
2019
2019
2019
2013
2013
2013
2013
2017
2017
2017
2017
2017
2017
2016
2016
2016
2019
2019
2019
2015
2015
2015
2015
2016
2016
2016
2014
2014
2014
2018
2018
2018
2017
2017
2017
2017
2017
2017
2017
2015
2015
2015
2016
2016
2016
2017
2017
2017
2016
2016
2016
2017
2017
2017
2017
2017
2017
2017
2017
2017
2017
2018
2018
2018
2017
2017
2017
2016
2016
2016
2016
2015
2015
2015
2020
2020
2020
2014
2014
2014
2012
2012
2012
2015
2015
2015
2015
2014
2014
2014
2016
2016
2016
2014
2014
2014
2016
2016
2016
2016
2016
2016
2016
2016
2016
2016
2018
2018
2018
2018
2018
2018
2017
2017
2017
2018
2018
2018
2018
2016
2016
2016
2015
2015
2015
2017
2017
2017
2018
2018
2018
2015
2015
2015
2015
2016
2016
2016
2022
2022
2022
2021
2021
2021
2016
2016
2016
2016
2016
2016
2016
2016
2016
2016
2023
2023
2023
2015
2015
2015
2018
2018
2018
2021
2021
2021
2021
2019
2019
2019
2015
2015
2015
2016
2016
2016
2013
2013
2013
2018
2018
2018
2018
2014
2014
2014
2017
2017
2017
2013
2013
2013
2013
2013
2013
2017
2017
2017
2017
2017
2017
2017
2016
2016
2016
2017
2017
2017
2016
2016
2016
2016
2016
2016
2016
2013
2013
2013
2015
2015
2015
2017
2017
2017
2016
2016
2016
2019
2019
2019
2019
2013
2013
2013
2015
2015
2015
2016
2016
2016
2018
2018
2018
2017
2017
2017
2017
2017
2017
2017
2015
2015
2015
2011
2011
2011
2015
2015
2015
2016
2016
2016
2016
2016
2016
2016
2012
2012
2012
2017
2017
2017
2019
2019
2019
2017
2017
2017
2017
2017
2017
2017
2017
2017
2017
2015
2015
2015
2017
2017
2017
2013
2013
2013
2013
2012
2012
2012
2019
2019
2019
2017
2017
2017
2015
2015
2015
2018
2018
2018
2018
2015
2015
2015
2016
2016
2016
2018
2018
2018
2017
2017
2017
2015
2015
2015
2015
2015
2015
2015
2016
2016
2016
2019
2019
2019
2017
2017
2017
2014
2014
2014
2014
2018
2018
2018
2017
2017
2017
2017
2017
2017
2011
2011
2011
2017
2017
2017
2017
2016
2016
2016
2017
2017
2017
2015
2015
2015
2016
2016
2016
2015
2015
2015
2015
2018
2018
2018
2016
2016
2016
2016
2016
2016
2015
2015
2015
2015
2015
2015
2015
2015
2015
2015
2016
2016
2016
2016
2016
2016
2017
2017
2017
2018
2018
2018
2018
2016
2016
2016
2019
2019
2019
2019
2019
2019
2013
2013
2013
2016
2016
2016
2016
2013
2013
2013
2016
2016
2016
2015
2015
2015
2015
2015
2015
2016
2016
2016
2016
2016
2016
2016
2019
2019
2019
2016
2016
2016
2017
2017
2017
2014
2014
2014
2014
2016
2016
2016
2015
2015
2015
2015
2015
2015
2018
2018
2018
2015
2015
2015
2015
2018
2018
2018
2015
2015
2015
2007
2007
2007
2014
2014
2014
2016
2016
2016
2016
2018
2018
2018
2015
2015
2015
2012
2012
2012
2015
2015
2015
2021
2021
2021
2021
2017
2017
2017
2016
2016
2016
2015
2015
2015
2016
2016
2016
2014
2014
2014
2014
2018
2018
2018
2015
2015
2015
2016
2016
2016
2016
2016
2016
2019
2019
2019
2019
2014
2014
2014
2018
2018
2018
2010
2010
2010
2015
2015
2015
2017
2017
2017
2017
2015
2015
2015
2016
2016
2016
2018
2018
2018
2016
2016
2016
2018
2018
2018
2018
2014
2014
2014
2015
2015
2015
2021
2021
2021
2014
2014
2014
2015
2015
2015
2015
2015
2015
2015
2015
2015
2015
2017
2017
2017
2015
2015
2015
2017
2017
2017
2017
2018
2018
2018
2014
2014
2014
2016
2016
2016
2014
2014
2014
2015
2015
2015
2015
2015
2015
2015
2016
2016
2016
2016
2016
2016
2017
2017
2017
2020
2020
2020
2020
2016
2016
2016
2017
2017
2017
2014
2014
2014
2017
2017
2017
2017
2017
2017
2017
2016
2016
2016
2018
2018
2018
2020
2020
2020
2012
2012
2012
2019
2019
2019
2019
2017
2017
2017
2018
2018
2018
2016
2016
2016
2016
2016
2016
2017
2017
2017
2017
2014
2014
2014
2014
2014
2014
2017
2017
2017
2021
2021
2021
2016
2016
2016
2016
2016
2016
2016
2016
2016
2016
2017
2017
2017
2017
2017
2017
2017
2017
2017
2017
2021
2021
2021
2013
2013
2013
2014
2014
2014
2018
2018
2018
2014
2014
2014
2014
2016
2016
2016
2015
2015
2015
2016
2016
2016
2019
2019
2019
2017
2017
2017
2017
2015
2015
2015
2015
2015
2015
2021
2021
2021
2016
2016
2016
2016
2016
2016
2016
2014
2014
2014
2016
2016
2016
2017
2017
2017
2017
2017
2017
2012
2012
2012
2012
2015
2015
2015
2017
2017
2017
2015
2015
2015
2016
2016
2016
2016
2016
2016
2016
2010
2010
2010
2017
2017
2017
2014
2014
2014
2019
2019
2019
2018
2018
2018
2018
2017
2017
2017
2017
2017
2017
2011
2011
2011
2015
2015
2015
2017
2017
2017
2017
2020
2020
2020
2012
2012
2012
2018
2018
2018
2014
2014
2014
2015
2015
2015
2015
2016
2016
2016
2016
2016
2016
2017
2017
2017
2019
2019
2019
2013
2013
2013
2013
2019
2019
2019
2016
2016
2016
2018
2018
2018
2015
2015
2015
2017
2017
2017
2017
2014
2014
2014
2020
2020
2020
2018
2018
2018
2019
2019
2019
2015
2015
2015
2015
2013
2013
2013
2014
2014
2014
2017
2017
2017
2017
2017
2017
2016
2016
2016
2016
2016
2016
2016
2017
2017
2017
2019
2019
2019
2017
2017
2017
2017
2017
2017
2017
2015
2015
2015
2016
2016
2016
2017
2017
2017
2015
2015
2015
2020
2020
2020
2020
2014
2014
2014
2020
2020
2020
2017
2017
2017
2016
2016
2016
2015
2015
2015
2015
2015
2015
2015
2015
2015
2015
2014
2014
2014
2017
2017
2017
2017
2017
2017
2017
2018
2018
2018
2017
2017
2017
2011
2011
2011
2016
2016
2016
2016
2016
2016
2016
2015
2015
2015
2019
2019
2019
2018
2018
2018
2012
2012
2012
2021
2021
2021
2021
2018
2018
2018
2018
2018
2018
2017
2017
2017
2016
2016
2016
2015
2015
2015
2015
2017
2017
2017
2018
2018
2018
2019
2019
2019
2012
2012
2012
2014
2014
2014
2014
2017
2017
2017
2016
2016
2016
2018
2018
2018
2015
2015
2015
2019
2019
2019
2019
2017
2017
2017
2015
2015
2015
2017
2017
2017
2016
2016
2016
2016
2016
2016
2016
2017
2017
2017
2020
2020
2020
2013
2013
2013
2017
2017
2017
2019
2019
2019
2019
2015
2015
2015
2017
2017
2017
2020
2020
2020
2015
2015
2015
2017
2017
2017
2017
2013
2013
2013
2015
2015
2015
2016
2016
2016
2015
2015
2015
2014
2014
2014
2014
2015
2015
2015
2017
2017
2017
2016
2016
2016
2017
2017
2017
2015
2015
2015
2015
2017
2017
2017
2015
2015
2015
2019
2019
2019
2016
2016
2016
2015
2015
2015
2015
2016
2016
2016
2018
2018
2018
2017
2017
2017
2016
2016
2016
2013
2013
2013
2013
2014
2014
2014
2014
2014
2014
2015
2015
2015
2018
2018
2018
2016
2016
2016
2016
2014
2014
2014
2014
2014
2014
2017
2017
2017
2021
2021
2021
2012
2012
2012
2012
2015
2015
2015
2017
2017
2017
2017
2017
2017
2017
2017
2017
2016
2016
2016
2016
2014
2014
2014
2017
2017
2017
2019
2019
2019
2017
2017
2017
2016
2016
2016
2016
2018
2018
2018
2015
2015
2015
2017
2017
2017
2015
2015
2015
2016
2016
2016
2016
2017
2017
2017
2015
2015
2015
2016
2016
2016
2019
2019
2019
2017
2017
2017
2017
2016
2016
2016
2018
2018
2018
2017
2017
2017
2017
2017
2017
2019
2019
2019
2019
2014
2014
2014
2016
2016
2016
2017
2017
2017
2015
2015
2015
2016
2016
2016
2016
2016
2016
2016
2014
2014
2014
2014
2014
2014
2018
2018
2018
2016
2016
2016
2016
2022
2022
2022
2015
2015
2015
2016
2016
2016
2015
2015
2015
2013
2013
2013
2013
2014
2014
2014
2015
2015
2015
2018
2018
2018
2021
2021
2021
2012
2012
2012
2012
2017
2017
2017
2016
2016
2016
2017
2017
2017
2017
2017
2017
2015
2015
2015
2015
2017
2017
2017
2018
2018
2018
2018
2018
2018
2017
2017
2017
2016
2016
2016
2016
2015
2015
2015
2012
2012
2012
2019
2019
2019
2014
2014
2014
2016
2016
2016
2016
2016
2016
2016
2016
2016
2016
2016
2016
2016
2016
2016
2016
2017
2017
2017
2017
2015
2015
2015
2015
2015
2015
2023
2023
2023
2015
2015
2015
2014
2014
2014
2014
2017
2017
2017
2018
2018
2018
2018
2018
2018
2015
2015
2015
2017
2017
2017
2017
2016
2016
2016
2014
2014
2014
2018
2018
2018
2015
2015
2015
2016
2016
2016
2016
2016
2016
2016
2017
2017
2017
2013
2013
2013
2015
2015
2015
2017
2017
2017
2017
2016
2016
2016
2009
2009
2009
2015
2015
2015
2017
2017
2017
2018
2018
2018
2018
2017
2017
2017
2015
2015
2015
2015
2015
2015
2021
2021
2021
2015
2015
2015
2015
2016
2016
2016
2018
2018
2018
2015
2015
2015
2016
2016
2016
2017
2017
2017
2017
2019
2019
2019
2016
2016
2016
2017
2017
2017
2016
2016
2016
2016
2016
2016
2016
2016
2016
2016
2020
2020
2020
2017
2017
2017
2017
2017
2017
2017
2017
2017
2017
2020
2020
2020
2015
2015
2015
2017
2017
2017
2017
2017
2017
2015
2015
2015
2015
2019
2019
2019
2017
2017
2017
2017
2017
2017
2014
2014
2014
2018
2018
2018
2018
2015
2015
2015
2019
2019
2019
2018
2018
2018
2015
2015
2015
2016
2016
2016
2016
2013
2013
2013
2013
2013
2013
2019
2019
2019
2017
2017
2017
2015
2015
2015
2015
2014
2014
2014
2012
2012
2012
2018
2018
2018
2016
2016
2016
2017
2017
2017
2017
2014
2014
2014
2013
2013
2013
2017
2017
2017
2015
2015
2015
2013
2013
2013
2013
2018
2018
2018
2016
2016
2016
2018
2018
2018
2012
2012
2012
2016
2016
2016
2016
2016
2016
2016
2016
2016
2016
2017
2017
2017
2014
2014
2014
2015
2015
2015
2015
2016
2016
2016
2017
2017
2017
2017
2017
2017
2018
2018
2018
2015
2015
2015
2015
2016
2016
2016
2017
2017
2017
2016
2016
2016
2014
2014
2014
2017
2017
2017
2017
2016
2016
2016
2015
2015
2015
2017
2017
2017
2017
2017
2017
2013
2013
2013
2013
2016
2016
2016
2018
2018
2018
2015
2015
2015
2017
2017
2017
2023
2023
2023
2023
2017
2017
2017
2015
2015
2015
2017
2017
2017
2015
2015
2015
2018
2018
2018
2018
2020
2020
2020
2017
2017
2017
2012
2012
2012
2016
2016
2016
2016
2016
2016
2016
2016
2016
2016
2016
2016
2016
2016
2016
2016
2017
2017
2017
2018
2018
2018
2018
2017
2017
2017
2017
2017
2017
2017
2017
2017
2013
2013
2013
2018
2018
2018
2018
2013
2013
2013
2017
2017
2017
2015
2015
2015
2016
2016
2016
2020
2020
2020
2020
2016
2016
2016
2014
2014
2014
2018
2018
2018
2015
2015
2015
2018
2018
2018
2018
2016
2016
2016
2017
2017
2017
2016
2016
2016
2016
2016
2016
2019
2019
2019
2019
2020
2020
2020
2017
2017
2017
2018
2018
2018
2017
2017
2017
2015
2015
2015
2015
2017
2017
2017
2018
2018
2018
2017
2017
2017
2015
2015
2015
2016
2016
2016
2016
2016
2016
2016
2018
2018
2018
2016
2016
2016
2016
2016
2016
2020
2020
2020
2020
2017
2017
2017
2011
2011
2011
2016
2016
2016
2014
2014
2014
2014
2014
2014
2014
2016
2016
2016
2015
2015
2015
2018
2018
2018
2016
2016
2016
2016
2016
2016
2016
2014
2014
2014
2013
2013
2013
2017
2017
2017
2018
2018
2018
2011
2011
2011
2011
2016
2016
2016
2016
2016
2016
2018
2018
2018
2016
2016
2016
2016
2016
2016
2016
2017
2017
2017
2017
2017
2017
2017
2017
2017
2016
2016
2016
2017
2017
2017
2017
2017
2017
2017
2018
2018
2018
2016
2016
2016
2019
2019
2019
2016
2016
2016
2016
2016
2016
2016
2017
2017
2017
2017
2017
2017
2018
2018
2018
2016
2016
2016
2016
2017
2017
2017
2014
2014
2014
2022
2022
2022
2015
2015
2015
2017
2017
2017
2017
2017
2017
2017
2018
2018
2018
2016
2016
2016
2016
2016
2016
2015
2015
2015
2015
2015
2015
2015
2013
2013
2013
2018
2018
2018
2012
2012
2012
2016
2016
2016
2016
2020
2020
2020
2016
2016
2016
2016
2016
2016
2016
2016
2016
2017
2017
2017
2017
2015
2015
2015
2016
2016
2016
2016
2016
2016
2018
2018
2018
2015
2015
2015
2015
2015
2015
2015
2016
2016
2016
2016
2016
2016
2016
2016
2016
2015
2015
2015
2015
2013
2013
2013
2017
2017
2017
2017
2017
2017
2016
2016
2016
2018
2018
2018
2018
2018
2018
2018
2013
2013
2013
2018
2018
2018
2017
2017
2017
2018
2018
2018
2018
2017
2017
2017
2018
2018
2018
2015
2015
2015
2015
2015
2015
2017
2017
2017
2017
2021
2021
2021
2016
2016
2016
2018
2018
2018
2011
2011
2011
2017
2017
2017
2017
2017
2017
2017
2016
2016
2016
2014
2014
2014
2017
2017
2017
2019
2019
2019
2019
2018
2018
2018
2017
2017
2017
2016
2016
2016
2015
2015
2015
2016
2016
2016
2016
2016
2016
2016
2015
2015
2015
2015
2015
2015
2015
2015
2015
2019
2019
2019
2019
2016
2016
2016
2017
2017
2017
2020
2020
2020
2018
2018
2018
2016
2016
2016
2016
2019
2019
2019
2015
2015
2015
2015
2015
2015
2019
2019
2019
2017
2017
2017
2017
2015
2015
2015
2016
2016
2016
2018
2018
2018
2019
2019
2019
2016
2016
2016
2016
2015
2015
2015
2018
2018
2018
2019
2019
2019
2018
2018
2018
2016
2016
2016
2016
2016
2016
2016
2016
2016
2016
2017
2017
2017
2016
2016
2016
2014
2014
2014
2014
2015
2015
2015
2016
2016
2016
2015
2015
2015
2018
2018
2018
2016
2016
2016
2016
2019
2019
2019
2015
2015
2015
2016
2016
2016
2018
2018
2018
2015
2015
2015
2015
2016
2016
2016
2016
2016
2016
2018
2018
2018
2017
2017
2017
2017
2017
2017
2017
2017
2017
2017
2015
2015
2015
2017
2017
2017
2016
2016
2016
2016
2016
2016
2016
2015
2015
2015
2015
2015
2015
2014
2014
2014
2016
2016
2016
2014
2014
2014
2014
2017
2017
2017
2018
2018
2018
2017
2017
2017
2017
2017
2017
2015
2015
2015
2015
2016
2016
2016
2019
2019
2019
2019
2019
2019
2018
2018
2018
2020
2020
2020
2020
2019
2019
2019
2015
2015
2015
2017
2017
2017
2018
2018
2018
2017
2017
2017
2017
2015
2015
2015
2015
2015
2015
2020
2020
2020
2017
2017
2017
2015
2015
2015
2015
2016
2016
2016
2018
2018
2018
2017
2017
2017
2017
2017
2017
2017
2017
2017
2017
2017
2017
2017
2016
2016
2016
2018
2018
2018
2018
2018
2018
2014
2014
2014
2014
2016
2016
2016
2019
2019
2019
2012
2012
2012
2015
2015
2015
2016
2016
2016
2016
2016
2016
2016
2019
2019
2019
2018
2018
2018
2016
2016
2016
2018
2018
2018
2018
2015
2015
2015
2018
2018
2018
2018
2018
2018
2012
2012
2012
2014
2014
2014
2014
2017
2017
2017
2016
2016
2016
2019
2019
2019
2014
2014
2014
2016
2016
2016
2016
2016
2016
2016
2021
2021
2021
2018
2018
2018
2014
2014
2014
2010
2010
2010
2010
2020
2020
2020
2018
2018
2018
2015
2015
2015
2017
2017
2017
2017
2017
2017
2017
2015
2015
2015
2017
2017
2017
2017
2017
2017
2022
2022
2022
2018
2018
2018
2018
2016
2016
2016
2023
2023
2023
2015
2015
2015
2020
2020
2020
2021
2021
2021
2021
2015
2015
2015
2019
2019
2019
2017
2017
2017
2017
2017
2017
2016
2016
2016
2016
2020
2020
2020
2014
2014
2014
2015
2015
2015
2017
2017
2017
2021
2021
2021
2021
2016
2016
2016
2019
2019
2019
2016
2016
2016
2014
2014
2014
2017
2017
2017
2017
2015
2015
2015
2014
2014
2014
2017
2017
2017
2017
2017
2017
2016
2016
2016
2016
2016
2016
2016
2016
2016
2016
2017
2017
2017
2017
2017
2017
2017
2017
2017
2017
2014
2014
2014
2012
2012
2012
2018
2018
2018
2017
2017
2017
2019
2019
2019
2019
2018
2018
2018
2017
2017
2017
2016
2016
2016
2023
2023
2023
2017
2017
2017
2017
2016
2016
2016
2016
2016
2016
2014
2014
2014
2014
2014
2014
2018
2018
2018
2018
2018
2018
2018
2012
2012
2012
2016
2016
2016
2017
2017
2017
2020
2020
2020
2020
2015
2015
2015
2018
2018
2018
2017
2017
2017
2011
2011
2011
2017
2017
2017
2017
2018
2018
2018
2017
2017
2017
2018
2018
2018
2017
2017
2017
2017
2017
2017
2017
2015
2015
2015
2018
2018
2018
2014
2014
2014
2018
2018
2018
2016
2016
2016
2016
2017
2017
2017
2015
2015
2015
2017
2017
2017
2021
2021
2021
2018
2018
2018
2018
2017
2017
2017
2014
2014
2014
2016
2016
2016
2016
2016
2016
2014
2014
2014
2014
2015
2015
2015
2018
2018
2018
2016
2016
2016
2014
2014
2014
2013
2013
2013
2013
2017
2017
2017
2016
2016
2016
2017
2017
2017
2021
2021
2021
2017
2017
2017
2017
2016
2016
2016
2017
2017
2017
2015
2015
2015
2016
2016
2016
2017
2017
2017
2017
2016
2016
2016
2011
2011
2011
2017
2017
2017
2016
2016
2016
2015
2015
2015
2015
2017
2017
2017
2016
2016
2016
2017
2017
2017
2021
2021
2021
2017
2017
2017
2017
2015
2015
2015
2016
2016
2016
2018
2018
2018
2015
2015
2015
2015
2015
2015
2015
2015
2015
2015
2015
2015
2015
2016
2016
2016
2017
2017
2017
2013
2013
2013
2013
2013
2013
2013
2015
2015
2015
2015
2015
2015
2020
2020
2020
2017
2017
2017
2017
2015
2015
2015
2016
2016
2016
2014
2014
2014
2013
2013
2013
2015
2015
2015
2015
2016
2016
2016
2014
2014
2014
2017
2017
2017
2018
2018
2018
2018
2018
2018
2018
2014
2014
2014
2018
2018
2018
2016
2016
2016
2016
2016
2016
2017
2017
2017
2017
2016
2016
2016
2013
2013
2013
2014
2014
2014
2018
2018
2018
2016
2016
2016
2016
2018
2018
2018
2013
2013
2013
2015
2015
2015
2016
2016
2016
2018
2018
2018
2018
2017
2017
2017
2018
2018
2018
2015
2015
2015
2017
2017
2017
2015
2015
2015
2015
2016
2016
2016
2017
2017
2017
2017
2017
2017
2015
2015
2015
2016
2016
2016
2016
2015
2015
2015
2016
2016
2016
2017
2017
2017
2016
2016
2016
2017
2017
2017
2017
2016
2016
2016
2016
2016
2016
2016
2016
2016
2017
2017
2017
2014
2014
2014
2014
2017
2017
2017
2018
2018
2018
2018
2018
2018
2017
2017
2017
2018
2018
2018
2018
2016
2016
2016
2023
2023
2023
2016
2016
2016
2015
2015
2015
2021
2021
2021
2021
2013
2013
2013
2018
2018
2018
2015
2015
2015
2017
2017
2017
2017
2017
2017
2017
2018
2018
2018
2020
2020
2020
2017
2017
2017
2015
2015
2015
2018
2018
2018
2018
2019
2019
2019
2013
2013
2013
2016
2016
2016
2015
2015
2015
2017
2017
2017
2017
2015
2015
2015
2016
2016
2016
2017
2017
2017
2009
2009
2009
2018
2018
2018
2018
2017
2017
2017
2017
2017
2017
2012
2012
2012
2019
2019
2019
2017
2017
2017
2017
2016
2016
2016
2015
2015
2015
2015
2015
2015
2016
2016
2016
2016
2016
2016
2016
2017
2017
2017
2016
2016
2016
2017
2017
2017
2019
2019
2019
2018
2018
2018
2018
2016
2016
2016
2017
2017
2017
2019
2019
2019
2016
2016
2016
2015
2015
2015
2015
2015
2015
2015
2012
2012
2012
2018
2018
2018
2016
2016
2016
2016
2016
2016
2016
2020
2020
2020
2016
2016
2016
2015
2015
2015
2016
2016
2016
2017
2017
2017
2017
2016
2016
2016
2014
2014
2014
2018
2018
2018
2017
2017
2017
2017
2017
2017
2017
2018
2018
2018
2019
2019
2019
2015
2015
2015
2019
2019
2019
2018
2018
2018
2018
2016
2016
2016
2016
2016
2016
2016
2016
2016
2014
2014
2014
2019
2019
2019
2019
2017
2017
2017
2016
2016
2016
2014
2014
2014
2018
2018
2018
2018
2018
2018
2018
2016
2016
2016
2010
2010
2010
2016
2016
2016
2017
2017
2017
2016
2016
2016
2016
2019
2019
2019
2016
2016
2016
2015
2015
2015
2012
2012
2012
2016
2016
2016
2016
2016
2016
2016
2017
2017
2017
2014
2014
2014
2016
2016
2016
2016
2016
2016
2016
2015
2015
2015
2017
2017
2017
2014
2014
2014
2015
2015
2015
2016
2016
2016
2016
2018
2018
2018
2018
2018
2018
2015
2015
2015
2015
2015
2015
2015
2015
2015
2015
2015
2015
2015
2015
2015
2015
2018
2018
2018
2017
2017
2017
2016
2016
2016
2016
2019
2019
2019
2012
2012
2012
2014
2014
2014
2017
2017
2017
2016
2016
2016
2016
2016
2016
2016
2015
2015
2015
2016
2016
2016
2015
2015
2015
2017
2017
2017
2017
2015
2015
2015
2016
2016
2016
2020
2020
2020
2016
2016
2016
2017
2017
2017
2017
2016
2016
2016
2018
2018
2018
2017
2017
2017
2016
2016
2016
2021
2021
2021
2021
2017
2017
2017
2016
2016
2016
2014
2014
2014
2019
2019
2019
2017
2017
2017
2017
2014
2014
2014
2016
2016
2016
2016
2016
2016
2019
2019
2019
2017
2017
2017
2017
2016
2016
2016
2020
2020
2020
2018
2018
2018
2015
2015
2015
2017
2017
2017
2017
2016
2016
2016
2017
2017
2017
2019
2019
2019
2020
2020
2020
2016
2016
2016
2016
2016
2016
2016
2017
2017
2017
2019
2019
2019
2017
2017
2017
2016
2016
2016
2016
2016
2016
2016
2012
2012
2012
2017
2017
2017
2015
2015
2015
2017
2017
2017
2017
2016
2016
2016
2016
2016
2016
2021
2021
2021
2014
2014
2014
2014
2014
2014
2014
2017
2017
2017
2016
2016
2016
2022
2022
2022
2016
2016
2016
2016
2016
2016
2016
2018
2018
2018
2014
2014
2014
2017
2017
2017
2015
2015
2015
2017
2017
2017
2017
2014
2014
2014
2017
2017
2017
2017
2017
2017
2015
2015
2015
2017
2017
2017
2017
2018
2018
2018
2014
2014
2014
2020
2020
2020
2015
2015
2015
2019
2019
2019
2019
2017
2017
2017
2014
2014
2014
2016
2016
2016
2015
2015
2015
2019
2019
2019
2019
2014
2014
2014
2015
2015
2015
2017
2017
2017
2019
2019
2019
2015
2015
2015
2015
2019
2019
2019
2015
2015
2015
2015
2015
2015
2017
2017
2017
2017
2017
2017
2017
2016
2016
2016
2012
2012
2012
2014
2014
2014
2014
2014
2014
2016
2016
2016
2016
2019
2019
2019
2013
2013
2013
2014
2014
2014
2019
2019
2019
2019
2019
2019
2019
2017
2017
2017
2019
2019
2019
2019
2019
2019
2015
2015
2015
2017
2017
2017
2017
2015
2015
2015
2019
2019
2019
2014
2014
2014
2014
2014
2014
2014
2014
2014
2014
2018
2018
2018
2018
2018
2018
2021
2021
2021
2012
2012
2012
2017
2017
2017
2017
2017
2017
2017
2015
2015
2015
2017
2017
2017
2015
2015
2015
2017
2017
2017
2017
2016
2016
2016
2022
2022
2022
2014
2014
2014
2015
2015
2015
2010
2010
2010
2010
2020
2020
2020
2016
2016
2016
2017
2017
2017
2017
2017
2017
2018
2018
2018
2018
2014
2014
2014
2017
2017
2017
2022
2022
2022
2014
2014
2014
2017
2017
2017
2017
2017
2017
2017
2016
2016
2016
2019
2019
2019
2014
2014
2014
2022
2022
2022
2022
2016
2016
2016
2017
2017
2017
2018
2018
2018
2011
2011
2011
2016
2016
2016
2016
2015
2015
2015
2018
2018
2018
2021
2021
2021
2018
2018
2018
2015
2015
2015
2015
2018
2018
2018
2016
2016
2016
2017
2017
2017
2015
2015
2015
2019
2019
2019
2019
2015
2015
2015
2020
2020
2020
2015
2015
2015
2016
2016
2016
2017
2017
2017
2017
2015
2015
2015
2017
2017
2017
2018
2018
2018
2016
2016
2016
2015
2015
2015
2015
2014
2014
2014
2017
2017
2017
2015
2015
2015
2019
2019
2019
2017
2017
2017
2017
2017
2017
2017
2018
2018
2018
2017
2017
2017
2010
2010
2010
2016
2016
2016
2016
2017
2017
2017
2018
2018
2018
2012
2012
2012
2014
2014
2014
2018
2018
2018
2018
2015
2015
2015
2013
2013
2013
2017
2017
2017
2017
2017
2017
2020
2020
2020
2020
2014
2014
2014
2018
2018
2018
2018
2018
2018
2020
2020
2020
2015
2015
2015
2015
2016
2016
2016
2015
2015
2015
2016
2016
2016
2019
2019
2019
2013
2013
2013
2013
2016
2016
2016
2019
2019
2019
2016
2016
2016
2017
2017
2017
2016
2016
2016
2016
2014
2014
2014
2017
2017
2017
2019
2019
2019
2016
2016
2016
2015
2015
2015
2015
2015
2015
2015
2016
2016
2016
2016
2016
2016
2015
2015
2015
2015
2015
2015
2015
2017
2017
2017
2012
2012
2012
2015
2015
2015
2015
2015
2015
2015
2015
2015
2015
2017
2017
2017
2015
2015
2015
2017
2017
2017
2019
2019
2019
2017
2017
2017
2017
2016
2016
2016
2016
2016
2016
2018
2018
2018
2017
2017
2017
2016
2016
2016
2016
2019
2019
2019
2013
2013
2013
2017
2017
2017
2019
2019
2019
2016
2016
2016
2016
2018
2018
2018
2018
2018
2018
2016
2016
2016
2011
2011
2011
2017
2017
2017
2017
2017
2017
2017
2018
2018
2018
2013
2013
2013
2015
2015
2015
2015
2015
2015
2015
2016
2016
2016
2016
2016
2016
2017
2017
2017
2016
2016
2016
2015
2015
2015
2015
2015
2015
2015
2015
2015
2015
2016
2016
2016
2015
2015
2015
2017
2017
2017
2017
2018
2018
2018
2017
2017
2017
2016
2016
2016
2015
2015
2015
2018
2018
2018
2018
2015
2015
2015
2015
2015
2015
2017
2017
2017
2016
2016
2016
2014
2014
2014
2014
2017
2017
2017
2019
2019
2019
2017
2017
2017
2019
2019
2019
2014
2014
2014
2014
2017
2017
2017
2017
2017
2017
2015
2015
2015
2017
2017
2017
2016
2016
2016
2016
2016
2016
2016
2020
2020
2020
2014
2014
2014
2015
2015
2015
2019
2019
2019
2019
2015
2015
2015
2016
2016
2016
2015
2015
2015
2018
2018
2018
2016
2016
2016
2016
