2087
2091
2091
2091
2087
2087
2087
2087
2094
2094
2094
2089
2089
2089
2089
2089
2089
2089
2089
2089
2087
2087
2087
2087
2089
2089
2089
2088
2088
2088
2083
2083
2083
2090
2090
2090
2086
2086
2086
2086
2088
2088
2088
2089
2089
2089
2089
2089
2089
2093
2093
2093
2087
2087
2087
2087
2087
2087
2087
2088
2088
2088
2088
2088
2088
2089
2089
2089
2086
2086
2086
2086
2091
2091
2091
2086
2086
2086
2090
2090
2090
2088
2088
2087
2087
2087
2087
2089
2089
2089
2089
2089
2089
2089
2088
2088
2088
2090
2090
2090
2088
2088
2088
2088
2088
2088
2088
2088
2088
2088
2080
2080
2080
2089
2089
2089
2090
2090
2090
2096
2096
2096
2096
2090
2090
2090
2087
2087
2087
2088
2088
2088
2089
2089
2089
2088
2088
2088
2088
2090
2090
2090
2089
2089
2089
2088
2088
2088
2086
2086
2086
2086
2086
2086
2086
2087
2087
2087
2090
2090
2090
2081
2081
2081
2086
2086
2086
2087
2087
2087
2087
2093
2093
2093
2088
2088
2088
2086
2086
2086
2089
2089
2089
2085
2085
2085
2085
2086
2086
2086
2082
2082
2082
2089
2089
2089
2088
2088
2088
2086
2086
2086
2086
2086
2086
2086
2088
2088
2088
2088
2088
2088
2089
2089
2089
2088
2088
2088
2088
2087
2087
2087
2091
2091
2091
2084
2084
2084
2087
2087
2087
2083
2083
2083
2083
2085
2085
2085
2091
2091
2091
2089
2089
2089
2088
2088
2088
2088
2088
2088
2088
2087
2087
2087
2089
2089
2089
2083
2083
2083
2088
2088
2088
2088
2088
2088
2088
2089
2089
2089
2089
2089
2089
2088
2088
2088
2089
2089
2089
2083
2083
2083
2083
2089
2089
2089
2088
2088
2088
2089
2089
2089
2090
2090
2090
2088
2088
2088
2088
2092
2092
2092
2088
2088
2088
2093
2093
2093
2090
2090
2090
2088
2088
2088
2088
2088
2088
2088
2086
2086
2086
2085
2085
2085
2083
2083
2083
2086
2086
2086
2086
2081
2081
2081
2091
2091
2091
2093
2093
2093
2090
2090
2090
2087
2087
2087
2087
2089
2089
2089
2088
2088
2088
2090
2090
2090
2087
2087
2087
2093
2093
2093
2093
2088
2088
2088
2085
2085
2085
2088
2088
2088
2091
2091
2091
2089
2089
2089
2089
2089
2089
2089
2089
2089
2089
2090
2090
2090
2089
2089
2089
2084
2084
2084
2084
2088
2088
2088
2086
2086
2086
2088
2088
2088
2083
2083
2083
2087
2087
2087
2087
2091
2091
2091
2089
2089
2089
2090
2090
2090
2088
2088
2088
2087
2087
2087
2087
2088
2088
2088
2088
2088
2088
2090
2090
2090
2090
2090
2090
2084
2084
2084
2084
2087
2087
2087
2089
2089
2089
2091
2091
2091
2088
2088
2088
2088
2088
2088
2088
2090
2090
2090
2090
2090
2090
2083
2083
2083
2089
2089
2089
2089
2089
2089
2089
2089
2089
2089
2087
2087
2087
2088
2088
2088
2090
2090
2090
2089
2089
2089
2089
2083
2083
2083
2088
2088
2088
2089
2089
2089
2088
2088
2088
2089
2089
2089
2089
2086
2086
2086
2090
2090
2090
2087
2087
2087
2089
2089
2089
2089
2089
2089
2089
2087
2087
2087
2085
2085
2085
2094
2094
2094
2089
2089
2089
2088
2088
2088
2088
2090
2090
2090
2090
2090
2090
2092
2092
2092
2088
2088
2088
2088
2088
2088
2088
2087
2087
2087
2094
2094
2094
2089
2089
2089
2089
2089
2089
2085
2085
2085
2085
2088
2088
2088
2090
2090
2090
2087
2087
2087
2086
2086
2086
2088
2088
2088
2088
2084
2084
2084
2092
2092
2092
2090
2090
2090
2094
2094
2094
2083
2083
2083
2083
2085
2085
2085
2093
2093
2093
2087
2087
2087
2084
2084
2084
2088
2088
2088
2088
2084
2084
2084
2087
2087
2087
2081
2081
2081
2088
2088
2088
2088
2088
2088
2088
2087
2087
2087
2086
2086
2086
2094
2094
2094
2089
2089
2089
2089
2089
2089
2089
2088
2088
2088
2085
2085
2085
2087
2087
2087
2085
2085
2085
2087
2087
2087
2087
2087
2087
2087
2089
2089
2089
2088
2088
2088
2089
2089
2089
2091
2091
2091
2091
2084
2084
2084
2092
2092
2092
2088
2088
2088
2092
2092
2092
2087
2087
2087
2087
2081
2081
2081
2089
2089
2089
2093
2093
2093
2088
2088
2088
2082
2082
2082
2082
2086
2086
2086
2088
2088
2088
2089
2089
2089
2089
2089
2089
2085
2085
2085
2085
2091
2091
2091
2088
2088
2088
2092
2092
2092
2089
2089
2089
2087
2087
2087
2087
2088
2088
2088
2093
2093
2093
2085
2085
2085
2090
2090
2090
2078
2078
2078
2078
2086
2086
2086
2087
2087
2087
2087
2087
2087
2089
2089
2089
2093
2093
2093
2093
2084
2084
2084
2088
2088
2088
2096
2096
2096
2084
2084
2084
2086
2086
2086
2086
2090
2090
2090
2092
2092
2092
2087
2087
2087
2077
2077
2077
2089
2089
2089
2089
2083
2083
2083
2088
2088
2088
2092
2092
2092
2083
2083
2083
2089
2089
2089
2089
2089
2089
2089
2087
2087
2087
2089
2089
2089
2089
2089
2089
2092
2092
2092
2092
2086
2086
2086
2091
2091
2091
2086
2086
2086
2085
2085
2085
2088
2088
2088
2088
2089
2089
2089
2081
2081
2081
2084
2084
2084
2090
2090
2090
2088
2088
2088
2088
2087
2087
2087
2086
2086
2086
2087
2087
2087
2095
2095
2095
2089
2089
2089
2089
2082
2082
2082
2089
2089
2089
2089
2089
2089
2089
2089
2089
2087
2087
2087
2087
2086
2086
2086
2090
2090
2090
2086
2086
2086
2090
2090
2090
2088
2088
2088
2088
2090
2090
2090
2087
2087
2087
2090
2090
2090
2085
2085
2085
2087
2087
2087
2087
2088
2088
2088
2093
2093
2093
2087
2087
2087
2089
2089
2089
2088
2088
2088
2088
2086
2086
2086
2088
2088
2088
2090
2090
2090
2090
2090
2090
2088
2088
2088
2088
2089
2089
2089
2090
2090
2090
2088
2088
2088
2089
2089
2089
2090
2090
2090
2090
2087
2087
2087
2089
2089
2089
2089
2089
2089
2089
2089
2089
2094
