2066
2066
2063
2063
2063
2067
2067
2067
2064
2064
2064
2064
2064
2064
2064
2065
2065
2065
2054
2054
2054
2068
2068
2068
2058
2058
2058
2066
2066
2066
2066
2064
2064
2064
2066
2066
2066
2065
2065
2065
2064
2064
2064
2071
2071
2071
2071
2066
2066
2066
2063
2063
2063
2068
2068
2068
2063
2063
2063
2065
2065
2065
2065
2066
2066
2066
2062
2062
2062
2066
2066
2066
2064
2064
2064
2065
2065
2065
2065
2063
2063
2063
2063
2063
2063
2063
2063
2063
2065
2065
2065
2067
2067
2067
2065
2065
2065
2065
2066
2066
2066
2068
2068
2068
2067
2067
2067
2063
2063
2063
2066
2066
2066
2066
2065
2065
2065
2063
2063
2063
2066
2066
2066
2065
2065
2065
2065
2065
2065
2065
2065
2065
2065
2062
2062
2062
2068
2068
2068
2063
2063
2063
2071
2071
2071
2071
2066
2066
2066
2061
2061
2061
2065
2065
2065
2062
2062
2062
2064
2064
2064
2064
2068
2068
2068
2062
2062
2062
2064
2064
2064
2055
2055
2055
2062
2062
2062
2062
2067
2067
2067
2061
2061
2061
2059
2059
2059
2066
2066
2066
2054
2054
2054
2054
2064
2064
2064
2058
2058
2058
2072
2072
2072
2064
2064
2064
2069
2069
2069
2069
2065
2065
2065
2064
2064
2064
2060
2060
2060
2059
2059
2059
2064
2064
2064
2064
2066
2066
2066
2066
2066
2066
2065
2065
2065
2064
2064
2064
2066
2066
2066
2066
2063
2063
2063
2063
2063
2063
2067
2067
2067
2062
2062
2062
2067
2067
2067
2067
2064
2064
2064
2052
2052
2052
2064
2064
2064
2065
2065
2065
2067
2067
2067
2067
2065
2065
2065
2067
2067
2067
2067
2067
2067
2063
2063
2063
2067
2067
2067
2067
2071
2071
2071
2062
2062
2062
2066
2066
2066
2062
2062
2062
2065
2065
2065
2065
2064
2064
2064
2063
2063
2063
2066
2066
2066
2063
2063
2063
2066
2066
2066
2066
2066
2066
2066
2057
2057
2057
2065
2065
2065
2061
2061
2061
2065
2065
2065
2065
2067
2067
2067
2059
2059
2059
2066
2066
2066
2062
2062
2062
2063
2063
2063
2063
2064
2064
2064
2062
2062
2062
2065
2065
2065
2064
2064
2064
2061
2061
2061
2061
2068
2068
2068
2060
2060
2060
2065
2065
2065
2066
2066
2066
2071
2071
2071
2071
2067
2067
2067
2062
2062
2062
2066
2066
2066
2064
2064
2064
2066
2066
2066
2066
2063
2063
2063
2064
2064
2064
2067
2067
2067
2064
2064
2064
2064
2064
2064
2064
2071
2071
2071
2065
2065
2065
2063
2063
2063
2061
2061
2061
2067
2067
2067
2067
2066
2066
2066
2063
2063
2063
2069
2069
2069
2065
2065
2065
2066
2066
2066
2066
2066
2066
2066
2064
2064
2064
2066
2066
2066
2064
2064
2064
2067
2067
2067
2067
2066
2066
2066
2064
2064
2064
2067
2067
2067
2062
2062
2062
2063
2063
2063
2063
2063
2063
2063
2054
2054
2054
2064
2064
2064
2060
2060
2060
2065
2065
2065
2065
2071
2071
2071
2064
2064
2064
2064
2064
2064
2061
2061
2061
2063
2063
2063
2063
2066
2066
2066
2061
2061
2061
2066
2066
2066
2063
2063
2063
2065
2065
2065
2065
2065
2065
2065
2062
2062
2062
2064
2064
2064
2063
2063
2063
2066
2066
2066
2066
2066
2066
2066
2062
2062
2062
2067
2067
2067
2061
2061
2061
2067
2067
2067
2067
2063
2063
2063
2063
2063
2063
2065
2065
2065
2064
2064
2064
2065
2065
2065
2065
2064
2064
2064
2063
2063
2063
2069
2069
2069
2061
2061
2061
2060
2060
2060
2060
2069
2069
2069
2064
2064
2064
2068
2068
2068
2063
2063
2063
2069
2069
2069
2069
2065
2065
2065
2062
2062
2062
2067
2067
2067
2063
2063
2063
2066
2066
2066
2066
2064
2064
2064
2065
2065
2065
2067
2067
2067
2063
2063
2063
2071
2071
2071
2071
2069
2069
2069
2062
2062
2062
2065
2065
2065
2053
2053
2053
2065
2065
2065
2065
2066
2066
2066
2062
2062
2062
2063
2063
2063
2060
2060
2060
2064
2064
2064
2064
2065
2065
2065
2061
2061
2061
2071
2071
2071
2063
2063
2063
2066
2066
2066
2066
2065
2065
2065
2063
2063
2063
2062
2062
2062
2067
2067
2067
2063
2063
2063
2063
2062
2062
2062
2066
2066
2066
2068
2068
2068
2062
2062
2062
2065
2065
2065
2065
2066
2066
2066
2063
2063
2063
2063
2063
2063
2061
2061
2061
2066
2066
2066
2066
2065
2065
2065
2069
2069
2069
2073
2073
2073
2064
2064
2064
2064
2064
2064
2064
2067
2067
2067
2065
2065
2065
2064
2064
2064
2060
2060
2060
2066
2066
2066
2066
2066
2066
2066
2062
2062
2062
2067
2067
2067
2061
2061
2061
2066
2066
2066
2066
2068
2068
2068
2064
2064
2064
2066
2066
2066
2062
2062
2062
2063
2063
2063
2063
2063
2063
2063
2061
2061
2061
2067
2067
2067
2063
2063
2063
2067
2067
2067
2067
2060
2060
2060
2062
2062
2062
2061
2061
2061
2063
2063
2063
2065
2065
2065
2065
2063
2063
2063
2062
2062
2062
2067
2067
2067
2064
2064
2064
2067
2067
2067
2067
2058
2058
2058
2063
2063
2063
2070
2070
2070
2061
2061
2061
2067
2067
2067
2067
2071
2071
2071
2059
2059
2059
2067
2067
2067
2063
2063
2063
2065
2065
2065
2065
2064
2064
2064
2064
2064
2064
2068
2068
2068
2064
2064
2064
2065
2065
2065
2065
2067
2067
2067
2063
2063
2063
2072
2072
2072
2063
2063
2063
2065
2065
2065
2065
2065
2065
2065
2060
2060
2060
2065
2065
2065
2064
2064
2064
2066
2066
2066
2066
2065
2065
2065
2060
2060
2060
2064
2064
2064
2063
2063
2063
2064
2064
2064
2064
2065
2065
2065
2065
2065
2065
2067
2067
2067
2063
2063
2063
2065
2065
2065
2065
2064
2064
2064
2063
2063
2063
2067
2067
2067
2064
2064
2064
2063
2063
2063
2063
2069
2069
2069
2062
2062
2062
2067
2067
2067
2060
2060
2060
2061
2061
2061
2061
2063
2063
2063
2063
2063
2063
