29378
29378
29378
29378
29378
29357
29357
29357
29442
29442
29442
29335
29335
29335
29335
29335
29335
29335
29378
29378
29378
29357
29357
29357
29378
29378
29378
29335
29335
29335
29421
29421
29421
29421
29400
29400
29400
29400
29400
29400
29421
29421
29421
29292
29292
29292
29421
29421
29421
29421
29421
29421
29421
29378
29378
29378
29507
29507
29507
29314
29314
29314
29550
29550
29550
29550
29421
29421
29421
29357
29357
29357
29378
29378
29378
29400
29400
29400
29442
29442
29442
29442
29378
29378
29378
29314
29314
29314
29400
29400
29400
29271
29271
29271
29314
29314
29314
29314
29528
29528
29528
29335
29335
29335
29378
29378
29378
29421
29421
29421
29421
29421
29421
29421
29400
29400
29400
29421
29421
29421
29421
29421
29421
29314
29314
29314
29378
29378
29378
29378
29442
29442
29442
29357
29357
29357
29400
29400
29400
29206
29206
29206
29421
29421
29421
29421
29378
29378
29378
29378
29378
29378
29400
29400
29400
29357
29357
29357
29335
29335
29335
29335
29378
29378
29378
29335
29335
29335
29271
29271
29271
29335
29335
29335
29378
29378
29378
29378
29442
29442
29442
29485
29485
29485
29421
29421
29421
29464
29464
29464
29421
29421
29421
29421
29464
29464
29464
29292
29292
29292
29464
29464
29464
29400
29400
29400
29421
29421
29421
29421
29314
29314
29314
29314
29314
29314
29357
29357
29357
29314
29314
29314
29378
29378
29378
29378
29464
29464
29464
29421
29421
29421
29400
29400
29400
29249
29249
29249
29421
29421
29421
29421
29464
29464
29464
29271
29271
29271
29400
29400
29400
29357
29357
29357
29442
29442
29442
29442
29400
29400
29400
29335
29335
29335
29378
29378
29378
29378
29378
29378
29485
29485
29485
29485
29464
29464
29464
29271
29271
29271
29400
29400
29400
29292
29292
29292
29400
29400
29400
29400
29421
29421
29421
29314
29314
29314
29335
29335
29335
29314
29314
29314
29378
29378
29378
29378
29507
29507
29507
29400
29400
29400
29421
29421
29421
29314
29314
29314
29421
29421
29421
29421
29378
29378
29378
29528
29528
29528
29400
29400
29400
29357
29357
29357
29421
29421
29421
29421
29271
29271
29271
29292
29292
29292
29442
29442
29442
29357
29357
29357
29378
29378
29378
29378
29442
29442
29442
29357
29357
29357
29271
29271
29271
29335
29335
29335
29378
29378
29378
29378
29400
29400
29400
29314
29314
29314
29464
29464
29464
29314
29314
29314
29421
29421
29421
29421
29378
29378
29378
29314
29314
29314
29378
29378
29378
29335
29335
29335
29442
29442
29442
29442
29378
29378
29378
29357
29357
29357
29442
29442
29442
29335
29335
29335
29507
29507
29507
29507
29421
29421
29421
29314
29314
29314
29464
29464
29464
29314
29314
29314
29421
29421
29421
29421
29421
29421
29421
29357
29357
29357
29442
29442
29442
29314
29314
29314
29442
29442
29442
29442
29378
29378
29378
29335
29335
29335
29528
29528
29528
29335
29335
29335
29335
29335
29335
29335
29378
29378
29378
29464
29464
29464
29442
29442
29442
29485
29485
29485
29464
29464
29464
29464
29378
29378
29378
29335
29335
29335
29378
29378
29378
29357
29357
29357
29421
29421
29421
29421
29378
29378
29378
29335
29335
29335
29400
29400
29400
29357
29357
29357
29528
29528
29528
29528
29357
29357
29357
29228
29228
29228
29442
29442
29442
29357
29357
29357
29357
29357
29357
29357
29507
29507
29507
29314
29314
29314
29421
29421
29421
29249
29249
29249
29357
29357
29357
29357
29400
29400
29400
29357
29357
29357
29442
29442
29442
29442
29442
29442
29485
29485
29485
29485
29357
29357
29357
29314
29314
29314
29464
29464
29464
29120
29120
29120
29485
29485
29485
29485
29335
29335
29335
29378
29378
29378
29571
29571
29571
29292
29292
29292
29378
29378
29378
29378
29400
29400
29400
29357
29357
29357
29442
29442
29442
29314
29314
29314
29357
29357
29357
29357
29378
29378
29378
29464
29464
29464
29528
29528
29528
29400
29400
29400
29421
29421
29421
29421
29400
29400
29400
29271
29271
29271
29335
29335
29335
29357
29357
29357
29485
29485
29485
29485
29442
29442
29442
29421
29421
29421
29421
29421
29421
29271
29271
29271
29400
29400
29400
29400
29357
29357
29357
29271
29271
29271
29421
29421
29421
29442
29442
29442
29442
29442
29442
29442
29421
29421
29421
29400
29400
29400
29378
29378
29378
29378
29378
29378
29421
29421
29421
29421
29421
29421
29421
29357
29357
29357
29485
29485
29485
29314
29314
29314
29400
29400
29400
29400
29378
29378
29378
29378
29378
29378
29421
29421
29421
29357
29357
29357
29400
29400
29400
29400
29357
29357
29357
29335
29335
29335
29442
29442
29442
29400
29400
29400
29400
29400
29400
29400
29485
29485
29485
29357
29357
29357
29442
29442
29442
29357
29357
29357
29485
29485
29485
29485
29442
29442
29442
29378
29378
29378
29421
29421
29421
29378
29378
29378
29400
29400
29400
29400
29378
29378
29378
29335
29335
29335
29378
29378
29378
29335
29335
29335
29442
29442
29442
29442
29357
29357
29357
29292
29292
29292
29571
29571
29571
29314
29314
29314
29421
29421
29421
29421
29357
29357
29357
29357
29357
29357
29378
29378
29378
29357
29357
29357
29357
29357
29357
29357
29421
29421
29421
29357
29357
29357
29421
29421
29421
29400
29400
29400
29421
29421
29421
29421
29271
29271
29271
29357
29357
29357
29464
29464
29464
29357
29357
29357
29421
29421
29421
29421
29400
29400
29400
29357
29357
29357
29442
29442
29442
29335
29335
29335
29421
29421
29421
29421
29378
29378
29378
29378
29378
29378
29421
29421
29421
29271
29271
29271
29292
29292
29292
29292
29378
29378
29378
29357
29357
29357
29378
29378
29378
29314
29314
29314
29507
29507
29507
29507
29507
29507
29507
29314
29314
29314
29400
29400
29400
29357
29357
29357
29442
29442
29442
29442
29400
29400
29400
29271
29271
29271
29400
29400
29400
29292
29292
29292
29378
29378
29378
29378
29378
29378
29378
29357
29357
29357
29464
29464
29464
29314
29314
29314
29442
29442
29442
29442
29550
29550
29550
29357
29357
29357
29357
29357
29357
29314
29314
29314
29571
29571
29571
29571
29378
29378
29378
29335
29335
29335
29400
29400
29400
29335
29335
29335
29464
29464
29464
29464
29442
29442
29442
29271
29271
29271
29421
29421
29421
29292
29292
29292
29485
29485
29485
29485
29357
29357
29357
29442
29442
29442
29528
29528
29528
29400
29400
29400
29421
29421
29421
29421
29442
29442
29442
29228
29228
29228
29400
29400
29400
29378
29378
29378
29464
29464
29464
29464
29421
29421
29421
29421
29421
29421
29378
29378
29378
29314
29314
29314
29442
29442
29442
29442
29400
29400
29400
29357
29357
29357
29442
29442
29442
29314
29314
29314
29421
29421
29421
29421
29335
29335
29335
29378
29378
29378
29378
29378
29378
29378
29378
29378
29400
29400
29400
29400
29528
29528
29528
29442
29442
29442
29421
29421
29421
29400
29400
29400
29421
29421
29421
29421
29528
29528
29528
29400
29400
29400
29378
29378
29378
29314
29314
29314
29400
29400
29400
29400
29335
29335
29335
29357
29357
29357
29528
29528
29528
29335
29335
29335
29378
29378
29378
29378
29400
29400
29400
29335
29335
29335
29421
29421
29421
29400
29400
29400
29442
29442
29442
29442
29442
29442
29442
29357
29357
29357
29400
29400
29400
29206
29206
29206
29442
29442
29442
29442
29228
29228
29228
29400
29400
29400
29485
29485
29485
29314
29314
29314
29357
29357
29357
29357
29400
29400
29400
29335
29335
29335
29421
29421
29421
29357
29357
29357
29378
29378
29378
29378
29357
29357
29357
29378
29378
29378
29400
29400
29400
29357
29357
29357
29442
29442
29442
29442
29442
29442
29442
29378
29378
29378
29464
29464
29464
29378
29378
29378
29378
29378
29378
29378
29357
29357
29357
29378
29378
29378
29421
29421
29421
29314
29314
29314
29614
29614
29614
29614
29357
29357
29357
29400
29400
29400
29378
29378
29378
29421
29421
29421
29378
29378
29378
29378
29378
29378
29378
29314
29314
29314
29400
29400
29400
29249
29249
29249
29314
29314
29314
29314
29421
29421
29421
29357
29357
29357
29335
29335
29335
29421
29421
29421
29335
29335
29335
29335
29421
29421
29421
29335
29335
29335
29378
29378
29378
29464
29464
29464
29485
29485
29485
29485
29400
29400
29400
29335
29335
29335
29464
29464
29464
29357
29357
29357
29421
29421
29421
29421
29400
29400
29400
29335
29335
29335
29421
29421
29421
29292
29292
29292
29571
29571
29571
29571
29400
29400
29400
29185
29185
29185
29357
29357
29357
29400
29400
29400
29378
29378
29378
29378
29292
29292
29292
29314
29314
29314
29442
29442
29442
29378
29378
29378
29485
29485
29485
29485
29485
29485
29485
29378
29378
29378
29271
29271
29271
29485
29485
29485
29400
29400
29400
29400
29421
29421
29421
29335
29335
29335
29485
29485
29485
29271
29271
29271
29400
29400
29400
29400
29400
29400
29400
29378
29378
29378
29335
29335
29335
29464
29464
29464
29357
29357
29357
29357
29357
29357
29357
29357
29357
29357
29206
29206
29206
29292
29292
29292
29442
29442
29442
29442
29378
29378
29378
29228
29228
29228
29421
29421
29421
29378
29378
29378
29400
29400
29400
29400
29400
29400
29400
29357
29357
29357
29528
29528
29528
29400
29400
29400
29378
29378
29378
29378
29507
29507
29507
29442
29442
29442
29400
29400
29400
29292
29292
29292
29400
29400
29400
29400
29421
29421
29421
29442
29442
29442
29485
29485
29485
29292
29292
29292
29378
29378
29378
29378
29507
29507
29507
29507
29507
29507
29378
29378
29378
29335
29335
29335
29357
29357
29357
29357
29314
29314
29314
29421
29421
29421
29400
29400
29400
29314
29314
29314
29442
29442
29442
29442
29400
29400
29400
29206
29206
29206
29357
29357
29357
29357
29357
29357
29400
29400
29400
29400
29292
29292
29292
29271
29271
29271
29507
29507
29507
29357
29357
29357
29400
29400
29400
29400
29378
29378
29378
29357
29357
29357
29485
29485
29485
29378
29378
29378
29421
29421
29421
29421
29271
29271
29271
29442
29442
29442
29378
29378
29378
29378
29378
29378
29442
29442
29442
29442
29485
29485
29485
29593
29593
29593
29421
29421
29421
29442
29442
29442
29464
29464
29464
29464
29485
29485
29485
29378
29378
29378
29314
29314
29314
29335
29335
29335
29421
29421
29421
29421
29421
29421
29421
29421
29421
29421
29528
29528
29528
29314
29314
29314
29335
29335
29335
29335
29271
29271
29271
29292
29292
29292
29421
29421
29421
29378
29378
29378
29400
29400
29400
29400
29421
29421
29421
29314
29314
29314
29421
29421
29421
29314
29314
29314
29421
29421
29421
29421
29400
29400
29400
29314
29314
29314
29357
29357
29357
29378
29378
29378
29528
29528
29528
29528
29357
29357
29357
29357
29357
29357
29421
29421
29421
29400
29400
29400
29357
29357
29357
29357
29400
29400
29400
29357
29357
29357
29421
29421
29421
29335
29335
29335
29378
29378
29378
29378
29571
29571
29571
29335
29335
29335
29550
29550
29550
29400
29400
29400
29464
29464
29464
29464
29400
29400
29400
29378
29378
29378
29464
29464
29464
29378
29378
29378
29442
29442
29442
29442
29400
29400
29400
29314
29314
29314
29421
29421
29421
29292
29292
29292
29400
29400
29400
29400
29421
29421
29421
29357
29357
29357
29571
29571
29571
29314
29314
29314
29357
29357
29357
29357
29378
29378
29378
29357
29357
29357
29464
29464
29464
29400
29400
29400
29421
29421
29421
29421
29421
29421
29421
29400
29400
29400
29421
29421
29421
29400
29400
29400
29400
29400
29400
29400
29292
29292
29292
29314
29314
29314
29507
29507
29507
29314
29314
29314
29442
29442
29442
29442
29400
29400
29400
29335
29335
29335
29400
29400
29400
29335
29335
29335
29335
29335
29335
29335
29357
29357
29357
29357
29357
29357
29485
29485
29485
29357
29357
29357
29378
29378
29378
29378
29335
29335
29335
29357
29357
29357
29400
29400
29400
29378
29378
29378
29378
29378
29378
29378
29400
29400
29400
29378
29378
29378
29400
29400
29400
29378
29378
29378
29378
29378
29378
29378
29421
29421
29421
29507
29507
29507
29400
29400
29400
29314
29314
29314
29442
29442
29442
29442
29314
29314
29314
29357
29357
29357
29421
29421
29421
29335
29335
29335
29442
29442
29442
29442
29400
29400
29400
29357
29357
29357
29378
29378
29378
29335
29335
29335
29636
29636
29636
29636
29421
29421
29421
29378
29378
29378
29421
29421
29421
29378
29378
29378
29378
29378
29378
29378
29400
29400
29400
29400
29400
29400
29464
29464
29464
29357
29357
29357
29400
29400
29400
29400
29400
29400
29400
29335
29335
29335
29421
29421
29421
29335
29335
29335
29442
29442
29442
29442
29400
29400
29400
29314
29314
29314
29421
29421
29421
29292
29292
29292
29442
29442
29442
29442
29357
29357
29357
29271
29271
29271
29442
29442
29442
29507
29507
29507
29485
29485
29485
29485
29378
29378
29378
29378
29378
29378
29485
29485
29485
29357
29357
29357
29550
29550
29550
29550
29400
29400
29400
29464
29464
29464
29378
29378
29378
29335
29335
29335
29400
29400
29400
29400
29442
29442
29442
29335
29335
29335
29464
29464
29464
29314
29314
29314
29335
29335
29335
29335
29442
29442
29442
29357
29357
29357
29400
29400
29400
29378
29378
29378
29507
29507
29507
29507
29421
29421
29421
29442
29442
29442
29357
29357
29357
29292
29292
29292
29357
29357
29357
29357
29442
29442
29442
29335
29335
29335
29421
29421
29421
29271
29271
29271
29314
29314
29314
29314
29378
29378
29378
29400
29400
29400
29507
29507
29507
29292
29292
29292
29442
29442
29442
29442
29464
29464
29464
29335
29335
29335
29442
29442
29442
29335
29335
29335
29357
29357
29357
29357
29357
29357
29357
29335
29335
29335
29507
29507
29507
29442
29442
29442
29464
29464
29464
29464
29421
29421
29421
29400
29400
29400
29335
29335
29335
29421
29421
29421
29378
29378
29378
29378
29421
29421
29421
29335
29335
29335
29507
29507
29507
29357
29357
29357
29421
29421
29421
29421
29421
29421
29421
29357
29357
29357
29400
29400
29400
29421
29421
29421
29400
29400
29400
29400
29421
29421
29421
29378
29378
29378
29464
29464
29464
29485
29485
29485
29528
29528
29528
29528
29400
29400
29400
29314
29314
29314
29400
29400
29400
29378
29378
29378
29464
29464
29464
29464
29442
29442
29442
29335
29335
29335
29249
29249
29249
29228
29228
29228
29378
29378
29378
29378
29442
29442
29442
29292
29292
29292
29378
29378
29378
29314
29314
29314
29335
29335
29335
29335
29400
29400
29400
29357
29357
29357
29335
29335
29335
29292
29292
29292
29442
29442
29442
29442
29421
29421
29421
29314
29314
29314
29292
29292
29292
29228
29228
29228
29421
29421
29421
29421
29185
29185
29185
29249
29249
29249
29442
29442
29442
29228
29228
29228
29400
29400
29400
29400
29335
29335
29335
29335
29335
29335
29292
29292
29292
29314
29314
29314
29400
29400
29400
29400
29421
29421
29421
29314
29314
29314
29378
29378
29378
29292
29292
29292
29421
29421
29421
29421
29507
29507
29507
29421
29421
29421
29528
29528
29528
29378
29378
29378
29400
29400
29400
29400
29442
29442
29442
29335
29335
29335
29485
29485
29485
29400
29400
29400
29421
29421
29421
29421
29485
29485
29485
29464
29464
29464
29528
29528
29528
29464
29464
29464
29421
29421
29421
29421
29464
29464
29464
29335
29335
29335
29550
29550
29550
29378
29378
29378
29378
29378
29378
29378
29421
29421
29421
29228
29228
29228
29442
29442
29442
29400
29400
29400
29421
29421
29421
29421
29378
29378
29378
29421
29421
29421
29400
29400
29400
29335
29335
29335
29421
29421
29421
29421
29528
29528
29528
29314
29314
29314
29335
29335
29335
29335
29335
29335
29421
29421
29421
29421
29485
29485
29485
29421
29421
29421
29400
29400
29400
29357
29357
29357
29485
29485
29485
29485
29421
29421
29421
29271
29271
29271
29357
29357
29357
29335
29335
29335
29442
29442
29442
29442
29421
29421
29421
29421
29421
29421
29249
29249
29249
29378
29378
29378
29400
29400
29400
29400
29421
29421
29421
29335
29335
29335
29378
29378
29378
29314
29314
29314
29528
29528
29528
29528
29507
29507
29507
29378
29378
29378
29442
29442
29442
29335
29335
29335
29442
29442
29442
29442
29464
29464
29464
29485
29485
29485
29507
29507
29507
29335
29335
29335
29400
29400
29400
29400
29400
29400
29400
29335
29335
29335
29464
29464
29464
29357
29357
29357
29507
29507
29507
29507
29400
29400
29400
29335
29335
29335
29442
29442
29442
29378
29378
29378
29400
29400
29400
29400
29357
29357
29357
29271
29271
29271
29421
29421
29421
29357
29357
29357
29400
29400
29400
29400
29485
29485
29485
29314
29314
29314
29335
29335
29335
29357
29357
29357
29442
29442
29442
29442
29485
29485
29485
29335
29335
29335
29378
29378
29378
29271
29271
29271
29400
29400
29400
29400
29357
29357
29357
29335
29335
29335
29421
29421
29421
29271
29271
29271
29442
29442
29442
29442
29271
29271
29271
29357
29357
29357
29421
29421
29421
29378
29378
29378
29421
29421
29421
29421
29485
29485
29485
29292
29292
29292
29421
29421
29421
29378
29378
29378
29464
29464
29464
29464
29400
29400
29400
29400
29400
29400
29378
29378
29378
29400
29400
29400
29421
29421
29421
29421
29378
29378
29378
29335
29335
29335
29421
29421
29421
29335
29335
29335
29442
29442
29442
29442
29464
29464
29464
29292
29292
29292
29378
29378
29378
29357
29357
29357
29464
29464
29464
29464
29378
29378
29378
29314
29314
29314
29442
29442
29442
29335
29335
29335
29357
29357
29357
29357
29400
29400
29400
29335
29335
29335
29442
29442
29442
29314
29314
29314
29421
29421
29421
29421
29485
29485
29485
29378
29378
29378
29442
29442
29442
29357
29357
29357
29378
29378
29378
29378
29442
29442
29442
29292
29292
29292
29400
29400
29400
29335
29335
29335
29442
29442
29442
29442
29442
29442
29442
29378
29378
29378
29442
29442
29442
29464
29464
29464
29400
29400
29400
29400
29442
29442
29442
29400
29400
29400
29464
29464
29464
29335
29335
29335
29378
29378
29378
29378
29400
29400
29400
29357
29357
29357
29464
29464
29464
29357
29357
29357
29442
29442
29442
29442
29400
29400
29400
29400
29400
29400
29507
29507
29507
29378
29378
29378
29378
29378
29378
29378
29528
29528
29528
29357
29357
29357
29464
29464
29464
29357
29357
29357
29357
29357
29357
29357
29442
29442
29442
29335
29335
29335
29378
29378
29378
29400
29400
29400
29378
29378
29378
29378
29421
29421
29421
29228
29228
29228
29421
29421
29421
29442
29442
29442
29335
29335
29335
29335
29442
29442
29442
29357
29357
29357
29335
29335
29335
29292
29292
29292
29442
29442
29442
29442
29421
29421
29421
29314
29314
29314
29314
29314
29314
29314
29314
29314
29357
29357
29357
29357
29442
29442
29442
29185
29185
29185
29357
29357
29357
29378
29378
29378
29442
29442
29442
29442
29400
29400
29400
29378
29378
29378
29485
29485
29485
29507
29507
29507
29421
29421
29421
29421
29464
29464
29464
29357
29357
29357
29357
29357
29357
29357
29357
29357
29464
29464
29464
29464
29378
29378
29378
29314
29314
29314
29464
29464
29464
29442
29442
29442
29400
29400
29400
29400
29357
29357
29357
29378
29378
29378
29400
29400
29400
29357
29357
29357
29528
29528
29528
29528
29571
29571
29571
29335
29335
29335
29357
29357
29357
29357
29357
29357
29357
29357
29357
29357
29378
29378
29378
29357
29357
29357
29421
29421
29421
29271
29271
29271
29421
29421
29421
29421
29400
29400
29400
29314
29314
29314
29485
29485
29485
29271
29271
29271
29400
29400
29400
29400
29485
29485
29485
29400
29400
29400
29464
29464
29464
29400
29400
29400
29421
29421
29421
29421
29421
29421
29421
29357
29357
29357
29507
29507
29507
29378
29378
29378
29442
29442
29442
29442
29421
29421
29421
29421
29421
29421
29528
29528
29528
29550
29550
29550
29357
29357
29357
29357
29464
29464
29464
29357
29357
29357
29335
29335
29335
29335
29335
29335
29400
29400
29400
29400
29421
29421
29421
29314
29314
29314
29400
29400
29400
29357
29357
29357
29357
29357
29357
29357
29357
29357
29357
29335
29335
29335
29464
29464
29464
29357
29357
29357
29421
29421
29421
29421
29464
29464
29464
29378
29378
29378
29507
29507
29507
29314
29314
29314
29464
29464
29464
29464
29421
29421
29421
29357
29357
29357
29464
29464
29464
29378
29378
29378
29421
29421
29421
29421
29442
29442
29442
29442
29442
29442
29421
29421
29421
29442
29442
29442
29442
29442
29442
29442
29314
29314
29314
29400
29400
29400
29357
29357
29357
29228
29228
29228
29400
29400
29400
29400
29357
29357
29357
29378
29378
29378
29400
29400
29400
29357
29357
29357
29378
29378
29378
29378
29464
29464
29464
29314
29314
29314
29400
29400
29400
29314
29314
29314
29442
29442
29442
29442
29335
29335
29335
29378
29378
29378
29421
29421
29421
29357
29357
29357
29421
29421
29421
29421
29292
29292
29292
29335
29335
29335
29357
29357
29357
29357
29357
29357
29507
29507
29507
29507
29485
29485
29485
29378
29378
29378
29464
29464
29464
29357
29357
29357
29357
29357
29357
29357
29357
29357
29357
29228
29228
29228
29400
29400
29400
29378
29378
29378
29378
29378
29378
29378
29314
29314
29314
29335
29335
29335
29485
29485
29485
29335
29335
29335
29378
29378
29378
29378
29378
29378
29378
29378
29378
29378
29400
29400
29400
29335
29335
29335
29593
29593
29593
29593
29442
29442
29442
29378
29378
29378
29400
29400
29400
29400
29400
29400
29421
29421
29421
29421
29528
29528
29528
29378
29378
29378
29400
29400
29400
29378
29378
29378
29335
29335
29335
29335
29485
29485
29485
29314
29314
29314
29400
29400
29400
29357
29357
29357
29421
29421
29421
29421
29442
29442
29442
29442
29442
29442
29378
29378
29378
29442
29442
29442
29464
29464
29464
29464
29335
29335
29335
29335
29335
29335
29335
29335
29335
29357
29357
29357
29378
29378
29378
29378
29442
29442
29442
29357
29357
29357
29378
29378
29378
29335
29335
29335
29464
29464
29464
29464
29400
29400
29400
29206
29206
29206
29400
29400
29400
29378
29378
29378
29357
29357
29357
29357
29400
29400
29400
29335
29335
29335
29421
29421
29421
29292
29292
29292
29378
29378
29378
29378
29442
29442
29442
29314
29314
29314
29378
29378
29378
29314
29314
29314
29271
29271
29271
29271
29421
29421
29421
29314
29314
29314
29400
29400
29400
29292
29292
29292
29442
29442
29442
29442
29421
29421
29421
29378
29378
29378
29421
29421
29421
29357
29357
29357
29442
29442
29442
29442
29378
29378
29378
29357
29357
29357
29528
29528
29528
29292
29292
29292
29378
29378
29378
29378
29400
29400
29400
29314
29314
29314
29400
29400
29400
29335
29335
29335
29357
29357
29357
29357
29400
29400
29400
29271
29271
29271
29378
29378
29378
29464
29464
29464
29507
29507
29507
29507
29378
29378
29378
29357
29357
29357
29378
29378
29378
29400
29400
29400
29314
29314
29314
29314
29378
29378
29378
29314
29314
29314
29421
29421
29421
29378
29378
29378
29271
29271
29271
29271
29400
29400
29400
29357
29357
29357
29485
29485
29485
29400
29400
29400
29400
29400
29400
29400
29378
29378
29378
29357
29357
29357
29249
29249
29249
29357
29357
29357
29400
29400
29400
29400
29378
29378
29378
29335
29335
29335
29400
29400
29400
29421
29421
29421
29378
29378
29378
29378
29378
29378
29378
29335
29335
29335
29077
29077
29077
29528
29528
29528
29464
29464
29464
29464
29722
29722
29722
29378
29378
29378
29400
29400
29400
29335
29335
29335
29335
29335
29335
29335
29442
29442
29442
29400
29400
29400
29378
29378
29378
29400
29400
29400
29357
29357
29357
29357
29400
29400
29400
29292
29292
29292
29400
29400
29400
29228
29228
29228
29400
29400
29400
29400
29314
29314
29314
29378
29378
29378
29464
29464
29464
29400
29400
29400
29464
29464
29464
29464
29400
29400
29400
29314
29314
29314
29464
29464
29464
29271
29271
29271
29485
29485
29485
29485
29378
29378
29378
29378
29378
29378
29335
29335
29335
29314
29314
29314
29378
29378
29378
29378
29335
29335
29335
29314
29314
29314
29442
29442
29442
29249
29249
29249
29528
29528
29528
29528
29378
29378
29378
29378
29378
29378
29335
29335
29335
29335
29335
29335
29378
29378
29378
29378
29378
29378
29378
29357
29357
29357
29378
29378
29378
29314
29314
29314
29314
29314
29314
29314
29421
29421
29421
29357
29357
29357
29464
29464
29464
29228
29228
29228
29335
29335
29335
29335
29378
29378
29378
29292
29292
29292
29507
29507
29507
29357
29357
29357
29314
29314
29314
29314
29357
29357
29357
29378
29378
29378
29421
29421
29421
29421
29421
29421
29464
29464
29464
29464
29528
29528
29528
29378
29378
29378
29528
29528
29528
29400
29400
29400
29378
29378
29378
29378
29400
29400
29400
29357
29357
29357
29442
29442
29442
29442
29442
29442
29421
29421
29421
29421
29357
29357
29357
29335
29335
29335
29442
29442
29442
29464
29464
29464
29421
29421
29421
29421
29378
29378
29378
29400
29400
29400
29357
29357
29357
29421
29421
29421
29464
29464
29464
29464
29421
29421
29421
29335
29335
29335
29335
29335
29335
29271
29271
29271
29357
29357
29357
29357
29442
29442
29442
29378
29378
29378
29485
29485
29485
29271
29271
29271
29421
29421
29421
29421
29378
29378
29378
29464
29464
29464
29421
29421
29421
29314
29314
29314
29421
29421
29421
29421
29378
29378
29378
29314
29314
29314
29400
29400
29400
29271
29271
29271
29485
29485
29485
29485
29357
29357
29357
29335
29335
29335
29378
29378
29378
29249
29249
29249
29357
29357
29357
29357
29357
29357
29357
29421
29421
29421
29421
29421
29421
29378
29378
29378
29421
29421
29421
29421
29464
29464
29464
29249
29249
29249
29464
29464
29464
29378
29378
29378
29421
29421
29421
29421
29335
29335
29335
29335
29335
29335
29400
29400
29400
29314
29314
29314
29442
29442
29442
29442
29421
29421
29421
29292
29292
29292
29400
29400
29400
29292
29292
29292
29421
29421
29421
29421
29442
29442
29442
29228
29228
29228
29442
29442
29442
29314
29314
29314
29292
29292
29292
29292
29400
29400
29400
29335
29335
29335
29335
29335
29335
29292
29292
29292
29442
29442
29442
29442
29507
29507
29507
29335
29335
29335
29464
29464
29464
29249
29249
29249
29507
29507
29507
29507
29571
29571
29571
29421
29421
29421
29571
29571
29571
29378
29378
29378
29464
29464
29464
29464
29357
29357
29357
29464
29464
29464
29485
29485
29485
29357
29357
29357
29421
29421
29421
29421
29378
29378
29378
29292
29292
29292
29378
29378
29378
29400
29400
29400
29442
29442
29442
29442
29442
29442
29442
29378
29378
29378
29507
29507
29507
29378
29378
29378
29421
29421
29421
29421
29400
29400
29400
29271
29271
29271
29442
29442
29442
29357
29357
29357
29400
29400
29400
29400
29357
29357
29357
29271
29271
29271
29442
29442
29442
29528
29528
29528
29528
29528
29528
29528
29335
29335
29335
29292
29292
29292
29421
29421
29421
29378
29378
29378
29442
29442
29442
29442
29357
29357
29357
29314
29314
29314
29400
29400
29400
29335
29335
29335
29335
29335
29335
29335
29636
29636
29636
29400
29400
29400
29378
29378
29378
29378
29378
29378
29400
29400
29400
29400
29357
29357
29357
29378
29378
29378
29400
29400
29400
29378
29378
29378
29378
29378
29378
29378
29464
29464
29464
29378
29378
29378
29442
29442
29442
29335
29335
29335
29378
29378
29378
29378
29550
29550
29550
29249
29249
29249
29400
29400
29400
29442
29442
29442
29400
29400
29400
29400
29400
29400
29400
29357
29357
29357
29442
29442
29442
29335
29335
29335
29378
29378
29378
29378
29357
29357
29357
29357
29357
29357
29421
29421
29421
29335
29335
29335
29335
29335
29335
29335
29464
29464
29464
29357
29357
29357
29464
29464
29464
29335
29335
29335
29421
29421
29421
29421
29442
29442
29442
29335
29335
29335
29400
29400
29400
29378
29378
29378
29442
29442
29442
29442
29378
29378
29378
29400
29400
29400
29485
29485
29485
29314
29314
29314
29485
29485
29485
29485
29421
29421
29421
29400
29400
29400
29378
29378
29378
29357
29357
29357
29378
29378
29378
29378
29442
29442
29442
29335
29335
29335
29357
29357
29357
29271
29271
29271
29400
29400
29400
29400
29314
29314
29314
29314
29314
29314
29464
29464
29464
29357
29357
29357
29400
29400
29400
29400
29400
29400
29400
29400
29400
29400
29421
29421
29421
29378
29378
29378
29400
29400
29400
29400
29442
29442
29442
29357
29357
29357
29421
29421
29421
29314
29314
29314
29464
29464
29464
29464
29464
29464
29464
29292
29292
29292
29421
29421
29421
29335
29335
29335
29550
29550
29550
29550
29421
29421
29421
29357
29357
29357
29314
29314
29314
29335
29335
29335
29378
29378
29378
29378
29421
29421
29421
29357
29357
29357
29421
29421
29421
29378
29378
29378
29464
29464
29464
29464
29357
29357
29357
29335
29335
29335
29421
29421
29421
29357
29357
29357
29464
29464
29464
29464
29528
29528
29528
29357
29357
29357
29507
29507
29507
29357
29357
29357
29421
29421
29421
29421
29400
29400
29400
29292
29292
29292
29378
29378
29378
29400
29400
29400
29314
29314
29314
29314
29421
29421
29421
29335
29335
29335
29421
29421
29421
29163
29163
29163
29464
29464
29464
29464
29421
29421
29421
29335
29335
29335
29421
29421
29421
29249
29249
29249
29400
29400
29400
29400
29400
29400
29400
29357
29357
29357
29400
29400
29400
29249
29249
29249
29421
29421
29421
29421
29421
29421
29421
29400
29400
29400
29357
29357
29357
29421
29421
29421
29442
29442
29442
29442
29378
29378
29378
29357
29357
29357
29442
29442
29442
29400
29400
29400
29378
29378
29378
29378
29400
29400
29400
29335
29335
29335
29485
29485
29485
29335
29335
29335
29400
29400
29400
29400
29400
29400
29400
29335
29335
29335
29464
29464
29464
29357
29357
29357
29485
29485
29485
29485
29400
29400
29400
29357
29357
29357
29400
29400
29400
29464
29464
29464
29378
29378
29378
29378
29400
29400
29400
29357
29357
29357
29464
29464
29464
29442
29442
29442
29378
29378
29378
29378
29400
29400
29400
29400
29400
29400
29464
29464
29464
29271
29271
29271
29485
29485
29485
29485
29442
29442
29442
29292
29292
29292
29335
29335
29335
29378
29378
29378
29314
29314
29314
29314
29378
29378
29378
29314
29314
29314
29464
29464
29464
29314
29314
29314
29357
29357
29357
29357
29378
29378
29378
29357
29357
29357
29485
29485
29485
29271
29271
29271
29400
29400
29400
29400
29421
29421
29421
29335
29335
29335
29421
29421
29421
29271
29271
29271
29442
29442
29442
29442
29400
29400
29400
29335
29335
29335
29357
29357
29357
29421
29421
29421
29314
29314
29314
29314
29400
29400
29400
29335
29335
29335
29485
29485
29485
29249
29249
29249
29442
29442
29442
29442
29400
29400
29400
29378
29378
29378
29378
29378
29378
29378
29378
29378
29442
29442
29442
29442
29400
29400
29400
29206
29206
29206
29442
29442
29442
29464
29464
29464
29442
29442
29442
29442
29378
29378
29378
29314
29314
29314
29485
29485
29485
29314
29314
29314
29442
29442
29442
29442
29378
29378
29378
29400
29400
29400
29335
29335
29335
29292
29292
29292
29421
29421
29421
29421
29442
29442
29442
29378
29378
29378
29464
29464
29464
29378
29378
29378
29249
29249
29249
29249
29421
29421
29421
29378
29378
29378
29378
29378
29378
29292
29292
29292
29442
29442
29442
29442
29464
29464
29464
29249
29249
29249
29507
29507
29507
29378
29378
29378
29378
29378
29378
29378
29464
29464
29464
29163
29163
29163
29442
29442
29442
29378
29378
29378
29442
29442
29442
29442
29464
29464
29464
29314
29314
29314
29464
29464
29464
29314
29314
29314
29421
29421
29421
29421
29507
29507
29507
29421
29421
29421
29442
29442
29442
29400
29400
29400
29400
29400
29400
29400
29528
29528
29528
29400
29400
29400
29400
29400
29400
29378
29378
29378
29400
29400
29400
29400
29271
29271
29271
29357
29357
29357
29442
29442
29442
29357
29357
29357
29378
29378
29378
29378
29314
29314
29314
29400
29400
29400
29421
29421
29421
29335
29335
29335
29378
29378
29378
29378
29485
29485
29485
29400
29400
29400
29442
29442
29442
29357
29357
29357
29464
29464
29464
29464
29464
29464
29464
29378
29378
29378
29400
29400
29400
29421
29421
29421
29378
29378
29378
29378
29314
29314
29314
29335
29335
29335
29378
29378
29378
29335
29335
29335
29378
29378
29378
29378
29357
29357
29357
29400
29400
29400
29400
29400
29400
29335
29335
29335
29378
29378
29378
29378
29335
29335
29335
29335
29335
29335
29442
29442
29442
29357
29357
29357
29421
29421
29421
29421
29378
29378
29378
29485
29485
29485
29421
29421
29421
29314
29314
29314
29400
29400
29400
29400
29528
29528
29528
29378
29378
29378
29442
29442
29442
29357
29357
29357
29400
29400
29400
29400
29421
29421
29421
29378
29378
29378
29378
29378
29378
29292
29292
29292
29528
29528
29528
29528
29464
29464
29464
29378
29378
29378
29400
29400
29400
29292
29292
29292
29421
29421
29421
29421
29464
29464
29464
29378
29378
29378
29400
29400
29400
29335
29335
29335
29421
29421
29421
29421
29400
29400
29400
29314
29314
29314
29464
29464
29464
29485
29485
29485
29485
29485
29485
29485
29421
29421
29421
29442
29442
29442
29400
29400
29400
29357
29357
29357
29400
29400
29400
29400
29464
29464
29464
29314
29314
29314
29442
29442
29442
29314
29314
29314
29400
29400
29400
29400
29442
29442
29442
29314
29314
29314
29400
29400
29400
29335
29335
29335
29442
29442
29442
29442
29357
29357
29357
29292
29292
29292
29421
29421
29421
29442
29442
29442
29421
29421
29421
29421
29378
29378
29378
29378
29378
29378
29421
29421
29421
29400
29400
29400
29464
29464
29464
29464
29421
29421
29421
29357
29357
29357
29335
29335
29335
29357
29357
29357
29357
29357
29357
29357
29400
29400
29400
29314
29314
29314
29421
29421
29421
29292
29292
29292
29421
29421
29421
29421
29421
29421
29421
29378
29378
29378
29464
29464
29464
29335
29335
29335
29400
29400
29400
29400
29485
29485
29485
29314
29314
29314
29464
29464
29464
29335
29335
29335
29400
29400
29400
29400
29400
29400
29400
29400
29400
29400
29442
29442
29442
29335
29335
29335
29335
29335
29335
29335
29421
29421
29421
29335
29335
29335
29400
29400
29400
29228
29228
29228
29421
29421
29421
29421
29421
29421
29421
29378
29378
29378
29314
29314
29314
29357
29357
29357
29421
29421
29421
29421
29400
29400
29400
29335
29335
29335
29464
29464
29464
29314
29314
29314
29442
29442
29442
29442
29421
29421
29421
29378
29378
29378
29421
29421
29421
29228
29228
29228
29464
29464
29464
29464
29357
29357
29357
29335
29335
29335
29421
29421
29421
29271
29271
29271
29378
29378
29378
29378
29378
29378
29378
29292
29292
29292
29378
29378
29378
29378
29378
29378
29464
29464
29464
29464
29421
29421
29421
29335
29335
29335
29357
29357
29357
29228
29228
29228
29335
29335
29335
29335
29442
29442
29442
29335
29335
29335
29378
29378
29378
29400
29400
29400
29442
29442
29442
29442
29357
29357
29357
29314
29314
29314
29400
29400
29400
29442
29442
29442
29485
29485
29485
29485
29378
29378
29378
29249
29249
29249
29400
29400
29400
29292
29292
29292
29571
29571
29571
29571
29442
29442
29442
29378
29378
29378
29421
29421
29421
29314
29314
29314
29335
29335
29335
29335
29421
29421
29421
29335
29335
29335
29442
29442
29442
29335
29335
29335
29507
29507
29507
29507
29400
29400
29400
29378
29378
29378
29528
29528
29528
29378
29378
29378
29335
29335
29335
29335
29357
29357
29357
29357
29357
29357
29464
29464
29464
29271
29271
29271
29292
29292
29292
29292
29378
29378
29378
29314
29314
29314
29421
29421
29421
29249
29249
29249
29357
29357
29357
29357
29421
29421
29421
29421
29421
29421
29400
29400
29400
29314
29314
29314
29292
29292
29292
29292
29357
29357
29357
29378
29378
29378
29421
29421
29421
29378
29378
29378
29357
29357
29357
29357
29335
29335
29335
29314
29314
29314
29485
29485
29485
29314
29314
29314
29421
29421
29421
29421
29400
29400
29400
29400
29400
29400
29507
29507
29507
29335
29335
29335
29357
29357
29357
29357
29378
29378
29378
29271
29271
29271
29400
29400
29400
29314
29314
29314
29357
29357
29357
29357
29442
29442
29442
29335
29335
29335
29335
29335
29335
29271
29271
29271
29421
29421
29421
29421
29442
29442
29442
29314
29314
29314
29357
29357
29357
29271
29271
29271
29335
29335
29335
29335
29507
29507
29507
29357
29357
29357
29378
29378
29378
29271
29271
29271
29335
29335
29335
29335
29335
29335
29335
29421
29421
29421
29442
29442
29442
29378
29378
29378
29378
29378
29378
29378
29378
29378
29378
29378
29378
29378
29485
29485
29485
29528
29528
29528
29421
29421
29421
29421
29400
29400
29400
29335
29335
29335
29507
29507
29507
29314
29314
29314
29421
29421
29421
29421
29400
29400
29400
29335
29335
29335
29528
29528
29528
29421
29421
29421
29421
29421
29421
29421
29421
29421
29421
29378
29378
29378
29421
29421
29421
29507
29507
29507
29485
29485
29485
29485
29271
29271
29271
29335
29335
29335
29400
29400
29400
29357
29357
29357
29507
29507
29507
29507
29400
29400
29400
29335
29335
29335
29400
29400
29400
29228
29228
29228
29421
29421
29421
29421
29421
29421
29421
29485
29485
29485
29464
29464
29464
29314
29314
29314
29421
29421
29421
29421
29335
29335
29335
29400
29400
29400
29507
29507
29507
29335
29335
29335
29335
29335
29335
29335
29421
29421
29421
29378
29378
29378
29485
29485
29485
29400
29400
29400
29421
29421
29421
29421
29400
29400
29400
29357
29357
29357
29464
29464
29464
29442
29442
29442
29421
29421
29421
29421
29400
29400
29400
29249
29249
29249
29421
29421
29421
29400
29400
29400
29400
29400
29400
29400
29335
29335
29335
29249
29249
29249
29335
29335
29335
29378
29378
29378
29464
29464
29464
29464
29378
29378
29378
29271
29271
29271
29357
29357
29357
29378
29378
29378
29442
29442
29442
29442
29378
29378
29378
29421
29421
29421
29442
29442
29442
29271
29271
29271
29400
29400
29400
29400
29421
29421
29421
29378
29378
29378
29314
29314
29314
29292
29292
29292
29421
29421
29421
29421
29528
29528
29528
29249
29249
29249
29421
29421
29421
29314
29314
29314
29442
29442
29442
29442
29528
29528
29528
29636
29636
29636
29507
29507
29507
29378
29378
29378
29421
29421
29421
29421
29442
29442
29442
29442
29442
29442
29507
29507
29507
29357
29357
29357
29378
29378
29378
29378
29357
29357
29357
29271
29271
29271
29378
29378
29378
29292
29292
29292
29400
29400
29400
29400
29571
29571
29571
29271
29271
29271
29378
29378
29378
29378
29378
29378
29400
29400
29400
29400
29271
29271
29271
29314
29314
29314
29421
29421
29421
29378
29378
29378
29400
29400
29400
29400
29442
29442
29442
29292
29292
29292
29400
29400
29400
29335
29335
29335
29357
29357
29357
29357
29442
29442
29442
29271
29271
29271
29421
29421
29421
29378
29378
29378
29442
29442
29442
29442
29378
29378
29378
29314
29314
29314
29378
29378
29378
29442
29442
29442
29507
29507
29507
29507
29464
29464
29464
29249
29249
29249
29421
29421
29421
29378
29378
29378
29421
29421
29421
29421
29442
29442
29442
29442
29442
29442
29442
29442
29442
29335
29335
29335
29442
29442
29442
29442
29442
29442
29442
29378
29378
29378
29378
29378
29378
29314
29314
29314
29442
29442
29442
29442
29442
29442
29442
29292
29292
29292
29400
29400
29400
29314
29314
29314
29400
29400
29400
29400
29421
29421
29421
29292
29292
29292
29442
29442
29442
29378
29378
29378
29378
29378
29378
29378
29335
29335
29335
29335
29335
29335
29442
29442
29442
29357
29357
29357
29507
29507
29507
29507
29314
29314
29314
29292
29292
29292
29400
29400
29400
29335
29335
29335
29442
29442
29442
29442
29249
29249
29249
29271
29271
29271
29421
29421
29421
29314
29314
29314
29421
29421
29421
29421
29421
29421
29421
29292
29292
29292
29400
29400
29400
29292
29292
29292
29228
29228
29228
29228
29357
29357
29357
29421
29421
29421
29464
29464
29464
29485
29485
29485
29400
29400
29400
29400
29335
29335
29335
29292
29292
29292
29464
29464
29464
29378
29378
29378
29378
29378
29378
29378
29357
29357
29357
29292
29292
29292
29400
29400
29400
29400
29400
29400
29528
29528
29528
29528
29314
29314
29314
29163
29163
29163
29442
29442
29442
29442
29442
29442
29421
29421
29421
29421
29292
29292
29292
29271
29271
29271
29378
29378
29378
29357
29357
29357
29485
29485
29485
29485
29442
29442
29442
29271
29271
29271
29421
29421
29421
29335
29335
29335
29357
29357
29357
29357
29314
29314
29314
29271
29271
29271
29400
29400
29400
29421
29421
29421
29421
29421
29421
29421
29400
29400
29400
29292
29292
29292
29421
29421
29421
29335
29335
29335
29421
29421
29421
29421
29400
29400
29400
29335
29335
29335
29400
29400
29400
29357
29357
29357
29485
29485
29485
29485
29507
29507
29507
29378
29378
29378
29400
29400
29400
29335
29335
29335
29421
29421
29421
29421
29442
29442
29442
29400
29400
29400
29421
29421
29421
29357
29357
29357
29421
29421
29421
29421
29378
29378
29378
29335
29335
29335
29400
29400
29400
29314
29314
29314
29292
29292
29292
29292
29335
29335
29335
29400
29400
29400
29421
29421
29421
29271
29271
29271
29421
29421
29421
29421
29335
29335
29335
29357
29357
29357
29442
29442
29442
29357
29357
29357
29421
29421
29421
29421
29357
29357
29357
29378
29378
29378
29378
29378
29378
29357
29357
29357
29400
29400
29400
29400
29378
29378
29378
29378
29378
29378
29442
29442
29442
29378
29378
29378
29442
29442
29442
29442
29485
29485
29485
29335
29335
29335
29378
29378
29378
29335
29335
29335
29464
29464
29464
29464
29421
29421
29421
29357
29357
29357
29421
29421
29421
29249
29249
29249
29421
29421
29421
29421
29378
29378
29378
29335
29335
29335
29357
29357
29357
29335
29335
29335
29421
29421
29421
29421
29421
29421
29421
29378
29378
29378
29400
29400
29400
29400
29400
29400
29421
29421
29421
29421
29421
29421
29421
29357
29357
29357
29378
29378
29378
29314
29314
29314
29400
29400
29400
29400
29421
29421
29421
29314
29314
29314
29421
29421
29421
29357
29357
29357
29528
29528
29528
29528
29464
29464
29464
29314
29314
29314
29421
29421
29421
29400
29400
29400
29421
29421
29421
29421
29378
29378
29378
29378
29378
29378
29421
29421
29421
29357
29357
29357
29442
29442
29442
29442
29378
29378
29378
29400
29400
29400
29400
29400
29400
29335
29335
29335
29421
29421
29421
29421
29400
29400
29400
29271
29271
29271
29442
29442
29442
29378
29378
29378
29421
29421
29421
29421
29378
29378
29378
29357
29357
29357
29357
29357
29357
29335
29335
29335
29421
29421
29421
29421
29442
29442
29442
29292
29292
29292
29485
29485
29485
29335
29335
29335
29507
29507
29507
29507
29485
29485
29485
29357
29357
29357
29485
29485
29485
29357
29357
29357
29400
29400
29400
29400
29378
29378
29378
29335
29335
29335
29442
29442
29442
29378
29378
29378
29421
29421
29421
29421
29464
29464
29464
29357
29357
29357
29442
29442
29442
29357
29357
29357
29421
29421
29421
29421
29314
29314
29314
29378
29378
29378
29442
29442
29442
29400
29400
29400
29442
29442
29442
29442
29292
29292
29292
29335
29335
29335
29249
29249
29249
29378
29378
29378
29421
29421
29421
29421
29485
29485
29485
29335
29335
29335
29400
29400
29400
29335
29335
29335
29421
29421
29421
29421
29335
29335
29335
29378
29378
29378
29442
29442
29442
29292
29292
29292
29421
29421
29421
29421
29378
29378
29378
29292
29292
29292
29442
29442
29442
29335
29335
29335
29400
29400
29400
29400
29421
29421
29421
29357
29357
29357
29442
29442
29442
29400
29400
29400
29378
29378
29378
29378
29400
29400
29400
29335
29335
29335
29421
29421
29421
29442
29442
29442
29421
29421
29421
29421
29335
29335
29335
29357
29357
29357
29314
29314
29314
29314
29314
29314
29400
29400
29400
29400
29464
29464
29464
29464
29464
29464
29421
29421
29421
29335
29335
29335
29400
29400
29400
29400
29442
29442
29442
29400
29400
29400
29400
29400
29400
29400
29400
29400
29421
29421
29421
29421
29442
29442
29442
29400
29400
29400
29464
29464
29464
29314
29314
29314
29378
29378
29378
29378
29335
29335
29335
29335
29335
29335
29400
29400
29400
29314
29314
29314
29400
29400
29400
29400
29421
29421
29421
29421
29421
29421
29400
29400
29400
29400
29400
29400
29571
29571
29571
29571
29357
29357
29357
29357
29357
29357
29464
29464
29464
29335
29335
29335
29442
29442
29442
29442
29228
29228
29228
29292
29292
29292
29421
29421
29421
29400
29400
29400
29442
29442
29442
29442
29464
29464
29464
29400
29400
29400
29378
29378
29378
29400
29400
29400
29442
29442
29442
29442
29442
29442
29442
29378
29378
29378
29357
29357
29357
29378
29378
29378
29442
29442
29442
29442
29464
29464
29464
29314
29314
29314
29421
29421
29421
29314
29314
29314
29421
29421
29421
29421
29507
29507
29507
29335
29335
29335
29400
29400
29400
29335
29335
29335
29400
29400
29400
29400
29378
29378
29378
29271
29271
29271
29400
29400
29400
29314
29314
29314
29421
29421
29421
29421
29378
29378
29378
29292
29292
29292
29400
29400
29400
29314
29314
29314
29421
29421
29421
29421
29314
29314
29314
29292
29292
29292
29442
29442
29442
29357
29357
29357
29442
29442
29442
29442
29335
29335
29335
29271
29271
29271
29442
29442
29442
29378
29378
29378
29485
29485
29485
29485
29314
29314
29314
29292
29292
29292
29400
29400
29400
29271
29271
29271
29485
29485
29485
29485
29442
29442
29442
29228
29228
29228
29400
29400
29400
29357
29357
29357
29400
29400
29400
29400
29400
29400
29400
29421
29421
29421
29528
29528
29528
29378
29378
29378
29442
29442
29442
29442
29400
29400
29400
29400
29400
29400
29464
29464
29464
29335
29335
29335
29378
29378
29378
29378
29400
29400
29400
29378
29378
29378
29464
29464
29464
29314
29314
29314
29400
29400
29400
29400
29357
29357
29357
29335
29335
29335
29421
29421
29421
29357
29357
29357
29485
29485
29485
29485
29335
29335
29335
29378
29378
29378
29421
29421
29421
29442
29442
29442
29421
29421
29421
29421
29464
29464
29464
29292
29292
29292
29314
29314
29314
29378
29378
29378
29442
29442
29442
29442
29357
29357
29357
29271
29271
29271
29485
29485
29485
29357
29357
29357
29442
29442
29442
29442
29421
29421
29421
29292
29292
29292
29421
29421
29421
29314
29314
29314
29421
29421
29421
29421
29485
29485
29485
29249
29249
29249
29421
29421
29421
29357
29357
29357
29442
29442
29442
29442
29378
29378
29378
29357
29357
29357
29593
29593
29593
29421
29421
29421
29593
29593
29593
29593
29485
29485
29485
29400
29400
29400
29421
29421
29421
29335
29335
29335
29421
29421
29421
29421
29421
29421
29421
29400
29400
29400
29421
29421
29421
29400
29400
29400
29400
29400
29400
29400
29400
29400
29400
29335
29335
29335
29528
29528
29528
29357
29357
29357
29400
29400
29400
29400
29378
29378
29378
29421
29421
29421
29442
29442
29442
29357
29357
29357
29400
29400
29400
29400
29335
29335
29335
29314
29314
29314
29464
29464
29464
29485
29485
29485
29421
29421
29421
29421
29421
29421
29421
29378
29378
29378
29464
29464
29464
29335
29335
29335
29292
29292
29292
29292
29593
29593
29593
29314
29314
29314
29400
29400
29400
29400
29400
29400
29400
29400
29400
29400
29421
29421
29421
29335
29335
29335
29400
29400
29400
29335
29335
29335
29421
29421
29421
29421
29378
29378
29378
29400
29400
29400
29357
29357
29357
29335
29335
29335
29442
29442
29442
29442
29378
29378
29378
29357
29357
29357
29442
29442
29442
29357
29357
29357
29357
29357
29357
29357
29400
29400
29400
29357
29357
29357
29442
29442
29442
29400
29400
29400
29400
29400
29400
29400
29249
29249
29249
29357
29357
29357
29442
29442
29442
29335
29335
29335
29400
29400
29400
29400
29421
29421
29421
29314
29314
29314
29400
29400
29400
29335
29335
29335
29292
29292
29292
29292
29400
29400
29400
29400
29400
29400
29442
29442
29442
29314
29314
29314
29421
29421
29421
29421
29400
29400
29400
29378
29378
29378
29378
29378
29378
29335
29335
29335
29421
29421
29421
29421
29378
29378
29378
29335
29335
29335
29335
29335
29335
29335
29335
29335
29314
29314
29314
29314
29421
29421
29421
29442
29442
29442
29442
29442
29442
29314
29314
29314
29442
29442
29442
29442
29378
29378
29378
29357
29357
29357
29464
29464
29464
29357
29357
29357
29464
29464
29464
29464
29400
29400
29400
29335
29335
29335
29421
29421
29421
29292
29292
29292
29421
29421
29421
29421
29400
29400
29400
29249
29249
29249
29442
29442
29442
29442
29442
29442
29442
29442
29442
29442
29378
29378
29378
29314
29314
29314
29378
29378
29378
29335
29335
29335
29400
29400
29400
29400
29400
29400
29400
29314
29314
29314
29400
29400
29400
29357
29357
29357
29378
29378
29378
29378
29400
29400
29400
29400
29400
29400
29421
29421
29421
29357
29357
29357
29400
29400
29400
29400
29464
29464
29464
29314
29314
29314
29421
29421
29421
29335
29335
29335
29400
29400
29400
29400
29400
29400
29400
29314
29314
29314
29292
29292
29292
29314
29314
29314
29528
29528
29528
29528
29421
29421
29421
29314
29314
29314
29400
29400
29400
29314
29314
29314
29464
29464
29464
29464
29400
29400
29400
29335
29335
29335
29378
29378
29378
29292
29292
29292
29378
29378
29378
29378
29528
29528
29528
29378
29378
29378
29442
29442
29442
29378
29378
29378
29442
29442
29442
29442
29421
29421
29421
29378
29378
29378
29400
29400
29400
29335
29335
29335
29464
29464
29464
29464
29421
29421
29421
29378
29378
29378
29485
29485
29485
29335
29335
29335
29442
29442
29442
29442
29400
29400
29400
29335
29335
29335
29400
29400
29400
29335
29335
29335
29314
29314
29314
29314
29378
29378
29378
29335
29335
29335
29421
29421
29421
29335
29335
29335
29357
29357
29357
29357
29400
29400
29400
29421
29421
29421
29442
29442
29442
29421
29421
29421
29442
29442
29442
29442
29400
29400
29400
29314
29314
29314
29357
29357
29357
29335
29335
29335
29464
29464
29464
29464
29400
29400
29400
29335
29335
29335
29421
29421
29421
29357
29357
29357
29550
29550
29550
29550
29442
29442
29442
29206
29206
29206
29421
29421
29421
29400
29400
29400
29464
29464
29464
29464
29442
29442
29442
29314
29314
29314
29400
29400
29400
29357
29357
29357
29421
29421
29421
29421
29442
29442
29442
29357
29357
29357
29464
29464
29464
29292
29292
29292
29400
29400
29400
29400
29378
29378
29378
29335
29335
29335
29378
29378
29378
29378
29378
29378
29400
29400
29400
29400
29378
29378
29378
29357
29357
29357
29442
29442
29442
29464
29464
29464
29400
29400
29400
29400
29206
29206
29206
29614
29614
29614
29335
29335
29335
29442
29442
29442
29400
29400
29400
29400
29400
29400
29400
29421
29421
29421
29464
29464
29464
29314
29314
29314
29485
29485
29485
29485
29400
29400
29400
29314
29314
29314
29378
29378
29378
29464
29464
29464
29357
29357
29357
29357
29485
29485
29485
29335
29335
29335
29400
29400
29400
29357
29357
29357
29421
29421
29421
29421
29421
29421
29421
29357
29357
29357
29507
29507
29507
29378
29378
29378
29421
29421
29421
29421
29400
29400
29400
29271
29271
29271
29378
29378
29378
29357
29357
29357
29400
29400
29400
29400
29335
29335
29335
29357
29357
29357
29550
29550
29550
29335
29335
29335
29357
29357
29357
29357
29400
29400
29400
29292
29292
29292
29400
29400
29400
29271
29271
29271
29507
29507
29507
29507
29442
29442
29442
29357
29357
29357
29357
29357
29357
29357
29357
29357
29421
29421
29421
29421
29528
29528
29528
29357
29357
29357
29442
29442
29442
29400
29400
29400
29442
29442
29442
29442
29400
29400
29400
29314
29314
29314
29464
29464
29464
29314
29314
29314
29335
29335
29335
29335
29357
29357
29357
29292
29292
29292
29421
29421
29421
29314
29314
29314
29442
29442
29442
29442
29292
29292
29292
29314
29314
29314
29357
29357
29357
29335
29335
29335
29400
29400
29400
29400
29485
29485
29485
29314
29314
29314
29314
29314
29314
29400
29400
29400
29421
29421
29421
29421
29314
29314
29314
29335
29335
29335
29421
29421
29421
29335
29335
29335
29400
29400
29400
29400
29421
29421
29421
29400
29400
29400
29400
29400
29400
29378
29378
29378
29421
29421
29421
29421
29400
29400
29400
29378
29378
29378
29507
29507
29507
29421
29421
29421
29400
29400
29400
29400
29357
29357
29357
29335
29335
29335
29400
29400
29400
29357
29357
29357
29314
29314
29314
29314
29400
29400
29400
29206
29206
29206
29421
29421
29421
29464
29464
29464
29421
29421
29421
29421
29400
29400
29400
29335
29335
29335
29421
29421
29421
29335
29335
29335
29421
29421
29421
29421
29378
29378
29378
29357
29357
29357
29485
29485
29485
29357
29357
29357
29400
29400
29400
29400
29400
29400
29400
29292
29292
29292
29442
29442
29442
29357
29357
29357
29378
29378
29378
29378
29485
29485
29485
29421
29421
29421
29442
29442
29442
29400
29400
29400
29400
29400
29400
29400
29357
29357
29357
29335
29335
29335
29357
29357
29357
29357
29357
29357
29357
29357
29357
29357
29421
29421
29421
29357
29357
29357
29400
29400
29400
29292
29292
29292
29400
29400
29400
29400
29314
29314
29314
29378
29378
29378
29421
29421
29421
29378
29378
29378
29400
29400
29400
29400
29485
29485
29485
29378
29378
29378
29378
29378
29378
29335
29335
29335
29400
29400
29400
29400
29421
29421
29421
29314
29314
29314
29485
29485
29485
29335
29335
29335
29335
29335
29335
29335
29442
29442
29442
29314
29314
29314
29464
29464
29464
29400
29400
29400
29421
29421
29421
29421
29292
29292
29292
29335
29335
29335
29400
29400
29400
29357
29357
29357
29421
29421
29421
29421
29357
29357
29357
29357
29357
29357
29464
29464
29464
29335
29335
29335
29421
29421
29421
29421
29357
29357
29357
29400
29400
29400
29442
29442
29442
29314
29314
29314
29421
29421
29421
29421
29400
29400
29400
29357
29357
29357
29442
29442
29442
29292
29292
29292
29400
29400
29400
29400
29442
29442
29442
29400
29400
29400
29442
29442
29442
29400
29400
29400
29421
29421
29421
29421
29400
29400
29400
29464
29464
29464
29400
29400
29400
29335
29335
29335
29421
29421
29421
29421
29421
29421
29421
29335
29335
29335
29421
29421
29421
29442
29442
29442
29442
29442
29442
29442
29400
29400
29400
29357
29357
29357
29421
29421
29421
29357
29357
29357
29335
29335
29335
29335
29421
29421
29421
29378
29378
29378
29378
29378
29378
29378
29378
29378
29378
29378
29378
29378
29442
29442
29442
29292
29292
29292
29400
29400
29400
29378
29378
29378
29464
29464
29464
29464
29442
29442
29442
29442
29442
29442
29378
29378
29378
29357
29357
29357
29442
29442
29442
29442
29442
29442
29442
29335
29335
29335
29442
29442
29442
29314
29314
29314
29357
29357
29357
29357
29400
29400
29400
29314
29314
29314
29421
29421
29421
29314
29314
29314
29442
29442
29442
29442
29400
29400
29400
29357
29357
29357
29442
29442
29442
29357
29357
29357
29378
29378
29378
29378
29400
29400
29400
29378
29378
29378
29400
29400
29400
29314
29314
29314
29464
29464
29464
29464
29442
29442
29442
29378
29378
29378
29421
29421
29421
29442
29442
29442
29421
29421
29421
29421
29485
29485
29485
29357
29357
29357
29335
29335
29335
29314
29314
29314
29400
29400
29400
29400
29400
29400
29400
29357
29357
29357
29421
29421
29421
29378
29378
29378
29464
29464
29464
29464
29442
29442
29442
29314
29314
29314
29421
29421
29421
29464
29464
29464
29400
29400
29400
29400
29421
29421
29421
29378
29378
29378
29442
29442
29442
29378
29378
29378
29442
29442
29442
29442
29421
29421
29421
29378
29378
29378
29400
29400
29400
29421
29421
29421
29400
29400
29400
29400
29378
29378
29378
29314
29314
29314
29400
29400
29400
29442
29442
29442
29400
29400
29400
29400
29378
29378
29378
29421
29421
29421
29421
29421
29421
29335
29335
29335
29421
29421
29421
29421
29378
29378
29378
29335
29335
29335
29400
29400
29400
29357
29357
29357
29528
29528
29528
29528
29378
29378
29378
29206
29206
29206
29464
29464
29464
29400
29400
29400
29400
29400
29400
29400
29314
29314
29314
29357
29357
29357
29421
29421
29421
29335
29335
29335
29421
29421
29421
29421
29400
29400
29400
29357
29357
29357
29507
29507
29507
29335
29335
29335
29357
29357
29357
29357
29421
29421
29421
29400
29400
29400
29421
29421
29421
29442
29442
29442
29421
29421
29421
29421
29421
29421
29421
29335
29335
29335
29464
29464
29464
29400
29400
29400
29335
29335
29335
29335
29378
29378
29378
29357
29357
29357
29335
29335
29335
29357
29357
29357
29485
29485
29485
29485
29357
29357
29357
29271
29271
29271
29442
29442
29442
29249
29249
29249
29400
29400
29400
29400
29378
29378
29378
29357
29357
29357
29378
29378
29378
29249
29249
29249
29421
29421
29421
29421
29378
29378
29378
29335
29335
29335
29507
29507
29507
29271
29271
29271
29400
29400
29400
29400
29485
29485
29485
29335
29335
29335
29464
29464
29464
29292
29292
29292
29442
29442
29442
29442
29400
29400
29400
29335
29335
29335
29464
29464
29464
29314
29314
29314
29357
29357
29357
29357
29421
29421
29421
29357
29357
29357
29571
29571
29571
29485
29485
29485
29464
29464
29464
29464
29442
29442
29442
29292
29292
29292
29335
29335
29335
29249
29249
29249
29357
29357
29357
29357
29421
29421
29421
29271
29271
29271
29507
29507
29507
29421
29421
29421
29442
29442
29442
29442
29421
29421
29421
29400
29400
29400
29357
29357
29357
29335
29335
29335
29400
29400
29400
29400
29507
29507
29507
29421
29421
29421
29485
29485
29485
29314
29314
29314
29400
29400
29400
29400
29550
29550
29550
29400
29400
29400
29378
29378
29378
29335
29335
29335
29421
29421
29421
29421
29335
29335
29335
29464
29464
29464
29464
29464
29464
29335
29335
29335
29421
29421
29421
29421
29314
29314
29314
29292
29292
29292
29421
29421
29421
29335
29335
29335
29400
29400
29400
29400
29400
29400
29400
29400
29400
29400
29378
29378
29378
29421
29421
29421
29636
29636
29636
29636
29528
29528
29528
29507
29507
29507
29442
29442
29442
29314
29314
29314
29400
29400
29400
29400
29421
29421
29421
29357
29357
29357
29421
29421
29421
29335
29335
29335
29400
29400
29400
29400
29378
29378
29378
29378
29378
29378
29550
29550
29550
29314
29314
29314
29485
29485
29485
29485
29442
29442
29442
29378
29378
29378
29442
29442
29442
29421
29421
29421
29400
29400
29400
29400
29442
29442
29442
29378
29378
29378
29400
29400
29400
29314
29314
29314
29378
29378
29378
29378
29292
29292
29292
29357
29357
29357
29421
29421
29421
29335
29335
29335
29442
29442
29442
29442
29400
29400
29400
29378
29378
29378
29400
29400
29400
29357
29357
29357
29378
29378
29378
29378
29421
29421
29421
29314
29314
29314
29442
29442
29442
29442
29442
29442
29421
29421
29421
29421
29442
29442
29442
29357
29357
29357
29442
29442
29442
29357
29357
29357
29400
29400
29400
29400
29400
29400
29400
29292
29292
29292
29442
29442
29442
29357
29357
29357
29442
29442
29442
29442
29400
29400
29400
29314
29314
29314
29314
29314
29314
29335
29335
29335
29464
29464
29464
29464
29442
29442
29442
29400
29400
29400
29442
29442
29442
29357
29357
29357
29335
29335
29335
29335
29400
29400
29400
29421
29421
29421
29421
29421
29421
29249
29249
29249
29464
29464
29464
29464
29400
29400
29400
29442
29442
29442
29421
29421
29421
29421
29421
29421
29335
29335
29335
29335
29400
29400
29400
29335
29335
29335
29442
29442
29442
29378
29378
29378
29485
29485
29485
29485
29400
29400
29400
29357
29357
29357
29400
29400
29400
29271
29271
29271
29421
29421
29421
29421
29442
29442
29442
29314
29314
29314
29378
29378
29378
29357
29357
29357
29400
29400
29400
29400
29400
29400
29400
29442
29442
29442
29464
29464
29464
29464
29464
29464
29485
29485
29485
29485
29421
29421
29421
29335
29335
29335
29292
29292
29292
29378
29378
29378
29464
29464
29464
29464
29400
29400
29400
29400
29400
29400
29442
29442
29442
29378
29378
29378
29507
29507
29507
29507
29378
29378
29378
29378
29378
29378
29485
29485
29485
29271
29271
29271
29400
29400
29400
29400
29292
29292
29292
29421
29421
29421
29528
29528
29528
29271
29271
29271
29400
29400
29400
29400
29421
29421
29421
29421
29421
29421
29421
29421
29421
29442
29442
29442
29228
29228
29228
29228
29400
29400
29400
29292
29292
29292
29464
29464
29464
29206
29206
29206
29400
29400
29400
29400
29378
29378
29378
29400
29400
29400
29335
29335
29335
29357
29357
29357
29464
29464
29464
29464
29421
29421
29421
29400
29400
29400
29378
29378
29378
29249
29249
29249
29442
29442
29442
29442
29314
29314
29314
29378
29378
29378
29357
29357
29357
29292
29292
29292
29464
29464
29464
29464
29357
29357
29357
29357
29357
29357
29421
29421
29421
29400
29400
29400
29378
29378
29378
29378
29485
29485
29485
29292
29292
29292
29357
29357
29357
29357
29357
29357
29378
29378
29378
29378
29335
29335
29335
29206
29206
29206
29400
29400
29400
29314
29314
29314
29464
29464
29464
29464
29507
29507
29507
29378
29378
29378
29400
29400
29400
29357
29357
29357
29400
29400
29400
29400
29271
29271
29271
29335
29335
29335
29421
29421
29421
29357
29357
29357
29400
29400
29400
29400
29421
29421
29421
29314
29314
29314
29378
29378
29378
29314
29314
29314
29292
29292
29292
29292
29335
29335
29335
29335
29335
29335
29421
29421
29421
29357
29357
29357
29400
29400
29400
29400
29421
29421
29421
29335
29335
29335
29400
29400
29400
29357
29357
29357
29357
29357
29357
29357
29464
29464
29464
29357
29357
29357
29421
29421
29421
29335
29335
29335
29357
29357
29357
29357
29442
29442
29442
29357
29357
29357
29400
29400
29400
29335
29335
29335
29442
29442
29442
29442
29400
29400
29400
29378
29378
29378
29442
29442
29442
29421
29421
29421
29400
29400
29400
29400
29400
29400
29400
29357
29357
29357
29507
29507
29507
29357
29357
29357
29442
29442
29442
29442
29421
29421
29421
29335
29335
29335
29400
29400
29400
29335
29335
29335
29292
29292
29292
29292
29378
29378
29378
29228
29228
29228
29442
29442
29442
29378
29378
29378
29442
29442
29442
29442
29271
29271
29271
29292
29292
29292
29442
29442
29442
29400
29400
29400
29335
29335
29335
29335
29400
29400
29400
29378
29378
29378
29614
29614
29614
29400
29400
29400
29228
29228
29228
29228
29400
29400
29400
29335
29335
29335
29421
29421
29421
29271
29271
29271
29442
29442
29442
29442
29421
29421
29421
29292
29292
29292
29528
29528
29528
29314
29314
29314
29378
29378
29378
29378
29400
29400
29400
29400
29400
29400
29335
29335
29335
29357
29357
29357
29421
29421
29421
29421
29421
29421
29421
29314
29314
29314
29400
29400
29400
29271
29271
29271
29314
29314
29314
29314
29357
29357
29357
29228
29228
29228
29421
29421
29421
29357
29357
29357
29378
29378
29378
29378
29378
29378
29378
29228
29228
29228
29442
29442
29442
29357
29357
29357
29442
29442
29442
29442
29378
29378
29378
29357
29357
29357
29464
29464
29464
29571
29571
29571
29507
29507
29507
29507
29314
29314
29314
29464
29464
29464
29421
29421
29421
29292
29292
29292
29400
29400
29400
29400
29400
29400
29400
29464
29464
29464
29442
29442
29442
29550
29550
29550
29400
29400
29400
29400
29378
29378
29378
29357
29357
29357
29378
29378
29378
29335
29335
29335
29378
29378
