33467
33467
33423
33423
33423
33554
33554
33554
33467
33467
33467
33575
33575
33575
33575
33488
33488
33488
33488
33488
33488
33510
33510
33510
33510
33510
33510
33554
33554
33554
33554
33597
33597
33597
33510
33510
33510
33554
33554
33554
33467
33467
33467
33662
33662
33662
33662
33575
33575
33575
33597
33597
33597
33575
33575
33575
33445
33445
33445
33575
33575
33575
33575
33706
33706
33706
33445
33445
33445
33597
33597
33597
33532
33532
33532
33510
33510
33510
33510
33554
33554
33554
33445
33445
33445
33532
33532
33532
33488
33488
33488
33510
33510
33510
33510
33510
33510
33510
33358
33358
33358
33554
33554
33554
33662
33662
33662
33575
33575
33575
33575
33554
33554
33554
33467
33467
33467
33575
33575
33575
33423
33423
33423
33619
33619
33619
33619
33641
33641
33641
33467
33467
33467
33510
33510
33510
33467
33467
33467
33554
33554
33554
33554
33554
33554
33554
33445
33445
33445
33532
33532
33532
33554
33554
33554
33575
33575
33575
33575
33575
33575
33575
33510
33510
33510
33575
33575
33575
33510
33510
33510
33575
33575
33575
33575
33619
33619
33619
33488
33488
33488
33532
33532
33532
33401
33401
33401
33488
33488
33488
33488
33554
33554
33554
33467
33467
33467
33662
33662
33662
33532
33532
33532
33597
33597
33597
33597
33488
33488
33488
33401
33401
33401
33445
33445
33445
33488
33488
33488
33575
33575
33575
33575
33771
33771
33771
33554
33554
33554
33575
33575
33575
33488
33488
33488
33619
33619
33619
33619
33532
33532
33532
33445
33445
33445
33575
33575
33575
33510
33510
33510
33532
33532
33532
33532
33619
33619
33619
33423
33423
33423
33532
33532
33532
33597
33597
33597
33619
33619
33619
33619
33597
33597
33597
33488
33488
33488
33575
33575
33575
33532
33532
33532
33575
33575
33575
33575
33554
33554
33554
33532
33532
33532
33554
33554
33554
33532
33532
33532
33575
33575
33575
33575
33641
33641
33641
33641
33641
33641
33510
33510
33510
33401
33401
33401
33575
33575
33575
33575
33662
33662
33662
33532
33532
33532
33445
33445
33445
33467
33467
33467
33532
33532
33532
33532
33467
33467
33467
33423
33423
33423
33575
33575
33575
33467
33467
33467
33575
33575
33575
33575
33641
33641
33641
33401
33401
33401
33554
33554
33554
33532
33532
33532
33575
33575
33575
33575
33532
33532
33532
33488
33488
33488
33554
33554
33554
33467
33467
33467
33554
33554
33554
33554
33575
33575
33575
33488
33488
33488
33554
33554
33554
33488
33488
33488
33641
33641
33641
33641
33510
33510
33510
33292
33292
33292
33597
33597
33597
33488
33488
33488
33554
33554
33554
33554
33597
33597
33597
33510
33510
33510
33488
33488
33488
33445
33445
33445
33554
33554
33554
33554
33532
33532
33532
33532
33532
33532
33575
33575
33575
33488
33488
33488
33597
33597
33597
33597
33575
33575
33575
33467
33467
33467
33575
33575
33575
33292
33292
33292
33554
33554
33554
33554
33532
33532
33532
33467
33467
33467
33554
33554
33554
33488
33488
33488
33532
33532
33532
33532
33532
33532
33532
33510
33510
33510
33597
33597
33597
33488
33488
33488
33619
33619
33619
33619
33532
33532
33532
33510
33510
33510
33554
33554
33554
33554
33554
33554
33619
33619
33619
33619
33510
33510
33510
33488
33488
33488
33488
33488
33488
33510
33510
33510
33488
33488
33488
33488
33597
33597
33597
33467
33467
33467
33575
33575
33575
33401
33401
33401
33510
33510
33510
33510
33575
33575
33575
33488
33488
33488
33575
33575
33575
33488
33488
33488
33641
33641
33641
33641
33575
33575
33575
33488
33488
33488
33554
33554
33554
33445
33445
33445
33662
33662
33662
33662
33554
33554
33554
33488
33488
33488
33641
33641
33641
33554
33554
33554
33597
33597
33597
33597
33532
33532
33532
33401
33401
33401
33510
33510
33510
33336
33336
33336
33597
33597
33597
33597
33684
33684
33684
33488
33488
33488
33445
33445
33445
33467
33467
33467
33467
33467
33467
33467
33554
33554
33554
33467
33467
33467
33554
33554
33554
33401
33401
33401
33641
33641
33641
33641
33554
33554
33554
33575
33575
33575
33575
33575
33575
33401
33401
33401
33532
33532
33532
33532
33554
33554
33554
33488
33488
33488
33554
33554
33554
33467
33467
33467
33554
33554
33554
33554
33554
33554
33554
33532
33532
33532
33597
33597
33597
33510
33510
33510
33619
33619
33619
33619
33575
33575
33575
33575
33575
33575
33619
33619
33619
33575
33575
33575
33575
33575
33575
33575
33423
33423
33423
33445
33445
33445
33510
33510
33510
33532
33532
33532
33532
33532
33532
33532
33488
33488
33488
33467
33467
33467
33575
33575
33575
33488
33488
33488
33597
33597
33597
33597
33575
33575
33575
33467
33467
33467
33597
33597
33597
33445
33445
33445
33575
33575
33575
33575
33597
33597
33597
33510
33510
33510
33597
33597
33597
33488
33488
33488
33575
33575
33575
33575
33532
33532
33532
33467
33467
33467
33510
33510
33510
33445
33445
33445
33554
33554
33554
33554
33597
33597
33597
33532
33532
33532
33836
33836
33836
33467
33467
33467
33597
33597
33597
33597
33554
33554
33554
33488
33488
33488
33597
33597
33597
33423
33423
33423
33554
33554
33554
33554
33423
33423
33423
33445
33445
33445
33597
33597
33597
33532
33532
33532
33532
33532
33532
33532
33575
33575
33575
33510
33510
33510
33575
33575
33575
33510
33510
33510
33532
33532
33532
33532
33554
33554
33554
33510
33510
33510
33575
33575
33575
33467
33467
33467
33597
33597
33597
33597
33532
33532
33532
33488
33488
33488
33619
33619
33619
33445
33445
33445
33532
33532
33532
33532
33554
33554
33554
33488
33488
33488
33532
33532
33532
33488
33488
33488
33662
33662
33662
33662
33510
33510
33510
33379
33379
33379
33554
33554
33554
33597
33597
33597
33445
33445
33445
33445
33532
33532
33532
33423
33423
33423
33510
33510
33510
33488
33488
33488
33575
33575
33575
33575
33532
33532
33532
33467
33467
33467
33597
33597
33597
33488
33488
33488
33662
33662
33662
33662
33532
33532
33532
33271
33271
33271
33532
33532
33532
33488
33488
33488
33575
33575
33575
33575
33554
33554
33554
33379
33379
33379
33445
33445
33445
33336
33336
33336
33575
33575
33575
33575
33510
33510
33510
33445
33445
33445
33510
33510
33510
33532
33532
33532
33597
33597
33597
33597
33532
33532
33532
33467
33467
33467
33532
33532
33532
33467
33467
33467
33510
33510
33510
33510
33575
33575
33575
33423
33423
33423
33706
33706
33706
33467
33467
33467
33554
33554
33554
33554
33554
33554
33554
33358
33358
33358
33488
33488
33488
33423
33423
33423
33575
33575
33575
33575
33575
33575
33575
33619
33619
33619
33597
33597
33597
33510
33510
33510
33619
33619
33619
33619
33532
33532
33532
33271
33271
33271
33532
33532
33532
33597
33597
33597
33575
33575
33575
33575
33662
33662
33662
33488
33488
33488
33575
33575
33575
33488
33488
33488
33597
33597
33597
33597
33684
33684
33684
33510
33510
33510
33532
33532
33532
33445
33445
33445
33619
33619
33619
33619
33488
33488
33488
33445
33445
33445
33575
33575
33575
33336
33336
33336
33532
33532
33532
33532
33467
33467
33467
33445
33445
33445
33619
33619
33619
33467
33467
33467
33532
33532
33532
33532
33662
33662
33662
33488
33488
33488
33597
33597
33597
33510
33510
33510
33619
33619
33619
33619
33510
33510
33510
33554
33554
33554
33575
33575
33575
33467
33467
33467
33510
33510
33510
33510
33510
33510
33510
33445
33445
33445
33532
33532
33532
33575
33575
33575
33510
33510
33510
33510
33554
33554
33554
33445
33445
33445
33554
33554
33554
33488
33488
33488
33510
33510
33510
33510
33575
33575
33575
33488
33488
33488
33554
33554
33554
33445
33445
33445
33488
33488
33488
33488
33575
33575
33575
33488
33488
33488
33510
33510
33510
33532
33532
33532
33554
33554
33554
33554
33467
33467
33467
33467
33467
33467
33532
33532
33532
33532
33532
33532
33641
33641
33641
33641
33554
33554
33554
33445
33445
33445
33597
33597
33597
33401
33401
33401
33597
33597
33597
33597
33575
33575
33575
33488
33488
33488
33575
33575
33575
33532
33532
33532
33423
33423
33423
33423
33510
33510
33510
33488
33488
33488
33532
33532
33532
33554
33554
33554
33510
33510
33510
33510
33554
33554
33554
33488
33488
33488
33597
33597
33597
33532
33532
33532
33597
33597
33597
33597
33554
33554
33554
33445
33445
33445
33597
33597
33597
33641
33641
33641
33619
33619
33619
33619
33532
33532
33532
33488
33488
33488
33554
33554
33554
33467
33467
33467
33488
33488
33488
33488
33575
33575
33575
33488
33488
33488
33619
33619
33619
33554
33554
33554
33510
33510
33510
33510
33575
33575
33575
33532
33532
33532
33532
33532
33532
33619
33619
33619
33488
33488
33488
33488
33554
33554
33554
33532
33532
33532
33619
33619
33619
33467
33467
33467
33684
33684
33684
33684
33575
33575
33575
33510
33510
33510
33510
33510
33510
33575
33575
33575
33488
33488
33488
33488
33554
33554
33554
33532
33532
33532
33379
33379
33379
33597
33597
33597
33597
33597
33597
33597
33554
33554
33554
33401
33401
33401
33641
33641
33641
33401
33401
33401
33532
33532
33532
33532
33532
33532
33532
33510
33510
33510
33445
33445
33445
33423
33423
33423
33532
33532
33532
33532
33619
33619
33619
33401
33401
33401
33488
33488
33488
33445
33445
33445
33597
33597
33597
33597
33641
33641
33641
33532
33532
33532
33554
33554
33554
33488
33488
33488
33532
33532
33532
33532
33597
33597
33597
33532
33532
33532
33423
33423
33423
33532
33532
33532
33619
33619
33619
33619
33597
33597
33597
33575
33575
33575
33467
33467
33467
33532
33532
33532
33597
33597
33597
33597
33619
33619
33619
33336
33336
33336
33619
33619
33619
33510
33510
33510
33532
33532
33532
33532
33532
33532
33532
33488
33488
33488
33532
33532
33532
33423
33423
33423
33510
33510
33510
33510
33597
33597
33597
33575
33575
33575
33575
33575
33575
33445
33445
33445
33554
33554
33554
33554
33532
33532
33532
33597
33597
33597
33510
33510
33510
33379
33379
33379
33619
33619
33619
33619
33662
33662
33662
33510
33510
33510
33379
33379
33379
33488
33488
33488
33554
33554
33554
33554
33619
33619
33619
33379
33379
33379
33554
33554
33554
33510
33510
33510
33554
33554
33554
33554
33619
33619
33619
33532
33532
33532
33575
33575
33575
33445
33445
33445
33575
33575
33575
33575
33575
33575
33575
33488
33488
33488
33684
33684
33684
33467
33467
33467
33532
33532
33532
33532
33510
33510
33510
33445
33445
33445
33619
33619
33619
33510
33510
33510
33662
33662
33662
33662
33554
33554
33554
33510
33510
33510
33532
33532
33532
33423
33423
33423
33575
33575
33575
33575
33554
33554
33554
33467
33467
33467
33532
33532
33532
33467
33467
33467
33554
33554
33554
33554
33619
33619
33619
33488
33488
33488
33510
33510
33510
33467
33467
33467
33554
33554
33554
33554
33532
33532
33532
33358
33358
33358
33575
33575
33575
33467
33467
33467
33575
33575
33575
33575
33510
33510
33510
33467
33467
33467
33575
33575
33575
33510
33510
33510
33554
33554
33554
33554
33575
33575
33575
33488
33488
33488
33575
33575
33575
33488
33488
33488
33554
33554
33554
33554
33532
33532
33532
33510
33510
33510
33597
33597
33597
33358
33358
33358
33554
33554
33554
33554
33597
33597
33597
33619
33619
33619
33619
33619
33619
33488
33488
33488
33597
33597
33597
33597
33641
33641
33641
33510
33510
33510
33554
33554
33554
33488
33488
33488
33619
33619
33619
33619
33554
33554
33554
33510
33510
33510
33532
33532
33532
33423
33423
33423
33575
33575
33575
33575
33554
33554
33554
33467
33467
33467
33488
33488
33488
33488
33488
33488
33554
33554
33554
33554
33662
33662
33662
33445
33445
33445
33662
33662
33662
33510
33510
33510
33532
33532
33532
33532
33532
33532
33532
33554
33554
33554
33575
33575
33575
33445
33445
33445
33575
33575
33575
33575
33575
33575
33575
33488
33488
33488
33597
33597
33597
33336
33336
33336
33488
33488
33488
33488
33597
33597
33597
33510
33510
33510
33445
33445
33445
33467
33467
33467
33641
33641
33641
33641
33619
33619
33619
33532
33532
33532
33554
33554
33554
33445
33445
33445
33575
33575
33575
33575
33575
33575
33575
33467
33467
33467
33532
33532
33532
33445
33445
33445
33684
33684
33684
33684
33510
33510
33510
33445
33445
33445
33510
33510
33510
33532
33532
33532
33510
33510
33510
33510
33554
33554
33554
33467
33467
33467
33597
33597
33597
33423
33423
33423
33423
33423
33423
33423
33575
33575
33575
33445
33445
33445
33532
33532
33532
33488
33488
33488
33488
33488
33488
33488
33532
33532
33532
33488
33488
33488
33510
33510
33510
33488
33488
33488
33554
33554
33554
33554
33575
33575
33575
33467
33467
33467
33554
33554
33554
33532
33532
33532
33510
33510
33510
33510
33510
33510
33510
33467
33467
33467
33575
33575
33575
33445
33445
33445
33662
33662
33662
33662
33488
33488
33488
33510
33510
33510
33554
33554
33554
33379
33379
33379
33575
33575
33575
33575
33575
33575
33575
33445
33445
33445
33532
33532
33532
33379
33379
33379
33532
33532
33532
33532
33575
33575
33575
33554
33554
33554
33619
33619
33619
33467
33467
33467
33488
33488
33488
33488
33619
33619
33619
33401
33401
33401
33445
33445
33445
33423
33423
33423
33575
33575
33575
33575
33575
33575
33575
33445
33445
33445
33575
33575
33575
33336
33336
33336
33314
33314
33314
33314
33554
33554
33554
33641
33641
33641
33510
33510
33510
33227
33227
33227
33510
33510
33510
33510
33532
33532
33532
33445
33445
33445
33554
33554
33554
33467
33467
33467
33445
33445
33445
33445
33532
33532
33532
33467
33467
33467
33728
33728
33728
33510
33510
33510
33575
33575
33575
33575
33619
33619
33619
33445
33445
33445
33467
33467
33467
33662
33662
33662
33619
33619
33619
33619
33684
33684
33684
33532
33532
33532
33684
33684
33684
33510
33510
33510
33597
33597
33597
33597
33510
33510
33510
33510
33510
33510
33684
33684
33684
33597
33597
33597
33510
33510
33510
33510
33575
33575
33575
33488
33488
33488
33554
33554
33554
33641
33641
33641
33597
33597
33597
33597
33554
33554
33554
33467
33467
33467
33532
33532
33532
33532
33532
33532
33597
33597
33597
33597
33641
33641
33641
33379
33379
33379
33445
33445
33445
33401
33401
33401
33619
33619
33619
33619
33510
33510
33510
33467
33467
33467
33619
33619
33619
33423
33423
33423
33510
33510
33510
33510
33423
33423
33423
33445
33445
33445
33510
33510
33510
33358
33358
33358
33532
33532
33532
33532
33532
33532
33532
33379
33379
33379
33379
33379
33379
33423
33423
33423
33401
33401
33401
33401
33554
33554
33554
33423
33423
33423
33510
33510
33510
33314
33314
33314
33575
33575
33575
33575
33554
33554
33554
33445
33445
33445
33467
33467
33467
33445
33445
33445
33554
33554
33554
33554
33401
33401
33401
33488
33488
33488
33597
33597
33597
33401
33401
33401
33510
33510
33510
33510
33575
33575
33575
33619
33619
33619
33641
33641
33641
33510
33510
33510
33575
33575
33575
33575
33619
33619
33619
33445
33445
33445
33706
33706
33706
33575
33575
33575
33532
33532
33532
33532
33575
33575
33575
33575
33575
33575
33554
33554
33554
33510
33510
33510
33532
33532
33532
33532
33532
33532
33532
33597
33597
33597
33662
33662
33662
33488
33488
33488
33532
33532
33532
33532
33575
33575
33575
33445
33445
33445
33706
33706
33706
33532
33532
33532
33554
33554
33554
33554
33554
33554
33554
33467
33467
33467
33423
33423
33423
33532
33532
33532
33554
33554
33554
33554
33575
33575
33575
33401
33401
33401
33445
33445
33445
33467
33467
33467
33467
33467
33467
33467
33641
33641
33641
33554
33554
33554
33554
33554
33554
33510
33510
33510
33575
33575
33575
33575
33488
33488
33488
33423
33423
33423
33488
33488
33488
33445
33445
33445
33510
33510
33510
33510
33597
33597
33597
33532
33532
33532
33467
33467
33467
33445
33445
33445
33619
33619
33619
33619
33532
33532
33532
33423
33423
33423
33467
33467
33467
33488
33488
33488
33641
33641
33641
33641
33728
33728
33728
33510
33510
33510
33619
33619
33619
33445
33445
33445
33597
33597
33597
33597
33619
33619
33619
33554
33554
33554
33575
33575
33575
33488
33488
33488
33532
33532
33532
33532
33510
33510
33510
33358
33358
33358
33662
33662
33662
33575
33575
33575
33532
33532
33532
33532
33575
33575
33575
33488
33488
33488
33662
33662
33662
33423
33423
33423
33575
33575
33575
33575
33510
33510
33510
33379
33379
33379
33575
33575
33575
33510
33510
33510
33706
33706
33706
33706
33575
33575
33575
33336
33336
33336
33532
33532
33532
33597
33597
33597
33575
33575
33575
33575
33684
33684
33684
33575
33575
33575
33597
33597
33597
33423
33423
33423
33554
33554
33554
33554
33401
33401
33401
33488
33488
33488
33532
33532
33532
33510
33510
33510
33597
33597
33597
33597
33532
33532
33532
33488
33488
33488
33575
33575
33575
33467
33467
33467
33554
33554
33554
33554
33597
33597
33597
33488
33488
33488
33554
33554
33554
33510
33510
33510
33532
33532
33532
33532
33554
33554
33554
33488
33488
33488
33510
33510
33510
33445
33445
33445
33554
33554
33554
33554
33597
33597
33597
33575
33575
33575
33510
33510
33510
33467
33467
33467
33662
33662
33662
33662
33575
33575
33575
33336
33336
33336
33597
33597
33597
33619
33619
33619
33575
33575
33575
33575
33510
33510
33510
33488
33488
33488
33575
33575
33575
33445
33445
33445
33554
33554
33554
33554
33575
33575
33575
33467
33467
33467
33619
33619
33619
33488
33488
33488
33641
33641
33641
33641
33575
33575
33575
33401
33401
33401
33554
33554
33554
33488
33488
33488
33554
33554
33554
33554
33532
33532
33532
33467
33467
33467
33575
33575
33575
33510
33510
33510
33575
33575
33575
33575
33619
33619
33619
33488
33488
33488
33619
33619
33619
33488
33488
33488
33532
33532
33532
33532
33532
33532
33532
33510
33510
33510
33532
33532
33532
33423
33423
33423
33467
33467
33467
33467
33575
33575
33575
33488
33488
33488
33532
33532
33532
33336
33336
33336
33619
33619
33619
33619
33641
33641
33641
33488
33488
33488
33619
33619
33619
33445
33445
33445
33532
33532
33532
33532
33575
33575
33575
33488
33488
33488
33532
33532
33532
33467
33467
33467
33488
33488
33488
33488
33575
33575
33575
33510
33510
33510
33532
33532
33532
33510
33510
33510
33510
33510
33510
33510
33532
33532
33532
33467
33467
33467
33597
33597
33597
33488
33488
33488
33488
33488
33488
33488
33532
33532
33532
33510
33510
33510
33597
33597
33597
33467
33467
33467
33532
33532
33532
33532
33532
33532
33532
33467
33467
33467
33554
33554
33554
33162
33162
33162
33510
33510
33510
33510
33554
33554
33554
33488
33488
33488
33554
33554
33554
33554
33554
33554
33641
33641
33641
33641
33575
33575
33575
33510
33510
33510
33597
33597
33597
33575
33575
33575
33619
33619
33619
33619
33554
33554
33554
33510
33510
33510
33575
33575
33575
33467
33467
33467
33641
33641
33641
33641
33641
33641
33641
33488
33488
33488
33597
33597
33597
33554
33554
33554
33575
33575
33575
33575
33554
33554
33554
33510
33510
33510
33467
33467
33467
33575
33575
33575
33662
33662
33662
33662
33532
33532
33532
33423
33423
33423
33554
33554
33554
33488
33488
33488
33597
33597
33597
33597
33554
33554
33554
33510
33510
33510
33445
33445
33445
33358
33358
33358
33597
33597
33597
33597
33597
33597
33597
33510
33510
33510
33641
33641
33641
33510
33510
33510
33619
33619
33619
33619
33532
33532
33532
33488
33488
33488
33597
33597
33597
33554
33554
33554
33554
33554
33554
33554
33575
33575
33575
33532
33532
33532
33554
33554
33554
33467
33467
33467
33597
33597
33597
33597
33597
33597
33597
33510
33510
33510
33662
33662
33662
33488
33488
33488
33358
33358
33358
33358
33554
33554
33554
33532
33532
33532
33488
33488
33488
33575
33575
33575
33510
33510
33510
33510
33554
33554
33554
33510
33510
33510
33554
33554
33554
33336
33336
33336
33510
33510
33510
33510
33554
33554
33554
33467
33467
33467
33597
33597
33597
33488
33488
33488
33619
33619
33619
33619
33597
33597
33597
33467
33467
33467
33532
33532
33532
33488
33488
33488
33619
33619
33619
33619
33510
33510
33510
33488
33488
33488
33575
33575
33575
33445
33445
33445
33510
33510
33510
33510
33706
33706
33706
33532
33532
33532
33575
33575
33575
33532
33532
33532
33532
33532
33532
33532
33597
33597
33597
33510
33510
33510
33597
33597
33597
33467
33467
33467
33619
33619
33619
33619
33554
33554
33554
33401
33401
33401
33532
33532
33532
33532
33532
33532
33575
33575
33575
33575
33641
33641
33641
33510
33510
33510
33532
33532
33532
33423
33423
33423
33619
33619
33619
33619
33597
33597
33597
33488
33488
33488
33684
33684
33684
33467
33467
33467
33619
33619
33619
33619
33467
33467
33467
33358
33358
33358
33532
33532
33532
33488
33488
33488
33597
33597
33597
33597
33619
33619
33619
33532
33532
33532
33554
33554
33554
33467
33467
33467
33597
33597
33597
33597
33401
33401
33401
33597
33597
33597
33597
33597
33597
33488
33488
33488
33467
33467
33467
33467
33597
33597
33597
33488
33488
33488
33488
33488
33488
33445
33445
33445
33575
33575
33575
33575
33488
33488
33488
33445
33445
33445
33597
33597
33597
33488
33488
33488
33554
33554
33554
33554
33423
33423
33423
33488
33488
33488
33684
33684
33684
33554
33554
33554
33575
33575
33575
33575
33662
33662
33662
33488
33488
33488
33554
33554
33554
33467
33467
33467
33554
33554
33554
33554
33575
33575
33575
33488
33488
33488
33597
33597
33597
33488
33488
33488
33641
33641
33641
33641
33597
33597
33597
33467
33467
33467
33488
33488
33488
33532
33532
33532
33532
33532
33532
33532
33554
33554
33554
33336
33336
33336
33575
33575
33575
33510
33510
33510
33532
33532
33532
33532
33575
33575
33575
33358
33358
33358
33597
33597
33597
33445
33445
33445
33597
33597
33597
33597
33641
33641
33641
33488
33488
33488
33641
33641
33641
33467
33467
33467
33554
33554
33554
33554
33554
33554
33554
33488
33488
33488
33575
33575
33575
33488
33488
33488
33575
33575
33575
33575
33554
33554
33554
33488
33488
33488
33554
33554
33554
33488
33488
33488
33575
33575
33575
33575
33467
33467
33467
33467
33467
33467
33554
33554
33554
33510
33510
33510
33575
33575
33575
33575
33554
33554
33554
33423
33423
33423
33445
33445
33445
33467
33467
33467
33532
33532
33532
33532
33597
33597
33597
33510
33510
33510
33554
33554
33554
33445
33445
33445
33467
33467
33467
33467
33575
33575
33575
33467
33467
33467
33575
33575
33575
33445
33445
33445
33619
33619
33619
33619
33510
33510
33510
33488
33488
33488
33662
33662
33662
33532
33532
33532
33597
33597
33597
33597
33510
33510
33510
33379
33379
33379
33554
33554
33554
33510
33510
33510
33554
33554
33554
33554
33597
33597
33597
33445
33445
33445
33575
33575
33575
33575
33575
33575
33488
33488
33488
33488
33641
33641
33641
33467
33467
33467
33554
33554
33554
33401
33401
33401
33532
33532
33532
33532
33554
33554
33554
33510
33510
33510
33597
33597
33597
33467
33467
33467
33467
33467
33467
33467
33554
33554
33554
33488
33488
33488
33532
33532
33532
33619
33619
33619
33532
33532
33532
33532
33401
33401
33401
33467
33467
33467
33597
33597
33597
33619
33619
33619
33575
33575
33575
33575
33554
33554
33554
33445
33445
33445
33554
33554
33554
33445
33445
33445
33488
33488
33488
33488
33488
33488
33488
33532
33532
33532
33554
33554
33554
33488
33488
33488
33554
33554
33554
33554
33532
33532
33532
33488
33488
33488
33662
33662
33662
33445
33445
33445
33532
33532
33532
33532
33554
33554
33554
33532
33532
33532
33597
33597
33597
33554
33554
33554
33619
33619
33619
33619
33554
33554
33554
33445
33445
33445
33597
33597
33597
33467
33467
33467
33706
33706
33706
33706
33445
33445
33445
33488
33488
33488
33445
33445
33445
33488
33488
33488
33488
33488
33488
33488
33554
33554
33554
33575
33575
33575
33619
33619
33619
33423
33423
33423
33706
33706
33706
33706
33554
33554
33554
33488
33488
33488
33532
33532
33532
33445
33445
33445
33597
33597
33597
33597
33532
33532
33532
33510
33510
33510
33488
33488
33488
33467
33467
33467
33488
33488
33488
33488
33597
33597
33597
33510
33510
33510
33488
33488
33488
33358
33358
33358
33510
33510
33510
33510
33532
33532
33532
33467
33467
33467
33554
33554
33554
33510
33510
33510
33575
33575
33575
33575
33641
33641
33641
33488
33488
33488
33662
33662
33662
33641
33641
33641
33662
33662
33662
33662
33532
33532
33532
33532
33532
33532
33641
33641
33641
33510
33510
33510
33575
33575
33575
33575
33554
33554
33554
33467
33467
33467
33641
33641
33641
33445
33445
33445
33597
33597
33597
33597
33597
33597
33597
33554
33554
33554
33662
33662
33662
33575
33575
33575
33684
33684
33684
33684
33510
33510
33510
33510
33510
33510
33510
33510
33510
33554
33554
33554
33597
33597
33597
33597
33575
33575
33575
33488
33488
33488
33510
33510
33510
33510
33510
33510
33597
33597
33597
33597
33510
33510
33510
33488
33488
33488
33575
33575
33575
33336
33336
33336
33554
33554
33554
33554
33532
33532
33532
33554
33554
33554
33554
33554
33554
33379
33379
33379
33662
33662
33662
33662
33575
33575
33575
33423
33423
33423
33445
33445
33445
33467
33467
33467
33597
33597
33597
33597
33532
33532
33532
33467
33467
33467
33575
33575
33575
33358
33358
33358
33554
33554
33554
33554
33554
33554
33554
33597
33597
33597
33619
33619
33619
33510
33510
33510
33575
33575
33575
33575
33619
33619
33619
33510
33510
33510
33706
33706
33706
33532
33532
33532
33575
33575
33575
33575
33532
33532
33532
33423
33423
33423
33510
33510
33510
33467
33467
33467
33575
33575
33575
33575
33510
33510
33510
33488
33488
33488
33488
33488
33488
33445
33445
33445
33728
33728
33728
33728
33510
33510
33510
33423
33423
33423
33510
33510
33510
33423
33423
33423
33488
33488
33488
33488
33597
33597
33597
33532
33532
33532
33488
33488
33488
33467
33467
33467
33597
33597
33597
33597
33619
33619
33619
33445
33445
33445
33575
33575
33575
33467
33467
33467
33575
33575
33575
33575
33684
33684
33684
33510
33510
33510
33554
33554
33554
33467
33467
33467
33619
33619
33619
33619
33575
33575
33575
33641
33641
33641
33641
33641
33641
33467
33467
33467
33554
33554
33554
33554
33488
33488
33488
33445
33445
33445
33597
33597
33597
33423
33423
33423
33554
33554
33554
33554
33488
33488
33488
33467
33467
33467
33619
33619
33619
33445
33445
33445
33575
33575
33575
33575
33554
33554
33554
33467
33467
33467
33597
33597
33597
33575
33575
33575
33554
33554
33554
33554
33554
33554
33554
33401
33401
33401
33575
33575
33575
33467
33467
33467
33445
33445
33445
33445
33423
33423
33423
33445
33445
33445
33532
33532
33532
33445
33445
33445
33597
33597
33597
33597
33532
33532
33532
33401
33401
33401
33510
33510
33510
33467
33467
33467
33597
33597
33597
33597
33554
33554
33554
33532
33532
33532
33684
33684
33684
33467
33467
33467
33554
33554
33554
33554
33597
33597
33597
33510
33510
33510
33532
33532
33532
33467
33467
33467
33597
33597
33597
33597
33662
33662
33662
33488
33488
33488
33554
33554
33554
33467
33467
33467
33575
33575
33575
33575
33793
33793
33793
33532
33532
33532
33597
33597
33597
33467
33467
33467
33467
33467
33467
33467
33575
33575
33575
33488
33488
33488
33554
33554
33554
33488
33488
33488
33597
33597
33597
33597
33423
33423
33423
33358
33358
33358
33554
33554
33554
33532
33532
33532
33554
33554
33554
33554
33532
33532
33532
33423
33423
33423
33488
33488
33488
33467
33467
33467
33532
33532
33532
33532
33641
33641
33641
33488
33488
33488
33532
33532
33532
33488
33488
33488
33532
33532
33532
33532
33554
33554
33554
33401
33401
33401
33597
33597
33597
33445
33445
33445
33510
33510
33510
33510
33684
33684
33684
33445
33445
33445
33510
33510
33510
33488
33488
33488
33554
33554
33554
33554
33619
33619
33619
33488
33488
33488
33467
33467
33467
33488
33488
33488
33706
33706
33706
33706
33554
33554
33554
33532
33532
33532
33575
33575
33575
33445
33445
33445
33597
33597
33597
33597
33532
33532
33532
33467
33467
33467
33575
33575
33575
33314
33314
33314
33554
33554
33554
33554
33575
33575
33575
33423
33423
33423
33467
33467
33467
33488
33488
33488
33597
33597
33597
33597
33554
33554
33554
33445
33445
33445
33575
33575
33575
33467
33467
33467
33619
33619
33619
33619
33554
33554
33554
33445
33445
33445
33597
33597
33597
33510
33510
33510
33554
33554
33554
33554
33706
33706
33706
33510
33510
33510
33575
33575
33575
33423
33423
33423
33510
33510
33510
33510
33554
33554
33554
33445
33445
33445
33619
33619
33619
33488
33488
33488
33554
33554
33554
33554
33554
33554
33554
33379
33379
33379
33554
33554
33554
33532
33532
33532
33423
33423
33423
33423
33554
33554
33554
33467
33467
33467
33532
33532
33532
33575
33575
33575
33488
33488
33488
33488
33488
33488
33488
33423
33423
33423
33662
33662
33662
33423
33423
33423
33532
33532
33532
33532
33575
33575
33575
33358
33358
33358
33532
33532
33532
33379
33379
33379
33662
33662
33662
33662
33554
33554
33554
33488
33488
33488
33532
33532
33532
33379
33379
33379
33619
33619
33619
33619
33619
33619
33619
33488
33488
33488
33467
33467
33467
33532
33532
33532
33488
33488
33488
33488
33532
33532
33532
33488
33488
33488
33554
33554
33554
33532
33532
33532
33619
33619
33619
33619
33554
33554
33554
33510
33510
33510
33597
33597
33597
33554
33554
33554
33641
33641
33641
33641
33532
33532
33532
33467
33467
33467
33575
33575
33575
33554
33554
33554
33575
33575
33575
33575
33575
33575
33575
33575
33575
33575
33619
33619
33619
33532
33532
33532
33532
33532
33532
33532
33554
33554
33554
33488
33488
33488
33575
33575
33575
33554
33554
33554
33510
33510
33510
33510
33554
33554
33554
33510
33510
33510
33597
33597
33597
33554
33554
33554
33684
33684
33684
33684
33554
33554
33554
33488
33488
33488
33554
33554
33554
33445
33445
33445
33423
33423
33423
33423
33554
33554
33554
33401
33401
33401
33488
33488
33488
33379
33379
33379
33597
33597
33597
33597
33488
33488
33488
33575
33575
33575
33662
33662
33662
33401
33401
33401
33597
33597
33597
33597
33532
33532
33532
33445
33445
33445
33467
33467
33467
33401
33401
33401
33597
33597
33597
33597
33575
33575
33575
33423
33423
33423
33597
33597
33597
33488
33488
33488
33510
33510
33510
33510
33706
33706
33706
33488
33488
33488
33641
33641
33641
33488
33488
33488
33575
33575
33575
33575
33619
33619
33619
33532
33532
33532
33619
33619
33619
33575
33575
33575
33467
33467
33467
33467
33554
33554
33554
33379
33379
33379
33575
33575
33575
33532
33532
33532
33510
33510
33510
33510
33510
33510
33510
33510
33510
33510
33619
33619
33619
33401
33401
33401
33554
33554
33554
33554
33532
33532
33532
33510
33510
33510
33488
33488
33488
33510
33510
33510
33771
33771
33771
33771
33575
33575
33575
33575
33575
33575
33575
33575
33575
33532
33532
33532
33554
33554
33554
33554
33597
33597
33597
33532
33532
33532
33575
33575
33575
33510
33510
33510
33619
33619
33619
33619
33619
33619
33619
33445
33445
33445
33575
33575
33575
33401
33401
33401
33532
33532
33532
33532
33467
33467
33467
33467
33467
33467
33575
33575
33575
33575
33575
33575
33554
33554
33554
33554
33532
33532
33532
33575
33575
33575
33619
33619
33619
33423
33423
33423
33575
33575
33575
33575
33575
33575
33575
33445
33445
33445
33488
33488
33488
33488
33488
33488
33554
33554
33554
33554
33662
33662
33662
33488
33488
33488
33488
33488
33488
33467
33467
33467
33488
33488
33488
33488
33401
33401
33401
33554
33554
33554
33597
33597
33597
33575
33575
33575
33532
33532
33532
33532
33619
33619
33619
33532
33532
33532
33532
33532
33532
33467
33467
33467
33488
33488
33488
33488
33684
33684
33684
33445
33445
33445
33554
33554
33554
33445
33445
33445
33575
33575
33575
33575
33641
33641
33641
33423
33423
33423
33510
33510
33510
33510
33510
33510
33532
33532
33532
33532
33532
33532
33532
33510
33510
33510
33488
33488
33488
33488
33488
33488
33554
33554
33554
33554
33662
33662
33662
33554
33554
33554
33510
33510
33510
33488
33488
33488
33532
33532
33532
33532
33488
33488
33488
33510
33510
33510
33532
33532
33532
33423
33423
33423
33575
33575
33575
33575
33575
33575
33575
33532
33532
33532
33445
33445
33445
33488
33488
33488
33706
33706
33706
33706
33619
33619
33619
33445
33445
33445
33575
33575
33575
33532
33532
33532
33554
33554
33554
33554
33554
33554
33554
33467
33467
33467
33597
33597
33597
33510
33510
33510
33532
33532
33532
33532
33641
33641
33641
33445
33445
33445
33467
33467
33467
33467
33467
33467
33488
33488
33488
33488
33619
33619
33619
33488
33488
33488
33554
33554
33554
33467
33467
33467
33575
33575
33575
33575
33510
33510
33510
33467
33467
33467
33554
33554
33554
33488
33488
33488
33575
33575
33575
33575
33554
33554
33554
33467
33467
33467
33554
33554
33554
33445
33445
33445
33532
33532
33532
33532
33510
33510
33510
33467
33467
33467
33575
33575
33575
33467
33467
33467
33510
33510
33510
33510
33554
33554
33554
33554
33554
33554
33532
33532
33532
33379
33379
33379
33575
33575
33575
33575
33488
33488
33488
33467
33467
33467
33510
33510
33510
33488
33488
33488
33532
33532
33532
33532
33532
33532
33532
33467
33467
33467
33532
33532
33532
33445
33445
33445
33401
33401
33401
33401
33554
33554
33554
33575
33575
33575
33575
33575
33575
33575
33575
33575
33554
33554
33554
33554
33467
33467
33467
33488
33488
33488
33554
33554
33554
33510
33510
33510
33597
33597
33597
33597
33575
33575
33575
33467
33467
33467
33532
33532
33532
33510
33510
33510
33575
33575
33575
33575
33532
33532
33532
33401
33401
33401
33554
33554
33554
33445
33445
33445
33597
33597
33597
33597
33554
33554
33554
33467
33467
33467
33597
33597
33597
33510
33510
33510
33510
33510
33510
33510
33532
33532
33532
33423
33423
33423
33554
33554
33554
33488
33488
33488
33641
33641
33641
33641
33575
33575
33575
33467
33467
33467
33597
33597
33597
33510
33510
33510
33532
33532
33532
33532
33619
33619
33619
33488
33488
33488
33532
33532
33532
33445
33445
33445
33597
33597
33597
33597
33554
33554
33554
33467
33467
33467
33467
33467
33467
33488
33488
33488
33662
33662
33662
33662
33510
33510
33510
33445
33445
33445
33575
33575
33575
33488
33488
33488
33554
33554
33554
33554
33619
33619
33619
33467
33467
33467
33554
33554
33554
33532
33532
33532
33575
33575
33575
33575
33532
33532
33532
33423
33423
33423
33336
33336
33336
33488
33488
33488
33510
33510
33510
33510
33684
33684
33684
33445
33445
33445
33510
33510
33510
33510
33510
33510
33575
33575
33575
33575
33554
33554
33554
33445
33445
33445
33532
33532
33532
33619
33619
33619
33597
33597
33597
33597
33510
33510
33510
33445
33445
33445
33597
33597
33597
33488
33488
33488
33619
33619
33619
33619
33575
33575
33575
33488
33488
33488
33554
33554
33554
33423
33423
33423
33488
33488
33488
33488
33554
33554
33554
33445
33445
33445
33554
33554
33554
33445
33445
33445
33532
33532
33532
33532
33662
33662
33662
33488
33488
33488
33793
33793
33793
33467
33467
33467
33423
33423
33423
33423
33575
33575
33575
33575
33575
33575
33532
33532
33532
33379
33379
33379
33532
33532
33532
33532
33575
33575
33575
33445
33445
33445
33619
33619
33619
33292
33292
33292
33510
33510
33510
33510
33641
33641
33641
33445
33445
33445
33597
33597
33597
33488
33488
33488
33554
33554
33554
33554
33554
33554
33554
33467
33467
33467
33532
33532
33532
33467
33467
33467
33401
33401
33401
33401
33554
33554
33554
33488
33488
33488
33662
33662
33662
33467
33467
33467
33575
33575
33575
33575
33467
33467
33467
33445
33445
33445
33641
33641
33641
33467
33467
33467
33488
33488
33488
33488
33597
33597
33597
33619
33619
33619
33488
33488
33488
33423
33423
33423
33641
33641
33641
33641
33488
33488
33488
33467
33467
33467
33532
33532
33532
33423
33423
33423
33532
33532
33532
33532
33575
33575
33575
33488
33488
33488
33684
33684
33684
33423
33423
33423
33467
33467
33467
33467
33554
33554
33554
33445
33445
33445
33488
33488
33488
33467
33467
33467
33532
33532
33532
33532
33575
33575
33575
33467
33467
33467
33510
33510
33510
33488
33488
33488
33532
33532
33532
33532
33554
33554
33554
33488
33488
33488
33510
33510
33510
33554
33554
33554
33532
33532
33532
33532
33575
33575
33575
33488
33488
33488
33684
33684
33684
33423
33423
33423
33532
33532
33532
33532
33597
33597
33597
33488
33488
33488
33619
33619
33619
33532
33532
33532
33575
33575
33575
33575
33575
33575
33575
33510
33510
33510
33662
33662
33662
33597
33597
33597
33641
33641
33641
33641
33575
33575
33575
33532
33532
33532
33532
33532
33532
33641
33641
33641
33619
33619
33619
33619
33575
33575
33575
33423
33423
33423
33488
33488
33488
33445
33445
33445
33575
33575
33575
33575
33641
33641
33641
33575
33575
33575
33488
33488
33488
33510
33510
33510
33641
33641
33641
33641
33554
33554
33554
33445
33445
33445
33619
33619
33619
33467
33467
33467
33554
33554
33554
33554
33467
33467
33467
33597
33597
33597
33619
33619
33619
33554
33554
33554
33532
33532
33532
33532
33575
33575
33575
33532
33532
33532
33728
33728
33728
33467
33467
33467
33423
33423
33423
33423
33575
33575
33575
33379
33379
33379
33662
33662
33662
33510
33510
33510
33510
33510
33510
33510
33488
33488
33488
33445
33445
33445
33510
33510
33510
33510
33510
33510
33554
33554
33554
33554
33488
33488
33488
33467
33467
33467
33336
33336
33336
33445
33445
33445
33554
33554
33554
33554
33619
33619
33619
33532
33532
33532
33554
33554
33554
33445
33445
33445
33575
33575
33575
33575
33575
33575
33575
33510
33510
33510
33510
33510
33510
33379
33379
33379
33575
33575
33575
33575
33706
33706
33706
33488
33488
33488
33597
33597
33597
33423
33423
33423
33467
33467
33467
33467
33728
33728
33728
33554
33554
33554
33510
33510
33510
33467
33467
33467
33575
33575
33575
33575
33532
33532
33532
33554
33554
33554
33619
33619
33619
33467
33467
33467
33554
33554
33554
33554
33662
33662
33662
33467
33467
33467
33684
33684
33684
33488
33488
33488
33619
33619
33619
33619
33532
33532
33532
33358
33358
33358
33532
33532
33532
33532
33532
33532
33619
33619
33619
33619
33554
33554
33554
33423
33423
33423
33532
33532
33532
33314
33314
33314
33575
33575
33575
33575
33336
33336
33336
33445
33445
33445
33554
33554
33554
33510
33510
33510
33662
33662
33662
33662
33575
33575
33575
33401
33401
33401
33532
33532
33532
33467
33467
33467
33575
33575
33575
33575
33532
33532
33532
33379
33379
33379
33510
33510
33510
33554
33554
33554
33597
33597
33597
33597
33510
33510
33510
33488
33488
33488
33532
33532
33532
33488
33488
33488
33575
33575
33575
33575
33684
33684
33684
33554
33554
33554
33554
33554
33554
33445
33445
33445
33619
33619
33619
33619
33706
33706
33706
33488
33488
33488
33532
33532
33532
33641
33641
33641
33597
33597
33597
33597
33554
33554
33554
33401
33401
33401
33575
33575
33575
33510
33510
33510
33728
33728
33728
33728
33510
33510
33510
33401
33401
33401
33597
33597
33597
33467
33467
33467
33532
33532
33532
33532
33510
33510
33510
33488
33488
33488
33575
33575
33575
33358
33358
33358
33597
33597
33597
33597
33467
33467
33467
33445
33445
33445
33510
33510
33510
33488
33488
33488
33532
33532
33532
33532
33423
33423
33423
33379
33379
33379
33532
33532
33532
33445
33445
33445
33597
33597
33597
33597
33575
33575
33575
33379
33379
33379
33575
33575
33575
33532
33532
33532
33488
33488
33488
33488
33467
33467
33467
33488
33488
33488
33597
33597
33597
33575
33575
33575
33467
33467
33467
33467
33488
33488
33488
33401
33401
33401
33575
33575
33575
33510
33510
33510
33532
33532
33532
33532
33532
33532
33532
33467
33467
33467
33532
33532
33532
33336
33336
33336
33597
33597
33597
33597
33379
33379
33379
33445
33445
33445
33597
33597
33597
33467
33467
33467
33575
33575
33575
33575
33575
33575
33575
33379
33379
33379
33554
33554
33554
33554
33554
33554
33749
33749
33749
33749
33641
33641
33641
33532
33532
33532
33619
33619
33619
33423
33423
33423
33575
33575
33575
33575
33641
33641
33641
33336
33336
33336
33510
33510
33510
33488
33488
33488
33467
33467
33467
33467
33554
33554
33554
33358
33358
33358
33532
33532
33532
33445
33445
33445
33532
33532
33532
33532
33532
33532
33532
33467
33467
33467
33575
33575
33575
33641
33641
33641
33597
33597
33597
33597
33706
33706
33706
33488
33488
33488
33662
33662
33662
33488
33488
33488
33575
33575
33575
33575
33597
33597
33597
33554
33554
33554
33575
33575
33575
33467
33467
33467
33510
33510
33510
33510
33488
33488
33488
33488
33488
33488
33575
33575
33575
33488
33488
33488
33575
33575
33575
33575
33401
33401
33401
33510
33510
33510
33510
33510
33510
33423
33423
33423
33619
33619
33619
33619
33445
33445
33445
33488
33488
33488
33575
33575
33575
33488
33488
33488
33662
33662
33662
33662
33510
33510
33510
33445
33445
33445
33575
33575
33575
33488
33488
33488
33597
33597
33597
33597
33532
33532
33532
33445
33445
33445
33554
33554
33554
33510
33510
33510
33532
33532
33532
33532
33575
33575
33575
33467
33467
33467
33575
33575
33575
33467
33467
33467
33597
33597
33597
33597
33554
33554
33554
33532
33532
33532
33597
33597
33597
33488
33488
33488
33554
33554
33554
33554
33488
33488
33488
33510
33510
33510
33554
33554
33554
33488
33488
33488
33575
33575
33575
33575
33641
33641
33641
33445
33445
33445
33554
33554
33554
33488
33488
33488
33467
33467
33467
33467
33575
33575
33575
33467
33467
33467
33575
33575
33575
33467
33467
33467
33597
33597
33597
33597
33619
33619
33619
33488
33488
33488
33554
33554
33554
33554
33554
33554
33532
33532
33532
33532
33641
33641
33641
33467
33467
33467
33554
33554
33554
33467
33467
33467
33619
33619
33619
33619
33597
33597
33597
33488
33488
33488
33554
33554
33554
33510
33510
33510
33575
33575
33575
33575
33575
33575
33575
33467
33467
33467
33532
33532
33532
33336
33336
33336
33554
33554
33554
33554
33554
33554
33554
33510
33510
33510
33597
33597
33597
33467
33467
33467
33510
33510
33510
33510
33554
33554
33554
33467
33467
33467
33619
33619
33619
33532
33532
33532
33575
33575
33575
33575
33597
33597
33597
33445
33445
33445
33575
33575
33575
33510
33510
33510
33554
33554
33554
33554
33554
33554
33554
33445
33445
33445
33554
33554
33554
33510
33510
33510
33532
33532
33532
33532
33597
33597
33597
33597
33597
33597
33597
33597
33597
33488
33488
33488
33575
33575
33575
33575
33619
33619
33619
33488
33488
33488
33575
33575
33575
33488
33488
33488
33510
33510
33510
33510
33488
33488
33488
33467
33467
33467
33467
33467
33467
33445
33445
33445
33619
33619
33619
33619
33488
33488
33488
33467
33467
33467
33554
33554
33554
33532
33532
33532
33575
33575
33575
33575
33488
33488
33488
33445
33445
33445
33597
33597
33597
33488
33488
33488
33554
33554
33554
33554
33423
33423
33423
33488
33488
33488
33597
33597
33597
33488
33488
33488
33597
33597
33597
33597
33532
33532
33532
33532
33532
33532
33619
33619
33619
33532
33532
33532
33619
33619
33619
33619
33554
33554
33554
33445
33445
33445
33575
33575
33575
33401
33401
33401
33619
33619
33619
33619
33445
33445
33445
33467
33467
33467
33641
33641
33641
33467
33467
33467
33423
33423
33423
33423
33467
33467
33467
33423
33423
33423
33619
33619
33619
33488
33488
33488
33532
33532
33532
33532
33706
33706
33706
33575
33575
33575
33532
33532
33532
33467
33467
33467
33554
33554
33554
33554
33554
33554
33554
33532
33532
33532
33510
33510
33510
33488
33488
33488
33554
33554
33554
33554
33575
33575
33575
33619
33619
33619
33554
33554
33554
33488
33488
33488
33575
33575
33575
33575
33445
33445
33445
33467
33467
33467
33597
33597
33597
33467
33467
33467
33575
33575
33575
33575
33488
33488
33488
33554
33554
33554
33336
33336
33336
33467
33467
33467
33619
33619
33619
33619
33641
33641
33641
33510
33510
33510
33575
33575
33575
33575
33575
33575
33575
33575
33575
33575
33597
33597
33597
33532
33532
33532
33423
33423
33423
33510
33510
33510
33575
33575
33575
33575
33662
33662
33662
33532
33532
33532
33554
33554
33554
33510
33510
33510
33423
33423
33423
33423
33641
33641
33641
33554
33554
33554
33554
33554
33554
33510
33510
33510
33597
33597
33597
33597
33728
33728
33728
33488
33488
33488
33597
33597
33597
33488
33488
33488
33575
33575
33575
33575
33619
33619
33619
33488
33488
33488
33575
33575
33575
33532
33532
33532
33597
33597
33597
33597
33532
33532
33532
33379
33379
33379
33575
33575
33575
33510
33510
33510
33575
33575
33575
33575
33575
33575
33575
33401
33401
33401
33488
33488
33488
33488
33488
33488
33554
33554
33554
33554
33445
33445
33445
33423
33423
33423
33597
33597
33597
33488
33488
33488
33619
33619
33619
33619
33488
33488
33488
33445
33445
33445
33575
33575
33575
33597
33597
33597
33532
33532
33532
33532
33423
33423
33423
33423
33423
33423
33597
33597
33597
33467
33467
33467
33510
33510
33510
33510
33619
33619
33619
33401
33401
33401
33532
33532
33532
33488
33488
33488
33641
33641
33641
33641
33554
33554
33554
33575
33575
33575
33684
33684
33684
33554
33554
33554
33510
33510
33510
33510
33575
33575
33575
33467
33467
33467
33619
33619
33619
33423
33423
33423
33488
33488
33488
33488
33510
33510
33510
33510
33510
33510
33597
33597
33597
33467
33467
33467
33554
33554
33554
33554
33575
33575
33575
33532
33532
33532
33575
33575
33575
33597
33597
33597
33554
33554
33554
33554
33379
33379
33379
33423
33423
33423
33554
33554
33554
33488
33488
33488
33510
33510
33510
33510
33575
33575
33575
33379
33379
33379
33554
33554
33554
33532
33532
33532
33662
33662
33662
33662
33554
33554
33554
33401
33401
33401
33575
33575
33575
33445
33445
33445
33575
33575
33575
33575
33554
33554
33554
33445
33445
33445
33554
33554
33554
33488
33488
33488
33554
33554
33554
33554
33554
33554
33554
33379
33379
33379
33575
33575
33575
33510
33510
33510
33423
33423
33423
33423
33554
33554
33554
33488
33488
33488
33532
33532
33532
33401
33401
33401
33575
33575
33575
33575
33488
33488
33488
33488
33488
33488
33554
33554
33554
33510
33510
33510
33597
33597
33597
33597
33575
33575
33575
33532
33532
33532
33619
33619
33619
33488
33488
33488
33728
33728
33728
33728
33532
33532
33532
33467
33467
33467
33575
33575
33575
33358
33358
33358
33619
33619
33619
33619
33597
33597
33597
33510
33510
33510
33554
33554
33554
33467
33467
33467
33575
33575
33575
33575
33488
33488
33488
33488
33488
33488
33597
33597
33597
33510
33510
33510
33467
33467
33467
33467
33575
33575
33575
33575
33575
33575
33575
33575
33575
33488
33488
33488
33510
33510
33510
33510
33684
33684
33684
33510
33510
33510
33575
33575
33575
33554
33554
33554
33554
33554
33554
33554
33597
33597
33597
33445
33445
33445
33554
33554
33554
33467
33467
33467
33445
33445
33445
33445
33510
33510
33510
33554
33554
33554
33597
33597
33597
33445
33445
33445
33575
33575
33575
33575
33575
33575
33575
33510
33510
33510
33575
33575
33575
33510
33510
33510
33532
33532
33532
33532
33684
33684
33684
33488
33488
33488
33554
33554
33554
33467
33467
33467
33554
33554
33554
33554
33554
33554
33554
33554
33554
33554
33532
33532
33532
33445
33445
33445
33532
33532
33532
33532
33597
33597
33597
33445
33445
33445
33554
33554
33554
33423
33423
33423
33554
33554
33554
33554
33706
33706
33706
33488
33488
33488
33532
33532
33532
33467
33467
33467
33532
33532
33532
33532
33554
33554
33554
33467
33467
33467
33575
33575
33575
33488
33488
33488
33575
33575
33575
33575
33554
33554
33554
33554
33554
33554
33597
33597
33597
33532
33532
33532
33554
33554
33554
33554
33488
33488
33488
33488
33488
33488
33510
33510
33510
33488
33488
33488
33532
33532
33532
33532
33575
33575
33575
33445
33445
33445
33575
33575
33575
33467
33467
33467
33641
33641
33641
33641
33575
33575
33575
33467
33467
33467
33597
33597
33597
33467
33467
33467
33575
33575
33575
33575
33684
33684
33684
33488
33488
33488
33597
33597
33597
33445
33445
33445
33554
33554
33554
33554
33575
33575
33575
33467
33467
33467
33575
33575
33575
33445
33445
33445
33554
33554
33554
33554
33641
33641
33641
33467
33467
33467
33597
33597
33597
33488
33488
33488
33510
33510
33510
33510
33575
33575
33575
33510
33510
33510
33532
33532
33532
33467
33467
33467
33554
33554
33554
33554
33554
33554
33554
33445
33445
33445
33597
33597
33597
33510
33510
33510
33662
33662
33662
33662
33575
33575
33575
33467
33467
33467
33554
33554
33554
33532
33532
33532
33554
33554
33554
33554
33554
33554
33554
33510
33510
33510
33554
33554
33554
33488
33488
33488
33597
33597
33597
33597
33619
33619
33619
33510
33510
33510
33662
33662
33662
33488
33488
33488
33575
33575
33575
33575
33532
33532
33532
33488
33488
33488
33554
33554
33554
33619
33619
33619
33619
33619
33619
33619
33641
33641
33641
33488
33488
33488
33619
33619
33619
33510
33510
33510
33597
33597
33597
33597
33554
33554
33554
33488
33488
33488
33728
33728
33728
33619
33619
33619
33575
33575
33575
33575
33575
33575
33575
33423
33423
33423
33575
33575
33575
33467
33467
33467
33467
33467
33467
33467
33510
33510
33510
33488
33488
33488
33554
33554
33554
33554
33554
33554
33575
33575
33575
33575
33728
33728
33728
33467
33467
33467
33575
33575
33575
33554
33554
33554
33662
33662
33662
33662
33597
33597
33597
33488
33488
33488
33597
33597
33597
33532
33532
33532
33575
33575
33575
33575
33510
33510
33510
33401
33401
33401
33575
33575
33575
33445
33445
33445
33684
33684
33684
33684
33641
33641
33641
33467
33467
33467
33597
33597
33597
33532
33532
33532
33662
33662
33662
33662
33662
33662
33662
33467
33467
33467
33532
33532
33532
33488
33488
33488
33532
33532
33532
33532
33575
33575
33575
33532
33532
33532
33532
33532
33532
33358
33358
33358
33488
33488
33488
33488
33662
33662
33662
33445
33445
33445
33575
33575
33575
33532
33532
33532
33554
33554
33554
33554
33554
33554
33554
33510
33510
33510
33771
33771
33771
33488
33488
33488
33532
33532
33532
33532
33575
33575
33575
33554
33554
33554
33554
33554
33554
33532
33532
33532
33575
33575
33575
33575
33575
33575
33575
33467
33467
33467
33554
33554
33554
33532
33532
33532
33641
33641
33641
33641
33597
33597
33597
33488
33488
33488
33554
33554
33554
33423
33423
33423
33358
33358
33358
33358
33575
33575
33575
33314
33314
33314
33488
33488
33488
33379
33379
33379
33532
33532
33532
33532
33532
33532
33532
33467
33467
33467
33597
33597
33597
33358
33358
33358
33597
33597
33597
33597
33575
33575
33575
33575
33575
33575
33510
33510
33510
33488
33488
33488
33532
33532
33532
33532
33554
33554
33554
33532
33532
33532
33684
33684
33684
33445
33445
33445
33575
33575
33575
33575
33575
33575
33575
33445
33445
33445
33532
33532
33532
33249
33249
33249
33532
33532
33532
33532
33597
33597
33597
33401
33401
33401
33510
33510
33510
33467
33467
33467
33575
33575
33575
33575
33575
33575
33575
33467
33467
33467
33619
33619
33619
33488
33488
33488
33771
33771
33771
33771
33575
33575
33575
33575
33575
33575
33619
33619
33619
33445
33445
33445
33554
33554
33554
33554
33575
33575
33575
33510
33510
33510
33532
33532
33532
33467
33467
33467
33575
33575
33575
33575
33575
33575
33575
33401
33401
33401
33336
33336
33336
33488
33488
33488
33510
33510
33510
33510
33575
33575
33575
33358
33358
33358
33554
33554
33554
33532
33532
33532
33575
33575
33575
33575
33445
33445
33445
33467
33467
33467
33532
33532
33532
33423
33423
33423
33597
33597
33597
33597
33510
33510
33510
33423
33423
33423
33706
33706
33706
33510
33510
33510
33575
33575
33575
33575
33619
33619
33619
33619
33619
33619
33619
33619
33619
33467
33467
33467
33554
33554
33554
33554
33641
33641
33641
33532
33532
33532
33575
33575
33575
33423
33423
33423
33619
33619
33619
33619
33554
33554
33554
33423
33423
33423
33575
33575
33575
33467
33467
33467
33510
33510
33510
33510
33510
33510
33510
33467
33467
33467
33554
33554
33554
33510
33510
33510
33554
33554
33554
33554
33532
33532
33532
33467
33467
33467
33597
33597
33597
33488
33488
33488
33597
33597
33597
33597
33467
33467
33467
33510
33510
33510
33684
33684
33684
33488
33488
33488
33641
33641
33641
33641
33641
33641
33641
33662
33662
33662
33619
33619
33619
33445
33445
33445
33467
33467
33467
33467
33684
33684
33684
33488
33488
33488
33532
33532
33532
33445
33445
33445
33532
33532
33532
33532
33597
33597
33597
33467
33467
33467
33575
33575
33575
33488
33488
33488
33597
33597
33597
33597
33467
33467
33467
33488
33488
33488
33662
33662
33662
33467
33467
33467
33706
33706
33706
33706
33554
33554
33554
33445
33445
33445
33575
33575
33575
33467
33467
33467
33532
33532
33532
33532
33619
33619
33619
33510
33510
33510
33554
33554
33554
33488
33488
33488
33597
33597
33597
33597
33728
33728
33728
33532
33532
33532
33532
33532
33532
33467
33467
33467
33575
33575
33575
33575
33510
33510
33510
33401
33401
33401
33532
33532
33532
33467
33467
33467
33554
33554
33554
33554
33488
33488
33488
33467
33467
33467
33575
33575
33575
33510
33510
33510
33532
33532
33532
33532
33684
33684
33684
33488
33488
33488
33597
33597
33597
33488
33488
33488
33619
33619
33619
33619
33575
33575
33575
33467
33467
33467
33532
33532
33532
33488
33488
33488
33532
33532
33532
33532
33597
33597
33597
33488
33488
33488
33575
33575
33575
33467
33467
33467
33554
33554
33554
33554
33597
33597
33597
33445
33445
33445
33575
33575
33575
33467
33467
33467
33597
33597
33597
33597
33641
33641
33641
33467
33467
33467
33554
33554
33554
33467
33467
33467
33488
33488
33488
33488
33575
33575
33575
33575
33575
33575
33575
33575
33575
33532
33532
33532
33532
33532
33532
33532
33575
33575
33575
33510
33510
33510
33575
33575
33575
33445
33445
33445
33532
33532
33532
33532
33575
33575
33575
33510
33510
33510
33619
33619
33619
33467
33467
33467
33597
33597
33597
33597
33575
33575
33575
33510
33510
33510
33575
33575
33575
33445
33445
33445
33554
33554
33554
33554
33575
33575
33575
33467
33467
33467
33575
33575
33575
33488
33488
33488
33619
33619
33619
33619
33749
33749
33749
33467
33467
33467
33510
33510
33510
33510
33510
33510
33575
33575
33575
33575
33554
33554
33554
33467
33467
33467
33554
33554
33554
33467
33467
33467
33597
33597
33597
33597
33641
33641
33641
33467
33467
33467
33575
33575
33575
33401
33401
33401
33575
33575
33575
33575
33554
33554
33554
33423
33423
33423
33532
33532
33532
33467
33467
33467
33423
33423
33423
33423
33575
33575
33575
33467
33467
33467
33554
33554
33554
33445
33445
33445
33554
33554
33554
33554
33575
33575
33575
33445
33445
33445
33532
33532
33532
33467
33467
33467
33575
33575
33575
33575
33641
33641
33641
33467
33467
33467
33706
33706
33706
33467
33467
33467
33554
33554
33554
33554
33554
33554
33554
33336
33336
33336
33575
33575
33575
33510
33510
33510
33554
33554
33554
33554
33510
33510
33510
33532
33532
33532
33554
33554
33554
33467
33467
33467
33554
33554
33554
33554
33641
33641
33641
33445
33445
33445
33619
33619
33619
33445
33445
33445
33423
33423
33423
33423
33554
33554
33554
33445
33445
33445
33532
33532
33532
33532
33532
33532
33510
33510
33510
33510
33554
33554
33554
33467
33467
33467
33575
33575
33575
33488
33488
33488
33554
33554
33554
33554
33532
33532
33532
33488
33488
33488
33641
33641
33641
33445
33445
33445
33597
33597
33597
33597
33575
33575
33575
33423
33423
33423
33554
33554
33554
33510
33510
33510
33445
33445
33445
33445
33532
33532
33532
33314
33314
33314
33575
33575
33575
33379
33379
33379
33575
33575
33575
33575
33488
33488
33488
33445
33445
33445
33575
33575
33575
33510
33510
33510
33510
33510
33510
33510
33532
33532
33532
33510
33510
33510
33575
33575
33575
33445
33445
33445
33510
33510
33510
33510
33554
33554
33554
33510
33510
33510
33575
33575
33575
33336
33336
33336
33619
33619
33619
33619
33532
33532
33532
33488
33488
33488
33597
33597
33597
33467
33467
33467
33510
33510
33510
33510
33554
33554
33554
33510
33510
33510
33532
33532
33532
33445
33445
33445
33619
33619
33619
33619
33554
33554
33554
33597
33597
33597
33597
33597
33597
33401
33401
33401
33641
33641
33641
33641
33532
33532
33532
33423
33423
33423
33597
33597
33597
33379
33379
33379
33641
33641
33641
33641
33532
33532
33532
33488
33488
33488
33554
33554
33554
33467
33467
33467
33445
33445
33445
33445
33554
33554
33554
33423
33423
33423
33641
33641
33641
33510
33510
33510
33619
33619
33619
33619
33575
33575
33575
33445
33445
33445
33467
33467
33467
33488
33488
33488
33510
33510
33510
33510
33510
33510
33510
33575
33575
33575
33749
33749
33749
33532
33532
33532
33554
33554
33554
33554
33510
33510
33510
33423
33423
33423
33510
33510
33510
33445
33445
33445
33532
33532
33532
33532
33641
33641
33641
33597
33597
33597
33597
33597
33597
33467
33467
33467
33597
33597
33597
33597
33597
33597
33597
33510
33510
33510
33619
33619
33619
33488
33488
33488
33510
33510
33510
33510
33488
33488
33488
33532
33532
33532
33510
33510
33510
33445
33445
33445
33641
33641
33641
33641
33554
33554
33554
33401
33401
33401
33532
33532
33532
33423
33423
33423
33597
33597
33597
33597
33554
33554
33554
33379
33379
33379
33510
33510
33510
33532
33532
33532
33575
33575
33575
33575
33771
33771
33771
33532
33532
33532
33423
33423
33423
33488
33488
33488
33532
33532
33532
33532
33488
33488
33488
33488
33488
33488
33575
33575
33575
33510
33510
33510
33467
33467
33467
33467
33488
33488
33488
33445
33445
33445
33554
33554
33554
33423
33423
33423
33575
33575
33575
33575
33445
33445
33445
33488
33488
33488
33554
33554
33554
33488
33488
33488
33575
33575
33575
33575
33597
33597
33597
33488
33488
33488
33554
33554
33554
33467
33467
33467
33619
33619
33619
33619
33641
33641
33641
33532
33532
33532
33554
33554
33554
33532
33532
33532
33597
33597
33597
33597
33532
33532
33532
33510
33510
33510
33597
33597
33597
33445
33445
33445
33575
33575
33575
33575
33619
33619
33619
33510
33510
33510
33641
33641
33641
33467
33467
33467
33554
33554
33554
33554
33554
33554
33554
33336
33336
33336
33575
33575
33575
33445
33445
33445
33532
33532
33532
33532
33554
33554
33554
33467
33467
33467
33575
33575
33575
33554
33554
33554
33597
33597
33597
33597
33619
33619
33619
33445
33445
33445
33554
33554
33554
33488
33488
33488
33575
33575
33575
33575
33554
33554
33554
33510
33510
33510
33597
33597
33597
33467
33467
33467
33597
33597
33597
33597
33641
33641
33641
33575
33575
33575
33554
33554
33554
33575
33575
33575
33662
33662
33662
33662
33554
33554
33554
33488
33488
33488
33532
33532
33532
33532
33532
33532
33575
33575
33575
33575
33575
33575
33575
33532
33532
33532
33619
33619
33619
33575
33575
33575
33749
33749
33749
33749
33597
33597
33597
33575
33575
33575
33488
33488
33488
33423
33423
33423
33662
33662
33662
33662
33619
33619
33619
33467
33467
33467
33684
33684
33684
33488
33488
33488
33488
33488
33488
33488
33554
33554
33554
33510
33510
33510
33467
33467
33467
33532
33532
33532
33401
33401
33401
33401
33532
33532
33532
33445
33445
33445
33554
33554
33554
33488
33488
33488
33532
33532
33532
33532
33554
33554
33554
33445
33445
33445
33554
33554
33554
33575
33575
33575
33619
33619
33619
33619
33641
33641
33641
33532
33532
33532
33728
33728
33728
33467
33467
33467
33641
33641
33641
33641
33554
33554
33554
33597
33597
33597
33641
33641
33641
33423
33423
33423
33532
33532
33532
33532
33423
33423
33423
33488
33488
33488
33619
33619
33619
33510
33510
33510
33510
33510
33510
33510
33619
33619
33619
33488
33488
33488
33510
33510
33510
33358
33358
33358
33597
33597
33597
33597
33554
33554
33554
33401
33401
33401
33445
33445
33445
33488
33488
33488
33575
33575
33575
33575
33597
33597
33597
33597
33597
33597
33532
33532
33532
33532
33532
33532
33619
33619
33619
33619
33554
33554
33554
33488
33488
33488
33445
33445
33445
33467
33467
33467
33575
33575
33575
33575
33423
33423
33423
33575
33575
33575
33510
33510
33510
33445
33445
33445
33532
33532
33532
33532
33554
33554
33554
33684
33684
33684
33619
33619
33619
33510
33510
33510
33575
33575
33575
33575
33358
33358
33358
33401
33401
33401
33554
33554
33554
33488
33488
33488
33554
33554
33554
33554
33554
33554
33554
33445
33445
33445
33554
33554
33554
33488
33488
33488
33619
33619
33619
33619
33532
33532
33532
33510
33510
33510
33575
33575
33575
33467
33467
33467
33575
33575
33575
33575
33597
33597
33597
33510
33510
33510
33597
33597
33597
33510
33510
33510
33554
33554
33554
33554
33510
33510
33510
33554
33554
33554
33619
33619
33619
33488
33488
33488
33575
33575
33575
33575
33510
33510
33510
33488
33488
33488
33619
33619
33619
33467
33467
33467
33597
33597
33597
33597
33554
33554
33554
33401
33401
33401
33532
33532
33532
33445
33445
33445
33554
33554
33554
33554
33575
33575
33575
33445
33445
33445
33510
33510
33510
33445
33445
33445
33532
33532
33532
33532
33532
33532
33532
33445
33445
33445
33662
33662
33662
33510
33510
33510
33488
33488
33488
33488
33554
33554
33554
33488
33488
33488
33554
33554
33554
33467
33467
33467
33575
33575
33575
33575
33575
33575
33575
33488
33488
33488
33597
33597
33597
33510
33510
33510
33532
33532
33532
33532
33641
33641
33641
33467
33467
33467
33445
33445
33445
33423
33423
33423
33619
33619
33619
33619
33532
33532
33532
33488
33488
33488
33554
33554
33554
33488
33488
33488
33532
33532
33532
33532
33532
33532
33532
33510
33510
33510
33554
33554
33554
33358
33358
33358
33554
33554
33554
33554
33532
33532
33532
33445
33445
33445
33554
33554
33554
33467
33467
33467
33619
33619
33619
33619
33575
33575
33575
33488
33488
33488
33532
33532
33532
33467
33467
33467
33641
33641
33641
33641
33532
33532
33532
33488
33488
33488
33554
33554
33554
33597
33597
33597
33532
33532
33532
33532
33510
33510
33510
33510
33510
33510
33488
33488
33488
33488
33488
33488
33597
33597
33597
33597
33706
33706
33706
33488
33488
33488
33488
33488
33488
33401
33401
33401
33532
33532
33532
33532
33575
33575
33575
33467
33467
33467
33684
33684
33684
33532
33532
33532
33597
33597
33597
33597
33467
33467
33467
33379
33379
33379
33488
33488
33488
33423
33423
33423
33554
33554
33554
33554
33488
33488
33488
33597
33597
33597
33575
33575
33575
33488
33488
33488
33532
33532
33532
33532
33575
33575
33575
33423
33423
33423
33554
33554
33554
33488
33488
33488
33336
33336
33336
33336
33619
33619
33619
33488
33488
33488
33510
33510
33510
33488
33488
33488
33554
33554
33554
33554
33619
