2086
2086
2086
2085
2085
2085
2088
2088
2088
2088
2088
2088
2088
2081
2081
2081
2090
2090
2090
2089
2089
2089
2084
2084
2084
2084
2091
2091
2091
2092
2092
2092
2088
2088
2088
2089
2089
2089
2090
2090
2090
2090
2087
2087
2087
2092
2092
2092
2088
2088
2088
2090
2090
2090
2088
2088
2088
2088
2092
2092
2092
2086
2086
2086
2093
2093
2093
2081
2081
2081
2092
2092
2092
2092
2087
2087
2087
2089
2089
2089
2092
2092
2092
2087
2090
2090
2087
2087
2087
2094
2094
2094
2094
2091
2091
2091
2087
2087
2087
2083
2083
2083
2087
2087
2087
2091
2091
2091
2091
2090
2090
2090
2086
2086
2086
2084
2084
2084
2087
2087
2087
2091
2091
2091
2091
2092
2092
2092
2087
2087
2087
2089
2089
2089
2087
2087
2087
2086
2086
2086
2086
2090
2090
2090
2089
2089
2089
2092
2092
2092
2087
2087
2087
2089
2089
2089
2089
2090
2090
2090
2087
2087
2087
2082
2082
2082
2089
2089
2089
2091
2091
2091
2091
2092
2092
2092
2088
2088
2088
2088
2088
2088
2086
2086
2086
2090
2090
2090
2090
2087
2087
2087
2084
2084
2084
2087
2087
2087
2088
2088
2088
2091
2091
2091
2091
2089
2089
2089
2087
2087
2087
2091
2091
2091
2080
2080
2080
2091
2091
2091
2091
2083
2083
2083
2086
2086
2086
2091
2091
2091
2083
2083
2083
2090
2090
2090
2090
2094
2094
2094
2087
2087
2087
2093
2093
2093
2086
2086
2086
2090
2090
2090
2090
2090
2090
2090
2087
2087
2087
2097
2097
2097
2088
2088
2088
2091
2091
2091
2091
2091
2091
2091
2083
2083
2083
2089
2089
2089
2087
2087
2087
2088
2088
2088
2088
2092
2092
2092
2085
2085
2085
2094
2094
2094
2087
2087
2087
2092
2092
2092
2092
2089
2089
2089
2090
2090
2090
2090
2090
2090
2086
2086
2086
2092
2092
2092
2092
2093
2093
2093
2084
2084
2084
2089
2089
2089
2085
2085
2085
2092
2092
2092
2092
2091
2091
2091
2081
2081
2081
2090
2090
2090
2085
2085
2085
2093
2093
2093
2093
2089
2089
2089
2091
2091
2091
2090
2090
2090
2086
2086
2086
2093
2093
2093
2093
2086
2086
2086
2084
2084
2084
2090
2090
2090
2087
2087
2087
2092
2092
2092
2092
2093
2093
2093
2084
2084
2084
2088
2088
2088
2086
2086
2086
2089
2089
2089
2089
2092
2092
2092
2083
2083
2083
2088
2088
2088
2088
2088
2088
2089
2089
2089
2089
2088
2088
2088
2090
2090
2090
2083
2083
2083
2087
2087
2087
2092
2092
2092
2092
2091
2091
2091
2086
2086
2086
2088
2088
2088
2086
2086
2086
2093
2093
2093
2093
2091
2091
2091
2096
2096
2096
2093
2093
2093
2087
2087
2087
2091
2091
2091
2091
2090
2090
2090
2088
2088
2088
2093
2093
2093
2088
2088
2088
2092
2092
2092
2092
2089
2089
2089
2088
2088
2088
2091
2091
2091
2090
2090
2090
2093
2093
2093
2093
2091
2091
2091
2088
2088
2088
2093
2093
2093
2090
2090
2090
2089
2089
2089
2089
2095
2095
2095
2086
2086
2086
2092
2092
2092
2085
2085
2085
2093
2093
2093
2093
2085
2085
2085
2089
2089
2089
2091
2091
2091
2090
2090
2090
2094
2094
2094
2094
2089
2089
2089
2093
2093
2093
2090
2090
2090
2087
2087
2087
2087
2087
2087
2087
2094
2094
2094
2088
2088
2088
2089
2089
2089
2086
2086
2086
2096
2096
2096
2096
2088
2088
2088
2085
2085
2085
2089
2089
2089
2087
2087
2087
2091
2091
2091
2091
2090
2090
2090
2086
2086
2086
2091
2091
2091
2087
2087
2087
2092
2092
2092
2092
2090
2090
2090
2096
2096
2096
2091
2091
2091
2087
2087
2087
2082
2082
2082
2082
2088
2088
2088
2088
2088
2088
2088
2088
2088
2089
2089
2089
2096
2096
2096
2096
2086
2086
2086
2093
2093
2093
2093
2093
2093
2089
2089
2089
2089
2089
2089
2089
2085
2085
2085
2084
2084
2084
2092
2092
2092
2082
2082
2082
2082
2082
2082
2082
2091
2091
2091
2088
2088
2088
2094
2094
2094
2088
2088
2088
2088
2088
2088
2088
2093
2093
2093
2089
2089
2089
2092
2092
2092
2086
2086
2086
2086
2086
2086
2086
2091
2091
2091
2089
2089
2089
2093
2093
2093
2085
2085
2085
2087
2087
2087
2087
2087
2087
2087
2087
2087
2087
2092
2092
2092
2086
2086
2086
2082
2082
2082
2082
2092
2092
2092
2084
2084
2084
2091
2091
2091
2086
2086
2086
2090
2090
2090
2090
2095
2095
2095
2086
2086
2086
2091
2091
2091
2085
2085
2085
2094
2094
2094
2094
2085
2085
2085
2086
2086
2086
2091
2091
2091
2086
2086
2086
2090
2090
2090
2090
2091
2091
2091
2090
2090
2090
2089
2089
2089
2089
2089
2089
2093
2093
2093
2093
2081
2081
2081
2087
2087
2087
2090
2090
2090
2078
2078
2078
2089
2089
2089
2089
2086
2086
2086
2086
2086
2086
2095
2095
2095
2084
2084
2084
2089
2089
2089
2089
2083
2083
2083
2086
2086
2086
2091
2091
2091
2090
2090
2090
2090
2090
2090
2090
2089
2089
2089
2087
2087
2087
2089
2089
2089
2088
2088
2088
2088
2088
2088
2088
2078
2078
2078
2089
2089
2089
2091
2091
2091
2084
2084
2084
2090
2090
2090
2090
2089
2089
2089
2083
2083
2083
2092
2092
2092
2086
2086
2086
2099
2099
2099
2099
2097
2097
2097
2081
2081
2081
2092
2092
2092
2085
2085
2085
2091
2091
2091
2091
2089
2089
2089
2083
2083
2083
2090
2090
2090
2089
2089
2089
2092
2092
2092
2092
2090
2090
2090
2085
2085
2085
2092
2092
2092
2085
2085
2085
2090
2090
2090
2090
2088
2088
2088
2088
2088
2088
2090
2090
2090
2089
2089
2089
2090
2090
2090
2090
2088
2088
2088
2084
2084
2084
2097
2097
2097
2088
2088
2088
2091
2091
2091
2091
2089
2089
2089
2086
2086
2086
2086
2086
2086
2093
2093
2093
2091
2091
2091
2091
2090
2090
2090
2086
2086
2086
2089
2089
2089
2088
2088
