2088
2088
2088
2088
2089
2089
2089
2083
2083
2083
2081
2081
2081
2087
2087
2087
2087
2087
2087
2087
2093
2093
2093
2083
2083
2083
2090
2090
2090
2085
2085
2085
2088
2088
2088
2088
2090
2090
2090
2083
2083
2083
2094
2094
2094
2083
2083
2083
2087
2087
2087
2087
2088
2088
2088
2083
2083
2083
2090
2090
2090
2088
2088
2088
2088
2088
2088
2088
2084
2084
2084
2085
2085
2085
2087
2087
2087
2082
2082
2082
2088
2088
2088
2088
2091
2091
2091
2089
2089
2089
2084
2084
2084
2088
2088
2088
2080
2080
2080
2085
2085
2085
2085
2079
2079
2079
2087
2087
2087
2085
2085
2085
2078
2078
2078
2088
2088
2088
2088
2089
2089
2089
2085
2085
2085
2088
2088
2088
2081
2081
2081
2088
2088
2088
2088
2097
2097
2097
2081
2081
2081
2088
2088
2088
2082
2082
2082
2089
2089
2089
2089
2087
2087
2087
2084
2084
2084
2087
2087
2087
2087
2087
2087
2086
2086
2086
2086
2091
2091
2091
2085
2085
2085
2085
2085
2085
2082
2082
2082
2090
2090
2090
2090
2085
2085
2085
2084
2084
2084
2082
2082
2082
2085
2085
2085
2086
2086
2086
2086
2091
2091
2091
2084
2084
2084
2091
2091
2091
2082
2082
2082
2089
2089
2089
2089
2086
2086
2086
2083
2083
2083
2088
2088
2088
2089
2089
2089
2086
2086
2086
2086
2091
2091
2091
2085
2085
2085
2088
2088
2088
2083
2083
2083
2087
2087
2087
2087
2090
2090
2090
2084
2084
2084
2086
2086
2086
2081
2081
2081
2088
2088
2088
2088
2084
2084
2084
2087
2087
2087
2089
2089
2089
2085
2085
2085
2087
2087
2087
2087
2088
2088
2088
2086
2086
2086
2090
2090
2090
2093
2093
2093
2089
2089
2089
2089
2090
2090
2090
2084
2084
2084
2088
2088
2088
2085
2085
2085
2087
2087
2087
2087
2089
2089
2089
2087
2087
2087
2092
2092
2092
2082
2082
2082
2088
2088
2088
2088
2090
2090
2090
2085
2085
2085
2090
2090
2090
2084
2084
2084
2089
2089
2089
2089
2089
2089
2089
2078
2078
2078
2087
2087
2087
2084
2084
2084
2088
2088
2088
2088
2087
2087
2087
2083
2083
2083
2087
2087
2087
2084
2084
2084
2090
2090
2090
2090
2089
2089
2089
2083
2083
2083
2087
2087
2087
2082
2082
2082
2089
2089
2089
2089
2091
2091
2091
2084
2084
2084
2086
2086
2086
2086
2086
2086
2087
2087
2087
2087
2087
2087
2087
2085
2085
2085
2089
2089
2089
2086
2086
2086
2087
2087
2087
2087
2087
2087
2087
2083
2083
2083
2084
2084
2084
2082
2082
2082
2087
2087
2087
2087
2088
2088
2088
2083
2083
2083
2089
2089
2089
2087
2087
2087
2088
2088
2088
2088
2091
2091
2091
2084
2084
2084
2087
2087
2087
2085
2085
2085
2088
2088
2088
2088
2088
2088
2088
2085
2085
2085
2094
2094
2094
2081
2081
2081
2088
2088
2088
2088
2089
2089
2089
2085
2085
2085
2091
2091
2091
2083
2083
2083
2088
2088
2088
2088
2087
2087
2087
2085
2085
2085
2087
2087
2087
2084
2084
2084
2091
2091
2091
2091
2088
2088
2088
2086
2086
2086
2077
2077
2077
2085
2085
2085
2090
2090
2090
2090
2088
2088
2088
2087
2087
2087
2087
2087
2087
2082
2082
2082
2088
2088
2088
2088
2088
2088
2088
2085
2085
2085
2088
2088
2088
2086
2086
2086
2089
2089
2089
2089
2088
2088
2088
2084
2084
2084
2087
2087
2087
2084
2084
2084
2090
2090
2090
2090
2086
2086
2086
2084
2084
2084
2086
2086
2086
2086
2086
2086
2087
2087
2087
2087
2084
2084
2084
2084
2084
2084
2092
2092
2092
2087
2087
2087
2089
2089
2089
2089
2089
2089
2089
2083
2083
2083
2088
2088
2088
2083
2083
2083
2087
2087
2087
2087
2087
2087
2087
2084
2084
2084
2085
2085
2085
2088
2088
2088
2093
2093
2093
2093
2089
2089
2089
2085
2085
2085
2090
2090
2090
2084
2084
2084
2087
2087
2087
2087
2090
2090
2090
2084
2084
2084
2088
2088
2088
2085
2085
2085
2093
2093
2093
2093
2090
2090
2090
2082
2082
2082
2087
2087
2087
2084
2084
2084
2089
2089
2089
2089
2091
2091
2091
2092
2092
2092
2079
2079
2079
2086
2086
2086
2089
2089
2089
2089
2088
2088
2088
2084
2084
2084
2087
2087
2087
2084
2084
2084
2094
2094
2094
2094
2087
2087
2087
2085
2085
2085
2088
2088
2088
2084
2084
2084
2089
2089
2089
2089
2089
2089
2089
2086
2086
2086
2087
2087
2087
2081
2081
2081
2088
2088
2088
2088
2087
2087
2087
2084
2084
2084
2088
2088
2088
2085
2085
2085
2089
2089
2089
2089
2088
2088
2088
2084
2084
2084
2092
2092
2092
2085
2085
2085
2089
2089
2089
2089
2088
2088
2088
2083
2083
2083
2087
2087
2087
2085
2085
2085
2087
2087
2087
2087
2088
2088
2088
2087
2087
2087
2087
2087
2087
2085
2085
2085
2087
2087
2087
2087
2088
2088
2088
2086
2086
2086
2087
2087
2087
2085
2085
2085
2089
2089
2089
2089
2088
2088
2088
2087
2087
2087
2092
2092
2092
2079
2079
2079
2089
2089
2089
2089
2095
2095
2095
2088
2088
2088
2088
2088
2088
2085
2085
2085
2084
2084
2084
2084
2079
2079
2079
2086
2086
2086
2086
2086
2086
2082
2082
2082
2091
2091
2091
2091
2086
2086
2086
2086
2086
2086
2090
2090
2090
2085
2085
2085
2086
2086
2086
2086
2088
2088
2088
2085
2085
2085
2089
2089
2089
2082
2082
2082
2087
2087
2087
2087
2089
2089
2089
2086
2086
2086
2090
2090
2090
2085
2085
2085
2087
2087
2087
2087
2087
2087
2087
2085
2085
2085
2086
2086
2086
2083
2083
2083
2086
2086
2086
2086
2086
2086
2086
2081
2081
2081
2088
2088
2088
2084
2084
2084
2087
2087
2087
2087
2090
2090
2090
2082
2082
2082
2089
2089
2089
2083
2083
2083
2092
2092
2092
2092
2087
2087
2087
2087
2087
2087
2087
2087
2087
2084
2084
2084
2092
2092
2092
2092
2085
