1942
1942
1942
1942
1942
1942
1942
1933
1933
1933
1939
1939
1939
1944
1944
1944
1941
1941
1941
1941
1937
1937
1937
1938
1938
1938
1947
1947
1947
1933
1933
1933
1942
1942
1942
1942
1941
1941
1941
1940
1940
1940
1939
1939
1939
1935
1935
1935
1940
1940
1940
1940
1940
1940
1940
1934
1934
1934
1942
1942
1942
1934
1934
1934
1945
1945
1945
1945
1939
1939
1939
1940
1940
1940
1940
1940
1940
1930
1930
1930
1940
1940
1940
1940
1941
1941
1941
1940
1940
1940
1941
1941
1941
1935
1935
1935
1940
1940
1940
1940
1941
1941
1941
1935
1935
1935
1941
1941
1941
1944
1944
1944
1936
1936
1936
1936
1939
1939
1939
1936
1936
1936
1941
1941
1941
1934
1934
1934
1941
1941
1941
1941
1939
1939
1939
1934
1934
1934
1940
1940
1940
1935
1935
1935
1942
1942
1942
1942
1938
1938
1938
1938
1938
1938
1940
1940
1940
1936
1936
1936
1941
1941
1941
1941
1951
1951
1951
1937
1937
1937
1941
1941
1941
1936
1936
1936
1938
1938
1938
1938
1941
1941
1941
1936
1936
1936
1938
1938
1938
1936
1936
1936
1938
1938
1938
1938
1939
1939
1939
1938
1938
1938
1951
1951
1951
1938
1938
1938
1942
1942
1942
1942
1942
1942
1942
1938
1938
1938
1940
1940
1940
1942
1942
1942
1942
1942
1942
1942
1938
1938
1938
1937
1937
1937
1938
1938
1938
1936
1936
1936
1940
1940
1940
1940
1940
1940
1940
1932
1932
1932
1941
1941
1941
1939
1939
1939
1943
1943
1943
1943
1939
1939
1939
1937
1937
1937
1941
1941
1941
1934
1934
1934
1938
1938
1938
1938
1940
1940
1940
1937
1937
1937
1943
1943
1943
1937
1937
1937
1942
1942
1942
1942
1941
1941
1941
1933
1933
1933
1940
1940
1940
1938
1938
1938
1940
1940
1940
1940
1937
1937
1937
1937
1937
1937
1944
1944
1944
1936
1936
1936
1941
1941
1941
1941
1944
1944
1944
1937
1937
1937
1939
1939
1939
1938
1938
1938
1941
1941
1941
1941
1940
1940
1940
1935
1935
1935
1939
1939
1939
1938
1938
1938
1939
1939
1939
1939
1937
1937
1937
1937
1937
1937
1943
1943
1943
1941
1941
1941
1941
1941
1941
1941
1940
1940
1940
1937
1937
1937
1948
1948
1948
1937
1937
1937
1942
1942
1942
1942
1943
1943
1943
1941
1941
1941
1940
1940
1940
1937
1937
1937
1938
1938
1938
1938
1941
1941
1941
1937
1937
1937
1948
1948
1948
1939
1939
1939
1952
1952
1952
1952
1941
1941
1941
1939
1939
1939
1938
1938
1938
1935
1935
1935
1938
1938
1938
1938
1938
1938
1938
1921
1921
1921
1938
1938
1938
1938
1938
1938
1938
1938
1938
1938
1947
1947
1947
1936
1936
1936
1941
1941
1941
1938
1938
1938
1939
1939
1939
1939
1950
1950
1950
1937
1937
1937
1942
1942
1942
1936
1936
1936
1939
1939
1939
1939
1936
1936
1936
1932
1932
1932
1941
1941
1941
1940
1940
1940
1945
1945
1945
1945
1937
1937
1937
1936
1936
1936
1942
1942
1942
1943
1943
1943
1942
1942
1942
1942
1939
1939
1939
1938
1938
1938
1944
1944
1944
1935
1935
1935
1939
1939
1939
1939
1941
1941
1941
1944
1944
1944
1944
1944
1944
1934
1934
1934
1945
1945
1945
1945
1944
1944
1944
1937
1937
1937
1942
1942
1942
1938
1938
1938
1941
1941
1941
1941
1941
1941
1941
1939
1939
1939
1942
1942
1942
1941
1941
1941
1941
1941
1941
1941
1941
1941
1941
1938
1938
1938
1942
1942
1942
1933
1933
1933
1945
1945
1945
1945
1933
1933
1933
1935
1935
1935
1938
1938
1938
1935
1935
1935
1941
1941
1941
1941
1939
1939
1939
1936
1936
1936
1944
1944
1944
1938
1938
1938
1941
1941
1941
1941
1939
1939
1939
1939
1939
1939
1942
1942
1942
1935
1935
1935
1943
1943
1943
1943
1938
1938
1938
1938
1938
1938
1941
1941
1941
1944
1944
1944
1944
1944
1944
1944
1939
1939
1939
1940
1940
1940
1938
1938
1938
1941
1941
1941
1941
1941
1941
1941
1936
1936
1936
1938
1938
1938
1942
1942
1942
1936
1936
1936
1939
1939
1939
1939
1944
1944
1944
1946
1946
1946
1942
1942
1942
1936
1936
1936
1941
1941
1941
1941
1945
1945
1945
1934
1934
1934
1938
1938
1938
1937
1937
1937
1942
1942
1942
1942
1940
1940
1940
1934
1934
1934
1941
1941
1941
1937
1937
1937
1939
1939
1939
1939
1936
1936
1936
1935
1935
1935
1940
1940
1940
1934
1934
1934
1943
1943
1943
1943
1939
1939
1939
1934
1934
1934
1943
1943
1943
1932
1932
1932
1941
1941
1941
1941
1939
1939
1939
1937
1937
1937
1939
1939
1939
1938
1938
1938
1941
1941
1941
1941
1944
1944
1944
1938
1938
1938
1940
1940
1940
1933
1933
1933
1939
1939
1939
1939
1943
1943
1943
1938
1938
1938
1936
1936
1936
1939
1939
1939
1941
1941
1941
1941
1940
1940
1940
1934
1934
1934
1941
1941
1941
1939
1939
1939
1939
1939
1939
1939
1938
1938
1938
1937
1937
1937
1941
1941
1941
1940
1940
1940
1940
1940
1940
1940
1941
1941
1941
1938
1938
1938
1941
1941
1941
1934
1934
1934
1942
1942
1942
1942
1940
1940
1940
1934
1934
1934
1939
1939
1939
1938
1938
1938
1941
1941
1941
1941
1937
1937
1937
1939
1939
1939
1943
1943
1943
1936
1936
1936
1940
1940
1940
1940
1941
1941
1941
1937
1937
1937
1942
1942
1942
1937
1937
1937
1937
1937
1937
1937
1942
1942
1942
1935
1935
1935
1938
1938
1938
1937
1937
1937
1937
1937
1937
1937
1936
1936
1936
1936
1936
1936
1939
1939
1939
1935
1935
1935
1940
1940
1940
1940
1937
1937
1937
1937
1937
1937
1943
1943
1943
1934
1934
1934
1944
1944
1944
1944
1937
1937
1937
1936
1936
1936
1946
1946
1946
1939
1939
1939
1939
1939
1939
1939
1939
1939
1939
1940
1940
1940
1940
1940
1940
1939
1939
1939
1944
1944
1944
1944
1932
1932
1932
1937
1937
1937
1943
1943
1943
1934
1934
1934
1943
1943
1943
1943
1941
1941
1941
1937
1937
1937
1941
1941
1941
1936
1936
1936
1941
1941
1941
1941
1943
1943
1943
1932
1932
1932
1942
1942
1942
1935
1935
1935
1943
1943
1943
1943
1936
1936
1936
1939
1939
1939
1941
1941
1941
1937
1937
1937
1939
1939
1939
1939
1938
1938
1938
1936
1936
1936
1939
1939
1939
1936
1936
1936
1939
1939
1939
1939
1939
1939
1939
1935
1935
1935
1940
1940
1940
1938
1938
1938
1944
1944
1944
1944
1942
1942
1942
1941
1941
1941
1941
1941
1941
1939
1939
1939
1941
1941
1941
1941
1939
1939
1939
1935
1935
1935
1943
1943
1943
1936
1936
1936
1941
1941
1941
1941
1938
1938
1938
1938
1938
1938
1939
1939
1939
1937
1937
1937
1938
1938
1938
1938
1942
1942
1942
1931
1931
1931
1941
1941
1941
1931
1931
1931
1941
1941
1941
1941
1939
1939
1939
1942
1942
1942
1940
1940
1940
1936
1936
1936
1941
1941
1941
1941
1941
1941
1941
1941
1941
1941
1941
1941
1941
1934
1934
1934
1941
1941
1941
1941
1939
1939
1939
1936
1936
1936
1939
1939
1939
1940
1940
1940
1940
1940
1940
1940
1940
1940
1940
1935
1935
1935
1949
1949
1949
1938
1938
1938
1940
1940
1940
1940
1936
1936
1936
1951
1951
1951
1939
1939
1939
1935
1935
1935
1943
1943
1943
1943
1946
1946
1946
1938
1938
1938
1940
1940
1940
1937
1937
1937
1945
1945
1945
1945
1941
1941
1941
1937
1937
1937
1943
1943
1943
1936
1936
1936
1940
1940
1940
1940
1938
1938
1938
1934
1934
1934
1939
1939
1939
1937
1937
1937
1938
1938
1938
1938
1932
1932
1932
1937
1937
1937
1945
1945
1945
1938
1938
1938
1941
1941
1941
1941
1942
1942
1942
1936
1936
1936
1939
1939
1939
1937
1937
1937
1945
1945
1945
1945
1942
1942
1942
1933
1933
1933
1936
1936
1936
1937
1937
1937
1943
1943
1943
1943
1940
1940
1940
1936
1936
1936
1943
1943
1943
1940
1940
1940
1939
1939
1939
1939
1942
1942
1942
1938
1938
1938
1944
1944
1944
1937
1937
1937
1940
1940
1940
1940
1941
1941
1941
1939
1939
1939
1935
1935
1935
1938
1938
1938
1934
1934
1934
1934
1940
1940
1940
1935
1935
1935
1944
1944
1944
1937
1937
1937
1941
1941
1941
1941
1937
1937
1937
1935
1935
1935
1941
1941
1941
1939
1939
1939
1941
1941
1941
1941
1938
1938
1938
1937
1937
1937
1941
1941
1941
1933
1933
1933
1940
1940
1940
1940
1938
1938
1938
1937
1937
1937
1939
1939
1939
1937
1937
1937
1941
1941
1941
1941
1941
1941
1941
1937
1937
1937
1941
1941
1941
1934
1934
1934
1939
1939
1939
1939
1939
1939
1939
1935
1935
1935
1941
1941
1941
1942
1942
1942
1939
1939
1939
1939
1934
1934
1934
1944
1944
1944
1940
1940
1940
1937
1937
1937
1939
1939
1939
1939
1940
1940
1940
1937
1937
1937
1944
1944
1944
1938
1938
1938
1942
1942
1942
1942
1938
1938
1938
1935
1935
1935
1939
1939
1939
1942
1942
1942
1941
1941
1941
1941
1937
1937
1937
1936
1936
1936
1937
1937
1937
1941
1941
1941
1941
1941
1941
1941
1940
1940
1940
1942
1942
1942
1941
1941
1941
1939
1939
1939
1940
1940
1940
1940
1939
1939
1939
1937
1937
1937
1941
1941
1941
1936
1936
1936
1944
1944
1944
1944
1940
1940
1940
1935
1935
1935
1944
1944
1944
1939
1939
1939
1940
1940
1940
1940
1942
1942
1942
1937
1937
1937
1939
1939
1939
1936
1936
1936
1936
1936
1936
1936
1938
1938
1938
1936
1936
1936
1941
1941
1941
1934
1934
1934
1943
1943
1943
1943
1939
1939
1939
1936
1936
1936
1938
1938
1938
1939
1939
1939
1937
1937
1937
1937
1944
1944
1944
1935
1935
1935
1940
1940
1940
1937
1937
1937
1934
1934
1934
1934
1938
1938
1938
1939
1939
1939
1943
1943
1943
1940
1940
1940
1946
1946
1946
1946
1939
1939
1939
1939
1939
1939
1944
1944
1944
1939
1939
1939
1936
1936
1936
1936
1936
1936
1936
1934
1934
1934
1939
1939
1939
1939
1939
1939
1932
1932
1932
1932
1939
1939
1939
1936
1936
1936
1940
1940
1940
1936
1936
1936
1941
1941
1941
1941
1935
1935
1935
1940
1940
1940
1939
1939
1939
1939
1939
1939
1944
1944
1944
1944
1941
1941
1941
1938
1938
1938
1955
1955
1955
1939
1939
1939
1939
1939
1939
1939
1943
1943
1943
1938
1938
1938
1942
1942
1942
1938
1938
1938
1943
1943
1943
1943
1942
1942
1942
1940
1940
1940
1941
1941
1941
1937
1937
1937
1941
1941
1941
1941
1938
1938
1938
1935
1935
1935
1940
1940
1940
1936
1936
1936
1943
1943
1943
1943
1940
1940
1940
1937
1937
1937
1941
1941
1941
1941
1941
1941
1940
1940
1940
1940
1942
1942
1942
1942
1942
1942
1938
1938
1938
1939
1939
1939
1939
1939
1939
1939
1940
1940
1940
1935
1935
1935
1940
1940
1940
1937
1937
1937
1937
1937
1937
1937
1938
1938
1938
1940
1940
1940
1942
1942
1942
1932
1932
1932
1941
1941
1941
1941
1942
1942
1942
1941
1941
1941
1936
1936
1936
1938
1938
1938
1941
1941
1941
1941
1940
1940
1940
1935
1935
1935
1941
1941
1941
1934
1934
1934
1944
1944
1944
1944
1942
1942
1942
1936
1936
1936
1942
1942
1942
1939
1939
1939
1942
1942
1942
1942
1941
1941
1941
1935
1935
1935
1941
1941
1941
1937
1937
1937
1940
1940
1940
1940
1938
1938
1938
1939
1939
1939
1941
1941
1941
1934
1934
1934
1938
1938
1938
1938
1941
1941
1941
1934
1934
1934
1939
1939
1939
1937
1937
1937
1943
1943
1943
1943
1939
1939
1939
1939
1939
1939
1939
1939
1939
1935
1935
1935
1941
1941
1941
1941
1939
1939
1939
1931
1931
1931
1939
1939
1939
1941
1941
1941
1941
1941
1941
1941
1946
1946
1946
1938
1938
1938
1941
1941
1941
1935
1935
1935
1940
1940
1940
1940
1941
1941
1941
1935
1935
1935
1943
1943
1943
1936
1936
1936
1939
1939
1939
1939
1939
1939
1939
1933
1933
1933
1941
1941
1941
1935
1935
1935
1938
1938
1938
1938
1940
1940
1940
1937
1937
1937
1939
1939
1939
1933
1933
1933
1941
1941
1941
1941
1939
1939
1939
1937
1937
1937
1940
1940
1940
1935
1935
1935
1941
1941
1941
1941
1940
1940
1940
1933
1933
1933
1939
1939
1939
1939
1939
1939
1938
1938
1938
1938
1942
1942
1942
1940
1940
1940
1942
1942
1942
1935
1935
1935
1938
1938
1938
1938
1941
1941
1941
1936
1936
1936
1946
1946
1946
1936
1936
1936
1941
1941
1941
1941
1941
1941
1941
1933
1933
1933
1940
1940
1940
1937
1937
1937
1938
1938
1938
1938
1931
1931
1931
1937
1937
1937
1940
1940
1940
1940
1940
1940
1945
1945
1945
1945
1937
1937
1937
1936
1936
1936
1941
1941
1941
1937
1937
1937
1945
1945
1945
1945
1936
1936
1936
1935
1935
1935
1940
1940
1940
1937
1937
1937
1943
1943
1943
1943
1938
1938
1938
1938
1938
1938
1938
1938
1938
1941
1941
1941
1938
1938
1938
1938
1939
1939
1939
1936
1936
1936
1940
1940
1940
1936
1936
1936
1943
1943
1943
1943
1947
1947
1947
1930
1930
1930
1941
1941
1941
1936
1936
1936
1948
1948
1948
1948
1934
1934
1934
1939
1939
1939
1939
1939
1939
1939
1939
1939
1941
1941
1941
1941
1938
1938
1938
1936
1936
1936
1942
1942
1942
1940
1940
1940
1941
1941
1941
1941
1942
1942
1942
1934
1934
1934
1938
1938
1938
1937
1937
1937
1939
1939
1939
1939
1937
1937
1937
1935
1935
1935
1943
1943
1943
1938
1938
1938
1944
1944
1944
1944
1941
1941
1941
1937
1937
1937
1939
1939
1939
1935
1935
1935
1940
1940
1940
1940
1941
1941
1941
1939
1939
1939
1939
1939
1939
1935
1935
1935
1938
1938
1938
1938
1942
1942
1942
1936
1936
1936
1941
1941
1941
1936
1936
1936
1937
1937
1937
1937
1938
1938
1938
1936
1936
1936
1938
1938
1938
1939
1939
1939
1941
1941
1941
1941
1940
1940
1940
1934
1934
1934
1940
1940
1940
1933
1933
1933
1940
1940
1940
1940
1940
1940
1940
1939
1939
1939
1941
1941
1941
1934
1934
1934
1940
1940
1940
1940
1937
1937
1937
1939
1939
1939
1942
1942
1942
1938
1938
1938
1941
1941
1941
1941
1940
1940
1940
1932
1932
1932
1943
1943
1943
1938
1938
1938
1940
1940
1940
1940
1941
1941
1941
1937
1937
1937
1942
1942
1942
1938
1938
1938
1943
1943
1943
1943
1941
1941
1941
1945
1945
1945
1942
1942
1942
1939
1939
1939
1943
1943
1943
1943
1942
1942
1942
1950
1950
1950
1939
1939
1939
1939
1939
1939
1940
1940
1940
1940
1942
1942
1942
1942
1942
1942
1942
1942
1942
1938
1938
1938
1941
1941
1941
1941
1939
1939
1939
1937
1937
1937
1939
1939
1939
1931
1931
1931
1939
1939
1939
1939
1939
1939
1939
1938
1938
1938
1937
1937
1937
1935
1935
1935
1944
1944
1944
1944
1943
1943
1943
1932
1932
1932
1941
1941
1941
1941
1941
1941
1936
1936
1936
1936
1936
1936
1936
1938
1938
1938
1942
1942
1942
1935
1935
1935
1941
1941
1941
1941
1939
1939
1939
1937
1937
1937
1937
1937
1937
1937
1937
1937
1939
1939
1939
1939
1942
1942
1942
1935
1935
1935
1942
1942
1942
1937
1937
1937
1940
1940
1940
1940
1938
1938
1938
1938
1938
1938
1940
1940
1940
1936
1936
1936
1943
1943
1943
1943
1939
1939
1939
1938
1938
1938
1943
1943
1943
1937
1937
1937
1944
1944
1944
1944
1943
1943
1943
1939
1939
1939
1939
1939
1939
1939
1939
1939
1935
1935
1935
1935
1944
1944
1944
1936
1936
1936
1942
1942
1942
1933
1933
1933
1937
1937
1937
1937
1941
1941
1941
1938
1938
1938
1941
1941
1941
1937
1937
1937
1939
1939
1939
1939
1939
1939
1939
1938
1938
1938
1945
1945
1945
1938
1938
1938
1940
1940
1940
1940
1937
1937
1937
1935
1935
1935
1945
1945
1945
1940
1940
1940
1944
1944
1944
1944
1941
1941
1941
1940
1940
1940
1937
1937
1937
1937
1937
1937
1940
1940
1940
1940
1941
1941
1941
1938
1938
1938
1937
1937
1937
1937
1937
1937
1938
1938
1938
1938
1946
1946
1946
1938
1938
1938
1939
1939
1939
1939
1939
1939
1940
1940
1940
1940
1942
1942
1942
1937
1937
1937
1943
1943
1943
1937
1937
1937
1939
1939
1939
1939
1945
1945
1945
1940
1940
1940
1940
1940
1940
1934
1934
1934
1943
1943
1943
1943
1949
1949
1949
1936
1936
1936
1939
1939
1939
1938
1938
1938
1939
1939
1939
1939
1940
1940
1940
1936
1936
1936
1945
1945
1945
1936
1936
1936
1952
1952
1952
1952
1940
1940
1940
1935
1935
1935
1944
1944
1944
1933
1933
1933
1945
1945
1945
1945
1943
1943
1943
1935
1935
1935
1939
1939
1939
1942
1942
1942
1940
1940
1940
1940
1941
1941
1941
1934
1934
1934
1941
1941
1941
1936
1936
1936
1940
1940
1940
1940
1937
1937
1937
1933
1933
1933
1942
1942
1942
1938
1938
1938
1942
1942
1942
1942
1938
1938
1938
1939
1939
1939
1942
1942
1942
1943
1943
1943
1940
1940
1940
1940
1940
1940
1940
1937
1937
1937
1941
1941
1941
1937
1937
1937
1941
1941
1941
1941
1937
1937
1937
1937
1937
1937
1940
1940
1940
1936
1936
1936
1937
1937
1937
1937
1938
1938
1938
1934
1934
1934
1940
1940
1940
1933
1933
1933
1940
1940
1940
1940
1942
1942
1942
1937
1937
1937
1938
1938
1938
1939
1939
1939
1940
1940
1940
1940
1940
1940
1940
1933
1933
1933
1941
1941
1941
1937
1937
1937
1938
1938
1938
1938
1942
1942
1942
1939
1939
1939
1940
1940
1940
1934
1934
1934
1941
1941
1941
1941
1941
1941
1941
1936
1936
1936
1944
1944
1944
1939
1939
1939
1940
1940
1940
1940
1941
1941
1941
1936
1936
1936
1941
1941
1941
1936
1936
1936
1943
1943
1943
1943
1943
1943
1943
1935
1935
1935
1940
1940
1940
1939
1939
1939
1942
1942
1942
1942
1940
1940
1940
1933
1933
1933
1944
1944
1944
1934
1934
1934
1942
1942
1942
1942
1940
1940
1940
1938
1938
1938
1940
1940
1940
1935
1935
1935
1937
1937
1937
1937
1942
1942
1942
1938
1938
1938
1939
1939
1939
1933
1933
1933
1940
1940
1940
1940
1942
1942
1942
1935
1935
1935
1943
1943
1943
1937
1937
1937
1941
1941
1941
1941
1939
1939
1939
1932
1932
1932
1940
1940
1940
1939
1939
1939
1939
1939
1939
1939
1939
1939
1939
1938
1938
1938
1943
1943
1943
1939
1939
1939
1941
1941
1941
1941
1941
1941
1941
1934
1934
1934
1940
1940
1940
1937
1937
1937
1937
1937
1937
1937
1935
1935
1935
1935
1935
1935
1944
1944
1944
1935
1935
1935
1943
1943
1943
1943
1941
1941
1941
1937
1937
1937
1941
1941
1941
1939
1939
1939
1938
1938
1938
1938
1939
1939
1939
1939
1939
1939
1940
1940
1940
1940
1940
1940
1934
1934
1934
1934
1944
1944
1944
1937
1937
1937
1941
1941
1941
1940
1940
1940
1949
1949
1949
1949
1937
1937
1937
1938
1938
1938
1947
1947
1947
1936
1936
1936
1942
1942
1942
1942
1940
1940
1940
1938
1938
1938
1945
1945
1945
1937
1937
1937
1935
1935
1935
1935
1940
1940
1940
1936
1936
1936
1940
1940
1940
1933
1933
1933
1947
1947
1947
1947
1935
1935
1935
1936
1936
1936
1933
1933
1933
1936
1936
1936
1941
1941
1941
1941
1935
1935
1935
1935
1935
1935
1940
1940
1940
1937
1937
1937
1944
1944
1944
1944
1933
1933
1933
1939
1939
1939
1941
1941
1941
1936
1936
1936
1940
1940
1940
1940
1938
1938
1938
1937
1937
1937
1940
1940
1940
1939
1939
1939
1943
1943
1943
1943
1940
1940
1940
1943
1943
1943
1940
1940
1940
1935
1935
1935
1938
1938
1938
1938
1939
1939
1939
1936
1936
1936
1940
1940
1940
1940
1940
1940
1940
1940
1940
1940
1941
1941
1941
1937
1937
1937
1945
1945
1945
1937
1937
1937
1936
1936
1936
1936
1940
1940
1940
1941
1941
1941
1942
1942
1942
1936
1936
1936
1948
1948
1948
1948
1943
1943
1943
1936
1936
1936
1945
1945
1945
1931
1931
1931
1938
1938
1938
1938
1942
1942
1942
1937
1937
1937
1944
1944
1944
1933
1933
1933
1940
1940
1940
1940
1940
1940
1940
1937
1937
1937
1939
1939
1939
1945
1945
1945
1940
1940
1940
1940
1938
1938
1938
1939
1939
1939
1938
1938
1938
1936
1936
1936
1942
1942
1942
1942
1941
1941
1941
1940
1940
1940
1939
1939
1939
1939
1939
1939
1939
1939
1939
1939
1941
1941
1941
1941
1941
1941
1941
1941
1941
1939
1939
1939
1938
1938
1938
1938
1942
1942
1942
1934
1934
1934
1937
1937
1937
1939
1939
1939
1941
1941
1941
1941
1943
1943
1943
1936
1936
1936
1939
1939
1939
1937
1937
1937
1933
1933
1933
1933
1941
1941
1941
1935
1935
1935
1941
1941
1941
1936
1936
1936
1941
1941
1941
1941
1940
1940
1940
1938
1938
1938
1945
1945
1945
1937
1937
1937
1939
1939
1939
1939
1939
1939
1939
1935
1935
1935
1942
1942
1942
1925
1925
1925
1942
1942
1942
1942
1944
1944
1944
1935
1935
1935
1940
1940
1940
1935
1935
1935
1944
1944
1944
1944
1939
1939
1939
1937
1937
1937
1940
1940
1940
1938
1938
1938
1941
1941
1941
1941
1939
1939
1939
1939
1939
1939
1941
1941
1941
1936
1936
1936
1946
1946
1946
1946
1936
1936
1936
1938
1938
1938
1938
1938
1938
1941
1941
1941
1938
1938
1938
1938
1942
1942
1942
1939
1939
1939
1941
1941
1941
1938
1938
1938
1938
1938
1938
1938
1942
1942
1942
1937
1937
1937
1940
1940
1940
1941
1941
1941
1938
1938
1938
1938
1939
1939
1939
1936
1936
1936
1944
1944
1944
1935
1935
1935
1943
1943
1943
1943
1942
1942
1942
1938
1938
1938
1941
1941
1941
1938
1938
1938
1947
1947
1947
1947
1943
1943
1943
1940
1940
1940
1942
1942
1942
1935
1935
1935
1943
1943
1943
1943
1941
1941
1941
1938
1938
1938
1941
1941
1941
1940
1940
1940
1946
1946
1946
1946
1937
1937
1937
1935
1935
1935
1944
1944
1944
1938
1938
1938
1937
1937
1937
1937
1936
1936
1936
1936
1936
1936
1936
1936
1936
1931
1931
1931
1938
1938
1938
1938
1937
1937
1937
1935
1935
1935
1935
1935
1935
1934
1934
1934
1940
1940
1940
1940
1940
1940
1940
1932
1932
1932
1936
1936
1936
1937
1937
1937
1941
1941
1941
1941
1941
1941
1941
1937
1937
1937
1943
1943
1943
1937
1937
1937
1939
1939
1939
1939
1941
1941
1941
1938
1938
1938
1941
1941
1941
1937
1937
1937
1935
1935
1935
1935
1940
1940
1940
1938
1938
1938
1940
1940
1940
1936
1936
1936
1938
1938
1938
1938
1948
1948
1948
1937
1937
1937
1939
1939
1939
1934
1934
1934
1939
1939
1939
1939
1940
1940
1940
1935
1935
1935
1934
1934
1934
1936
1936
1936
1943
1943
1943
1943
1941
1941
1941
1933
1933
1933
1938
1938
1938
1937
1937
1937
1946
1946
1946
1946
1935
1935
1935
1937
1937
1937
1945
1945
1945
1937
1937
1937
1941
1941
1941
1941
1948
1948
1948
1937
1937
1937
1945
1945
1945
1938
1938
1938
1941
1941
1941
1941
1945
1945
1945
1938
1938
1938
1943
1943
1943
1937
1937
1937
1939
1939
1939
1939
1948
1948
1948
1939
1939
1939
1926
1926
1926
1936
1936
1936
1944
1944
1944
1944
1946
1946
1946
1937
1937
1937
1937
1937
1937
1935
1935
1935
1944
1944
1944
1944
1943
1943
1943
1937
1937
1937
1936
1936
1936
1938
1938
1938
1938
1938
1938
1938
1939
1939
1939
1938
1938
1938
1941
1941
1941
1938
1938
1938
1940
1940
1940
1940
1940
1940
1940
1938
1938
1938
1943
1943
1943
1934
1934
1934
1940
1940
1940
1940
1947
1947
1947
1934
1934
1934
1934
1934
1934
1936
1936
1936
1945
1945
1945
1945
1939
1939
1939
1934
1934
1934
1947
1947
1947
1938
1938
1938
1939
1939
1939
1939
1931
1931
1931
1939
1939
1939
1947
1947
1947
1933
1933
1933
1943
1943
1943
1943
1936
1936
1936
1938
1938
1938
1948
1948
1948
1936
1936
1936
1940
1940
1940
1940
1945
1945
1945
1936
1936
1936
1944
1944
1944
1937
1937
1937
1947
1947
1947
1947
1930
1930
1930
1938
1938
1938
1941
1941
1941
1938
1938
1938
1941
1941
1941
1941
1939
1939
1939
1939
1939
1939
1942
1942
1942
1935
1935
1935
1944
1944
1944
1944
1941
1941
1941
1938
1938
1938
1942
1942
1942
1937
1937
1937
1939
1939
1939
1939
1944
1944
1944
1937
1937
1937
1943
1943
1943
1931
1931
1931
1942
1942
1942
1942
1939
1939
1939
1936
1936
1936
1939
1939
1939
1937
1937
1937
1940
1940
1940
1940
1942
1942
1942
1939
1939
1939
1941
1941
1941
1936
1936
1936
1943
1943
1943
1943
1944
1944
1944
1937
1937
1937
1941
1941
1941
1930
1930
1930
1941
1941
1941
1941
1940
1940
1940
1938
1938
1938
1943
1943
1943
1935
1935
1935
1941
1941
1941
1941
1941
1941
1941
1940
1940
1940
1939
1939
1939
1935
1935
1935
1947
1947
1947
1947
1943
1943
1943
1939
1939
1939
1940
1940
1940
1938
1938
1938
1942
1942
1942
1942
1939
1939
1939
1937
1937
1937
1940
1940
1940
1935
1935
1935
1945
1945
1945
1945
1941
1941
1941
1937
1937
1937
1942
1942
1942
1939
1939
1939
1944
1944
1944
1944
1940
1940
1940
1939
1939
1939
1938
1938
1938
1941
1941
1941
1943
1943
1943
1943
1938
1938
1938
1935
1935
1935
1945
1945
1945
1937
1937
1937
1942
1942
1942
1942
1942
1942
1942
1934
1934
1934
1940
1940
1940
1935
1935
1935
1941
1941
1941
1941
1946
1946
1946
1933
1933
1933
1940
1940
1940
1930
1930
1930
1940
1940
1940
1940
1940
1940
1940
1937
1937
1937
1938
1938
1938
1937
1937
1937
1942
1942
1942
1942
1939
1939
1939
1937
1937
1937
1940
1940
1940
1938
1938
1938
1944
1944
1944
1944
1937
1937
1937
1937
1937
1937
1940
1940
1940
1933
1933
1933
1944
1944
1944
1944
1939
1939
1939
1938
1938
1938
1938
1938
1938
1936
1936
1936
1942
1942
1942
1942
1940
1940
1940
1931
1931
1931
1939
1939
1939
1938
1938
1938
1940
1940
1940
1940
1937
1937
1937
1936
1936
1936
1942
1942
1942
1934
1934
1934
1941
1941
1941
1941
1939
1939
1939
1939
1939
1939
1941
1941
1941
1936
1936
1936
1939
1939
1939
1939
1940
1940
1940
1941
1941
1941
1940
1940
1940
1935
1935
1935
1935
1935
1935
1935
1938
1938
1938
1937
1937
1937
1939
1939
1939
1935
1935
1935
1941
1941
1941
1941
1939
1939
1939
1935
1935
1935
1943
1943
1943
1934
1934
1934
1942
1942
1942
1942
1939
1939
1939
1933
1933
1933
1943
1943
1943
1941
1941
1941
1943
1943
1943
1943
1939
1939
1939
1934
1934
1934
1943
1943
1943
1933
1933
1933
1941
1941
1941
1941
1941
1941
1941
1937
1937
1937
1939
1939
1939
1932
1932
1932
1941
1941
1941
1941
1942
1942
1942
1931
1931
1931
1940
1940
1940
1938
1938
1938
1942
1942
1942
1942
1946
1946
1946
1936
1936
1936
1944
1944
1944
1935
1935
1935
1943
1943
1943
1943
1943
1943
1943
1935
1935
1935
1941
1941
1941
1937
1937
1937
1941
1941
1941
1941
1941
1941
1941
1934
1934
1934
1939
1939
1939
1939
1939
1939
1948
1948
1948
1948
1937
1937
1937
1938
1938
1938
1939
1939
1939
1940
1940
1940
1939
1939
1939
1939
1939
1939
1939
1934
1934
1934
1946
1946
1946
1940
1940
1940
1942
1942
1942
1942
1940
1940
1940
1934
1934
1934
1943
1943
1943
1939
1939
1939
1943
1943
1943
1943
1938
1938
1938
1937
1937
1937
1939
1939
1939
1935
1935
1935
1944
1944
1944
1944
1939
1939
1939
1940
1940
1940
1942
1942
1942
1938
1938
1938
1940
1940
1940
1940
1940
1940
1940
1936
1936
1936
1940
1940
1940
1937
1937
1937
1937
1937
1937
1937
1939
1939
1939
1933
1933
1933
1937
1937
1937
1932
1932
1932
1940
1940
1940
1940
1938
1938
1938
1933
1933
1933
1938
1938
1938
1936
1936
1936
1942
1942
1942
1942
1940
1940
1940
1933
1933
1933
1938
1938
1938
1935
1935
1935
1938
1938
1938
1938
1943
1943
1943
1933
1933
1933
1939
1939
1939
1937
1937
1937
1937
1937
1937
1937
1941
1941
1941
1937
1937
1937
1941
1941
1941
1935
1935
1935
1942
1942
1942
1942
1942
1942
1942
1935
1935
1935
1940
1940
1940
1947
1947
1947
1943
1943
1943
1943
1941
1941
1941
1940
1940
1940
1942
1942
1942
1950
1950
1950
1939
1939
1939
1939
1935
1935
1935
1942
1942
1942
1941
1941
1941
1929
1929
1929
1940
1940
1940
1940
1941
1941
1941
1940
1940
1940
1937
1937
1937
1932
1932
1932
1940
1940
1940
1940
1940
1940
1940
1939
1939
1939
1941
1941
1941
1937
1937
1937
1941
1941
1941
1941
1942
1942
1942
1938
1938
1938
1941
1941
1941
1942
1942
1942
1939
1939
1939
1939
1940
1940
1940
1938
1938
1938
1944
1944
1944
1930
1930
1930
1939
1939
1939
1939
1939
1939
1939
1938
1938
1938
1940
1940
1940
1931
1931
1931
1943
1943
1943
1943
1944
1944
1944
1935
1935
1935
1940
1940
1940
1937
1937
1937
1941
1941
1941
1941
1940
1940
1940
1934
1934
1934
1943
1943
1943
1933
1933
1933
1942
1942
1942
1942
1939
1939
1939
1935
1935
1935
1942
1942
1942
1931
1931
1931
1941
1941
1941
1941
1941
1941
1941
1935
1935
1935
1940
1940
1940
1941
1941
1941
1941
1941
1941
1941
1939
1939
1939
1939
1939
1939
1944
1944
1944
1934
1934
1934
1939
1939
1939
1939
1940
1940
1940
1942
1942
1942
1942
1942
1942
1933
1933
1933
1943
1943
1943
1943
1937
1937
1937
1938
1938
1938
1942
1942
1942
1932
1932
1932
1942
1942
1942
1942
1941
1941
1941
1938
1938
1938
1949
1949
1949
1934
1934
1934
1940
1940
1940
1940
1941
1941
1941
1939
1939
1939
1944
1944
1944
1945
1945
1945
1945
1945
1945
1945
1940
1940
1940
1938
1938
1938
1942
1942
1942
1942
1942
1942
1946
1946
1946
1946
1939
1939
1939
1941
1941
1941
1940
1940
1940
1946
1946
1946
1943
1943
1943
1943
1942
1942
1942
1936
1936
1936
1941
1941
1941
1933
1933
1933
1939
1939
1939
1939
1941
1941
1941
1934
1934
1934
1942
1942
1942
1929
1929
1929
1940
1940
1940
1940
1942
1942
1942
1936
1936
1936
1936
1936
1936
1931
1931
1931
1941
1941
1941
1941
1941
1941
1941
1930
1930
1930
1942
1942
1942
1942
1942
1942
1941
1941
1941
1941
1941
1941
1941
1943
1943
1943
1940
1940
1940
1935
1935
1935
1941
1941
1941
1941
1937
1937
1937
1940
1940
1940
1941
1941
1941
1940
1940
1940
1943
1943
1943
1943
1940
1940
1940
1937
1937
1937
1945
1945
1945
1933
1933
1933
1942
1942
1942
1942
1946
1946
1946
1933
1933
1933
1941
1941
1941
1941
1941
1941
1945
1945
1945
1945
1940
1940
1940
1932
1932
1932
1941
1941
1941
1949
1949
1949
1942
1942
1942
1942
1940
1940
1940
1943
1943
1943
1942
1942
1942
1936
1936
1936
1940
1940
1940
1940
1937
1937
1937
1946
1946
1946
1940
1940
1940
1933
1933
1933
1936
1936
1936
1936
1936
1936
1936
1932
1932
1932
1941
1941
1941
1940
1940
1940
1941
1941
1941
1941
1937
1937
1937
1935
1935
1935
1936
1936
1936
1939
1939
1939
1940
1940
1940
1940
1936
1936
1936
1943
1943
1943
1942
1942
1942
1940
1940
1940
1943
1943
1943
1943
1941
1941
1941
1941
1941
1941
1940
1940
1940
1935
1935
1935
1948
1948
1948
1948
1937
1937
1937
1939
1939
1939
1943
1943
1943
1934
1934
1934
1941
1941
1941
1941
1942
1942
1942
1939
1939
1939
1950
1950
1950
1939
1939
1939
1943
1943
1943
1943
1935
1935
1935
1938
1938
1938
1938
1938
1938
1942
1942
1942
1944
1944
1944
1944
1941
1941
1941
1938
1938
1938
1942
1942
1942
1938
1938
1938
1944
1944
1944
1944
1945
1945
1945
1936
1936
1936
1934
1934
1934
1938
1938
1938
1947
1947
1947
1947
1939
1939
1939
1936
1936
1936
1938
1938
1938
1937
1937
1937
1941
1941
1941
1941
1938
1938
1938
1933
1933
1933
1935
1935
1935
1938
1938
1938
1942
1942
1942
1942
1938
1938
1938
1943
1943
1943
1943
1943
1943
1936
1936
1936
1936
1936
1936
1936
1943
1943
1943
1935
1935
1935
1943
1943
1943
1939
1939
1939
1945
1945
1945
1945
1941
1941
1941
1931
1931
1931
1943
1943
1943
1939
1939
1939
1940
1940
1940
1940
1941
1941
1941
1939
1939
1939
1935
1935
1935
1935
1935
1935
1944
1944
1944
1944
1939
1939
1939
1935
1935
1935
1943
1943
1943
1936
1936
1936
1944
1944
1944
1944
1935
1935
1935
1936
1936
1936
1941
1941
1941
1933
1933
1933
1942
1942
1942
1942
1939
1939
1939
1937
1937
1937
1942
1942
1942
1939
1939
1939
1944
1944
1944
1944
1941
1941
1941
1935
1935
1935
1941
1941
1941
1937
1937
1937
1942
1942
1942
1942
1943
1943
1943
1944
1944
1944
1940
1940
1940
1936
1936
1936
1939
1939
1939
1939
1940
1940
1940
1938
1938
1938
1938
1938
1938
1931
1931
1931
1941
1941
1941
1941
1939
1939
1939
1938
1938
1938
1940
1940
1940
1936
1936
1936
1946
1946
1946
1946
1939
1939
1939
1936
1936
1936
1937
1937
1937
1938
1938
1938
1941
1941
1941
1941
1938
1938
1938
1936
1936
1936
1939
1939
1939
1936
1936
1936
1945
1945
1945
1945
1936
1936
1936
1938
1938
1938
1938
1938
1938
1939
1939
1939
1945
1945
1945
1945
1939
1939
1939
1935
1935
1935
1937
1937
1937
1932
1932
1932
1941
1941
1941
1941
1939
1939
1939
1940
1940
1940
1937
1937
1937
1939
1939
1939
1945
1945
1945
1945
1939
1939
1939
1933
1933
1933
1941
1941
1941
1933
1933
1933
1939
1939
1939
1939
1941
1941
1941
1943
1943
1943
1942
1942
1942
1940
1940
1940
1938
1938
1938
1938
1941
1941
1941
1936
1936
1936
1940
1940
1940
1935
1935
1935
1942
1942
1942
1942
1939
1939
1939
1933
1933
1933
1940
1940
1940
1938
1938
1938
1943
1943
1943
1943
1940
1940
1940
1935
1935
1935
1940
1940
1940
1936
1936
1936
1945
1945
1945
1945
1942
1942
1942
1941
1941
1941
1939
1939
1939
1935
1935
1935
1939
1939
1939
1939
1946
1946
1946
1935
1935
1935
1939
1939
1939
1935
1935
1935
1943
1943
1943
1943
1939
1939
1939
1937
1937
1937
1939
1939
1939
1935
1935
1935
1941
1941
1941
1941
1948
1948
1948
1935
1935
1935
1936
1936
1936
1937
1937
1937
1939
1939
1939
1939
1935
1935
1935
1935
1935
1935
1941
1941
1941
1938
1938
1938
1938
1938
1938
1938
1936
1936
1936
1935
1935
1935
1941
1941
1941
1941
1941
1941
1942
1942
1942
1942
1940
1940
1940
1937
1937
1937
1943
1943
1943
1938
1938
1938
1941
1941
1941
1941
1938
1938
1938
1937
1937
1937
1935
1935
1935
1937
1937
1937
1941
1941
1941
1941
1936
1936
1936
1934
1934
1934
1939
1939
1939
1937
1937
1937
1940
1940
1940
1940
1941
1941
1941
1935
1935
1935
1940
1940
1940
1936
1936
1936
1941
1941
1941
1941
1942
1942
1942
1936
1936
1936
1942
1942
1942
1937
1937
1937
1942
1942
1942
1942
1939
1939
1939
1938
1938
1938
1936
1936
1936
1939
1939
1939
1941
1941
1941
1941
1939
1939
1939
1936
1936
1936
1940
1940
1940
1939
1939
1939
1943
1943
1943
1943
1938
1938
1938
1936
1936
1936
1940
1940
1940
1934
1934
1934
1942
1942
1942
1942
1949
1949
1949
1936
1936
1936
1940
1940
1940
1933
1933
1933
1940
1940
1940
1940
1939
1939
1939
1936
1936
1936
1938
1938
1938
1938
1938
1938
1943
1943
1943
1943
1937
1937
1937
1937
1937
1937
1938
1938
1938
1939
1939
1939
1941
1941
1941
1941
1938
1938
1938
1938
1938
1938
1937
1937
1937
1935
1935
1935
1943
1943
1943
1943
1936
1936
1936
1936
1936
1936
1942
1942
1942
1931
1931
1931
1942
1942
1942
1942
1941
1941
1941
1938
1938
1938
1939
1939
1939
1937
1937
1937
1946
1946
1946
1946
1939
1939
1939
1938
1938
1938
1941
1941
1941
1937
1937
1937
1941
1941
1941
1941
1937
1937
1937
1933
1933
1933
1939
1939
1939
1940
1940
1940
1944
1944
1944
1944
1943
1943
1943
1937
1937
1937
1941
1941
1941
1934
1934
1934
1939
1939
1939
1939
1942
1942
1942
1939
1939
1939
1947
1947
1947
1937
1937
1937
1943
1943
1943
1943
1938
1938
1938
1936
1936
1936
1938
1938
1938
1937
1937
1937
1942
1942
1942
1942
1945
1945
1945
1938
1938
1938
1938
1938
1938
1939
1939
1939
1940
1940
1940
1940
1936
1936
1936
1936
1936
1936
1941
1941
1941
1931
1931
1931
1945
1945
1945
1945
1944
1944
1944
1936
1936
1936
1942
1942
1942
1940
1940
1940
1943
1943
1943
1943
1937
1937
1937
1939
1939
1939
1944
1944
1944
1937
1937
1937
1940
1940
1940
1940
1936
1936
1936
1936
1936
1936
1939
1939
1939
1936
1936
1936
1948
1948
1948
1948
1932
1932
1932
1934
1934
1934
1940
1940
1940
1933
1933
1933
1945
1945
1945
1945
1937
1937
1937
1939
1939
1939
1942
1942
1942
1937
1937
1937
1943
1943
1943
1943
1939
1939
1939
1940
1940
1940
1943
1943
1943
1938
1938
1938
1942
1942
1942
1942
1940
1940
1940
1937
1937
1937
1937
1937
1937
1938
1938
1938
1944
1944
1944
1944
1941
1941
1941
1938
1938
1938
1941
1941
1941
1935
1935
1935
1935
1935
1935
1935
1942
1942
1942
1937
1937
1937
1938
1938
1938
1939
1939
1939
1942
1942
1942
1942
1942
1942
1942
1935
1935
1935
1943
1943
1943
1937
1937
1937
1941
1941
1941
1941
1941
1941
1941
1937
1937
1937
1938
1938
1938
1938
1938
1938
1939
1939
1939
1939
1938
1938
1938
1937
1937
1937
1942
1942
1942
1941
1941
1941
1936
1936
1936
1936
1941
1941
1941
1939
1939
1939
1938
1938
1938
1931
1931
1931
1941
1941
1941
1941
1938
1938
1938
1937
1937
1937
1941
1941
1941
1938
1938
1938
1942
1942
1942
1942
1938
1938
1938
1933
1933
1933
1942
1942
1942
1937
1937
1937
1943
1943
1943
1943
1942
1942
1942
1939
1939
1939
1942
1942
1942
1936
1936
1936
1945
1945
1945
1945
1937
1937
1937
1937
1937
1937
1941
1941
1941
1939
1939
1939
1942
1942
1942
1942
1940
1940
1940
1937
1937
1937
1945
1945
1945
1935
1935
1935
1945
1945
1945
1945
1939
1939
1939
1939
1939
1939
1942
1942
1942
1938
1938
1938
1941
1941
1941
1941
1940
1940
1940
1929
1929
1929
1941
1941
1941
1938
1938
1938
1934
1934
1934
1934
1939
1939
1939
1936
1936
1936
1940
1940
1940
1938
1938
1938
1941
1941
1941
1941
1938
1938
1938
1938
1938
1938
1949
1949
1949
1938
1938
1938
1941
1941
1941
1941
1938
1938
1938
1937
1937
1937
1938
1938
1938
1937
1937
1937
1937
1937
1937
1937
1944
1944
1944
1935
1935
1935
1939
1939
1939
1938
1938
1938
1939
1939
1939
1939
1946
1946
1946
1937
1937
1937
1940
1940
1940
1937
1937
1937
1939
1939
1939
1939
1945
1945
1945
1937
1937
1937
1941
1941
1941
1940
1940
1940
1943
1943
1943
1943
1938
1938
1938
1935
1935
1935
1945
1945
1945
1937
1937
1937
1942
1942
1942
1942
1937
1937
1937
1934
1934
1934
1942
1942
1942
1937
1937
1937
1941
1941
1941
1941
1941
1941
1941
1938
1938
1938
1939
1939
1939
1932
1932
1932
1942
1942
1942
1942
1939
1939
1939
1937
1937
1937
1941
1941
1941
1936
1936
1936
1941
1941
1941
1941
1942
1942
1942
1940
1940
1940
1945
1945
1945
1937
1937
1937
1942
1942
1942
1942
1941
1941
1941
1936
1936
1936
1940
1940
1940
1937
1937
1937
1944
1944
1944
1944
1937
1937
1937
1938
1938
1938
1939
1939
1939
1936
1936
1936
1938
1938
1938
1938
1937
1937
1937
1937
1937
1937
1944
1944
1944
1932
1932
1932
1944
1944
1944
1944
1944
1944
1944
1937
1937
1937
1934
1934
1934
1935
1935
1935
1941
1941
1941
1941
1940
1940
1940
1934
1934
1934
1935
1935
1935
1937
1937
1937
1941
1941
1941
1941
1941
1941
1941
1933
1933
1933
1939
1939
1939
1936
1936
1936
1942
1942
1942
1942
1944
1944
1944
1937
1937
1937
1939
1939
1939
1935
1935
1935
1938
1938
1938
1938
1934
1934
1934
1937
1937
1937
1942
1942
1942
1937
1937
1937
1944
1944
1944
1944
1939
1939
1939
1933
1933
1933
1942
1942
1942
1938
1938
1938
1942
1942
1942
1942
1938
1938
1938
1941
1941
1941
1942
1942
1942
1937
1937
1937
1945
1945
1945
1945
1935
1935
1935
1936
1936
1936
1942
1942
1942
1940
1940
1940
1945
1945
1945
1945
1939
1939
1939
1937
1937
1937
1937
1937
1937
1941
1941
1941
1941
1941
1941
1941
1940
1940
1940
1938
1938
1938
1938
1938
1938
1935
1935
1935
1940
1940
1940
1940
1940
1940
1940
1933
1933
1933
1939
1939
1939
1937
1937
1937
1943
1943
1943
1943
1936
1936
1936
1935
1935
1935
1941
1941
1941
1933
1933
1933
1943
1943
1943
1943
1944
1944
1944
1936
1936
1936
1943
1943
1943
1938
1938
1938
1941
1941
1941
1941
1939
1939
1939
1936
1936
1936
1940
1940
1940
1938
1938
1938
1942
1942
1942
1942
1942
1942
1942
1942
1942
1942
1944
1944
1944
1937
1937
1937
1939
1939
1939
1939
1939
1939
1939
1931
1931
1931
1941
1941
1941
1937
1937
1937
1946
1946
1946
1946
1940
1940
1940
1939
1939
1939
1941
1941
1941
1932
1932
1932
1944
1944
1944
1944
1940
1940
1940
1936
1936
1936
1942
1942
1942
1942
1942
1942
1941
1941
1941
1941
1939
1939
1939
1935
1935
1935
1938
1938
1938
1937
1937
1937
1943
1943
1943
1943
1941
1941
1941
1934
1934
1934
1938
1938
1938
1934
1934
1934
1933
1933
1933
1933
1942
1942
1942
1932
1932
1932
1941
1941
1941
1937
1937
1937
1940
1940
1940
1940
1937
1937
1937
1941
1941
1941
1936
1936
1936
1931
1931
1931
1947
1947
1947
1947
1941
1941
1941
1937
1937
1937
1943
1943
1943
1939
1939
1939
1945
1945
1945
1945
1938
1938
1938
1932
1932
1932
1937
1937
1937
1936
1936
1936
1945
1945
1945
1945
1941
1941
1941
1938
1938
1938
1941
1941
1941
1935
1935
1935
1937
1937
1937
1937
1936
1936
1936
1933
1933
1933
1940
1940
1940
1931
1931
1931
1948
1948
1948
1948
1942
1942
1942
1937
1937
1937
1938
1938
1938
1931
1931
1931
1942
1942
1942
1942
1941
1941
1941
1936
1936
1936
1940
1940
1940
1939
1939
1939
1939
1939
1939
1939
1940
1940
1940
1933
1933
1933
1939
1939
1939
1936
1936
1936
1936
1936
1936
1936
1942
1942
1942
1936
1936
1936
1941
1941
1941
1940
1940
1940
1942
1942
1942
1942
1942
1942
1942
1937
1937
1937
1943
1943
1943
1939
1939
1939
1942
1942
1942
1942
1938
1938
1938
1937
1937
1937
1943
1943
1943
1936
1936
1936
1938
1938
1938
1938
1940
1940
1940
1935
1935
1935
1940
1940
1940
1939
1939
1939
1940
1940
1940
1940
1935
1935
1935
1939
1939
1939
1940
1940
1940
1940
1940
1940
1944
1944
1944
1944
1939
1939
1939
1937
1937
1937
1940
1940
1940
1937
1937
1937
1942
1942
1942
1942
1939
1939
1939
1939
1939
1939
1944
1944
1944
1937
1937
1937
1941
1941
1941
1941
1941
1941
1941
1935
1935
1935
1941
1941
1941
1944
1944
1944
1939
1939
1939
1939
1941
1941
1941
1937
1937
1937
1943
1943
1943
1937
1937
1937
1939
1939
1939
1939
1942
1942
1942
1936
1936
1936
1941
1941
1941
1935
1935
1935
1941
1941
1941
1941
1940
1940
1940
1938
1938
1938
1942
1942
1942
1938
1938
1938
1941
1941
1941
1941
1938
1938
1938
1937
1937
1937
1939
1939
1939
1937
1937
1937
1952
1952
1952
1952
1940
1940
1940
1938
1938
1938
1938
1938
1938
1937
1937
1937
1940
1940
1940
1940
1945
1945
1945
1937
1937
1937
1939
1939
1939
1934
1934
1934
1941
1941
1941
1941
1940
1940
1940
1937
1937
1937
1943
1943
1943
1939
1939
1939
1942
1942
1942
1942
1938
1938
1938
1933
1933
1933
1942
1942
1942
1934
1934
1934
1942
1942
1942
1942
1938
1938
1938
1942
1942
1942
1940
1940
1940
1939
1939
1939
1938
1938
1938
1938
1944
1944
1944
1938
1938
1938
1940
1940
1940
1940
1940
1940
1942
1942
1942
1942
1939
1939
1939
1935
1935
1935
1936
1936
1936
1939
1939
1939
1942
1942
1942
1942
1941
1941
1941
1940
1940
1940
1937
1937
1937
1940
1940
1940
1942
1942
1942
1942
1940
1940
1940
1937
1937
1937
1946
1946
1946
1935
1935
1935
1941
1941
1941
1941
1946
1946
1946
1937
1937
1937
1941
1941
1941
1939
1939
1939
1942
1942
1942
1942
1939
1939
1939
1935
1935
1935
1943
1943
1943
1939
1939
1939
1946
1946
1946
1946
1940
1940
1940
1938
1938
1938
1937
1937
1937
1935
1935
1935
1940
1940
1940
1940
1939
1939
1939
1938
1938
1938
1940
1940
1940
1939
1939
1939
1948
1948
1948
1948
1936
1936
1936
1939
1939
1939
1939
1939
1939
1936
1936
1936
1944
1944
1944
1944
1934
1934
1934
1931
1931
1931
1941
1941
1941
1941
1941
1941
1943
1943
1943
1943
1938
1938
1938
1939
1939
1939
1938
1938
1938
1936
1936
1936
1941
1941
1941
1941
1938
1938
1938
1936
1936
1936
1938
1938
1938
1938
1938
1938
1942
1942
1942
1942
1942
1942
1942
1936
1936
1936
1940
1940
1940
1935
1935
1935
1948
1948
1948
1948
1949
1949
1949
1935
1935
1935
1939
1939
1939
1936
1936
1936
1940
1940
1940
1940
1936
1936
1936
1937
1937
1937
1940
1940
1940
1937
1937
1937
1940
1940
1940
1940
1939
1939
1939
1938
1938
1938
1941
1941
1941
1938
1938
1938
1944
1944
1944
1944
1937
1937
1937
1937
1937
1937
1941
1941
1941
1936
1936
1936
1939
1939
1939
1939
1940
1940
1940
1937
1937
1937
1941
1941
1941
1938
1938
1938
1944
1944
1944
1944
1940
1940
1940
1936
1936
1936
1937
1937
1937
1934
1934
1934
1942
1942
1942
1942
1942
1942
1942
1935
1935
1935
1941
1941
1941
1937
1937
1937
1943
1943
1943
1943
1939
1939
1939
1942
1942
1942
1940
1940
1940
1937
1937
1937
1944
1944
1944
1944
1939
1939
1939
1935
1935
1935
1939
1939
1939
1936
1936
1936
1944
1944
1944
1944
1939
1939
1939
1937
1937
1937
1941
1941
1941
1936
1936
1936
1944
1944
1944
1944
1943
1943
1943
1935
1935
1935
1936
1936
1936
1937
1937
1937
1941
1941
1941
1941
1940
1940
1940
1932
1932
1932
1940
1940
1940
1937
1937
1937
1941
1941
1941
1941
1940
1940
1940
1940
1940
1940
1941
1941
1941
1940
1940
1940
1944
1944
1944
1944
1940
1940
1940
1935
1935
1935
1940
1940
1940
1942
1942
1942
1942
1942
1942
1942
1938
1938
1938
1940
1940
1940
1936
1936
1936
1931
1931
1931
1940
1940
1940
1940
1939
1939
1939
1937
1937
1937
1940
1940
1940
1937
1937
1937
1946
1946
1946
1946
1940
1940
1940
1936
1936
1936
1939
1939
1939
1937
1937
1937
1941
1941
1941
1941
1941
1941
1941
1937
1937
1937
1941
1941
1941
1936
1936
1936
1945
1945
1945
1945
1937
1937
1937
1936
1936
1936
1943
1943
1943
1937
1937
1937
1945
1945
1945
1945
1944
1944
1944
1940
1940
1940
1943
1943
1943
1937
1937
1937
1941
1941
1941
1941
1941
1941
1941
1933
1933
1933
1938
1938
1938
1938
1938
1938
1942
1942
1942
1942
1941
1941
1941
1935
1935
1935
1940
1940
1940
1933
1933
1933
1938
1938
1938
1938
1942
1942
1942
1934
1934
1934
1945
1945
1945
1932
1932
1932
1942
1942
1942
1942
1942
1942
1942
1931
1931
1931
1940
1940
1940
1938
1938
1938
1941
1941
1941
1941
1940
1940
1940
1937
1937
1937
1942
1942
1942
1938
1938
1938
1941
1941
1941
1941
1940
1940
1940
1935
1935
1935
1939
1939
1939
1935
1935
1935
1942
1942
1942
1942
1938
1938
1938
1932
1932
1932
1946
1946
1946
1933
1933
1933
1942
1942
1942
1942
1934
1934
1934
1939
1939
1939
1936
1936
1936
1940
1940
1940
1946
1946
1946
1946
1939
1939
1939
1936
1936
1936
1943
1943
1943
1940
1940
1940
1944
1944
1944
1944
1938
1938
1938
1938
1938
1938
1940
1940
1940
1937
1937
1937
1936
1936
1936
1936
1935
1935
1935
1938
1938
1938
1941
1941
1941
1936
1936
1936
1940
1940
1940
1940
1943
1943
1943
1935
1935
1935
1944
1944
1944
1936
1936
1936
1943
1943
1943
1943
1941
1941
1941
1937
1937
1937
1942
1942
1942
1937
1937
1937
1942
1942
1942
1942
1939
1939
1939
1940
1940
1940
1939
1939
1939
1935
1935
1935
1943
1943
1943
1943
1939
1939
1939
1937
1937
1937
1941
1941
1941
1939
1939
1939
1941
1941
1941
1941
1933
1933
1933
1937
1937
1937
1941
1941
1941
1941
1941
1941
1941
1941
1941
1941
1935
1935
1935
1936
1936
1936
1942
1942
1942
1937
1937
1937
1941
1941
1941
1941
1937
1937
1937
1941
1941
1941
1942
1942
1942
1939
1939
1939
1946
1946
1946
1946
1937
1937
1937
1937
1937
1937
1940
1940
1940
1932
1932
1932
1944
1944
1944
1944
1942
1942
1942
1937
1937
1937
1943
1943
1943
1934
1934
1934
1942
1942
1942
1942
1940
1940
1940
1936
1936
1936
1938
1938
1938
1933
1933
1933
1941
1941
1941
1941
1938
1938
1938
1944
1944
1944
1941
1941
1941
1937
1937
1937
1945
1945
1945
1945
1943
1943
1943
1933
1933
1933
1941
1941
1941
1934
1934
1934
1941
1941
1941
1941
1943
1943
1943
1937
1937
1937
1941
1941
1941
1941
1941
1941
1941
1941
1941
1941
1941
1941
1941
1935
1935
1935
1943
1943
1943
1938
1938
1938
1943
1943
1943
1943
1941
1941
1941
1937
1937
1937
1938
1938
1938
1938
1938
1938
1942
1942
1942
1942
1944
1944
1944
1939
1939
1939
1941
1941
1941
1936
1936
1936
1942
1942
1942
1942
1939
1939
1939
1937
1937
1937
1937
1937
1937
1934
1934
1934
1942
1942
1942
1942
1940
1940
1940
1939
1939
1939
1940
1940
1940
1939
1939
1939
1943
1943
1943
1943
1942
1942
1942
1937
1937
1937
1940
1940
1940
1940
1940
1940
1943
1943
1943
1943
1940
1940
1940
1935
1935
1935
1941
1941
1941
1939
1939
1939
1946
1946
1946
1946
1937
1937
1937
1937
1937
1937
1941
1941
1941
1934
1934
1934
1943
1943
1943
1943
1935
1935
1935
1936
1936
1936
1939
1939
1939
1936
1936
1936
1940
1940
1940
1940
1938
1938
1938
1937
1937
1937
1940
1940
1940
1938
1938
1938
1939
1939
1939
1939
1938
1938
1938
1937
1937
1937
1937
1937
1937
1937
1937
1937
1943
1943
1943
1943
1940
1940
1940
1941
1941
1941
1940
1940
1940
1936
1936
1936
1940
1940
1940
1940
1938
1938
1938
1937
1937
1937
1942
1942
1942
1944
1944
1944
1942
1942
1942
1942
1940
1940
1940
1937
1937
1937
1939
1939
1939
1941
1941
1941
1940
1940
1940
1940
1939
1939
1939
1940
1940
1940
1945
1945
1945
1936
1936
1936
1941
1941
1941
1941
1939
1939
1939
1932
1932
1932
1940
1940
1940
1937
1937
1937
1940
1940
1940
1940
1938
1938
1938
1936
1936
1936
1942
1942
1942
1941
1941
1941
1937
1937
1937
1937
1938
1938
1938
1937
1937
1937
1941
1941
1941
1940
1940
1940
1937
1937
1937
1937
1938
1938
1938
1937
1937
1937
1947
1947
1947
1935
1935
1935
1937
1937
1937
1937
1943
1943
1943
1941
1941
1941
1944
1944
1944
1937
1937
1937
1945
1945
1945
1945
1940
1940
1940
1938
1938
1938
1938
1938
1938
1937
1937
1937
1940
1940
1940
1940
1939
1939
1939
1936
1936
1936
1940
1940
1940
1938
1938
1938
1943
1943
1943
1943
1938
1938
1938
1934
1934
1934
1940
1940
1940
1934
1934
1934
1943
1943
1943
1943
1940
1940
1940
1933
1933
1933
1943
1943
1943
1935
1935
1935
1945
1945
1945
1945
1941
1941
1941
1935
1935
1935
1941
1941
1941
1938
1938
1938
1941
1941
1941
1941
1943
1943
1943
1938
1938
1938
1941
1941
1941
1935
1935
1935
1940
1940
1940
1940
1942
1942
1942
1937
1937
1937
1941
1941
1941
1940
1940
1940
1935
1935
1935
1935
1939
1939
1939
1937
1937
1937
1946
1946
1946
1935
1935
1935
1943
1943
1943
1943
1940
1940
1940
1937
1937
1937
1942
1942
1942
1937
1937
1937
1944
1944
1944
1944
1940
1940
1940
1940
1940
1940
1940
1940
1940
1943
1943
1943
1940
1940
1940
1940
1944
1944
1944
1934
1934
1934
1941
1941
1941
1937
1937
1937
1942
1942
1942
1942
1940
1940
1940
1929
1929
1929
1939
1939
1939
1937
1937
1937
1945
1945
1945
1945
1939
1939
1939
1937
1937
1937
1937
1937
1937
1936
1936
1936
1941
1941
1941
1941
1939
1939
1939
1933
1933
1933
1940
1940
1940
1940
1940
1940
1943
1943
1943
1943
1939
1939
1939
1938
1938
1938
1938
1938
1938
1937
1937
1937
1939
1939
1939
1939
1940
1940
1940
1936
1936
1936
1940
1940
1940
1933
1933
1933
1946
1946
1946
1946
1940
1940
1940
1939
1939
1939
1945
1945
1945
1939
1939
1939
1940
1940
1940
1940
1941
1941
1941
1937
1937
1937
1940
1940
1940
1938
1938
1938
1942
1942
1942
1942
1941
1941
1941
1938
1938
1938
1941
1941
1941
1934
1934
1934
1945
1945
1945
1945
1939
1939
1939
1933
1933
1933
1941
1941
1941
1941
1941
1941
1943
1943
1943
1943
1938
1938
1938
1935
1935
1935
1939
1939
1939
1937
1937
1937
1942
1942
1942
1942
1939
1939
1939
1935
1935
1935
1938
1938
1938
1937
1937
1937
1943
1943
1943
1943
1945
1945
1945
1937
1937
1937
1941
1941
1941
1937
1937
1937
1943
1943
1943
1943
1938
1938
1938
1936
1936
1936
1935
1935
1935
1938
1938
1938
1946
1946
1946
1946
1933
1933
1933
1940
1940
1940
1939
1939
1939
1935
1935
1935
1941
1941
1941
1941
1941
1941
1941
1937
1937
1937
1942
1942
1942
1935
1935
1935
1944
1944
1944
1944
1941
1941
1941
1941
1941
1941
1943
1943
1943
1934
1934
1934
1944
1944
1944
1944
1940
1940
1940
1937
1937
1937
1940
1940
1940
1937
1937
1937
1943
1943
1943
1943
1941
1941
1941
1938
1938
1938
1938
1938
1938
1930
1930
1930
1940
1940
1940
1940
1941
1941
1941
1938
1938
1938
1935
1935
1935
1936
1936
1936
1940
1940
1940
1940
1939
1939
1939
1936
1936
1936
1940
1940
1940
1936
1936
1936
1938
1938
1938
1938
1938
1938
1938
1938
1938
1938
1938
1938
1938
1934
1934
1934
1942
1942
1942
1942
1938
1938
1938
1936
1936
1936
1939
1939
1939
1934
1934
1934
1943
1943
1943
1943
1935
1935
1935
1935
1935
1935
1939
1939
1939
1937
1937
1937
1942
1942
1942
1942
1941
1941
1941
1935
1935
1935
1940
1940
1940
1938
1938
1938
1943
1943
1943
1943
1940
1940
1940
1935
1935
1935
1938
1938
1938
1937
1937
1937
1937
1937
1937
1937
1942
1942
1942
1936
1936
1936
1940
1940
1940
1937
1937
1937
1943
1943
1943
1943
1943
1943
1943
1938
1938
1938
1941
1941
1941
1938
1938
1938
1940
1940
1940
1940
1940
1940
1940
1936
1936
1936
1934
1934
1934
1939
1939
1939
1939
1939
1939
1939
1940
1940
1940
1937
1937
1937
1940
1940
1940
1938
1938
1938
1941
1941
1941
1941
1940
1940
1940
1931
1931
1931
1939
1939
1939
1936
1936
1936
1941
1941
1941
1941
1938
1938
1938
1938
1938
1938
1939
1939
1939
1944
1944
1944
1937
1937
1937
1937
1941
1941
1941
1935
1935
1935
1941
1941
1941
1937
1937
1937
1942
1942
1942
1942
1939
1939
1939
1938
1938
1938
1935
1935
1935
1936
1936
1936
1942
1942
1942
1942
1939
1939
1939
1937
1937
1937
1939
1939
1939
1936
1936
1936
1936
1936
1936
1936
1941
1941
1941
1938
1938
1938
1939
1939
1939
1938
1938
1938
1946
1946
1946
1946
1946
1946
1946
1936
1936
1936
1939
1939
1939
1935
1935
1935
1940
1940
1940
1940
1942
1942
1942
1938
1938
1938
1946
1946
1946
1939
1939
1939
1941
1941
1941
1941
1935
1935
1935
1936
1936
1936
1939
1939
1939
1935
1935
1935
1942
1942
1942
1942
1941
1941
1941
1932
1932
1932
1942
1942
1942
1936
1936
1936
1941
1941
1941
1941
1942
1942
1942
1940
1940
1940
1941
1941
1941
1936
1936
1936
1940
1940
1940
1940
1940
1940
1940
1937
1937
1937
1941
1941
1941
1937
1937
1937
1942
1942
1942
1942
1939
1939
1939
1935
1935
1935
1941
1941
1941
1935
1935
1935
1939
1939
1939
1939
1939
1939
1939
1935
1935
1935
1940
1940
1940
1938
1938
1938
1945
1945
1945
1945
1943
1943
1943
1937
1937
1937
1942
1942
1942
1937
1937
1937
1939
1939
1939
1939
1939
1939
1939
1933
1933
1933
1935
1935
1935
1937
1937
1937
1943
1943
1943
1943
1940
1940
1940
1940
1940
1940
1933
1933
1933
1936
1936
1936
1941
1941
1941
1941
1940
1940
1940
1937
1937
1937
1939
1939
1939
1935
1935
1935
1935
1935
1935
1935
1941
1941
1941
1937
1937
1937
1941
1941
1941
1937
1937
1937
1941
1941
1941
1941
1940
1940
1940
1938
1938
1938
1940
1940
1940
1936
1936
1936
1941
1941
1941
1941
1941
1941
1941
1937
1937
1937
1937
1937
1937
1936
1936
1936
1941
1941
1941
1941
1939
1939
1939
1937
1937
1937
1940
1940
1940
1939
1939
1939
1942
1942
1942
1942
1941
1941
1941
1937
1937
1937
1940
1940
1940
1938
1938
1938
1942
1942
1942
1942
1934
1934
1934
1937
1937
1937
1941
1941
1941
1941
1941
1941
1941
1941
1941
1941
1939
1939
1939
1935
1935
1935
1939
1939
1939
1938
1938
1938
1944
1944
1944
1944
1943
1943
1943
1941
1941
1941
1941
1941
1941
1933
1933
1933
1947
1947
1947
1947
1945
1945
1945
1936
1936
1936
1930
1930
1930
1934
1934
1934
1947
1947
1947
1947
1934
1934
1934
1937
1937
1937
1937
1937
1937
1937
1937
1937
1941
1941
1941
1941
1942
1942
1942
1940
1940
1940
1944
1944
1944
1937
1937
1937
1942
1942
1942
1942
1939
1939
1939
1936
1936
1936
1942
1942
1942
1937
1937
1937
1943
1943
1943
1943
1939
1939
1939
1942
1942
1942
1939
1939
1939
1938
1938
1938
1939
1939
1939
1939
1937
1937
1937
1938
1938
1938
1940
1940
1940
1935
1935
1935
1942
1942
1942
1942
1939
1939
1939
1935
1935
1935
1938
1938
1938
1934
1934
1934
1942
1942
1942
1942
1940
1940
1940
1937
1937
1937
1941
1941
1941
1939
1939
1939
1942
1942
1942
1942
1937
1937
1937
1941
1941
1941
1939
1939
1939
1939
1939
1939
1948
1948
1948
1948
1939
1939
1939
1936
1936
1936
1942
1942
1942
1933
1933
1933
1941
1941
1941
1941
1943
1943
1943
1937
1937
1937
1937
1937
1937
1937
1937
1937
1942
1942
1942
1942
1940
1940
1940
1937
1937
1937
1945
1945
1945
1935
1935
1935
1942
1942
1942
1942
1941
1941
1941
1939
1939
1939
1939
1939
1939
1934
1934
1934
1944
1944
1944
1944
1941
1941
1941
1941
1941
1941
1940
1940
1940
1931
1931
1931
