2036
2031
2031
2031
2032
2032
2032
2030
2030
2030
2030
2030
2030
2031
2031
2031
2031
2031
2031
2031
2034
2034
2034
2030
2030
2030
2032
2032
2032
2029
2029
2029
2029
2031
2031
2031
2032
2032
2032
2028
2028
2028
2036
2036
2036
2029
2029
2029
2029
2030
2030
2030
2029
2029
2029
2031
2031
2031
2037
2037
2037
2033
2033
2033
2033
2025
2025
2025
2031
2031
2031
2027
2027
2027
2031
2031
2031
2028
2028
2028
2028
2030
2030
2034
2034
2034
2034
2033
2033
2033
2025
2025
2025
2031
2031
2031
2028
2028
2028
2028
2029
2029
2029
2033
2033
2033
2035
2035
2035
2033
2033
2033
2027
2027
2027
2027
2027
2027
2027
2033
2033
2033
2039
2039
2039
2030
2030
2030
2035
2035
2035
2035
2029
2029
2029
2035
2035
2035
2036
2036
2036
2028
2028
2028
2032
2032
2032
2032
2032
2032
2032
2032
2032
2032
2028
2028
2028
2034
2034
2034
2025
2025
2025
2025
2036
2036
2036
2033
2033
2033
2029
2029
2029
2034
2034
2034
2027
2027
2027
2027
2029
2029
2029
2033
2033
2033
2035
2035
2035
2032
2032
2032
2031
2031
2031
2031
2031
2031
2031
2033
2033
2033
2029
2029
2029
2031
2031
2031
2030
2030
2030
2030
2029
2029
2029
2027
2027
2027
2032
2032
2032
2040
2040
2040
2031
2031
2031
2031
2027
2027
2027
2033
2033
2033
2025
2025
2025
2033
2033
2033
2035
2035
2035
2035
2030
2030
2030
2032
2032
2032
2029
2029
2029
2028
2028
2028
2030
2030
2030
2030
2030
2030
2030
2027
2027
2027
2031
2031
2031
2029
2029
2029
2033
2033
2033
2033
2035
2035
2035
2032
2032
2032
2032
2032
2032
2032
2032
2032
2032
2032
2032
2032
2028
2028
2028
2031
2031
2031
2030
2030
2030
2030
2030
2030
2032
2032
2032
2032
2029
2029
2029
2038
2038
2038
2032
2032
2032
2033
2033
2033
2032
2032
2032
2032
2032
2032
2032
2033
2033
2033
2034
2034
2034
2028
2028
2028
2032
2032
2032
2032
2031
2031
2031
2034
2034
2034
2031
2031
2031
2034
2034
2034
2031
2031
2031
2031
2028
2028
2028
2023
2023
2023
2030
2030
2030
2036
2036
2036
2029
2029
2029
2029
2031
2031
2031
2030
2030
2030
2029
2029
2029
2029
2029
2029
2029
2029
2029
2029
2030
2030
2030
2038
2038
2038
2031
2031
2031
2031
2031
2031
2030
2030
2030
2030
2035
2035
2035
2030
2030
2030
2030
2030
2030
2030
2030
2030
2034
2034
2034
2034
2027
2027
2027
2034
2034
2034
2034
2034
2034
2032
2032
2032
2037
2037
2037
2037
2031
2031
2031
2031
2031
2031
2028
2028
2028
2035
2035
2035
2031
2031
2031
2031
2032
2032
2032
2032
2032
2032
2030
2030
2030
2026
2026
2026
2029
2029
2029
2029
2029
2029
2029
2029
2029
2029
2032
2032
2032
2033
2033
2033
2023
2023
2023
2023
2026
2026
2026
2035
2035
2035
2035
2035
2035
2033
2033
2033
2031
2031
2031
2031
2030
2030
2030
2031
2031
2031
2032
2032
2032
2032
2032
2032
2037
2037
2037
2037
2034
2034
2034
2031
2031
2031
2028
2028
2028
2033
2033
2033
2031
2031
2031
2031
2032
2032
2032
2031
2031
2031
2033
2033
2033
2032
2032
2032
2032
2032
2032
2032
2034
2034
2034
2041
2041
2041
2033
2033
2033
2032
2032
2032
2030
2030
2030
2030
2028
2028
2028
2031
2031
2031
2028
2028
2028
2031
2031
2031
2029
2029
2029
2029
2030
2030
2030
2027
2027
2027
2031
2031
2031
2029
2029
2029
2033
2033
2033
2033
2032
2032
2032
2031
2031
2031
2027
2027
2027
2032
2032
2032
2032
2032
2032
2032
2031
2031
2031
2031
2031
2031
2032
2032
2032
2032
2032
2032
2032
2032
2032
2032
2029
2029
2029
2031
2031
2031
2033
2033
2033
2028
2028
2028
2023
2023
2023
2023
2030
2030
2030
2031
2031
2031
2029
2029
2029
2033
2033
2033
2033
2033
2033
2033
2030
2030
2030
2034
2034
2034
2029
2029
2029
2029
2029
2029
2029
2029
2029
2029
2031
2031
2031
2028
2028
2028
2031
2031
2031
2031
2031
2031
2031
2031
2031
2031
2031
2031
2031
2030
2030
2030
2032
2032
2032
2032
2032
2032
2031
2031
2031
2031
2030
2030
2030
2031
2031
2031
2030
2030
2030
2033
2033
2033
2031
2031
2031
2031
2035
2035
2035
2031
2031
2031
2032
2032
2032
2032
2032
2032
2028
2028
2028
2028
2038
2038
2038
2033
2033
2033
2027
2027
2027
2032
2032
2032
2031
2031
2031
2031
2030
2030
2030
2031
2031
2031
2030
2030
2030
2031
2031
2031
2035
2035
2035
2035
2030
2030
2030
2032
2032
2032
2025
2025
2025
2030
2030
2030
2026
2026
2026
2026
2026
2026
2026
2032
2032
2032
2034
2034
2034
2027
2027
2027
2028
2028
2028
2028
2031
2031
2031
2032
2032
2032
2029
2029
2029
2031
2031
2031
2033
2033
2033
2033
2029
2029
2029
2034
2034
2034
2032
2032
2032
2032
2032
2032
2031
2031
2031
2031
2033
2033
2033
2030
2030
2030
2031
2031
2031
2033
2033
2033
2028
2028
2028
2028
2026
2026
2026
2032
2032
2032
2030
2030
2030
2032
2032
2032
2032
2032
2032
2032
2026
2026
2026
2031
2031
2031
2031
2031
2031
2036
2036
2036
2031
2031
2031
2031
2036
2036
2036
2030
2030
2030
2026
2026
2026
2033
2033
2033
2027
2027
2027
2027
2034
2034
2034
2028
2028
2028
2032
2032
2032
2030
2030
2030
2030
2030
2030
2030
2030
2030
2030
2033
2033
2033
2031
2031
2031
2029
2029
2029
2030
2030
2030
2030
2030
2030
2030
2033
2033
2033
2030
2030
2030
2045
2045
2045
2030
2030
2030
2030
2030
2030
2030
2035
2035
2035
2031
2031
2031
2024
2024
2024
2030
2030
2030
2030
2031
2031
2031
2031
2031
2031
2030
2030
2030
2021
2021
2021
2030
2030
2030
2030
2032
2032
2032
2029
2029
2029
2030
2030
2030
2028
2028
2028
2031
2031
2031
2031
2029
2029
2029
2033
