2171
2171
2171
2171
2171
2176
2176
2176
2174
2174
2174
2174
2171
2171
2171
2172
2172
2172
2173
2173
2173
2170
2170
2170
2170
2170
2170
2170
2169
2169
2169
2170
2170
2170
2174
2174
2174
2169
2169
2169
2169
2169
2169
2169
2170
2170
2170
2170
2170
2170
2167
2167
2167
2171
2171
2171
2172
2172
2172
2172
2167
2167
2167
2171
2171
2171
2170
2170
2170
2170
2170
2170
2171
2171
2171
2171
2171
2171
2171
2171
2171
2171
2167
2167
2167
2171
2171
2171
2171
2171
2171
2171
2171
2171
2171
2171
2171
2171
2170
2170
2170
2171
2171
2171
2171
2171
2171
2171
2171
2171
2171
2172
2172
2172
2171
2171
2171
2171
2171
2171
2173
2173
2173
2172
2172
2172
2172
2170
2170
2170
2172
2172
2172
2174
2174
2174
2165
2165
2165
2171
2171
2171
2171
2171
2171
2171
2172
2172
2172
2170
2170
2170
2170
2170
2170
2168
2168
2168
2168
2172
2172
2172
2170
2170
2170
2177
2177
2177
2170
2170
2170
2169
2169
2169
2169
2172
2172
2172
2171
2171
2171
2171
2171
2171
2169
2169
2169
2172
2172
2172
2172
2173
2173
2173
2172
2172
2172
2166
2166
2166
2171
2171
2171
2172
2172
2172
2172
2168
2168
2168
2168
2168
2168
2171
2171
2171
2171
2171
2171
2174
2174
2174
2174
2170
2170
2170
2169
2169
2169
2170
2170
2170
2170
2170
2170
2168
2168
2168
2168
2169
2169
2169
2164
2164
2164
2169
2169
2169
2171
2171
2171
2170
2170
2170
2170
2166
2166
2166
2178
2178
2178
2171
2171
2171
2169
2169
2169
2171
2171
2171
2171
2172
2172
2172
2167
2167
2167
2171
2171
2171
2168
2168
2168
2168
2168
2168
2168
2178
2178
2178
2171
2171
2171
2169
2169
2169
2170
2170
2170
2174
2174
2174
2174
2169
2169
2169
2170
2170
2170
2171
2171
2171
2181
2181
2181
2171
2171
2171
2171
2170
2170
2170
2170
2170
2170
2160
2160
2160
2171
2171
2171
2171
2171
2171
2171
2171
2171
2171
2171
2171
2171
2160
2160
2160
2171
2171
2171
2172
2172
2172
2172
2167
2167
2167
2174
2174
2174
2168
2168
2168
2170
2170
2170
2170
2170
2170
2170
2171
2171
2171
2169
2169
2169
2166
2166
2166
2169
2169
2169
2172
2172
2172
2172
2172
2172
2172
2173
2173
2173
2171
2171
2171
2169
2169
2169
2171
2171
2171
2171
2169
2169
2169
2169
2169
2169
2174
2174
2174
2169
2169
2169
2173
2173
2173
2173
2167
2167
2167
2165
2165
2165
2169
2169
2169
2171
2171
2171
2178
2178
2178
2178
2168
2168
2168
2169
2169
2169
2171
2171
2171
2171
2171
2171
2173
2173
2173
2173
2170
2170
2170
2170
2170
2170
2173
2173
2173
2169
2169
2169
2170
2170
2170
2170
2173
2173
2173
2173
2173
2173
2171
2171
2171
2161
2161
2161
2172
2172
2172
2172
2168
2168
2168
2171
2171
2171
2171
2171
2171
2171
2171
2171
2172
2172
2172
2172
2162
2162
2162
2174
2174
2174
2170
2170
2170
2171
2171
2171
2171
2171
2171
2171
2172
2172
2172
2170
2170
2170
2169
2169
2169
2174
2174
2174
2169
2169
2169
2169
2170
2170
2170
2172
2172
2172
2177
2177
2177
2170
2170
2170
2170
2170
2170
2170
2170
2170
2170
2174
2174
2174
2173
2173
2173
2175
2175
2175
2173
2173
2173
2173
2169
2169
2169
2169
2169
2169
2170
2170
2170
2172
2172
2172
2172
2172
2172
2172
2170
2170
2170
2170
2170
2170
2172
2172
2172
2170
2170
2170
2167
2167
2167
2167
2168
2168
2168
2172
2172
2172
2169
2169
2169
2170
2170
2170
2165
2165
2165
2165
2171
2171
2171
2169
2169
2169
2172
2172
2172
2173
2173
2173
2170
2170
2170
2170
2170
2170
2170
2166
2166
2166
2171
2171
2171
2171
2171
2171
2173
2173
2173
2173
2170
2170
2170
2175
2175
2175
2168
2168
2168
2168
2168
2168
2170
2170
2170
2170
2172
2172
2172
2169
2169
2169
2169
2169
2169
2170
2170
2170
2174
2174
2174
2174
2171
2171
2171
2169
2169
2169
2168
2168
2168
2180
2180
2180
2168
2168
2168
2168
2171
2171
2171
2170
2170
2170
2165
2165
2165
2179
2179
2179
2169
2169
2169
2169
2170
2170
2170
2168
2168
2168
2170
2170
2170
2168
2168
2168
2172
2172
2172
2172
2171
2171
2171
2169
2169
2169
2164
2164
2164
2171
2171
2171
2167
2167
2167
2167
2174
2174
2174
2171
2171
2171
2173
2173
2173
2171
2171
2171
2171
2171
2171
2171
2169
2169
2169
2170
2170
2170
2168
2168
2168
2173
2173
2173
2172
2172
2172
2172
2170
2170
2170
2180
2180
2180
2169
2169
2169
2172
2172
2172
2176
2176
2176
2176
2169
2169
2169
2174
2174
2174
2170
2170
2170
2172
2172
2172
2172
2172
2172
2172
2169
2169
2169
2178
2178
2178
2169
2169
2169
2171
2171
2171
2171
2171
2171
2171
2171
2171
2171
2172
2172
2172
2170
2170
2170
2172
2172
2172
2176
2176
2176
2176
2169
2169
2169
2173
2173
2173
2170
2170
2170
2169
2169
2169
2170
2170
2170
2170
2164
2164
2164
2172
2172
2172
2170
2170
2170
2159
2159
2159
2170
2170
2170
2170
2171
2171
2171
2171
2171
2171
2171
2171
2171
2161
2161
2161
2170
2170
2170
2170
2169
2169
2169
2170
2170
2170
2171
2171
2171
2167
2167
2167
2171
2171
2171
2171
2172
2172
2172
2169
2169
2169
2171
2171
2171
2171
2171
2171
2173
2173
2173
2173
2170
2170
2170
2173
2173
2173
2171
2171
2171
2170
2170
2170
2171
2171
2171
2171
2167
2167
2167
2168
2168
2168
2168
2168
2168
2168
2168
2168
2171
2171
2171
2171
2169
2169
2169
2171
2171
2171
2164
2164
2164
2169
2169
2169
2170
2170
2170
2170
2168
2168
2168
2172
2172
2172
2167
2167
2167
2169
2169
2169
2174
2174
2174
2174
2169
2169
2169
2165
2165
2165
2166
2166
2166
2171
2171
2171
2175
2175
2175
2175
2168
2168
2168
2171
2171
2171
2174
2174
2174
