2144
2145
2145
2145
2145
2145
2145
2150
2150
2150
2145
2145
2145
2145
2145
2145
2145
2145
2145
2145
2146
2146
2146
2146
2146
2146
2145
2145
2145
2145
2142
2142
2142
2147
2147
2147
2145
2145
2145
2145
2145
2145
2144
2144
2144
2144
2142
2142
2142
2149
2149
2149
2146
2146
2146
2147
2147
2147
2143
2143
2143
2143
2152
2152
2152
2147
2147
2147
2145
2145
2145
2148
2148
2148
2142
2142
2142
2142
2142
2142
2142
2149
2149
2146
2146
2146
2146
2144
2144
2144
2144
2144
2144
2141
2141
2141
2141
2146
2146
2146
2155
2155
2155
2146
2146
2146
2145
2145
2145
2139
2139
2139
2139
2145
2145
2145
2145
2145
2145
2143
2143
2143
2142
2142
2142
2143
2143
2143
2143
2147
2147
2147
2147
2147
2147
2146
2146
2146
2148
2148
2148
2142
2142
2142
2142
2145
2145
2145
2147
2147
2147
2148
2148
2148
2147
2147
2147
2148
2148
2148
2148
2145
2145
2145
2131
2131
2131
2142
2142
2142
2144
2144
2144
2146
2146
2146
2146
2144
2144
2144
2147
2147
2147
2142
2142
2142
2148
2148
2148
2152
2152
2152
2152
2146
2146
2146
2146
2146
2146
2146
2146
2146
2145
2145
2145
2145
2145
2145
2145
2141
2141
2141
2143
2143
2143
2143
2143
2143
2145
2145
2145
2149
2149
2149
2149
2143
2143
2143
2148
2148
2148
2143
2143
2143
2145
2145
2145
2152
2152
2152
2152
2145
2145
2145
2146
2146
2146
2145
2145
2145
2147
2147
2147
2143
2143
2143
2143
2145
2145
2145
2147
2147
2147
2140
2140
2140
2143
2143
2143
2145
2145
2145
2145
2150
2150
2150
2147
2147
2147
2145
2145
2145
2144
2144
2144
2140
2140
2140
2140
2143
2143
2143
2147
2147
2147
2149
2149
2149
2148
2148
2148
2143
2143
2143
2143
2145
2145
2145
2146
2146
2146
2156
2156
2156
2144
2144
2144
2145
2145
2145
2145
2146
2146
2146
2145
2145
2145
2146
2146
2146
2144
2144
2144
2153
2153
2153
2153
2146
2146
2146
2142
2142
2142
2143
2143
2143
2144
2144
2144
2143
2143
2143
2143
2144
2144
2144
2152
2152
2152
2150
2150
2150
2147
2147
2147
2145
2145
2145
2145
2145
2145
2145
2145
2145
2145
2146
2146
2146
2143
2143
2143
2137
2137
2137
2137
2143
2143
2143
2153
2153
2153
2145
2145
2145
2148
2148
2148
2144
2144
2144
2144
2141
2141
2141
2148
2148
2148
2145
2145
2145
2142
2142
2142
2144
2144
2144
2144
2143
2143
2143
2142
2142
2142
2144
2144
2144
2145
2145
2145
2142
2142
2142
2142
2143
2143
2143
2141
2141
2141
2146
2146
2146
2144
2144
2144
2146
2146
2146
2146
2145
2145
2145
2144
2144
2144
2146
2146
2146
2144
2144
2144
2146
2146
2146
2146
2146
2146
2146
2152
2152
2152
2144
2144
2144
2143
2143
2143
2141
2141
2141
2141
2146
2146
2146
2151
2151
2151
2145
2145
2145
2147
2147
2147
2141
2141
2141
2141
2146
2146
2146
2144
2144
2144
2146
2146
2146
2147
2147
2147
2143
2143
2143
2143
2145
2145
2145
2147
2147
2147
2144
2144
2144
2138
2138
2138
2149
2149
2149
2149
2146
2146
2146
2147
2147
2147
2148
2148
2148
2146
2146
2146
2142
2142
2142
2142
2145
2145
2145
2147
2147
2147
2143
2143
2143
2144
2144
2144
2145
2145
2145
2145
2145
2145
2145
2146
2146
2146
2143
2143
2143
2144
2144
2144
2144
2144
2144
2144
2147
2147
2147
2146
2146
2146
2145
2145
2145
2145
2145
2145
2142
2142
2142
2142
2146
2146
2146
2149
2149
2149
2142
2142
2142
2144
2144
2144
2146
2146
2146
2146
2147
2147
2147
2146
2146
2146
2145
2145
2145
2139
2139
2139
2147
2147
2147
2147
2144
2144
2144
2147
2147
2147
2146
2146
2146
2149
2149
2149
2141
2141
2141
2141
2149
2149
2149
2146
2146
2146
2151
2151
2151
2147
2147
2147
2141
2141
2141
2141
2143
2143
2143
2147
2147
2147
2145
2145
2145
2136
2136
2136
2146
2146
2146
2146
2140
2140
2140
2144
2144
2144
2145
2145
2145
2145
2145
2145
2148
2148
2148
2148
2145
2145
2145
2153
2153
2153
2153
2153
2153
2145
2145
2145
2144
2144
2144
2144
2145
2145
2145
2145
2145
2145
2145
2145
2145
2152
2152
2152
2146
2146
2146
2146
2136
2136
2136
2152
2152
2152
2147
2147
2147
2146
2146
2146
2144
2144
2144
2144
2144
2144
2144
2148
2148
2148
2144
2144
2144
2147
2147
2147
2145
2145
2145
2145
2145
2145
2145
2146
2146
2146
2149
2149
2149
2147
2147
2147
2143
2143
2143
2143
2145
2145
2145
2144
2144
2144
2145
2145
2145
2154
2154
2154
2144
2144
2144
2144
2144
2144
2144
2145
2145
2145
2144
2144
2144
2144
2144
2144
2147
2147
2147
2147
2145
2145
2145
2147
2147
2147
2144
2144
2144
2152
2152
2152
2147
2147
2147
2147
2135
2135
2135
2147
2147
2147
2144
2144
2144
2146
2146
2146
2146
2146
2146
2146
2146
2146
2146
2145
2145
2145
2144
2144
2144
2141
2141
2141
2144
2144
2144
2144
2145
2145
2145
2146
2146
2146
2149
2149
2149
2147
2147
2147
2144
2144
2144
2144
2141
2141
2141
2146
2146
2146
2147
2147
2147
2142
2142
2142
2144
2144
2144
2144
2144
2144
2144
2145
2145
2145
2147
2147
2147
2142
2142
2142
2145
2145
2145
2145
2152
2152
2152
2147
2147
2147
2140
2140
2140
2143
2143
2143
2144
2144
2144
2144
2144
2144
2144
2147
2147
2147
2145
2145
2145
2140
2140
2140
2148
2148
2148
2148
2148
2148
2148
2148
2148
2148
2145
2145
2145
2147
2147
2147
2144
2144
2144
2144
2142
2142
2142
2143
2143
2143
2152
2152
2152
2147
2147
2147
2144
2144
2144
2144
2152
2152
2152
2144
2144
2144
2146
2146
2146
2140
2140
2140
2146
2146
2146
2146
2148
2148
2148
2149
2149
2149
2145
2145
2145
2145
2145
2145
2144
2144
2144
2144
2146
2146
2146
2147
2147
2147
2150
