2149
2149
2149
2145
2145
2145
2143
2143
2143
2148
2148
2148
2143
2143
2143
2145
2145
2145
2145
2148
2148
2148
2145
2145
2145
2148
2148
2148
2144
2144
2144
2152
2152
2152
2152
2143
2143
2143
2146
2146
2146
2147
2147
2147
2145
2145
2145
2149
2149
2149
2149
2139
2139
2139
2144
2144
2144
2154
2154
2154
2136
2136
2136
2151
2151
2151
2151
2146
2146
2146
2146
2146
2146
2139
2139
2139
2146
2146
2146
2151
2151
2151
2151
2149
2149
2149
2149
2143
2143
2143
2143
2143
2143
2149
2149
2149
2142
2142
2142
2145
2145
2145
2145
2148
2148
2148
2143
2143
2143
2146
2146
2146
2145
2145
2145
2148
2148
2148
2148
2145
2145
2145
2143
2143
2143
2147
2147
2147
2140
2140
2140
2150
2150
2150
2150
2146
2146
2146
2144
2144
2144
2147
2147
2147
2141
2141
2141
2149
2149
2149
2149
2147
2147
2147
2141
2141
2141
2149
2149
2149
2141
2141
2141
2145
2145
2145
2145
2146
2146
2146
2143
2143
2143
2148
2148
2148
2141
2141
2141
2147
2147
2147
2147
2146
2146
2146
2144
2144
2144
2144
2144
2144
2141
2141
2141
2146
2146
2146
2146
2143
2143
2143
2145
2145
2145
2146
2146
2146
2143
2143
2143
2147
2147
2147
2147
2150
2150
2150
2141
2141
2141
2149
2149
2149
2144
2144
2144
2149
2149
2149
2149
2146
2146
2146
2145
2145
2145
2147
2147
2147
2145
2145
2145
2145
2145
2145
2145
2147
2147
2147
2142
2142
2142
2147
2147
2147
2143
2143
2143
2147
2147
2147
2147
2143
2143
2143
2143
2143
2143
2149
2149
2149
2143
2143
2143
2145
2145
2145
2145
2152
2152
2152
2145
2145
2145
2142
2142
2142
2144
2144
2144
2148
2148
2148
2148
2146
2146
2146
2142
2142
2142
2148
2148
2148
2144
2144
2144
2151
2151
2151
2151
2147
2147
2147
2144
2144
2144
2146
2146
2146
2139
2139
2139
2149
2149
2149
2149
2146
2146
2146
2141
2141
2141
2146
2146
2146
2148
2148
2148
2147
2147
2147
2147
2147
2147
2147
2146
2146
2146
2155
2155
2155
2145
2145
2145
2146
2146
2146
2146
2146
2146
2146
2141
2141
2141
2146
2146
2146
2142
2142
2142
2148
2148
2148
2148
2151
2151
2151
2149
2149
2149
2149
2149
2149
2140
2140
2140
2149
2149
2149
2149
2148
2148
2148
2143
2143
2143
2147
2147
2147
2145
2145
2145
2142
2142
2142
2142
2147
2147
2147
2142
2142
2142
2146
2146
2146
2144
2144
2144
2150
2150
2150
2150
2145
2145
2145
2143
2143
2143
2146
2146
2146
2149
2149
2149
2147
2147
2147
2147
2147
2147
2147
2145
2145
2145
2148
2148
2148
2143
2143
2143
2147
2147
2147
2147
2146
2146
2146
2144
2144
2144
2146
2146
2146
2148
2148
2148
2144
2144
2144
2144
2145
2145
2145
2145
2145
2145
2148
2148
2148
2136
2136
2136
2147
2147
2147
2147
2148
2148
2148
2141
2141
2141
2143
2143
2143
2143
2143
2143
2148
2148
2148
2148
2147
2147
2147
2145
2145
2145
2150
2150
2150
2142
2142
2142
2150
2150
2150
2150
2147
2147
2147
2145
2145
2145
2146
2146
2146
2143
2143
2143
2151
2151
2151
2151
2153
2153
2153
2140
2140
2140
2145
2145
2145
2145
2145
2145
2146
2146
2146
2146
2142
2142
2142
2147
2147
2147
2147
2147
2147
2145
2145
2145
2147
2147
2147
2147
2152
2152
2152
2142
2142
2142
2148
2148
2148
2144
2144
2144
2148
2148
2148
2148
2148
2148
2148
2142
2142
2142
2149
2149
2149
2145
2145
2145
2147
2147
2147
2147
2147
2147
2147
2144
2144
2144
2146
2146
2146
2140
2140
2140
2147
2147
2147
2147
2148
2148
2148
2146
2146
2146
2147
2147
2147
2141
2141
2141
2149
2149
2149
2149
2142
2142
2142
2144
2144
2144
2146
2146
2146
2149
2149
2149
2154
2154
2154
2154
2146
2146
2146
2143
2143
2143
2146
2146
2146
2149
2149
2149
2147
2147
2147
2147
2146
2146
2146
2142
2142
2142
2148
2148
2148
2147
2147
2147
2150
2150
2150
2150
2145
2145
2145
2145
2145
2145
2148
2148
2148
2145
2145
2145
2147
2147
2147
2147
2145
2145
2145
2137
2137
2137
2148
2148
2148
2143
2143
2143
2145
2145
2145
2145
2152
2152
2152
2147
2147
2147
2144
2144
2144
2145
2145
2145
2150
2150
2150
2150
2149
2149
2149
2143
2143
2143
2147
2147
2147
2139
2139
2139
2147
2147
2147
2147
2144
2144
2144
2145
2145
2145
2147
2147
2147
2143
2143
2143
2145
2145
2145
2145
2147
2147
2147
2148
2148
2148
2149
2149
2149
2144
2144
2144
2151
2151
2151
2151
2147
2147
2147
2145
2145
2145
2145
2145
2145
2140
2140
2140
2149
2149
2149
2149
2146
2146
2146
2147
2147
2147
2148
2148
2148
2144
2144
2144
2148
2148
2148
2148
2146
2146
2146
2141
2141
2141
2145
2145
2145
2140
2140
2140
2148
2148
2148
2148
2145
2145
2145
2149
2149
2149
2149
2149
2149
2143
2143
2143
2147
2147
2147
2147
2143
2143
2143
2143
2143
2143
2147
2147
2147
2144
2144
2144
2150
2150
2150
2150
2144
2144
2144
2145
2145
2145
2148
2148
2148
2143
2143
2143
2149
2149
2149
2149
2147
2147
2147
2144
2144
2144
2149
2149
2149
2144
2144
2144
2147
2147
2147
2147
2146
2146
2146
2146
2146
2146
2153
2153
2153
2144
2144
2144
2144
2144
2144
2144
2146
2146
2146
2141
2141
2141
2147
2147
2147
2141
2141
2141
2149
2149
2149
2149
2149
2149
2149
2141
2141
2141
2147
2147
2147
2139
2139
2139
2147
2147
2147
2147
2149
2149
2149
2145
2145
2145
2147
2147
2147
2141
2141
2141
2148
2148
2148
2148
2148
2148
2148
2145
2145
2145
2142
2142
2142
2144
2144
2144
2152
2152
2152
2152
2147
2147
2147
2148
2148
2148
2159
2159
2159
2144
2144
2144
2147
2147
2147
2147
2149
2149
2149
2153
2153
2153
2150
2150
2150
2133
2133
2133
2147
2147
2147
2147
2145
