2140
2140
2140
2145
2145
2145
2140
2140
2140
2145
2145
2145
2145
2144
2144
2144
2140
2140
2140
2147
2147
2147
2139
2139
2139
2141
2141
2141
2141
2143
2143
2143
2143
2143
2143
2137
2137
2137
2146
2146
2146
2142
2142
2142
2142
2148
2148
2148
2139
2139
2139
2140
2140
2140
2132
2132
2132
2146
2146
2146
2146
2138
2138
2138
2141
2141
2141
2151
2151
2151
2141
2141
2141
2142
2142
2142
2142
2144
2144
2144
2141
2141
2141
2142
2141
2141
2141
2145
2145
2145
2142
2142
2142
2144
2144
2144
2144
2139
2139
2139
2139
2139
2139
2144
2144
2144
2140
2140
2140
2144
2144
2144
2144
2142
2142
2142
2138
2138
2138
2143
2143
2143
2141
2141
2141
2142
2142
2142
2142
2143
2143
2143
2141
2141
2141
2142
2142
2142
2140
2140
2140
2140
2140
2140
2140
2143
2143
2143
2140
2140
2140
2143
2143
2143
2137
2137
2137
2141
2141
2141
2141
2143
2143
2143
2139
2139
2139
2135
2135
2135
2142
2142
2142
2145
2145
2145
2145
2142
2142
2142
2138
2138
2138
2144
2144
2144
2139
2139
2139
2144
2144
2144
2144
2136
2136
2136
2145
2145
2145
2146
2146
2146
2138
2138
2138
2141
2141
2141
2141
2136
2136
2136
2138
2138
2138
2143
2143
2143
2139
2139
2139
2142
2142
2142
2142
2147
2147
2147
2140
2140
2140
2143
2143
2143
2138
2138
2138
2143
2143
2143
2143
2145
2145
2145
2141
2141
2141
2145
2145
2145
2139
2139
2139
2143
2143
2143
2143
2143
2143
2143
2139
2139
2139
2145
2145
2145
2137
2137
2137
2143
2143
2143
2143
2142
2142
2142
2137
2137
2137
2147
2147
2147
2139
2139
2139
2144
2144
2144
2144
2141
2141
2141
2138
2138
2138
2146
2146
2146
2139
2139
2139
2139
2139
2139
2139
2148
2148
2148
2140
2140
2140
2145
2145
2145
2134
2134
2134
2137
2137
2137
2137
2144
2144
2144
2138
2138
2138
2143
2143
2143
2139
2139
2139
2141
2141
2141
2141
2143
2143
2143
2140
2140
2140
2143
2143
2143
2141
2141
2141
2144
2144
2144
2144
2136
2136
2136
2139
2139
2139
2145
2145
2145
2140
2140
2140
2139
2139
2139
2139
2150
2150
2150
2141
2141
2141
2141
2141
2141
2139
2139
2139
2144
2144
2144
2144
2147
2147
2147
2141
2141
2141
2144
2144
2144
2137
2137
2137
2145
2145
2145
2145
2144
2144
2144
2139
2139
2139
2146
2146
2146
2140
2140
2140
2145
2145
2145
2145
2140
2140
2140
2141
2141
2141
2146
2146
2146
2139
2139
2139
2144
2144
2144
2144
2146
2146
2146
2141
2141
2141
2143
2143
2143
2135
2135
2135
2147
2147
2147
2147
2143
2143
2143
2141
2141
2141
2143
2143
2143
2140
2140
2140
2146
2146
2146
2146
2144
2144
2144
2141
2141
2141
2146
2146
2146
2142
2142
2142
2140
2140
2140
2140
2144
2144
2144
2137
2137
2137
2144
2144
2144
2139
2139
2139
2144
2144
2144
2144
2143
2143
2143
2140
2140
2140
2151
2151
2151
2137
2137
2137
2143
2143
2143
2143
2143
2143
2143
2138
2138
2138
2142
2142
2142
2138
2138
2138
2141
2141
2141
2141
2139
2139
2139
2130
2130
2130
2144
2144
2144
2141
2141
2141
2141
2141
2141
2141
2144
2144
2144
2137
2137
2137
2143
2143
2143
2139
2139
2139
2144
2144
2144
2144
2143
2143
2143
2138
2138
2138
2145
2145
2145
2139
2139
2139
2143
2143
2143
2143
2146
2146
2146
2138
2138
2138
2144
2144
2144
2139
2139
2139
2144
2144
2144
2144
2144
2144
2144
2139
2139
2139
2144
2144
2144
2140
2140
2140
2143
2143
2143
2143
2141
2141
2141
2141
2141
2141
2142
2142
2142
2136
2136
2136
2141
2141
2141
2141
2144
2144
2144
2143
2143
2143
2147
2147
2147
2143
2143
2143
2143
2143
2143
2143
2146
2146
2146
2140
2140
2140
2144
2144
2144
2146
2146
2146
2145
2145
2145
2145
2139
2139
2139
2141
2141
2141
2146
2146
2146
2130
2130
2130
2142
2142
2142
2142
2142
2142
2142
2137
2137
2137
2134
2134
2134
2140
2140
2140
2143
2143
2143
2143
2143
2143
2143
2132
2132
2132
2144
2144
2144
2139
2139
2139
2143
2143
2143
2143
2139
2139
2139
2142
2142
2142
2143
2143
2143
2139
2139
2139
2141
2141
2141
2141
2142
2142
2142
2137
2137
2137
2142
2142
2142
2139
2139
2139
2140
2140
2140
2140
2143
2143
2143
2140
2140
2140
2143
2143
2143
2142
2142
2142
2144
2144
2144
2144
2145
2145
2145
2141
2141
2141
2144
2144
2144
2141
2141
2141
2144
2144
2144
2144
2144
2144
2144
2141
2141
2141
2141
2141
2141
2138
2138
2138
2136
2136
2136
2136
2142
2142
2142
2140
2140
2140
2148
2148
2148
2144
2144
2144
2145
2145
2145
2145
2143
2143
2143
2137
2137
2137
2140
2140
2140
2137
2137
2137
2143
2143
2143
2143
2144
2144
2144
2134
2134
2134
2143
2143
2143
2140
2140
2140
2143
2143
2143
2143
2145
2145
2145
2144
2144
2144
2145
2145
2145
2139
2139
2139
2142
2142
2142
2142
2139
2139
2139
2137
2137
2137
2143
2143
2143
2137
2137
2137
2142
2142
2142
2142
2142
2142
2142
2141
2141
2141
2142
2142
2142
2141
2141
2141
2144
2144
2144
2144
2143
2143
2143
2137
2137
2137
2143
2143
2143
2141
2141
2141
2144
2144
2144
2144
2141
2141
2141
2139
2139
2139
2147
2147
2147
2137
2137
2137
2142
2142
2142
2142
2143
2143
2143
2141
2141
2141
2142
2142
2142
2143
2143
2143
2143
2143
2143
2143
2139
2139
2139
2137
2137
2137
2144
2144
2144
2137
2137
2137
2137
2137
2137
2137
2143
2143
2143
2141
2141
2141
2144
2144
2144
2145
2145
2145
2139
2139
2139
2139
2145
2145
2145
2140
2140
2140
2147
2147
2147
2141
2141
2141
2144
2144
2144
2144
2142
2142
2142
2137
2137
2137
2147
2147
2147
2140
2140
2140
2144
2144
2144
2144
2141
2141
2141
2136
2136
2136
2144
