2033
2033
2032
2032
2032
2035
2035
2035
2032
2032
2032
2032
2031
2031
2031
2030
2030
2030
2033
2033
2033
2034
2034
2034
2035
2035
2035
2035
2031
2031
2031
2031
2031
2031
2028
2028
2028
2028
2028
2028
2031
2031
2031
2031
2030
2030
2030
2033
2033
2033
2025
2025
2025
2032
2032
2032
2031
2031
2031
2031
2030
2030
2030
2026
2026
2026
2034
2034
2034
2029
2029
2029
2037
2037
2037
2037
2031
2031
2031
2030
2030
2030
2032
2035
2035
2032
2032
2032
2035
2035
2035
2030
2030
2030
2030
2030
2030
2030
2031
2031
2031
2034
2034
2034
2031
2031
2031
2027
2027
2027
2027
2032
2032
2032
2033
2033
2033
2034
2034
2034
2034
2034
2034
2033
2033
2033
2033
2031
2031
2031
2033
2033
2033
2021
2021
2021
2032
2032
2032
2038
2038
2038
2038
2033
2033
2033
2030
2030
2030
2030
2030
2030
2031
2031
2031
2032
2032
2032
2032
2031
2031
2031
2027
2027
2027
2027
2027
2027
2032
2032
2032
2029
2029
2029
2029
2036
2036
2036
2034
2034
2034
2029
2029
2029
2033
2033
2033
2032
2032
2032
2032
2032
2032
2032
2030
2030
2030
2036
2036
2036
2031
2031
2031
2031
2031
2031
2031
2035
2035
2035
2031
2031
2031
2033
2033
2033
2035
2035
2035
2033
2033
2033
2033
2030
2030
2030
2030
2030
2030
2033
2033
2033
2029
2029
2029
2032
2032
2032
2032
2034
2034
2034
2033
2033
2033
2033
2033
2033
2029
2029
2029
2032
2032
2032
2032
2028
2028
2028
2033
2033
2033
2028
2028
2028
2032
2032
2032
2030
2030
2030
2030
2031
2031
2031
2032
2032
2032
2030
2030
2030
2034
2034
2034
2031
2031
2031
2031
2038
2038
2038
2033
2033
2033
2032
2032
2032
2032
2032
2032
2033
2033
2033
2033
2037
2037
2037
2036
2036
2036
2026
2026
2026
2033
2033
2033
2030
2030
2030
2030
2032
2032
2032
2031
2031
2031
2032
2032
2032
2035
2035
2035
2032
2032
2032
2032
2031
2031
2031
2034
2034
2034
2032
2032
2032
2039
2039
2039
2031
2031
2031
2031
2028
2028
2028
2033
2033
2033
2033
2033
2033
2033
2033
2033
2030
2030
2030
2030
2031
2031
2031
2032
2032
2032
2039
2039
2039
2033
2033
2033
2029
2029
2029
2029
2033
2033
2033
2034
2034
2034
2029
2029
2029
2033
2033
2033
2038
2038
2038
2038
2032
2032
2032
2029
2029
2029
2029
2029
2029
2031
2031
2031
2033
2033
2033
2033
2029
2029
2029
2031
2031
2031
2032
2032
2032
2036
2036
2036
2034
2034
2034
2034
2029
2029
2029
2035
2035
2035
2032
2032
2032
2031
2031
2031
2043
2043
2043
2043
2030
2030
2030
2035
2035
2035
2032
2032
2032
2033
2033
2033
2029
2029
2029
2029
2034
2034
2034
2038
2038
2038
2030
2030
2030
2033
2033
2033
2026
2026
2026
2026
2033
2033
2033
2034
2034
2034
2035
2035
2035
2028
2028
2028
2031
2031
2031
2031
2033
2033
2033
2033
2033
2033
2029
2029
2029
2029
2029
2029
2030
2030
2030
2030
2031
2031
2031
2031
2031
2031
2032
2032
2032
2033
2033
2033
2033
2033
2033
2033
2028
2028
2028
2033
2033
2033
2029
2029
2029
2033
2033
2033
2028
2028
2028
2028
2031
2031
2031
2032
2032
2032
2033
2033
2033
2035
2035
2035
2036
2036
2036
2036
2031
2031
2031
2034
2034
2034
2031
2031
2031
2033
2033
2033
2032
2032
2032
2032
2032
2032
2032
2027
2027
2027
2032
2032
2032
2031
2031
2031
2033
2033
2033
2033
2036
2036
2036
2030
2030
2030
2031
2031
2031
2033
2033
2033
2034
2034
2034
2034
2032
2032
2032
2032
2032
2032
2027
2027
2027
2033
2033
2033
2032
2032
2032
2032
2030
2030
2030
2030
2030
2030
2030
2030
2030
2032
2032
2032
2030
2030
2030
2030
2031
2031
2031
2030
2030
2030
2033
2033
2033
2032
2032
2032
2033
2033
2033
2033
2035
2035
2035
2033
2033
2033
2034
2034
2034
2036
2036
2036
2033
2033
2033
2033
2026
2026
2026
2035
2035
2035
2034
2034
2034
2035
2035
2035
2031
2031
2031
2031
2037
2037
2037
2031
2031
2031
2032
2032
2032
2032
2032
2032
2031
2031
2031
2031
2032
2032
2032
2038
2038
2038
2036
2036
2036
2033
2033
2033
2028
2028
2028
2028
2031
2031
2031
2038
2038
2038
2035
2035
2035
2035
2035
2035
2035
2035
2035
2035
2030
2030
2030
2036
2036
2036
2033
2033
2033
2032
2032
2032
2032
2032
2032
2032
2033
2033
2033
2029
2029
2029
2032
2032
2032
2033
2033
2033
2035
2035
2035
2035
2035
2035
2035
2033
2033
2033
2029
2029
2029
2033
2033
2033
2029
2029
2029
2029
2033
2033
2033
2030
2030
2030
2031
2031
2031
2033
2033
2033
2032
2032
2032
2032
2030
2030
2030
2031
2031
2031
2030
2030
2030
2031
2031
2031
2031
2031
2031
2031
2034
2034
2034
2034
2034
2034
2031
2031
2031
2029
2029
2029
2031
2031
2031
2031
2032
2032
2032
2033
2033
2033
2032
2032
2032
2035
2035
2035
2030
2030
2030
2030
2025
2025
2025
2035
2035
2035
2033
2033
2033
2031
2031
2031
2024
2024
2024
2024
2030
2030
2030
2031
2031
2031
2033
2033
2033
2037
2037
2037
2031
2031
2031
2031
2033
2033
2033
2033
2033
2033
2032
2032
2032
2031
2031
2031
2031
2031
2031
2031
2029
2029
2029
2037
2037
2037
2033
2033
2033
2031
2031
2031
2030
2030
2030
2030
2026
2026
2026
2032
2032
2032
2027
2027
2027
2032
2032
2032
2032
2032
2032
2032
2021
2021
2021
2031
2031
2031
2031
2031
2031
2032
2032
2032
2033
2033
2033
2033
2037
2037
2037
2031
2031
2031
2033
2033
2033
2033
2033
2033
2030
2030
2030
2030
2035
2035
2035
2030
2030
2030
2031
2031
2031
2032
2032
2032
2031
2031
2031
2031
2031
2031
2031
2034
2034
2034
2033
2033
2033
2033
2033
2033
2032
2032
2032
2032
2034
2034
2034
2029
2029
2029
2035
2035
2035
