2028
2028
2028
2028
2028
2028
2028
2028
2028
2032
2032
2032
2029
2029
2029
2028
2028
2028
2028
2028
2028
2028
2031
2031
2031
2032
2032
2032
2030
2030
2030
2036
2036
2036
2028
2028
2028
2028
2026
2026
2026
2029
2029
2029
2028
2028
2028
2034
2034
2034
2027
2027
2027
2027
2027
2027
2027
2029
2029
2029
2029
2029
2029
2027
2027
2027
2032
2032
2032
2032
2034
2034
2034
2030
2030
2030
2027
2027
2027
2025
2025
2025
2032
2027
2027
2032
2032
2032
2032
2030
2030
2030
2027
2027
2027
2031
2031
2031
2031
2031
2031
2031
2031
2031
2031
2028
2028
2028
2031
2031
2031
2031
2031
2031
2028
2028
2028
2031
2031
2031
2031
2030
2030
2030
2025
2025
2025
2033
2033
2033
2029
2029
2029
2027
2027
2027
2027
2025
2025
2025
2028
2028
2028
2027
2027
2027
2029
2029
2029
2028
2028
2028
2028
2026
2026
2026
2031
2031
2031
2029
2029
2029
2032
2032
2032
2030
2030
2030
2030
2028
2028
2028
2027
2027
2027
2029
2029
2029
2024
2024
2024
2029
2029
2029
2029
2028
2028
2028
2026
2026
2026
2031
2031
2031
2025
2025
2025
2030
2030
2030
2030
2027
2027
2027
2031
2031
2031
2028
2028
2028
2027
2027
2027
2031
2031
2031
2031
2028
2028
2028
2028
2028
2028
2028
2028
2028
2028
2028
2028
2032
2032
2032
2032
2029
2029
2029
2027
2027
2027
2028
2028
2028
2029
2029
2029
2028
2028
2028
2028
2029
2029
2029
2031
2031
2031
2028
2028
2028
2029
2029
2029
2031
2031
2031
2031
2030
2030
2030
2032
2032
2032
2031
2031
2031
2027
2027
2027
2029
2029
2029
2029
2026
2026
2026
2029
2029
2029
2035
2035
2035
2033
2033
2033
2030
2030
2030
2030
2030
2030
2030
2027
2027
2027
2027
2027
2027
2032
2032
2032
2029
2029
2029
2029
2032
2032
2032
2028
2028
2028
2036
2036
2036
2029
2029
2029
2029
2029
2029
2029
2028
2028
2028
2028
2028
2028
2026
2026
2026
2030
2030
2030
2031
2031
2031
2031
2029
2029
2029
2030
2030
2030
2029
2029
2029
2028
2028
2028
2028
2028
2028
2028
2029
2029
2029
2029
2029
2029
2031
2031
2031
2028
2028
2028
2030
2030
2030
2030
2026
2026
2026
2031
2031
2031
2028
2028
2028
2028
2028
2028
2031
2031
2031
2031
2032
2032
2032
2030
2030
2030
2030
2030
2030
2023
2023
2023
2032
2032
2032
2032
2031
2031
2031
2031
2031
2031
2029
2029
2029
2027
2027
2027
2035
2035
2035
2035
2029
2029
2029
2029
2029
2029
2029
2029
2029
2031
2031
2031
2028
2028
2028
2028
2030
2030
2030
2027
2027
2027
2028
2028
2028
2030
2030
2030
2031
2031
2031
2031
2033
2033
2033
2030
2030
2030
2030
2030
2030
2029
2029
2029
2028
2028
2028
2028
2029
2029
2029
2029
2029
2029
2026
2026
2026
2032
2032
2032
2029
2029
2029
2029
2031
2031
2031
2028
2028
2028
2031
2031
2031
2029
2029
2029
2029
2029
2029
2029
2028
2028
2028
2027
2027
2027
2029
2029
2029
2028
2028
2028
2029
2029
2029
2029
2032
2032
2032
2024
2024
2024
2017
2017
2017
2031
2031
2031
2029
2029
2029
2029
2028
2028
2028
2033
2033
2033
2031
2031
2031
2032
2032
2032
2029
2029
2029
2029
2029
2029
2029
2031
2031
2031
2033
2033
2033
2029
2029
2029
2030
2030
2030
2030
2029
2029
2029
2023
2023
2023
2031
2031
2031
2030
2030
2030
2031
2031
2031
2031
2029
2029
2029
2029
2029
2029
2029
2029
2029
2030
2030
2030
2028
2028
2028
2028
2031
2031
2031
2033
2033
2033
2030
2030
2030
2029
2029
2029
2030
2030
2030
2030
2029
2029
2029
2034
2034
2034
2032
2032
2032
2027
2027
2027
2029
2029
2029
2029
2029
2029
2029
2028
2028
2028
2027
2027
2027
2030
2030
2030
2030
2030
2030
2030
2030
2030
2030
2032
2032
2032
2031
2031
2031
2030
2030
2030
2028
2028
2028
2028
2030
2030
2030
2033
2033
2033
2026
2026
2026
2032
2032
2032
2028
2028
2028
2028
2027
2027
2027
2024
2024
2024
2030
2030
2030
2031
2031
2031
2030
2030
2030
2030
2032
2032
2032
2031
2031
2031
2030
2030
2030
2032
2032
2032
2030
2030
2030
2030
2037
2037
2037
2030
2030
2030
2036
2036
2036
2028
2028
2028
2029
2029
2029
2029
2028
2028
2028
2032
2032
2032
2030
2030
2030
2025
2025
2025
2033
2033
2033
2033
2029
2029
2029
2028
2028
2028
2031
2031
2031
2028
2028
2028
2025
2025
2025
2025
2031
2031
2031
2026
2026
2026
2027
2027
2027
2029
2029
2029
2029
2029
2029
2029
2029
2029
2029
2031
2031
2031
2029
2029
2029
2029
2029
2029
2029
2029
2029
2029
2029
2029
2029
2036
2036
2036
2032
2032
2032
2028
2028
2028
2031
2031
2031
2031
2028
2028
2028
2029
2029
2029
2035
2035
2035
2028
2028
2028
2029
2029
2029
2029
2027
2027
2027
2029
2029
2029
2026
2026
2026
2032
2032
2032
2031
2031
2031
2031
2031
2031
2031
2029
2029
2029
2031
2031
2031
2028
2028
2028
2029
2029
2029
2029
2030
2030
2030
2026
2026
2026
2030
2030
2030
2032
2032
2032
2032
2032
2032
2032
2030
2030
2030
2030
2030
2030
2035
2035
2035
2027
2027
2027
2023
2023
2023
2023
2029
2029
2029
2026
2026
2026
2030
2030
2030
2028
2028
2028
2030
2030
2030
2030
2031
2031
2031
2031
2031
2031
2027
2027
2027
2028
2028
2028
2034
2034
2034
2034
2027
2027
2027
2027
2027
2027
2030
2030
2030
2027
2027
2027
2028
2028
2028
2028
2029
2029
2029
2030
2030
2030
2031
2031
2031
2029
2029
2029
2033
2033
2033
2033
2028
2028
2028
2030
2030
2030
2028
2028
2028
2029
2029
2029
2028
2028
2028
2028
2028
2028
2028
2030
2030
2030
2028
2028
2028
2029
2029
2029
2029
2029
2029
2029
2026
2026
2026
2030
2030
2030
2031
2031
2031
2029
2029
2029
2029
2029
2029
