2055
2055
2055
2055
2055
2055
2051
2051
2051
2054
2054
2054
2052
2052
2052
2054
2054
2054
2053
2053
2053
2053
2049
2049
2049
2053
2053
2053
2049
2049
2049
2055
2055
2055
2059
2059
2059
2059
2050
2050
2050
2052
2052
2052
2052
2052
2052
2053
2053
2053
2048
2048
2048
2048
2054
2054
2054
2051
2051
2051
2057
2057
2057
2054
2054
2054
2054
2054
2054
2054
2051
2051
2051
2053
2053
2053
2051
2051
2051
2054
2054
2054
2049
2049
2049
2049
2054
2054
2054
2053
2053
2053
2048
2048
2048
2053
2053
2053
2052
2052
2052
2052
2052
2052
2052
2052
2052
2052
2053
2053
2053
2052
2052
2052
2052
2052
2052
2052
2048
2048
2048
2052
2052
2052
2053
2053
2053
2054
2054
2054
2050
2050
2050
2050
2056
2056
2056
2055
2055
2055
2049
2049
2049
2055
2055
2055
2054
2054
2054
2054
2051
2051
2051
2050
2050
2050
2045
2045
2045
2054
2054
2054
2052
2052
2052
2052
2055
2055
2055
2059
2059
2059
2052
2052
2052
2053
2053
2053
2051
2051
2051
2051
2055
2055
2055
2048
2048
2048
2060
2060
2060
2052
2052
2052
2051
2051
2051
2051
2053
2053
2053
2057
2057
2057
2055
2055
2055
2056
2056
2056
2049
2049
2049
2049
2055
2055
2055
2047
2047
2047
2057
2057
2057
2052
2052
2052
2051
2051
2051
2051
2050
2050
2050
2056
2056
2056
2049
2049
2049
2048
2048
2048
2053
2053
2053
2053
2049
2049
2049
2057
2057
2057
2051
2051
2051
2055
2055
2055
2052
2052
2052
2052
2047
2047
2047
2057
2057
2057
2047
2047
2047
2053
2053
2053
2054
2054
2054
2054
2045
2045
2045
2056
2056
2056
2058
2058
2058
2054
2054
2054
2047
2047
2047
2047
2056
2056
2056
2050
2050
2050
2043
2043
2043
2057
2057
2057
2047
2047
2047
2047
2045
2045
2045
2053
2053
2053
2053
2053
2053
2055
2055
2055
2049
2049
2049
2049
2054
2054
2054
2054
2054
2054
2052
2052
2052
2054
2054
2054
2049
2049
2049
2049
2053
2053
2053
2053
2053
2053
2050
2050
2050
2053
2053
2053
2056
2056
2056
2056
2052
2052
2052
2053
2053
2053
2051
2051
2051
2053
2053
2053
2055
2055
2055
2055
2051
2051
2051
2053
2053
2053
2051
2051
2051
2053
2053
2053
2050
2050
2050
2050
2052
2052
2052
2052
2052
2052
2053
2053
2053
2053
2053
2053
2051
2051
2051
2051
2051
2051
2051
2055
2055
2055
2052
2052
2052
2057
2057
2057
2051
2051
2051
2051
2053
2053
2053
2053
2053
2053
2050
2050
2050
2054
2054
2054
2052
2052
2052
2052
2053
2053
2053
2050
2050
2050
2053
2053
2053
2054
2054
2054
2052
2052
2052
2052
2052
2052
2052
2057
2057
2057
2053
2053
2053
2053
2053
2053
2052
2052
2052
2052
2053
2053
2053
2054
2054
2054
2053
2053
2053
2056
2056
2056
2050
2050
2050
2050
2055
2055
2055
2051
2051
2051
2052
2052
2052
2057
2057
2057
2050
2050
2050
2050
2049
2049
2049
2054
2054
2054
2052
2052
2052
2060
2060
2060
2051
2051
2051
2051
2052
2052
2052
2047
2047
2047
2050
2050
2050
2050
2050
2050
2054
2054
2054
2054
2052
2052
2052
2052
2052
2052
2051
2051
2051
2053
2053
2053
2053
2053
2053
2053
2053
2053
2053
2054
2054
2054
2052
2052
2052
2053
2053
2053
2051
2051
2051
2051
2047
2047
2047
2050
2050
2050
2053
2053
2053
2052
2052
2052
2051
2051
2051
2051
2046
2046
2046
2053
2053
2053
2054
2054
2054
2054
2054
2054
2047
2047
2047
2047
2056
2056
2056
2053
2053
2053
2058
2058
2058
2053
2053
2053
2046
2046
2046
2046
2040
2040
2040
2053
2053
2053
2047
2047
2047
2054
2054
2054
2054
2054
2054
2054
2050
2050
2050
2053
2053
2053
2050
2050
2050
2054
2054
2054
2051
2051
2051
2051
2052
2052
2052
2055
2055
2055
2049
2049
2049
2054
2054
2054
2053
2053
2053
2053
2050
2050
2050
2055
2055
2055
2054
2054
2054
2053
2053
2053
2053
2053
2053
2053
2052
2052
2052
2049
2049
2049
2053
2053
2053
2051
2051
2051
2053
2053
2053
2053
2052
2052
2052
2055
2055
2055
2054
2054
2054
2051
2051
2051
2050
2050
2050
2050
2053
2053
2053
2049
2049
2049
2047
2047
2047
2048
2048
2048
2052
2052
2052
2052
2053
2053
2053
2062
2062
2062
2049
2049
2049
2051
2051
2051
2050
2050
2050
2050
2051
2051
2051
2048
2048
2048
2054
2054
2054
2049
2049
2049
2052
2052
2052
2052
2049
2049
2049
2056
2056
2056
2056
2056
2056
2057
2057
2057
2048
2048
2048
2048
2048
2048
2048
2057
2057
2057
2051
2051
2051
2050
2050
2050
2056
2056
2056
2056
2050
2050
2050
2053
2053
2053
2052
2052
2052
2056
2056
2056
2054
2054
2054
2054
2051
2051
2051
2055
2055
2055
2050
2050
2050
2053
2053
2053
2056
2056
2056
2056
2053
2053
2053
2052
2052
2052
2051
2051
2051
2057
2057
2057
2046
2046
2046
2046
2051
2051
2051
2056
2056
2056
2059
2059
2059
2052
2052
2052
2055
2055
2055
2055
2052
2052
2052
2052
2052
2052
2050
2050
2050
2054
2054
2054
2052
2052
2052
2052
2051
2051
2051
2053
2053
2053
2053
2053
2053
2055
2055
2055
2054
2054
2054
2054
2049
2049
2049
2054
2054
2054
2055
2055
2055
2054
2054
2054
2051
2051
2051
2051
2051
2051
2051
2052
2052
2052
2051
2051
2051
2053
2053
2053
2053
2053
2053
2053
2051
2051
2051
2053
2053
2053
2053
2053
2053
2052
2052
2052
2049
2049
2049
2049
2052
2052
2052
2052
2052
2052
2054
2054
2054
2053
2053
2053
2054
2054
2054
2054
2051
2051
2051
2045
2045
2045
2051
2051
2051
2053
2053
2053
2053
2053
2053
2053
2053
2053
2053
2055
2055
2055
2051
2051
2051
2055
2055
2055
2057
2057
2057
2057
2050
2050
2050
2059
2059
2059
2050
2050
2050
2059
2059
2059
2052
2052
2052
2052
2052
2052
2052
2053
2053
2053
2050
2050
2050
2049
2049
2049
2050
2050
2050
2050
2053
2053
2053
2049
2049
2049
2053
2053
2053
2048
2048
2048
2052
2052
2052
2052
2048
2048
2048
2052
2052
2052
2051
2051
2051
2054
2054
2054
2049
2049
2049
2049
2046
2046
2046
2054
2054
2054
2054
2054
2054
2053
2053
2053
2051
2051
2051
2051
2052
2052
2052
2050
2050
2050
2055
2055
2055
2056
2056
2056
2051
2051
2051
2051
2054
2054
2054
2050
2050
2050
2054
2054
2054
2052
2052
2052
2050
2050
2050
2050
2045
2045
2045
2052
2052
2052
2056
2056
2056
2055
2055
2055
2054
2054
2054
2054
2049
2049
2049
2054
2054
2054
2049
2049
2049
2059
2059
2059
2051
2051
2051
2051
2050
2050
2050
2051
2051
2051
2054
2054
2054
2055
2055
2055
2055
2055
2055
2055
2055
2055
2055
2054
2054
2054
2045
2045
2045
2055
2055
2055
2051
2051
2051
2051
2051
2051
2051
2053
2053
2053
2054
2054
2054
2051
2051
2051
2050
2050
2050
2050
2053
2053
2053
2053
2053
2053
2052
2052
2052
2054
2054
2054
2051
2051
2051
2051
2050
2050
2050
2051
2051
2051
2052
2052
2052
2058
2058
2058
2053
2053
2053
2053
2052
2052
2052
2052
2052
2052
2054
2054
2054
2055
2055
2055
2051
2051
2051
2051
2051
2051
2051
2055
2055
2055
2052
2052
2052
2057
2057
2057
2052
2052
2052
2052
2052
2052
2052
2055
2055
2055
2051
2051
2051
2056
2056
2056
2052
2052
2052
2052
2052
2052
2052
2054
2054
2054
2053
2053
2053
2055
2055
2055
2052
2052
2052
2052
2050
2050
2050
2055
2055
2055
2052
2052
2052
2054
2054
2054
2049
2049
2049
2049
2053
2053
2053
2052
2052
2052
2053
2053
2053
2051
2051
2051
2051
2051
2051
2051
2052
2052
2052
2053
2053
2053
2052
2052
2052
2054
2054
2054
2051
2051
2051
2051
2054
2054
2054
2053
2053
2053
2052
2052
2052
2053
2053
2053
2052
2052
2052
2052
2052
2052
2052
2054
2054
2054
2053
2053
2053
2054
2054
2054
2050
2050
2050
2050
2053
2053
2053
2051
2051
2051
2049
2049
2049
2055
2055
2055
2049
2049
2049
2049
2052
2052
2052
2051
2051
2051
2053
2053
2053
2051
2051
2051
2052
2052
2052
2052
2053
2053
2053
2052
2052
2052
2046
2046
2046
2052
2052
2052
2052
2052
2052
2052
2042
2042
2042
2055
2055
2055
2046
2046
2046
2053
2053
2053
2051
2051
2051
2051
2052
2052
2052
2055
2055
2055
2058
2058
2058
2052
2052
2052
2054
2054
2054
2054
2056
2056
2056
2052
2052
2052
2053
2053
2053
2052
2052
2052
2054
2054
2054
2054
2050
2050
2050
2054
2054
2054
2051
2051
2051
2054
2054
2054
2053
2053
2053
2053
2055
2055
2055
2051
2051
2051
2051
2051
2051
2054
2054
2054
2060
2060
2060
2060
2055
2055
2055
2053
2053
2053
2051
2051
2051
2053
2053
2053
2048
2048
2048
2048
2054
2054
2054
2053
2053
2053
2052
2052
2052
2054
2054
2054
2055
2055
2055
2055
2052
2052
2052
2052
2052
2052
2052
2052
2052
2053
2053
2053
2052
2052
2052
2052
2047
2047
2047
2053
2053
2053
2053
2053
2053
2056
2056
2056
2052
2052
2052
2052
2050
2050
2050
2051
2051
2051
2052
2052
2052
2051
2051
2051
2051
2051
2051
2051
2052
2052
2052
2055
2055
2055
2053
2053
2053
2053
2053
2053
2051
2051
2051
2051
2053
2053
2053
2053
2053
2053
2049
2049
2049
2053
2053
2053
2053
2053
2053
2053
2052
2052
2052
2050
2050
2050
2053
2053
2053
2054
2054
2054
2053
2053
2053
2053
2052
2052
2052
2053
2053
2053
2054
2054
2054
2053
2053
2053
2051
2051
2051
2051
2052
2052
2052
2053
2053
2053
2051
2051
2051
2055
2055
2055
2051
2051
2051
2051
2054
2054
2054
2052
2052
2052
2050
2050
2050
2050
2050
2050
2052
2052
2052
2052
2049
2049
2049
2055
2055
2055
2054
2054
2054
2055
2055
2055
2051
2051
2051
2051
2058
2058
2058
2055
2055
2055
2052
2052
2052
2055
2055
2055
2052
2052
2052
2052
2056
2056
2056
2055
2055
2055
2051
2051
2051
2054
2054
2054
2047
2047
2047
2047
2054
2054
2054
2052
2052
2052
2048
2048
2048
2053
2053
2053
2056
2056
2056
2056
2060
2060
2060
2055
2055
2055
2053
2053
2053
2054
2054
2054
2051
2051
2051
2051
2050
2050
2050
2054
2054
2054
2053
2053
2053
2054
2054
2054
2048
2048
2048
2048
2052
2052
2052
2048
2048
2048
2057
2057
2057
2050
2050
2050
2051
2051
2051
2051
2057
2057
2057
2050
2050
2050
2047
2047
2047
2052
2052
2052
2055
2055
2055
2055
2054
2054
2054
2055
2055
2055
2052
2052
2052
2056
2056
2056
2051
2051
2051
2051
2050
2050
2050
2050
2050
2050
2049
2049
2049
2054
2054
2054
2052
2052
2052
2052
2050
2050
2050
2056
2056
2056
2053
2053
2053
2053
2053
2053
2053
2053
2053
2053
2051
2051
2051
2056
2056
2056
2044
2044
2044
2054
2054
2054
2052
2052
2052
2052
2053
2053
2053
2052
2052
2052
2053
2053
2053
2066
2066
2066
2052
2052
2052
2052
2048
2048
2048
2054
2054
2054
2051
2051
2051
2057
2057
2057
2053
2053
2053
2053
2053
2053
2053
2053
2053
2053
2054
2054
2054
2053
2053
2053
2049
2049
2049
2049
2057
2057
2057
2045
2045
2045
2057
2057
2057
2055
2055
2055
2060
2060
2060
2060
2052
2052
2052
2056
2056
2056
2047
2047
2047
2051
2051
2051
2051
2051
2051
2051
2054
2054
2054
2048
2048
2048
2054
2054
2054
2051
2051
2051
2051
2051
2051
2051
2050
2050
2050
2051
2051
2051
2052
2052
2052
2048
2048
2048
2044
2044
2044
2044
2052
2052
2052
2051
2051
2051
2052
2052
2052
2052
2052
2052
2054
2054
2054
2054
2054
2054
2054
2056
2056
2056
2049
2049
2049
2057
2057
2057
2050
2050
2050
2050
2057
2057
2057
2053
2053
2053
2057
2057
2057
2053
2053
2053
2053
2053
2053
2053
2051
2051
2051
2053
2053
2053
2052
2052
2052
2056
2056
2056
2051
2051
2051
2051
2050
2050
2050
2053
2053
2053
2051
2051
2051
2054
2054
2054
2045
2045
2045
2045
2052
2052
2052
2054
2054
2054
2049
2049
2049
2053
2053
2053
2050
2050
2050
2050
2050
2050
2050
2055
2055
2055
2052
2052
2052
2056
2056
2056
2054
2054
2054
2054
2051
2051
2051
2051
2051
2051
2052
2052
2052
2055
2055
2055
2050
2050
2050
2050
2051
2051
2051
2050
2050
2050
2050
2050
2050
2053
2053
2053
2051
2051
2051
2051
2051
2051
2051
2056
2056
2056
2051
2051
2051
2057
2057
2057
2051
2051
2051
2051
2052
2052
2052
2048
2048
2048
2051
2051
2051
2055
2055
2055
2051
2051
2051
2051
2052
2052
2052
2051
2051
2051
2052
2052
2052
2046
2046
2046
2052
2052
2052
2052
2052
2052
2052
2052
2052
2052
2051
2051
2051
2058
2058
2058
2051
2051
2051
2051
2051
2051
2051
2051
2051
2051
2052
2052
2052
2053
2053
2053
2051
2051
2051
2051
2051
2051
2051
2050
2050
2050
2054
2054
2054
2053
2053
2053
2053
2053
2053
2053
2050
2050
2050
2053
2053
2053
2048
2048
2048
2054
2054
2054
2055
2055
2055
2055
2049
2049
2049
2053
2053
2053
2052
2052
2052
2054
2054
2054
2052
2052
2052
2052
2047
2047
2047
2053
2053
2053
2049
2049
2049
2051
2051
2051
2044
2044
2044
2044
2051
2051
2051
2052
2052
2052
2053
2053
2053
2052
2052
2052
2055
2055
2055
2055
2053
2053
2053
2055
2055
2055
2049
2049
2049
2052
2052
2052
2056
2056
2056
2056
2058
2058
2058
2055
2055
2055
2046
2046
2046
2055
2055
2055
2052
2052
2052
2052
2048
2048
2048
2046
2046
2046
2055
2055
2055
2055
2055
2055
2055
2055
2055
2055
2045
2045
2045
2058
2058
2058
2050
2050
2050
2056
2056
2056
2052
2052
2052
2052
2053
2053
2053
2048
2048
2048
2049
2049
2049
2053
2053
2053
2052
2052
2052
2052
2051
2051
2051
2048
2048
2048
2054
2054
2054
2057
2057
2057
2050
2050
2050
2050
2045
2045
2045
2054
2054
2054
2048
2048
2048
2062
2062
2062
2050
2050
2050
2050
2056
2056
2056
2052
2052
2052
2057
2057
2057
2049
2049
2049
2054
2054
2054
2054
2048
2048
2048
2055
2055
2055
2050
2050
2050
2050
2050
2050
2051
2051
2051
2051
2052
2052
2052
2049
2049
2049
2051
2051
2051
2052
2052
2052
2051
2051
2051
2051
2057
2057
2057
2055
2055
2055
2055
2055
2055
2056
2056
2056
2052
2052
2052
2052
2053
2053
2053
2057
2057
2057
2060
2060
2060
2055
2055
2055
2050
2050
2050
2050
2051
2051
2051
2058
2058
2058
2054
2054
2054
2051
2051
2051
2051
2051
2051
2051
2054
2054
2054
2056
2056
2056
2052
2052
2052
2051
2051
2051
2049
2049
2049
2049
2054
2054
2054
2048
2048
2048
2053
2053
2053
2055
2055
2055
2052
2052
2052
2052
2056
2056
2056
2051
2051
2051
2052
2052
2052
2056
2056
2056
2052
2052
2052
2052
2055
2055
2055
2054
2054
2054
2052
2052
2052
2056
2056
2056
2053
2053
2053
2053
2056
2056
2056
2054
2054
2054
2051
2051
2051
2052
2052
2052
2057
2057
2057
2057
2053
2053
2053
2052
2052
2052
2051
2051
2051
2050
2050
2050
2059
2059
2059
2059
2050
2050
2050
2053
2053
2053
2053
2053
2053
2049
2049
2049
2056
2056
2056
2056
2053
2053
2053
2051
2051
2051
2050
2050
2050
2059
2059
2059
2046
2046
2046
2046
2050
2050
2050
2055
2055
2055
2056
2056
2056
2045
2045
2045
2053
2053
2053
2053
2050
2050
2050
2057
2057
2057
2049
2049
2049
2055
2055
2055
2051
2051
2051
2051
2050
2050
2050
2058
2058
2058
2048
2048
2048
2056
2056
2056
2052
2052
2052
2052
2052
2052
2052
2053
2053
2053
2055
2055
2055
2049
2049
2049
2052
2052
2052
2052
2053
2053
2053
2055
2055
2055
2051
2051
2051
2052
2052
2052
2055
2055
2055
2055
2051
2051
2051
2055
2055
2055
2051
2051
2051
2052
2052
2052
2055
2055
2055
2055
2052
2052
2052
2052
2052
2052
2049
2049
2049
2056
2056
2056
2052
2052
2052
2052
2052
2052
2052
2050
2050
2050
2053
2053
2053
2052
2052
2052
2053
2053
2053
2053
2049
2049
2049
2053
2053
2053
2053
2053
2053
2054
2054
2054
2050
2050
2050
2050
2047
2047
2047
2055
2055
2055
2052
2052
2052
2055
2055
2055
2048
2048
2048
2048
2049
2049
2049
2053
2053
2053
2057
2057
2057
2053
2053
2053
2050
2050
2050
2050
2058
2058
2058
2053
2053
2053
2050
2050
2050
2054
2054
2054
2052
2052
2052
2052
2051
2051
2051
2052
2052
2052
2050
2050
2050
2052
2052
2052
2052
2052
2052
2052
2052
2052
2052
2053
2053
2053
2052
2052
2052
2053
2053
2053
2053
2053
2053
2053
2052
2052
2052
2045
2045
2045
2052
2052
2052
2053
2053
2053
2051
2051
2051
2051
2051
2051
2051
2050
2050
2050
2052
2052
2052
2059
2059
2059
2051
2051
2051
2051
2050
2050
2050
2054
2054
2054
2052
2052
2052
2057
2057
2057
2052
2052
2052
2052
2053
2053
2053
2049
2049
2049
2052
2052
2052
2051
2051
2051
2054
2054
2054
2054
2054
2054
2054
2056
2056
2056
2051
2051
2051
2057
2057
2057
2052
2052
2052
2052
2054
2054
2054
2051
2051
2051
2052
2052
2052
2052
2052
2052
2051
2051
2051
2051
2049
2049
2049
2052
2052
2052
2051
2051
2051
2055
2055
2055
2053
2053
2053
2053
2055
2055
2055
2052
2052
2052
2052
2052
2052
2052
2052
2052
2051
2051
2051
2051
2053
2053
2053
2052
2052
2052
2048
2048
2048
2053
2053
2053
2053
2053
2053
2053
2054
2054
2054
2055
2055
2055
2049
2049
2049
2054
2054
2054
2052
2052
2052
2052
2054
2054
2054
2053
2053
2053
2047
2047
2047
2054
2054
2054
2050
2050
2050
2050
2056
2056
2056
2053
2053
2053
2057
2057
2057
2054
2054
2054
2053
2053
2053
2053
2057
2057
2057
2052
2052
2052
2051
2051
2051
2053
2053
2053
2047
2047
2047
2047
2048
2048
2048
2051
2051
2051
2053
2053
2053
2054
2054
2054
2051
2051
2051
2051
2053
2053
2053
2051
2051
2051
2048
2048
2048
2049
2049
2049
2053
2053
2053
2053
2051
2051
2051
2054
2054
2054
2051
2051
2051
2048
2048
2048
2049
2049
2049
2049
2050
2050
2050
2054
2054
2054
2053
2053
2053
2053
2053
2053
2053
2053
2053
2053
2052
2052
2052
2050
2050
2050
2053
2053
2053
2055
2055
2055
2052
2052
2052
2052
2051
2051
2051
2060
2060
2060
2050
2050
2050
2058
2058
2058
2049
2049
2049
2049
2047
2047
2047
2051
2051
2051
2052
2052
2052
2056
2056
2056
2051
2051
2051
2051
2050
2050
2050
2050
2050
2050
2052
2052
2052
2057
2057
2057
2053
2053
2053
2053
2051
2051
2051
2053
2053
2053
2051
2051
2051
2054
2054
2054
2051
2051
2051
2051
2051
2051
2051
2053
2053
2053
2051
2051
2051
2054
2054
2054
2050
2050
2050
2050
2051
2051
2051
2051
2051
2051
2052
2052
2052
2052
2052
2052
2052
2052
2052
2052
2049
2049
2049
2052
2052
2052
2052
2052
2052
2054
2054
2054
2050
2050
2050
2050
2047
2047
2047
2052
2052
2052
2050
2050
2050
2052
2052
2052
2052
2052
2052
2052
2051
2051
2051
2053
2053
2053
2052
2052
2052
2053
2053
2053
2050
2050
2050
2050
2051
2051
2051
2055
2055
2055
2047
2047
2047
2052
2052
2052
2052
2052
2052
2052
2052
2052
2052
2053
2053
2053
2053
2053
2053
2055
2055
2055
2050
2050
2050
2050
2052
2052
2052
2054
2054
2054
2051
2051
2051
2052
2052
2052
2053
2053
2053
2053
2051
2051
2051
2053
2053
2053
2045
2045
2045
2054
2054
2054
2051
2051
2051
2051
2052
2052
2052
2051
2051
2051
2052
2052
2052
2053
2053
2053
2052
2052
2052
2052
2050
2050
2050
2053
2053
2053
2053
2053
2053
2061
2061
2061
2052
2052
2052
2052
2049
2049
2049
2054
2054
2054
2053
2053
2053
2053
2053
2053
2053
2053
2053
2053
2051
2051
2051
2056
2056
2056
2053
2053
2053
2049
2049
2049
2052
2052
2052
2052
2052
2052
2052
2050
2050
2050
2053
2053
2053
2053
2053
2053
2054
2054
2054
2054
2051
2051
2051
2051
2051
2051
2053
2053
2053
2054
2054
2054
2054
2054
2054
2054
2052
2052
2052
2053
2053
2053
2052
2052
2052
2056
2056
2056
2052
2052
2052
2052
2053
2053
2053
2050
2050
2050
2045
2045
2045
2052
2052
2052
2054
2054
2054
2054
2055
2055
2055
2056
2056
2056
2053
2053
2053
2054
2054
2054
2057
2057
2057
2057
2051
2051
2051
2058
2058
2058
2052
2052
2052
2053
2053
2053
2051
2051
2051
2051
2047
2047
2047
2052
2052
2052
2052
2052
2052
2050
2050
2050
2054
2054
2054
2054
2052
2052
2052
2051
2051
2051
2050
2050
2050
2054
2054
2054
2054
2054
2054
2054
2049
2049
2049
2053
2053
2053
2047
2047
2047
2053
2053
2053
2054
2054
2054
2054
2051
2051
2051
2053
2053
2053
2055
2055
2055
2054
2054
2054
2052
2052
2052
2052
2049
2049
2049
2060
2060
2060
2048
2048
2048
2060
2060
2060
2046
2046
2046
2046
2051
2051
2051
2054
2054
2054
2052
2052
2052
2053
2053
2053
2056
2056
2056
2056
2051
2051
2051
2054
2054
2054
2049
2049
2049
2056
2056
2056
2056
2056
2056
2056
2053
2053
2053
2053
2053
2053
2050
2050
2050
2054
2054
2054
2051
2051
2051
2051
2050
2050
2050
2053
2053
2053
2057
2057
2057
2050
2050
2050
2053
2053
2053
2053
2054
2054
2054
2053
2053
2053
2055
2055
2055
2047
2047
2047
2053
2053
2053
2053
2046
2046
2046
2055
2055
2055
2056
2056
2056
2054
2054
2054
2047
2047
2047
2047
2050
2050
2050
2052
2052
2052
2047
2047
2047
2051
2051
2051
2048
2048
2048
2048
2051
2051
2051
2053
2053
2053
2052
2052
2052
2052
2052
2052
2057
2057
2057
2057
2051
2051
2051
2053
2053
2053
2054
2054
2054
2054
2054
2054
2052
2052
2052
2052
2048
2048
2048
2052
2052
2052
2053
2053
2053
2054
2054
2054
2051
2051
2051
2051
2050
2050
2050
2053
2053
2053
2048
2048
2048
2053
2053
2053
2050
2050
2050
2050
2052
2052
2052
2052
2052
2052
2052
2052
2052
2047
2047
2047
2053
2053
2053
2053
2051
2051
2051
2055
2055
2055
2050
2050
2050
2050
2050
2050
2050
2050
2050
2050
2053
2053
2053
2053
2053
2053
2053
2053
2053
2054
2054
2054
2050
2050
2050
2050
2052
2052
2052
2052
2052
2052
2052
2052
2052
2054
2054
2054
2051
2051
2051
2051
2047
2047
2047
2052
2052
2052
2052
2052
2052
2053
2053
2053
2050
2050
2050
2050
2053
2053
2053
2051
2051
2051
2051
2051
2051
2053
2053
2053
2053
2053
2053
2053
2053
2053
2053
2053
2053
2053
2055
2055
2055
2053
2053
2053
2052
2052
2052
2052
2051
2051
2051
2053
2053
2053
2051
2051
2051
2052
2052
2052
2054
2054
2054
2054
2051
2051
2051
2054
2054
2054
2051
2051
2051
2050
2050
2050
2057
2057
2057
2057
2057
2057
2057
2053
2053
2053
2051
2051
2051
2050
2050
2050
2053
2053
2053
2053
2054
2054
2054
2052
2052
2052
2051
2051
2051
2052
2052
2052
2051
2051
2051
2051
2047
2047
2047
2051
2051
2051
2052
2052
2052
2054
2054
2054
2052
2052
2052
2052
2057
2057
2057
2054
2054
2054
2051
2051
2051
2054
2054
2054
2052
2052
2052
2052
2052
2052
2052
2050
2050
2050
2050
2050
2050
2051
2051
2051
2051
2051
2051
2051
2052
2052
2052
2053
2053
2053
2055
2055
2055
2056
2056
2056
2054
2054
2054
2054
2057
2057
2057
2051
2051
2051
2056
2056
2056
2057
2057
2057
2052
2052
2052
2052
2053
2053
2053
2055
2055
2055
2048
2048
2048
2053
2053
2053
2052
2052
2052
2052
2048
2048
2048
2056
2056
2056
2048
2048
2048
2049
2049
2049
2048
2048
2048
2048
2054
2054
2054
2055
2055
2055
2048
2048
2048
2057
2057
2057
2052
2052
2052
2052
2047
2047
2047
2052
2052
2052
2049
2049
2049
2057
2057
2057
2043
2043
2043
2043
2049
2049
2049
2053
2053
2053
2055
2055
2055
2052
2052
2052
2042
2042
2042
2042
2057
2057
2057
2048
2048
2048
2047
2047
2047
2055
2055
2055
2051
2051
2051
2051
2052
2052
2052
2058
2058
2058
2050
2050
2050
2054
2054
2054
2052
2052
2052
2052
2051
2051
2051
2053
2053
2053
2046
2046
2046
2052
2052
2052
2052
2052
2052
2052
2052
2052
2052
2053
2053
2053
2052
2052
2052
2050
2050
2050
2053
2053
2053
2053
2054
2054
2054
2052
2052
2052
2049
2049
2049
2054
2054
2054
2051
2051
2051
2051
2055
2055
2055
2055
2055
2055
2044
2044
2044
2049
2049
2049
2047
2047
2047
2047
2052
2052
2052
2050
2050
2050
2050
2050
2050
2059
2059
2059
2049
2049
2049
2049
2052
2052
2052
2056
2056
2056
2052
2052
2052
2051
2051
2051
2050
2050
2050
2050
2050
2050
2050
2056
2056
2056
2049
2049
2049
2061
2061
2061
2049
2049
2049
2049
2053
2053
2053
2055
2055
2055
2050
2050
2050
2049
2049
2049
2054
2054
2054
2054
2052
2052
2052
2050
2050
2050
2055
2055
2055
2051
2051
2051
2052
2052
2052
2052
2054
2054
2054
2055
2055
2055
2051
2051
2051
2053
2053
2053
2054
2054
2054
2054
2047
2047
2047
2053
2053
2053
2051
2051
2051
2056
2056
2056
2050
2050
2050
2050
2051
2051
2051
2057
2057
2057
2050
2050
2050
2055
2055
2055
2052
2052
2052
2052
2044
2044
2044
2053
2053
2053
2056
2056
2056
2058
2058
2058
2051
2051
2051
2051
2054
2054
2054
2053
2053
2053
2053
2053
2053
2055
2055
2055
2049
2049
2049
2049
2051
2051
2051
2054
2054
2054
2049
2049
2049
2054
2054
2054
2051
2051
2051
2051
2055
2055
2055
2054
2054
2054
2052
2052
2052
2052
2052
2052
2049
2049
2049
2049
2051
2051
2051
2059
2059
2059
2051
2051
2051
2056
2056
2056
2051
2051
2051
2051
2053
2053
2053
2054
2054
2054
2055
2055
2055
2056
2056
2056
2050
2050
2050
2050
2051
2051
2051
2055
2055
2055
2053
2053
2053
2050
2050
2050
2054
2054
2054
2054
2051
2051
2051
2052
2052
2052
2053
2053
2053
2054
2054
2054
2050
2050
2050
2050
2051
2051
2051
2054
2054
2054
2055
2055
2055
2054
2054
2054
2052
2052
2052
2052
2051
2051
2051
2055
2055
2055
2052
2052
2052
2052
2052
2052
2053
2053
2053
2053
2051
2051
2051
2053
2053
2053
2056
2056
2056
2053
2053
2053
2047
2047
2047
2047
2051
2051
2051
2054
2054
2054
2052
2052
2052
2052
2052
2052
2053
2053
2053
2053
2050
2050
2050
2053
2053
2053
2051
2051
2051
2054
2054
2054
2050
2050
2050
2050
2051
2051
2051
2054
2054
2054
2051
2051
2051
2053
2053
2053
2051
2051
2051
2051
2050
2050
2050
2052
2052
2052
2052
2052
2052
2053
2053
2053
2051
2051
2051
2051
2050
2050
2050
2056
2056
2056
2054
2054
2054
2057
2057
2057
2051
2051
2051
2051
2056
2056
2056
2044
2044
2044
2056
2056
2056
2048
2048
2048
2052
2052
2052
2052
2051
2051
2051
2047
2047
2047
2053
2053
2053
2049
2049
2049
2050
2050
2050
2050
2053
2053
2053
2051
2051
2051
2049
2049
2049
2061
2061
2061
2050
2050
2050
2050
2056
2056
2056
2056
2056
2056
2052
2052
2052
2053
2053
2053
2053
2053
2053
2053
2047
2047
2047
2056
2056
2056
2057
2057
2057
2053
2053
2053
2052
2052
2052
2052
2056
2056
2056
2050
2050
2050
2052
2052
2052
2056
2056
2056
2050
2050
2050
2050
2046
2046
2046
2059
2059
2059
2046
2046
2046
2058
2058
2058
2053
2053
2053
2053
2055
2055
2055
2055
2055
2055
2047
2047
2047
2054
2054
2054
2053
2053
2053
2053
2049
2049
2049
2056
2056
2056
2056
2056
2056
2058
2058
2058
2047
2047
2047
2047
2052
2052
2052
2056
2056
2056
2050
2050
2050
2053
2053
2053
2048
2048
2048
2048
2050
2050
2050
2053
2053
2053
2052
2052
2052
2052
2052
2052
2053
2053
2053
2053
2050
2050
2050
2054
2054
2054
2050
2050
2050
2054
2054
2054
2048
2048
2048
2048
2051
2051
2051
2051
2051
2051
2052
2052
2052
2055
2055
2055
2056
2056
2056
2056
2052
2052
2052
2048
2048
2048
2054
2054
2054
2055
2055
2055
2053
2053
2053
2053
2051
2051
2051
2052
2052
2052
2051
2051
2051
2055
2055
2055
2052
2052
2052
2052
2053
2053
2053
2053
2053
2053
2053
2053
2053
2058
2058
2058
2050
2050
2050
2050
2052
2052
2052
2053
2053
2053
2053
2053
2053
2053
2053
2053
2051
2051
2051
2051
2051
2051
2051
2056
2056
2056
2051
2051
2051
2054
2054
2054
2053
2053
2053
2053
2053
2053
2053
2051
2051
2051
2054
2054
2054
2053
2053
2053
2049
2049
2049
2049
2057
2057
2057
2053
2053
2053
2053
2053
2053
2052
2052
2052
2049
2049
2049
2049
2051
2051
2051
2052
2052
2052
2052
2052
2052
2054
2054
2054
2049
2049
2049
2049
2046
2046
2046
2054
2054
2054
2051
2051
2051
2054
2054
2054
2051
2051
2051
2051
2057
2057
2057
2054
2054
2054
2052
2052
2052
2054
2054
2054
2051
2051
2051
2051
2056
2056
2056
2059
2059
2059
2055
2055
2055
2057
2057
2057
2053
2053
2053
2053
2053
2053
2053
2050
2050
2050
2054
2054
2054
2048
2048
2048
2054
2054
2054
2054
2052
2052
2052
2051
2051
2051
2051
2051
2051
2057
2057
2057
2051
2051
2051
2051
2049
2049
2049
2055
2055
2055
2056
2056
2056
2051
2051
2051
2050
2050
2050
2050
2054
2054
2054
2053
2053
2053
2053
2053
2053
2051
2051
2051
2051
2051
2051
2051
2060
2060
2060
2050
2050
2050
2049
2049
2049
2051
2051
2051
2061
2061
2061
2061
2046
2046
2046
2057
2057
2057
2059
2059
2059
2053
2053
2053
2054
2054
2054
2054
2050
2050
2050
2054
2054
2054
2054
2054
2054
2057
2057
2057
2051
2051
2051
2051
2051
2051
2051
2054
2054
2054
2050
2050
2050
2050
2050
2050
2049
2049
2049
2049
2055
2055
2055
2056
2056
2056
2052
2052
2052
2051
2051
2051
2053
2053
2053
2053
2051
2051
2051
2053
2053
2053
2054
2054
2054
2055
2055
2055
2055
2055
2055
2055
2053
2053
2053
2052
2052
2052
2054
2054
2054
2053
2053
2053
2052
2052
2052
2052
2052
2052
2052
2054
2054
2054
2053
2053
2053
2052
2052
2052
2050
2050
2050
2050
2053
2053
2053
2053
2053
2053
2054
2054
2054
2056
2056
2056
2050
2050
2050
2050
2052
2052
2052
2054
2054
2054
2048
2048
2048
2055
2055
2055
2052
2052
2052
2052
2052
2052
2052
2052
2052
2052
2053
2053
2053
2054
2054
2054
2050
2050
2050
2050
2051
2051
2051
2055
2055
2055
2054
2054
2054
2053
2053
2053
2052
2052
2052
2052
2051
2051
2051
2054
2054
2054
2056
2056
2056
2053
2053
2053
2057
2057
2057
2057
2055
2055
2055
2053
2053
2053
2054
2054
2054
2056
2056
2056
2051
2051
2051
2051
2053
2053
2053
2051
2051
2051
2053
2053
2053
2054
2054
2054
2052
2052
2052
2052
2050
2050
2050
2055
2055
2055
2052
2052
2052
2056
2056
2056
2051
2051
2051
2051
2050
2050
2050
2054
2054
2054
2051
2051
2051
2057
2057
2057
2053
2053
2053
2053
2054
2054
2054
2047
2047
2047
2053
2053
2053
2051
2051
2051
2052
2052
2052
2052
2048
2048
2048
2050
2050
2050
2054
2054
2054
2052
2052
2052
2051
2051
2051
2051
2049
2049
2049
2053
2053
2053
2052
2052
2052
2057
2057
2057
2049
2049
2049
2049
2048
2048
2048
2052
2052
2052
2046
2046
2046
2052
2052
2052
2048
2048
2048
2048
2055
2055
2055
2049
2049
2049
2052
2052
2052
2056
2056
2056
2049
2049
2049
2049
2050
2050
2050
2053
2053
2053
2050
2050
2050
2056
2056
2056
2048
2048
2048
2048
2051
2051
2051
2052
2052
2052
2051
2051
2051
2054
2054
2054
2050
2050
2050
2050
2055
2055
2055
2048
2048
2048
2051
2051
2051
2054
2054
2054
2049
2049
2049
2049
2046
2046
2046
2055
2055
2055
2047
2047
2047
2053
2053
2053
2048
2048
2048
2048
2056
2056
2056
2050
2050
2050
2056
2056
2056
2049
2049
2049
2050
2050
2050
2050
2062
2062
2062
2053
2053
2053
2055
2055
2055
2053
2053
2053
2049
2049
2049
2049
2050
2050
2050
2055
2055
2055
2053
2053
2053
2054
2054
2054
2052
2052
2052
2052
2051
2051
2051
2053
2053
2053
2057
2057
2057
2056
2056
2056
2049
2049
2049
2049
2051
2051
2051
2051
2051
2051
2053
2053
2053
2054
2054
2054
2047
2047
2047
2047
2049
2049
2049
2048
2048
2048
2051
2051
2051
2050
2050
2050
2054
2054
2054
2054
2050
2050
2050
2051
2051
2051
2051
2051
2051
2052
2052
2052
2052
2052
2052
2052
2052
2052
2052
2051
2051
2051
2047
2047
2047
2053
2053
2053
2049
2049
2049
2049
2053
2053
2053
2053
2053
2053
2055
2055
2055
2053
2053
2053
2048
2048
2048
2048
2053
2053
2053
2051
2051
2051
2051
2051
2051
2051
2051
2051
2053
2053
2053
2053
2058
2058
2058
2052
2052
2052
2051
2051
2051
2053
2053
2053
2050
2050
2050
2050
2057
2057
2057
2048
2048
2048
2053
2053
2053
2055
2055
2055
2052
2052
2052
2052
2052
2052
2052
2056
2056
2056
2051
2051
2051
2049
2049
2049
2049
2049
2049
2049
2052
2052
2052
2052
2052
2052
2051
2051
2051
2057
2057
2057
2049
2049
2049
2049
2046
2046
2046
2053
2053
2053
2052
2052
2052
2053
2053
2053
2042
2042
2042
2042
2055
2055
2055
2053
2053
2053
2053
2053
2053
2054
2054
2054
2051
2051
2051
2051
2054
2054
2054
2055
2055
2055
2054
2054
2054
2055
2055
2055
2050
2050
2050
2050
2051
2051
2051
2053
2053
2053
2051
2051
2051
2050
2050
2050
2053
2053
2053
2053
2052
2052
2052
2051
2051
2051
2052
2052
2052
2053
2053
2053
2053
2053
2053
2053
2055
2055
2055
2046
2046
2046
2052
2052
2052
2052
2052
2052
2053
2053
2053
2053
2047
2047
2047
2053
2053
2053
2051
2051
2051
2055
2055
2055
2051
2051
2051
2051
2055
2055
2055
2050
2050
2050
2047
2047
2047
2051
2051
2051
2045
2045
2045
2045
2053
2053
2053
2049
2049
2049
2055
2055
2055
2050
2050
2050
2054
2054
2054
2054
2053
2053
2053
2052
2052
2052
2047
2047
2047
2053
2053
2053
2051
2051
2051
2051
2053
2053
2053
2050
2050
2050
2052
2052
2052
2068
2068
2068
2053
2053
2053
2053
2051
2051
2051
2050
2050
2050
2051
2051
2051
2054
2054
2054
2049
2049
2049
2049
2051
2051
2051
2051
2051
2051
2051
2051
2051
2053
2053
2053
2052
2052
2052
2052
2048
2048
2048
2054
2054
2054
2053
2053
2053
2052
2052
2052
2046
2046
2046
2046
2051
2051
2051
2053
2053
2053
2055
2055
2055
2053
2053
2053
2053
2053
2053
2053
2047
2047
2047
2053
2053
2053
2054
2054
2054
2052
2052
2052
2052
2052
2052
2052
2051
2051
2051
2055
2055
2055
2051
2051
2051
2050
2050
2050
2051
2051
2051
2051
2051
2051
2051
2062
2062
2062
2047
2047
2047
2057
2057
2057
2050
2050
2050
2050
2051
2051
2051
2056
2056
2056
2049
2049
2049
2059
2059
2059
2053
2053
2053
2053
2053
2053
2053
2052
2052
2052
2050
2050
2050
2055
2055
2055
2047
2047
2047
2047
2058
2058
2058
2053
2053
2053
2051
2051
2051
2055
2055
2055
2052
2052
2052
2052
2055
2055
2055
2053
2053
2053
2051
2051
2051
2053
2053
2053
2051
2051
2051
2051
2052
2052
2052
2051
2051
2051
2051
2051
2051
2059
2059
2059
2051
2051
2051
2051
2050
2050
2050
2053
2053
2053
2053
2053
2053
2052
2052
2052
2050
2050
2050
2050
2050
2050
2050
2053
2053
2053
2054
2054
2054
2053
2053
2053
2052
2052
2052
2052
2050
2050
2050
2052
2052
2052
2057
2057
2057
2054
2054
2054
2053
2053
2053
2053
2050
2050
2050
2058
2058
2058
2054
2054
2054
2047
2047
2047
2056
2056
2056
2056
2050
2050
2050
2051
2051
2051
2051
2051
2051
2049
2049
2049
2050
2050
2050
2050
2053
2053
2053
2047
2047
2047
2052
2052
2052
2057
2057
2057
2047
2047
2047
2047
2049
2049
2049
2047
2047
2047
2053
2053
2053
2054
2054
2054
2052
2052
2052
2052
2055
2055
2055
2053
2053
2053
2051
2051
2051
2055
2055
2055
2050
2050
2050
2050
2048
2048
2048
2052
2052
2052
2052
2052
2052
2053
2053
2053
2053
2053
2053
2053
2046
2046
2046
2052
2052
2052
2054
2054
2054
2054
2054
2054
2045
2045
2045
2045
2050
2050
2050
2055
2055
2055
2054
2054
2054
2053
2053
2053
2051
2051
2051
2051
2055
2055
2055
2049
2049
2049
2051
2051
2051
2054
2054
2054
2050
2050
2050
2050
2052
2052
2052
2058
2058
2058
2053
2053
2053
2047
2047
2047
2051
2051
2051
2051
2052
2052
2052
2055
2055
2055
2055
2055
2055
2058
2058
2058
2053
2053
2053
2053
2051
2051
2051
2053
2053
2053
2049
2049
2049
2057
2057
2057
2048
2048
2048
2048
2048
2048
2048
2054
2054
2054
2052
2052
2052
2052
2052
2052
2056
2056
2056
2056
2052
2052
2052
2054
2054
2054
2052
2052
2052
2055
2055
2055
2052
2052
2052
2052
2052
2052
2052
2051
2051
2051
2053
2053
2053
2055
2055
2055
2052
2052
2052
2052
2050
2050
2050
2054
2054
2054
2051
2051
2051
2054
2054
2054
2051
2051
2051
2051
2049
2049
2049
2060
2060
2060
2052
2052
2052
2052
2052
2052
2054
2054
2054
2054
2050
2050
2050
2053
2053
2053
2053
2053
2053
2052
2052
2052
2051
2051
2051
2051
2055
2055
2055
2054
2054
2054
2044
2044
2044
2060
2060
2060
2047
2047
2047
2047
2054
2054
2054
2053
2053
2053
2050
2050
2050
2052
2052
2052
2054
2054
2054
2054
2052
2052
2052
2054
2054
2054
2050
2050
2050
2056
2056
2056
2049
2049
2049
2049
2051
2051
2051
2062
2062
2062
2051
2051
2051
2046
2046
2046
2053
2053
2053
2053
2053
2053
2053
2054
2054
2054
2052
2052
2052
2051
2051
2051
2051
2051
2051
2051
2050
2050
2050
2051
2051
2051
2052
2052
2052
2053
2053
2053
2052
2052
2052
2052
2055
2055
2055
2054
2054
2054
2046
2046
2046
2057
2057
2057
2058
2058
2058
2058
2052
2052
2052
2053
2053
2053
2051
2051
2051
2059
2059
2059
2049
2049
2049
2049
2053
2053
2053
2053
2053
2053
2048
2048
2048
2052
2052
2052
2047
2047
2047
2047
2052
2052
2052
2053
2053
2053
2049
2049
2049
2050
2050
2050
2048
2048
2048
2048
2049
2049
2049
2057
2057
2057
2051
2051
2051
2059
2059
2059
2052
2052
2052
2052
2051
2051
2051
2052
2052
2052
2047
2047
2047
2056
2056
2056
2051
2051
2051
2051
2051
2051
2051
2052
2052
2052
2049
2049
2049
2052
2052
2052
2051
2051
2051
2051
2052
2052
2052
2053
2053
2053
2056
2056
2056
2054
2054
2054
2047
2047
2047
2047
2054
2054
2054
2053
2053
2053
2058
2058
2058
2053
2053
2053
2047
2047
2047
2047
2050
2050
2050
2048
2048
2048
2051
2051
2051
2049
2049
2049
2049
2049
2049
2049
2051
2051
2051
2059
2059
2059
2051
2051
2051
2048
2048
2048
2052
2052
2052
2052
2052
2052
2052
2053
2053
2053
2050
2050
2050
2053
2053
2053
2051
2051
2051
2051
2052
2052
2052
2054
2054
2054
2055
2055
2055
2054
2054
2054
2053
2053
2053
2053
2053
2053
2053
2054
2054
2054
2049
2049
2049
2053
2053
2053
2056
2056
2056
2056
2051
2051
2051
2054
2054
2054
2049
2049
2049
2053
2053
2053
2051
2051
2051
2051
2052
2052
2052
2051
2051
2051
2053
2053
2053
2052
2052
2052
2051
2051
2051
2051
2055
2055
2055
2058
2058
2058
2052
2052
2052
2052
2052
2052
2051
2051
2051
2051
2050
2050
2050
2051
2051
2051
2055
2055
2055
2054
2054
2054
2048
2048
2048
2048
2055
2055
2055
2054
2054
2054
2051
2051
2051
2056
2056
2056
2054
2054
2054
2054
2057
2057
2057
2049
2049
2049
2058
2058
2058
2055
2055
2055
2054
2054
2054
2054
2055
2055
2055
2051
2051
2051
2053
2053
2053
2053
2053
2053
2049
2049
2049
2049
2050
2050
2050
2053
2053
2053
2051
2051
2051
2053
2053
2053
2053
2053
2053
2053
2051
2051
2051
2061
2061
2061
2053
2053
2053
2054
2054
2054
2052
2052
2052
2052
2051
2051
2051
2053
2053
2053
2051
2051
2051
2057
2057
2057
2053
2053
2053
2053
2050
2050
2050
2053
2053
2053
2050
2050
2050
2053
2053
2053
2053
2053
2053
2053
2050
2050
2050
2056
2056
2056
2057
2057
2057
2052
2052
2052
2053
2053
2053
2053
2053
2053
2053
2054
2054
2054
2050
2050
2050
2052
2052
2052
2051
2051
2051
2051
2054
2054
2054
2055
2055
2055
2053
2053
2053
2052
2052
2052
2049
2049
2049
2049
2055
2055
2055
2049
2049
2049
2052
2052
2052
2061
2061
2061
2048
2048
2048
2048
2052
2052
2052
2054
2054
2054
2051
2051
2051
2053
2053
2053
2056
2056
2056
2056
2051
2051
2051
2051
2051
2051
2054
2054
2054
2053
2053
2053
2051
2051
2051
2051
2052
2052
2052
2052
2052
2052
2063
2063
2063
2053
2053
2053
2052
2052
2052
2052
2055
2055
2055
2052
2052
2052
2051
2051
2051
2053
2053
2053
2051
2051
2051
2051
2051
2051
2051
2055
2055
2055
2049
2049
2049
2055
2055
2055
2052
2052
2052
2052
2053
2053
2053
2055
2055
2055
2047
2047
2047
2055
2055
2055
2053
2053
2053
2053
2049
2049
2049
2050
2050
2050
2054
2054
2054
2058
2058
2058
2052
2052
2052
2052
2051
2051
2051
2051
2051
2051
2052
2052
2052
2052
2052
2052
2049
2049
2049
2049
2056
2056
2056
2053
2053
2053
2057
2057
2057
2048
2048
2048
2056
2056
2056
2056
2055
2055
2055
2053
2053
2053
2054
2054
2054
2054
2054
2054
2049
2049
2049
2049
2053
2053
2053
2054
2054
2054
2051
2051
2051
2052
2052
2052
2052
2052
2052
2052
2050
2050
2050
2053
2053
2053
2052
2052
2052
2054
2054
2054
2051
2051
2051
2051
2053
2053
2053
2053
2053
2053
2052
2052
2052
2053
2053
2053
2051
2051
2051
2051
2051
2051
2051
2052
2052
2052
2054
2054
2054
2054
2054
2054
2052
2052
2052
2052
2050
2050
2050
2056
2056
2056
2053
2053
2053
2056
2056
2056
2049
2049
2049
2049
2053
2053
2053
2051
2051
2051
2061
2061
2061
2053
2053
2053
2046
2046
2046
2046
2052
2052
2052
2053
2053
2053
2051
2051
2051
2055
2055
2055
2052
2052
2052
2052
2053
2053
2053
2054
2054
2054
2053
2053
2053
2051
2051
2051
2053
2053
2053
2053
2052
2052
2052
2054
2054
2054
2051
2051
2051
2059
2059
2059
2051
2051
2051
2051
2052
2052
2052
2051
2051
2051
2051
2051
2051
2055
2055
2055
2054
2054
2054
2054
2053
2053
2053
2052
2052
2052
2048
2048
2048
2053
2053
2053
2049
2049
2049
2049
2044
2044
2044
2053
2053
2053
2052
2052
2052
2056
2056
2056
2049
2049
2049
2049
2056
2056
2056
2051
2051
2051
2056
2056
2056
2055
2055
2055
2053
2053
2053
2053
2051
2051
2051
2052
2052
2052
2054
2054
2054
2047
2047
2047
2057
2057
2057
2057
2047
2047
2047
2057
2057
2057
2053
2053
2053
2043
2043
2043
2057
2057
2057
2057
2052
2052
2052
2054
2054
2054
2052
2052
2052
2052
2052
2052
2051
2051
2051
2051
2051
2051
2051
2054
2054
2054
2055
2055
2055
2054
2054
2054
2054
2054
2054
2054
2054
2054
2054
2053
2053
2053
2052
2052
2052
2053
2053
2053
2055
2055
2055
2055
2051
2051
2051
2054
2054
2054
2051
2051
2051
2054
2054
2054
2050
2050
2050
2050
2049
2049
2049
2057
2057
2057
2047
2047
2047
2056
2056
2056
2050
2050
2050
2050
2049
2049
2049
2051
2051
2051
2053
2053
2053
2064
2064
2064
2048
2048
2048
2048
2051
2051
2051
2052
2052
2052
2053
2053
2053
2050
2050
2050
2053
2053
2053
2053
2055
2055
2055
2059
2059
2059
2052
2052
2052
2053
2053
2053
2061
2061
2061
2061
2047
2047
2047
2055
2055
2055
2055
2055
2055
2052
2052
2052
2050
2050
2050
2050
2051
2051
2051
2051
2051
2051
2050
2050
2050
2050
2050
2050
2050
2050
2050
2050
2053
2053
2053
2046
2046
2046
2053
2053
2053
2050
2050
2050
2052
2052
2052
2052
2048
2048
2048
2056
2056
2056
2048
2048
2048
2053
2053
2053
2050
2050
2050
2050
2050
2050
2050
2053
2053
2053
2049
2049
2049
2051
2051
2051
2053
2053
2053
2053
2053
2053
2053
2053
2053
2053
2048
2048
2048
2047
2047
2047
2054
2054
2054
2054
2050
2050
2050
2053
2053
2053
2052
2052
2052
2051
2051
2051
2053
2053
2053
2053
2049
2049
2049
2047
2047
2047
2048
2048
2048
2051
2051
2051
2053
2053
2053
2053
2052
2052
2052
2052
2052
2052
2050
2050
2050
2055
2055
2055
2052
2052
2052
2052
2048
2048
2048
2052
2052
2052
2053
2053
2053
2055
2055
2055
2053
2053
2053
2053
2050
2050
2050
2049
2049
2049
2051
2051
2051
2053
2053
2053
2050
2050
2050
2050
2057
2057
2057
2056
2056
2056
2051
2051
2051
2054
2054
2054
2053
2053
2053
2053
2047
2047
2047
2049
2049
2049
2055
2055
2055
2050
2050
2050
2057
2057
2057
2057
2050
2050
2050
2052
2052
2052
2052
2052
2052
2047
2047
2047
2054
2054
2054
2054
2052
2052
2052
2050
2050
2050
2053
2053
2053
2055
2055
2055
2050
2050
2050
2050
2051
2051
2051
2053
2053
2053
2051
2051
2051
2054
2054
2054
2050
2050
2050
2050
2051
2051
2051
2053
2053
2053
2047
2047
2047
2055
2055
2055
2056
2056
2056
2056
2055
2055
2055
2053
2053
2053
2049
2049
2049
2053
2053
2053
2055
2055
2055
2055
2049
2049
2049
2053
2053
2053
2051
2051
2051
2052
2052
2052
2052
2052
2052
2052
2050
2050
2050
2044
2044
2044
2052
2052
2052
2046
2046
2046
2051
2051
2051
2051
2047
2047
2047
2054
2054
2054
2051
2051
2051
2057
2057
2057
2054
2054
2054
2054
2046
2046
2046
2057
2057
2057
2048
2048
2048
2053
2053
2053
2050
2050
2050
2050
2051
2051
2051
2047
2047
2047
2057
2057
2057
2049
2049
2049
2047
2047
2047
2047
2053
2053
2053
2056
2056
2056
2047
2047
2047
2054
2054
2054
2051
2051
2051
2051
2050
2050
2050
2056
2056
2056
2048
2048
2048
2054
2054
2054
2053
2053
2053
2053
2054
2054
2054
2048
2048
2048
2052
2052
2052
2053
2053
2053
2047
2047
2047
2047
2051
2051
2051
2051
2051
2051
2051
2051
2051
2054
2054
2054
2052
2052
2052
2052
2050
2050
2050
2053
2053
2053
2051
2051
2051
2051
2051
2051
2053
2053
2053
2053
2051
2051
2051
2053
2053
2053
2051
2051
2051
2054
2054
2054
2055
2055
2055
2055
2048
2048
2048
2053
2053
2053
2052
2052
2052
2055
2055
2055
2051
2051
2051
2051
2051
2051
2051
2059
2059
2059
2048
2048
2048
2057
2057
2057
2051
2051
2051
2051
2049
2049
2049
2057
2057
2057
2047
2047
2047
2055
2055
2055
2048
2048
2048
2048
2051
2051
2051
2049
2049
2049
2053
2053
2053
2055
2055
2055
2047
2047
2047
2047
2052
2052
2052
2053
2053
2053
2055
2055
2055
2051
2051
2051
2053
2053
2053
2053
2050
2050
2050
2054
2054
2054
2057
2057
2057
2054
2054
2054
2051
2051
2051
2051
2051
2051
2051
2054
2054
2054
2052
2052
2052
2052
2052
2052
2051
2051
2051
2051
2052
2052
2052
2055
2055
2055
2045
2045
2045
2054
2054
2054
2051
2051
2051
2051
2049
2049
2049
2053
2053
2053
2050
2050
2050
2052
2052
2052
2053
2053
2053
2053
2052
2052
2052
2047
2047
2047
2059
2059
2059
2052
2052
2052
2055
2055
2055
2055
2050
2050
2050
2055
2055
2055
2045
2045
2045
2049
2049
2049
2050
2050
2050
2050
2047
2047
2047
2058
2058
2058
2051
2051
2051
2056
2056
2056
2052
2052
2052
2052
2052
2052
2052
2054
2054
2054
2053
2053
2053
2052
2052
2052
2044
2044
2044
2044
2050
2050
2050
2051
2051
2051
2051
2051
2051
2059
2059
2059
2051
2051
2051
2051
2050
2050
2050
2053
2053
2053
2052
2052
2052
2052
2052
2052
2051
2051
2051
2051
2052
2052
2052
2051
2051
2051
2051
2051
2051
2053
2053
2053
2051
2051
2051
2051
2051
2051
2051
2055
2055
2055
2055
2055
2055
2048
2048
2048
2055
2055
2055
2055
2049
2049
2049
2057
2057
2057
2059
2059
2059
2057
2057
2057
2049
2049
2049
2049
2053
2053
2053
2053
2053
2053
2051
2051
2051
2051
2051
2051
2053
2053
2053
2053
2050
2050
2050
2048
2048
2048
2052
2052
2052
2050
2050
2050
2052
2052
2052
2052
2051
2051
2051
2054
2054
2054
2050
2050
2050
2052
2052
2052
2048
2048
2048
2048
2053
2053
2053
2052
2052
2052
2050
2050
2050
2051
2051
2051
2052
2052
2052
2052
2049
2049
2049
2054
2054
2054
2051
2051
2051
2053
2053
2053
2051
2051
2051
2051
2053
2053
2053
2054
2054
2054
2050
2050
2050
2054
2054
2054
2050
2050
2050
2050
2051
2051
2051
2065
2065
2065
2050
2050
2050
2055
2055
2055
2051
2051
2051
2051
2049
2049
2049
2048
2048
2048
2055
2055
2055
2051
2051
2051
2049
2049
2049
2049
2049
2049
2049
2055
2055
2055
2048
2048
2048
2056
2056
2056
2045
2045
2045
2045
2060
2060
2060
2053
2053
2053
2049
2049
2049
2051
2051
2051
2052
2052
2052
2052
2051
2051
2051
2052
2052
2052
2053
2053
2053
2053
2053
2053
2049
2049
2049
2049
2051
2051
2051
2051
2051
2051
2054
2054
2054
2058
2058
2058
2055
2055
2055
2055
2050
2050
2050
2050
2050
2050
2052
2052
2052
2052
2052
2052
2050
2050
2050
2050
2052
2052
2052
2055
2055
2055
2052
2052
2052
2052
2052
2052
2051
2051
2051
2051
2051
2051
2051
2052
2052
2052
2055
2055
2055
2053
2053
2053
2052
2052
2052
2052
2049
2049
2049
2055
2055
2055
2049
2049
2049
2052
2052
2052
2051
2051
2051
2051
2053
2053
2053
2054
2054
2054
2051
2051
2051
2054
2054
2054
2055
2055
2055
2055
2049
2049
2049
2049
2049
2049
2051
2051
2051
2054
2054
2054
2051
2051
2051
2051
2055
2055
2055
2054
2054
2054
2055
2055
2055
2058
2058
2058
2050
2050
2050
2050
2048
2048
2048
2057
2057
2057
2051
2051
2051
2050
2050
2050
2058
2058
2058
2058
2047
2047
2047
2052
2052
2052
2051
2051
2051
2052
2052
2052
2049
2049
2049
2049
2051
2051
2051
2054
2054
2054
2054
2054
2054
2052
2052
2052
2053
2053
2053
2053
2051
2051
2051
2052
2052
2052
2052
2052
2052
2052
2052
2052
2052
2052
2052
2052
2051
2051
2051
2051
2051
2051
2050
2050
2050
2058
2058
2058
2051
2051
2051
2051
2052
2052
2052
2052
2052
2052
2047
2047
2047
2054
2054
2054
2052
2052
2052
2052
2050
2050
2050
2051
2051
2051
2054
2054
2054
2051
2051
2051
2051
2051
2051
2051
2051
2051
2051
2051
2051
2051
2052
2052
2052
2057
2057
2057
2046
2046
2046
2046
2047
2047
2047
2051
2051
2051
2054
2054
2054
2053
2053
2053
2058
2058
2058
2058
2049
2049
2049
2051
2051
2051
2052
2052
2052
2050
2050
2050
2057
2057
2057
2057
2051
2051
2051
2050
2050
2050
2052
2052
2052
2059
2059
2059
2048
2048
2048
2048
2054
2054
2054
2054
2054
2054
2050
2050
2050
2053
2053
2053
2051
2051
2051
2051
2048
2048
2048
2051
2051
2051
2053
2053
2053
2052
2052
2052
2050
2050
2050
2050
2051
2051
2051
2054
2054
2054
2050
2050
2050
2052
2052
2052
2054
2054
2054
2054
2052
2052
2052
2053
2053
2053
2055
2055
2055
2053
2053
2053
2051
2051
2051
2051
2049
2049
2049
2055
2055
2055
2046
2046
2046
2059
2059
2059
2051
2051
2051
2051
2053
2053
2053
2054
2054
2054
2052
2052
2052
2047
2047
2047
2052
2052
2052
2052
2050
2050
2050
2055
2055
2055
2057
2057
2057
2056
2056
2056
2052
2052
2052
2052
2053
2053
2053
2054
2054
2054
2058
2058
2058
2049
2049
2049
2051
2051
2051
2051
2054
2054
2054
2052
2052
2052
2051
2051
2051
2050
2050
2050
2052
2052
2052
2052
2050
2050
2050
2052
2052
2052
2051
2051
2051
2052
2052
2052
2055
2055
2055
2055
2051
2051
2051
2052
2052
2052
2050
2050
2050
2057
2057
2057
2052
2052
2052
2052
2050
2050
2050
2054
2054
2054
2048
2048
2048
2055
2055
2055
2054
2054
2054
2054
2045
2045
2045
2053
2053
2053
2050
2050
2050
2053
2053
2053
2055
2055
2055
2055
2051
2051
2051
2052
2052
2052
2052
2052
2052
2051
2051
2051
2051
2051
2051
2051
2052
2052
2052
2046
2046
2046
2055
2055
2055
2052
2052
2052
2052
2052
2052
2052
2056
2056
2056
2050
2050
2050
2053
2053
2053
2055
2055
2055
2053
2053
2053
2053
2050
2050
2050
2056
2056
2056
2049
2049
2049
2050
2050
2050
2051
2051
2051
2051
2055
2055
2055
2053
2053
2053
2058
2058
2058
2053
2053
2053
2052
2052
2052
2052
2050
2050
2050
2054
2054
2054
2052
2052
2052
2049
2049
2049
2051
2051
2051
2051
2053
2053
2053
2048
2048
2048
2051
2051
2051
2057
2057
2057
2054
2054
2054
2054
2053
2053
2053
2052
2052
2052
2051
2051
2051
2053
2053
2053
2050
2050
2050
2050
2047
2047
2047
2056
2056
2056
2050
2050
2050
2054
2054
2054
2054
2054
2054
2054
2045
2045
2045
2052
2052
2052
2053
2053
2053
2053
2053
2053
2049
2049
2049
2049
2057
2057
2057
2054
2054
2054
2050
2050
2050
2057
2057
2057
2049
2049
2049
2049
2052
2052
2052
2052
2052
2052
2054
2054
2054
2057
2057
2057
2055
2055
2055
2055
2052
2052
2052
2047
2047
2047
2051
2051
2051
2055
2055
2055
2049
2049
2049
2049
2053
2053
2053
2052
2052
2052
2052
2052
2052
2053
2053
2053
2048
2048
2048
2048
2052
2052
2052
2053
2053
2053
2058
2058
2058
2059
2059
2059
2052
2052
2052
2052
2044
2044
2044
2054
2054
2054
2051
2051
2051
2052
2052
2052
2048
2048
2048
2048
2052
2052
2052
2055
2055
2055
2051
2051
2051
2055
2055
2055
2049
2049
2049
2049
2051
2051
2051
2057
2057
2057
2052
2052
2052
2061
2061
2061
2051
2051
2051
2051
2053
2053
2053
2051
2051
2051
2054
2054
2054
2050
2050
2050
2054
2054
2054
2054
2053
2053
2053
2053
2053
2053
2052
2052
2052
2054
2054
2054
2052
2052
2052
2052
2048
2048
2048
2056
2056
2056
2049
2049
2049
2055
2055
2055
2051
2051
2051
2051
2056
2056
2056
2054
2054
2054
2047
2047
2047
2054
2054
2054
2047
2047
2047
2047
2051
2051
2051
2051
2051
2051
2054
2054
2054
2053
2053
2053
2052
2052
2052
2052
2052
2052
2052
2051
2051
2051
2054
2054
2054
2053
2053
2053
2052
2052
2052
2052
2045
2045
2045
2054
2054
2054
2050
2050
2050
2054
2054
2054
2047
2047
2047
2047
2051
2051
2051
2054
2054
2054
2052
2052
2052
2053
2053
2053
2052
2052
2052
2052
2052
2052
2052
2056
2056
2056
2053
2053
2053
2055
2055
2055
2057
2057
2057
2057
2052
2052
2052
2053
2053
2053
2051
2051
2051
2050
2050
2050
2053
2053
2053
2053
2047
2047
2047
2053
2053
2053
2052
2052
2052
2053
2053
2053
2053
2053
2053
2053
2055
2055
2055
2049
2049
2049
2060
2060
2060
2057
2057
2057
2051
2051
2051
2051
2049
2049
2049
2057
2057
2057
2047
2047
2047
2057
2057
2057
2048
2048
2048
2048
2051
2051
2051
2050
2050
2050
2052
2052
2052
2057
2057
2057
2057
2057
2057
2057
2051
2051
2051
2052
2052
2052
2053
2053
2053
2055
2055
2055
2051
2051
2051
2051
2050
2050
2050
2053
2053
2053
2052
2052
2052
2055
2055
2055
2050
2050
2050
2050
2053
2053
2053
2053
2053
2053
2048
2048
2048
2052
2052
2052
2054
2054
2054
2054
2048
2048
2048
2053
2053
2053
2054
2054
2054
2053
2053
2053
2050
2050
2050
2050
2053
2053
2053
2051
2051
2051
2052
2052
2052
2051
2051
2051
2051
2051
2051
2051
2047
2047
2047
2053
2053
2053
2051
2051
2051
2054
2054
2054
2051
2051
2051
2051
2055
2055
2055
2055
2055
2055
2051
2051
2051
2055
2055
2055
2051
2051
2051
2051
2053
2053
2053
2053
2053
2053
2050
2050
2050
2056
2056
2056
2055
2055
2055
2055
2048
2048
2048
2057
2057
2057
2047
2047
2047
2056
2056
2056
2052
2052
2052
2052
2053
2053
2053
2048
2048
2048
2052
2052
2052
2054
2054
2054
2051
2051
2051
2051
2051
2051
2051
2053
2053
2053
2047
2047
2047
2058
2058
2058
2052
2052
2052
2052
2052
2052
2052
2049
2049
2049
2051
2051
2051
2053
2053
2053
2048
2048
2048
2048
2051
2051
2051
2055
2055
2055
2051
2051
2051
2051
2051
2051
2053
2053
2053
2053
2056
2056
2056
2054
2054
2054
2053
2053
2053
2049
2049
2049
2057
2057
2057
2057
2052
2052
2052
2054
2054
2054
2053
2053
2053
2054
2054
2054
2053
2053
2053
2053
2053
2053
2053
2049
2049
2049
2051
2051
2051
2057
2057
2057
2051
2051
2051
2051
2050
2050
2050
2050
2050
2050
2053
2053
2053
2056
2056
2056
2051
2051
2051
2051
2053
2053
2053
2055
2055
2055
2049
2049
2049
2055
2055
2055
2044
2044
2044
2044
2054
2054
2054
2051
2051
2051
2056
2056
2056
2053
2053
2053
2058
2058
2058
2058
2053
2053
2053
2056
2056
2056
2050
2050
2050
2052
2052
2052
2056
2056
2056
2056
2050
2050
2050
2053
2053
2053
2049
2049
2049
2053
2053
2053
2052
2052
2052
2052
2050
2050
2050
2054
2054
2054
2052
2052
2052
2052
2052
2052
2053
2053
2053
2053
2051
2051
2051
2052
2052
2052
2052
2052
2052
2053
2053
2053
2050
2050
2050
2050
2053
2053
2053
2050
2050
2050
2052
2052
2052
2052
2052
2052
2045
2045
2045
2045
2048
2048
2048
2047
2047
2047
2048
2048
2048
2054
2054
2054
2050
2050
2050
2050
2051
2051
2051
2044
2044
2044
2052
2052
2052
2056
2056
2056
2050
2050
2050
2050
2053
2053
2053
2052
2052
2052
2052
2052
2052
2057
2057
2057
2052
2052
2052
2052
2051
2051
2051
2052
2052
2052
2049
2049
2049
2058
2058
2058
2051
2051
2051
2051
2057
2057
2057
2056
2056
2056
2056
2056
2056
2053
2053
2053
2054
2054
2054
2054
2049
2049
2049
2054
2054
2054
2054
2054
2054
2053
2053
2053
2054
2054
2054
2054
2051
2051
2051
2053
2053
2053
2051
2051
2051
2051
2051
2051
2055
2055
2055
2055
2052
2052
2052
2050
2050
2050
2053
2053
2053
2052
2052
2052
2052
2052
2052
2052
2051
2051
2051
2053
2053
2053
2053
2053
2053
2052
2052
2052
2053
2053
2053
2053
2052
2052
2052
2051
2051
2051
2059
2059
2059
2052
2052
2052
2058
2058
2058
2058
2051
2051
2051
2053
2053
2053
2051
2051
2051
2052
2052
2052
2052
2052
2052
2052
2046
2046
2046
2054
2054
2054
2050
2050
2050
2054
2054
2054
2051
2051
2051
2051
2050
2050
2050
2055
2055
2055
2053
2053
2053
2055
2055
2055
2053
2053
2053
2053
2053
2053
2053
2054
2054
2054
2049
2049
2049
2050
2050
2050
2051
2051
2051
2051
2050
2050
2050
2054
2054
2054
2052
2052
2052
2056
