2251
2251
2250
2250
2250
2248
2248
2248
2251
2251
2251
2251
2251
2251
2251
2248
2248
2248
2248
2248
2248
2248
2248
2248
2247
2247
2247
2248
2248
2248
2248
2247
2247
2247
2249
2249
2249
2248
2248
2248
2251
2251
2251
2248
2248
2248
2248
2252
2252
2252
2248
2248
2248
2248
2248
2248
2245
2245
2245
2251
2251
2251
2251
2250
2250
2250
2250
2250
2250
2249
2249
2249
2251
2251
2251
2250
2250
2250
2250
2253
2253
2253
2248
2248
2248
2247
2247
2247
2250
2250
2250
2249
2249
2249
2249
2249
2249
2249
2250
2250
2250
2249
2249
2249
2248
2248
2248
2252
2252
2252
2252
2248
2248
2248
2250
2250
2250
2250
2250
2250
2248
2248
2248
2252
2252
2252
2252
2249
2249
2249
2249
2249
2249
2253
2253
2253
2246
2246
2246
2252
2252
2252
2252
2249
2249
2249
2250
2250
2250
2248
2248
2248
2247
2247
2247
2249
2249
2249
2249
2246
2246
2246
2251
2251
2251
2247
2247
2247
2249
2249
2249
2251
2251
2251
2251
2247
2247
2247
2251
2251
2251
2249
2249
2249
2249
2249
2249
2247
2247
2247
2247
2240
2240
2240
2244
2244
2244
2252
2252
2252
2247
2247
2247
2252
2252
2252
2252
2244
2244
2244
2253
2253
2253
2252
2252
2252
2248
2248
2248
2247
2247
2247
2247
2246
2246
2246
2247
2247
2247
2249
2249
2249
2252
2252
2252
2250
2250
2250
2250
2249
2249
2249
2251
2251
2251
2249
2249
2249
2250
2250
2250
2247
2247
2247
2247
2248
2248
2248
2251
2251
2251
2251
2251
2251
2250
2250
2250
2245
2245
2245
2245
2246
2246
2246
2250
2250
2250
2252
2252
2252
2249
2249
2249
2249
2249
2249
2249
2247
2247
2247
2250
2250
2250
2249
2249
2249
2248
2248
2248
2250
2250
2250
2250
2245
2245
2245
2252
2252
2252
2249
2249
2249
2248
2248
2248
2250
2250
2250
2250
2249
2249
2249
2246
2246
2246
2247
2247
2247
2250
2250
2250
2248
2248
2248
2248
2246
2246
2246
2252
2252
2252
2249
2249
2249
2248
2248
2248
2252
2252
2252
2252
2249
2249
2249
2248
2248
2248
2242
2242
2242
2251
2251
2251
2251
2251
2251
2251
2254
2254
2254
2249
2249
2249
2252
2252
2252
2242
2242
2242
2251
2251
2251
2251
2247
2247
2247
2249
2249
2249
2249
2249
2249
2249
2249
2249
2252
2252
2252
2252
2248
2248
2248
2250
2250
2250
2249
2249
2249
2253
2253
2253
2253
2253
2253
2253
2250
2250
2250
2249
2249
2249
2248
2248
2248
2248
2248
2248
2249
2249
2249
2249
2247
2247
2247
2250
2250
2250
2250
2250
2250
2250
2250
2250
2249
2249
2249
2249
2247
2247
2247
2249
2249
2249
2248
2248
2248
2249
2249
2249
2251
2251
2251
2251
2250
2250
2250
2249
2249
2249
2247
2247
2247
2254
2254
2254
2250
2250
2250
2250
2252
2252
2252
2246
2246
2246
2247
2247
2247
2249
2249
2249
2249
2249
2249
2249
2251
2251
2251
2255
2255
2255
2251
2251
2251
2249
2249
2249
2249
2249
2249
2249
2248
2248
2248
2247
2247
2247
2248
2248
2248
2248
2248
2248
2248
2248
2248
2248
2249
2249
2249
2249
2249
2249
2251
2251
2251
2255
2255
2255
2248
2248
2248
2248
2247
2247
2247
2249
2249
2249
2247
2247
2247
2252
2252
2252
2245
2245
2245
2245
2247
2247
2247
2250
2250
2250
2247
2247
2247
2251
2251
2251
2245
2245
2245
2245
2248
2248
2248
2250
2250
2250
2250
2250
2250
2248
2248
2248
2249
2249
2249
2249
2239
2239
2239
2247
2247
2247
2248
2248
2248
2249
2249
2249
2249
2249
2249
2249
2245
2245
2245
2250
2250
2250
2247
2247
2247
2251
2251
2251
2250
2250
2250
2250
2249
2249
2249
2248
2248
2248
2249
2249
2249
2248
2248
2248
2252
2252
2252
2252
2241
2241
2241
2249
2249
2249
2249
2249
2249
2248
2248
2248
2248
2248
2248
2248
2250
2250
2250
2250
2250
2250
2247
2247
2247
2250
2250
2250
2250
2250
2250
2250
2246
2246
2246
2251
2251
2251
2248
2248
2248
2249
2249
2249
2249
2249
2249
2249
2253
2253
2253
2247
2247
2247
2249
2249
2249
2248
2248
2248
2248
2248
2248
2248
2247
2247
2247
2252
2252
2252
2248
2248
2248
2248
2248
2248
2246
2246
2246
2246
2250
2250
2250
2250
2250
2250
2249
2249
2249
2252
2252
2252
2252
2252
2252
2252
2250
2250
2250
2248
2248
2248
2249
2249
2249
2250
2250
2250
2252
2252
2252
2252
2245
2245
2245
2248
2248
2248
2248
2248
2248
2251
2251
2251
2252
2252
2252
2252
2255
2255
2255
2250
2250
2250
2249
2249
2249
2251
2251
2251
2249
2249
2249
2249
2249
2249
2249
2248
2248
2248
2248
2248
2248
2251
2251
2251
2249
2249
2249
2249
2248
2248
2248
2253
2253
2253
2249
2249
2249
2251
2251
2251
2251
2251
2251
2251
2249
2249
2249
2248
2248
2248
2248
2248
2248
2252
2252
2252
2251
2251
2251
2251
2249
2249
2249
2249
2249
2249
2251
2251
2251
2241
2241
2241
2249
2249
2249
2249
2247
2247
2247
2249
2249
2249
2248
2248
2248
2250
2250
2250
2251
2251
2251
2251
2249
2249
2249
2250
2250
2250
2249
2249
2249
2249
2249
2249
2250
2250
2250
2250
2249
2249
2249
2250
2250
2250
2252
2252
2252
2248
2248
2248
2252
2252
2252
2252
2245
2245
2245
2248
2248
2248
2254
2254
2254
2249
2249
2249
2252
2252
2252
2252
2248
2248
2248
2251
2251
2251
2250
2250
2250
2250
2250
2250
2247
2247
2247
2247
2250
2250
2250
2252
2252
2252
2247
2247
2247
2249
2249
2249
2252
2252
2252
2252
2247
2247
2247
2252
2252
2252
2247
2247
2247
2251
2251
2251
2249
2249
2249
2249
2250
2250
2250
2251
2251
2251
2250
2250
2250
2251
2251
2251
2249
2249
2249
2249
2249
2249
2249
2250
2250
2250
2253
2253
2253
2254
2254
2254
2251
2251
2251
2251
2251
2251
2251
2250
2250
2250
2247
2247
2247
2250
2250
2250
2253
2253
2253
2253
2248
2248
2248
2251
2251
2251
2252
2252
2252
2249
2249
2249
2250
2250
2250
2250
2256
2256
2256
2249
2249
2249
2249
2249
2249
2248
2248
2248
2251
2251
2251
2251
2250
2250
2250
2251
2251
2251
2251
2251
2251
2251
2251
2251
2249
2249
2249
2249
2252
2252
2252
2248
2248
2248
2249
2249
2249
2249
2249
2249
2250
2250
2250
2250
2246
2246
2246
2250
2250
2250
2248
2248
2248
2255
2255
2255
2247
2247
2247
2247
2247
2247
2247
2242
2242
2242
2251
2251
2251
2250
2250
2250
2249
2249
2249
2249
2249
2249
2249
2255
2255
2255
2250
2250
2250
2247
2247
2247
2252
2252
2252
2252
2251
2251
2251
2250
2250
2250
2249
2249
2249
2252
2252
2252
2247
2247
2247
2247
2247
2247
2247
2249
2249
2249
2248
2248
2248
2254
2254
2254
2251
2251
2251
2251
2249
2249
2249
2249
2249
2249
2250
2250
2250
2249
2249
2249
2252
2252
2252
2252
2246
2246
2246
2251
2251
2251
2247
2247
2247
2252
2252
2252
2249
2249
2249
2249
2249
2249
2249
2250
2250
2250
2248
2248
2248
2250
2250
2250
2247
2247
2247
2247
2250
2250
2250
2247
2247
2247
2249
2249
2249
2249
2249
2249
2252
2252
2252
2252
2254
2254
2254
2253
2253
2253
2246
2246
2246
2252
2252
2252
2248
2248
2248
2248
2250
2250
2250
2251
2251
2251
2253
2253
2253
2251
2251
2251
2249
2249
2249
2249
2252
2252
2252
2251
2251
2251
2247
2247
2247
2250
2250
2250
2248
2248
2248
2248
2247
2247
2247
2249
2249
2249
2248
2248
2248
2254
2254
2254
2248
2248
2248
2248
2247
2247
2247
2250
2250
2250
2249
2249
2249
2249
2249
2249
2246
2246
2246
2246
2246
2246
2246
2251
2251
2251
2250
2250
2250
2247
2247
2247
2246
2246
2246
2246
2249
2249
2249
2252
2252
2252
2251
2251
2251
2252
2252
2252
2249
2249
2249
2249
2247
2247
2247
2250
2250
2250
2248
2248
2248
2251
2251
2251
2255
2255
2255
2255
2249
2249
2249
2248
2248
2248
2247
2247
2247
2249
2249
2249
2249
2249
2249
2249
2247
2247
2247
2250
2250
2250
2246
2246
2246
2249
2249
2249
2246
2246
2246
2246
2249
2249
2249
2250
2250
2250
2249
2249
2249
2252
2252
2252
2249
2249
2249
2249
2249
2249
2249
2249
2249
2249
2248
2248
2248
2250
2250
2250
2245
2245
2245
2245
2249
2249
2249
2249
2249
2249
2249
2249
2249
2250
2250
2250
2246
2246
2246
2246
2248
2248
2248
2253
2253
2253
2249
2249
2249
2249
2249
2249
2251
2251
2251
2251
2249
2249
2249
2249
2249
2249
2249
2249
2249
2247
2247
2247
2247
2247
2247
2247
2246
2246
2246
2249
2249
2249
2249
2249
2249
2248
2248
2248
2249
2249
2249
2249
2250
2250
2250
2251
2251
2251
2250
2250
2250
2253
2253
2253
2251
2251
2251
2251
2243
2243
2243
2255
2255
2255
2242
2242
2242
2252
2252
2252
2250
2250
2250
2250
2249
2249
2249
2250
2250
2250
2248
2248
2248
2252
2252
2252
2253
2253
2253
2253
2248
2248
2248
2248
2248
2248
2249
2249
2249
2247
2247
2247
2252
2252
2252
2252
2249
2249
2249
2251
2251
2251
2248
2248
2248
2252
2252
2252
2256
2256
2256
2256
2246
2246
2246
2255
2255
2255
2244
2244
2244
2250
2250
2250
2252
2252
2252
2252
2248
2248
2248
2251
2251
2251
2249
2249
2249
2252
2252
2252
2250
2250
2250
2250
2249
2249
2249
2250
2250
2250
2250
2250
2250
2252
2252
2252
2251
2251
2251
2251
2252
2252
2252
2245
2245
2245
2249
2249
2249
2251
2251
2251
2253
2253
2253
2253
2248
2248
2248
2256
2256
2256
2247
2247
2247
2251
2251
2251
2250
2250
2250
2250
2246
2246
2246
2247
2247
2247
2249
2249
2249
2257
2257
2257
2249
2249
2249
2249
2248
2248
2248
2249
2249
2249
2250
2250
2250
2252
2252
2252
2247
2247
2247
2247
2249
2249
2249
2250
2250
2250
2248
2248
2248
2250
2250
2250
2253
2253
2253
2253
2249
2249
2249
2249
2249
2249
2250
2250
2250
2252
2252
2252
2249
2249
2249
2249
2247
2247
2247
2251
2251
2251
2249
2249
2249
2254
2254
2254
2251
2251
2251
2251
2244
2244
2244
2251
2251
2251
2250
2250
2250
2251
2251
2251
2250
2250
2250
2250
2248
2248
2248
2249
2249
2249
2245
2245
2245
2257
2257
2257
2248
2248
2248
2248
2248
2248
2248
2248
2248
2248
2250
2250
2250
2253
2253
2253
2249
2249
2249
2249
2246
2246
2246
2251
2251
2251
2247
2247
2247
2251
2251
2251
2255
2255
2255
2255
2252
2252
2252
2249
2249
2249
2249
2249
2249
2249
2249
2249
2248
2248
2248
2248
2247
2247
2247
2249
2249
2249
2249
2249
2249
2248
2248
2248
2250
2250
2250
2250
2252
2252
2252
2250
2250
2250
2249
2249
2249
2249
2249
2249
2251
2251
2251
2251
2252
2252
2252
2253
2253
2253
2247
2247
2247
2250
2250
2250
2251
2251
2251
2251
2249
2249
2249
2252
2252
2252
2249
2249
2249
2251
2251
2251
2252
2252
2252
2252
2248
2248
2248
2252
2252
2252
2251
2251
2251
2250
2250
2250
2244
2244
2244
2244
2247
2247
2247
2249
2249
2249
2250
2250
2250
2251
2251
2251
2250
2250
2250
2250
2249
2249
2249
2250
2250
2250
2250
2250
2250
2253
2253
2253
2251
2251
2251
2251
2249
2249
2249
2263
2263
2263
2247
2247
2247
2252
2252
2252
2252
2252
2252
2252
2249
2249
2249
2251
2251
2251
2249
2249
2249
2255
2255
2255
2249
2249
2249
2249
2247
2247
2247
2252
2252
2252
2245
2245
2245
2251
2251
2251
2251
2251
2251
2251
2249
2249
2249
2247
2247
2247
2250
2250
2250
2247
2247
2247
2248
2248
2248
2248
2250
2250
2250
2252
2252
2252
2249
2249
2249
2249
2249
2249
2252
2252
2252
2252
2249
2249
2249
2249
2249
2249
2248
2248
2248
2257
2257
2257
2247
2247
2247
2247
2247
2247
2247
2247
2247
2247
2248
2248
2248
2249
2249
2249
2253
2253
2253
2253
2249
2249
2249
2251
2251
2251
2248
2248
2248
2250
2250
2250
2251
2251
2251
2251
2245
2245
2245
2248
2248
2248
2250
2250
2250
2251
2251
2251
2252
2252
2252
2252
2248
2248
2248
2248
2248
2248
2250
2250
2250
2251
2251
2251
2250
2250
2250
2250
2248
2248
2248
2248
2248
2248
2247
2247
2247
2253
2253
2253
2247
2247
2247
2247
2249
2249
2249
2249
2249
2249
2251
2251
2251
2249
2249
2249
2248
2248
2248
2248
2239
2239
2239
2250
2250
2250
2248
2248
2248
2251
2251
2251
2248
2248
2248
2248
2248
2248
2248
2248
2248
2248
2249
2249
2249
2253
2253
2253
2249
2249
2249
2249
2247
2247
2247
2253
2253
2253
2249
2249
2249
2250
2250
2250
2248
2248
2248
2248
2246
2246
2246
2250
2250
2250
2252
2252
2252
2251
2251
2251
2246
2246
2246
2246
2248
2248
2248
2248
2248
2248
2257
2257
2257
2251
2251
2251
2252
2252
2252
2252
2248
2248
2248
2252
2252
2252
2250
2250
2250
2252
2252
2252
2252
2252
2252
2252
2251
2251
2251
2247
2247
2247
2249
2249
2249
2251
2251
2251
2247
2247
2247
2247
2248
2248
2248
2251
2251
2251
2249
2249
2249
2253
2253
2253
2249
2249
2249
2249
2247
2247
2247
2249
2249
2249
2250
2250
2250
2250
2250
2250
2248
2248
2248
2248
2251
2251
2251
2251
2251
2251
2250
2250
2250
2251
2251
2251
2251
2251
2251
2251
2246
2246
2246
2253
2253
2253
2249
2249
2249
2252
2252
2252
2251
2251
2251
2251
2249
2249
2249
2249
2249
2249
2248
2248
2248
2256
2256
2256
2249
2249
2249
2249
2249
2249
2249
2248
2248
2248
2250
2250
2250
2250
2250
2250
2249
2249
2249
2249
2248
2248
2248
2250
2250
2250
2251
2251
2251
2246
2246
2246
2249
2249
2249
2249
2247
2247
2247
2251
2251
2251
2248
2248
2248
2253
2253
2253
2249
2249
2249
2249
2246
2246
2246
2249
2249
2249
2248
2248
2248
2249
2249
2249
2250
2250
2250
2250
2248
2248
2248
2253
2253
2253
2252
2252
2252
2252
2252
2252
2246
2246
2246
2246
2248
2248
2248
2251
2251
2251
2248
2248
2248
2252
2252
2252
2251
2251
2251
2251
2248
2248
2248
2250
2250
2250
2249
2249
2249
2252
2252
2252
2247
2247
2247
2247
2249
2249
2249
2250
2250
2250
2246
2246
2246
2253
2253
2253
2252
2252
2252
2252
2246
2246
2246
2250
2250
2250
2248
2248
2248
2250
2250
2250
2247
2247
2247
2247
2250
2250
2250
2249
2249
2249
2248
2248
2248
2254
2254
2254
2250
2250
2250
2250
2244
2244
2244
2251
2251
2251
2250
2250
2250
2251
2251
2251
2244
2244
2244
2244
2249
2249
2249
2249
2249
2249
2249
2249
2249
2251
2251
2251
2249
2249
2249
2249
2247
2247
2247
2249
2249
2249
2248
2248
2248
2251
2251
2251
2251
2251
2251
2251
2248
2248
2248
2248
2248
2248
2246
2246
2246
2252
2252
2252
2246
2246
2246
2246
2246
2246
2246
2250
2250
2250
2249
2249
2249
2251
2251
2251
2247
2247
2247
2247
2249
2249
2249
2248
2248
2248
2255
2255
2255
2251
2251
2251
2248
2248
2248
2248
2249
2249
2249
2250
2250
2250
2249
2249
2249
2250
2250
2250
2248
2248
2248
2248
2247
2247
2247
2256
2256
2256
2246
2246
2246
2251
2251
2251
2253
2253
2253
2253
2248
2248
2248
2250
2250
2250
2246
2246
2246
2250
2250
2250
2250
2250
2250
2250
2249
2249
2249
2248
2248
2248
2247
2247
2247
2250
2250
2250
2250
2250
2250
2250
2248
2248
2248
2249
2249
2249
2247
2247
2247
2251
2251
2251
2250
2250
2250
2250
2247
2247
2247
2250
2250
2250
2246
2246
2246
2250
2250
2250
2250
2250
2250
2250
2252
2252
2252
2250
2250
2250
2249
2249
2249
2252
2252
2252
2251
2251
2251
2251
2248
2248
2248
2246
2246
2246
2247
2247
2247
2252
2252
2252
2250
2250
2250
2250
2249
2249
2249
2252
2252
2252
2246
2246
2246
2254
2254
2254
2250
2250
2250
2250
2249
2249
2249
2249
2249
2249
2252
2252
2252
2249
2249
2249
2251
2251
2251
2251
2249
2249
2249
2249
2249
2249
2249
2249
2249
2254
2254
2254
2247
2247
2247
2247
2248
2248
2248
2249
2249
2249
2249
2249
2249
2251
2251
2251
2251
2251
2251
2251
2247
2247
2247
2250
2250
2250
2248
2248
2248
2251
2251
2251
2246
2246
2246
2246
2247
2247
2247
2248
2248
2248
2247
2247
2247
2251
2251
2251
2251
2251
2251
2251
2251
2251
2251
2249
2249
2249
2250
2250
2250
2251
2251
2251
2252
2252
2252
2252
2248
2248
2248
2247
2247
2247
2248
2248
2248
2251
2251
2251
2252
2252
2252
2252
2248
2248
2248
2250
2250
2250
2248
2248
2248
2250
2250
2250
2253
2253
2253
2253
2251
2251
2251
2248
2248
2248
2247
2247
2247
2252
2252
2252
2251
2251
2251
2251
2251
2251
2251
2249
2249
2249
2249
2249
2249
2253
2253
2253
2251
2251
2251
2251
2249
2249
2249
2256
2256
2256
2249
2249
2249
2250
2250
2250
2251
2251
2251
2251
2248
2248
2248
2249
2249
2249
2252
2252
2252
2247
2247
2247
2254
2254
2254
2254
2247
2247
2247
2247
2247
2247
2250
2250
2250
2250
2250
2250
2254
2254
2254
2254
2245
2245
2245
2247
2247
2247
2247
2247
2247
2252
2252
2252
2251
2251
2251
2251
2248
2248
2248
2250
2250
2250
2249
2249
2249
2252
2252
2252
2251
2251
2251
2251
2251
2251
2251
2252
2252
2252
2249
2249
2249
2251
2251
2251
2247
2247
2247
2247
2245
2245
2245
2249
2249
2249
2247
2247
2247
2251
2251
2251
2251
2251
2251
2251
2249
2249
2249
2251
2251
2251
2247
2247
2247
2245
2245
2245
2248
2248
2248
2248
2247
2247
2247
2248
2248
2248
2248
2248
2248
2252
2252
2252
2256
2256
2256
2256
2249
2249
2249
2249
2249
2249
2249
2249
2249
2248
2248
2248
2253
2253
2253
2253
2248
2248
2248
2247
2247
2247
2249
2249
2249
2250
2250
2250
2250
2250
2250
2250
2253
2253
2253
2249
2249
2249
2251
2251
2251
2254
2254
2254
2251
2251
2251
2251
2249
2249
2249
2252
2252
2252
2250
2250
2250
2252
2252
2252
2251
2251
2251
2251
2248
2248
2248
2248
2248
2248
2250
2250
2250
2255
2255
2255
2249
2249
2249
2249
2247
2247
2247
2246
2246
2246
2251
2251
2251
2253
2253
2253
2252
2252
2252
2252
2248
2248
2248
2250
2250
2250
2250
2250
2250
2251
2251
2251
2249
2249
2249
2249
2249
2249
2249
2250
2250
2250
2250
2250
2250
2248
2248
2248
2250
2250
2250
2250
2249
2249
2249
2249
2249
2249
2248
2248
2248
2249
2249
2249
2249
2249
2249
2249
2244
2244
2244
2244
2244
2244
2246
2246
2246
2250
2250
2250
2252
2252
2252
2252
2247
2247
2247
2251
2251
2251
2244
2244
2244
2254
2254
2254
2248
2248
2248
2248
2245
2245
2245
2248
2248
2248
2249
2249
2249
2251
2251
2251
2249
2249
2249
2249
2247
2247
2247
2248
2248
2248
2249
2249
2249
2247
2247
2247
2253
2253
2253
2253
2250
2250
2250
2250
2250
2250
2247
2247
2247
2252
2252
2252
2251
2251
2251
2251
2248
2248
2248
2250
2250
2250
2249
2249
2249
2251
2251
2251
2252
2252
2252
2252
2249
2249
2249
2243
2243
2243
2250
2250
2250
2251
2251
2251
2251
2251
2251
2251
2248
2248
2248
2252
2252
2252
2245
2245
2245
2253
2253
2253
2252
2252
2252
2252
2251
2251
2251
2247
2247
2247
2251
2251
2251
2253
2253
2253
2246
2246
2246
2246
2247
2247
2247
2248
2248
2248
2246
2246
2246
2253
2253
2253
2251
2251
2251
2251
2246
2246
2246
2248
2248
2248
2250
2250
2250
2250
2250
2250
2251
2251
2251
2251
2246
2246
2246
2250
2250
2250
2248
2248
2248
2255
2255
2255
2250
2250
2250
2250
2248
2248
2248
2251
2251
2251
2248
2248
2248
2251
2251
2251
2252
2252
2252
2252
2249
2249
2249
2250
2250
2250
2241
2241
2241
2251
2251
2251
2249
2249
2249
2249
2250
2250
2250
2250
2250
2250
2249
2249
2249
2251
2251
2251
2252
2252
2252
2252
2253
2253
2253
2249
2249
2249
2251
2251
2251
2251
2251
2251
2248
2248
2248
2248
2248
2248
2248
2249
2249
2249
2249
2249
2249
2253
2253
2253
2253
2253
2253
2253
2245
2245
2245
2250
2250
2250
2251
2251
2251
2252
2252
2252
2249
2249
2249
2249
2247
2247
2247
2250
2250
2250
2251
2251
2251
2251
2251
2251
2255
2255
2255
2255
2247
2247
2247
2251
2251
2251
2247
2247
2247
2253
2253
2253
2246
2246
2246
2246
2246
2246
2246
2250
2250
2250
2247
2247
2247
2250
2250
2250
2252
2252
2252
2252
2249
2249
2249
2246
2246
2246
2250
2250
2250
2252
2252
2252
2249
2249
2249
2249
2247
2247
2247
2250
2250
2250
2250
2250
2250
2252
2252
2252
2247
2247
2247
2247
2249
2249
2249
2251
2251
2251
2252
2252
2252
2250
2250
2250
2251
2251
2251
2251
2244
2244
2244
2247
2247
2247
2250
2250
2250
2250
2250
2250
2251
2251
2251
2251
2249
2249
2249
2251
2251
2251
2251
2251
2251
2255
2255
2255
2251
2251
2251
2251
2249
2249
2249
2251
2251
2251
2248
2248
2248
2254
2254
2254
2247
2247
2247
2247
2246
2246
2246
2252
2252
2252
2246
2246
2246
2252
2252
2252
2247
2247
2247
2247
2249
2249
2249
2249
2249
2249
2244
2244
2244
2250
2250
2250
2251
2251
2251
2251
2246
2246
2246
2245
2245
2245
2249
2249
2249
2251
2251
2251
2250
2250
2250
2250
2249
2249
2249
2252
2252
2252
2246
2246
2246
2252
2252
2252
2252
2252
2252
2252
2248
2248
2248
2252
2252
2252
2246
2246
2246
2251
2251
2251
2249
2249
2249
2249
2247
2247
2247
2251
2251
2251
2250
2250
2250
2258
2258
2258
2255
2255
2255
2255
2248
2248
2248
2248
2248
2248
2247
2247
2247
2250
2250
2250
2248
2248
2248
2248
2247
2247
2247
2250
2250
2250
2248
2248
2248
2250
2250
2250
2250
2250
2250
2250
2246
2246
2246
2249
2249
2249
2249
2249
2249
2252
2252
2252
2250
2250
2250
2250
2245
2245
2245
2251
2251
2251
2246
2246
2246
2255
2255
2255
2250
2250
2250
2250
2249
2249
2249
2249
2249
2249
2255
2255
2255
2248
2248
2248
2249
2249
2249
2249
2247
2247
2247
2250
2250
2250
2250
2250
2250
2250
2250
2250
2254
2254
2254
2254
2249
2249
2249
2251
2251
2251
2248
2248
2248
2249
2249
2249
2250
2250
2250
2250
2248
2248
2248
2251
2251
2251
2249
2249
2249
2254
2254
2254
2251
2251
2251
2251
2249
2249
2249
2247
2247
2247
2250
2250
2250
2250
2250
2250
2248
2248
2248
2248
2251
2251
2251
2253
2253
2253
2248
2248
2248
2253
2253
2253
2248
2248
2248
2248
2248
2248
2248
2250
2250
2250
2249
2249
2249
2250
2250
2250
2250
2250
2250
2250
2248
2248
2248
2250
2250
2250
2249
2249
2249
2250
2250
2250
2250
2250
2250
2250
2248
2248
2248
2249
2249
2249
2245
2245
2245
2250
2250
2250
2250
2250
2250
2250
2247
2247
2247
2248
2248
2248
2247
2247
2247
2255
2255
2255
2248
2248
2248
2248
2250
2250
2250
2250
2250
2250
2248
2248
2248
2250
2250
2250
2249
2249
2249
2249
2249
2249
2249
2248
2248
2248
2246
2246
2246
2244
2244
2244
2251
2251
2251
2251
2246
2246
2246
2252
2252
2252
2249
2249
2249
2252
2252
2252
2255
2255
2255
2255
2247
2247
2247
2249
2249
2249
2247
2247
2247
2251
2251
2251
2249
2249
2249
2249
2247
2247
2247
2247
2247
2247
2249
2249
2249
2251
2251
2251
2251
2251
2251
2251
2251
2251
2251
2249
2249
2249
2249
2249
2249
2250
2250
2250
2250
2250
2250
2250
2245
2245
2245
2250
2250
2250
2248
2248
2248
2254
2254
2254
2250
2250
2250
2250
2247
2247
2247
2251
2251
2251
2247
2247
2247
2248
2248
2248
2247
2247
2247
2247
2247
2247
2247
2253
2253
2253
2248
2248
2248
2251
2251
2251
2248
2248
2248
2248
2248
2248
2248
2250
2250
2250
2247
2247
2247
2249
2249
2249
2249
2249
2249
2249
2250
2250
2250
2249
2249
2249
2248
2248
2248
2251
2251
2251
2251
2251
2251
2251
2247
2247
2247
2247
2247
2247
2246
2246
2246
2250
2250
2250
2249
2249
2249
2249
2249
2249
2249
2250
2250
2250
2250
2250
2250
2251
2251
2251
2251
2251
2251
2251
2249
2249
2249
2248
2248
2248
2251
2251
2251
2251
2251
2251
2248
2248
2248
2248
2248
2248
2248
2249
2249
2249
2248
2248
2248
2252
2252
2252
2251
2251
2251
2251
2248
2248
2248
2250
2250
2250
2249
2249
2249
2248
2248
2248
2249
2249
2249
2249
2245
2245
2245
2250
2250
2250
2248
2248
2248
2250
2250
2250
2252
2252
2252
2252
2248
2248
2248
2253
2253
2253
2249
2249
2249
2250
2250
2250
2250
2250
2250
2250
2247
2247
2247
2249
2249
2249
2247
2247
2247
2254
2254
2254
2249
2249
2249
2249
2248
2248
2248
2249
2249
2249
2247
2247
2247
2252
2252
2252
2251
2251
2251
2251
2245
2245
2245
2249
2249
2249
2248
2248
2248
2252
2252
2252
2250
2250
2250
2250
2247
2247
2247
2249
2249
2249
2246
2246
2246
2251
2251
2251
2248
2248
2248
2248
2260
2260
2260
2252
2252
2252
2247
2247
2247
2252
2252
2252
2251
2251
2251
2251
2248
2248
2248
2251
2251
2251
2246
2246
2246
2254
2254
2254
2252
2252
2252
2252
2251
2251
2251
2250
2250
2250
2250
2250
2250
2251
2251
2251
2255
2255
2255
2255
2247
2247
2247
2251
2251
2251
2247
2247
2247
2251
2251
2251
2251
2251
2251
2251
2247
2247
2247
2250
2250
2250
2249
2249
2249
2249
2249
2249
2253
2253
2253
2253
2249
2249
2249
2253
2253
2253
2249
2249
2249
2251
2251
2251
2249
2249
2249
2249
2246
2246
2246
2248
2248
2248
2249
2249
2249
2250
2250
2250
2252
2252
2252
2252
2250
2250
2250
2251
2251
2251
2250
2250
2250
2253
2253
2253
2252
2252
2252
2252
2246
2246
2246
2248
2248
2248
2249
2249
2249
2251
2251
2251
2252
2252
2252
2252
2251
2251
2251
2248
2248
2248
2251
2251
2251
2251
2251
2251
2249
2249
2249
2249
2246
2246
2246
2250
2250
2250
2247
2247
2247
2252
2252
2252
2252
2252
2252
2252
2249
2249
2249
2249
2249
2249
2249
2249
2249
2250
2250
2250
2252
2252
2252
2252
2248
2248
2248
2251
2251
2251
2251
2251
2251
2248
2248
2248
2252
2252
2252
2252
2246
2246
2246
2247
2247
2247
2250
2250
2250
2250
2250
2250
2254
2254
2254
2254
2248
2248
2248
2249
2249
2249
2251
2251
2251
2252
2252
2252
2249
2249
2249
2249
2250
2250
2250
2248
2248
2248
2250
2250
2250
2251
2251
2251
2249
2249
2249
2249
2244
2244
2244
2251
2251
2251
2249
2249
2249
2254
2254
2254
2249
2249
2249
2249
2247
2247
2247
2250
2250
2250
2245
2245
2245
2252
2252
2252
2250
2250
2250
2250
2249
2249
2249
2250
2250
2250
2249
2249
2249
2256
2256
2256
2248
2248
2248
2248
2250
2250
2250
2250
2250
2250
2250
2250
2250
2252
2252
2252
2251
2251
2251
2251
2250
2250
2250
2250
2250
2250
2247
2247
2247
2251
2251
2251
2251
2251
2251
2251
2254
2254
2254
2249
2249
2249
2248
2248
2248
2252
2252
2252
2250
2250
2250
2250
2247
2247
2247
2244
2244
2244
2248
2248
2248
2252
2252
2252
2248
2248
2248
2248
2246
2246
2246
2251
2251
2251
2253
2253
2253
2255
2255
2255
2250
2250
2250
2250
2248
2248
2248
2249
2249
2249
2247
2247
2247
2251
2251
2251
2254
2254
2254
2254
2247
2247
2247
2249
2249
2249
2248
2248
2248
2250
2250
2250
2248
2248
2248
2248
2251
2251
2251
2250
2250
2250
2247
2247
2247
2252
2252
2252
2250
2250
2250
2250
2246
2246
2246
2249
2249
2249
2250
2250
2250
2250
2250
2250
2247
2247
2247
2247
2247
2247
2247
2244
2244
2244
2252
2252
2252
2252
2252
2252
2249
2249
2249
2249
2250
2250
2250
2250
2250
2250
2248
2248
2248
2249
2249
2249
2241
2241
2241
2241
2246
2246
2246
2248
2248
2248
2247
2247
2247
2251
2251
2251
2249
2249
2249
2249
2249
2249
2249
2250
2250
2250
2248
2248
2248
2252
2252
2252
2252
2252
2252
2252
2250
2250
2250
2253
2253
2253
2249
2249
2249
2249
2249
2249
2250
2250
2250
2250
2245
2245
2245
2249
2249
2249
2246
2246
2246
2251
2251
2251
2250
2250
2250
2250
2250
2250
2250
2248
2248
2248
2248
2248
2248
2254
2254
2254
2249
2249
2249
2249
2249
2249
2249
2250
2250
2250
2248
2248
2248
2250
2250
2250
2254
2254
2254
2254
2252
2252
2252
2249
2249
2249
2249
2249
2249
2252
2252
2252
2249
2249
2249
2249
2249
2249
2249
2251
2251
2251
2248
2248
2248
2252
2252
2252
2250
2250
2250
2250
2247
2247
2247
2250
2250
2250
2249
2249
2249
2251
2251
2251
2249
2249
2249
2249
2249
2249
2249
2251
2251
2251
2247
2247
2247
2253
2253
2253
2251
2251
2251
2251
2248
2248
2248
2250
2250
2250
2252
2252
2252
2251
2251
2251
2253
2253
2253
2253
2248
2248
2248
2250
2250
2250
2252
2252
2252
2253
2253
2253
2248
2248
2248
2248
2248
2248
2248
2248
2248
2248
2248
2248
2248
2251
2251
2251
2249
2249
2249
2249
2245
2245
2245
2247
2247
2247
2250
2250
2250
2250
2250
2250
2249
2249
2249
2249
2247
2247
2247
2248
2248
2248
2245
2245
2245
2255
2255
2255
2250
2250
2250
2250
2247
2247
2247
2249
2249
2249
2247
2247
2247
2249
2249
2249
2250
2250
2250
2250
2247
2247
2247
2250
2250
2250
2250
2250
2250
2251
2251
2251
2249
2249
2249
2249
2250
2250
2250
2249
2249
2249
2244
2244
2244
2253
2253
2253
2250
2250
2250
2250
2250
2250
2250
2251
2251
2251
2249
2249
2249
2252
2252
2252
2251
2251
2251
2251
2248
2248
2248
2240
2240
2240
2251
2251
2251
2250
2250
2250
2251
2251
2251
2251
2249
2249
2249
2249
2249
2249
2245
2245
2245
2248
2248
2248
2254
2254
2254
2254
2247
2247
2247
2252
2252
2252
2249
2249
2249
2250
2250
2250
2250
2250
2250
2250
2250
2250
2250
2248
2248
2248
2248
2248
2248
2251
2251
2251
2249
2249
2249
2249
2248
2248
2248
2249
2249
2249
2248
2248
2248
2251
2251
2251
2248
2248
2248
2248
2250
2250
2250
2245
2245
2245
2247
2247
2247
2256
2256
2256
2248
2248
2248
2248
2248
2248
2248
2247
2247
2247
2251
2251
2251
2247
2247
2247
2251
2251
2251
2251
2249
2249
2249
2250
2250
2250
2250
2250
2250
2252
2252
2252
2258
2258
2258
2258
2248
2248
2248
2252
2252
2252
2251
2251
2251
2252
2252
2252
2252
2252
2252
2252
2252
2252
2252
2251
2251
2251
2249
2249
2249
2254
2254
2254
2248
2248
2248
2248
2248
2248
2248
2249
2249
2249
2251
2251
2251
2251
2251
2251
2249
2249
2249
2249
2249
2249
2249
2253
2253
2253
2250
2250
2250
2252
2252
2252
2250
2250
2250
2250
2246
2246
2246
2251
2251
2251
2249
2249
2249
2253
2253
2253
2252
2252
2252
2252
2248
2248
2248
2249
2249
2249
2249
2249
2249
2251
2251
2251
2251
2251
2251
2251
2247
2247
2247
2250
2250
2250
2247
2247
2247
2252
2252
2252
2248
2248
2248
2248
2251
2251
2251
2250
2250
2250
2245
2245
2245
2250
2250
2250
2251
2251
2251
2251
2248
2248
2248
2249
2249
2249
2248
2248
2248
2256
2256
2256
2246
2246
2246
2246
2250
2250
2250
2249
2249
2249
2249
2249
2249
2252
2252
2252
2248
2248
2248
2248
2248
2248
2248
2251
2251
2251
2249
2249
2249
2252
2252
2252
2248
2248
2248
2248
2247
2247
2247
2249
2249
2249
2249
2249
2249
2254
2254
2254
2250
2250
2250
2250
2243
2243
2243
2248
2248
2248
2249
2249
2249
2249
2249
2249
2248
2248
2248
2248
2248
2248
2248
2251
2251
2251
2248
2248
2248
2250
2250
2250
2250
2250
2250
2250
2249
2249
2249
2249
2249
2249
2247
2247
2247
2254
2254
2254
2252
2252
2252
2252
2247
2247
2247
2247
2247
2247
2248
2248
2248
2252
2252
2252
2251
2251
2251
2251
2248
2248
2248
2248
2248
2248
2248
2248
2248
2250
2250
2250
2249
2249
2249
2249
2249
2249
2249
2251
2251
2251
2248
2248
2248
2251
2251
2251
2251
2251
2251
2251
2246
2246
2246
2253
2253
2253
2248
2248
2248
2251
2251
2251
2248
2248
2248
2248
2248
2248
2248
2251
2251
2251
2244
2244
2244
2251
2251
2251
2250
2250
2250
2250
2247
2247
2247
2247
2247
2247
2247
2247
2247
2251
2251
2251
2250
2250
2250
2250
2246
2246
2246
2247
2247
2247
2248
2248
2248
2251
2251
2251
2250
2250
2250
2250
2247
2247
2247
2249
2249
2249
2249
2249
2249
2250
2250
2250
2250
2250
2250
2250
2246
2246
2246
2252
2252
2252
2248
2248
2248
2252
2252
2252
2249
2249
2249
2249
2249
2249
2249
2249
2249
2249
2249
2249
2249
2247
2247
2247
2252
2252
2252
2252
2246
2246
2246
2249
2249
2249
2248
2248
2248
2250
2250
2250
2251
2251
2251
2251
2248
2248
2248
2248
2248
2248
2248
2248
2248
2251
2251
2251
2250
2250
2250
2250
2252
2252
2252
2245
2245
2245
2247
2247
2247
2252
2252
2252
2254
2254
2254
2254
2247
2247
2247
2248
2248
2248
2251
2251
2251
2252
2252
2252
2250
2250
2250
2250
2246
2246
2246
2249
2249
2249
2248
2248
2248
2251
2251
2251
2250
2250
2250
2250
2250
2250
2250
2250
2250
2250
2249
2249
2249
2253
2253
2253
2252
2252
2252
2252
2248
2248
2248
2250
2250
2250
2249
2249
2249
2253
2253
2253
2252
2252
2252
2252
2246
2246
2246
2252
2252
2252
2248
2248
2248
2252
2252
2252
2248
2248
2248
2248
2247
2247
2247
2245
2245
2245
2250
2250
2250
2252
2252
2252
2246
2246
2246
2246
2248
2248
2248
2251
2251
2251
2252
2252
2252
2255
2255
2255
2252
2252
2252
2252
2251
2251
2251
2250
2250
2250
2251
2251
2251
2249
2249
2249
2251
2251
2251
2251
2247
2247
2247
2250
2250
2250
2252
2252
2252
2251
2251
2251
2250
2250
2250
2250
2245
2245
2245
2249
2249
2249
2250
2250
2250
2249
2249
2249
2248
2248
2248
2248
2246
2246
2246
2248
2248
2248
2246
2246
2246
2251
2251
2251
2250
2250
2250
2250
2247
2247
2247
2249
2249
2249
2245
2245
2245
2253
2253
2253
2251
2251
2251
2251
2248
2248
2248
2248
2248
2248
2248
2248
2248
2246
2246
2246
2252
2252
2252
2252
2250
2250
2250
2250
2250
2250
2248
2248
2248
2252
2252
2252
2250
2250
2250
2250
2247
2247
2247
2251
2251
2251
2249
2249
2249
2253
2253
2253
2250
2250
2250
2250
2249
2249
2249
2250
2250
2250
2247
2247
2247
2251
2251
2251
2253
2253
2253
2253
2250
2250
2250
2254
2254
2254
2250
2250
2250
2252
2252
2252
2252
2252
2252
2252
2246
2246
2246
2249
2249
2249
2253
2253
2253
2251
2251
2251
2244
2244
2244
2244
2249
2249
2249
2253
2253
2253
2250
2250
2250
2249
2249
2249
2249
2249
2249
2249
2247
2247
2247
2250
2250
2250
2249
2249
2249
2251
2251
2251
2247
2247
2247
2247
2249
2249
2249
2250
2250
2250
2248
2248
2248
2251
2251
2251
2249
2249
2249
2249
2242
2242
2242
2250
2250
2250
2249
2249
2249
2251
2251
2251
2248
2248
2248
2248
2246
2246
2246
2248
2248
2248
2241
2241
2241
2253
2253
2253
2261
2261
2261
2261
2250
2250
2250
2250
2250
2250
2247
2247
2247
2251
2251
2251
2254
2254
2254
2254
2248
2248
2248
2251
2251
2251
2250
2250
2250
2251
2251
2251
2250
2250
2250
2250
2245
2245
2245
2250
2250
2250
2248
2248
2248
2251
2251
2251
2246
2246
2246
2246
2245
2245
2245
2247
2247
2247
2250
2250
2250
2250
2250
2250
2250
2250
2250
2250
2249
2249
2249
2251
2251
2251
2251
2251
2251
2254
2254
2254
2247
2247
2247
2247
2249
2249
2249
2250
2250
2250
2252
2252
2252
2252
2252
2252
2253
2253
2253
2253
2249
2249
2249
2250
2250
2250
2249
2249
2249
2250
2250
2250
2248
2248
2248
2248
2248
2248
2248
2250
2250
2250
2251
2251
2251
2251
2251
2251
2250
2250
2250
2250
2251
2251
2251
2248
2248
2248
2249
2249
2249
2249
2249
2249
2248
2248
2248
2248
2248
2248
2248
2248
2248
2248
2246
2246
2246
2244
2244
2244
2248
2248
2248
2248
2250
2250
2250
2249
2249
2249
2248
2248
2248
2248
2248
2248
2252
2252
2252
2252
2248
2248
2248
2249
2249
2249
2248
2248
2248
2238
2238
2238
2246
2246
2246
2246
2250
2250
2250
2249
2249
2249
2250
2250
2250
2248
2248
2248
2247
2247
2247
2247
2249
2249
2249
2256
2256
2256
2246
2246
2246
2249
2249
2249
2248
2248
2248
2248
2245
2245
2245
2247
2247
2247
2251
2251
2251
2249
2249
2249
2247
2247
2247
2247
2248
2248
2248
2250
2250
2250
2249
2249
2249
2249
2249
2249
2250
2250
2250
2250
2248
2248
2248
2250
2250
2250
2249
2249
2249
2250
2250
2250
2248
2248
2248
2248
2248
2248
2248
2247
2247
2247
2249
2249
2249
2251
2251
2251
2250
2250
2250
2250
2240
2240
2240
2252
2252
2252
2249
2249
2249
2252
2252
2252
2248
2248
2248
2248
2249
2249
2249
2250
2250
2250
2251
2251
2251
2256
2256
2256
2250
2250
2250
2250
2251
2251
2251
2249
2249
2249
2248
2248
2248
2260
2260
2260
2246
2246
2246
2246
2248
2248
2248
2250
2250
2250
2248
2248
2248
2250
2250
2250
2253
2253
2253
2253
2248
2248
2248
2251
2251
2251
2249
2249
2249
2253
2253
2253
2250
2250
2250
2250
2252
2252
2252
2256
2256
2256
2250
2250
2250
2253
2253
2253
2251
2251
2251
2251
2249
2249
2249
2249
2249
2249
2250
2250
2250
2253
2253
2253
2250
2250
2250
2250
2250
2250
2250
2249
2249
2249
2246
2246
2246
2254
2254
2254
2251
2251
2251
2251
2248
2248
2248
2249
2249
2249
2246
2246
2246
2251
2251
2251
2250
2250
2250
2250
2247
2247
2247
2249
2249
2249
2250
2250
2250
2252
2252
2252
2251
2251
2251
2251
2251
2251
2251
2250
2250
2250
2249
2249
2249
2250
2250
2250
2250
2250
2250
2250
2248
2248
2248
2248
2248
2248
2246
2246
2246
2248
2248
2248
2250
2250
2250
2250
2244
2244
2244
2249
2249
2249
2243
2243
2243
2249
2249
2249
2250
2250
2250
2250
2248
2248
2248
2249
2249
2249
2249
2249
2249
2251
2251
2251
2248
2248
2248
2248
2247
2247
2247
2250
2250
2250
2248
2248
2248
2254
2254
2254
2251
2251
2251
2251
2242
2242
2242
2249
2249
2249
2249
2249
2249
2250
2250
2250
2247
2247
2247
2247
2248
2248
2248
2258
2258
2258
2248
2248
2248
2250
2250
2250
2249
2249
2249
2249
2247
2247
2247
2252
2252
2252
2247
2247
2247
2252
2252
2252
2242
2242
2242
2242
2249
2249
2249
2248
2248
2248
2249
2249
2249
2253
2253
2253
2248
2248
2248
2248
2250
2250
2250
2250
2250
2250
2247
2247
2247
2252
2252
2252
2250
2250
2250
2250
2246
2246
2246
2250
2250
2250
2252
2252
2252
2251
2251
2251
2251
2251
2251
2251
2252
2252
2252
2248
2248
2248
2249
2249
2249
2249
2249
2249
2251
2251
2251
2251
2248
2248
2248
2250
2250
2250
2250
2250
2250
2251
2251
2251
2249
2249
2249
2249
2247
2247
2247
2250
2250
2250
2248
2248
2248
2254
2254
2254
2253
2253
2253
2253
2247
2247
2247
2248
2248
2248
2247
2247
2247
2253
2253
2253
2250
2250
2250
2250
2250
2250
2250
2250
2250
2250
2249
2249
2249
2251
2251
2251
2249
2249
2249
2249
2251
2251
2251
2257
2257
2257
2248
2248
2248
2252
2252
2252
2252
2252
2252
2252
2253
2253
2253
2250
2250
2250
2248
2248
2248
2251
2251
2251
2258
2258
2258
2258
2249
2249
2249
2251
2251
2251
2250
2250
2250
2252
2252
2252
2252
2252
2252
2252
2249
2249
2249
2250
2250
2250
2249
2249
2249
2251
2251
2251
2253
2253
2253
2253
2246
2246
2246
2253
2253
2253
2249
2249
2249
2251
2251
2251
2250
2250
2250
2250
2248
2248
2248
2249
2249
2249
2248
2248
2248
2252
2252
2252
2252
2252
2252
2252
2250
2250
2250
2249
2249
2249
2248
2248
2248
2252
2252
2252
2253
2253
2253
2253
2248
2248
2248
2248
2248
2248
2248
2248
2248
2252
2252
2252
2248
2248
2248
2248
2249
2249
2249
2249
2249
2249
2250
2250
2250
2251
2251
2251
2250
2250
2250
2250
2247
2247
2247
2251
2251
2251
2249
2249
2249
2251
2251
2251
2252
2252
2252
2252
2250
2250
2250
2249
2249
2249
2245
2245
2245
2252
2252
2252
2250
2250
2250
2250
2248
2248
2248
2249
2249
2249
2249
2249
2249
2256
2256
2256
2249
2249
2249
2249
2249
2249
2249
2249
2249
2249
2251
2251
2251
2253
2253
2253
2249
2249
2249
2249
2247
2247
2247
2250
2250
2250
2248
2248
2248
2251
2251
2251
2251
2251
2251
2251
2246
2246
2246
2246
2246
2246
2250
2250
2250
2254
2254
2254
2251
2251
2251
2251
2246
2246
2246
2246
2246
2246
2252
2252
2252
2248
2248
2248
2251
2251
2251
2251
2244
2244
2244
2252
2252
2252
2246
2246
2246
2251
2251
2251
2252
2252
2252
2252
2247
2247
2247
2250
2250
2250
2247
2247
2247
2250
2250
2250
2254
2254
2254
2254
2246
2246
2246
2249
2249
2249
2247
2247
2247
2253
2253
2253
2251
2251
2251
2251
2251
2251
2251
2250
2250
2250
2248
2248
2248
2255
2255
2255
2250
2250
2250
2250
2246
2246
2246
2249
2249
2249
2249
2249
2249
2250
2250
2250
2250
2250
2250
2250
2247
2247
2247
2249
2249
2249
2248
2248
2248
2253
2253
2253
2250
2250
2250
2250
2249
2249
2249
2249
2249
2249
2249
2249
2249
2253
2253
2253
2253
2253
2253
2253
2248
2248
2248
2251
2251
2251
2249
2249
2249
2252
2252
2252
2251
2251
2251
2251
2250
2250
2250
2250
2250
2250
2248
2248
2248
2251
2251
2251
2249
2249
2249
2249
2248
2248
2248
2249
2249
2249
2250
2250
2250
2253
2253
2253
2248
2248
2248
2248
2249
2249
2249
2249
2249
2249
2248
2248
2248
2255
2255
2255
2248
2248
2248
2248
2247
2247
2247
2252
2252
2252
2251
2251
2251
2249
2249
2249
2250
2250
2250
2250
2252
2252
2252
2248
2248
2248
2249
2249
2249
2249
2249
2249
2247
2247
2247
2247
2247
2247
2247
2252
2252
2252
2248
2248
2248
2243
2243
2243
2249
2249
2249
2249
2246
2246
2246
2248
2248
2248
2246
2246
2246
2255
2255
2255
2250
2250
2250
2250
2247
2247
2247
2250
2250
2250
2248
2248
2248
2249
2249
2249
2247
2247
2247
2247
2247
2247
2247
2250
2250
2250
2247
2247
2247
2247
2247
2247
2250
2250
2250
2250
2249
2249
2249
2249
2249
2249
2250
2250
2250
2251
2251
2251
2250
2250
2250
2250
2247
2247
2247
2248
2248
2248
2249
2249
2249
2248
2248
2248
2257
2257
2257
2257
2247
2247
2247
2248
2248
2248
2252
2252
2252
2248
2248
2248
2248
2248
2248
2248
2248
2248
2248
2250
2250
2250
2248
2248
2248
2250
2250
2250
2248
2248
2248
2248
2248
2248
2248
2249
2249
2249
2248
2248
2248
2252
2252
2252
2250
2250
2250
2250
2245
2245
2245
2249
2249
2249
2249
2249
2249
2250
2250
2250
2249
2249
2249
2249
2245
2245
2245
2255
2255
2255
2245
2245
2245
2251
2251
2251
2250
2250
2250
2250
2247
2247
2247
2248
2248
2248
2247
2247
2247
2248
2248
2248
2252
2252
2252
2252
2248
2248
2248
2249
2249
2249
2246
2246
2246
2249
2249
2249
2251
2251
2251
2251
2248
2248
2248
2247
2247
2247
2247
2247
2247
2255
2255
2255
2251
2251
2251
2251
2249
2249
2249
2247
2247
2247
2247
2247
2247
2248
2248
2248
2249
2249
2249
2249
2245
2245
2245
2251
2251
2251
2250
2250
2250
2251
2251
2251
2250
2250
2250
2250
2249
2249
2249
2251
2251
2251
2250
2250
2250
2253
2253
2253
2246
2246
2246
2246
2249
2249
2249
2249
2249
2249
2255
2255
2255
2249
2249
2249
2251
2251
2251
2251
2246
2246
2246
2247
2247
2247
2248
2248
2248
2251
2251
2251
2251
2251
2251
2251
2244
2244
2244
2249
2249
2249
2249
2249
2249
2252
2252
2252
2250
2250
2250
2250
2250
2250
2250
2246
2246
2246
2247
2247
2247
2253
2253
2253
2251
2251
2251
2251
2247
2247
2247
2246
2246
2246
2249
2249
2249
2253
2253
2253
2253
2253
2253
2253
2245
2245
2245
2251
2251
2251
2249
2249
2249
2250
2250
2250
2249
2249
2249
2249
2246
2246
2246
2247
2247
2247
2250
2250
2250
2251
2251
2251
2251
2251
2251
2251
2249
2249
2249
2251
2251
2251
2249
2249
2249
2253
2253
2253
2249
2249
2249
2249
2249
2249
2249
2256
2256
2256
2251
2251
2251
2256
2256
2256
2250
2250
2250
2250
2247
2247
2247
2249
2249
2249
2248
2248
2248
2248
2248
2248
2253
2253
2253
2253
2247
2247
2247
2252
2252
2252
2250
2250
2250
2250
2250
2250
2249
2249
2249
2249
2249
2249
2249
2249
2249
2249
2249
2249
2249
2256
2256
2256
2248
2248
2248
2248
2247
2247
2247
2250
2250
2250
2249
2249
2249
2251
2251
2251
2248
2248
2248
2248
2246
2246
2246
2251
2251
2251
2250
2250
2250
2250
2250
2250
2250
2250
2250
2250
2245
2245
2245
2247
2247
2247
2248
2248
2248
2248
2248
2248
2252
2252
2252
2252
2249
2249
2249
2248
2248
2248
2247
2247
2247
2251
2251
2251
2250
2250
2250
2250
2250
2250
2250
2247
2247
2247
2246
2246
2246
2252
2252
2252
2251
2251
2251
2251
2244
2244
2244
2248
2248
2248
2249
2249
2249
2253
2253
2253
2250
2250
2250
2250
2248
2248
2248
2250
2250
2250
2247
2247
2247
2248
2248
2248
2248
2248
2248
2248
2248
2248
2248
2248
2248
2248
2249
2249
2249
2251
2251
2251
2254
2254
2254
2254
2252
2252
2252
2249
2249
2249
2249
2249
2249
2251
2251
2251
2250
2250
2250
2250
2251
2251
2251
2248
2248
2248
2251
2251
2251
2253
2253
2253
2249
2249
2249
2249
2249
2249
2249
2247
2247
2247
2247
2247
2247
2252
2252
2252
2258
2258
2258
2258
2247
2247
2247
2250
2250
2250
2247
2247
2247
2252
2252
2252
2249
2249
2249
2249
2247
2247
2247
2251
2251
2251
2249
2249
2249
2250
2250
2250
2248
2248
2248
2248
2249
2249
2249
2248
2248
2248
2249
2249
2249
2252
2252
2252
2249
2249
2249
2249
2247
2247
2247
2250
2250
2250
2249
2249
2249
2251
2251
2251
2249
2249
2249
2249
2249
2249
2249
2251
2251
2251
2248
2248
2248
2251
2251
2251
2252
2252
2252
2252
2247
2247
2247
2250
2250
2250
2249
2249
2249
2249
2249
2249
2249
2249
2249
2249
2248
2248
2248
2252
2252
2252
2246
2246
2246
2251
2251
2251
2252
2252
2252
2252
2247
2247
2247
2249
2249
2249
2251
2251
2251
2247
2247
2247
2252
2252
2252
2252
2247
2247
2247
2249
2249
2249
2249
2249
2249
2250
2250
2250
2249
2249
2249
2249
2249
2249
2249
2248
2248
2248
2251
2251
2251
2248
2248
2248
2248
2248
2248
2248
2249
2249
2249
2250
2250
2250
2249
2249
2249
2253
2253
2253
2251
2251
2251
2251
2249
2249
2249
2250
2250
2250
2250
2250
2250
2254
2254
2254
2248
2248
2248
2248
2246
2246
2246
2250
2250
2250
2249
2249
2249
2249
2249
2249
2250
2250
2250
2250
2243
2243
2243
2243
2243
2243
2252
2252
2252
2253
2253
2253
2252
2252
2252
2252
2250
2250
2250
2250
2250
2250
2241
2241
2241
2252
2252
2252
2254
2254
2254
2254
2248
2248
2248
2250
2250
2250
2245
2245
2245
2253
2253
2253
2249
2249
2249
2249
2254
2254
2254
2251
2251
2251
2248
2248
2248
2250
2250
2250
2247
2247
2247
2247
2242
2242
2242
2248
2248
2248
2247
2247
2247
2250
2250
2250
2249
2249
2249
2249
2248
2248
2248
2249
2249
2249
2243
2243
2243
2251
2251
2251
2247
2247
2247
2247
2247
2247
2247
2249
2249
2249
2247
2247
2247
2257
2257
2257
2252
2252
2252
2252
2246
2246
2246
2250
2250
2250
2249
2249
2249
2251
2251
2251
2247
2247
2247
2247
2248
2248
2248
2249
2249
2249
2246
2246
2246
2249
2249
2249
2247
2247
2247
2247
2244
2244
2244
2248
2248
2248
2248
2248
2248
2247
2247
2247
2250
2250
2250
2250
2248
2248
2248
2248
2248
2248
2249
2249
2249
2251
2251
2251
2249
2249
2249
2249
2247
2247
2247
2248
2248
2248
2249
2249
2249
2248
2248
2248
2250
2250
2250
2250
2248
2248
2248
2251
2251
2251
2249
2249
2249
2250
2250
2250
2250
2250
2250
2250
2248
2248
2248
2249
2249
2249
2249
2249
2249
2251
2251
2251
2250
2250
2250
2250
2251
2251
2251
2247
2247
2247
2245
2245
2245
2251
2251
2251
2250
2250
2250
2250
2249
2249
2249
2250
2250
2250
2251
2251
2251
2255
2255
2255
2250
2250
2250
2250
2249
2249
2249
2250
2250
2250
2248
2248
2248
2251
2251
2251
2253
2253
2253
2253
2249
2249
2249
2251
2251
2251
2248
2248
2248
2253
2253
2253
2250
2250
2250
2250
2253
2253
2253
2250
2250
2250
2248
2248
2248
2253
2253
2253
2250
2250
2250
2250
2247
2247
2247
2252
2252
2252
2251
2251
2251
2251
2251
2251
2250
2250
2250
2250
2249
2249
2249
2250
2250
2250
2248
2248
2248
2251
2251
2251
2249
2249
2249
2249
2247
2247
2247
2252
2252
2252
2248
2248
2248
2248
2248
2248
2248
2248
2248
2248
2248
2248
2248
2251
2251
2251
2248
2248
2248
2251
2251
2251
2250
2250
2250
2250
2247
2247
2247
2249
2249
2249
2251
2251
2251
2251
2251
2251
2249
2249
2249
2249
2249
2249
2249
2247
2247
2247
2247
2247
2247
2247
2247
2247
2253
2253
2253
2253
2248
2248
2248
2249
2249
2249
2251
2251
2251
2251
2251
2251
2250
2250
2250
2250
2245
2245
2245
2248
2248
2248
2249
2249
2249
2251
2251
2251
2251
2251
2251
2251
2251
2251
2251
2250
2250
2250
2248
2248
2248
2250
2250
2250
2252
2252
2252
2252
2248
2248
2248
2249
2249
2249
2244
2244
2244
2254
2254
2254
2249
2249
2249
2249
2249
2249
2249
2250
2250
2250
2251
2251
2251
2250
2250
2250
2251
2251
2251
2251
2247
2247
2247
2251
2251
2251
2249
2249
2249
2250
2250
2250
2248
2248
2248
2248
2247
2247
2247
2248
2248
2248
2249
2249
2249
2251
2251
2251
2249
2249
2249
2249
2248
2248
2248
2253
2253
2253
2245
2245
2245
2251
2251
2251
2250
2250
2250
2250
2254
2254
2254
2246
2246
2246
2251
2251
2251
2251
2251
2251
2245
2245
2245
2245
2248
2248
2248
2250
2250
2250
2246
2246
2246
2248
2248
2248
2250
2250
2250
2250
2247
2247
2247
2251
2251
2251
2250
2250
2250
2252
2252
2252
2250
2250
2250
2250
2250
2250
2250
2246
2246
2246
2248
2248
2248
2253
2253
2253
2251
2251
2251
2251
2248
2248
2248
2249
2249
2249
2247
2247
2247
2253
2253
2253
2250
2250
2250
2250
2245
2245
2245
2249
2249
2249
2248
2248
2248
2248
2248
2248
2249
2249
2249
2249
2248
2248
2248
2250
2250
2250
2248
2248
2248
2249
2249
2249
2255
2255
2255
2255
2247
2247
2247
2250
2250
2250
2249
2249
2249
2249
2249
2249
2250
2250
2250
2250
2246
2246
2246
2254
2254
2254
2248
2248
2248
2249
2249
2249
2252
2252
2252
2252
2247
2247
2247
2249
2249
2249
2249
2249
2249
2251
2251
2251
2250
2250
2250
2250
2249
2249
2249
2250
2250
2250
2249
2249
2249
2256
2256
2256
2250
2250
2250
2250
2247
2247
2247
2249
2249
2249
2252
2252
2252
2251
2251
2251
2251
2251
2251
2251
2249
2249
2249
2250
2250
2250
2248
2248
2248
2251
2251
2251
2250
2250
2250
2250
2250
2250
2250
2252
2252
2252
2251
2251
2251
2251
2251
2251
2252
2252
2252
2252
2250
2250
2250
2249
2249
2249
2252
2252
2252
2250
2250
2250
2252
2252
2252
2252
2245
2245
2245
2255
2255
2255
2248
2248
2248
2252
2252
2252
2249
2249
2249
2249
2249
2249
2249
2249
2249
2249
2249
2249
2249
2249
2249
2249
2251
2251
2251
2251
2252
2252
2252
2249
2249
2249
2249
2249
2249
2251
2251
2251
2248
2248
2248
2248
2248
2248
2248
2254
2254
2254
2248
2248
2248
2249
2249
2249
2252
2252
2252
2252
2246
2246
2246
2247
2247
2247
2247
2247
2247
2255
2255
2255
2251
2251
2251
2251
2246
2246
2246
2251
2251
2251
2250
2250
2250
2250
2250
2250
2251
2251
2251
2251
2251
2251
2251
2251
2251
2251
2247
2247
2247
2253
2253
2253
2250
2250
2250
2250
2250
2250
2250
2249
2249
2249
2249
2249
2249
2254
2254
2254
2251
2251
2251
2251
2249
2249
2249
2251
2251
2251
2252
2252
2252
2252
2252
2252
2253
2253
2253
2253
2247
2247
2247
2249
2249
2249
2248
2248
2248
2240
2240
2240
2249
2249
2249
2249
2249
2249
2249
2249
2249
2249
2249
2249
2249
2253
2253
2253
2247
2247
2247
2247
2247
2247
2247
2248
2248
2248
2246
2246
2246
2252
2252
2252
2252
2252
2252
2252
2245
2245
2245
2251
2251
2251
2245
2245
2245
2253
2253
2253
2251
2251
2251
2251
2251
2251
2251
2251
2251
2251
2250
2250
2250
2253
2253
2253
2248
2248
2248
2248
2249
2249
2249
2249
2249
2249
2249
2249
2249
2248
2248
2248
2249
2249
2249
2249
2247
2247
2247
2248
2248
2248
2250
2250
2250
2252
2252
2252
2250
2250
2250
2250
2247
2247
2247
2250
2250
2250
2247
2247
2247
2251
2251
2251
2250
2250
2250
2250
2254
2254
2254
2249
2249
2249
2248
2248
2248
2250
2250
2250
2252
2252
2252
2252
2249
2249
2249
2250
2250
2250
2250
2250
2250
2249
2249
2249
2252
2252
2252
2252
2247
2247
2247
2247
2247
2247
2248
2248
2248
2250
2250
2250
2254
2254
2254
2254
2248
2248
2248
2250
2250
2250
2248
2248
2248
2251
2251
2251
2250
2250
2250
2250
2245
2245
2245
2251
2251
2251
2249
2249
2249
2251
2251
2251
2250
2250
2250
2250
2248
2248
2248
2249
2249
2249
2250
2250
2250
2247
2247
2247
2247
2247
2247
2247
2248
2248
2248
2251
2251
2251
2250
2250
2250
2249
2249
2249
2247
2247
2247
2247
2247
2247
2247
2246
2246
2246
2249
2249
2249
2247
2247
2247
2248
2248
2248
2248
2248
2248
2248
2248
2248
2248
2253
2253
2253
2250
2250
2250
2250
2250
2250
2250
2251
2251
2251
2254
2254
2254
2248
2248
2248
2252
2252
2252
2248
2248
2248
2248
2248
2248
2248
2249
2249
2249
2241
2241
2241
2250
2250
2250
2250
2250
2250
2250
2247
2247
2247
2247
2247
2247
2248
2248
2248
2250
2250
2250
2247
2247
2247
2247
2248
2248
2248
2250
2250
2250
2252
2252
2252
2248
2248
2248
2251
2251
2251
2251
2248
2248
2248
2248
2248
2248
2249
2249
2249
2250
2250
2250
2255
2255
2255
2255
2249
2249
2249
2245
2245
2245
2254
2254
2254
2249
2249
2249
2251
2251
2251
2251
2249
2249
2249
2249
2249
2249
2251
2251
2251
2254
2254
2254
2247
2247
2247
2247
2248
2248
2248
2249
2249
2249
2252
2252
2252
2251
2251
2251
2250
2250
2250
2250
2248
2248
2248
2248
2248
2248
2250
2250
2250
2250
2250
2250
2248
2248
2248
2248
2252
2252
2252
2250
2250
2250
2248
2248
2248
2254
2254
2254
2250
2250
2250
2250
2247
2247
2247
2250
2250
2250
2241
2241
2241
2251
2251
2251
2251
2251
2251
2251
2249
2249
2249
2250
2250
2250
2248
2248
2248
2251
2251
2251
2250
2250
2250
2250
2249
2249
2249
2248
2248
2248
2244
2244
2244
2250
2250
2250
2252
2252
2252
2252
2245
2245
2245
2250
2250
2250
2248
2248
2248
2252
2252
2252
2250
2250
2250
2250
2249
2249
2249
2254
2254
2254
2248
2248
2248
2251
2251
2251
2249
2249
2249
2249
2246
2246
2246
2249
2249
2249
2248
2248
2248
2246
2246
2246
2254
2254
2254
2254
2248
2248
2248
2251
2251
2251
2249
2249
2249
2251
2251
2251
2251
2251
2251
2251
2249
2249
2249
2250
2250
2250
2249
2249
2249
2249
2249
2249
2249
2249
2249
2249
2251
2251
2251
2248
2248
2248
2248
2248
2248
2253
2253
2253
2251
2251
2251
2251
2247
2247
2247
2250
2250
2250
2250
2250
2250
2253
2253
2253
2249
2249
2249
2249
2251
2251
2251
2250
2250
2250
2249
2249
2249
2253
2253
2253
2251
2251
2251
2251
2246
2246
2246
2248
2248
2248
2246
2246
2246
2249
2249
2249
2251
2251
2251
2251
2249
2249
2249
2248
2248
2248
2248
2248
2248
2253
2253
2253
2254
2254
2254
2254
2248
2248
2248
2247
2247
2247
2247
2247
2247
2251
2251
2251
2248
2248
2248
2248
2247
2247
2247
2250
2250
2250
2248
2248
2248
2247
2247
2247
2251
2251
2251
2251
2248
2248
2248
2253
2253
2253
2247
2247
2247
2253
2253
2253
2251
2251
2251
2251
2248
2248
2248
2251
2251
2251
2250
2250
2250
2249
2249
2249
2252
2252
2252
2252
2251
2251
2251
2249
2249
2249
2250
2250
2250
2251
2251
2251
2252
2252
2252
2252
2250
2250
2250
2248
2248
2248
2249
2249
2249
2250
2250
2250
2252
2252
2252
2252
2245
2245
2245
2247
2247
2247
2248
2248
2248
2251
2251
2251
2251
2251
2251
2251
2249
2249
2249
2249
2249
2249
2249
2249
2249
2250
2250
2250
2252
2252
2252
2252
2245
2245
2245
2252
2252
2252
2249
2249
2249
2252
2252
2252
2250
2250
2250
2250
2248
2248
2248
2250
2250
2250
2249
2249
2249
2247
2247
2247
2249
2249
2249
2249
2250
2250
2250
2251
2251
2251
2249
2249
2249
2252
2252
2252
2252
2252
2252
2252
2247
2247
2247
2248
2248
2248
2247
2247
2247
2249
2249
2249
2250
2250
2250
2250
2247
2247
2247
2253
2253
2253
2249
2249
2249
2254
2254
2254
2250
2250
2250
2250
2248
2248
2248
2250
2250
2250
2246
2246
2246
2257
2257
2257
2250
2250
2250
2250
2247
2247
2247
2251
2251
2251
2252
2252
2252
2254
2254
2254
2250
2250
2250
2250
2249
2249
2249
2251
2251
2251
2249
2249
2249
2252
2252
2252
2252
2252
2252
2252
2249
2249
2249
2248
2248
2248
2250
2250
2250
2252
2252
2252
2251
2251
2251
2251
2249
2249
2249
2252
2252
2252
2251
2251
2251
2252
2252
2252
2250
2250
2250
2250
2248
2248
2248
2247
2247
2247
2249
2249
2249
2254
2254
2254
2250
2250
2250
2250
2248
2248
2248
2250
2250
2250
2249
2249
2249
2251
2251
2251
2249
2249
2249
2249
2249
2249
2249
2252
2252
2252
2248
2248
2248
2251
2251
2251
2250
2250
2250
2250
2247
2247
2247
2252
2252
2252
2248
2248
2248
2254
2254
2254
2250
2250
2250
2250
2248
2248
2248
2249
2249
2249
2243
2243
2243
2253
2253
2253
2249
2249
2249
2249
2248
2248
2248
2248
2248
2248
2251
2251
2251
2251
2251
2251
2250
2250
2250
2250
2253
2253
2253
2248
2248
2248
2250
2250
2250
2253
2253
2253
2248
2248
2248
2248
2248
2248
2248
2250
2250
2250
2250
2250
2250
2253
2253
2253
2251
2251
2251
2251
2247
2247
2247
2251
2251
2251
2249
2249
2249
2251
2251
2251
2246
2246
2246
2246
2247
2247
2247
2247
2247
2247
2247
2247
2247
2250
2250
2250
2249
2249
2249
2249
2248
2248
2248
2249
2249
2249
2249
2249
2249
2263
2263
2263
2250
2250
2250
2250
2250
