2005
2005
2005
1996
1996
1996
2002
2002
2002
1999
1999
1999
2002
2002
2002
2002
2002
2002
2002
1997
1997
1997
2003
2003
2003
2000
2000
2000
2003
2003
2003
2003
2002
2002
2002
1999
1999
1999
2006
2006
2006
2000
2000
2000
2003
2003
2003
2003
2003
2003
2003
1994
1994
1994
2004
2004
2004
1996
1996
1996
2003
2003
2003
2003
2002
2002
2002
1996
1996
1996
2003
2003
2003
1997
1997
1997
2003
2003
2003
2003
2001
2001
2001
1996
1996
1996
2001
2001
2001
2000
2000
2000
2004
2004
2004
2004
2002
2002
2002
1999
1999
1999
2002
2002
2002
1997
1997
1997
2002
2002
2002
2002
2003
2003
2003
1998
1998
1998
2001
2001
2001
1998
1998
1998
2001
2001
2001
2001
2003
2003
2003
1996
1996
1996
2004
2004
2004
1998
1998
1998
2002
2002
2002
2002
2002
2002
2002
1998
1998
1998
2002
2002
2002
1996
1996
1996
2002
2002
2002
2002
2002
2002
2002
1994
1994
1994
2003
2003
2003
1997
1997
1997
1999
1999
1999
1999
2002
2002
2002
1983
1983
1983
2003
2003
2003
1995
1995
1995
2002
2002
2002
2002
2001
2001
2001
1997
1997
1997
2002
2002
2002
1999
1999
1999
2005
2005
2005
2005
2001
2001
2001
1995
1995
1995
2002
2002
2002
1997
1997
1997
2002
2002
2002
2002
2001
2001
2001
2003
2003
2003
2004
2004
2004
1995
1995
1995
2005
2005
2005
2005
2005
2005
2005
1995
1995
1995
2004
2004
2004
1997
1997
1997
2005
2005
2005
2005
2003
2003
2003
1995
1995
1995
2003
2003
2003
1998
1998
1998
2001
2001
2001
2001
2002
2002
2002
1994
1994
1994
2004
2004
2004
1997
1997
1997
1997
1997
1997
1997
2002
2002
2002
2000
2000
2000
2001
2001
2001
1996
1996
1996
2001
2001
2001
2001
2001
2001
2001
1994
1994
1994
2004
2004
2004
1996
1996
1996
2006
2006
2006
2006
2004
2004
2004
1998
1998
1998
1999
1999
1999
1994
1994
1994
2001
2001
2001
2001
1996
1996
1996
1999
1999
1999
2004
2004
2004
2000
2000
2000
2000
2000
2000
2000
2000
2000
2000
2000
2000
2000
2003
2003
2003
1998
1998
1998
2005
2005
2005
2005
2001
2001
2001
1998
1998
1998
2003
2003
2003
1999
1999
1999
2003
2003
2003
2003
2000
2000
2000
1999
1999
1999
2000
2000
2000
1997
1997
1997
2002
2002
2002
2002
1999
1999
1999
1995
1995
1995
1999
1999
1999
2003
2003
2003
2003
2003
2003
2003
2000
2000
2000
1999
1999
1999
2003
2003
2003
1998
1998
1998
2001
2001
2001
2001
2000
2000
2000
1997
1997
1997
2000
2000
2000
2000
2000
2000
2002
2002
2002
2002
2002
2002
2002
1999
1999
1999
2002
2002
2002
1999
1999
1999
2001
2001
2001
2001
2003
2003
2003
1998
1998
1998
2005
2005
2005
1997
1997
1997
2004
2004
2004
2004
2005
2005
2005
1997
1997
1997
2000
2000
2000
1997
1997
1997
2004
2004
2004
2004
2010
2010
2010
1999
1999
1999
2003
2003
2003
1995
1995
1995
2003
2003
2003
2003
2002
2002
2002
1997
1997
1997
2004
2004
2004
1998
1998
1998
2003
2003
2003
2003
2002
2002
2002
1997
1997
1997
2001
2001
2001
1998
1998
1998
2006
2006
2006
2006
2010
2010
2010
1998
1998
1998
1999
1999
1999
1995
1995
1995
2003
2003
2003
2003
2001
2001
2001
1997
1997
1997
2004
2004
2004
1999
1999
1999
2003
2003
2003
2003
2001
2001
2001
1997
1997
1997
2005
2005
2005
1997
1997
1997
2003
2003
2003
2003
2004
2004
2004
1998
1998
1998
2001
2001
2001
2001
2001
2001
2003
2003
2003
2003
2001
2001
2001
2000
2000
2000
2005
2005
2005
1999
1999
1999
2003
2003
2003
2003
2003
2003
2003
1998
1998
1998
2008
2008
2008
1999
1999
1999
2004
2004
2004
2004
2004
2004
2004
1997
1997
1997
2001
2001
2001
1996
1996
1996
2002
2002
2002
2002
2003
2003
2003
1999
1999
1999
2001
2001
2001
1997
1997
1997
2003
2003
2003
2003
2003
2003
2003
1998
1998
1998
2002
2002
2002
2001
2001
2001
2004
2004
2004
2004
2002
2002
2002
1998
1998
1998
2002
2002
2002
1998
1998
1998
2003
2003
2003
2003
2006
2006
2006
2000
2000
2000
2004
2004
2004
2000
2000
2000
2003
2003
2003
2003
1999
1999
1999
1999
1999
1999
2002
2002
2002
1997
1997
1997
2004
2004
2004
2004
2008
2008
2008
1997
1997
1997
2002
2002
2002
1995
1995
1995
2002
2002
2002
2002
2002
2002
2002
1997
1997
1997
2002
2002
2002
2000
2000
2000
2002
2002
2002
2002
2002
2002
2002
1999
1999
1999
2003
2003
2003
1996
1996
1996
2003
2003
2003
2003
2000
2000
2000
1997
1997
1997
2005
2005
2005
2000
2000
2000
2003
2003
2003
2003
2001
2001
2001
1994
1994
1994
2002
2002
2002
1993
1993
1993
2003
2003
2003
2003
2003
2003
2003
1999
1999
1999
2004
2004
2004
1998
1998
1998
2001
2001
2001
2001
2005
2005
2005
1997
1997
1997
2002
2002
2002
1997
1997
1997
2004
2004
2004
2004
2002
2002
2002
1998
1998
1998
2003
2003
2003
1996
1996
1996
2004
2004
2004
2004
2002
2002
2002
1997
1997
1997
2003
2003
2003
1996
1996
1996
2005
2005
2005
2005
2002
2002
2002
1999
1999
1999
2002
2002
2002
1996
1996
1996
2003
2003
2003
2003
2003
2003
2003
2000
2000
2000
2002
2002
2002
1997
1997
1997
2003
2003
2003
2003
2001
2001
2001
1999
1999
1999
2001
2001
2001
1995
1995
1995
2003
2003
2003
2003
2001
2001
2001
1997
1997
1997
2005
2005
2005
1998
1998
1998
2001
2001
2001
2001
2001
2001
2001
1999
1999
1999
2005
2005
2005
2000
2000
2000
2003
2003
2003
2003
2002
2002
2002
1997
1997
1997
2004
2004
2004
1997
1997
1997
2002
2002
2002
2002
2001
2001
2001
1998
1998
1998
2003
2003
2003
1999
1999
1999
2001
2001
2001
2001
2000
2000
2000
1997
1997
1997
2000
2000
2000
1996
1996
1996
2001
2001
2001
2001
2003
2003
2003
1997
1997
1997
2004
2004
2004
1997
1997
1997
2005
2005
2005
2005
2002
2002
2002
1995
1995
1995
2003
2003
2003
1999
1999
1999
2001
2001
2001
2001
2000
2000
2000
1999
1999
1999
2004
2004
2004
1999
1999
1999
2005
2005
2005
2005
2000
2000
2000
1999
1999
1999
2003
2003
2003
1997
1997
1997
2002
2002
2002
2002
2002
2002
2002
1999
1999
1999
2002
2002
2002
1997
1997
1997
2000
2000
2000
2000
2003
2003
2003
1999
1999
1999
2000
2000
2000
1996
1996
1996
1999
1999
1999
1999
2004
2004
2004
1997
1997
1997
2003
2003
2003
2000
2000
2000
2002
2002
2002
2002
2003
2003
2003
1997
1997
1997
1996
1996
1996
1999
1999
1999
2003
2003
2003
2003
2000
2000
2000
1997
1997
1997
2002
2002
2002
1997
1997
1997
2001
2001
2001
2001
2001
2001
2001
2000
2000
2000
2005
2005
2005
1998
1998
1998
2005
2005
2005
2005
2003
2003
2003
1999
1999
1999
2006
2006
2006
1996
1996
1996
2001
2001
2001
2001
2002
2002
2002
2000
2000
2000
2002
2002
2002
1999
1999
1999
2001
2001
2001
2001
2000
2000
2000
2000
2000
2000
2002
2002
2002
1997
1997
1997
2001
2001
2001
2001
2004
2004
2004
1999
1999
1999
2008
2008
2008
1998
1998
1998
2003
2003
2003
2003
2002
2002
2002
1998
1998
1998
2001
2001
2001
1999
1999
1999
2003
2003
2003
2003
2002
2002
2002
1999
1999
1999
2000
2000
2000
1997
1997
1997
2005
2005
2005
2005
2001
2001
2001
2002
2002
2002
2008
2008
2008
1999
1999
1999
2003
2003
2003
2003
2000
2000
2000
1998
1998
1998
2000
2000
2000
1998
1998
1998
2004
2004
2004
2004
2003
2003
2003
1999
1999
1999
2003
2003
2003
1997
1997
1997
2001
2001
2001
2001
2002
2002
2002
1999
1999
1999
1999
1999
1999
1999
1999
1999
2004
2004
2004
2004
2002
2002
2002
1998
1998
1998
2003
2003
2003
1997
1997
1997
2004
2004
2004
2004
2001
2001
2001
1999
1999
1999
2004
2004
2004
1998
1998
1998
2002
2002
2002
2002
2001
2001
2001
1999
1999
1999
2003
2003
2003
1997
1997
1997
2005
2005
2005
2005
2003
2003
2003
1998
1998
1998
2006
2006
2006
1999
1999
1999
2002
2002
2002
2002
2003
2003
2003
1999
1999
1999
2002
2002
2002
2000
2000
2000
2002
2002
2002
2002
2003
2003
2003
1997
1997
1997
2002
2002
2002
2000
2000
2000
2002
2002
2002
2002
2003
2003
2003
1998
1998
1998
2005
2005
2005
2002
2002
2002
2004
2004
2004
2004
2001
2001
2001
1995
1995
1995
1999
1999
1999
1999
1999
1999
2004
2004
2004
2004
2003
2003
2003
1997
1997
1997
2001
2001
2001
2000
2000
2000
2005
2005
2005
2005
2004
2004
2004
1998
1998
1998
2003
2003
2003
1997
1997
1997
2004
2004
2004
2004
2002
2002
2002
2003
2003
2003
2004
2004
2004
1998
1998
1998
2004
2004
2004
2004
2001
2001
2001
1999
1999
1999
1998
1998
1998
1998
1998
1998
2004
2004
2004
2004
2003
2003
2003
1999
1999
1999
2001
2001
2001
1997
1997
1997
2003
2003
2003
2003
2003
2003
2003
1998
1998
1998
2004
2004
2004
1997
1997
1997
2000
2000
2000
2000
2002
2002
2002
1997
1997
1997
2001
2001
2001
1995
1995
1995
2005
2005
2005
2005
2002
2002
2002
1995
1995
1995
2002
2002
2002
1997
1997
1997
2002
2002
2002
2002
2005
2005
2005
2001
2001
2001
2004
2004
2004
1996
1996
1996
2004
2004
2004
2004
2005
2005
2005
1999
1999
1999
2004
2004
2004
2001
2001
2001
2001
2001
2001
2001
2004
2004
2004
1999
1999
1999
2001
2001
2001
2001
2001
2001
2000
2000
2000
2000
2004
2004
2004
2001
2001
2001
2003
2003
2003
2000
2000
2000
2002
2002
2002
2002
2001
2001
2001
1997
1997
1997
2002
2002
2002
2000
2000
2000
2002
2002
2002
2002
1998
1998
1998
1998
1998
1998
2002
2002
2002
1998
1998
1998
2003
2003
2003
2003
2003
2003
2003
1998
1998
1998
2003
2003
2003
1993
1993
1993
2004
2004
2004
2004
2000
2000
2000
1999
1999
1999
2000
2000
2000
1997
1997
1997
2003
2003
2003
2003
2004
2004
2004
1997
1997
1997
2002
2002
2002
1995
1995
1995
2004
2004
2004
2004
2002
2002
2002
1995
1995
1995
2002
2002
2002
1993
1993
1993
2002
2002
2002
2002
2002
2002
2002
2000
2000
2000
2005
2005
2005
1996
1996
1996
2006
2006
2006
2006
2002
2002
2002
1996
1996
1996
2002
2002
2002
1996
1996
1996
2003
2003
2003
2003
2001
2001
2001
1999
1999
1999
2004
2004
2004
1996
1996
1996
2003
2003
2003
2003
2004
2004
2004
1998
1998
1998
2002
2002
2002
1997
1997
1997
2002
2002
2002
2002
1999
1999
1999
2000
2000
2000
2004
2004
2004
1998
1998
1998
2003
2003
2003
2003
2003
2003
2003
1998
1998
1998
2001
2001
2001
1999
1999
1999
2002
2002
2002
2002
2001
2001
2001
2000
2000
2000
2002
2002
2002
1998
1998
1998
2005
2005
2005
2005
2005
2005
2005
2001
2001
2001
2005
2005
2005
1999
1999
1999
2005
2005
2005
2005
2003
2003
2003
2001
2001
2001
2003
2003
2003
1997
1997
1997
2003
2003
2003
2003
1999
1999
1999
1997
1997
1997
2002
2002
2002
1998
1998
1998
2006
2006
2006
2006
2003
2003
2003
2000
2000
2000
2005
2005
2005
1997
1997
1997
2004
2004
2004
2004
2001
2001
2001
1998
1998
1998
2003
2003
2003
1998
1998
1998
2001
2001
2001
2001
2003
2003
2003
1993
1993
1993
2003
2003
2003
1998
1998
1998
2000
2000
2000
2000
2003
2003
2003
1994
1994
1994
2001
2001
2001
1997
1997
1997
1999
1999
1999
1999
2003
2003
2003
2000
2000
2000
2004
2004
2004
1998
1998
1998
2003
2003
2003
2003
2004
2004
2004
2000
2000
2000
2002
2002
2002
1999
1999
1999
2002
2002
2002
2002
2004
2004
2004
1998
1998
1998
2002
2002
2002
1999
1999
1999
2003
2003
2003
2003
2002
2002
2002
1998
1998
1998
2004
2004
2004
1998
1998
1998
2002
2002
2002
2002
2003
2003
2003
1996
1996
1996
2008
2008
2008
1998
1998
1998
2004
2004
2004
2004
2003
2003
2003
2000
2000
2000
2001
2001
2001
1999
1999
1999
2003
2003
2003
2003
2003
2003
2003
1998
1998
1998
1999
1999
1999
1998
1998
1998
2006
2006
2006
2006
2002
2002
2002
1998
1998
1998
1999
1999
1999
1999
1999
1999
2004
2004
2004
2004
2002
2002
2002
1997
1997
1997
2003
2003
2003
1999
1999
1999
2003
2003
2003
2003
1999
1999
1999
1996
1996
1996
2004
2004
2004
2000
2000
2000
2004
2004
2004
2004
1999
1999
1999
1998
1998
1998
2001
2001
2001
2001
2001
2001
2001
2001
2001
2001
2000
2000
2000
1998
1998
1998
2006
2006
2006
1996
1996
1996
2004
2004
2004
2004
1999
1999
1999
1999
1999
1999
2002
2002
2002
1993
1993
1993
2001
2001
2001
2001
2007
2007
2007
2007
2007
2007
2003
2003
2003
1994
1994
1994
2002
2002
2002
2002
2005
2005
2005
1999
1999
1999
2002
2002
2002
1997
1997
1997
2001
2001
2001
2001
2003
2003
2003
1997
1997
1997
2002
2002
2002
1994
1994
1994
2001
2001
2001
2001
2004
2004
2004
2000
2000
2000
2006
2006
2006
1999
1999
1999
2001
2001
2001
2001
2002
2002
2002
1999
1999
1999
2002
2002
2002
2000
2000
2000
2003
2003
2003
2003
2004
2004
2004
1999
1999
1999
2003
2003
2003
1997
1997
1997
2002
2002
2002
2002
2003
2003
2003
2001
2001
2001
2000
2000
2000
1999
1999
1999
2004
2004
2004
2004
1999
1999
1999
1995
1995
1995
2002
2002
2002
1998
1998
1998
1995
1995
1995
1995
2002
2002
2002
1998
1998
1998
2002
2002
2002
1997
1997
1997
2002
2002
2002
2002
2002
2002
2002
1999
1999
1999
2002
2002
2002
2000
2000
2000
2002
2002
2002
2002
2003
2003
2003
2001
2001
2001
2005
2005
2005
1999
1999
1999
2002
2002
2002
2002
2001
2001
2001
2000
2000
2000
2003
2003
2003
1999
1999
1999
2004
2004
2004
2004
2001
2001
2001
1996
1996
1996
2002
2002
2002
1998
1998
1998
2002
2002
2002
2002
2003
2003
2003
1999
1999
1999
2001
2001
2001
1995
1995
1995
2003
2003
2003
2003
2002
2002
2002
1997
1997
1997
2001
2001
2001
1999
1999
1999
2003
2003
2003
2003
2003
2003
2003
1997
1997
1997
2004
2004
2004
2000
2000
2000
2003
2003
2003
2003
2004
2004
2004
1998
1998
1998
2002
2002
2002
1999
1999
1999
2004
2004
2004
2004
2002
2002
2002
1999
1999
1999
2004
2004
2004
1995
1995
1995
2000
2000
2000
2000
2000
2000
2000
2000
2000
2000
2000
2000
2000
2004
2004
2004
2002
2002
2002
2002
2007
2007
2007
1996
1996
1996
2004
2004
2004
2003
2003
2003
2003
2003
2003
2003
1999
1999
1999
1997
1997
1997
2001
2001
2001
2000
2000
2000
2002
2002
2002
2002
2005
2005
2005
1999
1999
1999
2000
2000
2000
1994
1994
1994
2004
2004
2004
2004
2003
2003
2003
1997
1997
1997
2005
2005
2005
1995
1995
1995
2006
2006
2006
2006
2002
2002
2002
1998
1998
1998
2002
2002
2002
1998
1998
1998
2007
2007
2007
2007
2004
2004
2004
1995
1995
1995
2004
2004
2004
1999
1999
1999
2003
2003
2003
2003
2001
2001
2001
2001
2001
2001
2002
2002
2002
1999
1999
1999
2000
2000
2000
2000
2002
2002
2002
2003
2003
2003
2004
2004
2004
1997
1997
1997
2006
2006
2006
2006
1998
1998
1998
2001
2001
2001
2000
2000
2000
1999
1999
1999
2003
2003
2003
2003
1999
1999
1999
1998
1998
1998
2002
2002
2002
1998
1998
1998
2003
2003
2003
2003
2002
2002
2002
1999
1999
1999
2004
2004
2004
1996
1996
1996
2002
2002
2002
2002
2002
2002
2002
1997
1997
1997
2009
2009
2009
1995
1995
1995
2003
2003
2003
2003
2001
2001
2001
1999
1999
1999
2001
2001
2001
1998
1998
1998
2001
2001
2001
2001
2002
2002
2002
1999
1999
1999
2002
2002
2002
1999
1999
1999
2003
2003
2003
2003
2001
2001
2001
1998
1998
1998
2003
2003
2003
2000
2000
2000
2000
2000
2000
2000
2003
2003
2003
1999
1999
1999
2006
2006
2006
2001
2001
2001
2004
2004
2004
2004
2003
2003
2003
1996
1996
1996
2001
2001
2001
1997
1997
1997
2003
2003
2003
2003
2000
2000
2000
2003
2003
2003
2000
2000
2000
2001
2001
2001
2002
2002
2002
2002
2004
2004
2004
2000
2000
2000
2002
2002
2002
1995
1995
1995
2002
2002
2002
2002
2005
2005
2005
2000
2000
2000
2000
2000
2000
2003
2003
2003
2000
2000
2000
2000
2005
2005
2005
1997
1997
1997
2004
2004
2004
1998
1998
1998
2003
2003
2003
2003
1999
1999
1999
1997
1997
1997
2003
2003
2003
1999
1999
1999
2007
2007
2007
2007
2001
2001
2001
1998
1998
1998
2004
2004
2004
2001
2001
2001
2003
2003
2003
2003
2002
2002
2002
1996
1996
1996
2008
2008
2008
2000
2000
2000
2004
2004
2004
2004
2004
2004
2004
1995
1995
1995
2003
2003
2003
1999
1999
1999
2003
2003
2003
2003
1999
1999
1999
1999
1999
1999
2002
2002
2002
1999
1999
1999
2001
2001
2001
2001
2002
2002
2002
1995
1995
1995
2002
2002
2002
1999
1999
1999
2004
2004
2004
2004
2004
2004
2004
1996
1996
1996
2007
2007
2007
1996
1996
1996
2003
2003
2003
2003
2003
2003
2003
1997
1997
1997
2006
2006
2006
1998
1998
1998
2001
2001
2001
2001
1999
1999
1999
1998
1998
1998
2000
2000
2000
1999
1999
1999
2003
2003
2003
2003
2004
2004
2004
1998
1998
1998
2002
2002
2002
2000
2000
2000
2003
2003
2003
2003
2001
2001
2001
2006
2006
2006
2001
2001
2001
2001
2001
2001
2002
2002
2002
2002
2010
2010
2010
1997
1997
1997
2003
2003
2003
1999
1999
1999
2003
2003
2003
2003
2005
2005
2005
1998
1998
1998
2003
2003
2003
1999
1999
1999
2001
2001
2001
2001
2005
2005
2005
1999
1999
1999
2004
2004
2004
1996
1996
1996
2000
2000
2000
2000
2003
2003
2003
1996
1996
1996
2005
2005
2005
1998
1998
1998
2001
2001
2001
2001
2000
2000
2000
2002
2002
2002
2001
2001
2001
1997
1997
1997
1995
1995
1995
1995
2004
2004
2004
2000
2000
2000
2000
2000
2000
1998
1998
1998
2012
2012
2012
2012
2003
2003
2003
2001
2001
2001
2002
2002
2002
1999
1999
1999
2002
2002
2002
2002
2003
2003
2003
1996
1996
1996
2004
2004
2004
1997
1997
1997
2003
2003
2003
2003
2001
2001
2001
1997
1997
1997
2001
2001
2001
1997
1997
1997
2001
2001
2001
2001
2003
2003
2003
2000
2000
2000
1999
1999
1999
1999
1999
1999
2001
2001
2001
2001
2003
2003
2003
1997
1997
1997
2005
2005
2005
1996
1996
1996
2004
2004
2004
2004
2002
2002
2002
2000
2000
2000
1997
1997
1997
1998
1998
1998
2003
2003
2003
2003
2003
2003
2003
1998
1998
1998
1996
1996
1996
1995
1995
1995
2004
2004
2004
2004
2002
2002
2002
1997
1997
1997
2001
2001
2001
1997
1997
1997
2007
2007
2007
2007
2003
2003
2003
1997
1997
1997
2000
2000
2000
1999
1999
1999
2003
2003
2003
2003
2004
2004
2004
2002
2002
2002
2003
2003
2003
2001
2001
2001
2002
2002
2002
2002
2003
2003
2003
1999
1999
1999
2003
2003
2003
2001
2001
2001
2003
2003
2003
2003
2003
2003
2003
1998
1998
1998
2002
2002
2002
1997
1997
1997
2005
2005
2005
2005
2002
2002
2002
2010
2010
2010
2001
2001
2001
1997
1997
1997
2003
2003
2003
2003
2004
2004
2004
1994
1994
1994
2005
2005
2005
1997
1997
1997
2008
2008
2008
2008
2002
2002
2002
1996
1996
1996
2004
2004
2004
1997
1997
1997
2001
2001
2001
2001
2006
2006
2006
1999
1999
1999
2002
2002
2002
1997
1997
1997
2002
2002
2002
2002
2003
2003
2003
2003
2003
2003
2001
2001
2001
1999
1999
1999
2001
2001
2001
2001
2004
2004
2004
1996
1996
1996
2003
2003
2003
1999
1999
1999
2004
2004
2004
2004
1999
1999
1999
1998
1998
1998
2003
2003
2003
1998
1998
1998
2001
2001
2001
2001
2002
2002
2002
1999
1999
1999
2003
2003
2003
1997
1997
1997
2005
2005
2005
2005
2002
2002
2002
1996
1996
1996
2003
2003
2003
1998
1998
1998
2002
2002
2002
2002
2002
2002
2002
2000
2000
2000
2007
2007
2007
1999
1999
1999
2004
2004
2004
2004
2005
2005
2005
1999
1999
1999
2001
2001
2001
2001
2001
2001
2003
2003
2003
2003
2001
2001
2001
1997
1997
1997
2003
2003
2003
2001
2001
2001
2004
2004
2004
2004
2002
2002
2002
1996
1996
1996
2004
2004
2004
1997
1997
1997
2004
2004
2004
2004
2000
2000
2000
1998
1998
1998
2001
2001
2001
1994
1994
1994
2002
2002
2002
2002
2004
2004
2004
1997
1997
1997
2003
2003
2003
2002
2002
2002
2002
2002
2002
2002
2002
2002
2002
1999
1999
1999
2002
2002
2002
1999
1999
1999
1999
1999
1999
1999
2003
2003
2003
1995
1995
1995
2003
2003
2003
1998
1998
1998
1998
1998
1998
1998
2003
2003
2003
2001
2001
2001
2001
2001
2001
1997
1997
1997
2001
2001
2001
2001
2002
2002
2002
1999
1999
1999
2002
2002
2002
1997
1997
1997
2001
2001
2001
2001
2002
2002
2002
2003
2003
2003
2002
2002
2002
2000
2000
2000
1998
1998
1998
1998
2003
2003
2003
1998
1998
1998
2003
2003
2003
1997
1997
1997
2002
2002
2002
2002
2000
2000
2000
1998
1998
1998
2000
2000
2000
1997
1997
1997
2002
2002
2002
2002
2004
2004
2004
1993
1993
1993
2002
2002
2002
1996
1996
1996
2003
2003
2003
2003
2001
2001
2001
2000
2000
2000
1995
1995
1995
1999
1999
1999
2004
2004
2004
2004
2004
2004
2004
1997
1997
1997
2007
2007
2007
1996
1996
1996
2003
2003
2003
2003
2003
2003
2003
1998
1998
1998
2004
2004
2004
1999
1999
1999
2004
2004
2004
2004
2000
2000
2000
1998
1998
1998
2003
2003
2003
1998
1998
1998
2001
2001
2001
2001
2002
2002
2002
2000
2000
2000
2003
2003
2003
1999
1999
1999
2000
2000
2000
2000
2007
2007
2007
1998
1998
1998
2004
2004
2004
1997
1997
1997
2005
2005
2005
2005
2005
2005
2005
1998
1998
1998
2003
2003
2003
2000
2000
2000
2000
2000
2000
2000
2006
2006
2006
1998
1998
1998
2005
2005
2005
1995
1995
1995
2001
2001
2001
2001
2000
2000
2000
1997
1997
1997
1993
1993
1993
1998
1998
1998
1998
1998
1998
1998
1999
1999
1999
1995
1995
1995
2003
2003
2003
1999
1999
1999
2002
2002
2002
2002
2001
2001
2001
1998
1998
1998
2002
2002
2002
2000
2000
2000
2001
2001
2001
2001
2003
2003
2003
1998
1998
1998
2002
2002
2002
1998
1998
1998
2002
2002
2002
2002
2001
2001
2001
1995
1995
1995
2002
2002
2002
1998
1998
1998
2004
2004
2004
2004
2000
2000
2000
1997
1997
1997
2001
2001
2001
1998
1998
1998
2003
2003
2003
2003
2003
2003
2003
1999
1999
1999
2002
2002
2002
1999
1999
1999
2001
2001
2001
2001
2002
2002
2002
1997
1997
1997
2006
2006
2006
1997
1997
1997
2002
2002
2002
2002
2003
2003
2003
1999
1999
1999
2006
2006
2006
1997
1997
1997
2001
2001
2001
2001
2000
2000
2000
1998
1998
1998
2004
2004
2004
2001
2001
2001
2002
2002
2002
2002
2001
2001
2001
1996
1996
1996
2006
2006
2006
1998
1998
1998
2002
2002
2002
2002
2000
2000
2000
1999
1999
1999
2003
2003
2003
1997
1997
1997
2002
2002
2002
2002
2009
2009
2009
1998
1998
1998
2003
2003
2003
1999
1999
1999
2004
2004
2004
2004
2003
2003
2003
1997
1997
1997
2003
2003
2003
1995
1995
1995
2004
2004
2004
2004
2003
2003
2003
1999
1999
1999
2001
2001
2001
1998
1998
1998
2004
2004
2004
2004
1999
1999
1999
1997
1997
1997
2002
2002
2002
1998
1998
1998
2004
2004
2004
2004
2000
2000
2000
1998
1998
1998
2004
2004
2004
2000
2000
2000
2008
2008
2008
2008
2000
2000
2000
1999
1999
1999
2002
2002
2002
1997
1997
1997
2008
2008
2008
2008
2001
2001
2001
1992
1992
1992
1999
1999
1999
1997
1997
1997
2000
2000
2000
2000
2005
2005
2005
1995
1995
1995
2004
2004
2004
1998
1998
1998
2003
2003
2003
2003
2004
2004
2004
1998
1998
1998
2003
2003
2003
1998
1998
1998
2002
2002
2002
2002
1999
1999
1999
1995
1995
1995
2007
2007
2007
1999
1999
1999
2003
2003
2003
2003
2000
2000
2000
1999
1999
1999
2006
2006
2006
1997
1997
1997
2000
2000
2000
2000
2001
2001
2001
1999
1999
1999
1994
1994
1994
1995
1995
1995
2002
2002
2002
2002
2001
2001
2001
1997
1997
1997
2002
2002
2002
1996
1996
1996
2002
2002
2002
2002
2004
2004
2004
2002
2002
2002
2005
2005
2005
1996
1996
1996
2001
2001
2001
2001
2005
2005
2005
1998
1998
1998
2004
2004
2004
1998
1998
1998
2003
2003
2003
2003
2003
2003
2003
1999
1999
1999
2003
2003
2003
1996
1996
1996
2003
2003
2003
2003
1999
1999
1999
1999
1999
1999
1999
1999
1999
2002
2002
2002
2002
2002
2002
2002
2003
2003
2003
1997
1997
1997
2002
2002
2002
1998
1998
1998
2001
2001
2001
2001
2000
2000
2000
1995
1995
1995
2003
2003
2003
1998
1998
1998
2008
2008
2008
2008
2001
2001
2001
1999
1999
1999
2003
2003
2003
1998
1998
1998
2009
2009
2009
2009
2003
2003
2003
1996
1996
1996
2001
2001
2001
2001
2001
2001
2003
2003
2003
2003
2002
2002
2002
1999
1999
1999
1999
1999
1999
1998
1998
1998
2005
2005
2005
2005
2000
2000
2000
1996
1996
1996
2003
2003
2003
2000
2000
2000
2004
2004
2004
2004
2003
2003
2003
1997
1997
1997
2004
2004
2004
1999
1999
1999
2001
2001
2001
2001
2003
2003
2003
1998
1998
1998
2004
2004
2004
1998
1998
1998
1995
1995
1995
1995
2002
2002
2002
1998
1998
1998
2003
2003
2003
1997
1997
1997
2003
2003
2003
2003
2003
2003
2003
1998
1998
1998
2003
2003
2003
1998
1998
1998
2002
2002
2002
2002
2000
2000
2000
1997
1997
1997
2003
2003
2003
1994
1994
1994
2002
2002
2002
2002
2008
2008
2008
1999
1999
1999
2002
2002
2002
1999
1999
1999
2003
2003
2003
2003
2001
2001
2001
2000
2000
2000
2004
2004
2004
1996
1996
1996
2003
2003
2003
2003
2003
2003
2003
2000
2000
2000
2002
2002
2002
2000
2000
2000
2000
2000
2000
2000
1999
1999
1999
1997
1997
1997
2003
2003
2003
1996
1996
1996
2002
2002
2002
2002
2001
2001
2001
1997
1997
1997
2002
2002
2002
1998
1998
1998
2003
2003
2003
2003
2001
2001
2001
1999
1999
1999
2002
2002
2002
1999
1999
1999
2009
2009
2009
2009
2001
2001
2001
1998
1998
1998
2002
2002
2002
1998
1998
1998
2002
2002
2002
2002
2002
2002
2002
1997
1997
1997
1998
1998
1998
1997
1997
1997
2004
2004
2004
2004
2006
2006
2006
1998
1998
1998
2002
2002
2002
1999
1999
1999
2000
2000
2000
2000
2001
2001
2001
1998
1998
1998
2002
2002
2002
1995
1995
1995
2004
2004
2004
2004
2003
2003
2003
1998
1998
1998
1996
1996
1996
1996
1996
1996
2002
2002
2002
2002
1999
1999
1999
1998
1998
1998
2005
2005
2005
1999
1999
1999
2004
2004
2004
2004
2002
2002
2002
1998
1998
1998
2004
2004
2004
1998
1998
1998
2000
2000
2000
2000
2004
2004
2004
1997
1997
1997
2004
2004
2004
1999
1999
1999
2001
2001
2001
2001
2005
2005
2005
1998
1998
1998
2006
2006
2006
1998
1998
1998
2002
2002
2002
2002
1999
1999
1999
1999
1999
1999
2003
2003
2003
2000
2000
2000
2003
2003
2003
2003
2005
2005
2005
2000
2000
2000
2002
2002
2002
1999
1999
1999
2001
2001
2001
2001
2001
2001
2001
1998
1998
1998
2005
2005
2005
1996
1996
1996
2001
2001
2001
2001
2002
2002
2002
2000
2000
2000
2004
2004
2004
1996
1996
1996
2004
2004
2004
2004
2001
2001
2001
1995
1995
1995
2001
2001
2001
1998
1998
1998
2000
2000
2000
2000
2004
2004
2004
2000
2000
2000
2003
2003
2003
1996
1996
1996
2003
2003
2003
2003
2000
2000
2000
1997
1997
1997
2001
2001
2001
1999
1999
1999
2004
2004
2004
2004
2003
2003
2003
1996
1996
1996
2002
2002
2002
2000
2000
2000
2003
2003
2003
2003
2002
2002
2002
1999
1999
1999
1995
1995
1995
1997
1997
1997
2002
2002
2002
2002
2003
2003
2003
1999
1999
1999
2001
2001
2001
1999
1999
1999
2003
2003
2003
2003
2002
2002
2002
1998
1998
1998
2003
2003
2003
1998
1998
1998
2002
2002
2002
2002
2003
2003
2003
1995
1995
1995
2005
2005
2005
1994
1994
1994
2003
2003
2003
2003
2000
2000
2000
1999
1999
1999
2003
2003
2003
1999
1999
1999
2003
2003
2003
2003
2001
2001
2001
1999
1999
1999
2003
2003
2003
2002
2002
2002
2003
2003
2003
2003
1999
1999
1999
1996
1996
1996
2001
2001
2001
1997
1997
1997
2003
2003
2003
2003
2001
2001
2001
1998
1998
1998
2004
2004
2004
1997
1997
1997
2002
2002
2002
2002
2003
2003
2003
1989
1989
1989
2004
2004
2004
1996
1996
1996
2002
2002
2002
2002
1999
1999
1999
2001
2001
2001
2001
2001
2001
1999
1999
1999
1999
1999
1999
1999
2003
2003
2003
1995
1995
1995
2004
2004
2004
1999
1999
1999
2004
2004
2004
2004
2001
2001
2001
1997
1997
1997
2002
2002
2002
2000
2000
2000
2003
2003
2003
2003
2001
2001
2001
1994
1994
1994
2008
2008
2008
2000
2000
2000
2003
2003
2003
2003
2001
2001
2001
1997
1997
1997
2003
2003
2003
1998
1998
1998
2003
2003
2003
2003
2001
2001
2001
1997
1997
1997
2007
2007
2007
1997
1997
1997
2003
2003
2003
2003
2001
2001
2001
1999
1999
1999
2001
2001
2001
1998
1998
1998
2003
2003
2003
2003
2006
2006
2006
1997
1997
1997
2004
2004
2004
2003
2003
2003
2002
2002
2002
2002
2003
2003
2003
1998
1998
1998
2002
2002
2002
1995
1995
1995
2003
2003
2003
2003
2003
2003
2003
2000
2000
2000
2002
2002
2002
1994
1994
1994
2001
2001
2001
2001
2003
2003
2003
2004
2004
2004
2000
2000
2000
1997
1997
1997
2002
2002
2002
2002
2004
2004
2004
1998
1998
1998
2001
2001
2001
1997
1997
1997
2003
2003
2003
2003
2001
2001
2001
2000
2000
2000
2003
2003
2003
1996
1996
1996
2005
2005
2005
2005
1999
1999
1999
1993
1993
1993
2002
2002
2002
1996
1996
1996
2002
2002
2002
2002
2000
2000
2000
1997
1997
1997
2001
2001
2001
1997
1997
1997
2003
2003
2003
2003
2003
2003
2003
1999
1999
1999
2005
2005
2005
1999
1999
1999
2002
2002
2002
2002
2004
2004
2004
1997
1997
1997
2005
2005
2005
1998
1998
1998
2004
2004
2004
2004
2002
2002
2002
1995
1995
1995
2006
2006
2006
2000
2000
2000
2004
2004
2004
2004
2002
2002
2002
1998
1998
1998
2004
2004
2004
1999
1999
1999
2003
2003
2003
2003
2001
2001
2001
2000
2000
2000
2003
2003
2003
2001
2001
2001
2003
2003
2003
2003
2004
2004
2004
2000
2000
2000
2000
2000
2000
2000
2000
2000
2001
2001
2001
2001
2000
2000
2000
1997
1997
1997
2006
2006
2006
1996
1996
1996
2001
2001
2001
2001
2001
2001
2001
1997
1997
1997
2005
2005
2005
1999
1999
1999
2003
2003
2003
2003
2001
2001
2001
1999
1999
1999
1998
1998
1998
1999
1999
1999
1996
1996
1996
1996
2004
2004
2004
1997
1997
1997
2003
2003
2003
1997
1997
1997
2001
2001
2001
2001
2000
2000
2000
2000
2000
2000
2002
2002
2002
1997
1997
1997
2003
2003
2003
2003
2004
2004
2004
1996
1996
1996
2000
2000
2000
2000
2000
2000
2005
2005
2005
2005
2005
2005
2005
1998
1998
1998
2002
2002
2002
1997
1997
1997
2002
2002
2002
2002
2002
2002
2002
1998
1998
1998
2007
2007
2007
1998
1998
1998
2002
2002
2002
2002
2002
2002
2002
1997
1997
1997
1998
1998
1998
2003
2003
2003
1999
1999
1999
1999
2004
2004
2004
1998
1998
1998
2008
2008
2008
1997
1997
1997
2002
2002
2002
2002
2005
2005
2005
1999
1999
1999
2002
2002
2002
1999
1999
1999
2003
2003
2003
2003
2003
2003
2003
1998
1998
1998
2001
2001
2001
1999
1999
1999
2004
2004
2004
2004
2005
2005
2005
1999
1999
1999
2001
2001
2001
1999
1999
1999
2003
2003
2003
2003
1991
1991
1991
2000
2000
2000
2002
2002
2002
1997
1997
1997
2002
2002
2002
2002
2003
2003
2003
1996
1996
1996
2001
2001
2001
1999
1999
1999
2006
2006
2006
2006
2001
2001
2001
1996
1996
1996
2001
2001
2001
2001
2001
2001
1999
1999
1999
1999
2001
2001
2001
2002
2002
2002
2003
2003
2003
1999
1999
1999
2006
2006
2006
2006
2001
2001
2001
1999
1999
1999
2005
2005
2005
1997
1997
1997
2005
2005
2005
2005
2003
2003
2003
1996
1996
1996
2004
2004
2004
1998
1998
1998
2004
2004
2004
2004
2001
2001
2001
1998
1998
1998
2006
2006
2006
1998
1998
1998
2003
2003
2003
2003
2000
2000
2000
1995
1995
1995
2002
2002
2002
1998
1998
1998
2006
2006
2006
2006
2002
2002
2002
1997
1997
1997
2003
2003
2003
1999
1999
1999
2004
2004
2004
2004
1992
1992
1992
1997
1997
1997
2005
2005
2005
2001
2001
2001
2002
2002
2002
2002
2004
2004
2004
1998
1998
1998
2003
2003
2003
1997
1997
1997
2002
2002
2002
2002
2000
2000
2000
1998
1998
1998
2003
2003
2003
1999
1999
1999
2003
2003
2003
2003
2001
2001
2001
1997
1997
1997
2003
2003
2003
1998
1998
1998
2005
2005
2005
2005
2001
2001
2001
1994
1994
1994
2001
2001
2001
1999
1999
1999
2004
2004
2004
2004
2002
2002
2002
1999
1999
1999
2005
2005
2005
1997
1997
1997
2004
2004
2004
2004
2001
2001
2001
1998
1998
1998
2002
2002
2002
1999
1999
1999
2004
2004
2004
2004
2001
2001
2001
1998
1998
1998
1999
1999
1999
1998
1998
1998
2002
2002
2002
2002
2003
2003
2003
1997
1997
1997
2003
2003
2003
1998
1998
1998
2002
2002
2002
2002
2001
2001
2001
1999
1999
1999
2002
2002
2002
2001
2001
2001
2002
2002
2002
2002
2001
2001
2001
1999
1999
1999
2004
2004
2004
1998
1998
1998
2000
2000
2000
2000
2003
2003
2003
2002
2002
2002
2002
2002
2002
1999
1999
1999
2003
2003
2003
2003
2004
2004
2004
1997
1997
1997
2002
2002
2002
1995
1995
1995
1999
1999
1999
1999
2001
2001
2001
1995
1995
1995
2001
2001
2001
1997
1997
1997
2003
2003
2003
2003
2002
2002
2002
2000
2000
2000
2002
2002
2002
1999
1999
1999
2004
2004
2004
2004
2002
2002
2002
1999
1999
1999
2003
2003
2003
2002
2002
2002
2002
2002
2002
2002
2003
2003
2003
1998
1998
1998
2000
2000
2000
1999
1999
1999
2002
2002
2002
2002
2002
2002
2002
1999
1999
1999
2002
2002
2002
1999
1999
1999
2004
2004
2004
2004
2003
2003
2003
1998
1998
1998
2002
2002
2002
1999
1999
1999
1998
1998
1998
1998
2004
2004
2004
1998
1998
1998
2001
2001
2001
2000
2000
2000
2007
2007
2007
2007
2003
2003
2003
1996
1996
1996
2003
2003
2003
2002
2002
2002
2010
2010
2010
2010
2000
2000
2000
1999
1999
1999
2003
2003
2003
1997
1997
1997
2003
2003
2003
2003
2003
2003
2003
1998
1998
1998
2000
2000
2000
2001
2001
2001
2004
2004
2004
2004
2002
2002
2002
1999
1999
1999
2000
2000
2000
1999
1999
1999
2001
2001
2001
2001
2002
2002
2002
1999
1999
1999
2004
2004
2004
2000
2000
2000
2004
2004
2004
2004
2001
2001
2001
1997
1997
1997
2003
2003
2003
2001
2001
2001
2001
2001
2001
2001
2001
2001
2001
1999
1999
1999
2001
2001
2001
1996
1996
1996
2003
2003
2003
2003
2001
2001
2001
1997
1997
1997
2001
2001
2001
1993
1993
1993
2001
2001
2001
2001
2007
2007
2007
1998
1998
1998
2000
2000
2000
1997
1997
1997
2002
2002
2002
2002
2003
2003
2003
1998
1998
1998
2004
2004
2004
1999
1999
1999
2002
2002
2002
2002
2001
2001
2001
2003
2003
2003
2002
2002
2002
1998
1998
1998
2005
2005
2005
2005
2001
2001
2001
1997
1997
1997
2005
2005
2005
1998
1998
1998
2001
2001
2001
2001
2003
2003
2003
1998
1998
1998
2002
2002
2002
1997
1997
1997
2003
2003
2003
2003
2003
2003
2003
1999
1999
1999
2003
2003
2003
1997
1997
1997
2004
2004
2004
2004
2002
2002
2002
1999
1999
1999
2003
2003
2003
1998
1998
1998
2003
2003
2003
2003
2003
2003
2003
1995
1995
1995
2003
2003
2003
1996
1996
1996
2006
2006
2006
2006
1999
1999
1999
1997
1997
1997
2000
2000
2000
1999
1999
1999
2003
2003
2003
2003
2001
2001
2001
2000
2000
2000
2002
2002
2002
2000
2000
2000
2003
2003
2003
2003
2001
2001
2001
1997
1997
1997
2001
2001
2001
1999
1999
1999
2003
2003
2003
2003
2000
2000
2000
1999
1999
1999
2001
2001
2001
2001
2001
2001
2005
2005
2005
2005
2001
2001
2001
1996
1996
1996
2003
2003
2003
1999
1999
1999
2004
2004
2004
2004
1987
1987
1987
1999
1999
1999
2004
2004
2004
1999
1999
1999
2004
2004
2004
2004
1999
1999
1999
1997
1997
1997
2004
2004
2004
1997
1997
1997
2004
2004
2004
2004
2000
2000
2000
2000
2000
2000
2006
2006
2006
1997
1997
1997
2002
2002
2002
2002
2002
2002
2002
1995
1995
1995
2004
2004
2004
1999
1999
1999
2001
2001
2001
2001
2003
2003
2003
1995
1995
1995
2003
2003
2003
1999
1999
1999
2003
2003
2003
2003
2003
2003
2003
1994
1994
1994
2003
2003
2003
1998
1998
1998
2004
2004
2004
2004
2001
2001
2001
1996
1996
1996
2005
2005
2005
1998
1998
1998
2003
2003
2003
2003
2001
2001
2001
1998
1998
1998
2004
2004
2004
1997
1997
1997
2001
2001
2001
2001
2003
2003
2003
1998
1998
1998
2007
2007
2007
1997
1997
1997
2006
2006
2006
2006
2001
2001
2001
1996
1996
1996
2003
2003
2003
1997
1997
1997
2005
2005
2005
2005
2005
2005
2005
1998
1998
1998
1996
1996
1996
1997
1997
1997
2003
2003
2003
2003
2002
2002
2002
1998
1998
1998
2002
2002
2002
1996
1996
1996
2001
2001
2001
2001
2003
2003
2003
1997
1997
1997
2000
2000
2000
1999
1999
1999
2003
2003
2003
2003
2000
2000
2000
1993
1993
1993
2003
2003
2003
2003
2003
2003
2003
2003
2003
2003
1999
1999
1999
2001
2001
2001
2003
2003
2003
1997
1997
1997
2004
2004
2004
2004
1999
1999
1999
1999
1999
1999
2003
2003
2003
2000
2000
2000
2002
2002
2002
2002
1996
1996
1996
1999
1999
1999
2002
2002
2002
1999
1999
1999
2001
2001
2001
2001
2004
2004
2004
1999
1999
1999
2001
2001
2001
1999
1999
1999
2001
2001
2001
2001
2000
2000
2000
1993
1993
1993
2004
2004
2004
1999
1999
1999
2002
2002
2002
2002
2001
2001
2001
1997
1997
1997
2005
2005
2005
1997
1997
1997
2002
2002
2002
2002
2004
2004
2004
2001
2001
2001
2002
2002
2002
1999
1999
1999
2001
2001
2001
2001
2003
2003
2003
1997
1997
1997
2003
2003
2003
1998
1998
1998
2002
2002
2002
2002
2003
2003
2003
1999
1999
1999
2005
2005
2005
1999
1999
1999
2001
2001
2001
2001
2000
2000
2000
2001
2001
2001
1998
1998
1998
1998
1998
1998
2003
2003
2003
2003
1999
1999
1999
1999
1999
1999
2004
2004
2004
1995
1995
1995
2005
2005
2005
2005
2002
2002
2002
1995
1995
1995
2005
2005
2005
2000
2000
2000
2005
2005
2005
2005
2001
2001
2001
2000
2000
2000
2003
2003
2003
2000
2000
2000
2003
2003
2003
2003
1999
1999
1999
1998
1998
1998
2003
2003
2003
1999
1999
1999
2002
2002
2002
2002
2007
2007
2007
1996
1996
1996
2003
2003
2003
1998
1998
1998
2002
2002
2002
2002
2002
2002
2002
1998
1998
1998
2003
2003
2003
1999
1999
1999
2006
2006
2006
2006
2002
2002
2002
2002
2002
2002
2001
2001
2001
1999
1999
1999
2003
2003
2003
2003
2002
2002
2002
1998
1998
1998
2004
2004
2004
1997
1997
1997
2004
2004
2004
2004
2002
2002
2002
2000
2000
2000
2000
2000
2000
1999
1999
1999
2001
2001
2001
2001
2002
2002
2002
1996
1996
1996
2001
2001
2001
1998
1998
1998
2007
2007
2007
2007
1999
1999
1999
1998
1998
1998
2004
2004
2004
1996
1996
1996
2002
2002
2002
2002
1999
1999
1999
2001
2001
2001
2001
2001
2001
1997
1997
1997
2002
2002
2002
2002
2000
2000
2000
1999
1999
1999
2002
2002
2002
1999
1999
1999
2002
2002
2002
2002
2000
2000
2000
2000
2000
2000
2002
2002
2002
1996
1996
1996
2000
2000
2000
2000
2005
2005
2005
2000
2000
2000
2001
2001
2001
1998
1998
1998
2003
2003
2003
2003
2000
2000
2000
1997
1997
1997
2002
2002
2002
1996
1996
1996
2003
2003
2003
2003
2001
2001
2001
1997
1997
1997
2002
2002
2002
2000
2000
2000
2004
2004
2004
2004
2003
2003
2003
2000
2000
2000
2002
2002
2002
2000
2000
2000
2001
2001
2001
2001
2004
2004
2004
1996
1996
1996
2003
2003
2003
1999
1999
1999
2002
2002
2002
2002
2002
2002
2002
1997
1997
1997
2003
2003
2003
1997
1997
1997
2005
2005
2005
2005
2002
2002
2002
1994
1994
1994
2001
2001
2001
1998
1998
1998
1998
1998
1998
1998
2001
2001
2001
1998
1998
1998
2005
2005
2005
1998
1998
1998
2005
2005
2005
2005
2002
2002
2002
2000
2000
2000
1993
1993
1993
1995
1995
1995
2004
2004
2004
2004
2001
2001
2001
1999
1999
1999
2003
2003
2003
1999
1999
1999
2002
2002
2002
2002
2006
2006
2006
2001
2001
2001
2001
2001
2001
1999
1999
1999
2002
2002
2002
2002
2001
2001
2001
1999
1999
1999
1998
1998
1998
2000
2000
2000
2006
2006
2006
2006
2001
2001
2001
1996
1996
1996
2002
2002
2002
2000
2000
2000
2001
2001
2001
2001
2003
2003
2003
2000
2000
2000
2002
2002
2002
1996
1996
1996
2003
2003
2003
2003
2006
2006
2006
1999
1999
1999
2003
2003
2003
1998
1998
1998
2005
2005
2005
2005
2002
2002
2002
1998
1998
1998
2006
2006
2006
1996
1996
1996
2003
2003
2003
2003
2000
2000
2000
1997
1997
1997
2001
2001
2001
1995
1995
1995
2005
2005
2005
2005
2000
2000
2000
1998
1998
1998
2004
2004
2004
1998
1998
1998
2001
2001
2001
2001
2002
2002
2002
1996
1996
1996
2001
2001
2001
1998
1998
1998
2004
2004
2004
2004
1999
1999
1999
1996
1996
1996
2000
2000
2000
1997
1997
1997
2004
2004
2004
2004
1999
1999
1999
2000
2000
2000
2002
2002
2002
1998
1998
1998
2006
2006
2006
2006
2003
2003
2003
1998
1998
1998
2002
2002
2002
1998
1998
1998
2000
2000
2000
2000
2002
2002
2002
1996
1996
1996
1998
1998
1998
1998
1998
1998
2003
2003
2003
2003
2004
2004
2004
2000
2000
2000
2002
2002
2002
1998
1998
1998
2001
2001
2001
2001
2002
2002
2002
1997
1997
1997
2004
2004
2004
1995
1995
1995
2007
2007
2007
2007
2003
2003
2003
1998
1998
1998
2004
2004
2004
2002
2002
2002
2005
2005
2005
2005
2006
2006
2006
2001
2001
2001
2003
2003
2003
2001
2001
2001
2002
2002
2002
2002
2001
2001
2001
1998
1998
1998
2003
2003
2003
2001
2001
2001
2005
2005
2005
2005
2002
2002
2002
1997
1997
1997
2003
2003
2003
1998
1998
1998
2003
2003
2003
2003
2001
2001
2001
1998
1998
1998
2002
2002
2002
1999
1999
1999
2006
2006
2006
2006
2001
2001
2001
2000
2000
2000
2001
2001
2001
1999
1999
1999
1996
1996
1996
1996
2002
2002
2002
1997
1997
1997
2001
2001
2001
1996
1996
1996
2003
2003
2003
2003
2000
2000
2000
1996
1996
1996
2001
2001
2001
1997
1997
1997
2001
2001
2001
2001
2002
2002
2002
1998
1998
1998
2006
2006
2006
1997
1997
1997
2004
2004
2004
2004
2002
2002
2002
2000
2000
2000
2003
2003
2003
1998
1998
1998
2006
2006
2006
2006
2004
2004
2004
2000
2000
2000
2004
2004
2004
1998
1998
1998
2003
2003
2003
2003
2003
2003
2003
1999
1999
1999
2003
2003
2003
1999
1999
1999
2007
2007
2007
2007
2003
2003
2003
1998
1998
1998
2001
2001
2001
2003
2003
2003
2001
2001
2001
2001
1999
1999
1999
2000
2000
2000
2002
2002
2002
1997
1997
1997
2003
2003
2003
2003
2001
2001
2001
1997
1997
1997
2003
2003
2003
1996
1996
1996
2002
2002
2002
2002
2005
2005
2005
1998
1998
1998
2003
2003
2003
1999
1999
1999
2003
2003
2003
2003
2000
2000
2000
1999
1999
1999
2000
2000
2000
2000
2000
2000
2003
2003
2003
2003
2000
2000
2000
2000
2000
2000
2003
2003
2003
1998
1998
1998
2005
2005
2005
2005
2002
2002
2002
1999
1999
1999
2002
2002
2002
2001
2001
2001
1998
1998
1998
1998
2007
2007
2007
1997
1997
1997
2004
2004
2004
1998
1998
1998
2003
2003
2003
2003
2002
2002
2002
1997
1997
1997
2002
2002
2002
1998
1998
1998
2005
2005
2005
2005
2001
2001
2001
1997
1997
1997
2007
2007
2007
1996
1996
1996
2002
2002
2002
2002
2002
2002
2002
1997
1997
1997
2005
2005
2005
1999
1999
1999
1997
1997
1997
1997
2001
2001
2001
1996
1996
1996
2002
2002
2002
1997
1997
1997
2004
2004
2004
2004
2002
2002
2002
1997
1997
1997
2003
2003
2003
1998
1998
1998
2003
2003
2003
2003
2005
2005
2005
1997
1997
1997
2004
2004
2004
1991
1991
1991
2004
2004
2004
2004
2005
2005
2005
1997
1997
1997
2004
2004
2004
1992
1992
1992
2004
2004
2004
2004
1999
1999
1999
1998
1998
1998
2003
2003
2003
1998
1998
1998
2003
2003
2003
2003
2002
2002
2002
1998
1998
1998
2003
2003
2003
1997
1997
1997
2001
2001
2001
2001
2002
2002
2002
1998
1998
1998
2002
2002
2002
1999
1999
1999
2001
2001
2001
2001
2003
2003
2003
1995
1995
1995
2003
2003
2003
1999
1999
1999
2002
2002
2002
2002
2002
2002
2002
2002
2002
2002
2003
2003
2003
1999
1999
1999
2003
2003
2003
2003
2005
2005
2005
1998
1998
1998
2004
2004
2004
1997
1997
1997
2003
2003
2003
2003
2002
2002
2002
1998
1998
1998
2000
2000
2000
1996
1996
1996
2003
2003
2003
2003
2002
2002
2002
1995
1995
1995
2009
2009
2009
1998
1998
1998
2002
2002
2002
2002
2000
2000
2000
1999
1999
1999
2000
2000
2000
1999
1999
1999
2001
2001
2001
2001
2000
2000
2000
1999
1999
1999
2003
2003
2003
1998
1998
1998
2001
2001
2001
2001
2002
2002
2002
1995
1995
1995
2005
2005
2005
1997
1997
1997
2003
2003
2003
2003
2009
2009
2009
1998
1998
1998
2004
2004
2004
2003
2003
2003
2002
2002
2002
2002
2005
2005
2005
1999
1999
1999
2000
2000
2000
1999
1999
1999
2004
2004
2004
2004
2000
2000
2000
1999
1999
1999
2001
2001
2001
2002
2002
2002
2004
2004
2004
2004
2001
2001
2001
1997
1997
1997
2002
2002
2002
1999
1999
1999
2005
2005
2005
2005
2002
2002
2002
1998
1998
1998
2002
2002
2002
1997
1997
1997
1998
1998
1998
1998
2002
2002
2002
1994
1994
1994
2004
2004
2004
2000
2000
2000
2002
2002
2002
2002
2003
2003
2003
1998
1998
1998
2001
2001
2001
1999
1999
1999
2000
2000
2000
2000
2002
2002
2002
1999
1999
1999
2001
2001
2001
2001
2001
2001
2006
2006
2006
2006
2000
2000
2000
1998
1998
1998
2001
2001
2001
1997
1997
1997
2002
2002
2002
2002
2003
2003
2003
1998
1998
1998
2010
2010
2010
1997
1997
1997
2003
2003
2003
2003
2002
2002
2002
1998
1998
1998
2005
2005
2005
1995
1995
1995
2005
2005
2005
2005
2000
2000
2000
1996
1996
1996
2003
2003
2003
1996
1996
1996
2004
2004
2004
2004
2005
2005
2005
1998
1998
1998
2003
2003
2003
1997
1997
1997
1987
1987
1987
1987
2003
2003
2003
1997
1997
1997
2001
2001
2001
2001
2001
2001
2002
2002
2002
2002
2000
2000
2000
2001
2001
2001
2003
2003
2003
1998
1998
1998
2004
2004
2004
2004
2005
2005
2005
1995
1995
1995
2002
2002
2002
1998
1998
1998
2009
2009
2009
2009
2000
2000
2000
1994
1994
1994
2002
2002
2002
1999
1999
1999
2006
2006
2006
2006
2004
2004
2004
1996
1996
1996
2006
2006
2006
1999
1999
1999
2001
2001
2001
2001
2003
2003
2003
1999
1999
1999
2001
2001
2001
1997
1997
1997
2004
2004
2004
2004
2003
2003
2003
1997
1997
1997
2005
2005
2005
1998
1998
1998
2003
2003
2003
2003
2004
2004
2004
1999
1999
1999
2002
2002
2002
1997
1997
1997
2003
2003
2003
2003
2004
2004
2004
1998
1998
1998
2002
2002
2002
1996
1996
1996
2003
2003
2003
2003
2001
2001
2001
2000
2000
2000
2003
2003
2003
2002
2002
2002
2004
2004
2004
2004
1995
1995
1995
1998
1998
1998
2003
2003
2003
1999
1999
1999
2002
2002
2002
2002
2003
2003
2003
1999
1999
1999
2004
2004
2004
1997
1997
1997
2000
2000
2000
2000
2000
2000
2000
2000
2000
2000
2002
2002
2002
1999
1999
1999
2002
2002
2002
2002
2000
2000
2000
2000
2000
2000
2003
2003
2003
1997
1997
1997
2003
2003
2003
2003
2002
2002
2002
1997
1997
1997
2002
2002
2002
1998
1998
1998
2004
2004
2004
2004
2001
2001
2001
1996
1996
1996
2002
2002
2002
1996
1996
1996
2003
2003
2003
2003
2003
2003
2003
1995
1995
1995
2001
2001
2001
1999
1999
1999
2002
2002
2002
2002
2001
2001
2001
1998
1998
1998
2000
2000
2000
2000
2000
2000
2003
2003
2003
2003
2002
2002
2002
1998
1998
1998
2003
2003
2003
1998
1998
1998
2002
2002
2002
2002
2003
2003
2003
1999
1999
1999
2004
2004
2004
1996
1996
1996
2003
2003
2003
2003
1996
1996
1996
1999
1999
1999
2004
2004
2004
1996
1996
1996
2004
2004
2004
2004
2003
2003
2003
1998
1998
1998
2003
2003
2003
1989
1989
1989
2001
2001
2001
2001
2003
2003
2003
1998
1998
1998
2000
2000
2000
1999
1999
1999
2002
2002
2002
2002
2001
2001
2001
1999
1999
1999
1999
1999
1999
2000
2000
2000
2005
2005
2005
2005
2001
2001
2001
1999
1999
1999
2006
2006
2006
1998
1998
1998
2001
2001
2001
2001
2001
2001
2001
1995
1995
1995
2005
2005
2005
1999
1999
1999
2003
2003
2003
2003
2004
2004
2004
1999
1999
1999
2001
2001
2001
1999
1999
1999
2004
2004
2004
2004
2000
2000
2000
1997
1997
1997
2002
2002
2002
2000
2000
2000
2002
2002
2002
2002
2002
2002
2002
2002
2002
2002
2001
2001
2001
1998
1998
1998
2002
2002
2002
2002
2003
2003
2003
1996
1996
1996
2005
2005
2005
1999
1999
1999
2003
2003
2003
2003
2002
2002
2002
1998
1998
1998
2007
2007
2007
1996
1996
1996
2005
2005
2005
2005
2006
2006
2006
1996
1996
1996
2005
2005
2005
2000
2000
2000
2002
2002
2002
2002
2000
2000
2000
1998
1998
1998
2002
2002
2002
1998
1998
1998
2003
2003
2003
2003
2001
2001
2001
2000
2000
2000
2002
2002
2002
1998
1998
1998
2003
2003
2003
2003
2002
2002
2002
2003
2003
2003
2000
2000
2000
1998
1998
1998
2003
2003
2003
2003
2006
2006
2006
1998
1998
1998
2005
2005
2005
1998
1998
1998
2002
2002
2002
2002
2003
2003
2003
2000
2000
2000
2001
2001
2001
1997
1997
1997
2005
2005
2005
2005
2000
2000
2000
1998
1998
1998
2004
2004
2004
1997
1997
1997
2002
2002
2002
2002
2003
2003
2003
1999
1999
1999
2007
2007
2007
1996
1996
1996
2000
2000
2000
2000
2003
2003
2003
1998
1998
1998
2002
2002
2002
1997
1997
1997
2002
2002
2002
2002
2003
2003
2003
1999
1999
1999
2005
2005
2005
1997
1997
1997
2001
2001
2001
2001
2005
2005
2005
1996
1996
1996
2002
2002
2002
1999
1999
1999
2002
2002
2002
2002
2002
2002
2002
1998
1998
1998
2002
2002
2002
1994
1994
1994
2004
2004
2004
2004
2006
2006
2006
2000
2000
2000
2001
2001
2001
1996
1996
1996
2004
2004
2004
2004
2006
2006
2006
1997
1997
1997
2002
2002
2002
1997
1997
1997
2001
2001
2001
2001
2002
2002
2002
1998
1998
1998
2002
2002
2002
1997
1997
1997
2003
2003
2003
2003
2002
2002
2002
1999
1999
1999
2001
2001
2001
1998
1998
1998
2004
2004
2004
2004
2002
2002
2002
1995
1995
1995
2001
2001
2001
1997
1997
1997
2002
2002
2002
2002
2002
2002
2002
1997
1997
1997
2007
2007
2007
1997
1997
1997
2005
2005
2005
2005
2004
2004
2004
1998
1998
1998
2006
2006
2006
1999
1999
1999
2004
2004
2004
2004
2004
2004
2004
1998
1998
1998
2001
2001
2001
1999
1999
1999
2004
2004
2004
2004
2004
2004
2004
1999
1999
1999
2003
2003
2003
2000
2000
2000
2003
2003
2003
2003
2002
2002
2002
1998
1998
1998
1999
1999
1999
1997
1997
1997
2003
2003
2003
2003
2004
2004
2004
1999
1999
1999
2003
2003
2003
1998
1998
1998
2004
2004
2004
2004
2005
2005
2005
1996
1996
1996
2004
2004
2004
1999
1999
1999
2000
2000
2000
2000
2003
2003
2003
1997
1997
1997
2002
2002
2002
1998
1998
1998
2002
2002
2002
2002
2003
2003
2003
1999
1999
1999
2004
2004
2004
1999
1999
1999
2003
2003
2003
2003
1999
1999
1999
1999
1999
1999
2002
2002
2002
2000
2000
2000
2001
2001
2001
2001
2001
2001
2001
2000
2000
2000
2002
2002
2002
1999
1999
1999
2002
2002
2002
2002
2004
2004
2004
1998
1998
1998
1998
1998
1998
1998
1998
1998
2003
2003
2003
2003
2001
2001
2001
1998
1998
1998
2007
2007
2007
1997
1997
1997
2001
2001
2001
2001
2004
2004
2004
1996
1996
1996
2005
2005
2005
1997
1997
1997
2003
2003
2003
2003
2004
2004
2004
1997
1997
1997
2003
2003
2003
2002
2002
2002
2003
2003
2003
2003
1999
1999
1999
1997
1997
1997
2001
2001
2001
1995
1995
1995
2002
2002
2002
2002
2003
2003
2003
1997
1997
1997
2003
2003
2003
2000
2000
2000
2002
2002
2002
2002
2001
2001
2001
1996
1996
1996
2001
2001
2001
1999
1999
1999
1998
1998
1998
1998
2002
2002
2002
1997
1997
1997
2002
2002
2002
2000
2000
2000
2006
2006
2006
2006
2002
2002
2002
1998
1998
1998
2004
2004
2004
1998
1998
1998
2002
2002
2002
2002
2001
2001
2001
1998
1998
1998
2003
2003
2003
1999
1999
1999
2003
2003
2003
2003
2001
2001
2001
2000
2000
2000
2002
2002
2002
1999
1999
1999
2002
2002
2002
2002
2001
2001
2001
2000
2000
2000
2002
2002
2002
2000
2000
2000
2003
2003
2003
2003
2003
2003
2003
1998
1998
1998
2005
2005
2005
1999
1999
1999
2003
2003
2003
2003
2002
2002
2002
1998
1998
1998
2001
2001
2001
1999
1999
1999
2003
2003
2003
2003
2001
2001
2001
2000
2000
2000
2003
2003
2003
1994
1994
1994
2002
2002
2002
2002
1999
1999
1999
2000
2000
2000
2003
2003
2003
1999
1999
1999
2005
2005
2005
2005
2003
2003
2003
2000
2000
2000
2003
2003
2003
1997
1997
1997
2003
2003
2003
2003
2001
2001
2001
1995
1995
1995
2004
2004
2004
1999
1999
1999
1998
1998
1998
1998
2001
2001
2001
2002
2002
2002
2004
2004
2004
1997
1997
1997
2001
2001
2001
2001
2001
2001
2001
1995
1995
1995
2003
2003
2003
1988
1988
1988
2003
2003
2003
2003
2004
2004
2004
1997
1997
1997
2002
2002
2002
1998
1998
1998
2002
2002
2002
2002
2004
2004
2004
1997
1997
1997
2002
2002
2002
1996
1996
1996
2002
2002
2002
2002
2001
2001
2001
1996
1996
1996
2002
2002
2002
1999
1999
1999
2004
2004
2004
2004
2004
2004
2004
1999
1999
1999
2006
2006
2006
1997
1997
1997
2006
2006
2006
2006
2001
2001
2001
1996
1996
1996
2003
2003
2003
1999
1999
1999
2002
2002
2002
2002
1999
1999
1999
1999
1999
1999
2001
2001
2001
1992
1992
1992
2002
2002
2002
2002
2005
2005
2005
1998
1998
1998
2003
2003
2003
1997
1997
1997
2000
2000
2000
2000
2001
2001
2001
1997
1997
1997
1999
1999
1999
1998
1998
1998
2001
2001
2001
2001
2002
2002
2002
1999
1999
1999
2003
2003
2003
1996
1996
1996
2005
2005
2005
2005
2001
2001
2001
1998
1998
1998
2006
2006
2006
1997
1997
1997
2004
2004
2004
2004
2000
2000
2000
1997
1997
1997
2001
2001
2001
1999
1999
1999
2003
2003
2003
2003
2004
2004
2004
2001
2001
2001
2002
2002
2002
1998
1998
1998
2004
2004
2004
2004
2001
2001
2001
2000
2000
2000
2001
2001
2001
2000
2000
2000
2005
2005
2005
2005
2004
2004
2004
1998
1998
1998
2005
2005
2005
1998
1998
1998
2005
2005
2005
2005
2005
2005
2005
1997
1997
1997
2008
2008
2008
1997
1997
1997
2004
2004
2004
2004
2002
2002
2002
1998
1998
1998
2003
2003
2003
1996
1996
1996
2001
2001
2001
2001
2005
2005
2005
1998
1998
1998
2002
2002
2002
2001
2001
2001
2005
2005
2005
2005
2002
2002
2002
1999
1999
1999
1999
1999
1999
1997
1997
1997
2005
2005
2005
2005
2003
2003
2003
1997
1997
1997
2003
2003
2003
1998
1998
1998
2002
2002
2002
2002
2002
2002
2002
1996
1996
1996
2001
2001
2001
1998
1998
1998
2004
2004
2004
2004
1999
1999
1999
1994
1994
1994
2003
2003
2003
1998
1998
1998
2001
2001
2001
2001
2001
2001
2001
1997
1997
1997
2003
2003
2003
1997
1997
1997
2002
2002
2002
2002
2005
2005
2005
1997
1997
1997
2002
2002
2002
1999
1999
1999
2002
2002
2002
2002
2005
2005
2005
1998
1998
1998
2004
2004
2004
1999
1999
1999
2003
2003
2003
2003
2001
2001
2001
2000
2000
2000
2004
2004
2004
1998
1998
1998
2001
2001
2001
2001
2002
2002
2002
1998
1998
1998
2008
2008
2008
2001
2001
2001
2004
2004
2004
2004
2002
2002
2002
2000
2000
2000
2003
2003
2003
1997
1997
1997
2003
2003
2003
2003
2009
2009
2009
1998
1998
1998
2002
2002
2002
1998
1998
1998
2002
2002
2002
2002
2002
2002
2002
1996
1996
1996
2001
2001
2001
1997
1997
1997
2006
2006
2006
2006
2003
2003
2003
1999
1999
1999
2004
2004
2004
1998
1998
1998
2004
2004
2004
2004
2001
2001
2001
1999
1999
1999
2003
2003
2003
2002
2002
2002
1999
1999
1999
1999
2002
2002
2002
1991
1991
1991
2009
2009
2009
1998
1998
1998
1999
1999
1999
1999
2003
2003
2003
1996
1996
1996
2003
2003
2003
1996
1996
1996
2004
2004
2004
2004
2001
2001
2001
1999
1999
1999
2001
2001
2001
1998
1998
1998
2002
2002
2002
2002
2003
2003
2003
1997
1997
1997
2005
2005
2005
1999
1999
1999
2003
2003
2003
2003
2001
2001
2001
1997
1997
1997
2002
2002
2002
2000
2000
2000
2001
2001
2001
2001
1999
1999
1999
2000
2000
2000
2004
2004
2004
1992
1992
1992
2000
2000
2000
2000
1996
1996
1996
2000
2000
2000
2000
2000
2000
1994
1994
1994
2005
2005
2005
2005
1999
1999
1999
1999
1999
1999
2004
2004
2004
1997
1997
1997
2003
2003
2003
2003
2000
2000
2000
2000
2000
2000
2001
2001
2001
1998
1998
1998
2004
2004
2004
2004
