2214
2214
2214
2214
2213
2213
2213
2217
2217
2217
2211
2211
2211
2214
2214
2214
2214
2216
2216
2216
2210
2210
2210
2215
2215
2215
2213
2213
2213
2218
2218
2218
2218
2216
2216
2216
2209
2209
2209
2211
2211
2211
2211
2211
2211
2217
2217
2217
2217
2214
2214
2214
2212
2212
2212
2217
2217
2217
2213
2213
2213
2208
2208
2208
2208
2216
2216
2216
2208
2208
2208
2213
2213
2213
2211
2211
2211
2218
2218
2218
2218
2216
2216
2216
2215
2215
2215
2219
2219
2219
2215
2215
2215
2212
2212
2212
2217
2217
2217
2217
2215
2215
2215
2210
2210
2210
2214
2214
2214
2212
2212
2212
2215
2215
2215
2215
2216
2216
2216
2216
2216
2216
2214
2214
2214
2210
2210
2210
2215
2215
2215
2215
2214
2214
2214
2211
2211
2211
2217
2217
2217
2213
2213
2213
2214
2214
2214
2214
2215
2215
2215
2214
2214
2214
2216
2216
2216
2211
2211
2211
2215
2215
2215
2215
2213
2213
2213
2211
2211
2211
2216
2216
2216
2213
2213
2213
2212
2212
2212
2212
2218
2218
2218
2215
2215
2215
2210
2210
2210
2206
2206
2206
2215
2215
2215
2215
2212
2212
2212
2214
2214
2214
2218
2218
2218
2213
2213
2213
2215
2215
2215
2215
2213
2213
2213
2207
2207
2207
2215
2215
2215
2212
2212
2212
2217
2217
2217
2217
2217
2217
2217
2204
2204
2204
2214
2214
2214
2215
2215
2215
2215
2215
2215
2215
2213
2213
2213
2208
2208
2208
2217
2217
2217
2211
2211
2211
2215
2215
2215
2215
2215
2215
2215
2212
2212
2212
2214
2214
2214
2212
2212
2212
2213
2213
2213
2213
2215
2215
2215
2210
2210
2210
2215
2215
2215
2209
2209
2209
2217
2217
2217
2217
2213
2213
2213
2209
2209
2209
2211
2211
2211
2213
2213
2213
2217
2217
2217
2217
2214
2214
2214
2212
2212
2212
2214
2214
2214
2212
2212
2212
2211
2211
2211
2211
2217
2217
2217
2212
2212
2212
2216
2216
2216
2215
2215
2215
2219
2219
2219
2219
2215
2215
2215
2211
2211
2211
2221
2221
2221
2214
2214
2214
2218
2218
2218
2218
2215
2215
2215
2212
2212
2212
2214
2214
2214
2212
2212
2212
2218
2218
2218
2218
2213
2213
2213
2212
2212
2212
2217
2217
2217
2211
2211
2211
2213
2213
2213
2213
2214
2214
2214
2209
2209
2209
2217
2217
2217
2210
2210
2210
2215
2215
2215
2215
2214
2214
2214
2212
2212
2212
2218
2218
2218
2211
2211
2211
2216
2216
2216
2216
2216
2216
2216
2212
2212
2212
2218
2218
2218
2208
2208
2208
2211
2211
2211
2211
2215
2215
2215
2211
2211
2211
2214
2214
2214
2214
2214
2214
2218
2218
2218
2218
2214
2214
2214
2212
2212
2212
2215
2215
2215
2212
2212
2212
2215
2215
2215
2215
2215
2215
2215
2213
2213
2213
2215
2215
2215
2213
2213
2213
2212
2212
2212
2212
2215
2215
2215
2210
2210
2210
2217
2217
2217
2214
2214
2214
2216
2216
2216
2216
2214
2214
2214
2211
2211
2211
2219
2219
2219
2211
2211
2211
2217
2217
2217
2217
2216
2216
2216
2213
2213
2213
2217
2217
2217
2212
2212
2212
2216
2216
2216
2216
2216
2216
2216
2213
2213
2213
2218
2218
2218
2214
2214
2214
2213
2213
2213
2213
2214
2214
2214
2215
2215
2215
2213
2213
2213
2212
2212
2212
2215
2215
2215
2215
2215
2215
2215
2212
2212
2212
2220
2220
2220
2210
2210
2210
2216
2216
2216
2216
2215
2215
2215
2211
2211
2211
2217
2217
2217
2209
2209
2209
2216
2216
2216
2216
2220
2220
2220
2216
2216
2216
2218
2218
2218
2212
2212
2212
2216
2216
2216
2216
2219
2219
2219
2210
2210
2210
2216
2216
2216
2213
2213
2213
2213
2213
2213
2213
2212
2212
2212
2213
2213
2213
2214
2214
2214
2209
2209
2209
2213
2213
2213
2213
2213
2213
2213
2211
2211
2211
2216
2216
2216
2212
2212
2212
2217
2217
2217
2217
2224
2224
2224
2213
2213
2213
2216
2216
2216
2213
2213
2213
2217
2217
2217
2217
2216
2216
2216
2211
2211
2211
2216
2216
2216
2213
2213
2213
2217
2217
2217
2217
2219
2219
2219
2207
2207
2207
2214
2214
2214
2212
2212
2212
2217
2217
2217
2217
2213
2213
2213
2212
2212
2212
2216
2216
2216
2210
2210
2210
2216
2216
2216
2216
2220
2220
2220
2211
2211
2211
2214
2214
2214
2212
2212
2212
2214
2214
2214
2214
2212
2212
2212
2212
2212
2212
2216
2216
2216
2212
2212
2212
2217
2217
2217
2217
2212
2212
2212
2212
2212
2212
2216
2216
2216
2211
2211
2211
2213
2213
2213
2213
2215
2215
2215
2210
2210
2210
2214
2214
2214
2212
2212
2212
2219
2219
2219
2219
2217
2217
2217
2209
2209
2209
2216
2216
2216
2211
2211
2211
2217
2217
2217
2217
2216
2216
2216
2212
2212
2212
2216
2216
2216
2211
2211
2211
2215
2215
2215
2215
2214
2214
2214
2211
2211
2211
2216
2216
2216
2211
2211
2211
2214
2214
2214
2214
2215
2215
2215
2208
2208
2208
2217
2217
2217
2209
2209
2209
2216
2216
2216
2216
2215
2215
2215
2212
2212
2212
2216
2216
2216
2212
2212
2212
2217
2217
2217
2217
2216
2216
2216
2211
2211
2211
2217
2217
2217
2212
2212
2212
2219
2219
2219
2219
2209
2209
2209
2211
2211
2211
2216
2216
2216
2205
2205
2205
2215
2215
2215
2215
2214
2214
2214
2212
2212
2212
2214
2214
2214
2209
2209
2209
2214
2214
2214
2214
2215
2215
2215
2211
2211
2211
2218
2218
2218
2209
2209
2209
2211
2211
2211
2211
2217
2217
2217
2215
2215
2215
2216
2216
2216
2212
2212
2212
2216
2216
2216
2216
2216
2216
2216
2212
2212
2212
2216
2216
2216
2213
2213
2213
2213
2213
2213
2213
2214
2214
2214
2211
2211
2211
2217
2217
2217
2210
2210
2210
2216
2216
2216
2216
2209
2209
2209
2207
2207
2207
2212
2212
2212
2212
2212
2212
2217
2217
2217
2217
2215
2215
2215
2211
