2063
2066
2066
2066
2066
2066
2066
2071
2071
2071
2071
2067
2067
2067
2064
2064
2064
2067
2067
2067
2061
2061
2061
2071
2071
2071
2071
2065
2065
2065
2062
2062
2062
2064
2064
2064
2068
2068
2068
2065
2065
2065
2065
2065
2065
2065
2063
2063
2063
2067
2067
2067
2060
2060
2060
2077
2077
2077
2077
2067
2067
2067
2069
2069
2069
2067
2067
2067
2066
2066
2066
2064
2064
2064
2064
2063
2063
2063
2062
2062
2062
2067
2067
2064
2070
2070
2070
2062
2062
2062
2067
2067
2067
2067
2068
2068
2068
2061
2061
2061
2069
2069
2069
2065
2065
2065
2066
2066
2066
2066
2067
2067
2067
2072
2072
2072
2066
2066
2066
2064
2064
2064
2066
2066
2066
2066
2065
2065
2065
2067
2067
2067
2070
2070
2070
2061
2061
2061
2068
2068
2068
2068
2065
2065
2065
2065
2065
2065
2067
2067
2067
2063
2063
2063
2068
2068
2068
2068
2069
2069
2069
2061
2061
2061
2062
2062
2062
2072
2072
2072
2065
2065
2065
2065
2066
2066
2066
2058
2058
2058
2069
2069
2069
2064
2064
2064
2067
2067
2067
2067
2068
2068
2068
2065
2065
2065
2065
2065
2065
2067
2067
2067
2070
2070
2070
2070
2068
2068
2068
2064
2064
2064
2068
2068
2068
2062
2062
2062
2068
2068
2068
2068
2066
2066
2066
2065
2065
2065
2068
2068
2068
2060
2060
2060
2066
2066
2066
2066
2067
2067
2067
2063
2063
2063
2066
2066
2066
2062
2062
2062
2060
2060
2060
2060
2065
2065
2065
2066
2066
2066
2066
2066
2066
2064
2064
2064
2064
2064
2064
2064
2068
2068
2068
2059
2059
2059
2066
2066
2066
2064
2064
2064
2067
2067
2067
2067
2066
2066
2066
2063
2063
2063
2066
2066
2066
2065
2065
2065
2068
2068
2068
2068
2067
2067
2067
2063
2063
2063
2067
2067
2067
2061
2061
2061
2069
2069
2069
2069
2068
2068
2068
2065
2065
2065
2065
2065
2065
2066
2066
2066
2069
2069
2069
2069
2066
2066
2066
2064
2064
2064
2066
2066
2066
2067
2067
2067
2078
2078
2078
2078
2065
2065
2065
2062
2062
2062
2068
2068
2068
2064
2064
2064
2069
2069
2069
2069
2066
2066
2066
2062
2062
2062
2066
2066
2066
2061
2061
2061
2069
2069
2069
2069
2064
2064
2064
2065
2065
2065
2069
2069
2069
2058
2058
2058
2065
2065
2065
2065
2065
2065
2065
2066
2066
2066
2068
2068
2068
2065
2065
2065
2066
2066
2066
2066
2064
2064
2064
2065
2065
2065
2066
2066
2066
2064
2064
2064
2066
2066
2066
2066
2068
2068
2068
2065
2065
2065
2067
2067
2067
2062
2062
2062
2069
2069
2069
2069
2067
2067
2067
2067
2067
2067
2069
2069
2069
2061
2061
2061
2064
2064
2064
2064
2070
2070
2070
2062
2062
2062
2066
2066
2066
2065
2065
2065
2068
2068
2068
2068
2063
2063
2063
2063
2063
2063
2078
2078
2078
2063
2063
2063
2066
2066
2066
2066
2066
2066
2066
2065
2065
2065
2068
2068
2068
2058
2058
2058
2063
2063
2063
2063
2064
2064
2064
2064
2064
2064
2069
2069
2069
2059
2059
2059
2069
2069
2069
2069
2068
2068
2068
2063
2063
2063
2069
2069
2069
2064
2064
2064
2068
2068
2068
2068
2066
2066
2066
2065
2065
2065
2064
2064
2064
2064
2064
2064
2073
2073
2073
2073
2062
2062
2062
2064
2064
2064
2070
2070
2070
2061
2061
2061
2067
2067
2067
2067
2068
2068
2068
2061
2061
2061
2068
2068
2068
2063
2063
2063
2066
2066
2066
2066
2067
2067
2067
2060
2060
2060
2072
2072
2072
2063
2063
2063
2066
2066
2066
2066
2068
2068
2068
2063
2063
2063
2067
2067
2067
2063
2063
2063
2061
2061
2061
2061
2066
2066
2066
2065
2065
2065
2063
2063
2063
2065
2065
2065
2070
2070
2070
2070
2066
2066
2066
2065
2065
2065
2066
2066
2066
2065
2065
2065
2068
2068
2068
2068
2064
2064
2064
2065
2065
2065
2067
2067
2067
2066
2066
2066
2069
2069
2069
2069
2064
2064
2064
2076
2076
2076
2065
2065
2065
2064
2064
2064
2068
2068
2068
2068
2067
2067
2067
2064
2064
2064
2065
2065
2065
2066
2066
2066
2066
2066
2066
2066
2066
2066
2066
2065
2065
2065
2069
2069
2069
2066
2066
2066
2070
2070
2070
2070
2067
2067
2067
2062
2062
2062
2067
2067
2067
2065
2065
2065
2069
2069
2069
2069
2067
2067
2067
2067
2067
2067
2068
2068
2068
2066
2066
2066
2070
2070
2070
2070
2064
2064
2064
2065
2065
2065
2068
2068
2068
2061
2061
2061
2064
2064
2064
2064
2071
2071
2071
2062
2062
2062
2068
2068
2068
2065
2065
2065
2065
2065
2065
2065
2071
2071
2071
2061
2061
2061
2064
2064
2064
2063
2063
2063
2069
2069
2069
2069
2066
2066
2066
2063
2063
2063
2067
2067
2067
2068
2068
2068
2062
2062
2062
2062
2067
2067
2067
2069
2069
2069
2064
2064
2064
2064
2064
2064
2067
2067
2067
2067
2066
2066
2066
2064
2064
2064
2069
2069
2069
2064
2064
2064
2068
2068
2068
2068
2067
2067
2067
2064
2064
2064
2065
2065
2065
2069
2069
2069
2072
2072
2072
2072
2072
2072
2072
2062
2062
2062
2067
2067
2067
2064
2064
2064
2067
2067
2067
2067
2067
2067
2067
2063
2063
2063
2069
2069
2069
2068
2068
2068
2071
2071
2071
2071
2063
2063
2063
2063
2063
2063
2069
2069
2069
2061
2061
2061
2065
2065
2065
2065
2067
2067
2067
2064
2064
2064
2067
2067
2067
2065
2065
2065
2070
2070
2070
2070
2066
2066
2066
2063
2063
2063
2070
2070
2070
2063
2063
2063
2067
2067
2067
2067
2067
2067
2067
2061
2061
2061
2066
2066
2066
2069
2069
2069
2067
2067
2067
2067
2070
2070
2070
2067
2067
2067
2065
2065
2065
2065
2065
2065
2066
2066
2066
2066
2067
2067
2067
2069
2069
2069
2065
2065
2065
2064
2064
2064
2065
2065
2065
2065
2070
2070
2070
2066
2066
2066
2067
2067
2067
2058
