2053
2048
2048
2048
2050
2050
2050
2050
2051
2051
2051
2047
2047
2047
2052
2052
2052
2046
2046
2046
2053
2053
2053
2053
2040
2040
2040
2046
2046
2046
2050
2050
2050
2048
2048
2048
2046
2046
2046
2046
2052
2052
2052
2047
2047
2047
2051
2051
2051
2046
2046
2046
2051
2051
2051
2051
2051
2051
2051
2046
2046
2046
2051
2051
2051
2052
2052
2052
2052
2052
2052
2052
2051
2051
2051
2047
2047
2047
2052
2052
2052
2049
2049
2051
2047
2047
2047
2049
2049
2049
2049
2055
2055
2055
2042
2042
2042
2048
2048
2048
2047
2047
2047
2052
2052
2052
2052
2051
2051
2051
2046
2046
2046
2051
2051
2051
2048
2048
2048
2052
2052
2052
2052
2051
2051
2051
2048
2048
2048
2050
2050
2050
2048
2048
2048
2048
2048
2048
2048
2053
2053
2053
2050
2050
2050
2050
2050
2050
2047
2047
2047
2051
2051
2051
2051
2049
2049
2049
2047
2047
2047
2048
2048
2048
2046
2046
2046
2047
2047
2047
2047
2046
2046
2046
2051
2051
2051
2050
2050
2050
2042
2042
2042
2049
2049
2049
2049
2053
2053
2053
2049
2049
2049
2053
2053
2053
2046
2046
2046
2051
2051
2051
2051
2051
2051
2051
2045
2045
2045
2057
2057
2057
2049
2049
2049
2053
2053
2053
2053
2051
2051
2051
2046
2046
2046
2052
2052
2052
2048
2048
2048
2054
2054
2054
2054
2054
2054
2054
2048
2048
2048
2047
2047
2047
2053
2053
2053
2051
2051
2051
2051
2049
2049
2049
2048
2048
2048
2054
2054
2054
2047
2047
2047
2050
2050
2050
2050
2050
2050
2050
2052
2052
2052
2052
2052
2052
2048
2048
2048
2055
2055
2055
2055
2055
2055
2055
2050
2050
2050
2051
2051
2051
2049
2049
2049
2047
2047
2047
2047
2052
2052
2052
2049
2049
2049
2056
2056
2056
2048
2048
2048
2055
2055
2055
2055
2053
2053
2053
2050
2050
2050
2052
2052
2052
2047
2047
2047
2052
2052
2052
2052
2055
2055
2055
2048
2048
2048
2051
2051
2051
2047
2047
2047
2048
2048
2048
2048
2050
2050
2050
2051
2051
2051
2051
2051
2051
2048
2048
2048
2051
2051
2051
2051
2051
2051
2051
2046
2046
2046
2053
2053
2053
2049
2049
2049
2052
2052
2052
2052
2057
2057
2057
2050
2050
2050
2048
2048
2048
2047
2047
2047
2050
2050
2050
2050
2052
2052
2052
2049
2049
2049
2051
2051
2051
2047
2047
2047
2052
2052
2052
2052
2050
2050
2050
2050
2050
2050
2049
2049
2049
2052
2052
2052
2052
2052
2052
2052
2046
2046
2046
2049
2049
2049
2051
2051
2051
2048
2048
2048
2050
2050
2050
2050
2054
2054
2054
2044
2044
2044
2052
2052
2052
2052
2052
2052
2053
2053
2053
2053
2055
2055
2055
2049
2049
2049
2048
2048
2048
2047
2047
2047
2052
2052
2052
2052
2052
2052
2052
2047
2047
2047
2053
2053
2053
2051
2051
2051
2054
2054
2054
2054
2055
2055
2055
2050
2050
2050
2044
2044
2044
2048
2048
2048
2050
2050
2050
2050
2051
2051
2051
2049
2049
2049
2053
2053
2053
2047
2047
2047
2052
2052
2052
2052
2053
2053
2053
2048
2048
2048
2043
2043
2043
2049
2049
2049
2051
2051
2051
2051
2062
2062
2062
2047
2047
2047
2050
2050
2050
2048
2048
2048
2052
2052
2052
2052
2051
2051
2051
2053
2053
2053
2055
2055
2055
2045
2045
2045
2051
2051
2051
2051
2052
2052
2052
2046
2046
2046
2052
2052
2052
2048
2048
2048
2052
2052
2052
2052
2051
2051
2051
2048
2048
2048
2052
2052
2052
2048
2048
2048
2048
2048
2048
2048
2054
2054
2054
2050
2050
2050
2049
2049
2049
2048
2048
2048
2051
2051
2051
2051
2051
2051
2051
2047
2047
2047
2051
2051
2051
2047
2047
2047
2050
2050
2050
2050
2050
2050
2050
2050
2050
2050
2049
2049
2049
2048
2048
2048
2054
2054
2054
2054
2053
2053
2053
2050
2050
2050
2052
2052
2052
2047
2047
2047
2051
2051
2051
2051
2049
2049
2049
2047
2047
2047
2047
2047
2047
2048
2048
2048
2052
2052
2052
2052
2050
2050
2050
2049
2049
2049
2051
2051
2051
2047
2047
2047
2051
2051
2051
2051
2050
2050
2050
2049
2049
2049
2052
2052
2052
2048
2048
2048
2054
2054
2054
2054
2049
2049
2049
2048
2048
2048
2053
2053
2053
2048
2048
2048
2050
2050
2050
2050
2054
2054
2054
2047
2047
2047
2051
2051
2051
2051
2051
2051
2048
2048
2048
2048
2052
2052
2052
2043
2043
2043
2046
2046
2046
2048
2048
2048
2052
2052
2052
2052
2051
2051
2051
2046
2046
2046
2048
2048
2048
2047
2047
2047
2052
2052
2052
2052
2047
2047
2047
2044
2044
2044
2050
2050
2050
2051
2051
2051
2051
2051
2051
2051
2054
2054
2054
2044
2044
2044
2051
2051
2051
2049
2049
2049
2050
2050
2050
2050
2049
2049
2049
2044
2044
2044
2052
2052
2052
2048
2048
2048
2052
2052
2052
2052
2051
2051
2051
2046
2046
2046
2052
2052
2052
2046
2046
2046
2057
2057
2057
2057
2050
2050
2050
2046
2046
2046
2050
2050
2050
2050
2050
2050
2053
2053
2053
2053
2048
2048
2048
2048
2048
2048
2045
2045
2045
2047
2047
2047
2052
2052
2052
2052
2051
2051
2051
2049
2049
2049
2052
2052
2052
2046
2046
2046
2054
2054
2054
2054
2046
2046
2046
2049
2049
2049
2051
2051
2051
2048
2048
2048
2056
2056
2056
2056
2051
2051
2051
2048
2048
2048
2054
2054
2054
2046
2046
2046
2051
2051
2051
2051
2050
2050
2050
2045
2045
2045
2055
2055
2055
2047
2047
2047
2051
2051
2051
2051
2051
2051
2051
2046
2046
2046
2051
2051
2051
2049
2049
2049
2050
2050
2050
2050
2049
2049
2049
2041
2041
2041
2060
2060
2060
2044
2044
2044
2051
2051
2051
2051
2049
2049
2049
2048
2048
2048
2049
2049
2049
2045
2045
2045
2050
2050
2050
2050
2048
2048
2048
2049
2049
2049
2053
2053
2053
2046
2046
2046
2045
