1962
1962
1964
1964
1964
1962
1962
1962
1968
1968
1968
1968
1968
1968
1968
1958
1958
1958
1968
1968
1968
1968
1968
1968
1962
1962
1962
1962
1965
1965
1965
1967
1967
1967
1969
1969
1969
1965
1965
1965
1970
1970
1970
1970
1968
1968
1968
1967
1967
1967
1960
1960
1960
1962
1962
1962
1968
1968
1968
1968
1968
1968
1968
1964
1964
1964
1971
1971
1971
1966
1966
1966
1969
1969
1969
1969
1967
1967
1967
1962
1962
1962
1967
1967
1967
1959
1959
1959
1968
1968
1968
1968
1967
1967
1967
1975
1975
1975
1970
1970
1970
1967
1967
1967
1967
1967
1967
1967
1969
1969
1969
1961
1961
1961
1963
1963
1963
1966
1966
1966
1972
1972
1972
1972
1970
1970
1970
1960
1960
1960
1969
1969
1969
1961
1961
1961
1967
1967
1967
1967
1967
1967
1967
1965
1965
1965
1970
1970
1970
1964
1964
1964
1968
1968
1968
1968
1968
1968
1968
1964
1964
1964
1967
1967
1967
1961
1961
1961
1967
1967
1967
1967
1969
1969
1969
1965
1965
1965
1961
1961
1961
1967
1967
1967
1968
1968
1968
1968
1964
1964
1964
1959
1959
1959
1966
1966
1966
1964
1964
1964
1971
1971
1971
1971
1965
1965
1965
1964
1964
1964
1967
1967
1967
1972
1972
1972
1967
1967
1967
1967
1968
1968
1968
1963
1963
1963
1973
1973
1973
1961
1961
1961
1969
1969
1969
1969
1974
1974
1974
1963
1963
1963
1968
1968
1968
1968
1968
1968
1965
1965
1965
1965
1960
1960
1960
1963
1963
1963
1978
1978
1978
1964
1964
1964
1968
1968
1968
1968
1968
1968
1968
1960
1960
1960
1968
1968
1968
1964
1964
1964
1967
1967
1967
1967
1969
1969
1969
1960
1960
1960
1968
1968
1968
1959
1959
1959
1966
1966
1966
1966
1968
1968
1968
1959
1959
1959
1966
1966
1966
1964
1964
1964
1965
1965
1965
1965
1971
1971
1971
1964
1964
1964
1967
1967
1967
1964
1964
1964
1967
1967
1967
1967
1967
1967
1967
1965
1965
1965
1966
1966
1966
1967
1967
1967
1970
1970
1970
1970
1971
1971
1971
1962
1962
1962
1967
1967
1967
1966
1966
1966
1967
1967
1967
1967
1971
1971
1971
1968
1968
1968
1966
1966
1966
1960
1960
1960
1962
1962
1962
1962
1960
1960
1960
1965
1965
1965
1965
1965
1965
1963
1963
1963
1966
1966
1966
1966
1967
1967
1967
1965
1965
1965
1975
1975
1975
1962
1962
1962
1966
1966
1966
1966
1966
1966
1966
1961
1961
1961
1967
1967
1967
1965
1965
1965
1965
1965
1965
1965
1970
1970
1970
1963
1963
1963
1967
1967
1967
1964
1964
1964
1968
1968
1968
1968
1966
1966
1966
1959
1959
1959
1969
1969
1969
1964
1964
1964
1969
1969
1969
1969
1969
1969
1969
1963
1963
1963
1969
1969
1969
1963
1963
1963
1967
1967
1967
1967
1968
1968
1968
1965
1965
1965
1967
1967
1967
1964
1964
1964
1970
1970
1970
1970
1971
1971
1971
1962
1962
1962
1966
1966
1966
1952
1952
1952
1969
1969
1969
1969
1965
1965
1965
1964
1964
1964
1973
1973
1973
1963
1963
1963
1970
1970
1970
1970
1971
1971
1971
1964
1964
1964
1972
1972
1972
1961
1961
1961
1965
1965
1965
1965
1966
1966
1966
1965
1965
1965
1971
1971
1971
1963
1963
1963
1967
1967
1967
1967
1968
1968
1968
1968
1968
1968
1968
1968
1968
1964
1964
1964
1968
1968
1968
1968
1967
1967
1967
1964
1964
1964
1963
1963
1963
1964
1964
1964
1970
1970
1970
1970
1971
1971
1971
1964
1964
1964
1969
1969
1969
1963
1963
1963
1973
1973
1973
1973
1970
1970
1970
1962
1962
1962
1968
1968
1968
1970
1970
1970
1967
1967
1967
1967
1966
1966
1966
1967
1967
1967
1968
1968
1968
1965
1965
1965
1968
1968
1968
1968
1972
1972
1972
1960
1960
1960
1969
1969
1969
1963
1963
1963
1971
1971
1971
1971
1968
1968
1968
1963
1963
1963
1967
1967
1967
1964
1964
1964
1968
1968
1968
1968
1962
1962
1962
1962
1962
1962
1966
1966
1966
1963
1963
1963
1965
1965
1965
1965
1966
1966
1966
1971
1971
1971
1973
1973
1973
1964
1964
1964
1966
1966
1966
1966
1967
1967
1967
1968
1968
1968
1964
1964
1964
1965
1965
1965
1968
1968
1968
1968
1969
1969
1969
1964
1964
1964
1968
1968
1968
1963
1963
1963
1970
1970
1970
1970
1967
1967
1967
1963
1963
1963
1967
1967
1967
1961
1961
1961
1959
1959
1959
1959
1963
1963
1963
1962
1962
1962
1966
1966
1966
1966
1966
1966
1968
1968
1968
1968
1968
1968
1968
1964
1964
1964
1966
1966
1966
1964
1964
1964
1969
1969
1969
1969
1959
1959
1959
1963
1963
1963
1965
1965
1965
1969
1969
1969
1967
1967
1967
1967
1968
1968
1968
1967
1967
1967
1969
1969
1969
1964
1964
1964
1965
1965
1965
1965
1967
1967
1967
1964
1964
1964
1967
1967
1967
1958
1958
1958
1964
1964
1964
1964
1967
1967
1967
1963
1963
1963
1970
1970
1970
1963
1963
1963
1966
1966
1966
1966
1968
1968
1968
1964
1964
1964
1965
1965
1965
1962
1962
1962
1971
1971
1971
1971
1969
1969
1969
1962
1962
1962
1968
1968
1968
1967
1967
1967
1969
1969
1969
1969
1967
1967
1967
1970
1970
1970
1968
1968
1968
1964
1964
1964
1970
1970
1970
1970
1970
1970
1970
1960
1960
1960
1966
1966
1966
1965
1965
1965
1966
1966
1966
1966
1967
1967
1967
1959
1959
1959
1967
1967
1967
1963
1963
1963
1969
1969
1969
1969
1965
1965
1965
1963
1963
1963
1970
1970
1970
1959
1959
1959
1968
1968
1968
1968
1967
1967
1967
1965
1965
1965
1969
1969
1969
1964
1964
1964
1968
1968
1968
1968
1966
1966
1966
1964
1964
1964
1968
1968
1968
1957
1957
1957
1967
1967
1967
1967
1966
1966
1966
1962
1962
1962
1971
1971
1971
1963
1963
1963
1966
1966
1966
1966
1969
1969
1969
1963
1963
1963
1965
1965
1965
1965
1965
1965
1968
1968
1968
1968
1967
1967
1967
1962
1962
1962
1967
1967
1967
1966
1966
1966
1968
1968
1968
1968
1965
1965
1965
1962
1962
1962
1966
1966
1966
1963
1963
1963
1969
1969
1969
1969
1969
1969
1969
1962
1962
1962
1965
1965
1965
1963
1963
1963
1965
1965
1965
1965
1963
1963
1963
1966
1966
1966
1979
1979
1979
1965
1965
1965
1964
1964
1964
1964
1965
1965
1965
1964
1964
1964
1967
1967
1967
1964
1964
1964
1967
1967
1967
1967
1969
1969
1969
1969
1969
1969
1968
1968
1968
1973
1973
1973
1969
1969
1969
1969
1969
1969
1969
1963
1963
1963
1967
1967
1967
1966
1966
1966
1968
1968
1968
1968
1968
1968
1968
1964
1964
1964
1968
1968
1968
1964
1964
1964
1966
1966
1966
1966
1974
1974
1974
1964
1964
1964
1968
1968
1968
1959
1959
1959
1968
1968
1968
1968
1969
1969
1969
1968
1968
1968
1966
1966
1966
1958
1958
1958
1967
1967
1967
1967
1967
1967
1967
1962
1962
1962
1968
1968
1968
1963
1963
1963
1970
1970
1970
1970
1969
1969
1969
1962
1962
1962
1960
1960
1960
1965
1965
1965
1968
1968
1968
1968
1966
1966
1966
1963
1963
1963
1965
1965
1965
1959
1959
1959
1967
1967
1967
1967
1966
1966
1966
1965
1965
1965
1970
1970
1970
1969
1969
1969
1970
1970
1970
1970
1965
1965
1965
1964
1964
1964
1969
1969
1969
1961
1961
1961
1964
1964
1964
1964
1967
1967
1967
1962
1962
1962
1969
1969
1969
1963
1963
1963
1968
1968
1968
1968
1969
1969
1969
1959
1959
1959
1968
1968
1968
1960
1960
1960
1965
1965
1965
1965
1968
1968
1968
1963
1963
1963
1968
1968
1968
1961
1961
1961
1966
1966
1966
1966
1966
1966
1966
1970
1970
1970
1968
1968
1968
1962
1962
1962
1971
1971
1971
1971
1967
1967
1967
1963
1963
1963
1962
1962
1962
1963
1963
1963
1969
1969
1969
1969
1969
1969
1969
1960
1960
1960
1967
1967
1967
1964
1964
1964
1971
1971
1971
1971
1972
1972
1972
1967
1967
1967
1968
1968
1968
1963
1963
1963
1967
1967
1967
1967
1968
1968
1968
1965
1965
1965
1966
1966
1966
1964
1964
1964
1965
1965
1965
1965
1966
1966
1966
1961
1961
1961
1966
1966
1966
1967
1967
1967
1965
1965
1965
1965
1966
1966
1966
1964
1964
1964
1970
1970
1970
1960
1960
1960
1972
1972
1972
1972
1963
1963
1963
1961
1961
1961
1968
1968
1968
1969
1969
1969
1971
1971
1971
1971
1969
1969
1969
1961
1961
1961
1964
1964
1964
1965
1965
1965
1966
1966
1966
1966
1967
1967
1967
1964
1964
1964
1968
1968
1968
1966
1966
1966
1969
1969
1969
1969
1967
1967
1967
1963
1963
1963
1972
1972
1972
1966
1966
1966
1968
1968
1968
1968
1966
1966
1966
1959
1959
1959
1966
1966
1966
1962
1962
1962
1967
1967
1967
1967
1966
1966
1966
1964
1964
1964
1970
1970
1970
1963
1963
1963
1972
1972
1972
1972
1969
1969
1969
1964
1964
1964
1970
1970
1970
1963
1963
1963
1971
1971
1971
1971
1968
1968
1968
1964
1964
1964
1965
1965
1965
1969
1969
1969
1967
1967
1967
1967
1967
1967
1967
1959
1959
1959
1964
1964
1964
1963
1963
1963
1975
1975
1975
1975
1970
1970
1970
1962
1962
1962
1968
1968
1968
1963
1963
1963
1973
1973
1973
1973
1972
1972
1972
1964
1964
1964
1960
1960
1960
1964
1964
1964
1969
1969
1969
1969
1974
1974
1974
1963
1963
1963
1967
1967
1967
1961
1961
1961
1965
1965
1965
1965
1967
1967
1967
1966
1966
1966
1968
1968
1968
1962
1962
1962
1976
1976
1976
1976
1969
1969
1969
1964
1964
1964
1965
1965
1965
1963
1963
1963
1967
1967
1967
1967
1969
1969
1969
1964
1964
1964
1968
1968
1968
1963
1963
1963
1969
1969
1969
1969
1970
1970
1970
1964
1964
1964
1968
1968
1968
1971
1971
1971
1966
1966
1966
1966
1966
1966
1966
1957
1957
1957
1967
1967
1967
1964
1964
1964
1969
1969
1969
1969
1970
1970
1970
1962
1962
1962
1968
1968
1968
1967
1967
1967
1963
1963
1963
1963
1966
1966
1966
1961
1961
1961
1962
1962
1962
1962
1962
1962
1970
1970
1970
1970
1971
1971
1971
1961
1961
1961
1968
1968
1968
1962
1962
1962
1969
1969
1969
1969
1971
1971
1971
1965
1965
1965
1971
1971
1971
1962
1962
1962
1968
1968
1968
1968
1968
1968
1968
1964
1964
1964
1973
1973
1973
1963
1963
1963
1968
1968
1968
1968
1960
1960
1960
1964
1964
1964
1968
1968
1968
1965
1965
1965
1967
1967
1967
1967
1968
1968
1968
1968
1968
1968
1968
1968
1968
1959
1959
1959
1969
1969
1969
1969
1970
1970
1970
1961
1961
1961
1969
1969
1969
1961
1961
1961
1969
1969
1969
1969
1968
1968
1968
1967
1967
1967
1970
1970
1970
1963
1963
1963
1973
1973
1973
1973
1974
1974
1974
1964
1964
1964
1966
1966
1966
1963
1963
1963
1969
1969
1969
1969
1967
1967
1967
1964
1964
1964
1967
1967
1967
1961
1961
1961
1970
1970
1970
1970
1973
1973
1973
1963
1963
1963
1967
1967
1967
1964
1964
1964
1970
1970
1970
1970
1966
1966
1966
1965
1965
1965
1971
1971
1971
1961
1961
1961
1968
1968
1968
1968
1967
1967
1967
1961
1961
1961
1968
1968
1968
1966
1966
1966
1969
1969
1969
1969
1969
1969
1969
1964
1964
1964
1967
1967
1967
1958
1958
1958
1969
1969
1969
1969
1967
1967
1967
1961
1961
1961
1966
1966
1966
1965
1965
1965
1967
1967
1967
1967
1967
1967
1967
1965
1965
1965
1969
1969
1969
1964
1964
1964
1970
1970
1970
1970
1972
1972
1972
1963
1963
1963
1965
1965
1965
1971
1971
1971
1967
1967
1967
1967
1967
1967
1967
1964
1964
1964
1971
1971
1971
1961
1961
1961
1968
1968
1968
1968
1968
1968
1968
1963
1963
1963
1968
1968
1968
1969
1969
1969
1968
1968
1968
1968
1967
1967
1967
1962
1962
1962
1963
1963
1963
1965
1965
1965
1961
1961
1961
1961
1957
1957
1957
1960
1960
1960
1968
1968
1968
1965
1965
1965
1964
1964
1964
1964
1969
1969
1969
1964
1964
1964
1971
1971
1971
1963
1963
1963
1967
1967
1967
1967
1966
1966
1966
1957
1957
1957
1968
1968
1968
1960
1960
1960
1975
1975
1975
1975
1971
1971
1971
1965
1965
1965
1966
1966
1966
1967
1967
1967
1967
1967
1967
1967
1965
1965
1965
1965
1965
1965
1968
1968
1968
1961
1961
1961
1965
1965
1965
1965
1961
1961
1961
1963
1963
1963
1966
1966
1966
1962
1962
1962
1969
1969
1969
1969
1967
1967
1967
1959
1959
1959
1967
1967
1967
1965
1965
1965
1966
1966
1966
1966
1961
1961
1961
1965
1965
1965
1967
1967
1967
1964
1964
1964
1967
1967
1967
1967
1969
1969
1969
1961
1961
1961
1970
1970
1970
1962
1962
1962
1969
1969
1969
1969
1971
1971
1971
1967
1967
1967
1970
1970
1970
1958
1958
1958
1965
1965
1965
1965
1966
1966
1966
1963
1963
1963
1968
1968
1968
1963
1963
1963
1961
1961
1961
1961
1969
1969
1969
1962
1962
1962
1961
1961
1961
1968
1968
1968
1969
1969
1969
1969
1967
1967
1967
1962
1962
1962
1961
1961
1961
1962
1962
1962
1967
1967
1967
1967
1968
1968
1968
1968
1968
1968
1967
1967
1967
1966
1966
1966
1968
1968
1968
1968
1968
1968
1968
1962
1962
1962
1973
1973
1973
1963
1963
1963
1968
1968
1968
1968
1970
1970
1970
1964
1964
1964
1970
1970
1970
1963
1963
1963
1963
1963
1963
1963
1977
1977
1977
1965
1965
1965
1969
1969
1969
1963
1963
1963
1967
1967
1967
1967
1966
1966
1966
1965
1965
1965
1969
1969
1969
1968
1968
1968
1972
1972
1972
1972
1967
1967
1967
1972
1972
1972
1964
1964
1964
1962
1962
1962
1969
1969
1969
1969
1970
1970
1970
1964
1964
1964
1969
1969
1969
1964
1964
1964
1966
1966
1966
1966
1971
1971
1971
1963
1963
1963
1967
1967
1967
1965
1965
1965
1967
1967
1967
1967
1966
1966
1966
1960
1960
1960
1969
1969
1969
1956
1956
1956
1965
1965
1965
1965
1966
1966
1966
1964
1964
1964
1966
1966
1966
1953
1953
1953
1968
1968
1968
1968
1968
1968
1968
1959
1959
1959
1970
1970
1970
1964
1964
1964
1966
1966
1966
1966
1965
1965
1965
1963
1963
1963
1973
1973
1973
1967
1967
1967
1966
1966
1966
1966
1966
1966
1966
1965
1965
1965
1971
1971
1971
1968
1968
1968
1969
1969
1969
1969
1970
1970
1970
1962
1962
1962
1969
1969
1969
1963
1963
1963
1968
1968
1968
1968
1968
1968
1968
1963
1963
1963
1974
1974
1974
1963
1963
1963
1966
1966
1966
1966
1969
1969
1969
1963
1963
1963
1969
1969
1969
1963
1963
1963
1967
1967
1967
1967
1966
1966
1966
1963
1963
1963
1968
1968
1968
1962
1962
1962
1965
1965
1965
1965
1966
1966
1966
1973
1973
1973
1968
1968
1968
1964
1964
1964
1968
1968
1968
1968
1968
1968
1968
1963
1963
1963
1963
1963
1963
1965
1965
1965
1971
1971
1971
1971
1973
1973
1973
1960
1960
1960
1968
1968
1968
1962
1962
1962
1971
1971
1971
1971
1969
1969
1969
1963
1963
1963
1966
1966
1966
1970
1970
1970
1967
1967
1967
1967
1966
1966
1966
1965
1965
1965
1968
1968
1968
1964
1964
1964
1966
1966
1966
1966
1970
1970
1970
1964
1964
1964
1971
1971
1971
1962
1962
1962
1963
1963
1963
1963
1964
1964
1964
1963
1963
1963
1972
1972
1972
1961
1961
1961
1965
1965
1965
1965
1962
1962
1962
1965
1965
1965
1968
1968
1968
1966
1966
1966
1966
1966
1966
1966
1968
1968
1968
1957
1957
1957
1966
1966
1966
1970
1970
1970
1964
1964
1964
1964
1972
1972
1972
1963
1963
1963
1966
1966
1966
1959
1959
1959
1966
1966
1966
1966
1971
1971
1971
1965
1965
1965
1959
1959
1959
1962
1962
1962
1968
1968
1968
1968
1965
1965
1965
1966
1966
1966
1969
1969
1969
1958
1958
1958
1965
1965
1965
1965
1969
1969
1969
1965
1965
1965
1973
1973
1973
1957
1957
1957
1964
1964
1964
1964
1968
1968
1968
1964
1964
1964
1970
1970
1970
1963
1963
1963
1965
1965
1965
1965
1967
1967
1967
1965
1965
1965
1973
1973
1973
1962
1962
1962
1971
1971
1971
1971
1966
1966
1966
1960
1960
1960
1969
1969
1969
1962
1962
1962
1964
1964
1964
1964
1968
1968
1968
1962
1962
1962
1965
1965
1965
1961
1961
1961
1967
1967
1967
1967
1967
1967
1967
1961
1961
1961
1966
1966
1966
1963
1963
1963
1965
1965
1965
1965
1968
1968
1968
1966
1966
1966
1971
1971
1971
1964
1964
1964
1966
1966
1966
1966
1967
1967
1967
1963
1963
1963
1968
1968
1968
1966
1966
1966
1966
1966
1966
1966
1972
1972
1972
1965
1965
1965
1965
1965
1965
1961
1961
1961
1968
1968
1968
1968
1968
1968
1968
1967
1967
1967
1968
1968
1968
1964
1964
1964
1961
1961
1961
1961
1974
1974
1974
1965
1965
1965
1965
1965
1965
1961
1961
1961
1967
1967
1967
1967
1970
1970
1970
1960
1960
1960
1968
1968
1968
1963
1963
1963
1970
1970
1970
1970
1969
1969
1969
1965
1965
1965
1968
1968
1968
1959
1959
1959
1967
1967
1967
1967
1969
1969
1969
1964
1964
1964
1969
1969
1969
1964
1964
1964
1968
1968
1968
1968
1971
1971
1971
1963
1963
1963
1965
1965
1965
1968
1968
1968
1963
1963
1963
1963
1964
1964
1964
1964
1964
1964
1968
1968
1968
1963
1963
1963
1967
1967
1967
1967
1963
1963
1963
1965
1965
1965
1969
1969
1969
1971
1971
1971
1968
1968
1968
1968
1967
1967
1967
1963
1963
1963
1964
1964
1964
1963
1963
1963
1967
1967
1967
1967
1969
1969
1969
1962
1962
1962
1967
1967
1967
1962
1962
1962
1967
1967
1967
1967
1967
1967
1967
1964
1964
1964
1969
1969
1969
1962
1962
1962
1969
1969
1969
1969
1966
1966
1966
1966
1966
1966
1968
1968
1968
1957
1957
1957
1971
1971
1971
1971
1967
1967
1967
1963
1963
1963
1966
1966
1966
1964
1964
1964
1967
1967
1967
1967
1967
1967
1967
1962
1962
1962
1966
1966
1966
1962
1962
1962
1980
1980
1980
1980
1974
1974
1974
1964
1964
1964
1967
1967
1967
1961
1961
1961
1966
1966
1966
1966
1967
1967
1967
1965
1965
1965
1967
1967
1967
1960
1960
1960
1964
1964
1964
1964
1966
1966
1966
1973
1973
1973
1969
1969
1969
1969
1969
1969
1967
1967
1967
1967
1968
1968
1968
1965
1965
1965
1969
1969
1969
1961
1961
1961
1969
1969
1969
1969
1967
1967
1967
1964
1964
1964
1977
1977
1977
1958
1958
1958
1968
1968
1968
1968
1967
1967
1967
1966
1966
1966
1970
1970
1970
1963
1963
1963
1967
1967
1967
1967
1963
1963
1963
1962
1962
1962
1968
1968
1968
1963
1963
1963
1969
1969
1969
1969
1967
1967
1967
1964
1964
1964
1965
1965
1965
1963
1963
1963
1968
1968
1968
1968
1968
1968
1968
1963
1963
1963
1966
1966
1966
1962
1962
1962
1970
1970
1970
1970
1967
1967
1967
1966
1966
1966
1969
1969
1969
1962
1962
1962
1968
1968
1968
1968
1968
1968
1968
1961
1961
1961
1969
1969
1969
1959
1959
1959
1968
1968
1968
1968
1968
1968
1968
1964
1964
1964
1961
1961
1961
1965
1965
1965
1963
1963
1963
1963
1967
1967
1967
1964
1964
1964
1973
1973
1973
1963
1963
1963
1964
1964
1964
1964
1967
1967
1967
1964
1964
1964
1964
1964
1964
1965
1965
1965
1968
1968
1968
1968
1970
1970
1970
1961
1961
1961
1967
1967
1967
1962
1962
1962
1970
1970
1970
1970
1970
1970
1970
1963
1963
1963
1969
1969
1969
1960
1960
1960
1967
1967
1967
1967
1965
1965
1965
1962
1962
1962
1962
1962
1962
1960
1960
1960
1962
1962
1962
1962
1966
1966
1966
1958
1958
1958
1968
1968
1968
1962
1962
1962
1968
1968
1968
1968
1967
1967
1967
1962
1962
1962
1967
1967
1967
1962
1962
1962
1968
1968
1968
1968
1964
1964
1964
1966
1966
1966
1966
1966
1966
1966
1966
1966
1967
1967
1967
1967
1969
1969
1969
1965
1965
1965
1967
1967
1967
1964
1964
1964
1964
1964
1964
1964
1969
1969
1969
1963
1963
1963
1975
1975
1975
1963
1963
1963
1968
1968
1968
1968
1968
1968
1968
1963
1963
1963
1972
1972
1972
1961
1961
1961
1968
1968
1968
1968
1969
1969
1969
1964
1964
1964
1966
1966
1966
1966
1966
1966
1965
1965
1965
1965
1966
1966
1966
1963
1963
1963
1968
1968
1968
1963
1963
1963
1964
1964
1964
1964
1962
1962
1962
1964
1964
1964
1967
1967
1967
1965
1965
1965
1966
1966
1966
1966
1968
1968
1968
1963
1963
1963
1975
1975
1975
1959
1959
1959
1967
1967
1967
1967
1967
1967
1967
1954
1954
1954
1966
1966
1966
1963
1963
1963
1965
1965
1965
1965
1965
1965
1965
1963
1963
1963
1965
1965
1965
1963
1963
1963
1971
1971
1971
1971
1964
1964
1964
1965
1965
1965
1978
1978
1978
1967
1967
1967
1964
1964
1964
1964
1963
1963
1963
1964
1964
1964
1969
1969
1969
1963
1963
1963
1969
1969
1969
1969
1966
1966
1966
1959
1959
1959
1969
1969
1969
1961
1961
1961
1964
1964
1964
1964
1964
1964
1964
1964
1964
1964
1969
1969
1969
1963
1963
1963
1967
1967
1967
1967
1968
1968
1968
1964
1964
1964
1969
1969
1969
1965
1965
1965
1967
1967
1967
1967
1972
1972
1972
1962
1962
1962
1968
1968
1968
1960
1960
1960
1968
1968
1968
1968
1967
1967
1967
1961
1961
1961
1970
1970
1970
1969
1969
1969
1970
1970
1970
1970
1968
1968
1968
1961
1961
1961
1966
1966
1966
1963
1963
1963
1965
1965
1965
1965
1968
1968
1968
1965
1965
1965
1972
1972
1972
1965
1965
1965
1966
1966
1966
1966
1964
1964
1964
1965
1965
1965
1967
1967
1967
1967
1967
1967
1968
1968
1968
1968
1969
1969
1969
1962
1962
1962
1969
1969
1969
1964
1964
1964
1967
1967
1967
1967
1967
1967
1967
1958
1958
1958
1969
1969
1969
1964
1964
1964
1971
1971
1971
1971
1970
1970
1970
1965
1965
1965
1971
1971
1971
1964
1964
1964
1970
1970
1970
1970
1967
1967
1967
1966
1966
1966
1967
1967
1967
1965
1965
1965
1967
1967
1967
1967
1965
1965
1965
1963
1963
1963
1967
1967
1967
1959
1959
1959
1968
1968
1968
1968
1968
1968
1968
1958
1958
1958
1967
1967
1967
1965
1965
1965
1963
1963
1963
1963
1962
1962
1962
1966
1966
1966
1968
1968
1968
1967
1967
1967
1966
1966
1966
1966
1960
1960
1960
1964
1964
1964
1958
1958
1958
1964
1964
1964
1965
1965
1965
1965
1965
1965
1965
1962
1962
1962
1969
1969
1969
1966
1966
1966
1969
1969
1969
1969
1966
1966
1966
1961
1961
1961
1971
1971
1971
1961
1961
1961
1969
1969
1969
1969
1969
1969
1969
1964
1964
1964
1969
1969
1969
1965
1965
1965
1967
1967
1967
1967
1966
1966
1966
1965
1965
1965
1964
1964
1964
1964
1964
1964
1979
1979
1979
1979
1979
1979
1979
1970
1970
1970
1967
1967
1967
1965
1965
1965
1967
1967
1967
1967
1971
1971
1971
1965
1965
1965
1964
1964
1964
1967
1967
1967
1969
1969
1969
1969
1971
1971
1971
1956
1956
1956
1969
1969
1969
1961
1961
1961
1963
1963
1963
1963
1968
1968
1968
1963
1963
1963
1969
1969
1969
1961
1961
1961
1971
1971
1971
1971
1962
1962
1962
1959
1959
1959
1966
1966
1966
1965
1965
1965
1962
1962
1962
1962
1963
1963
1963
1963
1963
1963
1966
1966
1966
1962
1962
1962
1967
1967
1967
1967
1968
1968
1968
1962
1962
1962
1967
1967
1967
1965
1965
1965
1969
1969
1969
1969
1967
1967
1967
1963
1963
1963
1970
1970
1970
1958
1958
1958
1968
1968
1968
1968
1966
1966
1966
1965
1965
1965
1963
1963
1963
1962
1962
1962
1970
1970
1970
1970
1969
1969
1969
1965
1965
1965
1965
1965
1965
1966
1966
1966
1967
1967
1967
1967
1969
1969
1969
1957
1957
1957
1971
1971
1971
1962
1962
1962
1967
1967
1967
1967
1967
1967
1967
1962
1962
1962
1967
1967
1967
1967
1967
1967
1968
1968
1968
1968
1970
1970
1970
1964
1964
1964
1966
1966
1966
1963
1963
1963
1966
1966
1966
1966
1966
1966
1966
1961
1961
1961
1968
1968
1968
1960
1960
1960
1965
1965
1965
1965
1967
1967
1967
1966
1966
1966
1964
1964
1964
1961
1961
1961
1971
1971
1971
1971
1967
1967
1967
1966
1966
1966
1964
1964
1964
1963
1963
1963
1968
1968
1968
1968
1971
1971
1971
1963
1963
1963
1968
1968
1968
1957
1957
1957
1964
1964
1964
1964
1961
1961
1961
1965
1965
1965
1967
1967
1967
1965
1965
1965
1968
1968
1968
1968
1969
1969
1969
1963
1963
1963
1968
1968
1968
1959
1959
1959
1967
1967
1967
1967
1965
1965
1965
1970
1970
1970
1966
1966
1966
1963
1963
1963
1971
1971
1971
1971
1974
1974
1974
1963
1963
1963
1969
1969
1969
1965
1965
1965
1968
1968
1968
1968
1974
1974
1974
1964
1964
1964
1965
1965
1965
1963
1963
1963
1968
1968
1968
1968
1967
1967
1967
1957
1957
1957
1970
1970
1970
1962
1962
1962
1968
1968
1968
1968
1967
1967
1967
1963
1963
1963
1964
1964
1964
1961
1961
1961
1968
1968
1968
1968
1967
1967
1967
1960
1960
1960
1966
1966
1966
1962
1962
1962
1966
1966
1966
1966
1967
1967
1967
1965
1965
1965
1966
1966
1966
1962
1962
1962
1967
1967
1967
1967
1968
1968
1968
1965
1965
1965
1969
1969
1969
1966
1966
1966
1972
1972
1972
1972
1969
1969
1969
1963
1963
1963
1972
1972
1972
1966
1966
1966
1967
1967
1967
1967
1967
1967
1967
1967
1967
1967
1968
1968
1968
1957
1957
1957
1970
1970
1970
1970
1966
1966
1966
1964
1964
1964
1969
1969
1969
1967
1967
1967
1973
1973
1973
1973
1966
1966
1966
1959
1959
1959
1964
1964
1964
1964
1964
1964
1972
1972
1972
1972
1969
1969
1969
1964
1964
1964
1967
1967
1967
1961
1961
1961
1969
1969
1969
1969
1967
1967
1967
1965
1965
1965
1964
1964
1964
1959
1959
1959
1966
1966
1966
1966
1961
1961
1961
1958
1958
1958
1967
1967
1967
1962
1962
1962
1967
1967
1967
1967
1970
1970
1970
1962
1962
1962
1969
1969
1969
1967
1967
1967
1970
1970
1970
1970
1960
1960
1960
1964
1964
1964
1968
1968
1968
1966
1966
1966
1969
1969
1969
1969
1967
1967
1967
1964
1964
1964
1971
1971
1971
1961
1961
1961
1967
1967
1967
1967
1968
1968
1968
1967
1967
1967
1967
1967
1967
1965
1965
1965
1970
1970
1970
1970
1968
1968
1968
1964
1964
1964
1966
1966
1966
1965
1965
1965
1965
1965
1965
1965
1968
1968
1968
1959
1959
1959
1970
1970
1970
1966
1966
1966
1963
1963
1963
1963
1964
1964
1964
1963
1963
1963
1972
1972
1972
1968
1968
1968
1968
1968
1968
1968
1968
1968
1968
1961
1961
1961
1967
1967
1967
1959
1959
1959
1970
1970
1970
1970
1967
1967
1967
1965
1965
1965
1966
1966
1966
1962
1962
1962
1968
1968
1968
1968
1968
1968
1968
1964
1964
1964
1961
1961
1961
1964
1964
1964
1973
1973
1973
1973
1965
1965
1965
1962
1962
1962
1967
1967
1967
1967
1967
1967
1967
1967
1967
1967
1965
1965
1965
1963
1963
1963
1973
1973
1973
1958
1958
1958
1968
1968
1968
1968
1967
1967
1967
1964
1964
1964
1967
1967
1967
1962
1962
1962
1968
1968
1968
1968
1968
1968
1968
1965
1965
1965
1966
1966
1966
1964
1964
1964
1972
1972
1972
1972
1973
1973
1973
1967
1967
1967
1962
1962
1962
1966
1966
1966
1968
1968
1968
1968
1969
1969
1969
1963
1963
1963
1969
1969
1969
1964
1964
1964
1969
1969
1969
1969
1968
1968
1968
1962
1962
1962
1967
1967
1967
1957
1957
1957
1968
1968
1968
1968
1965
1965
1965
1962
1962
1962
1967
1967
1967
1959
1959
1959
1968
1968
1968
1968
1967
1967
1967
1961
1961
1961
1964
1964
1964
1963
1963
1963
1978
1978
1978
1978
1968
1968
1968
1964
1964
1964
1969
1969
1969
1964
1964
1964
1967
1967
1967
1967
1968
1968
1968
1966
1966
1966
1968
1968
1968
1961
1961
1961
1967
1967
1967
1967
1967
1967
1967
1963
1963
1963
1969
1969
1969
1967
1967
1967
1968
1968
1968
1968
1968
1968
1968
1963
1963
1963
1968
1968
1968
1963
1963
1963
1969
1969
1969
1969
1969
1969
1969
1965
1965
1965
1960
1960
1960
1966
1966
1966
1969
1969
1969
1969
1967
1967
1967
1964
1964
1964
1965
1965
1965
1964
1964
1964
1968
1968
1968
1968
1965
1965
1965
1958
1958
1958
1970
1970
1970
1955
1955
1955
1970
1970
1970
1970
1968
1968
1968
1962
1962
1962
1966
1966
1966
1962
1962
1962
1969
1969
1969
1969
1967
1967
1967
1958
1958
1958
1970
1970
1970
1961
1961
1961
1960
1960
1960
1960
1962
1962
1962
1964
1964
1964
1968
1968
1968
1963
1963
1963
1968
1968
1968
1968
1966
1966
1966
1966
1966
1966
1968
1968
1968
1966
1966
1966
1972
1972
1972
1972
1970
1970
1970
1973
1973
1973
1971
1971
1971
1964
1964
1964
1967
1967
1967
1967
1967
1967
1967
1962
1962
1962
1972
1972
1972
1961
1961
1961
1958
1958
1958
1958
1964
1964
1964
1963
1963
1963
1969
1969
1969
1958
1958
1958
1967
1967
1967
1967
1964
1964
1964
1967
1967
1967
1971
1971
1971
1962
1962
1962
1966
1966
1966
1966
1965
1965
1965
1959
1959
1959
1966
1966
1966
1964
1964
1964
1968
1968
1968
1968
1968
1968
1968
1964
1964
1964
1969
1969
1969
1963
1963
1963
1963
1963
1963
1963
1973
1973
1973
1961
1961
1961
1967
1967
1967
1959
1959
1959
1967
1967
1967
1967
1966
1966
1966
1964
1964
1964
1971
1971
1971
1963
1963
1963
1967
1967
1967
1967
1966
1966
1966
1961
1961
1961
1970
1970
1970
1963
1963
1963
1969
1969
1969
1969
1968
1968
1968
1963
1963
1963
1965
1965
1965
1961
1961
1961
1964
1964
1964
1964
1964
1964
1964
1961
1961
1961
1967
1967
1967
1961
1961
1961
1969
1969
1969
1969
1969
1969
1969
1964
1964
1964
1969
1969
1969
1964
1964
1964
1968
1968
1968
1968
1969
1969
1969
1956
1956
1956
1970
1970
1970
1963
1963
1963
1967
1967
1967
1967
1968
1968
1968
1964
1964
1964
1966
1966
1966
1959
1959
1959
1966
1966
1966
1966
1966
1966
1966
1962
1962
1962
1966
1966
1966
1963
1963
1963
1970
1970
1970
1970
1967
1967
1967
1964
1964
1964
1969
1969
1969
1964
1964
1964
1969
1969
1969
1969
1967
1967
1967
1963
1963
1963
1972
1972
1972
1954
1954
1954
1974
1974
1974
1974
1969
1969
1969
1965
1965
1965
1972
1972
1972
1966
1966
1966
1968
1968
1968
1968
1967
1967
1967
1962
1962
1962
1968
1968
1968
1963
1963
1963
1966
1966
1966
1966
1971
1971
1971
1969
1969
1969
1963
1963
1963
1964
1964
1964
1966
1966
1966
1966
1968
1968
1968
1962
1962
1962
1964
1964
1964
1966
1966
1966
1968
1968
1968
1968
1968
1968
1968
1966
1966
1966
1967
1967
1967
1959
1959
1959
1969
1969
1969
1969
1970
1970
1970
1959
1959
1959
1967
1967
1967
1965
1965
1965
1966
1966
1966
1966
1967
1967
1967
1970
1970
1970
1973
1973
1973
1966
1966
1966
1963
1963
1963
1963
1975
1975
1975
1962
1962
1962
1968
1968
1968
1960
1960
1960
1967
1967
1967
1967
1966
1966
1966
1961
1961
1961
1968
1968
1968
1963
1963
1963
1967
1967
1967
1967
1968
1968
1968
1959
1959
1959
1969
1969
1969
1968
1968
1968
1968
1968
1968
1968
1966
1966
1966
1962
1962
1962
1969
1969
1969
1965
1965
1965
1969
1969
1969
1969
1966
1966
1966
1963
1963
1963
1967
1967
1967
1965
1965
1965
1969
1969
1969
1969
1969
1969
1969
1963
1963
1963
1968
1968
1968
1959
1959
1959
1963
1963
1963
1963
1969
1969
1969
1962
1962
1962
1975
1975
1975
1963
1963
1963
1969
1969
1969
1969
1970
1970
1970
1962
1962
1962
1966
1966
1966
1962
1962
1962
1966
1966
1966
1966
1967
1967
1967
1960
1960
1960
1966
1966
1966
1967
1967
1967
1968
1968
1968
1968
1967
1967
1967
1964
1964
1964
1969
1969
1969
1968
1968
1968
1971
1971
1971
1971
1964
1964
1964
1965
1965
1965
1963
1963
1963
1958
1958
1958
1969
1969
1969
1969
1965
1965
1965
1964
1964
1964
1968
1968
1968
1968
1968
1968
1969
1969
1969
1969
1965
1965
1965
1963
1963
1963
1965
1965
1965
1961
1961
1961
1968
1968
1968
1968
1973
1973
1973
1965
1965
1965
1972
1972
1972
1959
1959
1959
1965
1965
1965
1965
1976
1976
1976
1959
1959
1959
1969
1969
1969
1962
1962
1962
1961
1961
1961
1961
1966
1966
1966
1960
1960
1960
1967
1967
1967
1963
1963
1963
1968
1968
1968
1968
1968
1968
1968
1963
1963
1963
1965
1965
1965
1962
1962
1962
1968
1968
1968
1968
1968
1968
1968
1964
1964
1964
1966
1966
1966
1962
1962
1962
1970
1970
1970
1970
1964
1964
1964
1962
1962
1962
1970
1970
1970
1966
1966
1966
1970
1970
1970
1970
1965
1965
1965
1963
1963
1963
1971
1971
1971
1961
1961
1961
1961
1961
1961
1961
1967
1967
1967
1964
1964
1964
1974
1974
1974
1960
1960
1960
1967
1967
1967
1967
1967
1967
1967
1962
1962
1962
1973
1973
1973
1962
1962
1962
1967
1967
1967
1967
1966
1966
1966
1959
1959
1959
1969
1969
1969
1962
1962
1962
1968
1968
1968
1968
1972
1972
1972
1957
1957
1957
1967
1967
1967
1965
1965
1965
1968
1968
1968
1968
1969
1969
1969
1965
1965
1965
1969
1969
1969
1962
1962
1962
1970
1970
1970
1970
1967
1967
1967
1964
1964
1964
1967
1967
1967
1964
1964
1964
1969
1969
1969
1969
1970
1970
1970
1962
1962
1962
1962
1962
1962
1963
1963
1963
1969
1969
1969
1969
1967
1967
1967
1963
1963
1963
1972
1972
1972
1965
1965
1965
1965
1965
1965
1965
1977
1977
1977
1966
1966
1966
1968
1968
1968
1967
1967
1967
1964
1964
1964
1964
1966
1966
1966
1961
1961
1961
1969
1969
1969
1962
1962
1962
1966
1966
1966
1966
1967
1967
1967
1968
1968
1968
1966
1966
1966
1966
1966
1966
1964
1964
1964
1964
1966
1966
1966
1966
1966
1966
1968
1968
1968
1963
1963
1963
1969
1969
1969
1969
1966
1966
1966
1959
1959
1959
1969
1969
1969
1962
1962
1962
1973
1973
1973
1973
1973
1973
1973
1963
1963
1963
1968
1968
1968
1962
1962
1962
1966
1966
1966
1966
1961
1961
1961
1964
1964
1964
1971
1971
1971
1963
1963
1963
1967
1967
1967
1967
1969
1969
1969
1961
1961
1961
1969
1969
1969
1959
1959
1959
1969
1969
1969
1969
1968
1968
1968
1971
1971
1971
1970
1970
1970
1966
1966
1966
1967
1967
1967
1967
1969
1969
1969
1965
1965
1965
1968
1968
1968
1970
1970
1970
1969
1969
1969
1969
1963
1963
1963
1962
1962
1962
1967
1967
1967
1968
1968
1968
1968
1968
1968
1968
1969
1969
1969
1962
1962
1962
1972
1972
1972
1965
1965
1965
1967
1967
1967
1967
1968
1968
1968
1959
1959
1959
1964
1964
1964
1963
1963
1963
1971
1971
1971
1971
1967
1967
1967
1964
1964
1964
1968
1968
1968
1970
1970
1970
1968
1968
1968
1968
1969
1969
1969
1964
1964
1964
1965
1965
1965
1963
1963
1963
1966
1966
1966
1966
1969
1969
1969
1961
1961
1961
1967
1967
1967
1961
1961
1961
1967
1967
1967
1967
1968
1968
1968
1974
1974
1974
1969
1969
1969
1961
1961
1961
1967
1967
1967
1967
1966
1966
1966
1960
1960
1960
1969
1969
1969
1964
1964
1964
1967
1967
1967
1967
1968
1968
1968
1963
1963
1963
1966
1966
1966
1961
1961
1961
1964
1964
1964
1964
1964
1964
1964
1963
1963
1963
1967
1967
1967
1963
1963
1963
1963
1963
1963
1963
1971
1971
1971
1965
1965
1965
1967
1967
1967
1960
1960
1960
1965
1965
1965
1965
1966
1966
1966
1962
1962
1962
1972
1972
1972
1965
1965
1965
1965
1965
1965
1965
1967
1967
1967
1964
1964
1964
1967
1967
1967
1960
1960
1960
1974
1974
1974
1974
1973
1973
1973
1964
1964
1964
1967
1967
1967
1967
1967
1967
1965
1965
1965
1965
1968
1968
1968
1962
1962
1962
1966
1966
1966
1963
1963
1963
1968
1968
1968
1968
1967
1967
1967
1969
1969
1969
1967
1967
1967
1964
1964
1964
1968
1968
1968
1968
1974
1974
1974
1962
1962
1962
1969
1969
1969
1960
1960
1960
1968
1968
1968
1968
1964
1964
1964
1966
1966
1966
1968
1968
1968
1964
1964
1964
1967
1967
1967
1967
1960
1960
1960
1963
1963
1963
1971
1971
1971
1963
1963
1963
1968
1968
1968
1968
1966
1966
1966
1961
1961
1961
1965
1965
1965
1959
1959
1959
1968
1968
1968
1968
1967
1967
1967
1962
1962
1962
1968
1968
1968
1962
1962
1962
1968
1968
1968
1968
1969
1969
1969
1964
1964
1964
1964
1964
1964
1964
1964
1964
1962
1962
1962
1962
1972
1972
1972
1967
1967
1967
1966
1966
1966
1964
1964
1964
1965
1965
1965
1965
1967
1967
1967
1962
1962
1962
1970
1970
1970
1961
1961
1961
1967
1967
1967
1967
1967
1967
1967
1964
1964
1964
1964
1964
1964
1965
1965
1965
1966
1966
1966
1966
1967
1967
1967
1974
1974
1974
1967
1967
1967
1967
1967
1967
1965
1965
1965
1965
1965
1965
1965
1962
1962
1962
1968
1968
1968
1963
1963
1963
1968
1968
1968
1968
1968
1968
1968
1963
1963
1963
1966
1966
1966
1965
1965
1965
1961
1961
1961
1961
1971
1971
1971
1962
1962
1962
1968
1968
1968
1965
1965
1965
1967
1967
1967
1967
1966
1966
1966
1963
1963
1963
1969
1969
1969
1967
1967
1967
1969
1969
1969
1969
1961
1961
1961
1969
1969
1969
1970
1970
1970
1962
1962
1962
1967
1967
1967
1967
1963
1963
1963
1964
1964
1964
1968
1968
1968
1962
1962
1962
1967
1967
1967
1967
1968
1968
1968
1963
1963
1963
1968
1968
1968
1964
1964
1964
1967
1967
1967
1967
1969
1969
1969
1963
1963
1963
1966
1966
1966
1957
1957
1957
1969
1969
1969
1969
1968
1968
1968
1968
1968
1968
1964
1964
1964
1965
1965
1965
1970
1970
1970
1970
1967
1967
1967
1964
1964
1964
1968
1968
1968
1963
1963
1963
1962
1962
1962
1962
1964
1964
1964
1965
1965
1965
1970
1970
1970
1963
1963
1963
1968
1968
1968
1968
1965
1965
1965
1966
1966
1966
1966
1966
1966
1964
1964
1964
1969
1969
1969
1969
1970
1970
1970
1962
1962
1962
1967
1967
1967
1960
1960
1960
1969
1969
1969
1969
1966
1966
1966
1967
1967
1967
1971
1971
1971
1962
1962
1962
1969
1969
1969
1969
1967
1967
1967
1966
1966
1966
1967
1967
1967
1961
1961
1961
1967
1967
1967
1967
1966
1966
1966
1963
1963
1963
1966
1966
1966
1965
1965
1965
1964
1964
1964
1964
1966
1966
1966
1963
1963
1963
1967
1967
1967
1965
1965
1965
1967
1967
1967
1967
1962
1962
1962
1966
1966
1966
1966
1966
1966
1965
1965
1965
1969
1969
1969
1969
1963
1963
1963
1965
1965
1965
1967
1967
1967
1964
1964
1964
1969
1969
1969
1969
1968
1968
1968
1961
1961
1961
1968
1968
1968
1967
1967
1967
1970
1970
1970
1970
1967
1967
1967
1962
1962
1962
1966
1966
1966
1971
1971
1971
1970
1970
1970
1970
1968
1968
1968
1964
1964
1964
1969
1969
1969
1964
1964
1964
1970
1970
1970
1970
1970
1970
1970
1964
1964
1964
1966
1966
1966
1965
1965
1965
1970
1970
1970
1970
1965
1965
1965
1966
1966
1966
1973
1973
1973
1964
1964
1964
1970
1970
1970
1970
1965
1965
1965
1962
1962
1962
1970
1970
1970
1963
1963
1963
1970
1970
1970
1970
1971
1971
1971
1962
1962
1962
1967
1967
1967
1958
1958
1958
1969
1969
1969
1969
1968
1968
1968
1966
1966
1966
1970
1970
1970
1964
1964
1964
1971
1971
1971
1971
1963
1963
1963
1961
1961
1961
1965
1965
1965
1959
1959
1959
1969
1969
1969
1969
1967
1967
1967
1965
1965
1965
1970
1970
1970
1964
1964
1964
1970
1970
1970
1970
1965
1965
1965
1963
1963
1963
1969
1969
1969
1964
1964
1964
1969
1969
1969
1969
1971
1971
1971
1965
1965
1965
1965
1965
1965
1967
1967
1967
1965
1965
1965
1965
1968
1968
1968
1961
1961
1961
1963
1963
1963
1962
1962
1962
1968
1968
1968
1968
1965
1965
1965
1966
1966
1966
1968
1968
1968
1956
1956
1956
1967
1967
1967
1967
1968
1968
1968
1969
1969
1969
1968
1968
1968
1962
1962
1962
1968
1968
1968
1968
1967
1967
1967
1969
1969
1969
1967
1967
1967
1964
1964
1964
1966
1966
1966
1966
1967
1967
1967
1964
1964
1964
1968
1968
1968
1968
1968
1968
1964
1964
1964
1964
1965
1965
1965
1966
1966
1966
1968
1968
1968
1960
1960
1960
1972
1972
1972
1972
1962
1962
1962
1965
1965
1965
1968
1968
1968
1957
1957
1957
1967
1967
1967
1967
1965
1965
1965
1960
1960
1960
1966
1966
1966
1963
1963
1963
1967
1967
1967
1967
1969
1969
1969
1967
1967
1967
1970
1970
1970
1961
1961
1961
1967
1967
1967
1967
1970
1970
1970
1959
1959
1959
1964
1964
1964
1967
1967
1967
1967
1967
1967
1967
1967
1967
1967
1963
1963
1963
1968
1968
1968
1966
1966
1966
1970
1970
1970
1970
1965
1965
1965
1965
1965
1965
1965
1965
1965
1958
1958
1958
1967
1967
1967
1967
1965
1965
1965
1963
1963
1963
1974
1974
1974
1965
1965
1965
1964
1964
1964
1964
1983
1983
1983
1961
1961
1961
1974
1974
1974
1964
1964
1964
1964
1964
1964
1964
1972
1972
1972
1963
1963
1963
1964
1964
1964
1969
1969
1969
1967
1967
1967
1967
1968
1968
1968
1967
1967
1967
1969
1969
1969
1968
1968
1968
1970
1970
1970
1970
1969
1969
1969
1964
1964
1964
1969
1969
1969
1960
1960
1960
1961
1961
1961
1961
1968
1968
1968
1974
1974
1974
1967
1967
1967
1963
1963
1963
1969
1969
1969
1969
1969
1969
1969
1966
1966
1966
1970
1970
1970
1965
1965
1965
1969
1969
1969
1969
1962
1962
1962
1965
1965
1965
1971
1971
1971
1963
1963
1963
1967
1967
1967
1967
1965
1965
1965
1964
1964
1964
1968
1968
1968
1962
1962
1962
1969
1969
1969
1969
1967
1967
1967
1967
1967
1967
1969
1969
1969
1965
1965
1965
1970
1970
1970
1970
1968
1968
1968
1962
1962
1962
1965
1965
1965
1962
1962
1962
1969
1969
1969
1969
1966
1966
1966
1964
1964
1964
1965
1965
1965
1964
1964
1964
1967
1967
1967
1967
1968
1968
1968
1956
1956
1956
1970
1970
1970
1963
1963
1963
1968
1968
1968
1968
1966
1966
1966
1962
1962
1962
1966
1966
1966
1964
1964
1964
1969
1969
1969
1969
1969
1969
1969
1958
1958
1958
1967
1967
1967
1960
1960
1960
1967
1967
1967
1967
1968
1968
1968
1964
1964
1964
1966
1966
1966
1964
1964
1964
1961
1961
1961
1961
1964
1964
1964
1962
1962
1962
1967
1967
1967
1964
1964
1964
1969
1969
1969
1969
1966
1966
1966
1964
1964
1964
1968
1968
1968
1961
1961
1961
1969
1969
1969
1969
1967
1967
1967
1963
1963
1963
1964
1964
1964
1971
1971
1971
1968
1968
1968
1968
1969
1969
1969
1965
1965
1965
1967
1967
1967
1963
1963
1963
1966
1966
1966
1966
1969
1969
1969
1963
1963
1963
1972
1972
1972
1961
1961
1961
1967
1967
1967
1967
1968
1968
1968
1964
1964
1964
1967
1967
1967
1965
1965
1965
1966
1966
1966
1966
1963
1963
1963
1962
1962
1962
1968
1968
1968
1963
1963
1963
1964
1964
1964
1964
1967
1967
1967
1964
1964
1964
1967
1967
1967
1963
1963
1963
1967
1967
1967
1967
1964
1964
1964
1957
1957
1957
1969
1969
1969
1961
1961
1961
1968
1968
1968
1968
1968
1968
1968
1964
1964
1964
1969
1969
1969
1958
1958
1958
1968
1968
1968
1968
1967
1967
1967
1961
1961
1961
1969
1969
1969
1959
1959
1959
1967
1967
1967
1967
1963
1963
1963
1963
1963
1963
1968
1968
1968
1965
1965
1965
1966
1966
1966
1966
1968
1968
1968
1964
1964
1964
1968
1968
1968
1971
1971
1971
1966
1966
1966
1966
1967
1967
1967
1958
1958
1958
1967
1967
1967
1964
1964
1964
1961
1961
1961
1961
1963
1963
1963
1965
1965
1965
1969
1969
1969
1961
1961
1961
1968
1968
1968
1968
1968
1968
1968
1961
1961
1961
1967
1967
1967
1963
1963
1963
1964
1964
1964
1964
1966
1966
1966
1965
1965
1965
1967
1967
1967
1974
1974
1974
1967
1967
1967
1967
1967
1967
1967
1964
1964
1964
1966
1966
1966
1965
1965
1965
1970
1970
1970
1970
1968
1968
1968
1963
1963
1963
1968
1968
1968
1963
1963
1963
1974
1974
1974
1974
1968
1968
1968
1962
1962
1962
1967
1967
1967
1959
1959
1959
1971
1971
1971
1971
1971
1971
1971
1964
1964
1964
1967
1967
1967
1965
1965
1965
1967
1967
1967
1967
1963
1963
1963
1963
1963
1963
1972
1972
1972
1965
1965
1965
1966
1966
1966
1966
1963
1963
1963
1961
1961
1961
1975
1975
1975
1965
1965
1965
1967
1967
1967
1967
1967
1967
1967
1962
1962
1962
1967
1967
1967
1962
1962
1962
1966
1966
1966
1966
1970
1970
1970
1964
1964
1964
1970
1970
1970
1967
1967
1967
1966
1966
1966
1966
1969
1969
1969
1962
1962
1962
1966
1966
1966
1963
1963
1963
1966
1966
1966
1966
1970
1970
1970
1965
1965
1965
1967
1967
1967
1963
1963
1963
1966
1966
1966
1966
1969
1969
1969
1962
1962
1962
1969
1969
1969
1964
1964
1964
1966
1966
1966
1966
1968
1968
1968
1958
1958
1958
1971
1971
1971
1963
1963
1963
1968
1968
1968
1968
1965
1965
1965
1961
1961
1961
1961
1961
1961
1963
1963
1963
1966
1966
1966
1966
1967
1967
1967
1966
1966
1966
1968
1968
1968
1960
1960
1960
1968
1968
1968
1968
1967
1967
1967
1965
1965
1965
1968
1968
1968
1963
1963
1963
1966
1966
1966
1966
1968
1968
1968
1961
1961
1961
1967
1967
1967
1972
1972
1972
1969
1969
1969
1969
1969
1969
1969
1961
1961
1961
1968
1968
1968
1963
1963
1963
1969
1969
1969
1969
1971
1971
1971
1964
1964
1964
1966
1966
1966
1965
1965
1965
1969
1969
1969
1969
1967
1967
1967
1966
1966
1966
1970
1970
1970
1964
1964
1964
1967
1967
1967
1967
1965
1965
1965
1964
1964
1964
1973
1973
1973
1964
1964
1964
1962
1962
1962
1962
1972
1972
1972
1963
1963
1963
1965
1965
1965
1966
1966
1966
1968
1968
1968
1968
1967
1967
1967
1962
1962
1962
1967
1967
1967
1962
1962
1962
1964
1964
1964
1964
1962
1962
1962
1964
1964
1964
1966
1966
1966
1964
1964
1964
1968
1968
1968
1968
1967
1967
1967
1971
1971
1971
1964
1964
1964
1958
1958
1958
1969
1969
1969
1969
1969
1969
1969
1967
1967
1967
1969
1969
1969
1960
1960
1960
1963
1963
1963
1963
1969
1969
1969
1963
1963
1963
1972
1972
1972
1964
1964
1964
1964
1964
1964
1964
1964
1964
1964
1963
1963
1963
1966
1966
1966
1964
1964
1964
1959
1959
1959
1959
1966
1966
1966
1964
1964
1964
1970
1970
1970
1965
1965
1965
1961
1961
1961
1961
1966
1966
1966
1965
1965
1965
1965
1965
1965
1963
1963
1963
1971
1971
1971
1971
1972
1972
1972
1966
1966
1966
1967
1967
1967
1963
1963
1963
1965
1965
1965
1965
1966
1966
1966
1964
1964
1964
1970
1970
1970
1961
1961
1961
1965
1965
1965
1965
1966
1966
1966
1962
1962
1962
1967
1967
1967
1968
1968
1968
1969
1969
1969
1969
1971
1971
1971
1962
1962
1962
1965
1965
1965
1968
1968
1968
1967
1967
1967
1967
1967
1967
1967
1963
1963
1963
1967
1967
1967
1964
1964
1964
1967
1967
1967
1967
1964
1964
1964
1965
1965
1965
1966
1966
1966
1959
1959
1959
1973
1973
1973
1973
1972
1972
1972
1963
1963
1963
1972
1972
1972
1963
1963
1963
1962
1962
1962
1962
1968
1968
1968
1956
1956
1956
1969
1969
1969
1963
1963
1963
1969
1969
1969
1969
1965
1965
1965
1967
1967
1967
1968
1968
1968
1958
1958
1958
1968
1968
1968
1968
1967
1967
1967
1962
1962
1962
1974
1974
1974
1965
1965
1965
1967
1967
1967
1967
1970
1970
1970
1963
1963
1963
1967
1967
1967
1959
1959
1959
1965
1965
1965
1965
1965
1965
1965
1965
1965
1965
1971
1971
1971
1964
1964
1964
1968
1968
1968
1968
1966
1966
1966
1958
1958
1958
1967
1967
1967
1964
1964
1964
1969
1969
1969
1969
1969
1969
1969
1965
1965
1965
1966
1966
1966
1959
1959
1959
1968
1968
1968
1968
1963
1963
1963
1963
1963
1963
1974
1974
1974
1962
1962
1962
1965
1965
1965
1965
1977
1977
1977
1963
1963
1963
1968
1968
1968
1965
1965
1965
1970
1970
1970
1970
1966
1966
1966
1962
1962
1962
1966
1966
1966
1967
1967
1967
1969
1969
1969
1969
1969
1969
1969
1964
1964
1964
1967
1967
1967
1965
1965
1965
1971
1971
1971
1971
1967
1967
1967
1967
1967
1967
1969
1969
1969
1961
1961
1961
1966
1966
1966
1966
1966
1966
1966
1965
1965
1965
1963
1963
1963
1964
1964
1964
1968
1968
1968
1968
1968
1968
1968
1965
1965
1965
1968
1968
1968
1964
1964
1964
1969
1969
1969
1969
1960
1960
1960
1964
1964
1964
1968
1968
1968
1964
1964
1964
1970
1970
1970
1970
1960
1960
1960
1962
1962
1962
1962
1962
1962
1965
1965
1965
1973
1973
1973
1973
1969
1969
1969
1963
1963
1963
1969
1969
1969
1959
1959
1959
1966
1966
1966
1966
1965
1965
1965
1960
1960
1960
1970
1970
1970
1959
1959
1959
1967
1967
1967
1967
1968
1968
1968
1961
1961
1961
1969
1969
1969
1976
1976
1976
1969
1969
1969
1969
1971
1971
1971
1964
1964
1964
1968
1968
1968
1962
1962
1962
1968
1968
1968
1968
1968
1968
1968
1966
1966
1966
1967
1967
1967
1964
1964
1964
1962
1962
1962
1962
1963
1963
1963
1963
1963
1963
1962
1962
1962
1959
1959
1959
1971
1971
1971
1971
1970
1970
1970
1963
1963
1963
1967
1967
1967
1963
1963
1963
1968
1968
1968
1968
1966
1966
1966
1963
1963
1963
1969
1969
1969
1963
1963
1963
1967
1967
1967
1967
1970
1970
1970
1965
1965
1965
1967
1967
1967
1960
1960
1960
1967
1967
1967
1967
1966
1966
1966
1965
1965
1965
1969
1969
1969
1964
1964
1964
1961
1961
1961
1961
1968
1968
1968
1961
1961
1961
1970
1970
1970
1975
1975
1975
1969
1969
1969
1969
1965
1965
1965
1959
1959
1959
1958
1958
1958
1963
1963
1963
1965
1965
1965
1965
1966
1966
1966
1964
1964
1964
1969
1969
1969
1963
1963
1963
1968
1968
1968
1968
1970
1970
1970
1963
1963
1963
1966
1966
1966
1965
1965
1965
1966
1966
1966
1966
1963
1963
1963
1963
1963
1963
1973
1973
1973
1963
1963
1963
1967
1967
1967
1967
1963
1963
1963
1962
1962
1962
1967
1967
1967
1964
1964
1964
1967
1967
1967
1967
1967
1967
1967
1964
1964
1964
1968
1968
1968
1964
1964
1964
1967
1967
1967
1967
1967
1967
1967
1962
1962
1962
1966
1966
1966
1965
1965
1965
1963
1963
1963
1963
1964
1964
1964
1966
1966
1966
1968
1968
1968
1959
1959
1959
1967
1967
1967
1967
1967
1967
1967
1965
1965
1965
1967
1967
1967
1964
1964
1964
1964
1964
1964
1964
1968
1968
1968
1962
1962
1962
1965
1965
1965
1964
1964
1964
1968
1968
1968
1968
1968
1968
1968
1963
1963
1963
1968
1968
1968
1965
1965
1965
1959
1959
1959
1959
1967
1967
1967
1957
1957
1957
1973
1973
1973
1964
1964
1964
1969
1969
1969
1969
1965
1965
1965
1964
1964
1964
1968
1968
1968
1959
1959
1959
1967
1967
1967
1967
1965
1965
1965
1964
1964
1964
1965
1965
1965
1961
1961
1961
1967
1967
1967
1967
1971
1971
1971
1963
1963
1963
1965
1965
1965
1964
1964
1964
1967
1967
1967
1967
1968
1968
1968
1960
1960
1960
1967
1967
1967
1965
1965
1965
1969
1969
1969
1969
1967
1967
1967
1970
1970
1970
1966
1966
1966
1962
1962
1962
1966
1966
1966
1966
1968
1968
1968
1964
1964
1964
1968
1968
1968
1963
1963
1963
1968
1968
1968
1968
1966
1966
1966
1964
1964
1964
1969
1969
1969
1962
1962
1962
1975
1975
1975
1975
1965
1965
1965
1962
1962
1962
1972
1972
1972
1960
1960
1960
1966
1966
1966
1966
1961
1961
1961
1964
1964
1964
1971
1971
1971
1961
1961
1961
1967
1967
1967
1967
1967
1967
1967
1961
1961
1961
1968
1968
1968
1966
1966
1966
1971
1971
1971
1971
1964
1964
1964
1959
1959
1959
1967
1967
1967
1961
1961
1961
1967
1967
1967
1967
1967
1967
1967
1959
1959
1959
1968
1968
1968
1964
1964
1964
1965
1965
1965
1965
1969
1969
1969
1973
1973
1973
1966
1966
1966
1965
1965
1965
1962
1962
1962
1962
1966
1966
1966
1962
1962
1962
1964
1964
1964
1963
1963
1963
1969
1969
1969
1969
1967
1967
1967
1967
1967
1967
1965
1965
1965
1965
1965
1965
1974
1974
1974
1974
1963
1963
1963
1963
1963
1963
1964
1964
1964
1959
1959
1959
1965
1965
1965
1965
1963
1963
1963
1962
1962
1962
1963
1963
1963
1966
1966
1966
1967
1967
1967
1967
1969
1969
1969
1963
1963
1963
1967
1967
1967
1968
1968
1968
1965
1965
1965
1965
1965
1965
1965
1963
1963
1963
1967
1967
1967
1967
1967
1967
1966
1966
1966
1966
1966
1966
1966
1958
1958
1958
1967
1967
1967
1963
1963
1963
1969
1969
1969
1969
1970
1970
1970
1962
1962
1962
1966
1966
1966
1961
1961
1961
1968
1968
1968
1968
1965
1965
1965
1963
1963
1963
1968
1968
1968
1964
1964
1964
1963
1963
1963
1963
1964
1964
1964
1969
1969
1969
1966
1966
1966
1963
1963
1963
1969
1969
1969
1969
1970
1970
1970
1963
1963
1963
1976
1976
1976
1968
1968
1968
1966
1966
1966
1966
1970
1970
1970
1966
1966
1966
1967
1967
1967
1963
1963
1963
1962
1962
1962
1962
1963
1963
1963
1966
1966
1966
1968
1968
1968
1962
1962
1962
1968
1968
1968
1968
1965
1965
1965
1958
1958
1958
1972
1972
1972
1965
1965
1965
1966
1966
1966
1966
1965
1965
1965
1961
1961
1961
1968
1968
1968
1955
1955
1955
1971
1971
1971
1971
1967
1967
1967
1960
1960
1960
1971
1971
1971
1962
1962
1962
1968
1968
1968
1968
1968
1968
1968
1963
1963
1963
1970
1970
1970
1963
1963
1963
1963
1963
1963
1963
1968
1968
1968
1963
1963
1963
1960
1960
1960
1960
1960
1960
1967
1967
1967
1967
1964
1964
1964
1963
1963
1963
1968
1968
1968
1962
1962
1962
1964
1964
1964
1964
1964
1964
1964
1961
1961
1961
1965
1965
1965
1963
1963
1963
1969
1969
1969
1969
1970
1970
1970
1962
1962
1962
1966
1966
1966
1965
1965
1965
1967
1967
1967
1967
1966
1966
1966
1964
1964
1964
1968
1968
1968
1965
1965
1965
1969
1969
1969
1969
1961
1961
1961
1961
1961
1961
1968
1968
1968
1966
1966
1966
1968
1968
1968
1968
1967
1967
1967
1965
1965
1965
1970
1970
1970
1963
1963
1963
1967
1967
1967
1967
1967
1967
1967
1964
1964
1964
1968
1968
1968
1965
1965
1965
1967
1967
1967
1967
1973
1973
1973
1963
1963
1963
1967
1967
1967
1969
1969
1969
1968
1968
1968
1968
1969
1969
1969
1964
1964
1964
1960
1960
1960
1965
1965
1965
1970
1970
1970
1970
1966
1966
1966
1963
1963
1963
1966
1966
1966
1966
1966
1966
1966
1966
1966
1966
1969
1969
1969
1963
1963
1963
1963
1963
1963
1963
1963
1963
1969
1969
1969
1969
1966
1966
1966
1969
1969
1969
1969
1969
1969
1965
1965
1965
1964
1964
1964
1964
1970
1970
1970
1962
1962
1962
1971
1971
1971
1965
1965
1965
1968
1968
1968
1968
1968
1968
1968
1963
1963
1963
1965
1965
1965
1962
1962
1962
1969
1969
1969
1969
1963
1963
1963
1964
1964
1964
1968
1968
1968
1963
1963
1963
1967
1967
1967
1967
1977
1977
1977
1963
1963
1963
1969
1969
1969
1965
1965
1965
1967
1967
1967
1967
1966
1966
1966
1965
1965
1965
1966
1966
1966
1963
1963
1963
1976
1976
1976
1976
1972
1972
1972
1963
1963
1963
1970
1970
1970
1960
1960
1960
1967
1967
1967
1967
1968
1968
1968
1965
1965
1965
1966
1966
1966
1965
1965
1965
1964
1964
1964
1964
1964
1964
1964
1966
1966
1966
1969
1969
1969
1964
1964
1964
1967
1967
1967
1967
1967
1967
1967
1960
1960
1960
1968
1968
1968
1963
1963
1963
1969
1969
1969
1969
1967
1967
1967
1967
1967
1967
1968
1968
1968
1965
1965
1965
1967
1967
1967
1967
1971
1971
1971
1965
1965
1965
1961
1961
1961
1966
1966
1966
1968
1968
1968
1968
1970
1970
1970
1968
1968
1968
1962
1962
1962
1958
1958
1958
1972
1972
1972
1972
1960
1960
1960
1962
1962
1962
1970
1970
1970
1964
1964
1964
1965
1965
1965
1965
1966
1966
1966
1961
1961
1961
1962
1962
1962
1963
1963
1963
1966
1966
1966
1966
1969
1969
1969
1956
1956
1956
1970
1970
1970
1956
1956
1956
1966
1966
1966
1966
1966
1966
1966
1961
1961
1961
1973
1973
1973
1964
1964
1964
1969
1969
1969
1969
1968
1968
1968
1956
1956
1956
1968
1968
1968
1964
1964
1964
1970
1970
1970
1970
1971
1971
1971
1965
1965
1965
1967
1967
1967
1961
1961
1961
1967
1967
1967
1967
1967
1967
1967
1962
1962
1962
1970
1970
1970
1964
1964
1964
1971
1971
1971
1971
1966
1966
1966
1963
1963
1963
1969
1969
1969
1961
1961
1961
1966
1966
1966
1966
1971
1971
1971
1962
1962
1962
1969
1969
1969
1964
1964
1964
1965
1965
1965
1965
1965
1965
1965
1959
1959
1959
1968
1968
1968
1961
1961
1961
1968
1968
1968
1968
1965
1965
1965
1967
1967
1967
1970
1970
1970
1963
1963
1963
1968
1968
1968
1968
1969
1969
1969
1957
1957
1957
1972
1972
1972
1963
1963
1963
1962
1962
1962
1962
1967
1967
1967
1962
1962
1962
1966
1966
1966
1968
1968
1968
1963
1963
1963
1963
1964
1964
1964
1961
1961
1961
1960
1960
1960
1963
1963
1963
1974
1974
1974
1974
1966
1966
1966
1965
1965
1965
1962
1962
1962
1967
1967
1967
1970
1970
1970
1970
1968
1968
1968
1963
1963
1963
1968
1968
1968
1964
1964
1964
1967
1967
1967
1967
1969
1969
1969
1963
1963
1963
1966
1966
1966
1963
1963
1963
1973
1973
1973
1973
1970
1970
1970
1961
1961
1961
1971
1971
1971
1963
1963
1963
1966
1966
1966
1966
1966
1966
1966
1963
1963
1963
1965
1965
1965
1963
1963
1963
1969
1969
1969
1969
1966
1966
1966
1966
1966
1966
1968
1968
1968
1962
1962
1962
1965
1965
1965
1965
1963
1963
1963
1965
1965
1965
1971
1971
1971
1964
1964
1964
1969
1969
1969
1969
1965
1965
1965
1961
1961
1961
1967
1967
1967
1963
1963
1963
1983
1983
1983
1983
1967
1967
1967
1963
1963
1963
1969
1969
1969
1959
1959
1959
1969
1969
1969
1969
1969
1969
1969
1961
1961
1961
1973
1973
1973
1965
1965
1965
1966
1966
1966
1966
1969
1969
1969
1959
1959
1959
1969
1969
1969
1969
1969
1969
1967
1967
1967
1967
1968
1968
1968
1964
