1929
1929
1929
1928
1928
1928
1922
1922
1922
1922
1922
1922
1926
1926
1926
1924
1924
1924
1924
1927
1927
1927
1921
1921
1921
1923
1923
1923
1930
1930
1930
1927
1927
1927
1927
1925
1925
1925
1925
1925
1925
1925
1925
1925
1924
1924
1924
1926
1926
1926
1926
1923
1923
1923
1925
1925
1925
1928
1928
1928
1922
1922
1922
1931
1931
1931
1931
1915
1915
1915
1922
1922
1922
1926
1926
1926
1925
1925
1925
1932
1932
1932
1932
1925
1925
1925
1922
1922
1922
1930
1930
1930
1920
1920
1920
1924
1924
1924
1924
1927
1927
1927
1924
1924
1924
1931
1931
1931
1926
1926
1926
1922
1922
1922
1922
1932
1932
1932
1924
1924
1924
1929
1929
1929
1924
1924
1924
1927
1927
1927
1927
1925
1925
1925
1922
1922
1922
1922
1922
1922
1925
1925
1925
1927
1927
1927
1927
1926
1926
1926
1921
1921
1921
1926
1926
1926
1922
1922
1922
1921
1921
1921
1921
1933
1933
1933
1918
1918
1918
1928
1928
1928
1922
1922
1922
1925
1925
1925
1925
1930
1930
1930
1923
1923
1923
1925
1925
1925
1925
1925
1925
1926
1926
1926
1926
1932
1932
1932
1922
1922
1922
1927
1927
1927
1923
1923
1923
1925
1925
1925
1925
1925
1925
1925
1927
1927
1927
1925
1925
1925
1924
1924
1924
1927
1927
1927
1927
1927
1927
1927
1921
1921
1921
1931
1931
1931
1926
1926
1926
1926
1926
1926
1926
1928
1928
1928
1922
1922
1922
1932
1932
1932
1928
1928
1928
1929
1929
1929
1929
1925
1925
1925
1921
1921
1921
1921
1921
1921
1924
1924
1924
1927
1927
1927
1927
1931
1931
1931
1918
1918
1918
1923
1923
1923
1924
1924
1924
1927
1927
1927
1927
1928
1928
1928
1925
1925
1925
1926
1926
1926
1918
1918
1918
1921
1921
1921
1921
1922
1922
1922
1919
1919
1919
1927
1927
1927
1924
1924
1924
1921
1921
1921
1921
1926
1926
1926
1919
1919
1919
1923
1923
1923
1923
1923
1923
1924
1924
1924
1924
1931
1931
1931
1921
1921
1921
1927
1927
1927
1919
1919
1919
1928
1928
1928
1928
1926
1926
1926
1921
1921
1921
1928
1928
1928
1927
1927
1927
1929
1929
1929
1929
1924
1924
1924
1923
1923
1923
1929
1929
1929
1922
1922
1922
1920
1920
1920
1920
1924
1924
1924
1922
1922
1922
1925
1925
1925
1924
1924
1924
1927
1927
1927
1927
1924
1924
1924
1918
1918
1918
1928
1928
1928
1925
1925
1925
1928
1928
1928
1928
1925
1925
1925
1921
1921
1921
1929
1929
1929
1922
1922
1922
1927
1927
1927
1927
1920
1920
1920
1923
1923
1923
1926
1926
1926
1927
1927
1927
1930
1930
1930
1930
1925
1925
1925
1921
1921
1921
1926
1926
1926
1928
1928
1928
1926
1926
1926
1926
1930
1930
1930
1925
1925
1925
1926
1926
1926
1920
1920
1920
1929
1929
1929
1929
1929
1929
1929
1921
1921
1921
1930
1930
1930
1927
1927
1927
1928
1928
1928
1928
1926
1926
1926
1923
1923
1923
1924
1924
1924
1926
1926
1926
1928
1928
1928
1928
1925
1925
1925
1919
1919
1919
1918
1918
1918
1923
1923
1923
1927
1927
1927
1927
1929
1929
1929
1922
1922
1922
1931
1931
1931
1924
1924
1924
1928
1928
1928
1928
1925
1925
1925
1918
1918
1918
1927
1927
1927
1922
1922
1922
1921
1921
1921
1921
1922
1922
1922
1916
1916
1916
1926
1926
1926
1924
1924
1924
1924
1924
1924
1924
1926
1926
1926
1922
1922
1922
1925
1925
1925
1927
1927
1927
1933
1933
1933
1933
1918
1918
1918
1923
1923
1923
1927
1927
1927
1924
1924
1924
1928
1928
1928
1928
1924
1924
1924
1926
1926
1926
1929
1929
1929
1919
1919
1919
1926
1926
1926
1926
1927
1927
1927
1922
1922
1922
1929
1929
1929
1923
1923
1923
1927
1927
1927
1927
1927
1927
1927
1922
1922
1922
1934
1934
1934
1924
1924
1924
1925
1925
1925
1925
1927
1927
1927
1920
1920
1920
1928
1928
1928
1925
1925
1925
1928
1928
1928
1928
1926
1926
1926
1923
1923
1923
1926
1926
1926
1922
1922
1922
1928
1928
1928
1928
1927
1927
1927
1922
1922
1922
1924
1924
1924
1922
1922
1922
1925
1925
1925
1925
1925
1925
1925
1922
1922
1922
1926
1926
1926
1926
1926
1926
1926
1926
1926
1926
1925
1925
1925
1923
1923
1923
1925
1925
1925
1920
1920
1920
1925
1925
1925
1925
1924
1924
1924
1920
1920
1920
1927
1927
1927
1921
1921
1921
1920
1920
1920
1920
1926
1926
1926
1921
1921
1921
1923
1923
1923
1923
1923
1923
1927
1927
1927
1927
1927
1927
1927
1924
1924
1924
1930
1930
1930
1924
1924
1924
1925
1925
1925
1925
1925
1925
1925
1925
1925
1925
1929
1929
1929
1924
1924
1924
1928
1928
1928
1928
1927
1927
1927
1924
1924
1924
1923
1923
1923
1922
1922
1922
1927
1927
1927
1927
1927
1927
1927
1927
1927
1927
1927
1927
1927
1924
1924
1924
1928
1928
1928
1928
1925
1925
1925
1923
1923
1923
1928
1928
1928
1923
1923
1923
1926
1926
1926
1926
1925
1925
1925
1922
1922
1922
1930
1930
1930
1920
1920
1920
1929
1929
1929
1929
1929
1929
1929
1920
1920
1920
1927
1927
1927
1919
1919
1919
1926
1926
1926
1926
1925
1925
1925
1929
1929
1929
1927
1927
1927
1924
1924
1924
1926
1926
1926
1926
1924
1924
1924
1923
1923
1923
1926
1926
1926
1923
1923
1923
1927
1927
1927
1927
1927
1927
1927
1924
1924
1924
1926
1926
1926
1923
1923
1923
1926
1926
1926
1926
1927
1927
1927
1921
1921
1921
1926
1926
1926
1924
1924
1924
1919
1919
1919
1919
1929
1929
1929
1918
1918
1918
1930
1930
1930
1921
1921
1921
1925
1925
1925
1925
1924
1924
1924
1921
1921
1921
1926
1926
1926
1929
1929
1929
1922
1922
1922
1922
1923
1923
1923
1921
1921
1921
1930
1930
1930
1920
1920
1920
1927
1927
1927
1927
1928
1928
1928
1921
1921
1921
1924
1924
1924
1920
1920
1920
1926
1926
1926
1926
1921
1921
1921
1922
1922
1922
1925
1925
1925
1924
1924
1924
1926
1926
1926
1926
1926
1926
1926
1918
1918
1918
1931
1931
1931
1925
1925
1925
1928
1928
1928
1928
1927
1927
1927
1916
1916
1916
1928
1928
1928
1924
1924
1924
1929
1929
1929
1929
1927
1927
1927
1926
1926
1926
1923
1923
1923
1925
1925
1925
1924
1924
1924
1924
1921
1921
1921
1920
1920
1920
1928
1928
1928
1923
1923
1923
1925
1925
1925
1925
1922
1922
1922
1923
1923
1923
1926
1926
1926
1920
1920
1920
1927
1927
1927
1927
1921
1921
1921
1922
1922
1922
1927
1927
1927
1921
1921
1921
1921
1921
1921
1921
1926
1926
1926
1921
1921
1921
1927
1927
1927
1920
1920
1920
1927
1927
1927
1927
1925
1925
1925
1922
1922
1922
1935
1935
1935
1923
1923
1923
1929
1929
1929
1929
1926
1926
1926
1923
1923
1923
1931
1931
1931
1924
1924
1924
1924
1924
1924
1924
1927
1927
1927
1920
1920
1920
1919
1919
1919
1921
1921
1921
1928
1928
1928
1928
1924
1924
1924
1921
1921
1921
1926
1926
1926
1924
1924
1924
1929
1929
1929
1929
1925
1925
1925
1921
1921
1921
1924
1924
1924
1922
1922
1922
1926
1926
1926
1926
1929
1929
1929
1922
1922
1922
1923
1923
1923
1923
1923
1923
1929
1929
1929
1929
1927
1927
1927
1924
1924
1924
1928
1928
1928
1916
1916
1916
1928
1928
1928
1928
1927
1927
1927
1925
1925
1925
1924
1924
1924
1920
1920
1920
1927
1927
1927
1927
1924
1924
1924
1919
1919
1919
1923
1923
1923
1922
1922
1922
1925
1925
1925
1925
1917
1917
1917
1922
1922
1922
1930
1930
1930
1922
1922
1922
1926
1926
1926
1926
1926
1926
1926
1920
1920
1920
1923
1923
1923
1920
1920
1920
1923
1923
1923
1923
1925
1925
1925
1926
1926
1926
1927
1927
1927
1922
1922
1922
1923
1923
1923
1923
1938
1938
1938
1919
1919
1919
1926
1926
1926
1922
1922
1922
1920
1920
1920
1920
1929
1929
1929
1917
1917
1917
1927
1927
1927
1926
1926
1926
1927
1927
1927
1927
1927
1927
1927
1922
1922
1922
1929
1929
1929
1926
1926
1926
1932
1932
1932
1932
1931
1931
1931
1924
1924
1924
1931
1931
1931
1923
1923
1923
1928
1928
1928
1928
1926
1926
1926
1922
1922
1922
1933
1933
1933
1917
1917
1917
1928
1928
1928
1928
1926
1926
1926
1926
1926
1926
1924
1924
1924
1923
1923
1923
1925
1925
1925
1925
1926
1926
1926
1929
1929
1929
1922
1922
1922
1923
1923
1923
1926
1926
1926
1926
1924
1924
1924
1920
1920
1920
1925
1925
1925
1921
1921
1921
1926
1926
1926
1926
1922
1922
1922
1922
1922
1922
1926
1926
1926
1926
1926
1926
1925
1925
1925
1925
1927
1927
1927
1925
1925
1925
1924
1924
1924
1929
1929
1929
1924
1924
1924
1924
1929
1929
1929
1923
1923
1923
1927
1927
1927
1916
1916
1916
1926
1926
1926
1926
1926
1926
1926
1930
1930
1930
1930
1930
1930
1923
1923
1923
1924
1924
1924
1924
1926
1926
1926
1921
1921
1921
1928
1928
1928
1925
1925
1925
1929
1929
1929
1929
1923
1923
1923
1924
1924
1924
1926
1926
1926
1921
1921
1921
1928
1928
1928
1928
1923
1923
1923
1925
1925
1925
1927
1927
1927
1926
1926
1926
1926
1926
1926
1926
1931
1931
1931
1924
1924
1924
1931
1931
1931
1926
1926
1926
1932
1932
1932
1932
1920
1920
1920
1922
1922
1922
1924
1924
1924
1920
1920
1920
1926
1926
1926
1926
1929
1929
1929
1925
1925
1925
1928
1928
1928
1927
1927
1927
1925
1925
1925
1925
1927
1927
1927
1925
1925
1925
1926
1926
1926
1924
1924
1924
1923
1923
1923
1923
1922
1922
1922
1921
1921
1921
1924
1924
1924
1923
1923
1923
1928
1928
1928
1928
1924
1924
1924
1922
1922
1922
1925
1925
1925
1926
1926
1926
1927
1927
1927
1927
1926
1926
1926
1922
1922
1922
1926
1926
1926
1924
1924
1924
1924
1924
1924
1924
1928
1928
1928
1924
1924
1924
1924
1924
1924
1925
1925
1925
1928
1928
1928
1928
1929
1929
1929
1924
1924
1924
1927
1927
1927
1923
1923
1923
1928
1928
1928
1928
1928
1928
1928
1915
1915
1915
1929
1929
1929
1927
1927
1927
1921
1921
1921
1921
1926
1926
1926
1923
1923
1923
1924
1924
1924
1927
1927
1927
1925
1925
1925
1925
1927
1927
1927
1923
1923
1923
1932
1932
1932
1927
1927
1927
1928
1928
1928
1928
1927
1927
1927
1919
1919
1919
1927
1927
1927
1922
1922
1922
1927
1927
1927
1927
1926
1926
1926
1925
1925
1925
1922
1922
1922
1926
1926
1926
1927
1927
1927
1927
1923
1923
1923
1925
1925
1925
1927
1927
1927
1926
1926
1926
1926
1926
1926
1926
1931
1931
1931
1921
1921
1921
1925
1925
1925
1924
1924
1924
1927
1927
1927
1927
1924
1924
1924
1923
1923
1923
1924
1924
1924
1922
1922
1922
1931
1931
1931
1931
1930
1930
1930
1921
1921
1921
1924
1924
1924
1926
1926
1926
1926
1926
1926
1926
1926
1926
1926
1924
1924
1924
1929
1929
1929
1924
1924
1924
1925
1925
1925
1925
1926
1926
1926
1925
1925
1925
1932
1932
1932
1923
1923
1923
1928
1928
1928
1928
1921
1921
1921
1922
1922
1922
1929
1929
1929
1923
1923
1923
1928
1928
1928
1928
1929
1929
1929
1925
1925
1925
1925
1925
1925
1925
1925
1925
1930
1930
1930
1930
1927
1927
1927
1926
1926
1926
1927
1927
1927
1921
1921
1921
1922
1922
1922
1922
1925
1925
1925
1919
1919
1919
1929
1929
1929
1924
1924
1924
1924
1924
1924
1924
1922
1922
1922
1922
1922
1922
1928
1928
1928
1924
1924
1924
1926
1926
1926
1926
1926
1926
1926
1922
1922
1922
1927
1927
1927
1925
1925
1925
1927
1927
1927
1927
1925
1925
1925
1922
1922
1922
1930
1930
1930
1927
1927
1927
1926
1926
1926
1926
1929
1929
1929
1922
1922
1922
1923
1923
1923
1922
1922
1922
1925
1925
1925
1925
1924
1924
1924
1924
1924
1924
1925
1925
1925
1923
1923
1923
1926
1926
1926
1926
1928
1928
1928
1917
1917
1917
1927
1927
1927
1923
1923
1923
1928
1928
1928
1928
1930
1930
1930
1917
1917
1917
1930
1930
1930
1923
1923
1923
1929
1929
1929
1929
1925
1925
1925
1924
1924
1924
1928
1928
1928
1921
1921
1921
1922
1922
1922
1922
1928
1928
1928
1924
1924
1924
1927
1927
1927
1918
1918
1918
1927
1927
1927
1927
1926
1926
1926
1923
1923
1923
1924
1924
1924
1927
1927
1927
1926
1926
1926
1926
1931
1931
1931
1915
1915
1915
1922
1922
1922
1922
1922
1922
1926
1926
1926
1926
1925
1925
1925
1919
1919
1919
1925
1925
1925
1924
1924
1924
1924
1924
1924
1924
1924
1924
1924
1918
1918
1918
1930
1930
1930
1925
1925
1925
1920
1920
1920
1920
1923
1923
1923
1922
1922
1922
1937
1937
1937
1925
1925
1925
1927
1927
1927
1927
1929
1929
1929
1921
1921
1921
1926
1926
1926
1929
1929
1929
1923
1923
1923
1923
1929
1929
1929
1923
1923
1923
1927
1927
1927
1925
1925
1925
1928
1928
1928
1928
1925
1925
1925
1921
1921
1921
1926
1926
1926
1925
1925
1925
1928
1928
1928
1928
1925
1925
1925
1920
1920
1920
1929
1929
1929
1929
1929
1929
1924
1924
1924
1924
1925
1925
1925
1926
1926
1926
1927
1927
1927
1926
1926
1926
1927
1927
1927
1927
1925
1925
1925
1925
1925
1925
1920
1920
1920
1925
1925
1925
1929
1929
1929
1929
1932
1932
1932
1920
1920
1920
1927
1927
1927
1925
1925
1925
1926
1926
1926
1926
1929
1929
1929
1930
1930
1930
1924
1924
1924
1932
1932
1932
1922
1922
1922
1922
1923
1923
1923
1921
1921
1921
1925
1925
1925
1922
1922
1922
1921
1921
1921
1921
1926
1926
1926
1920
1920
1920
1927
1927
1927
1923
1923
1923
1924
1924
1924
1924
1930
1930
1930
1920
1920
1920
1925
1925
1925
1926
1926
1926
1928
1928
1928
1928
1926
1926
1926
1919
1919
1919
1928
1928
1928
1927
1927
1927
1925
1925
1925
1925
1928
1928
1928
1923
1923
1923
1930
1930
1930
1922
1922
1922
1929
1929
1929
1929
1927
1927
1927
1920
1920
1920
1922
1922
1922
1924
1924
1924
1925
1925
1925
1925
1928
1928
1928
1918
1918
1918
1927
1927
1927
1922
1922
1922
1924
1924
1924
1924
1924
1924
1924
1918
1918
1918
1926
1926
1926
1921
1921
1921
1923
1923
1923
1923
1933
1933
1933
1923
1923
1923
1927
1927
1927
1923
1923
1923
1923
1923
1923
1923
1920
1920
1920
1919
1919
1919
1926
1926
1926
1919
1919
1919
1927
1927
1927
1927
1927
1927
1927
1920
1920
1920
1928
1928
1928
1920
1920
1920
1925
1925
1925
1925
1923
1923
1923
1922
1922
1922
1921
1921
1921
1922
1922
1922
1926
1926
1926
1926
1926
1926
1926
1922
1922
1922
1932
1932
1932
1916
1916
1916
1927
1927
1927
1927
1928
1928
1928
1923
1923
1923
1930
1930
1930
1923
1923
1923
1925
1925
1925
1925
1927
1927
1927
1919
1919
1919
1924
1924
1924
1926
1926
1926
1928
1928
1928
1928
1926
1926
1926
1920
1920
1920
1927
1927
1927
1930
1930
1930
1929
1929
1929
1929
1925
1925
1925
1921
1921
1921
1916
1916
1916
1920
1920
1920
1922
1922
1922
1922
1930
1930
1930
1923
1923
1923
1924
1924
1924
1924
1924
1924
1927
1927
1927
1927
1928
1928
1928
1922
1922
1922
1926
1926
1926
1922
1922
1922
1926
1926
1926
1926
1926
1926
1926
1918
1918
1918
1925
1925
1925
1918
1918
1918
1925
1925
1925
1925
1925
1925
1925
1922
1922
1922
1924
1924
1924
1923
1923
1923
1926
1926
1926
1926
1931
1931
1931
1926
1926
1926
1923
1923
1923
1920
1920
1920
1926
1926
1926
1926
1925
1925
1925
1929
1929
1929
1925
1925
1925
1919
1919
1919
1928
1928
1928
1928
1923
1923
1923
1911
1911
1911
1928
1928
1928
1923
1923
1923
1925
1925
1925
1925
1922
1922
1922
1925
1925
1925
1929
1929
1929
1923
1923
1923
1925
1925
1925
1925
1926
1926
1926
1923
1923
1923
1927
1927
1927
1925
1925
1925
1928
1928
1928
1928
1926
1926
1926
1924
1924
1924
1927
1927
1927
1922
1922
1922
1929
1929
1929
1929
1925
1925
1925
1922
1922
1922
1926
1926
1926
1919
1919
1919
1923
1923
1923
1923
1932
1932
1932
1922
1922
1922
1929
1929
1929
1924
1924
1924
1927
1927
1927
1927
1924
1924
1924
1925
1925
1925
1924
1924
1924
1921
1921
1921
1926
1926
1926
1926
1925
1925
1925
1925
1925
1925
1926
1926
1926
1924
1924
1924
1924
1924
1924
1924
1923
1923
1923
1924
1924
1924
1932
1932
1932
1925
1925
1925
1926
1926
1926
1926
1926
1926
1926
1915
1915
1915
1927
1927
1927
1923
1923
1923
1925
1925
1925
1925
1926
1926
1926
1919
1919
1919
1926
1926
1926
1926
1926
1926
1934
1934
1934
1934
1929
1929
1929
1922
1922
1922
1927
1927
1927
1926
1926
1926
1921
1921
1921
1921
1928
1928
1928
1923
1923
1923
1926
1926
1926
1926
1926
1926
1927
1927
1927
1927
1926
1926
1926
1919
1919
1919
1923
1923
1923
1928
1928
1928
1928
1928
1928
1928
1927
1927
1927
1920
1920
1920
1922
1922
1922
1925
1925
1925
1928
1928
1928
1928
1928
1928
1928
1921
1921
1921
1935
1935
1935
1925
1925
1925
1925
1925
1925
1925
1926
1926
1926
1920
1920
1920
1925
1925
1925
1927
1927
1927
1927
1927
1927
1927
1927
1927
1927
1924
1924
1924
1926
1926
1926
1925
1925
1925
1923
1923
1923
1923
1930
1930
1930
1918
1918
1918
1919
1919
1919
1927
1927
1927
1934
1934
1934
1934
1927
1927
1927
1921
1921
1921
1930
1930
1930
1919
1919
1919
1925
1925
1925
1925
1919
1919
1919
1917
1917
1917
1927
1927
1927
1927
1927
1927
1926
1926
1926
1926
1928
1928
1928
1923
1923
1923
1923
1923
1923
1928
1928
1928
1928
1928
1928
1928
1921
1921
1921
1923
1923
1923
1925
1925
1925
1925
1925
1925
1926
1926
1926
1926
1927
1927
1927
1926
1926
1926
1923
1923
1923
1931
1931
1931
1926
1926
1926
1926
1926
1926
1926
1920
1920
1920
1927
1927
1927
1923
1923
1923
1927
1927
1927
1927
1927
1927
1927
1914
1914
1914
1927
1927
1927
1925
1925
1925
1931
1931
1931
1931
1924
1924
1924
1923
1923
1923
1928
1928
1928
1921
1921
1921
1933
1933
1933
1933
1929
1929
1929
1921
1921
1921
1932
1932
1932
1924
1924
1924
1927
1927
1927
1927
1929
1929
1929
1920
1920
1920
1927
1927
1927
1921
1921
1921
1928
1928
1928
1928
1927
1927
1927
1922
1922
1922
1927
1927
1927
1921
1921
1921
1923
1923
1923
1923
1923
1923
1923
1928
1928
1928
1926
1926
1926
1928
1928
1928
1925
1925
1925
1925
1927
1927
1927
1921
1921
1921
1923
1923
1923
1925
1925
1925
1928
1928
1928
1928
1927
1927
1927
1921
1921
1921
1924
1924
1924
1927
1927
1927
1923
1923
1923
1923
1924
1924
1924
1923
1923
1923
1924
1924
1924
1924
1924
1924
1927
1927
1927
1927
1926
1926
1926
1924
1924
1924
1925
1925
1925
1923
1923
1923
1929
1929
1929
1929
1927
1927
1927
1917
1917
1917
1924
1924
1924
1925
1925
1925
1929
1929
1929
1929
1929
1929
1929
1916
1916
1916
1924
1924
1924
1925
1925
1925
1928
1928
1928
1928
1932
1932
1932
1925
1925
1925
1926
1926
1926
1925
1925
1925
1923
1923
1923
1923
1924
1924
1924
1921
1921
1921
1925
1925
1925
1927
1927
1927
1925
1925
1925
1925
1925
1925
1925
1920
1920
1920
1925
1925
1925
1919
1919
1919
1925
1925
1925
1925
1926
1926
1926
1921
1921
1921
1927
1927
1927
1924
1924
1924
1927
1927
1927
1927
1927
1927
1927
1919
1919
1919
1930
1930
1930
1925
1925
1925
1929
1929
1929
1929
1924
1924
1924
1919
1919
1919
1921
1921
1921
1924
1924
1924
1934
1934
1934
1934
1920
1920
1920
1924
1924
1924
1922
1922
1922
1923
1923
1923
1928
1928
1928
1928
1926
1926
1926
1932
1932
1932
1926
1926
1926
1921
1921
1921
1929
1929
1929
1929
1927
1927
1927
1928
1928
1928
1925
1925
1925
1928
1928
1928
1926
1926
1926
1926
1920
1920
1920
1922
1922
1922
1929
1929
1929
1925
1925
1925
1932
1932
1932
1932
1925
1925
1925
1922
1922
1922
1927
1927
1927
1917
1917
1917
1924
1924
1924
1924
1923
1923
1923
1921
1921
1921
1928
1928
1928
1925
1925
1925
1927
1927
1927
1927
1925
1925
1925
1921
1921
1921
1929
1929
1929
1926
1926
1926
1931
1931
1931
1931
1929
1929
1929
1923
1923
1923
1925
1925
1925
1922
1922
1922
1925
1925
1925
1925
1928
1928
1928
1918
1918
1918
1924
1924
1924
1919
1919
1919
1926
1926
1926
1926
1926
1926
1926
1918
1918
1918
1928
1928
1928
1923
1923
1923
1929
1929
1929
1929
1927
1927
1927
1922
1922
1922
1927
1927
1927
1921
1921
1921
1931
1931
1931
1931
1928
1928
1928
1924
1924
1924
1926
1926
1926
1924
1924
1924
1921
1921
1921
1921
1927
1927
1927
1919
1919
1919
1927
1927
1927
1922
1922
1922
1930
1930
1930
1930
1926
1926
1926
1919
1919
1919
1926
1926
1926
1920
1920
1920
1931
1931
1931
1931
1932
1932
1932
1919
1919
1919
1928
1928
1928
1930
1930
1930
1925
1925
1925
1925
1928
1928
1928
1923
1923
1923
1925
1925
1925
1936
1936
1936
1927
1927
1927
1927
1926
1926
1926
1918
1918
1918
1923
1923
1923
1925
1925
1925
1924
1924
1924
1924
1929
1929
1929
1922
1922
1922
1919
1919
1919
1925
1925
1925
1927
1927
1927
1927
1928
1928
1928
1917
1917
1917
1928
1928
1928
1915
1915
1915
1925
1925
1925
1925
1926
1926
1926
1921
1921
1921
1928
1928
1928
1924
1924
1924
1927
1927
1927
1927
1925
1925
1925
1923
1923
1923
1927
1927
1927
1923
1923
1923
1921
1921
1921
1921
1927
1927
1927
1926
1926
1926
1926
1926
1926
1922
1922
1922
1925
1925
1925
1925
1931
1931
1931
1922
1922
1922
1923
1923
1923
1914
1914
1914
1927
1927
1927
1927
1924
1924
1924
1922
1922
1922
1925
1925
1925
1925
1925
1925
1921
1921
1921
1921
1923
1923
1923
1922
1922
1922
1929
1929
1929
1927
1927
1927
1925
1925
1925
1925
1926
1926
1926
1922
1922
1922
1924
1924
1924
1919
1919
1919
1929
1929
1929
1929
1927
1927
1927
1932
1932
1932
1929
1929
1929
1925
1925
1925
1924
1924
1924
1924
1925
1925
1925
1926
1926
1926
1924
1924
1924
1923
1923
1923
1928
1928
1928
1928
1927
1927
1927
1924
1924
1924
1927
1927
1927
1922
1922
1922
1926
1926
1926
1926
1927
1927
1927
1926
1926
1926
1928
1928
1928
1924
1924
1924
1926
1926
1926
1926
1923
1923
1923
1924
1924
1924
1923
1923
1923
1922
1922
1922
1931
1931
1931
1931
1925
1925
1925
1924
1924
1924
1926
1926
1926
1920
1920
1920
1932
1932
1932
1932
1928
1928
1928
1922
1922
1922
1927
1927
1927
1918
1918
1918
1926
1926
1926
1926
1924
1924
1924
1929
1929
1929
1927
1927
1927
1920
1920
1920
1929
1929
1929
1929
1925
1925
1925
1923
1923
1923
1929
1929
1929
1924
1924
1924
1927
1927
1927
1927
1926
1926
1926
1923
1923
1923
1931
1931
1931
1923
1923
1923
1927
1927
1927
1927
1926
1926
1926
1926
1926
1926
1926
1926
1926
1919
1919
1919
1928
1928
1928
1928
1926
1926
1926
1920
1920
1920
1922
1922
1922
1925
1925
1925
1927
1927
1927
1927
1922
1922
1922
1919
1919
1919
1926
1926
1926
1924
1924
1924
1927
1927
1927
1927
1926
1926
1926
1917
1917
1917
1927
1927
1927
1922
1922
1922
1927
1927
1927
1927
1929
1929
1929
1920
1920
1920
1927
1927
1927
1923
1923
1923
1923
1923
1923
1923
1931
1931
1931
1920
1920
1920
1927
1927
1927
1925
1925
1925
1925
1925
1925
1925
1922
1922
1922
1922
1922
1922
1928
1928
1928
1929
1929
1929
1930
1930
1930
1930
1922
1922
1922
1917
1917
1917
1927
1927
1927
1917
1917
1917
1924
1924
1924
1924
1926
1926
1926
1922
1922
1922
1931
1931
1931
1923
1923
1923
1927
1927
1927
1927
1927
1927
1927
1923
1923
1923
1926
1926
1926
1920
1920
1920
1928
1928
1928
1928
1924
1924
1924
1921
1921
1921
1926
1926
1926
1921
1921
1921
1925
1925
1925
1925
1926
1926
1926
1924
1924
1924
1930
1930
1930
1923
1923
1923
1927
1927
1927
1927
1926
1926
1926
1921
1921
1921
1924
1924
1924
1924
1924
1924
1920
1920
1920
1920
1920
1920
1920
1926
1926
1926
1927
1927
1927
1922
1922
1922
1927
1927
1927
1927
1921
1921
1921
1921
1921
1921
1931
1931
1931
1927
1927
1927
1923
1923
1923
1923
1928
1928
1928
1922
1922
1922
1927
1927
1927
1927
1927
1927
1926
1926
1926
1926
1925
1925
1925
1922
1922
1922
1926
1926
1926
1918
1918
1918
1928
1928
1928
1928
1924
1924
1924
1921
1921
1921
1926
1926
1926
1921
1921
1921
1926
1926
1926
1926
1925
1925
1925
1921
1921
1921
1924
1924
1924
1926
1926
1926
1926
1926
1926
1926
1924
1924
1924
1924
1924
1924
1921
1921
1921
1924
1924
1924
1934
1934
1934
1934
1925
1925
1925
1926
1926
1926
1922
1922
1922
1923
1923
1923
1926
1926
1926
1926
1926
1926
1926
1927
1927
1927
1928
1928
1928
1921
1921
1921
1927
1927
1927
1927
1925
1925
1925
1923
1923
1923
1927
1927
1927
1922
1922
1922
1927
1927
1927
1927
1924
1924
1924
1918
1918
1918
1928
1928
1928
1923
1923
1923
1925
1925
1925
1925
1928
1928
1928
1917
1917
1917
1925
1925
1925
1919
1919
1919
1927
1927
1927
1927
1926
1926
1926
1921
1921
1921
1928
1928
1928
1925
1925
1925
1926
1926
1926
1926
1918
1918
1918
1923
1923
1923
1928
1928
1928
1927
1927
1927
1926
1926
1926
1926
1928
1928
1928
1921
1921
1921
1932
1932
1932
1920
1920
1920
1926
1926
1926
1926
1926
1926
1926
1923
1923
1923
1929
1929
1929
1921
1921
1921
1933
1933
1933
1933
1926
1926
1926
1922
1922
1922
1927
1927
1927
1922
1922
1922
1928
1928
1928
1928
1925
1925
1925
1921
1921
1921
1923
1923
1923
1923
1923
1923
1924
1924
1924
1924
1926
1926
1926
1922
1922
1922
1925
1925
1925
1927
1927
1927
1925
1925
1925
1925
1925
1925
1925
1925
1925
1925
1928
1928
1928
1925
1925
1925
1927
1927
1927
1927
1926
1926
1926
1919
1919
1919
1924
1924
1924
1924
1924
1924
1924
1924
1924
1924
1922
1922
1922
1919
1919
1919
1925
1925
1925
1925
1925
1925
1929
1929
1929
1929
1926
1926
1926
1924
1924
1924
1926
1926
1926
1931
1931
1931
1927
1927
1927
1927
1933
1933
1933
1921
1921
1921
1927
1927
1927
1923
1923
1923
1927
1927
1927
1927
1928
1928
1928
1921
1921
1921
1925
1925
1925
1921
1921
1921
1925
1925
1925
1925
1923
1923
1923
1920
1920
1920
1925
1925
1925
1924
1924
1924
1928
1928
1928
1928
1925
1925
1925
1918
1918
1918
1920
1920
1920
1926
1926
1926
1926
1926
1926
1926
1927
1927
1927
1921
1921
1921
1933
1933
1933
1924
1924
1924
1925
1925
1925
1925
1927
1927
1927
1924
1924
1924
1929
1929
1929
1925
1925
1925
1929
1929
1929
1929
1928
1928
1928
1917
1917
1917
1928
1928
1928
1924
1924
1924
1928
1928
1928
1928
1928
1928
1928
1922
1922
1922
1927
1927
1927
1924
1924
1924
1922
1922
1922
1922
1925
1925
1925
1921
1921
1921
1929
1929
1929
1923
1923
1923
1930
1930
1930
1930
1928
1928
1928
1924
1924
1924
1927
1927
1927
1925
1925
1925
1926
1926
1926
1926
1929
1929
1929
1924
1924
1924
1924
1924
1924
1928
1928
1928
1922
1922
1922
1922
1931
1931
1931
1923
1923
1923
1924
1924
1924
1926
1926
1926
1924
1924
1924
1924
1923
1923
1923
1923
1923
1923
1923
1923
1923
1930
1930
1930
1929
1929
1929
1929
1924
1924
1924
1920
1920
1920
1922
1922
1922
1922
1922
1922
1926
1926
1926
1926
1927
1927
1927
1929
1929
1929
1926
1926
1926
1929
1929
1929
1925
1925
1925
1925
1924
1924
1924
1924
1924
1924
1936
1936
1936
1923
1923
1923
1927
1927
1927
1927
1923
1923
1923
1917
1917
1917
1927
1927
1927
1926
1926
1926
1927
1927
1927
1927
1926
1926
1926
1922
1922
1922
1927
1927
1927
1926
1926
1926
1926
1926
1926
1926
1928
1928
1928
1926
1926
1926
1927
1927
1927
1925
1925
1925
1922
1922
1922
1922
1923
1923
1923
1921
1921
1921
1925
1925
1925
1923
1923
1923
1924
1924
1924
1924
1925
1925
1925
1924
1924
1924
1927
1927
1927
1925
1925
1925
1930
1930
1930
1930
1931
1931
1931
1925
1925
1925
1926
1926
1926
1935
1935
1935
1930
1930
1930
1930
1926
1926
1926
1921
1921
1921
1925
1925
1925
1927
1927
1927
1926
1926
1926
1926
1923
1923
1923
1923
1923
1923
1927
1927
1927
1923
1923
1923
1928
1928
1928
1928
1927
1927
1927
1921
1921
1921
1923
1923
1923
1924
1924
1924
1925
1925
1925
1925
1925
1925
1925
1928
1928
1928
1923
1923
1923
1922
1922
1922
1927
1927
1927
1927
1927
1927
1927
1923
1923
1923
1924
1924
1924
1923
1923
1923
1926
1926
1926
1926
1924
1924
1924
1925
1925
1925
1923
1923
1923
1924
1924
1924
1924
1924
1924
1924
1927
1927
1927
1925
1925
1925
1926
1926
1926
1914
1914
1914
1930
1930
1930
1930
1927
1927
1927
1919
1919
1919
1927
1927
1927
1922
1922
1922
1921
1921
1921
1921
1925
1925
1925
1919
1919
1919
1925
1925
1925
1921
1921
1921
1923
1923
1923
1923
1929
1929
1929
1920
1920
1920
1926
1926
1926
1924
1924
1924
1928
1928
1928
1928
1919
1919
1919
1925
1925
1925
1927
1927
1927
1926
1926
1926
1925
1925
1925
1925
1921
1921
1921
1918
1918
1918
1926
1926
1926
1920
1920
1920
1929
1929
1929
1929
1930
1930
1930
1923
1923
1923
1930
1930
1930
1926
1926
1926
1927
1927
1927
1927
1923
1923
1923
1923
1923
1923
1924
1924
1924
1918
1918
1918
1927
1927
1927
1927
1925
1925
1925
1925
1925
1925
1930
1930
1930
1927
1927
1927
1927
1927
1927
1927
1926
1926
1926
1923
1923
1923
1927
1927
1927
1925
1925
1925
1920
1920
1920
1920
1927
1927
1927
1920
1920
1920
1930
1930
1930
1924
1924
1924
1927
1927
1927
1927
1926
1926
1926
1929
1929
1929
1926
1926
1926
1923
1923
1923
1926
1926
1926
1926
1927
1927
1927
1929
1929
1929
1926
1926
1926
1927
1927
1927
1925
1925
1925
1925
1929
1929
1929
1923
1923
1923
1927
1927
1927
1923
1923
1923
1931
1931
1931
1931
1922
1922
1922
1925
1925
1925
1926
1926
1926
1923
1923
1923
1923
1923
1923
1923
1924
1924
1924
1918
1918
1918
1928
1928
1928
1920
1920
1920
1929
1929
1929
1929
1929
1929
1929
1923
1923
1923
1924
1924
1924
1925
1925
1925
1927
1927
1927
1927
1931
1931
1931
1925
1925
1925
1928
1928
1928
1926
1926
1926
1924
1924
1924
1924
1925
1925
1925
1921
1921
1921
1928
1928
1928
1920
1920
1920
1927
1927
1927
1927
1925
1925
1925
1920
1920
1920
1927
1927
1927
1925
1925
1925
1926
1926
1926
1926
1924
1924
1924
1923
1923
1923
1925
1925
1925
1929
1929
1929
1927
1927
1927
1927
1926
1926
1926
1920
1920
1920
1924
1924
1924
1920
1920
1920
1928
1928
1928
1928
1917
1917
1917
1922
1922
1922
1929
1929
1929
1921
1921
1921
1927
1927
1927
1927
1925
1925
1925
1926
1926
1926
1927
1927
1927
1926
1926
1926
1927
1927
1927
1927
1925
1925
1925
1923
1923
1923
1928
1928
1928
1927
1927
1927
1926
1926
1926
1926
1925
1925
1925
1920
1920
1920
1930
1930
1930
1920
1920
1920
1927
1927
1927
1927
1926
1926
1926
1922
1922
1922
1926
1926
1926
1922
1922
1922
1926
1926
1926
1926
1925
1925
1925
1924
1924
1924
1921
1921
1921
1927
1927
1927
1925
1925
1925
1925
1937
1937
1937
1921
1921
1921
1921
1921
1921
1927
1927
1927
1926
1926
1926
1926
1925
1925
1925
1920
1920
1920
1924
1924
1924
1925
1925
1925
1928
1928
1928
1928
1926
1926
1926
1926
1926
1926
1922
1922
1922
1925
1925
1925
1928
1928
1928
1928
1924
1924
1924
1923
1923
1923
1925
1925
1925
1925
1925
1925
1927
1927
1927
1927
1925
1925
1925
1924
1924
1924
1924
1924
1924
1925
1925
1925
1924
1924
1924
1924
1924
1924
1924
1919
1919
1919
1926
1926
1926
1922
1922
1922
1927
1927
1927
1927
1919
1919
1919
1919
1919
1919
1931
1931
1931
1922
1922
1922
1927
1927
1927
1927
1923
1923
1923
1918
1918
1918
1922
1922
1922
1922
1922
1922
1925
1925
1925
1925
1925
1925
1925
1923
1923
1923
1925
1925
1925
1925
1925
1925
1928
1928
1928
1928
1925
1925
1925
1924
1924
1924
1927
1927
1927
1923
1923
1923
1927
1927
1927
1927
1926
1926
1926
1920
1920
1920
1925
1925
1925
1911
1911
1911
1935
1935
1935
1935
1922
1922
1922
1921
1921
1921
1922
1922
1922
1924
1924
1924
1926
1926
1926
1926
1926
1926
1926
1924
1924
1924
1924
1924
1924
1919
1919
1919
1926
1926
1926
1926
1927
1927
1927
1917
1917
1917
1927
1927
1927
1926
1926
1926
1926
1926
1926
1926
1925
1925
1925
1923
1923
1923
1922
1922
1922
1924
1924
1924
1922
1922
1922
1922
1927
1927
1927
1924
1924
1924
1918
1918
1918
1924
1924
1924
1926
1926
1926
1926
1925
1925
1925
1922
1922
1922
1923
1923
1923
1924
1924
1924
1930
1930
1930
1930
1925
1925
1925
1921
1921
1921
1923
1923
1923
1921
1921
1921
1928
1928
1928
1928
1927
1927
1927
1924
1924
1924
1921
1921
1921
1935
1935
1935
1924
1924
1924
1924
1926
1926
1926
1921
1921
1921
1921
1921
1921
1925
1925
1925
1925
1925
1925
1925
1927
1927
1927
1922
1922
1922
1926
1926
1926
1923
1923
1923
1927
1927
1927
1927
1922
1922
1922
1925
1925
1925
1928
1928
1928
1925
1925
1925
1929
1929
1929
1929
1925
1925
1925
1922
1922
1922
1925
1925
1925
1924
1924
1924
1926
1926
1926
1926
1923
1923
1923
1922
1922
1922
1924
1924
1924
1922
1922
1922
1923
1923
1923
1923
1927
1927
1927
1920
1920
1920
1927
1927
1927
1926
1926
1926
1929
1929
1929
1929
1928
1928
1928
1924
1924
1924
1932
1932
1932
1924
1924
1924
1931
1931
1931
1931
1926
1926
1926
1925
1925
1925
1928
1928
1928
1925
1925
1925
1926
1926
1926
1926
1926
1926
1926
1921
1921
1921
1930
1930
1930
1922
1922
1922
1927
1927
1927
1927
1923
1923
1923
1923
1923
1923
1923
1923
1923
1924
1924
1924
1925
1925
1925
1925
1926
1926
1926
1918
1918
1918
1923
1923
1923
1924
1924
1924
1925
1925
1925
1925
1924
1924
1924
1923
1923
1923
1924
1924
1924
1923
1923
1923
1925
1925
1925
1925
1927
1927
1927
1923
1923
1923
1920
1920
1920
1925
1925
1925
1930
1930
1930
1930
1925
1925
1925
1923
1923
1923
1933
1933
1933
1925
1925
1925
1924
1924
1924
1924
1919
1919
1919
1923
1923
1923
1924
1924
1924
1921
1921
1921
1923
1923
1923
1923
1926
1926
1926
1922
1922
1922
1924
1924
1924
1922
1922
1922
1925
1925
1925
1925
1927
1927
1927
1917
1917
1917
1924
1924
1924
1920
1920
1920
1926
1926
1926
1926
1922
1922
1922
1924
1924
1924
1927
1927
1927
1922
1922
1922
1922
1922
1922
1922
1928
1928
1928
1922
1922
1922
1927
1927
1927
1923
1923
1923
1921
1921
1921
1921
1923
1923
1923
1923
1923
1923
1934
1934
1934
1924
1924
1924
1927
1927
1927
1927
1921
1921
1921
1917
1917
1917
1925
1925
1925
1920
1920
1920
1931
1931
1931
1931
1926
1926
1926
1923
1923
1923
1927
1927
1927
1919
1919
1919
1927
1927
1927
1927
1926
1926
1926
1922
1922
1922
1928
1928
1928
1919
1919
1919
1928
1928
1928
1928
1925
1925
1925
1925
1925
1925
1926
1926
1926
1923
1923
1923
1928
1928
1928
1928
1926
1926
1926
1920
1920
1920
1921
1921
1921
1921
1921
1921
1927
1927
1927
1927
1924
1924
1924
1922
1922
1922
1925
1925
1925
1923
1923
1923
1925
1925
1925
1925
1924
1924
1924
1921
1921
1921
1929
1929
1929
1922
1922
1922
1925
1925
1925
1925
1928
1928
1928
1921
1921
1921
1927
1927
1927
1925
1925
1925
1927
1927
1927
1927
1930
1930
1930
1933
1933
1933
1927
1927
1927
1923
1923
1923
1934
1934
1934
1934
1930
1930
1930
1923
1923
1923
1925
1925
1925
1925
1925
1925
1922
1922
1922
1922
1921
1921
1921
1917
1917
1917
1931
1931
1931
1920
1920
1920
1924
1924
1924
1924
1928
1928
1928
1926
1926
1926
1929
1929
1929
1920
1920
1920
1929
1929
1929
1929
1923
1923
1923
1925
1925
1925
1925
1925
1925
1926
1926
1926
1926
1926
1926
1926
1925
1925
1925
1923
1923
1923
1921
1921
1921
1919
1919
1919
1927
1927
1927
1927
1928
1928
1928
1925
1925
1925
1932
1932
1932
1924
1924
1924
1922
1922
1922
1922
1925
1925
1925
1924
1924
1924
1919
1919
1919
1927
1927
1927
1920
1920
1920
1920
1921
1921
1921
1921
1921
1921
1923
1923
1923
1925
1925
1925
1924
1924
1924
1924
1925
1925
1925
1924
1924
1924
1926
1926
1926
1924
1924
1924
1927
1927
1927
1927
1927
1927
1927
1921
1921
1921
1925
1925
1925
1925
1925
1925
1922
1922
1922
1922
1924
1924
1924
1935
1935
1935
1923
1923
1923
1925
1925
1925
1922
1922
1922
1922
1925
1925
1925
1923
1923
1923
1928
1928
1928
1921
1921
1921
1930
1930
1930
1930
1925
1925
1925
1922
1922
1922
1928
1928
1928
1925
1925
1925
1932
1932
1932
1932
1932
1932
1932
1919
1919
1919
1923
1923
1923
1924
1924
1924
1922
1922
1922
1922
1924
1924
1924
1915
1915
1915
1927
1927
1927
1920
1920
1920
1927
1927
1927
1927
1926
1926
1926
1923
1923
1923
1928
1928
1928
1929
1929
1929
1927
1927
1927
1927
1925
1925
1925
1924
1924
1924
1933
1933
1933
1922
1922
1922
1927
1927
1927
1927
1925
1925
1925
1921
1921
1921
1928
1928
1928
1921
1921
1921
1924
1924
1924
1924
1924
1924
1924
1923
1923
1923
1928
1928
1928
1923
1923
1923
1920
1920
1920
1920
1923
1923
1923
1921
1921
1921
1925
1925
1925
1921
1921
1921
1927
1927
1927
1927
1929
1929
1929
1920
1920
1920
1925
1925
1925
1916
1916
1916
1925
1925
1925
1925
1929
1929
1929
1919
1919
1919
1928
1928
1928
1919
1919
1919
1926
1926
1926
1926
1922
1922
1922
1921
1921
1921
1927
1927
1927
1922
1922
1922
1922
1922
1922
1922
1922
1922
1922
1921
1921
1921
1927
1927
1927
1923
1923
1923
1929
1929
1929
1929
1928
1928
1928
1917
1917
1917
1925
1925
1925
1923
1923
1923
1925
1925
1925
1925
1922
1922
1922
1927
1927
1927
1926
1926
1926
1920
1920
1920
1924
1924
1924
1924
1928
1928
1928
1927
1927
1927
1924
1924
1924
1926
1926
1926
1927
1927
1927
1927
1924
1924
1924
1922
1922
1922
1922
1922
1922
1922
1922
1922
1927
1927
1927
1927
1929
1929
1929
1922
1922
1922
1926
1926
1926
1923
1923
1923
1928
1928
1928
1928
1924
1924
1924
1925
1925
1925
1922
1922
1922
1919
1919
1919
1930
1930
1930
1930
1920
1920
1920
1922
1922
1922
1922
1922
1922
1921
1921
1921
1926
1926
1926
1926
1916
1916
1916
1922
1922
1922
1924
1924
1924
1916
1916
1916
1924
1924
1924
1924
1926
1926
1926
1923
1923
1923
1925
1925
1925
1921
1921
1921
1927
1927
1927
1927
1924
1924
1924
1921
1921
1921
1927
1927
1927
1925
1925
1925
1921
1921
1921
1921
1928
1928
1928
1920
1920
1920
1926
1926
1926
1923
1923
1923
1925
1925
1925
1925
1923
1923
1923
1927
1927
1927
1928
1928
1928
1923
1923
1923
1926
1926
1926
1926
1924
1924
1924
1921
1921
1921
1927
1927
1927
1922
1922
1922
1928
1928
1928
1928
1925
1925
1925
1922
1922
1922
1927
1927
1927
1921
1921
1921
1926
1926
1926
1926
1926
1926
1926
1923
1923
1923
1931
1931
1931
1924
1924
1924
1924
1924
1924
1924
1927
1927
1927
1922
1922
1922
1928
1928
1928
1928
1928
1928
1926
1926
1926
1926
1926
1926
1926
1923
1923
1923
1926
1926
1926
1919
1919
1919
1925
1925
1925
1925
1926
1926
1926
1921
1921
1921
1933
1933
1933
1923
1923
1923
1933
1933
1933
1933
1931
1931
1931
1920
1920
1920
1928
1928
1928
1921
1921
1921
1928
1928
1928
1928
1922
1922
1922
1924
1924
1924
1925
1925
1925
1923
1923
1923
1929
1929
1929
1929
1925
1925
1925
1923
1923
1923
1927
1927
1927
1919
1919
1919
1924
1924
1924
1924
1925
1925
1925
1922
1922
1922
1926
1926
1926
1919
1919
1919
1925
1925
1925
1925
1925
1925
1925
1918
1918
1918
1928
1928
1928
1921
1921
1921
1925
1925
1925
1925
1926
1926
1926
1919
1919
1919
1924
1924
1924
1920
1920
1920
1924
1924
1924
1924
1925
1925
1925
1920
1920
1920
1931
1931
1931
1927
1927
1927
1929
1929
1929
1929
1926
1926
1926
1919
1919
1919
1927
1927
1927
1923
1923
1923
1922
1922
1922
1922
1925
1925
1925
1923
1923
1923
1924
1924
1924
1923
1923
1923
1921
1921
1921
1921
1922
1922
1922
1925
1925
1925
1926
1926
1926
1918
1918
1918
1928
1928
1928
1928
1927
1927
1927
1920
1920
1920
1927
1927
1927
1920
1920
1920
1927
1927
1927
1927
1926
1926
1926
1918
1918
1918
1928
1928
1928
1920
1920
1920
1927
1927
1927
1927
1929
1929
1929
1921
1921
1921
1923
1923
1923
1924
1924
1924
1928
1928
1928
1928
1925
1925
1925
1924
1924
1924
1918
1918
1918
1922
1922
1922
1935
1935
1935
1935
1927
1927
1927
1925
1925
1925
1924
1924
1924
1922
1922
1922
1928
1928
1928
1928
1920
1920
1920
1920
1920
1920
1926
1926
1926
1923
1923
1923
1927
1927
1927
1927
1929
1929
1929
1922
1922
1922
1927
1927
1927
1926
1926
1926
1922
1922
1922
1922
1929
1929
1929
1922
1922
1922
1928
1928
1928
1924
1924
1924
1931
1931
1931
1931
1923
1923
1923
1923
1923
1923
1935
1935
1935
1921
1921
1921
1927
1927
1927
1927
1922
1922
1922
1923
1923
1923
1927
1927
1927
1922
1922
1922
1923
1923
1923
1923
1931
1931
1931
1923
1923
1923
1924
1924
1924
1923
1923
1923
1933
1933
1933
1933
1926
1926
1926
1923
1923
1923
1922
1922
1922
1921
1921
1921
1926
1926
1926
1926
1926
1926
1926
1922
1922
1922
1926
1926
1926
1914
1914
1914
1926
1926
1926
1926
1926
1926
1926
1928
1928
1928
1927
1927
1927
1920
1920
1920
1928
1928
1928
1928
1924
1924
1924
1922
1922
1922
1927
1927
1927
1927
1927
1927
1924
1924
1924
1924
1924
1924
1924
1923
1923
1923
1928
1928
1928
1924
1924
1924
1927
1927
1927
1927
1926
1926
1926
1922
1922
1922
1927
1927
1927
1921
1921
1921
1925
1925
1925
1925
1927
1927
1927
1927
1927
1927
1926
1926
1926
1924
1924
1924
1928
1928
1928
1928
1924
1924
1924
1917
1917
1917
1925
1925
1925
1921
1921
1921
1925
1925
1925
1925
1927
1927
1927
1921
1921
1921
1927
1927
1927
1919
1919
1919
1924
1924
1924
1924
1924
1924
1924
1923
1923
1923
1929
1929
1929
1920
1920
1920
1927
1927
1927
1927
1927
1927
1927
1923
1923
1923
1926
1926
1926
1925
1925
1925
1926
1926
1926
1926
1930
1930
1930
1918
1918
1918
1925
1925
1925
1923
1923
1923
1929
1929
1929
1929
1923
1923
1923
1921
1921
1921
1926
1926
1926
1923
1923
1923
1925
1925
1925
1925
1925
1925
1925
1917
1917
1917
1921
1921
1921
1919
1919
1919
1934
1934
1934
1934
1923
1923
1923
1926
1926
1926
1922
1922
1922
1924
1924
1924
1926
1926
1926
1926
1926
1926
1926
1921
1921
1921
1923
1923
1923
1923
1923
1923
1926
1926
1926
1926
1924
1924
1924
1921
1921
1921
1921
1921
1921
1918
1918
1918
1927
1927
1927
1927
1925
1925
1925
1916
1916
1916
1928
1928
1928
1921
1921
1921
1926
1926
1926
1926
1927
1927
1927
1921
1921
1921
1926
1926
1926
1920
1920
1920
1929
1929
1929
1929
1923
1923
1923
1922
1922
1922
1929
1929
1929
1920
1920
1920
1921
1921
1921
1921
1930
1930
1930
1925
1925
1925
1933
1933
1933
1923
1923
1923
1931
1931
1931
1931
1932
1932
1932
1920
1920
1920
1927
1927
1927
1918
1918
1918
1921
1921
1921
1921
1924
1924
1924
1924
1924
1924
1929
1929
1929
1921
1921
1921
1926
1926
1926
1926
1925
1925
1925
1924
1924
1924
1924
1924
1924
1922
1922
1922
1926
1926
1926
1926
1926
1926
1926
1921
1921
1921
1922
1922
1922
1917
1917
1917
1924
1924
1924
1924
1926
1926
1926
1920
1920
1920
1925
1925
1925
1913
1913
1913
1926
1926
1926
1926
1927
1927
1927
1926
1926
1926
1927
1927
1927
1921
1921
1921
1922
1922
1922
1922
1923
1923
1923
1921
1921
1921
1925
1925
1925
1921
1921
1921
1922
1922
1922
1922
1924
1924
1924
1918
1918
1918
1930
1930
1930
1921
1921
1921
1920
1920
1920
1920
1925
1925
1925
1927
1927
1927
1919
1919
1919
1924
1924
1924
1923
1923
1923
1923
1926
1926
1926
1925
1925
1925
1927
1927
1927
1922
1922
1922
1925
1925
1925
1925
1925
1925
1925
1920
1920
1920
1923
1923
1923
1923
1923
1923
1927
1927
1927
1927
1925
1925
1925
1921
1921
1921
1930
1930
1930
1916
1916
1916
1923
1923
1923
1923
1925
1925
1925
1922
1922
1922
1924
1924
1924
1921
1921
1921
1927
1927
1927
1927
1927
1927
1927
1921
1921
1921
1925
1925
1925
1925
1925
1925
1928
1928
1928
1928
1921
1921
1921
1922
1922
1922
1929
1929
1929
1921
1921
1921
1928
1928
1928
1928
1920
1920
1920
1921
1921
1921
1922
1922
1922
1923
1923
1923
1928
1928
1928
1928
1921
1921
1921
1924
1924
1924
1924
1924
1924
1922
1922
1922
1927
1927
1927
1927
1927
1927
1927
1920
1920
1920
1926
1926
1926
1920
1920
1920
1927
1927
1927
1927
1926
1926
1926
1926
1926
1926
1927
1927
1927
1920
1920
1920
1927
1927
1927
1927
1927
1927
1927
1931
1931
1931
1926
1926
1926
1925
1925
1925
1928
1928
1928
1928
1926
1926
1926
1922
1922
1922
1923
1923
1923
1925
1925
1925
1926
1926
1926
1926
1927
1927
1927
1921
1921
1921
1925
1925
1925
1922
1922
1922
1927
1927
1927
1927
1922
1922
1922
1922
1922
1922
1928
1928
1928
1922
1922
1922
1927
1927
1927
1927
1924
1924
1924
1925
1925
1925
1929
1929
1929
1920
1920
1920
1926
1926
1926
1926
1925
1925
1925
1919
1919
1919
1921
1921
1921
1922
1922
1922
1928
1928
1928
1928
1928
1928
1928
1919
1919
1919
1930
1930
1930
1919
1919
1919
1927
1927
1927
1927
1925
1925
1925
1926
1926
1926
1927
1927
1927
1914
1914
1914
1925
1925
1925
1925
1924
1924
1924
1923
1923
1923
1928
1928
1928
1923
1923
1923
1927
1927
1927
1927
1924
1924
1924
1919
1919
1919
1925
1925
1925
1920
1920
1920
1929
1929
1929
1929
1923
1923
1923
1920
1920
1920
1930
1930
1930
1924
1924
1924
1930
1930
1930
1930
1932
1932
1932
1922
1922
1922
1928
1928
1928
1923
1923
1923
1926
1926
1926
1926
1930
1930
1930
1920
1920
1920
1927
1927
1927
1923
1923
1923
1928
1928
1928
1928
1926
1926
1926
1921
1921
1921
1923
1923
1923
1921
1921
1921
1926
1926
1926
1926
1927
1927
1927
1920
1920
1920
1928
1928
1928
1923
1923
1923
1926
1926
1926
1926
1927
1927
1927
1919
1919
1919
1926
1926
1926
1922
1922
1922
1924
1924
1924
1924
1927
1927
1927
1922
1922
1922
1927
1927
1927
1925
1925
1925
1927
1927
1927
1927
1926
1926
1926
1919
1919
1919
1928
1928
1928
1921
1921
1921
1927
1927
1927
1927
1931
1931
1931
1925
1925
1925
1929
1929
1929
1925
1925
1925
1924
1924
1924
1924
1930
1930
1930
1919
1919
1919
1925
1925
1925
1923
1923
1923
1927
1927
1927
1927
1925
1925
1925
1916
1916
1916
1929
1929
1929
1920
1920
1920
1926
1926
1926
1926
1924
1924
1924
1921
1921
1921
1921
1921
1921
1919
1919
1919
1927
1927
1927
1927
1927
1927
1927
1916
1916
1916
1928
1928
1928
1919
1919
1919
1926
1926
1926
1926
1928
1928
1928
1922
1922
1922
1925
1925
1925
1916
1916
1916
1925
1925
1925
1925
1926
1926
1926
1920
1920
1920
1928
1928
1928
1918
1918
1918
1924
1924
1924
1924
1930
1930
1930
1923
1923
1923
1930
1930
1930
1922
1922
1922
1921
1921
1921
1921
1931
1931
1931
1922
1922
1922
1927
1927
1927
1914
1914
1914
1928
1928
1928
1928
1931
1931
1931
1923
1923
1923
1926
1926
1926
1922
1922
1922
1928
1928
1928
1928
1924
1924
1924
1922
1922
1922
1924
1924
1924
1922
1922
1922
1926
1926
1926
1926
1928
1928
1928
1922
1922
1922
1923
1923
1923
1927
1927
1927
1927
1927
1927
1927
1925
1925
1925
1927
1927
1927
1922
1922
1922
1922
1922
1922
1926
1926
1926
1926
1927
1927
1927
1917
1917
1917
1925
1925
1925
1918
1918
1918
1927
1927
1927
1927
1924
1924
1924
1920
1920
1920
1926
1926
1926
1919
1919
1919
1927
1927
1927
1927
1927
1927
1927
1922
1922
1922
1927
1927
1927
1919
1919
1919
1915
1915
1915
1915
1932
1932
1932
1922
1922
1922
1930
1930
1930
1923
1923
1923
1922
1922
1922
1922
1926
1926
1926
1927
1927
1927
1927
1927
1927
1925
1925
1925
1926
1926
1926
1926
1924
1924
1924
1922
1922
1922
1922
1922
1922
1923
1923
1923
1927
1927
1927
1927
1927
1927
1927
1923
1923
1923
1931
1931
1931
1922
1922
1922
1930
1930
1930
1930
1926
1926
1926
1919
1919
1919
1926
1926
1926
1926
1926
1926
1925
1925
1925
1925
1924
1924
1924
1930
1930
1930
1926
1926
1926
1924
1924
1924
1928
1928
1928
1928
1923
1923
1923
1922
1922
1922
1926
1926
1926
1923
1923
1923
1928
1928
1928
1928
1922
1922
1922
1923
1923
1923
1928
1928
1928
1922
1922
1922
1922
1922
1922
1922
1921
1921
1921
1924
1924
1924
1929
1929
1929
1919
1919
1919
1925
1925
1925
1925
1921
1921
1921
1920
1920
1920
1924
1924
1924
1920
1920
1920
1924
1924
1924
1924
1926
1926
1926
1922
1922
1922
1924
1924
1924
1920
1920
1920
1936
1936
1936
1936
1926
1926
1926
1919
1919
1919
1925
1925
1925
1925
1925
1925
1925
1925
1925
1925
1926
1926
1926
1923
1923
1923
1927
1927
1927
1923
1923
1923
1928
1928
1928
1928
1926
1926
1926
1926
1926
1926
1927
1927
1927
1927
1927
1927
1928
1928
1928
1928
1932
1932
1932
1924
1924
1924
1929
1929
1929
1922
1922
1922
1926
1926
1926
1926
1930
1930
1930
1924
1924
1924
1930
1930
1930
1922
1922
1922
1932
1932
1932
1932
1929
1929
1929
1924
1924
1924
1928
1928
1928
1922
1922
1922
1926
1926
1926
1926
1931
1931
1931
1924
1924
1924
1931
1931
1931
1923
1923
1923
1927
1927
1927
1927
1928
1928
1928
1919
1919
1919
1932
1932
1932
1920
1920
1920
1926
1926
1926
1926
1926
1926
1926
1927
1927
1927
1920
1920
1920
1924
1924
1924
1928
1928
1928
1928
1926
1926
1926
1920
1920
1920
1925
1925
1925
1923
1923
1923
1927
1927
1927
1927
1925
1925
1925
1921
1921
1921
1927
1927
1927
1917
1917
1917
1922
1922
1922
1922
1925
1925
1925
1923
1923
1923
1926
1926
1926
1924
1924
1924
1929
1929
1929
1929
1927
1927
1927
1923
1923
1923
1928
1928
1928
1922
1922
1922
1924
1924
1924
1924
1929
1929
1929
1921
1921
1921
1931
1931
1931
1924
1924
1924
1924
1924
1924
1924
1924
1924
1924
1917
1917
1917
1917
1917
1917
1921
1921
1921
1925
1925
1925
1925
1925
1925
1925
1920
1920
1920
1922
1922
1922
1921
1921
1921
1925
1925
1925
1925
1924
1924
1924
1923
1923
1923
1922
1922
1922
1921
1921
1921
1929
1929
1929
1929
1926
1926
1926
1922
1922
1922
1927
1927
1927
1923
1923
1923
1925
1925
1925
1925
1926
1926
1926
1922
1922
1922
1928
1928
1928
1923
1923
1923
1927
1927
1927
1927
1930
1930
1930
1924
1924
1924
1926
1926
1926
1915
1915
1915
1927
1927
1927
1927
1924
1924
1924
1924
1924
1924
1927
1927
1927
1919
1919
1919
1928
1928
1928
1928
1924
1924
1924
1916
1916
1916
1932
1932
1932
1921
1921
1921
1922
1922
1922
1922
1926
1926
1926
1918
1918
1918
1930
1930
1930
1922
1922
1922
1919
1919
1919
1919
1919
1919
1919
1919
1919
1919
1927
1927
1927
1923
1923
1923
1926
1926
1926
1926
1927
1927
1927
1921
1921
1921
1926
1926
1926
1915
1915
1915
1928
1928
1928
1928
1926
1926
1926
1922
1922
1922
1925
1925
1925
1917
1917
1917
1927
1927
1927
1927
1927
1927
1927
1925
1925
1925
1928
1928
1928
1925
1925
1925
1919
1919
1919
1919
1932
1932
1932
1920
1920
1920
1926
1926
1926
1923
1923
1923
1925
1925
1925
1925
1928
1928
1928
1931
1931
1931
1927
1927
1927
1927
1927
1927
1927
1927
1927
1927
1925
1925
1925
1926
1926
1926
1928
1928
1928
1923
1923
1923
1927
1927
1927
1927
1925
1925
1925
1925
1925
1925
1924
1924
1924
1924
1924
1924
1923
1923
1923
1923
1923
1923
1923
1923
1923
1923
1922
1922
1922
1918
1918
1918
1927
1927
1927
1927
1928
1928
1928
1922
1922
1922
1932
1932
1932
1921
1921
1921
1935
1935
1935
1935
1931
1931
1931
1922
1922
1922
1926
1926
1926
1923
1923
1923
1931
1931
1931
1931
1927
1927
1927
1922
1922
1922
1926
1926
1926
1921
1921
1921
1928
1928
1928
1928
1928
1928
1928
1926
1926
1926
1924
1924
1924
1915
1915
1915
1925
1925
1925
1925
1925
1925
1925
1926
1926
1926
1927
1927
1927
1930
1930
1930
1928
1928
1928
1928
1925
1925
1925
1921
1921
1921
1928
1928
1928
1923
1923
1923
1924
1924
1924
1924
1924
1924
1924
1924
1924
1924
1924
1924
1924
1925
1925
1925
1927
1927
1927
1927
1925
1925
1925
1921
1921
1921
1929
1929
1929
1922
1922
1922
1928
1928
1928
1928
1926
1926
1926
1922
1922
1922
1926
1926
1926
1929
1929
1929
1931
1931
1931
1931
1925
1925
1925
1923
1923
1923
1924
1924
1924
1923
1923
1923
1923
1923
1923
1923
1925
1925
1925
1923
1923
1923
1926
1926
1926
1922
1922
1922
1927
1927
1927
1927
1927
1927
1927
1925
1925
1925
1927
1927
1927
1923
1923
1923
1926
1926
1926
1926
1927
1927
1927
1922
1922
1922
1923
1923
1923
1919
1919
1919
1925
1925
1925
1925
1924
1924
1924
1918
1918
1918
1926
1926
1926
1917
1917
1917
1927
1927
1927
1927
1924
1924
1924
1921
1921
1921
1927
1927
1927
1919
1919
1919
1926
1926
1926
1926
1925
1925
1925
1924
1924
1924
1927
1927
1927
1921
1921
1921
1925
1925
1925
1925
1931
1931
1931
1921
1921
1921
1924
1924
1924
1921
1921
1921
1929
1929
1929
1929
1925
1925
1925
1922
1922
1922
1924
1924
1924
1921
1921
1921
1933
1933
1933
1933
1927
1927
1927
1917
1917
1917
1927
1927
1927
1923
1923
1923
1923
1923
1923
1923
1924
1924
1924
1921
1921
1921
1922
1922
1922
1921
1921
1921
1927
1927
1927
1927
1925
1925
1925
1922
1922
1922
1930
1930
1930
1919
1919
1919
1927
1927
1927
1927
1924
1924
1924
1921
1921
1921
1927
1927
1927
1917
1917
1917
1926
1926
1926
1926
1922
1922
1922
1924
1924
1924
1927
1927
1927
1924
1924
1924
1922
1922
1922
1922
1931
1931
1931
1920
1920
1920
1926
1926
1926
1920
1920
1920
1928
1928
1928
1928
1925
1925
1925
1921
1921
1921
1925
1925
1925
1920
1920
1920
1929
1929
1929
1929
1920
1920
1920
1917
1917
1917
1927
1927
1927
1923
1923
1923
1925
1925
1925
1925
1932
1932
1932
1928
1928
1928
1929
1929
1929
1923
1923
1923
1929
1929
1929
1929
1924
1924
1924
1925
1925
1925
1927
1927
1927
1923
1923
1923
1927
1927
1927
1927
1926
1926
1926
1923
1923
1923
1926
1926
1926
1920
1920
1920
1928
1928
1928
1928
1927
1927
1927
1920
1920
1920
1926
1926
1926
1925
1925
1925
1922
1922
1922
1922
1929
1929
1929
1921
1921
1921
1929
1929
1929
1933
1933
1933
1927
1927
1927
1927
1931
1931
1931
1924
1924
1924
1926
1926
1926
1923
1923
1923
1929
1929
1929
1929
1925
1925
1925
1924
1924
1924
1927
1927
1927
1921
1921
1921
1927
1927
1927
1927
1930
1930
1930
1918
1918
1918
1926
1926
1926
1922
1922
1922
1930
1930
1930
1930
1927
1927
1927
1924
1924
1924
1930
1930
1930
1923
1923
1923
1931
1931
1931
1931
1924
1924
1924
1922
1922
1922
1922
1922
1922
1924
1924
1924
1924
1924
1924
1924
1928
1928
1928
1924
1924
1924
1923
1923
1923
1920
1920
1920
1925
1925
1925
1925
1926
1926
1926
1923
1923
1923
1926
1926
1926
1924
1924
1924
1924
1924
1924
1924
1925
1925
1925
1925
1925
1925
1928
1928
1928
1919
1919
1919
1926
1926
1926
1926
1924
1924
1924
1922
1922
1922
1926
1926
1926
1922
1922
1922
1928
1928
1928
1928
1920
1920
1920
1922
1922
1922
1928
1928
1928
1923
1923
1923
1923
1923
1923
1923
1926
1926
1926
1928
1928
1928
1926
1926
1926
1923
1923
1923
1932
1932
1932
1932
1926
1926
1926
1922
1922
1922
1926
1926
1926
1922
1922
1922
1927
1927
1927
1927
1925
1925
1925
1923
1923
1923
1935
1935
1935
1921
1921
1921
1927
1927
1927
1927
1927
1927
1927
1921
1921
1921
1931
1931
1931
1925
1925
1925
1922
1922
1922
1922
1925
1925
1925
1922
1922
1922
1928
1928
1928
1919
1919
1919
1927
1927
1927
1927
1926
1926
1926
1921
1921
1921
1928
1928
1928
1931
1931
1931
1927
1927
1927
1927
1924
1924
1924
1924
1924
1924
1926
1926
1926
1935
1935
1935
1927
1927
1927
1927
1922
1922
1922
1916
1916
1916
1926
1926
1926
1922
1922
1922
1918
1918
1918
1918
1927
1927
1927
1921
1921
1921
1925
1925
1925
1922
1922
1922
1926
1926
1926
1926
1923
1923
1923
1925
1925
1925
1933
1933
1933
1923
1923
1923
1924
1924
1924
1924
1925
1925
1925
1922
1922
1922
1929
1929
1929
1922
1922
1922
1931
1931
1931
1931
1926
1926
1926
1922
1922
1922
1923
1923
1923
1924
1924
1924
1926
1926
1926
1926
1925
1925
1925
1920
1920
1920
1926
1926
1926
1926
1926
1926
1929
1929
1929
1929
1925
1925
1925
1920
1920
1920
1928
1928
1928
1924
1924
1924
1928
1928
1928
1928
1922
1922
1922
1924
1924
1924
1925
1925
1925
1917
1917
1917
1920
1920
1920
1920
1927
1927
1927
1928
1928
1928
1928
1928
1928
1921
1921
1921
1929
1929
1929
1929
1924
1924
1924
1924
1924
1924
1926
1926
1926
1922
1922
1922
1925
1925
1925
1925
1927
1927
1927
1922
1922
1922
1922
1922
1922
1919
1919
1919
1925
