2098
2098
2098
2098
2098
2098
2097
2097
2097
2097
2097
2097
2094
2094
2094
2094
2095
2095
2095
2099
2099
2099
2097
2097
2097
2098
2098
2098
2096
2096
2096
2096
2096
2096
2096
2100
2100
2100
2098
2098
2098
2101
2101
2101
2099
2099
2099
2099
2098
2098
2098
2099
2099
2099
2099
2099
2099
2100
2100
2100
2095
2095
2095
2095
2099
2099
2099
2100
2100
2100
2098
2098
2098
2098
2098
2098
2097
2097
2097
2097
2098
2098
2098
2099
2099
2099
2097
2097
2097
2099
2099
2099
2099
2099
2099
2099
2099
2099
2099
2100
2100
2100
2099
2099
2099
2099
2099
2099
2101
2101
2101
2099
2099
2099
2099
2095
2095
2095
2098
2098
2098
2101
2101
2101
2100
2100
2100
2100
2100
2100
2100
2096
2096
2096
2098
2098
2098
2098
2098
2098
2099
2099
2099
2096
2096
2096
2096
2098
2098
2098
2100
2100
2100
2097
2097
2097
2099
2099
2099
2097
2097
2097
2097
2097
2097
2097
2097
2097
2097
2098
2098
2098
2099
2099
2099
2102
2102
2102
2102
2098
2098
2098
2100
2100
2100
2101
2101
2101
2099
2099
2099
2101
2101
2101
2101
2100
2100
2100
2099
2099
2099
2097
2097
2097
2101
2101
2101
2099
2099
2099
2099
2097
2097
2097
2099
2099
2099
2098
2098
2098
2100
2100
2100
2096
2096
2096
2096
2098
2098
2098
2099
2099
2099
2099
2099
2099
2097
2097
2097
2097
2097
2097
2097
2098
2098
2098
2098
2098
2098
2099
2099
2099
2097
2097
2097
2097
2097
2097
2097
2101
2101
2101
2097
2097
2097
2097
2097
2097
2099
2099
2099
2099
2099
2099
2099
2097
2097
2097
2096
2096
2096
2100
2100
2100
2098
2098
2098
2098
2098
2098
2098
2097
2097
2097
2098
2098
2098
2111
2111
2111
2098
2098
2098
2100
2100
2100
2100
2099
2099
2099
2100
2100
2100
2100
2100
2100
2099
2099
2099
2100
2100
2100
2100
2098
2098
2098
2099
2099
2099
2100
2100
2100
2101
2101
2101
2099
2099
2099
2099
2096
2096
2096
2099
2099
2099
2100
2100
2100
2101
2101
2101
2100
2100
2100
2100
2097
2097
2097
2101
2101
2101
2101
2101
2101
2098
2098
2098
2106
2106
2106
2106
2098
2098
2098
2101
2101
2101
2100
2100
2100
2099
2099
2099
2101
2101
2101
2101
2098
2098
2098
2097
2097
2097
2099
2099
2099
2099
2099
2099
2094
2094
2094
2094
2098
2098
2098
2100
2100
2100
2101
2101
2101
2105
2105
2105
2096
2096
2096
2096
2099
2099
2099
2101
2101
2101
2099
2099
2099
2098
2098
2098
2097
2097
2097
2097
2098
2098
2098
2097
2097
2097
2100
2100
2100
2099
2099
2099
2099
2099
2099
2099
2099
2099
2099
2100
2100
2100
2099
2099
2099
2095
2095
2095
2098
2098
2098
2098
2099
2099
2099
2097
2097
2097
2100
2100
2100
2100
2100
2100
2098
2098
2098
2098
2098
2098
2098
2101
2101
2101
2100
2100
2100
2105
2105
2105
2093
2093
2093
2093
2099
2099
2099
2099
2099
2099
2099
2099
2099
2100
2100
2100
2098
2098
2098
2098
2099
2099
2099
2099
2099
2099
2098
2098
2098
2102
2102
2102
2091
2091
2091
2091
2099
2099
2099
2099
2099
2099
2099
2099
2099
2105
2105
2105
2095
2095
2095
2095
2097
2097
2097
2102
2102
2102
2100
2100
2100
2103
2103
2103
2097
2097
2097
2097
2097
2097
2097
2099
2099
2099
2101
2101
2101
2102
2102
2102
2100
2100
2100
2100
2103
2103
2103
2099
2099
2099
2096
2096
2096
2094
2094
2094
2099
2099
2099
2099
2094
2094
2094
2101
2101
2101
2094
2094
2094
2103
2103
2103
2098
2098
2098
2098
2098
2098
2098
2104
2104
2104
2107
2107
2107
2099
2099
2099
2096
2096
2096
2096
2098
2098
2098
2098
2098
2098
2101
2101
2101
2096
2096
2096
2100
2100
2100
2100
2099
2099
2099
2099
2099
2099
2094
2094
2094
2101
2101
2101
2097
2097
2097
2097
2098
2098
2098
2096
2096
2096
2101
2101
2101
2100
2100
2100
2100
2100
2100
2100
2096
2096
2096
2096
2096
2096
2108
2108
2108
2097
2097
2097
2098
2098
2098
2098
2100
2100
2100
2099
2099
2099
2100
2100
2100
2101
2101
2101
2100
2100
2100
2100
2100
2100
2100
2095
2095
2095
2105
2105
2105
2099
2099
2099
2097
2097
2097
2097
2100
2100
2100
2101
2101
2101
2098
2098
2098
2099
2099
2099
2098
2098
2098
2098
2109
2109
2109
2096
2096
2096
2097
2097
2097
2100
2100
2100
2099
2099
2099
2099
2099
2099
2099
2099
2099
2099
2106
2106
2106
2095
2095
2095
2099
2099
2099
2099
2098
2098
2098
2098
2098
2098
2098
2098
2098
2096
2096
2096
2100
2100
2100
2100
2098
2098
2098
2099
2099
2099
2100
2100
2100
2100
2100
2100
2099
2099
2099
2099
2097
2097
2097
2100
2100
2100
2098
2098
2098
2100
2100
2100
2099
2099
2099
2099
2098
2098
2098
2097
2097
2097
2100
2100
2100
2105
2105
2105
2100
2100
2100
2100
2098
2098
2098
2095
2095
2095
2100
2100
2100
2099
2099
2099
2095
2095
2095
2095
2099
2099
2099
2098
2098
2098
2099
2099
2099
2103
2103
2103
2099
2099
2099
2099
2101
2101
2101
2100
2100
2100
2090
2090
2090
2097
2097
2097
2100
2100
2100
2100
2102
2102
2102
2094
2094
2094
2096
2096
2096
2100
2100
2100
2097
2097
2097
2097
2097
2097
2097
2101
2101
2101
2101
2101
2101
2100
2100
2100
2097
2097
2097
2097
2098
2098
2098
2102
2102
2102
2099
2099
2099
2097
2097
2097
2100
2100
2100
2100
2098
2098
2098
2104
2104
2104
2090
2090
2090
2098
2098
2098
2099
2099
2099
2099
2098
2098
2098
2104
2104
2104
2105
2105
2105
2097
2097
2097
2097
2097
2097
2097
2099
2099
2099
2100
2100
2100
2101
2101
2101
2101
2101
2101
2100
2100
2100
2100
2098
2098
2098
2099
2099
2099
2100
2100
2100
2098
2098
2098
2099
2099
2099
2099
2095
2095
2095
2102
2102
