31900
31900
31900
31965
31965
31965
31965
31965
31965
31965
31965
31965
31965
31813
31813
31813
32009
32009
32009
31944
31944
31944
31944
31965
31965
31965
31987
31987
31987
31900
31900
31900
31878
31878
31878
31965
31965
31965
31965
31835
31835
31835
31922
31922
31922
31922
31922
31922
31900
31900
31900
31944
31944
31944
31944
31900
31900
31900
31900
31900
31900
31900
31900
31900
31965
31965
31965
31900
31900
31900
31900
31922
31922
31922
31878
31878
31878
31922
31922
31922
31900
31900
31900
31965
31965
31965
31965
31878
31878
31878
32009
32009
32009
31856
31856
31856
31900
31900
31900
31900
31900
31900
31900
31878
31878
31878
31987
31987
31987
31769
31769
31769
31900
31900
31900
31922
31922
31922
31922
31878
31878
31878
31965
31965
31965
31878
31878
31878
31944
31944
31944
31944
31944
31944
31944
31900
31900
31900
31944
31944
31944
31922
31922
31922
31965
31965
31965
31922
31922
31922
31922
31900
31900
31900
31900
31900
31900
31922
31922
31922
31900
31900
31900
31900
31900
31900
31900
31856
31856
31856
31900
31900
31900
31965
31965
31965
31856
31856
31856
31856
31856
31856
31856
31922
31922
31922
31878
31878
31878
31922
31922
31922
31965
31965
31965
31922
31922
31922
31922
31900
31900
31900
31987
31987
31987
31878
31878
31878
32009
32009
32009
31900
31900
31900
31900
31900
31900
31900
31965
31965
31965
31965
31965
31965
32009
32009
32009
31944
31944
31944
31944
31922
31922
31922
31944
31944
31944
31878
31878
31878
31965
31965
31965
31922
31922
31922
31922
31922
31922
31922
31900
31900
31900
31965
31965
31965
31922
31922
31922
31878
31878
31878
31878
31987
31987
31987
31944
31944
31944
31922
31922
31922
31987
31987
31987
31944
31944
31944
31944
32009
32009
32009
31922
31922
31922
31922
31922
31922
32009
32009
32009
31922
31922
31922
31922
31965
31965
31965
31922
31922
31922
31900
31900
31900
31900
31900
31900
31922
31922
31922
31922
31878
31878
31878
31900
31900
31900
31878
31878
31878
31944
31944
31944
31900
31900
31900
31900
31922
31922
31922
31835
31835
31835
31944
31944
31944
31900
31900
31900
31965
31965
31965
31965
31922
31922
31922
31900
31900
31900
31900
31900
31900
31922
31922
31922
31856
31856
31856
31856
31922
31922
31922
31965
31965
31965
31856
31856
31856
31965
31965
31965
31987
31987
31987
31987
31900
31900
31900
31965
31965
31965
31922
31922
31922
31900
31900
31900
31900
31900
31900
31900
31900
31900
31900
31944
31944
31944
31835
31835
31835
31965
31965
31965
31900
31900
31900
31900
31835
31835
31835
31878
31878
31878
31878
31878
31878
31965
31965
31965
31856
31856
31856
31856
31900
31900
31900
32052
32052
32052
31835
31835
31835
32031
32031
32031
31944
31944
31944
31944
31878
31878
31878
31965
31965
31965
31944
31944
31944
31878
31878
31878
31987
31987
31987
31987
31944
31944
31944
31900
31900
31900
31944
31944
31944
31944
31944
31944
31922
31922
31922
31922
31900
31900
31900
32031
32031
32031
31878
31878
31878
31922
31922
31922
31922
31922
31922
31922
31835
31835
31835
31965
31965
31965
31922
31922
31922
31878
31878
31878
31878
31878
31878
31878
31944
31944
31944
31922
31922
31922
31922
31922
31922
31965
31965
31965
31878
31878
31878
31878
31900
31900
31900
31900
31900
31900
32052
32052
32052
31944
31944
31944
31878
31878
31878
31878
31856
31856
31856
31987
31987
31987
31965
31965
31965
31922
31922
31922
31922
31922
31922
31922
31856
31856
31856
31922
31922
31922
31944
31944
31944
31922
31922
31922
31922
31922
31922
31922
31878
31878
31878
31922
31922
31922
31944
31944
31944
31878
31878
31878
31944
31944
31944
31944
31922
31922
31922
31878
31878
31878
31878
31878
31878
31965
31965
31965
31878
31878
31878
31878
31965
31965
31965
32052
32052
32052
31856
31856
31856
31944
31944
31944
31856
31856
31856
31856
31922
31922
31922
31922
31922
31922
31965
31965
31965
31987
31987
31987
31944
31944
31944
31944
31900
31900
31900
31922
31922
31922
31944
31944
31944
31922
31922
31922
31922
31922
31922
31922
31900
31900
31900
31965
31965
31965
31965
31965
31965
31900
31900
31900
31900
31900
31900
31900
31944
31944
31944
31900
31900
31900
31856
31856
31856
31900
31900
31900
31922
31922
31922
31922
31965
31965
31965
31922
31922
31922
31922
31922
31922
31922
31922
31922
31856
31856
31856
31856
31922
31922
31922
32052
32052
32052
31900
31900
31900
31944
31944
31944
31878
31878
31878
31878
31922
31922
31922
31900
31900
31900
31856
31856
31856
31900
31900
31900
31726
31726
31726
31726
31878
31878
31878
31878
31878
31878
31944
31944
31944
31878
31878
31878
31835
31835
31835
31835
31878
31878
31878
31856
31856
31856
31944
31944
31944
31965
31965
31965
31878
31878
31878
31878
31900
31900
31900
31922
31922
31922
31900
31900
31900
31944
31944
31944
31944
31944
31944
31944
31878
31878
31878
31944
31944
31944
31965
31965
31965
31900
31900
31900
31835
31835
31835
31835
31726
31726
31726
31944
31944
31944
31900
31900
31900
31965
31965
31965
31922
31922
31922
31922
31813
31813
31813
31944
31944
31944
31856
31856
31856
31878
31878
31878
32031
32031
32031
32031
31856
31856
31856
31900
31900
31900
31944
31944
31944
31965
31965
31965
31900
31900
31900
31900
31856
31856
31856
31922
31922
31922
31878
31878
31878
31900
31900
31900
31965
31965
31965
31965
31878
31878
31878
31878
31878
31878
31900
31900
31900
31965
31965
31965
31944
31944
31944
31944
31900
31900
31900
31878
31878
31878
31944
31944
31944
31900
31900
31900
31900
31900
31900
31900
31856
31856
31856
31922
31922
31922
31965
31965
31965
31900
31900
31900
31856
31856
31856
31856
31900
31900
31900
31987
31987
31987
31900
31900
31900
31900
31900
31900
32096
32096
32096
32096
31922
31922
31922
31878
31878
31878
31791
31791
31791
31965
31965
31965
31965
31965
31965
31965
31900
31900
31900
31922
31922
31922
31922
31922
31922
31944
31944
31944
31856
31856
31856
31856
31878
31878
31878
31922
31922
31922
31878
31878
31878
31900
31900
31900
31878
31878
31878
31878
31944
31944
31944
31878
31878
31878
31900
31900
31900
31944
31944
31944
31878
31878
31878
31878
31922
31922
31922
31856
31856
31856
31856
31856
31856
31944
31944
31944
31900
31900
31900
31900
31878
31878
31878
31856
31856
31856
31965
31965
31965
31944
31944
31944
31944
31944
31944
31944
31900
31900
31900
31878
31878
31878
31987
31987
31987
31922
31922
31922
31878
31878
31878
31878
31856
31856
31856
31922
31922
31922
31922
31922
31922
31944
31944
31944
31856
31856
31856
31856
31944
31944
31944
31944
31944
31944
31856
31856
31856
31987
31987
31987
31878
31878
31878
31878
31965
31965
31965
31944
31944
31944
31878
31878
31878
32074
32074
32074
31922
31922
31922
31922
32009
32009
32009
31922
31922
31922
31900
31900
31900
31878
31878
31878
31900
31900
31900
31900
31922
31922
31922
31856
31856
31856
31835
31835
31835
31813
31813
31813
31835
31835
31835
31835
31922
31922
31922
31878
31878
31878
31900
31900
31900
31900
31900
31900
31965
31965
31965
31965
31856
31856
31856
31900
31900
31900
31900
31900
31900
31944
31944
31944
31878
31878
31878
31878
31878
31878
31878
31856
31856
31856
31944
31944
31944
31900
31900
31900
31900
31900
31900
31900
31922
31922
31922
31965
31965
31965
31900
31900
31900
31965
31965
31965
31900
31900
31900
31900
31900
31900
31900
31878
31878
31878
31944
31944
31944
31944
31944
31944
31900
31900
31900
31900
31944
31944
31944
31856
31856
31856
31878
31878
31878
31987
31987
31987
31835
31835
31835
31835
31856
31856
31856
31922
31922
31922
31944
31944
31944
31878
31878
31878
31900
31900
31900
31900
31856
31856
31856
32009
32009
32009
31856
31856
31856
31922
31922
31922
31900
31900
31900
31900
31856
31856
31856
31944
31944
31944
31944
31944
31944
31922
31922
31922
31900
31900
31900
31900
31900
31900
31900
31987
31987
31987
31965
31965
31965
31900
31900
31900
31965
31965
31965
31965
31922
31922
31922
31878
31878
31878
31900
31900
31900
31900
31900
31900
31856
31856
31856
31856
31944
31944
31944
31878
31878
31878
31965
31965
31965
31878
31878
31878
31835
31835
31835
31835
31791
31791
31791
31965
31965
31965
31922
31922
31922
31922
31922
31922
31900
31900
31900
31900
31856
31856
31856
31944
31944
31944
31922
31922
31922
31878
31878
31878
31878
31878
31878
31878
31769
31769
31769
31944
31944
31944
31900
31900
31900
31922
31922
31922
31900
31900
31900
31900
31791
31791
31791
31922
31922
31922
31878
31878
31878
31900
31900
31900
31748
31748
31748
31748
31878
31878
31878
31944
31944
31944
31922
31922
31922
31922
31922
31922
31856
31856
31856
31856
31900
31900
31900
31835
31835
31835
31900
31900
31900
32009
32009
32009
31835
31835
31835
31835
31922
31922
31922
31922
31922
31922
31922
31922
31922
31900
31900
31900
31835
31835
31835
31835
31900
31900
31900
31900
31900
31900
31965
31965
31965
31922
31922
31922
31900
31900
31900
31900
31900
31900
31900
31944
31944
31944
31944
31944
31944
31922
31922
31922
31900
31900
31900
31900
31922
31922
31922
31922
31922
31922
31835
31835
31835
31987
31987
31987
31944
31944
31944
31944
31900
31900
31900
31900
31900
31900
31900
31900
31900
32009
32009
32009
31835
31835
31835
31835
31987
31987
31987
31944
31944
31944
31900
31900
31900
31987
31987
31987
31922
31922
31922
31922
31878
31878
31878
31900
31900
31900
31922
31922
31922
31922
31922
31922
31835
31835
31835
31835
31878
31878
31878
31878
31878
31878
31900
31900
31900
31900
31900
31900
31900
31900
31900
31900
31835
31835
31835
31944
31944
31944
31900
31900
31900
31965
31965
31965
31987
31987
31987
31987
31856
31856
31856
31878
31878
31878
31944
31944
31944
31900
31900
31900
31922
31922
31922
31922
31922
31922
31922
32009
32009
32009
31900
31900
31900
31878
31878
31878
31944
31944
31944
31944
31900
31900
31900
31878
31878
31878
31835
31835
31835
31965
31965
31965
31900
31900
31900
31900
31922
31922
31922
31878
31878
31878
31922
31922
31922
32031
32031
32031
31900
31900
31900
31900
31987
31987
31987
31922
31922
31922
31900
31900
31900
32009
32009
32009
31900
31900
31900
31900
32031
32031
32031
31900
31900
31900
31878
31878
31878
31944
31944
31944
31856
31856
31856
31856
31878
31878
31878
31965
31965
31965
31878
31878
31878
31987
31987
31987
31813
31813
31813
31813
31878
31878
31878
32031
32031
32031
31835
31835
31835
31922
31922
31922
31987
31987
31987
31987
31944
31944
31944
31987
31987
31987
31748
31748
31748
32009
32009
32009
31900
31900
31900
31900
31965
31965
31965
31944
31944
31944
31856
31856
31856
31944
31944
31944
31922
31922
31922
31922
31965
31965
31965
31944
31944
31944
31965
31965
31965
31965
31965
31965
31900
31900
31900
31900
31944
31944
31944
31900
31900
31900
31900
31900
31900
31878
31878
31878
31878
31878
31878
31878
31878
31878
31878
31987
31987
31987
31878
31878
31878
31965
31965
31965
31944
31944
31944
31944
31944
31944
31944
31944
31944
31944
31944
31944
31944
32031
32031
32031
31900
31900
31900
31900
31900
31900
31900
31922
31922
31922
31856
31856
31856
31944
31944
31944
31900
31900
31900
31900
31900
31900
31900
31944
31944
31944
31900
31900
31900
31922
31922
31922
31835
31835
31835
31835
31835
31835
31835
31878
31878
31878
31878
31878
31878
31987
31987
31987
31900
31900
31900
31900
31922
31922
31922
31900
31900
31900
31965
31965
31965
31922
31922
31922
31900
31900
31900
31900
31835
31835
31835
31900
31900
31900
31791
31791
31791
31944
31944
31944
31900
31900
31900
31900
31900
31900
31900
31944
31944
31944
31900
31900
31900
31856
31856
31856
31922
31922
31922
31922
31835
31835
31835
31900
31900
31900
31878
31878
31878
31965
31965
31965
31922
31922
31922
31922
31965
31965
31965
31900
31900
31900
31922
31922
31922
31922
31922
31922
31987
31987
31987
31987
31900
31900
31900
31922
31922
31922
31856
31856
31856
31922
31922
31922
31944
31944
31944
31944
31878
31878
31878
31835
31835
31835
31878
31878
31878
31900
31900
31900
31813
31813
31813
31813
31922
31922
31922
31922
31922
31922
31900
31900
31900
31944
31944
31944
31813
31813
31813
31813
31900
31900
31900
31835
31835
31835
31922
31922
31922
31922
31922
31922
31944
31944
31944
31944
31922
31922
31922
31900
31900
31900
31813
31813
31813
31987
31987
31987
31900
31900
31900
31900
31856
31856
31856
31944
31944
31944
31944
31944
31944
31878
31878
31878
31878
31878
31878
31878
31944
31944
31944
31900
31900
31900
31856
31856
31856
31922
31922
31922
31944
31944
31944
31944
31922
31922
31922
31835
31835
31835
31900
31900
31900
31987
31987
31987
31944
31944
31944
31944
31856
31856
31856
31878
31878
31878
31878
31878
31878
31965
31965
31965
31900
31900
31900
31900
31856
31856
31856
31965
31965
31965
31900
31900
31900
31987
31987
31987
31922
31922
31922
31922
31856
31856
31856
31922
31922
31922
31813
31813
31813
31965
31965
31965
31900
31900
31900
31900
31878
31878
31878
31922
31922
31922
32031
32031
32031
31922
31922
31922
31856
31856
31856
31856
31813
31813
31813
31965
31965
31965
31965
31965
31965
31726
31726
31726
31900
31900
31900
31900
31813
31813
31813
31965
31965
31965
31922
31922
31922
31856
31856
31856
31922
31922
31922
31922
31813
31813
31813
31965
31965
31965
31900
31900
31900
31922
31922
31922
31922
31922
31922
31922
31900
31900
31900
31878
31878
31878
31900
31900
31900
31922
31922
31922
31987
31987
31987
31987
31965
31965
31965
31900
31900
31900
31856
31856
31856
31944
31944
31944
31856
31856
31856
31856
31900
31900
31900
31987
31987
31987
31900
31900
31900
31900
31900
31900
31922
31922
31922
31922
31878
31878
31878
31922
31922
31922
31856
31856
31856
31944
31944
31944
31878
31878
31878
31878
31900
31900
31900
31900
31900
31900
31878
31878
31878
31944
31944
31944
31922
31922
31922
31922
31900
31900
31900
31922
31922
31922
31944
31944
31944
31944
31944
31944
31922
31922
31922
31922
31900
31900
31900
31944
31944
31944
31922
31922
31922
31987
31987
31987
31944
31944
31944
31944
31856
31856
31856
31965
31965
31965
31900
31900
31900
31878
31878
31878
31878
31878
31878
31878
31922
31922
31922
31965
31965
31965
31922
31922
31922
31965
31965
31965
31944
31944
31944
31944
31922
31922
31922
31922
31922
31922
31922
31922
31922
31922
31922
31922
31944
31944
31944
31944
31922
31922
31922
31922
31922
31922
31922
31922
31922
31900
31900
31900
31900
31900
31900
31900
31878
31878
31878
31922
31922
31922
32009
32009
32009
31944
31944
31944
31878
31878
31878
31878
31878
31878
31878
31922
31922
31922
31965
31965
31965
31965
31965
31965
31856
31856
31856
31856
31965
31965
31965
31922
31922
31922
31900
31900
31900
31965
31965
31965
31965
31965
31965
31965
31965
31965
31965
31900
31900
31900
31922
31922
31922
32031
32031
32031
31922
31922
31922
31922
31835
31835
31835
31944
31944
31944
31922
31922
31922
31922
31922
31922
31944
31944
31944
31944
31878
31878
31878
31900
31900
31900
31878
31878
31878
31965
31965
31965
31944
31944
31944
31944
31878
31878
31878
31878
31878
31878
31922
31922
31922
31922
31922
31922
31944
31944
31944
31944
31900
31900
31900
31878
31878
31878
31856
31856
31856
31900
31900
31900
31944
31944
31944
31944
31878
31878
31878
31944
31944
31944
31922
31922
31922
31922
31922
31922
31856
31856
31856
31856
31900
31900
31900
31922
31922
31922
31900
31900
31900
31922
31922
31922
31878
31878
31878
31878
31922
31922
31922
31944
31944
31944
31922
31922
31922
31878
31878
31878
31900
31900
31900
31900
31900
31900
31900
31856
31856
31856
31900
31900
31900
31856
31856
31856
31944
31944
31944
31944
31944
31944
31944
31944
31944
31944
31835
31835
31835
32118
32118
32118
31856
31856
31856
31856
31900
31900
31900
31922
31922
31922
31878
31878
31878
31835
31835
31835
32052
32052
32052
32052
31900
31900
31900
31987
31987
31987
31878
31878
31878
31900
31900
31900
31944
31944
31944
31944
31856
31856
31856
31856
31856
31856
31944
31944
31944
31900
31900
31900
31878
31878
31878
31878
31878
31878
31878
31987
31987
31987
31878
31878
31878
31922
31922
31922
31878
31878
31878
31878
31965
31965
31965
32009
32009
32009
31835
31835
31835
32031
32031
32031
31900
31900
31900
31900
31965
31965
31965
31987
31987
31987
31900
31900
31900
32009
32009
32009
31944
31944
31944
31944
31987
31987
31987
31900
31900
31900
31878
31878
31878
31922
31922
31922
31835
31835
31835
31835
31900
31900
31900
31878
31878
31878
31922
31922
31922
32009
32009
32009
31987
31987
31987
31987
31922
31922
31922
31835
31835
31835
31965
31965
31965
31922
31922
31922
31856
31856
31856
31856
31835
31835
31835
31944
31944
31944
31878
31878
31878
31944
31944
31944
31965
31965
31965
31965
31878
31878
31878
31922
31922
31922
31813
31813
31813
32096
32096
32096
31878
31878
31878
31878
31922
31922
31922
31944
31944
31944
31856
31856
31856
31922
31922
31922
31922
31922
31922
31922
31922
31922
31922
31944
31944
31944
31856
31856
31856
31944
31944
31944
31900
31900
31900
31900
31878
31878
31878
31944
31944
31944
31900
31900
31900
31944
31944
31944
31900
31900
31900
31900
31922
31922
31922
31900
31900
31900
31987
31987
31987
31987
31987
31987
31878
31878
31878
31878
31944
31944
31944
31813
31813
31813
31922
31922
31922
31965
31965
31965
31835
31835
31835
31835
31944
31944
31944
31856
31856
31856
31922
31922
31922
31922
31922
31922
31813
31813
31813
31813
31922
31922
31922
31900
31900
31900
31922
31922
31922
31900
31900
31900
31856
31856
31856
31856
31922
31922
31922
31965
31965
31965
31900
31900
31900
31922
31922
31922
31944
31944
31944
31944
31813
31813
31813
31944
31944
31944
31835
31835
31835
31944
31944
31944
31944
31944
31944
31944
31987
31987
31987
31922
31922
31922
31965
31965
31965
31944
31944
31944
31835
31835
31835
31835
31856
31856
31856
31965
31965
31965
31922
31922
31922
31878
31878
31878
31856
31856
31856
31856
31661
31661
31661
31922
31922
31922
31878
31878
31878
31965
31965
31965
31922
31922
31922
31922
31835
31835
31835
31944
31944
31944
31922
31922
31922
31965
31965
31965
31944
31944
31944
31944
31900
31900
31900
31987
31987
31987
31878
31878
31878
31900
31900
31900
31922
31922
31922
31922
31965
31965
31965
31965
31965
31965
31878
31878
31878
31965
31965
31965
31900
31900
31900
31900
31922
31922
31922
31944
31944
31944
31900
31900
31900
31965
31965
31965
31965
31965
31965
31965
31878
31878
31878
31922
31922
31922
32009
32009
32009
31878
31878
31878
31922
31922
31922
31922
31900
31900
31900
31878
31878
31878
31900
31900
31900
31944
31944
31944
31878
31878
31878
31878
31987
31987
31987
31900
31900
31900
31900
31900
31900
31856
31856
31856
31878
31878
31878
31878
32052
32052
32052
31900
31900
31900
31900
31900
31900
31944
31944
31944
31900
31900
31900
31900
31856
31856
31856
32009
32009
32009
31900
31900
31900
31900
31900
31900
31791
31791
31791
31791
31900
31900
31900
31878
31878
31878
31922
31922
31922
31944
31944
31944
31835
31835
31835
31835
31922
31922
31922
31922
31922
31922
31900
31900
31900
31944
31944
31944
31944
31944
31944
31944
31922
31922
31922
31922
31922
31922
31856
31856
31856
31922
31922
31922
31900
31900
31900
31900
31922
31922
31922
31900
31900
31900
31922
31922
31922
31856
31856
31856
31900
31900
31900
31900
31813
31813
31813
31944
31944
31944
31878
31878
31878
31965
31965
31965
31878
31878
31878
31878
31878
31878
31878
31900
31900
31900
31900
31900
31900
32096
32096
32096
31900
31900
31900
31900
31965
31965
31965
31922
31922
31922
31922
31922
31922
31878
31878
31878
31900
31900
31900
31900
31878
31878
31878
31922
31922
31922
31922
31922
31922
31900
31900
31900
31835
31835
31835
31835
31900
31900
31900
31965
31965
31965
31900
31900
31900
31878
31878
31878
31922
31922
31922
31922
31965
31965
31965
31965
31965
31965
32009
32009
32009
31965
31965
31965
31922
31922
31922
31922
31900
31900
31900
31987
31987
31987
31769
31769
31769
31965
31965
31965
31900
31900
31900
31900
31922
31922
31922
31965
31965
31965
31878
31878
31878
31922
31922
31922
31944
31944
31944
31944
31922
31922
31922
31944
31944
31944
31987
31987
31987
31900
31900
31900
31900
31900
31900
31900
31791
31791
31791
32009
32009
32009
31922
31922
31922
31900
31900
31900
31944
31944
31944
31944
31878
31878
31878
31965
31965
31965
31922
31922
31922
31922
31922
31922
31878
31878
31878
31878
31878
31878
31878
31987
31987
31987
31944
31944
31944
31944
31944
31944
31965
31965
31965
31965
31878
31878
31878
31922
31922
31922
31965
31965
31965
31944
31944
31944
31856
31856
31856
31856
31900
31900
31900
31900
31900
31900
31922
31922
31922
31922
31922
31922
31878
31878
31878
31878
31878
31878
31878
31856
31856
31856
31944
31944
31944
31965
31965
31965
31878
31878
31878
31878
31856
31856
31856
31965
31965
31965
31944
31944
31944
31900
31900
31900
31965
31965
31965
31965
31900
31900
31900
31900
31900
31900
31965
31965
31965
31922
31922
31922
31900
31900
31900
31900
31987
31987
31987
31922
31922
31922
31856
31856
31856
31965
31965
31965
31900
31900
31900
31900
31856
31856
31856
31944
31944
31944
31922
31922
31922
31944
31944
31944
31900
31900
31900
31900
31900
31900
31900
31922
31922
31922
31922
31922
31922
32009
32009
32009
31900
31900
31900
31900
31878
31878
31878
32031
32031
32031
31878
31878
31878
31900
31900
31900
31813
31813
31813
31813
31944
31944
31944
31922
31922
31922
31900
31900
31900
31944
31944
31944
31878
31878
31878
31878
31900
31900
31900
31987
31987
31987
31900
31900
31900
31944
31944
31944
31944
31944
31944
31944
31900
31900
31900
31922
31922
31922
31965
31965
31965
31922
31922
31922
31878
31878
31878
31878
31878
31878
31878
31922
31922
31922
31835
31835
31835
31922
31922
31922
31900
31900
31900
31900
31900
31900
31900
31922
31922
31922
31878
31878
31878
31965
31965
31965
31900
31900
31900
31900
31856
31856
31856
31900
31900
31900
31878
31878
31878
31944
31944
31944
31856
31856
31856
31856
31835
31835
31835
31900
31900
31900
32009
32009
32009
31965
31965
31965
31900
31900
31900
31900
31965
31965
31965
31965
31965
31965
31922
31922
31922
31987
31987
31987
31987
31987
31987
31987
31922
31922
31922
32074
32074
32074
31878
31878
31878
31922
31922
31922
32009
32009
32009
32009
31900
31900
31900
32009
32009
32009
31878
31878
31878
31922
31922
31922
32096
32096
32096
32096
31944
31944
31944
31922
31922
31922
31878
31878
31878
31944
31944
31944
31922
31922
31922
31922
31965
31965
31965
31944
31944
31944
31900
31900
31900
31944
31944
31944
31900
31900
31900
31900
31835
31835
31835
31922
31922
31922
31878
31878
31878
31944
31944
31944
31878
31878
31878
31878
31748
31748
31748
31965
31965
31965
31813
31813
31813
31965
31965
31965
31878
31878
31878
31878
31922
31922
31922
31944
31944
31944
31900
31900
31900
31922
31922
31922
31922
31922
31922
31922
31922
31922
31922
31900
31900
31900
31965
31965
31965
32031
32031
32031
31900
31900
31900
31900
31878
31878
31878
31922
31922
31922
31922
31922
31922
31944
31944
31944
31944
31944
31944
31944
31878
31878
31878
32009
32009
32009
31922
31922
31922
31900
31900
31900
31835
31835
31835
31835
31878
31878
31878
31856
31856
31856
31856
31856
31856
31900
31900
31900
31878
31878
31878
31878
31856
31856
31856
31856
31856
31856
31965
31965
31965
31900
31900
31900
31878
31878
31878
31878
31922
31922
31922
31965
31965
31965
31944
31944
31944
31922
31922
31922
31900
31900
31900
31900
31878
31878
31878
31922
31922
31922
31900
31900
31900
31965
31965
31965
31856
31856
31856
31856
31922
31922
31922
31900
31900
31900
31878
31878
31878
31987
31987
31987
31900
31900
31900
31900
31944
31944
31944
32031
32031
32031
31835
31835
31835
31987
31987
31987
31922
31922
31922
31922
31944
31944
31944
31965
31965
31965
31944
31944
31944
31987
31987
31987
31900
31900
31900
31900
31944
31944
31944
31900
31900
31900
31900
31900
31900
31922
31922
31922
31965
31965
31965
31965
31922
31922
31922
31900
31900
31900
31944
31944
31944
31965
31965
31965
31878
31878
31878
31878
31878
31878
31878
31835
31835
31835
31900
31900
31900
31922
31922
31922
32031
32031
32031
32031
31900
31900
31900
31987
31987
31987
31813
31813
31813
31944
31944
31944
31965
31965
31965
31965
31900
31900
31900
31878
31878
31878
31944
31944
31944
31900
31900
31900
31878
31878
31878
31878
31900
31900
31900
31965
31965
31965
31944
31944
31944
31878
31878
31878
31922
31922
31922
31922
31791
31791
31791
31922
31922
31922
31922
31922
31922
31944
31944
31944
31856
31856
31856
31856
31856
31856
31856
32009
32009
32009
31922
31922
31922
31944
31944
31944
31900
31900
31900
31900
31791
31791
31791
31965
31965
31965
31922
31922
31922
31878
31878
31878
31965
31965
31965
31965
31900
31900
31900
32009
32009
32009
31922
31922
31922
31944
31944
31944
31900
31900
31900
31900
31922
31922
31922
32009
32009
32009
31878
31878
31878
31944
31944
31944
31944
31944
31944
31944
31900
31900
31900
31987
31987
31987
31878
31878
31878
31965
31965
31965
31922
31922
31922
31922
31987
31987
31987
31965
31965
31965
31856
31856
31856
31922
31922
31922
31878
31878
31878
31878
31856
31856
31856
31900
31900
31900
31987
31987
31987
31900
31900
31900
31878
31878
31878
31878
31922
31922
31922
31922
31922
31922
31835
31835
31835
31987
31987
31987
31900
31900
31900
31900
31900
31900
31900
31944
31944
31944
31922
31922
31922
31987
31987
31987
31944
31944
31944
31944
31835
31835
31835
31922
31922
31922
31878
31878
31878
31944
31944
31944
31878
31878
31878
31878
31878
31878
31878
31965
31965
31965
31878
31878
31878
31987
31987
31987
31900
31900
31900
31900
31965
31965
31965
31856
31856
31856
31944
31944
31944
32052
32052
32052
31878
31878
31878
31878
31922
31922
31922
31856
31856
31856
31922
31922
31922
31922
31922
31922
31900
31900
31900
31900
31922
31922
31922
31856
31856
31856
31922
31922
31922
31965
31965
31965
31878
31878
31878
31878
31878
31878
31878
31944
31944
31944
31944
31944
31944
31944
31944
31944
31922
31922
31922
31922
31878
31878
31878
31944
31944
31944
31900
31900
31900
31922
31922
31922
31900
31900
31900
31900
31944
31944
31944
32009
32009
32009
31791
31791
31791
31965
31965
31965
31944
31944
31944
31944
31944
31944
31944
31944
31944
31944
31900
31900
31900
32009
32009
32009
31944
31944
31944
31944
31878
31878
31878
31965
31965
31965
31856
31856
31856
31922
31922
31922
31900
31900
31900
31900
31878
31878
31878
31900
31900
31900
31922
31922
31922
32009
32009
32009
31878
31878
31878
31878
31856
31856
31856
31944
31944
31944
31856
31856
31856
31900
31900
31900
31944
31944
31944
31944
31856
31856
31856
31856
31856
31856
31965
31965
31965
31878
31878
31878
31574
31574
31574
31574
31856
31856
31856
31922
31922
31922
31878
31878
31878
31944
31944
31944
31791
31791
31791
31791
31900
31900
31900
31965
31965
31965
32009
32009
32009
31922
31922
31922
31856
31856
31856
31856
31878
31878
31878
31922
31922
31922
31878
31878
31878
31922
31922
31922
31922
31922
31922
31922
31856
31856
31856
31900
31900
31900
31856
31856
31856
31944
31944
31944
31878
31878
31878
31878
31900
31900
31900
31922
31922
31922
31900
31900
31900
31900
31900
31900
31944
31944
31944
31944
31835
31835
31835
31900
31900
31900
31878
31878
31878
31856
31856
31856
31900
31900
31900
31900
31900
31900
31900
31922
31922
31922
31900
31900
31900
31900
31900
31900
31922
31922
31922
31922
31878
31878
31878
31900
31900
31900
31900
31900
31900
31922
31922
31922
31987
31987
31987
31987
31900
31900
31900
31987
31987
31987
31987
31987
31987
31900
31900
31900
31813
31813
31813
31813
31900
31900
31900
31922
31922
31922
31900
31900
31900
31987
31987
31987
31856
31856
31856
31856
31922
31922
31922
31878
31878
31878
31900
31900
31900
31944
31944
31944
31900
31900
31900
31900
31878
31878
31878
31944
31944
31944
31922
31922
31922
31944
31944
31944
31900
31900
31900
31900
31944
31944
31944
31878
31878
31878
31965
31965
31965
31835
31835
31835
31878
31878
31878
31878
31769
31769
31769
31965
31965
31965
31878
31878
31878
31922
31922
31922
31813
31813
31813
31813
31965
31965
31965
31922
31922
31922
31878
31878
31878
31987
31987
31987
31922
31922
31922
31922
31922
31922
31922
31944
31944
31944
31900
31900
31900
31944
31944
31944
31856
31856
31856
31856
31922
31922
31922
31965
31965
31965
31944
31944
31944
31922
31922
31922
31944
31944
31944
31944
31900
31900
31900
31900
31900
31900
31965
31965
31965
31878
31878
31878
31944
31944
31944
31944
31922
31922
31922
31900
31900
31900
31878
31878
31878
31944
31944
31944
31922
31922
31922
31922
31900
31900
31900
31878
31878
31878
31813
31813
31813
31965
31965
31965
31944
31944
31944
31944
31965
31965
31965
31944
31944
31944
31965
31965
31965
31922
31922
31922
31922
31922
31922
31922
31922
31922
31922
31944
31944
31944
31922
31922
31922
31922
31922
31922
31965
31965
31965
31965
31878
31878
31878
31965
31965
31965
31878
31878
31878
31944
31944
31944
31944
31944
31944
31944
31922
31922
31922
31965
31965
31965
31922
31922
31922
31965
31965
31965
31835
31835
31835
31835
31878
31878
31878
31878
31878
31878
31856
31856
31856
31965
31965
31965
31856
31856
31856
31856
31900
31900
31900
31944
31944
31944
31900
31900
31900
31900
31900
31900
31944
31944
31944
31944
31856
31856
31856
31944
31944
31944
31944
31944
31944
31900
31900
31900
31944
31944
31944
31944
31900
31900
31900
32009
32009
32009
31813
31813
31813
31922
31922
31922
31878
31878
31878
31878
31922
31922
31922
31965
31965
31965
31900
31900
31900
31878
31878
31878
31856
31856
31856
31856
31900
31900
31900
31922
31922
31922
31944
31944
31944
31878
31878
31878
31900
31900
31900
31900
31835
31835
31835
31922
31922
31922
31922
31922
31922
31900
31900
31900
31878
31878
31878
31878
31813
31813
31813
32074
32074
32074
31900
31900
31900
31922
31922
31922
31922
31922
31922
31922
31922
31922
31922
32009
32009
32009
31900
31900
31900
31965
31965
31965
31878
31878
31878
31878
31856
31856
31856
31900
31900
31900
31965
31965
31965
31965
31965
31965
31900
31900
31900
31900
31900
31900
31900
31878
31878
31878
31900
31900
31900
31944
31944
31944
31900
31900
31900
31900
31878
31878
31878
31987
31987
31987
31922
31922
31922
31922
31922
31922
31944
31944
31944
31944
31813
31813
31813
31922
31922
31922
31965
31965
31965
31944
31944
31944
31922
31922
31922
31922
31900
31900
31900
31878
31878
31878
31900
31900
31900
32074
32074
32074
31813
31813
31813
31813
31878
31878
31878
31944
31944
31944
31987
31987
31987
31987
31987
31987
31878
31878
31878
31878
31944
31944
31944
31922
31922
31922
31922
31922
31922
31835
31835
31835
31900
31900
31900
31900
31900
31900
31900
31922
31922
31922
31900
31900
31900
31965
31965
31965
31922
31922
31922
31922
32009
32009
32009
31922
31922
31922
31922
31922
31922
31813
31813
31813
32009
32009
32009
32009
31900
31900
31900
32052
32052
32052
31922
31922
31922
31900
31900
31900
31965
31965
31965
31965
31922
31922
31922
32096
32096
32096
31965
31965
31965
31922
31922
31922
31987
31987
31987
31987
31922
31922
31922
31922
31922
31922
31900
31900
31900
31900
31900
31900
31922
31922
31922
31922
31878
31878
31878
31922
31922
31922
31856
31856
31856
31944
31944
31944
31922
31922
31922
31922
31856
31856
31856
31835
31835
31835
31944
31944
31944
31856
31856
31856
31900
31900
31900
31900
31791
31791
31791
31965
31965
31965
31922
31922
31922
31856
31856
31856
31704
31704
31704
31704
31922
31922
31922
31922
31922
31922
31878
31878
31878
31922
31922
31922
31900
31900
31900
31900
31944
31944
31944
31900
31900
31900
31922
31922
31922
31944
31944
31944
31900
31900
31900
31900
31900
31900
31900
31922
31922
31922
31944
31944
31944
31944
31944
31944
31944
31944
31944
31944
31987
31987
31987
32074
32074
32074
31813
31813
31813
31900
31900
31900
31878
31878
31878
31878
31878
31878
31878
31987
31987
31987
31835
31835
31835
31965
31965
31965
31835
31835
31835
31835
31965
31965
31965
31944
31944
31944
31835
31835
31835
31944
31944
31944
31900
31900
31900
31900
31900
31900
31900
31922
31922
31922
31900
31900
31900
31922
31922
31922
31922
31922
31922
31922
31922
31922
31922
31987
31987
31987
31900
31900
31900
31878
31878
31878
31922
31922
31922
31922
31813
31813
31813
31965
31965
31965
31835
31835
31835
31965
31965
31965
31878
31878
31878
31878
31900
31900
31900
31813
31813
31813
31900
31900
31900
32074
32074
32074
31791
31791
31791
31791
31922
31922
31922
31900
31900
31900
31922
31922
31922
31944
31944
31944
31965
31965
31965
31965
31900
31900
31900
31944
31944
31944
31900
31900
31900
31965
31965
31965
31987
31987
31987
31987
31856
31856
31856
31856
31856
31856
31900
31900
31900
31922
31922
31922
31922
31922
31922
31922
31922
31922
31922
31922
31922
31922
31878
31878
31878
31900
31900
31900
31878
31878
31878
31878
31856
31856
31856
31965
31965
31965
31922
31922
31922
31900
31900
31900
31878
31878
31878
31878
31900
31900
31900
31944
31944
31944
31944
31944
31944
31987
31987
31987
31900
31900
31900
31900
31987
31987
31987
31944
31944
31944
31922
31922
31922
31987
31987
31987
31878
31878
31878
31878
31922
31922
31922
31900
31900
31900
31944
31944
31944
31987
31987
31987
31878
31878
31878
31878
31835
31835
31835
31900
31900
31900
31900
31900
31900
31922
31922
31922
31922
31922
31922
31922
31922
31922
31922
32009
32009
32009
31900
31900
31900
31922
31922
31922
31987
31987
31987
31987
31878
31878
31878
31900
31900
31900
32052
32052
32052
31922
31922
31922
31856
31856
31856
31856
31878
31878
31878
31922
31922
31922
31922
31922
31922
31900
31900
31900
31922
31922
31922
31922
31878
31878
31878
31900
31900
31900
31922
31922
31922
31944
31944
31944
31900
31900
31900
31900
31900
31900
31900
31900
31900
31900
31900
31900
31900
31878
31878
31878
31922
31922
31922
31922
31791
31791
31791
31944
31944
31944
31878
31878
31878
31944
31944
31944
31944
31944
31944
31944
31878
31878
31878
31922
31922
31922
31944
31944
31944
31987
31987
31987
31791
31791
31791
31791
31878
31878
31878
31944
31944
31944
31900
31900
31900
31944
31944
31944
31878
31878
31878
31878
31922
31922
31922
31944
31944
31944
31922
31922
31922
31944
31944
31944
31835
31835
31835
31835
31987
31987
31987
31944
31944
31944
31922
31922
31922
31944
31944
31944
31856
31856
31856
31856
31835
31835
31835
31965
31965
31965
31856
31856
31856
31944
31944
31944
31900
31900
31900
31900
31922
31922
31922
31944
31944
31944
31813
31813
31813
32009
32009
32009
31878
31878
31878
31878
31900
31900
31900
31900
31900
31900
31900
31900
31900
31987
31987
31987
31878
31878
31878
31878
31878
31878
31878
31922
31922
31922
31944
31944
31944
31944
31944
31944
31900
31900
31900
31900
31900
31900
31900
31944
31944
31944
31878
31878
31878
31900
31900
31900
31944
31944
31944
31944
31835
31835
31835
32052
32052
32052
31878
31878
31878
31965
31965
31965
31965
31965
31965
31965
31944
31944
31944
31944
31944
31944
31965
31965
31965
31965
31965
31965
31965
31965
31965
31965
31878
31878
31878
31922
31922
31922
31791
31791
31791
31965
31965
31965
31900
31900
31900
31900
31900
31900
31900
31922
31922
31922
31944
31944
31944
31944
31944
31944
31878
31878
31878
31878
31791
31791
31791
31987
31987
31987
31922
31922
31922
31922
31922
31922
31900
31900
31900
31900
31944
31944
31944
32052
32052
32052
31835
31835
31835
31987
31987
31987
31900
31900
31900
31900
31987
31987
31987
31922
31922
31922
31900
31900
31900
31922
31922
31922
32009
32009
32009
32009
31987
31987
31987
31900
31900
31900
31900
31900
31900
31965
31965
31965
31922
31922
31922
31922
31900
31900
31900
31922
31922
31922
31944
31944
31944
31944
31944
31944
32009
32009
32009
32009
31922
31922
31922
31922
31922
31922
31878
31878
31878
31944
31944
31944
31813
31813
31813
31813
32009
32009
32009
31922
31922
31922
31856
31856
31856
31900
31900
31900
31922
31922
31922
31922
31878
31878
31878
31965
31965
31965
31944
31944
31944
31922
31922
31922
31900
31900
31900
31900
31944
31944
31944
31922
31922
31922
31900
31900
31900
31944
31944
31944
31900
31900
31900
31900
31922
31922
31922
31900
31900
31900
31878
31878
31878
32052
32052
32052
31900
31900
31900
31900
31944
31944
31944
31922
31922
31922
31900
31900
31900
31922
31922
31922
31878
31878
31878
31878
31813
31813
31813
31965
31965
31965
31856
31856
31856
31965
31965
31965
31922
31922
31922
31922
31878
31878
31878
31965
31965
31965
31878
31878
31878
31922
31922
31922
31878
31878
31878
31878
31856
31856
31856
31922
31922
31922
31944
31944
31944
31944
31944
31944
31922
31922
31922
31922
31922
31922
31922
31944
31944
31944
31900
31900
31900
31900
31900
31900
31922
31922
31922
31922
31900
31900
31900
31922
31922
31922
31878
31878
31878
31922
31922
31922
31922
31922
31922
31922
31856
31856
31856
31922
31922
31922
31965
31965
31965
31900
31900
31900
31900
31900
31900
31900
31900
31900
31900
31900
31900
31900
31878
31878
31878
31900
31900
31900
31878
31878
31878
31878
31878
31878
31878
31922
31922
31922
31900
31900
31900
31922
31922
31922
31922
31922
31922
31922
31922
31922
31922
31987
31987
31987
31922
31922
31922
31944
31944
31944
31922
31922
31922
31922
31922
31922
31922
31944
31944
31944
31900
31900
31900
31944
31944
31944
31965
31965
31965
31965
31965
31965
31965
31922
31922
31922
31900
31900
31900
31900
31900
31900
31965
31965
31965
31965
31900
31900
31900
31944
31944
31944
31878
31878
31878
31922
31922
31922
31878
31878
31878
31878
31922
31922
31922
31944
31944
31944
31900
31900
31900
31900
31900
31900
31878
31878
31878
31878
31922
31922
31922
31922
31922
31922
31900
31900
31900
31987
31987
31987
31922
31922
31922
31922
31987
31987
31987
31922
31922
31922
31922
31922
31922
31922
31922
31922
31922
31922
31922
31922
31900
31900
31900
31965
31965
31965
31965
31965
31965
31856
31856
31856
31878
31878
31878
31878
31922
31922
31922
31900
31900
31900
31944
31944
31944
31900
31900
31900
31878
31878
31878
31878
31922
31922
31922
31900
31900
31900
31856
31856
31856
31900
31900
31900
31922
31922
31922
31922
31922
31922
31922
31856
31856
31856
31900
31900
31900
31965
31965
31965
31922
31922
31922
31922
31856
31856
31856
31856
31856
31856
31922
31922
31922
31987
31987
31987
31878
31878
31878
31878
31856
31856
31856
31965
31965
31965
31965
31965
31965
31856
31856
31856
31900
31900
31900
31900
31900
31900
31900
31900
31900
31900
31987
31987
31987
31944
31944
31944
31878
31878
31878
31878
31922
31922
31922
31922
31922
31922
31900
31900
31900
31987
31987
31987
31965
31965
31965
31965
31856
31856
31856
31922
31922
31922
31900
31900
31900
31944
31944
31944
31878
31878
31878
31878
31856
31856
31856
31944
31944
31944
31922
31922
31922
31987
31987
31987
31878
31878
31878
31878
31965
31965
31965
31987
31987
31987
31835
31835
31835
31900
31900
31900
32052
32052
32052
32052
31944
31944
31944
31987
31987
31987
31878
31878
31878
31922
31922
31922
31987
31987
31987
31987
31944
31944
31944
31965
31965
31965
32009
32009
32009
31944
31944
31944
31922
31922
31922
31922
31944
31944
31944
31944
31944
31944
31900
31900
31900
31987
31987
31987
31878
31878
31878
31878
31944
31944
31944
31944
31944
31944
31987
31987
31987
31900
31900
31900
31900
31900
31900
31900
31748
31748
31748
32031
32031
32031
31856
31856
31856
31944
31944
31944
31835
31835
31835
31835
31878
31878
31878
31922
31922
31922
31878
31878
31878
31922
31922
31922
31878
31878
31878
31878
31856
31856
31856
31922
31922
31922
31944
31944
31944
31944
31944
31944
31878
31878
31878
31878
31944
31944
31944
31900
31900
31900
31922
31922
31922
31944
31944
31944
31856
31856
31856
31856
31900
31900
31900
31878
31878
31878
31944
31944
31944
31965
31965
31965
31900
31900
31900
31900
31900
31900
31900
31965
31965
31965
31944
31944
31944
31944
31944
31944
31944
31944
31944
31944
31922
31922
31922
31944
31944
31944
31922
31922
31922
31987
31987
31987
31965
31965
31965
31965
31856
31856
31856
31922
31922
31922
31987
31987
31987
31965
31965
31965
31878
31878
31878
31878
31900
31900
31900
31922
31922
31922
31900
31900
31900
31944
31944
31944
31922
31922
31922
31922
31965
31965
31965
31922
31922
31922
31944
31944
31944
31965
31965
31965
31878
31878
31878
31878
31813
31813
31813
31987
31987
31987
31900
31900
31900
31922
31922
31922
31944
31944
31944
31944
31878
31878
31878
31987
31987
31987
31944
31944
31944
31987
31987
31987
31900
31900
31900
31900
31900
31900
31900
31878
31878
31878
31900
31900
31900
31900
31900
31900
31856
31856
31856
31856
31900
31900
31900
31944
31944
31944
31965
31965
31965
31944
31944
31944
31856
31856
31856
31856
31922
31922
31922
31922
31922
31922
31944
31944
31944
31944
31944
31944
31922
31922
31922
31922
31922
31922
31922
31944
31944
31944
31900
31900
31900
31900
31900
31900
31922
31922
31922
31922
31922
31922
31922
31965
31965
31965
31987
31987
31987
31791
31791
31791
31856
31856
31856
31856
31900
31900
31900
31922
31922
31922
31878
31878
31878
31900
31900
31900
31965
31965
31965
31965
31922
31922
31922
31965
31965
31965
31922
31922
31922
31856
31856
31856
31944
31944
31944
31944
31965
31965
31965
31900
31900
31900
31878
31878
31878
31922
31922
31922
31965
31965
31965
31965
31944
31944
31944
31987
31987
31987
31900
31900
31900
31922
31922
31922
31878
31878
31878
31878
31835
31835
31835
31922
31922
31922
32118
32118
32118
32052
32052
32052
31791
31791
31791
31791
31900
31900
31900
31922
31922
31922
31900
31900
31900
31900
31900
31900
31922
31922
31922
31922
31944
31944
31944
31900
31900
31900
31987
31987
31987
31965
31965
31965
31878
31878
31878
31878
31922
31922
31922
31922
31922
31922
31922
31922
31922
31944
31944
31944
31900
31900
31900
31900
31944
31944
31944
31944
31944
31944
31922
31922
31922
31965
31965
31965
31900
31900
31900
31900
31922
31922
31922
31922
31922
31922
31791
31791
31791
32031
32031
32031
31987
31987
31987
31987
31922
31922
31922
31965
31965
31965
31900
31900
31900
31965
31965
31965
31944
31944
31944
31944
31856
31856
31856
31878
31878
31878
31878
31878
31878
31922
31922
31922
31878
31878
31878
31878
31922
31922
31922
31922
31922
31922
31878
31878
31878
31944
31944
31944
31922
31922
31922
31922
31922
31922
31922
31900
31900
31900
31922
31922
31922
31944
31944
31944
31900
31900
31900
31900
31856
31856
31856
31965
31965
31965
31944
31944
31944
31965
31965
31965
31944
31944
31944
31944
31856
31856
31856
31944
31944
31944
31878
31878
31878
31922
31922
31922
31965
31965
31965
31965
31835
31835
31835
31944
31944
31944
31900
31900
31900
31900
31900
31900
31900
31900
31900
31900
31835
31835
31835
32009
32009
32009
31878
31878
31878
31878
31878
31878
31922
31922
31922
31922
31944
31944
31944
31922
31922
31922
31900
31900
31900
31944
31944
31944
31965
31965
31965
31965
31900
31900
31900
31922
31922
31922
31878
31878
31878
31965
31965
31965
32009
32009
32009
32009
31965
31965
31965
31878
31878
31878
31922
31922
31922
31944
31944
31944
31965
31965
31965
31965
31900
31900
31900
31922
31922
31922
31856
31856
31856
31944
31944
31944
31900
31900
31900
31900
31922
31922
31922
31922
31922
31922
31878
31878
31878
31878
31878
31878
31944
31944
31944
31944
31856
31856
31856
31922
31922
31922
31900
31900
31900
31922
31922
31922
31944
31944
31944
31944
31987
31987
31987
32031
32031
32031
32009
32009
32009
31835
31835
31835
31922
31922
31922
31922
31987
31987
31987
31878
31878
31878
31922
31922
31922
32009
32009
32009
31965
31965
31965
31965
31878
31878
31878
31835
31835
31835
31922
31922
31922
31944
31944
31944
31922
31922
31922
31922
31944
31944
31944
31944
31944
31944
31900
31900
31900
31944
31944
31944
31922
31922
31922
31922
31944
31944
31944
32009
32009
32009
32009
32009
32009
31965
31965
31965
31922
31922
31922
31922
31878
31878
31878
31900
31900
31900
31835
31835
31835
31965
31965
31965
31987
31987
31987
31987
31878
31878
31878
31944
31944
31944
31900
31900
31900
31922
31922
31922
31878
31878
31878
31878
31965
31965
31965
31922
31922
31922
31965
31965
31965
31965
31965
31965
31965
31965
31965
31965
31900
31900
31900
31944
31944
31944
31900
31900
31900
31900
31900
31900
31900
31900
31900
31900
31835
31835
31835
31965
31965
31965
31922
31922
31922
31900
31900
31900
31856
31856
31856
31856
31878
31878
31878
31922
31922
31922
31900
31900
31900
31856
31856
31856
31987
31987
31987
31987
31900
31900
31900
31944
31944
31944
31900
31900
31900
31900
31900
31900
31878
31878
31878
31878
31878
31878
31878
31900
31900
31900
31900
31900
31900
31878
31878
31878
31900
31900
31900
31900
31878
31878
31878
31944
31944
31944
31856
31856
31856
31944
31944
31944
31965
31965
31965
31965
31900
31900
31900
31922
31922
31922
31856
31856
31856
32009
32009
32009
31878
31878
31878
31878
31944
31944
31944
31900
31900
31900
31856
31856
31856
31878
31878
31878
31856
31856
31856
31856
31944
31944
31944
31922
31922
31922
31944
31944
31944
31944
31944
31944
31900
31900
31900
31900
31791
31791
31791
31922
31922
31922
31900
31900
31900
31922
31922
31922
31922
31922
31922
31922
31856
31856
31856
31987
31987
31987
31878
31878
31878
31922
31922
31922
31944
31944
31944
31944
31835
31835
31835
32031
32031
32031
31878
31878
31878
31878
31878
31878
32031
32031
32031
32031
31900
31900
31900
31965
31965
31965
31813
31813
31813
31900
31900
31900
31922
31922
31922
31922
31944
31944
31944
31922
31922
31922
31944
31944
31944
31944
31944
31944
31900
31900
31900
31900
31922
31922
31922
31965
31965
31965
31944
31944
31944
31965
31965
31965
31922
31922
31922
31922
31878
31878
31878
31944
31944
31944
31965
31965
31965
31944
31944
31944
31922
31922
31922
31922
31900
31900
31900
31965
31965
31965
31878
31878
31878
31900
31900
31900
31922
31922
31922
31922
31900
31900
31900
31878
31878
31878
31856
31856
31856
31922
31922
31922
31900
31900
31900
31900
31944
31944
31944
31922
31922
31922
31944
31944
31944
31856
31856
31856
31900
31900
31900
31900
31922
31922
31922
31922
31922
31922
31900
31900
31900
31944
31944
31944
31835
31835
31835
31835
31900
31900
31900
31856
31856
31856
31944
31944
31944
31944
31944
31944
31944
31944
31944
31944
31965
31965
31965
31900
31900
31900
31944
31944
31944
31922
31922
31922
31944
31944
31944
31944
31922
31922
31922
31900
31900
31900
31944
31944
31944
31944
31944
31944
31878
31878
31878
31878
31900
31900
31900
31944
31944
31944
31856
31856
31856
31922
31922
31922
31878
31878
31878
31878
31900
31900
31900
31900
31900
31900
31944
31944
31944
31965
31965
31965
31922
31922
31922
31922
31900
31900
31900
31987
31987
31987
31922
31922
31922
31922
31922
31922
31878
31878
31878
31878
31987
31987
31987
31987
31987
31987
31944
31944
31944
31944
31944
31944
31944
31944
31944
31944
31922
31922
31922
31944
31944
31944
31813
31813
31813
31922
31922
31922
31922
31922
31922
31922
31856
31856
31856
32009
32009
32009
31878
31878
31878
31900
31900
31900
32009
32009
32009
32009
31922
31922
31922
31922
31922
31922
31965
31965
31965
31922
31922
31922
31944
31944
31944
31944
31922
31922
31922
31922
31922
31922
31922
31922
31922
31965
31965
31965
31878
31878
31878
31878
31922
31922
31922
31922
31922
31922
31856
31856
31856
31944
31944
31944
31944
31944
31944
31944
32074
32074
32074
31922
31922
31922
31965
31965
31965
32009
32009
32009
31878
31878
31878
31878
31835
31835
31835
31922
31922
31922
31922
31922
31922
31922
31922
31922
31878
31878
31878
31878
31878
31878
31878
31922
31922
31922
31900
31900
31900
31900
31900
31900
31900
31900
31900
31900
31922
31922
31922
31965
31965
31965
31922
31922
31922
31922
31922
31922
31965
31965
31965
31965
31922
31922
31922
31900
31900
31900
31965
31965
31965
31922
31922
31922
31922
31922
31922
31922
31922
31922
31922
31922
31922
31922
31856
31856
31856
31900
31900
31900
31813
31813
31813
31813
31922
31922
31922
31944
31944
31944
31856
31856
31856
31878
31878
31878
31878
31878
31878
31878
31856
31856
31856
31922
31922
31922
31900
31900
31900
31922
31922
31922
31944
31944
31944
31944
31856
31856
31856
31987
31987
31987
31878
31878
31878
31944
31944
31944
31900
31900
31900
31900
31900
31900
31900
31944
31944
31944
31922
31922
31922
31965
31965
31965
31987
31987
31987
31987
31835
31835
31835
31965
31965
31965
31922
31922
31922
32009
32009
32009
31965
31965
31965
31965
31900
31900
31900
31900
31900
31900
31944
31944
31944
31922
31922
31922
31835
31835
31835
31835
31922
31922
31922
31944
31944
31944
31769
31769
31769
31944
31944
31944
31944
31944
31944
31944
31944
31944
31944
31944
31944
31944
31900
31900
31900
31944
31944
31944
31900
31900
31900
31900
31813
31813
31813
32074
32074
32074
31922
31922
31922
31965
31965
31965
31944
31944
31944
31944
31965
31965
31965
31944
31944
31944
31878
31878
31878
32052
32052
32052
31900
31900
31900
31900
31944
31944
31944
31900
31900
31900
31944
31944
31944
32052
32052
32052
31856
31856
31856
31856
31878
31878
31878
31922
31922
31922
31922
31922
31922
31944
31944
31944
31878
31878
31878
31878
31900
31900
31900
31944
31944
31944
31922
31922
31922
31944
31944
31944
31922
31922
31922
31922
31900
31900
31900
31922
31922
31922
32031
32031
32031
31922
31922
31922
31856
31856
31856
31856
31900
31900
31900
31987
31987
31987
31835
31835
31835
31965
31965
31965
31944
31944
31944
31944
31878
31878
31878
31900
31900
31900
31835
31835
31835
31944
31944
31944
31944
31944
31944
31944
31900
31900
31900
31965
31965
31965
31987
31987
31987
31987
31987
31987
31878
31878
31878
31878
31965
31965
31965
31900
31900
31900
31900
31900
31900
32031
32031
32031
31878
31878
31878
31878
31965
31965
31965
31965
31965
31965
31922
31922
31922
31900
31900
31900
31835
31835
31835
31835
31900
31900
31900
31813
31813
31813
31922
31922
31922
31922
31922
31922
31900
31900
31900
31900
31922
31922
31922
31944
31944
31944
31878
31878
31878
31965
31965
31965
31900
31900
31900
31900
31944
31944
31944
31922
31922
31922
31922
31922
31922
31965
31965
31965
31835
31835
31835
31835
31965
31965
31965
31856
31856
31856
31965
31965
31965
31900
31900
31900
31878
31878
31878
31878
31900
31900
31900
31965
31965
31965
31769
31769
31769
31835
31835
31835
31944
31944
31944
31944
32009
32009
32009
31922
31922
31922
31944
31944
31944
31965
31965
31965
31944
31944
31944
31944
31944
31944
31944
31922
31922
31922
31922
31922
31922
31900
31900
31900
31944
31944
31944
31944
31878
31878
31878
31965
31965
31965
31922
31922
31922
31900
31900
31900
31900
31900
31900
31900
31987
31987
31987
31944
31944
31944
31922
31922
31922
31878
31878
31878
31835
31835
31835
31835
31900
31900
31900
31965
31965
31965
31922
31922
31922
31987
31987
31987
31900
31900
31900
31900
31900
31900
31900
31944
31944
31944
31922
31922
31922
31965
31965
31965
31965
31965
31965
31965
31900
31900
31900
31922
31922
31922
31878
31878
31878
31944
31944
31944
31878
31878
31878
31878
31922
31922
31922
31900
31900
31900
31878
31878
31878
31944
31944
31944
31900
31900
31900
31900
31813
31813
31813
31878
31878
31878
31900
31900
31900
31965
31965
31965
31922
31922
31922
31922
31900
31900
31900
31922
31922
31922
31922
31922
31922
31835
31835
31835
31922
31922
31922
31922
31922
31922
31922
31856
31856
31856
31922
31922
31922
31878
31878
31878
31900
31900
31900
31900
31922
31922
31922
31835
31835
31835
31900
31900
31900
31987
31987
31987
31835
31835
31835
31835
31922
31922
31922
31878
31878
31878
31922
31922
31922
31922
31922
31922
31900
31900
31900
31900
31878
31878
31878
32009
32009
32009
31922
31922
31922
31944
31944
31944
32096
32096
32096
32096
31922
31922
31922
31922
31922
31922
31856
31856
31856
31922
31922
31922
31922
31922
31922
31922
31900
31900
31900
31922
31922
31922
31900
31900
31900
32009
32009
32009
31922
31922
31922
31922
31922
31922
31922
31922
31922
31922
31856
31856
31856
31987
31987
31987
31900
31900
31900
31900
32009
32009
32009
31922
31922
31922
31835
31835
31835
32009
32009
32009
31878
31878
31878
31878
32009
32009
32009
31878
31878
31878
31965
31965
31965
32074
32074
32074
31835
31835
31835
31835
31900
31900
31900
31965
31965
31965
31965
31965
31965
31922
31922
31922
31900
31900
31900
31900
31922
31922
31922
31965
31965
31965
31922
31922
31922
31944
31944
31944
31900
31900
31900
31900
31835
31835
31835
31965
31965
31965
31856
31856
31856
31900
31900
31900
31965
31965
31965
31965
31900
31900
31900
31900
31900
31900
32009
32009
32009
32031
32031
32031
31813
31813
31813
31813
31878
31878
31878
31922
31922
31922
31944
31944
31944
31922
31922
31922
31900
31900
31900
31900
31900
31900
31900
31965
31965
31965
31922
31922
31922
31878
31878
31878
31965
31965
31965
31965
31922
31922
31922
31965
31965
31965
31922
31922
31922
31944
31944
31944
31922
31922
31922
31922
32031
32031
32031
31944
31944
31944
31987
31987
31987
31944
31944
31944
31900
31900
31900
31900
31944
31944
31944
31900
31900
31900
31813
31813
31813
31900
31900
31900
32031
32031
32031
32031
31944
31944
31944
31878
31878
31878
31944
31944
31944
31944
31944
31944
31878
31878
31878
31878
31900
31900
31900
31944
31944
31944
31856
31856
31856
31965
31965
31965
31900
31900
31900
31900
31944
31944
31944
31965
31965
31965
31965
31965
31965
31987
31987
31987
31944
31944
31944
31944
31791
31791
31791
31856
31856
31856
31900
31900
31900
31900
31900
31900
31900
31900
31900
31900
31835
31835
31835
31987
31987
31987
31922
31922
31922
31922
31922
31922
31965
31965
31965
31965
31944
31944
31944
31944
31944
31944
31944
31944
31944
31965
31965
31965
31878
31878
31878
31878
31965
31965
31965
31944
31944
31944
31878
31878
31878
31922
31922
31922
31922
31922
31922
31922
31922
31922
31922
31922
31922
31922
31878
31878
31878
31965
31965
31965
31856
31856
31856
31856
31900
31900
31900
31922
31922
31922
31856
31856
31856
31965
31965
31965
31856
31856
31856
31856
31878
31878
31878
31856
31856
31856
31965
31965
31965
31900
31900
31900
31878
31878
31878
31878
31900
31900
31900
31965
31965
31965
32009
32009
32009
31922
31922
31922
31944
31944
31944
31944
31965
31965
31965
31944
31944
31944
31965
31965
31965
31987
31987
31987
31900
31900
31900
31900
31922
31922
31922
31965
31965
31965
31922
31922
31922
31900
31900
31900
31900
31900
31900
31900
31813
31813
31813
31856
31856
31856
31944
31944
31944
31878
31878
31878
31922
31922
31922
31922
31835
31835
31835
31944
31944
31944
31965
31965
31965
31944
31944
31944
31835
31835
31835
31835
31900
31900
31900
31944
31944
31944
31856
31856
31856
31922
31922
31922
31835
31835
31835
31835
31965
31965
31965
31965
31965
31965
31922
31922
31922
31922
31922
31922
31922
31922
31922
31922
31965
31965
31965
31965
31965
31965
31922
31922
31922
31944
31944
31944
31900
31900
31900
31900
31987
31987
31987
31878
31878
31878
31835
31835
31835
32009
32009
32009
31878
31878
31878
31878
31944
31944
31944
31900
31900
31900
31878
31878
31878
31987
31987
31987
31922
31922
31922
31922
31987
31987
31987
31944
31944
31944
31900
31900
31900
32118
32118
32118
31900
31900
31900
31900
32031
32031
32031
31900
31900
31900
31900
31900
31900
32009
32009
32009
31922
31922
31922
31922
31922
31922
31922
31922
31922
31922
31922
31922
31922
31987
31987
31987
31856
31856
31856
31856
31856
31856
31856
32031
32031
32031
31856
31856
31856
31922
31922
31922
31900
31900
31900
31900
31856
31856
31856
31878
31878
31878
31922
31922
31922
31922
31922
31922
31878
31878
31878
31878
31878
31878
31878
31965
31965
31965
31900
31900
31900
31922
31922
31922
31965
31965
31965
31965
31922
31922
31922
31944
31944
31944
31813
31813
31813
31922
31922
31922
31900
31900
31900
31900
31965
31965
31965
31922
31922
31922
31944
31944
31944
31965
31965
31965
31900
31900
31900
31900
31900
31900
31900
31878
31878
31878
31878
31878
31878
31900
31900
31900
31922
31922
31922
31922
31987
31987
31987
31922
31922
31922
31900
31900
31900
31944
31944
31944
31922
31922
31922
31922
31856
31856
31856
31944
31944
31944
31922
31922
31922
31856
31856
31856
31922
31922
31922
31922
32009
32009
32009
31944
31944
31944
31944
31944
31944
31835
31835
31835
31965
31965
31965
31965
31856
31856
31856
31922
31922
31922
31900
31900
31900
31922
31922
31922
32031
32031
32031
32031
31900
31900
31900
31965
31965
31965
31878
31878
31878
31944
31944
31944
31900
31900
31900
31900
31922
31922
31922
31944
31944
31944
31900
31900
31900
31965
31965
31965
31791
31791
31791
31791
31900
31900
31900
31944
31944
31944
31878
31878
31878
31944
31944
31944
31900
31900
31900
31900
31944
31944
31944
31704
31704
31704
31878
31878
31878
31965
31965
31965
32052
32052
32052
32052
31878
31878
31878
31944
31944
31944
31878
31878
31878
31922
31922
31922
31900
31900
31900
31900
31813
31813
31813
31944
31944
31944
31922
31922
31922
31813
31813
31813
31922
31922
31922
31922
31769
31769
31769
31944
31944
31944
31922
31922
31922
31878
31878
31878
31900
31900
31900
31900
31922
31922
31922
31987
31987
31987
31878
31878
31878
32031
32031
32031
31900
31900
31900
31900
31922
31922
31922
31900
31900
31900
31900
31900
31900
31987
31987
31987
31944
31944
31944
31944
31878
31878
31878
31835
31835
31835
31922
31922
31922
31987
31987
31987
31944
31944
31944
31944
31878
31878
31878
31944
31944
31944
31878
31878
31878
31900
31900
31900
31944
31944
31944
31944
31878
31878
31878
31922
31922
31922
31944
31944
31944
31965
31965
31965
31922
31922
31922
31922
31922
31922
31922
31922
31922
31922
31878
31878
31878
31965
31965
31965
31900
31900
31900
31900
31900
31900
31900
31922
31922
31922
31878
31878
31878
31922
31922
31922
31900
31900
31900
31900
31900
31900
31900
31922
31922
31922
31965
31965
31965
31944
31944
31944
31965
31965
31965
31965
31922
31922
31922
31965
31965
31965
31922
31922
31922
31900
31900
31900
31922
31922
31922
31922
31922
31922
31922
32074
32074
32074
31878
31878
31878
31922
31922
31922
31944
31944
31944
31944
31856
31856
31856
31900
31900
31900
31944
31944
31944
31856
31856
31856
31944
31944
31944
31944
31944
31944
31944
31900
31900
31900
31878
31878
31878
31900
31900
31900
31965
31965
31965
31965
31900
31900
31900
31922
31922
31922
31704
31704
31704
31944
31944
31944
32052
32052
32052
32052
31922
31922
31922
31944
31944
31944
31878
31878
31878
31922
31922
31922
31835
31835
31835
31835
31900
31900
31900
31944
31944
31944
31878
31878
31878
31878
31878
31878
31856
31856
31856
31856
31900
31900
31900
31965
31965
31965
31922
31922
31922
31922
31922
31922
31922
31922
31922
31922
31878
31878
31878
31922
31922
31922
31878
31878
31878
31922
31922
31922
31922
31922
31922
31922
31835
31835
31835
31922
31922
31922
31944
31944
31944
31900
31900
31900
31922
31922
31922
31922
31791
31791
31791
31987
31987
31987
31922
31922
31922
32031
32031
32031
31878
31878
31878
31878
31944
31944
31944
31944
31944
31944
31944
31944
31944
32009
32009
32009
31922
31922
31922
31922
31987
31987
31987
31987
31987
31987
31900
31900
31900
31900
31900
31900
31922
31922
31922
31922
31813
31813
31813
31965
31965
31965
31922
31922
31922
31987
31987
31987
31965
31965
31965
31965
31856
31856
31856
31813
31813
31813
31878
31878
31878
32052
32052
32052
31900
31900
31900
31900
31856
31856
31856
31944
31944
31944
31944
31944
31944
32096
32096
32096
31900
31900
31900
31900
31900
31900
31900
31965
31965
31965
31856
31856
31856
31965
31965
31965
31965
31965
31965
31965
31878
31878
31878
31987
31987
31987
31922
31922
31922
31965
31965
31965
31856
31856
31856
31856
31922
31922
31922
31965
31965
31965
32052
32052
32052
31900
31900
31900
31987
31987
31987
31987
31922
31922
31922
31878
31878
31878
31878
31878
31878
31900
31900
31900
31965
31965
31965
31965
31900
31900
31900
31922
31922
31922
31987
31987
31987
31965
31965
31965
31965
31965
31965
31965
31900
31900
31900
31965
31965
31965
31878
31878
31878
32009
32009
32009
31900
31900
31900
31900
31965
31965
31965
31944
31944
31944
31878
31878
31878
31965
31965
31965
31922
31922
31922
31922
31856
31856
31856
31856
31856
31856
31878
31878
31878
32074
32074
32074
31878
31878
31878
31878
31813
31813
31813
31987
31987
31987
31856
31856
31856
31944
31944
31944
31900
31900
31900
31900
31878
31878
31878
31922
31922
31922
31922
31922
31922
32009
32009
32009
31878
31878
31878
31878
31900
31900
31900
31944
31944
31944
31835
31835
31835
31922
31922
31922
31987
31987
31987
31987
32009
32009
32009
32031
32031
32031
31813
31813
31813
31878
31878
31878
31987
31987
31987
31987
31878
31878
31878
31900
31900
31900
31987
31987
31987
31965
31965
31965
31965
31965
31965
31965
31900
31900
31900
31922
31922
31922
31878
31878
31878
31944
31944
31944
31900
31900
31900
31900
31922
31922
31922
31922
31922
31922
31922
31922
31922
31922
31922
31922
31922
31922
31922
31922
32096
32096
32096
31856
31856
31856
31922
31922
31922
31922
31922
31922
31878
31878
31878
31878
31878
31878
31878
31856
31856
31856
31965
31965
31965
31944
31944
31944
31878
31878
31878
31878
31965
31965
31965
31922
31922
31922
31900
31900
31900
32009
32009
32009
31900
31900
31900
31900
31944
31944
31944
31965
31965
31965
31922
31922
31922
31944
31944
31944
31878
31878
31878
31878
31878
31878
31878
31856
31856
31856
31987
31987
31987
31922
31922
31922
31944
31944
31944
31944
31922
31922
31922
31900
31900
31900
31944
31944
31944
31878
31878
31878
31835
31835
31835
31835
31900
31900
31900
31965
31965
31965
31944
31944
31944
31922
31922
31922
31856
31856
31856
31856
31900
31900
31900
31878
31878
31878
31900
31900
31900
31944
31944
31944
31922
31922
31922
31922
31878
31878
31878
31856
31856
31856
31900
31900
31900
31965
31965
31965
31900
31900
31900
31900
31922
31922
31922
31900
31900
31900
31944
31944
31944
32009
32009
32009
31944
31944
31944
31944
31922
31922
31922
31922
31922
31922
31856
31856
31856
31987
31987
31987
31900
31900
31900
31900
31922
31922
31922
31944
31944
31944
31835
31835
31835
