31791
31791
31791
31791
31662
31662
31662
31769
31769
31769
31769
31769
31769
31812
31812
31812
31748
31748
31748
31748
31748
31748
31748
31877
31877
31877
31769
31769
31769
31748
31748
31748
31769
31769
31769
31769
31748
31748
31748
31791
31791
31791
31791
31791
31791
31769
31769
31769
31769
31769
31769
31769
31769
31769
31769
31834
31834
31834
31748
31748
31748
31791
31791
31791
31791
31791
31791
31791
31791
31791
31791
31812
31812
31812
31748
31748
31748
31791
31791
31791
31769
31769
31769
31769
31748
31748
31748
31791
31791
31791
31769
31769
31769
31791
31791
31791
31769
31769
31769
31769
31791
31791
31791
31791
31791
31791
31834
31834
31834
31769
31769
31769
31812
31812
31812
31812
31769
31769
31769
31769
31769
31769
31769
31769
31769
31769
31769
31769
31812
31812
31812
31812
31769
31769
31769
31812
31812
31812
31791
31791
31791
31748
31748
31748
31769
31769
31769
31769
31769
31769
31769
31791
31791
31791
31791
31791
31791
31748
31748
31748
31791
31791
31791
31791
31769
31769
31769
31769
31769
31769
31834
31834
31834
31748
31748
31748
31791
31791
31791
31791
31791
31791
31791
31769
31769
31769
31662
31662
31662
31791
31791
31791
31791
31791
31791
31791
31748
31748
31748
31812
31812
31812
31662
31662
31662
31726
31726
31726
31834
31834
31834
31834
31726
31726
31726
31812
31812
31812
31769
31769
31769
31812
31812
31812
31769
31769
31769
31769
31812
31812
31812
31791
31791
31791
31834
31834
31834
31791
31791
31791
31812
31812
31812
31812
31791
31791
31791
31769
31769
31769
31791
31791
31791
31834
31834
31834
31769
31769
31769
31769
31726
31726
31726
31855
31855
31855
31791
31791
31791
31812
31812
31812
31791
31791
31791
31791
31705
31705
31705
31855
31855
31855
31769
31769
31769
31812
31812
31812
31769
31769
31769
31769
31748
31748
31748
31834
31834
31834
31769
31769
31769
31855
31855
31855
31748
31748
31748
31748
31726
31726
31726
31855
31855
31855
31662
31662
31662
31834
31834
31834
31726
31726
31726
31726
31769
31769
31769
31812
31812
31812
31791
31791
31791
31791
31791
31791
31769
31769
31769
31769
31769
31769
31769
31812
31812
31812
31791
31791
31791
31769
31769
31769
31769
31769
31769
31769
31855
31855
31855
31791
31791
31791
31812
31812
31812
31812
31812
31812
31769
31769
31769
31769
31791
31791
31791
31791
31791
31791
31812
31812
31812
31769
31769
31769
31791
31791
31791
31791
31683
31683
31683
31791
31791
31791
31791
31791
31791
31791
31791
31791
31791
31791
31791
31791
31791
31791
31791
31769
31769
31769
31812
31812
31812
31812
31812
31812
31726
31726
31726
31726
31812
31812
31812
31791
31791
31791
31748
31748
31748
31791
31791
31791
31791
31791
31791
31791
31769
31769
31769
31791
31791
31791
31748
31748
31748
31812
31812
31812
31705
31705
31705
31705
31748
31748
31748
31791
31791
31791
31705
31705
31705
31812
31812
31812
31834
31834
31834
31834
31748
31748
31748
31769
31769
31769
31769
31769
31769
31769
31769
31769
31791
31791
31791
31791
31769
31769
31769
31748
31748
31748
31769
31769
31769
31748
31748
31748
31834
31834
31834
31834
31769
31769
31769
31705
31705
31705
31791
31791
31791
31834
31834
31834
31748
31748
31748
31748
31791
31791
31791
31769
31769
31769
31726
31726
31726
31812
31812
31812
31769
31769
31769
31769
31812
31812
31812
31769
31769
31769
31791
31791
31791
31791
31791
31791
31726
31726
31726
31726
31769
31769
31769
31769
31769
31769
31791
31791
31791
31769
31769
31769
31812
31812
31812
31812
31769
31769
31769
31791
31791
31791
31769
31769
31769
31834
31834
31834
31748
31748
31748
31748
31855
31855
31855
31769
31769
31769
31834
31834
31834
31769
31769
31769
31791
31791
31791
31791
31769
31769
31769
31769
31769
31769
31705
31705
31705
31769
31769
31769
31834
31834
31834
31834
31705
31705
31705
31812
31812
31812
31748
31748
31748
31769
31769
31769
31812
31812
31812
31812
31769
31769
31769
31812
31812
31812
31705
31705
31705
31812
31812
31812
31748
31748
31748
31748
31834
31834
31834
31748
31748
31748
31791
31791
31791
31855
31855
31855
31748
31748
31748
31748
31748
31748
31748
31791
31791
31791
31748
31748
31748
31834
31834
31834
31791
31791
31791
31791
31726
31726
31726
31769
31769
31769
31748
31748
31748
31791
31791
31791
31769
31769
31769
31769
31726
31726
31726
31855
31855
31855
31705
31705
31705
31812
31812
31812
31812
31812
31812
31812
31748
31748
31748
31791
31791
31791
31791
31791
31791
31769
31769
31769
31769
31769
31769
31769
31769
31769
31769
31769
31769
31769
31683
31683
31683
31791
31791
31791
31791
31791
31791
31791
31748
31748
31748
31769
31769
31769
31769
31769
31769
31769
31769
31769
31748
31748
31748
31748
31726
31726
31726
31855
31855
31855
31769
31769
31769
31748
31748
31748
31791
31791
31791
31791
31877
31877
31877
31812
31812
31812
31791
31791
31791
31769
31769
31769
31769
31769
31769
31769
31812
31812
31812
31769
31769
31769
31812
31812
31812
31877
31877
31877
31683
31683
31683
31683
31748
31748
31748
31769
31769
31769
31748
31748
31748
31812
31812
31812
31748
31748
31748
31748
31748
31748
31748
31812
31812
31812
31748
31748
31748
31812
31812
31812
31769
31769
31769
31769
31748
31748
31748
31769
31769
31769
31769
31769
31769
31748
31748
31748
31791
31791
31791
31791
31748
31748
31748
31791
31791
31791
31769
31769
31769
31726
31726
31726
31769
31769
31769
31769
31748
31748
31748
31748
31748
31748
31769
31769
31769
31769
31769
31769
31791
31791
31791
31791
31791
31791
31791
31748
31748
31748
31769
31769
31769
31855
31855
31855
31748
31748
31748
31748
31812
31812
31812
31769
31769
31769
31683
31683
31683
31834
31834
31834
31726
31726
31726
31726
31748
31748
31748
31963
31963
31963
31748
31748
31748
31726
31726
31726
31748
31748
31748
31748
31769
31769
31769
31769
31769
31769
31748
31748
31748
31748
31748
31748
31726
31726
31726
31726
31791
31791
31791
31769
31769
31769
31769
31769
31769
31791
31791
31791
31791
31791
31791
31791
31726
31726
31726
31855
31855
31855
31726
31726
31726
31812
31812
31812
31812
31812
31812
31812
31748
31748
31748
31812
31812
31812
31769
31769
31769
31791
31791
31791
31769
31769
31769
31769
31769
31769
31769
31812
31812
31812
31748
31748
31748
31791
31791
31791
31769
31769
31769
31769
31748
31748
31748
31791
31791
31791
31748
31748
31748
31726
31726
31726
31791
31791
31791
31791
31769
31769
31769
31812
31812
31812
31769
31769
31769
31791
31791
31791
31769
31769
31769
31769
31769
31769
31769
31791
31791
31791
31769
31769
31769
31791
31791
31791
31748
31748
31748
31748
31812
31812
31812
31726
31726
31726
31748
31748
31748
31726
31726
31726
31791
31791
31791
31791
31812
31812
31812
31769
31769
31769
31812
31812
31812
31791
31791
31791
31812
31812
31812
31812
31748
31748
31748
31812
31812
31812
31769
31769
31769
31834
31834
31834
31748
31748
31748
31748
31791
31791
31791
31791
31791
31791
31791
31791
31791
31812
31812
31812
31941
31941
31941
31941
31726
31726
31726
31791
31791
31791
31726
31726
31726
31791
31791
31791
31791
31791
31791
31791
31748
31748
31748
31791
31791
31791
31726
31726
31726
31726
31726
31726
31769
31769
31769
31769
31726
31726
31726
31791
31791
31791
31812
31812
31812
31834
31834
31834
31769
31769
31769
31769
31726
31726
31726
31812
31812
31812
31812
31812
31812
31683
31683
31683
31834
31834
31834
31834
31748
31748
31748
31812
31812
31812
31812
31812
31812
31726
31726
31726
31769
31769
31769
31769
31748
31748
31748
31791
31791
31791
31769
31769
31769
31726
31726
31726
31791
31791
31791
31791
31769
31769
31769
31769
31769
31769
31791
31791
31791
31769
31769
31769
31791
31791
31791
31791
31769
31769
31769
31726
31726
31726
31791
31791
31791
31791
31791
31791
31748
31748
31748
31748
31769
31769
31769
31791
31791
31791
31726
31726
31726
31791
31791
31791
31812
31812
31812
31812
31726
31726
31726
31769
31769
31769
31791
31791
31791
31791
31791
31791
31834
31834
31834
31834
31748
31748
31748
31769
31769
31769
31812
31812
31812
31748
31748
31748
31834
31834
31834
31834
31769
31769
31769
31769
31769
31769
31748
31748
31748
31920
31920
31920
31748
31748
31748
31748
31812
31812
31812
31791
31791
31791
31769
31769
31769
31812
31812
31812
31748
31748
31748
31748
31748
31748
31748
31748
31748
31748
31791
31791
31791
31834
31834
31834
31705
31705
31705
31705
31748
31748
31748
31791
31791
31791
31812
31812
31812
31726
31726
31726
31748
31748
31748
31748
31791
31791
31791
31812
31812
31812
31769
31769
31769
31812
31812
31812
31812
31812
31812
31812
31769
31769
31769
31769
31769
31769
31748
31748
31748
31812
31812
31812
31748
31748
31748
31748
31769
31769
31769
31791
31791
31791
31748
31748
31748
31791
31791
31791
31769
31769
31769
31769
31726
31726
31726
31791
31791
31791
31812
31812
31812
31791
31791
31791
31812
31812
31812
31812
31769
31769
31769
31791
31791
31791
31769
31769
31769
31791
31791
31791
31812
31812
31812
31812
31812
31812
31812
31812
31812
31812
31791
31791
31791
31834
31834
31834
31855
31855
31855
31855
31769
31769
31769
31812
31812
31812
31791
31791
31791
31769
31769
31769
31834
31834
31834
31834
31748
31748
31748
31769
31769
31769
31726
31726
31726
31812
31812
31812
31812
31812
31812
31812
31748
31748
31748
31791
31791
31791
31769
31769
31769
31726
31726
31726
31855
31855
31855
31855
31769
31769
31769
31769
31769
31769
31748
31748
31748
31791
31791
31791
31769
31769
31769
31769
31769
31769
31769
31791
31791
31791
31726
31726
31726
31791
31791
31791
31748
31748
31748
31748
31726
31726
31726
31769
31769
31769
31791
31791
31791
31791
31791
31791
31748
31748
31748
31748
31705
31705
31705
31791
31791
31791
31812
31812
31812
31769
31769
31769
31748
31748
31748
31748
31748
31748
31748
31769
31769
31769
31748
31748
31748
31791
31791
31791
31769
31769
31769
31769
31812
31812
31812
31769
31769
31769
31748
31748
31748
31769
31769
31769
31769
31769
31769
31769
31791
31791
31791
31726
31726
31726
31791
31791
31791
31748
31748
31748
31812
31812
31812
31812
31812
31812
31812
31812
31812
31812
31769
31769
31769
31705
31705
31705
31834
31834
31834
31834
31791
31791
31791
31812
31812
31812
31748
31748
31748
31791
31791
31791
31812
31812
31812
31812
31791
31791
31791
31812
31812
31812
31769
31769
31769
31791
31791
31791
31791
31791
31791
31791
31748
31748
31748
31769
31769
31769
31855
31855
31855
31791
31791
31791
31748
31748
31748
31748
31748
31748
31748
31791
31791
31791
31769
31769
31769
31748
31748
31748
31769
31769
31769
31769
31683
31683
31683
31705
31705
31705
31812
31812
31812
31683
31683
31683
31791
31791
31791
31791
31748
31748
31748
31791
31791
31791
31834
31834
31834
31812
31812
31812
31812
31812
31812
31812
31769
31769
31769
31834
31834
31834
31812
31812
31812
31769
31769
31769
31748
31748
31748
31748
31705
31705
31705
31812
31812
31812
31769
31769
31769
31769
31769
31769
31791
31791
31791
31791
31726
31726
31726
31726
31726
31726
31791
31791
31791
31812
31812
31812
31726
31726
31726
31726
31705
31705
31705
31812
31812
31812
31834
31834
31834
31769
31769
31769
31791
31791
31791
31791
31748
31748
31748
31812
31812
31812
31791
31791
31791
31769
31769
31769
31855
31855
31855
31855
31769
31769
31769
31791
31791
31791
31769
31769
31769
31748
31748
31748
31834
31834
31834
31834
31769
31769
31769
31791
31791
31791
31748
31748
31748
31812
31812
31812
31769
31769
31769
31769
31791
31791
31791
31791
31791
31791
31683
31683
31683
31812
31812
31812
31769
31769
31769
31769
31726
31726
31726
31855
31855
31855
31748
31748
31748
31769
31769
31769
31769
31769
31769
31769
31726
31726
31726
31769
31769
31769
31705
31705
31705
31791
31791
31791
31748
31748
31748
31748
31769
31769
31769
31877
31877
31877
31791
31791
31791
31791
31791
31791
31705
31705
31705
31705
31769
31769
31769
31834
31834
31834
31791
31791
31791
31769
31769
31769
31748
31748
31748
31748
31748
31748
31748
31812
31812
31812
31769
31769
31769
31791
31791
31791
31748
31748
31748
31748
31726
31726
31726
31812
31812
31812
31769
31769
31769
31769
31769
31769
31791
31791
31791
31791
31683
31683
31683
31834
31834
31834
31791
31791
31791
31748
31748
31748
31812
31812
31812
31812
31769
31769
31769
31748
31748
31748
31834
31834
31834
31769
31769
31769
31748
31748
31748
31748
31748
31748
31748
31791
31791
31791
31834
31834
31834
31791
31791
31791
31748
31748
31748
31748
31769
31769
31769
31877
31877
31877
31748
31748
31748
31791
31791
31791
31769
31769
31769
31769
31726
31726
31726
31769
31769
31769
31748
31748
31748
31791
31791
31791
31812
31812
31812
31812
31769
31769
31769
31812
31812
31812
31705
31705
31705
31791
31791
31791
31791
31791
31791
31791
31769
31769
31769
31748
31748
31748
31855
31855
31855
31726
31726
31726
31791
31791
31791
31791
31726
31726
31726
31791
31791
31791
31748
31748
31748
31748
31748
31748
31834
31834
31834
31834
31812
31812
31812
31812
31812
31812
31748
31748
31748
31877
31877
31877
31769
31769
31769
31769
31748
31748
31748
31748
31748
31748
31812
31812
31812
31812
31812
31812
31769
31769
31769
31769
31769
31769
31769
31769
31769
31769
31769
31769
31769
31791
31791
31791
31726
31726
31726
31726
31834
31834
31834
31748
31748
31748
31855
31855
31855
31791
31791
31791
31748
31748
31748
31748
31769
31769
31769
31769
31769
31769
31748
31748
31748
31812
31812
31812
31683
31683
31683
31683
31748
31748
31748
31791
31791
31791
31769
31769
31769
31769
31769
31769
31748
31748
31748
31748
31748
31748
31748
31812
31812
31812
31769
31769
31769
31769
31769
31769
31791
31791
31791
31791
31769
31769
31769
31769
31769
31769
31812
31812
31812
31769
31769
31769
31769
31769
31769
31769
31748
31748
31748
31812
31812
31812
31791
31791
31791
31769
31769
31769
31791
31791
31791
31791
31726
31726
31726
31769
31769
31769
31791
31791
31791
31769
31769
31769
31834
31834
31834
31834
31748
31748
31748
31834
31834
31834
31769
31769
31769
31769
31769
31769
31812
31812
31812
31812
31791
31791
31791
31791
31791
31791
31769
31769
31769
31748
31748
31748
31834
31834
31834
31834
31769
31769
31769
31769
31769
31769
31726
31726
31726
31791
31791
31791
31748
31748
31748
31748
31812
31812
31812
31812
31812
31812
31769
31769
31769
31769
31769
31769
31748
31748
31748
31748
31683
31683
31683
31812
31812
31812
31748
31748
31748
31769
31769
31769
31791
31791
31791
31791
31748
31748
31748
31769
31769
31769
31791
31791
31791
31791
31791
31791
31726
31726
31726
31726
31748
31748
31748
31834
31834
31834
31791
31791
31791
31748
31748
31748
31769
31769
31769
31769
31769
31769
31769
31769
31769
31769
31791
31791
31791
31812
31812
31812
31769
31769
31769
31769
31748
31748
31748
31769
31769
31769
31748
31748
31748
31791
31791
31791
31769
31769
31769
31769
31791
31791
31791
31812
31812
31812
31769
31769
31769
31769
31769
31769
31769
31769
31769
31769
31769
31769
31769
31748
31748
31748
31662
31662
31662
31791
31791
31791
31791
31791
31791
31791
31769
31769
31769
31791
31791
31791
31726
31726
31726
31769
31769
31769
31834
31834
31834
31834
31834
31834
31834
31769
31769
31769
31812
31812
31812
31769
31769
31769
31769
31769
31769
31769
31769
31769
31769
31748
31748
31748
31769
31769
31769
31834
31834
31834
31748
31748
31748
31748
31769
31769
31769
31748
31748
31748
31769
31769
31769
31812
31812
31812
31748
31748
31748
31748
31726
31726
31726
31834
31834
31834
31791
31791
31791
31812
31812
31812
31791
31791
31791
31791
31748
31748
31748
31791
31791
31791
31748
31748
31748
31791
31791
31791
31683
31683
31683
31683
31791
31791
31791
31791
31791
31791
31791
31791
31791
31769
31769
31769
31812
31812
31812
31812
31769
31769
31769
31791
31791
31791
31812
31812
31812
31769
31769
31769
31769
31769
31769
31769
31769
31769
31769
31791
31791
31791
31726
31726
31726
31855
31855
31855
31769
31769
31769
31769
31769
31769
31769
31726
31726
31726
31748
31748
31748
31791
31791
31791
31791
31791
31791
31791
31812
31812
31812
31748
31748
31748
31705
31705
31705
31769
31769
31769
31726
31726
31726
31726
31769
31769
31769
31812
31812
31812
31769
31769
31769
31769
31769
31769
31791
31791
31791
31791
31791
31791
31791
31791
31791
31791
31748
31748
31748
31791
31791
31791
31834
31834
31834
31834
31748
31748
31748
31834
31834
31834
31791
31791
31791
31791
31791
31791
31683
31683
31683
31683
31726
31726
31726
31834
31834
31834
31769
31769
31769
31834
31834
31834
31791
31791
31791
31791
31769
31769
31769
31769
31769
31769
31877
31877
31877
31812
31812
31812
31748
31748
31748
31748
31791
31791
31791
31791
31791
31791
31812
31812
31812
31855
31855
31855
31726
31726
31726
31726
31812
31812
31812
31769
31769
31769
31748
31748
31748
31748
31748
31748
31812
31812
31812
31812
31726
31726
31726
31791
31791
31791
31726
31726
31726
31726
31726
31726
31726
31726
31726
31726
31748
31748
31748
31812
31812
31812
31769
31769
31769
31855
31855
31855
31769
31769
31769
31769
31769
31769
31769
31748
31748
31748
31791
31791
31791
31726
31726
31726
31726
31726
31726
31726
31726
31726
31726
31834
31834
31834
31834
31834
31834
31834
31834
31834
31834
31834
31834
31834
31769
31769
31769
31812
31812
31812
31769
31769
31769
31748
31748
31748
31791
31791
31791
31791
31769
31769
31769
31812
31812
31812
31769
31769
31769
31791
31791
31791
31769
31769
31769
31769
31769
31769
31769
31748
31748
31748
31791
31791
31791
31791
31791
31791
31791
31791
31791
31791
31726
31726
31726
31791
31791
31791
31683
31683
31683
31726
31726
31726
31705
31705
31705
31705
31748
31748
31748
31791
31791
31791
31748
31748
31748
31748
31748
31748
31748
31748
31748
31748
31748
31748
31748
31726
31726
31726
31726
31726
31726
31769
31769
31769
31791
31791
31791
31791
31769
31769
31769
31705
31705
31705
31791
31791
31791
31769
31769
31769
31748
31748
31748
31748
31748
31748
31748
31726
31726
31726
31748
31748
31748
31748
31748
31748
31748
31748
31748
31748
31662
31662
31662
31812
31812
31812
31683
31683
31683
31834
31834
31834
31769
31769
31769
31769
31748
31748
31748
31791
31791
31791
31791
31791
31791
31791
31791
31791
31705
31705
31705
31705
31791
31791
31791
31791
31791
31791
31748
31748
31748
31812
31812
31812
31769
31769
31769
31769
31812
31812
31812
31769
31769
31769
31769
31769
31769
31791
31791
31791
31984
31984
31984
31984
31748
31748
31748
31791
31791
31791
31791
31791
31791
31791
31791
31791
31748
31748
31748
31748
31812
31812
31812
31812
31812
31812
31769
31769
31769
31748
31748
31748
31748
31748
31748
31748
31812
31812
31812
31769
31769
31769
31748
31748
31748
31705
31705
31705
31877
31877
31877
31877
31748
31748
31748
31726
31726
31726
31769
31769
31769
31812
31812
31812
31812
31812
31812
31812
31748
31748
31748
31769
31769
31769
31791
31791
31791
31791
31791
31791
31748
31748
31748
31748
31769
31769
31769
31791
31791
31791
31769
31769
31769
31812
31812
31812
31812
31812
31812
31812
31769
31769
31769
31748
31748
31748
31748
31748
31748
31791
31791
31791
31769
31769
31769
31769
31769
31769
31769
31791
31791
31791
31812
31812
31812
31748
31748
31748
31898
31898
31898
31898
31748
31748
31748
31791
31791
31791
31791
31791
31791
31748
31748
31748
31748
31748
31748
31748
31812
31812
31812
31748
31748
31748
31791
31791
31791
31791
31791
31791
31769
31769
31769
31769
31769
31769
31769
31834
31834
31834
31769
31769
31769
31791
31791
31791
31834
31834
31834
31834
31769
31769
31769
31748
31748
31748
31791
31791
31791
31769
31769
31769
31769
31769
31769
31769
31769
31769
31769
31769
31769
31769
31769
31769
31769
31791
31791
31791
31748
31748
31748
31748
31748
31748
31748
31812
31812
31812
31791
31791
31791
31812
31812
31812
31791
31791
31791
31791
31791
31791
31791
31791
31791
31791
31812
31812
31812
31791
31791
31791
31791
31791
31791
31791
31705
31705
31705
31769
31769
31769
31769
31769
31769
31726
31726
31726
31791
31791
31791
31791
31726
31726
31726
31791
31791
31791
31791
31791
31791
31791
31791
31791
31769
31769
31769
31769
31791
31791
31791
31812
31812
31812
31812
31812
31812
31898
31898
31898
31791
31791
31791
31791
31769
31769
31769
32027
32027
32027
31748
31748
31748
31769
31769
31769
31748
31748
31748
31748
31769
31769
31769
31791
31791
31791
31791
31791
31791
31769
31769
31769
31769
31769
31769
31769
31769
31769
31769
31769
31769
31769
31812
31812
31812
31812
31812
31812
31791
31791
31791
31791
31705
31705
31705
31812
31812
31812
31812
31812
31812
31791
31791
31791
31769
31769
31769
31769
31791
31791
31791
31812
31812
31812
31726
31726
31726
31812
31812
31812
31769
31769
31769
31769
31791
31791
31791
31748
31748
31748
31726
31726
31726
31791
31791
31791
31791
31791
31791
31791
31834
31834
31834
31748
31748
31748
31791
31791
31791
31769
31769
31769
31726
31726
31726
31726
31769
31769
31769
31769
31769
31769
31791
31791
31791
31791
31791
31791
31769
31769
31769
31769
31554
31554
31554
31791
31791
31791
31769
31769
31769
31812
31812
31812
31748
31748
31748
31748
31791
31791
31791
31726
31726
31726
31748
31748
31748
31683
31683
31683
31855
31855
31855
31855
31769
31769
31769
31769
31769
31769
31769
31769
31769
31812
31812
31812
31812
31812
31812
31812
31769
31769
31769
31769
31769
31769
31834
31834
31834
31769
31769
31769
31769
31769
31769
31769
31748
31748
31748
31812
31812
31812
31791
31791
31791
31791
31791
31791
31769
31769
31769
31769
31791
31791
31791
31791
31791
31791
31748
31748
31748
31834
31834
31834
31812
31812
31812
31812
31834
31834
31834
31877
31877
31877
31812
31812
31812
31834
31834
31834
31748
31748
31748
31748
31791
31791
31791
31791
31791
31791
31791
31791
31791
31769
31769
31769
31791
31791
31791
31791
31791
31791
31791
31769
31769
31769
31812
31812
31812
31812
31812
31812
31791
31791
31791
31791
31791
31791
31791
31769
31769
31769
31748
31748
31748
31791
31791
31791
31791
31791
31791
31791
31769
31769
31769
31855
31855
31855
31705
31705
31705
31726
31726
31726
31791
31791
31791
31791
31748
31748
31748
31855
31855
31855
31705
31705
31705
31748
31748
31748
31705
31705
31705
31705
31769
31769
31769
31791
31791
31791
31705
31705
31705
31812
31812
31812
31791
31791
31791
31791
31791
31791
31791
31812
31812
31812
31834
31834
31834
31812
31812
31812
31812
31812
31812
31812
31791
31791
31791
31791
31791
31791
31748
31748
31748
31748
31748
31748
31769
31769
31769
31769
31791
31791
31791
31769
31769
31769
31769
31769
31769
31791
31791
31791
31812
31812
31812
31812
31683
31683
31683
31726
31726
31726
31769
31769
31769
31791
31791
31791
31812
31812
31812
31812
31791
31791
31791
31748
31748
31748
31769
31769
31769
31834
31834
31834
31726
31726
31726
31726
31791
31791
31791
31791
31791
31791
31769
31769
31769
31791
31791
31791
31769
31769
31769
31769
31791
31791
31791
31769
31769
31769
31769
31769
31769
31791
31791
31791
31834
31834
31834
31834
31726
31726
31726
31812
31812
31812
31769
31769
31769
31834
31834
31834
31769
31769
31769
31769
31769
31769
31769
31855
31855
31855
31812
31812
31812
31834
31834
31834
31812
31812
31812
31812
31683
31683
31683
31812
31812
31812
31748
31748
31748
31769
31769
31769
31812
31812
31812
31812
31748
31748
31748
31791
31791
31791
31834
31834
31834
31748
31748
31748
31769
31769
31769
31769
31748
31748
31748
31834
31834
31834
31812
31812
31812
31791
31791
31791
31748
31748
31748
31748
31748
31748
31748
31769
31769
31769
31834
31834
31834
31769
31769
31769
31791
31791
31791
31791
31726
31726
31726
31791
31791
31791
31705
31705
31705
31769
31769
31769
31748
31748
31748
31748
31769
31769
31769
31791
31791
31791
31769
31769
31769
31769
31769
31769
31769
31769
31769
31769
31791
31791
31791
31812
31812
31812
31748
31748
31748
31748
31748
31748
31791
31791
31791
31791
31769
31769
31769
31812
31812
31812
31748
31748
31748
31812
31812
31812
31791
31791
31791
31791
31662
31662
31662
31791
31791
31791
31683
31683
31683
31791
31791
31791
31769
31769
31769
31769
31812
31812
31812
31769
31769
31769
31726
31726
31726
31812
31812
31812
31812
31812
31812
31812
31769
31769
31769
31791
31791
31791
31468
31468
31468
31812
31812
31812
31769
31769
31769
31769
31748
31748
31748
31769
31769
31769
31812
31812
31812
31812
31812
31812
31834
31834
31834
31834
31791
31791
31791
31791
31791
31791
31769
31769
31769
31812
31812
31812
31791
31791
31791
31791
31791
31791
31791
31683
31683
31683
31705
31705
31705
31834
31834
31834
31748
31748
31748
31748
31791
31791
31791
31748
31748
31748
31855
31855
31855
31791
31791
31791
31726
31726
31726
31726
31769
31769
31769
31812
31812
31812
31769
31769
31769
31791
31791
31791
31834
31834
31834
31834
31769
31769
31769
31791
31791
31791
31791
31791
31791
31812
31812
31812
31748
31748
31748
31748
31769
31769
31769
31791
31791
31791
31769
31769
31769
31834
31834
31834
31791
31791
31791
31791
31748
31748
31748
31834
31834
31834
31877
31877
31877
31726
31726
31726
31748
31748
31748
31748
31748
31748
31748
31812
31812
31812
31791
31791
31791
31834
31834
31834
31812
31812
31812
31812
31726
31726
31726
31812
31812
31812
31812
31812
31812
31748
31748
31748
31834
31834
31834
31834
31769
31769
31769
31791
31791
31791
31769
31769
31769
31748
31748
31748
31769
31769
31769
31769
31769
31769
31769
31791
31791
31791
31748
31748
31748
31748
31748
31748
31791
31791
31791
31791
31748
31748
31748
31769
31769
31769
31834
31834
31834
31769
31769
31769
31812
31812
31812
31812
31748
31748
31748
31769
31769
31769
31812
31812
31812
31791
31791
31791
31812
31812
31812
31812
31791
31791
31791
31748
31748
31748
31769
31769
31769
31769
31769
31769
31834
31834
31834
31834
31769
31769
31769
31769
31769
31769
31748
31748
31748
31769
31769
31769
31769
31769
31769
31769
31791
31791
31791
31791
31791
31791
31769
31769
31769
31791
31791
31791
31791
31791
31791
31791
31748
31748
31748
31791
31791
31791
31812
31812
31812
31812
31812
31812
31834
31834
31834
31834
31683
31683
31683
31791
31791
31791
31769
31769
31769
31812
31812
31812
31791
31791
31791
31791
31748
31748
31748
31812
31812
31812
31791
31791
31791
31748
31748
31748
31812
31812
31812
31812
31791
31791
31791
31984
31984
31984
31726
31726
31726
31769
31769
31769
31791
31791
31791
31791
31748
31748
31748
31726
31726
31726
31769
31769
31769
31769
31769
31769
31769
31769
31769
31769
31791
31791
31791
31791
31791
31791
31748
31748
31748
31812
31812
31812
31748
31748
31748
31748
31726
31726
31726
31812
31812
31812
31769
31769
31769
31791
31791
31791
31812
31812
31812
31812
31726
31726
31726
31791
31791
31791
31748
31748
31748
31834
31834
31834
31769
31769
31769
31769
31769
31769
31769
31769
31769
31769
31748
31748
31748
31812
31812
31812
31791
31791
31791
31791
31791
31791
31791
31877
31877
31877
31769
31769
31769
31855
31855
31855
31791
31791
31791
31791
31791
31791
31791
31791
31791
31791
31769
31769
31769
31791
31791
31791
31791
31791
31791
31791
31748
31748
31748
31769
31769
31769
31662
31662
31662
31791
31791
31791
31769
31769
31769
31769
31748
31748
31748
31791
31791
31791
31812
31812
31812
31791
31791
31791
31769
31769
31769
31769
31748
31748
31748
31812
31812
31812
31748
31748
31748
31812
31812
31812
31769
31769
31769
31769
31769
31769
31769
31769
31769
31769
31855
31855
31855
31769
31769
31769
31748
31748
31748
31748
31791
31791
31791
31769
31769
31769
31834
31834
31834
31791
31791
31791
31791
31791
31791
31791
31769
31769
31769
31791
31791
31791
31769
31769
31769
31834
31834
31834
31726
31726
31726
31726
31769
31769
31769
31769
31769
31769
31748
31748
31748
31791
31791
31791
31748
31748
31748
31748
31812
31812
31812
31834
31834
31834
31748
31748
31748
31748
31748
31748
31769
31769
31769
31769
31834
31834
31834
31726
31726
31726
31769
31769
31769
31705
31705
31705
31812
31812
31812
31812
31812
31812
31812
31748
31748
31748
31748
31748
31748
31834
31834
31834
31769
31769
31769
31769
31769
31769
31769
31791
31791
31791
31748
31748
31748
31812
31812
31812
31812
31812
31812
31812
31748
31748
31748
31855
31855
31855
31748
31748
31748
31769
31769
31769
31726
31726
31726
31726
31769
31769
31769
31705
31705
31705
31834
31834
31834
31791
31791
31791
31812
31812
31812
31812
31769
31769
31769
31769
31769
31769
31855
31855
31855
31791
31791
31791
31705
31705
31705
31705
31769
31769
31769
31769
31769
31769
31748
31748
31748
31769
31769
31769
31769
31769
31769
31769
31683
31683
31683
31791
31791
31791
31791
31791
31791
31683
31683
31683
31769
31769
31769
31769
31683
31683
31683
31812
31812
31812
31769
31769
31769
31812
31812
31812
31769
31769
31769
31769
31748
31748
31748
31898
31898
31898
31769
31769
31769
31877
31877
31877
31812
31812
31812
31812
31726
31726
31726
31791
31791
31791
31769
31769
31769
31791
31791
31791
31748
31748
31748
31748
31791
31791
31791
31791
31791
31791
31791
31791
31791
31791
31791
31791
31791
31791
31791
31791
31791
31791
31791
31834
31834
31834
31791
31791
31791
31812
31812
31812
31812
31812
31812
31812
31769
31769
31769
31791
31791
31791
31726
31726
31726
31769
31769
31769
31812
31812
31812
31812
31812
31812
31812
31812
31812
31812
31791
31791
31791
31834
31834
31834
31812
31812
31812
31812
31791
31791
31791
31769
31769
31769
31812
31812
31812
31812
31812
31812
31791
31791
31791
31791
31705
31705
31705
31791
31791
31791
31791
31791
31791
31748
31748
31748
31834
31834
31834
31834
31812
31812
31812
31791
31791
31791
31791
31791
31791
31748
31748
31748
31812
31812
31812
31812
31769
31769
31769
31769
31769
31769
31769
31769
31769
31812
31812
31812
31748
31748
31748
31748
31726
31726
31726
31791
31791
31791
31769
31769
31769
31769
31769
31769
31769
31769
31769
31769
31834
31834
31834
31748
31748
31748
31748
31748
31748
31812
31812
31812
31726
31726
31726
31726
31769
31769
31769
31834
31834
31834
31769
31769
31769
31812
31812
31812
31748
31748
31748
31748
31791
31791
31791
31769
31769
31769
31748
31748
31748
31769
31769
31769
31791
31791
31791
31791
31769
31769
31769
31812
31812
31812
31834
31834
31834
31791
31791
31791
31769
31769
31769
31769
31834
31834
31834
31791
31791
31791
31941
31941
31941
31769
31769
31769
31726
31726
31726
31726
31748
31748
31748
31791
31791
31791
31812
31812
31812
31748
31748
31748
31769
31769
31769
31769
31726
31726
31726
31812
31812
31812
31791
31791
31791
31769
31769
31769
31769
31769
31769
31769
31748
31748
31748
31812
31812
31812
31791
31791
31791
31812
31812
31812
31791
31791
31791
31791
31812
31812
31812
31812
31812
31812
31791
31791
31791
31726
31726
31726
31769
31769
31769
31769
31748
31748
31748
31769
31769
31769
31769
31769
31769
31834
31834
31834
31748
31748
31748
31748
31748
31748
31748
31748
31748
31748
31791
31791
31791
31769
31769
31769
31769
31769
31769
31769
31791
31791
31791
31748
31748
31748
31769
31769
31769
31769
31769
31769
31748
31748
31748
31748
31791
31791
31791
31726
31726
31726
31812
31812
31812
31855
31855
31855
31769
31769
31769
31769
31834
31834
31834
31769
31769
31769
31769
31769
31769
31791
31791
31791
31769
31769
31769
31769
31769
31769
31769
31769
31769
31769
31748
31748
31748
31769
31769
31769
31769
31769
31769
31769
31791
31791
31791
31748
31748
31748
31748
31748
31748
31834
31834
31834
31748
31748
31748
31748
31769
31769
31769
31855
31855
31855
31791
31791
31791
31791
31791
31791
31834
31834
31834
31834
31769
31769
31769
31855
31855
31855
31769
31769
31769
31834
31834
31834
31855
31855
31855
31855
31726
31726
31726
31748
31748
31748
31769
31769
31769
31748
31748
31748
31769
31769
31769
31769
31769
31769
31769
31748
31748
31748
31769
31769
31769
31791
31791
31791
31705
31705
31705
31705
31769
31769
31769
31898
31898
31898
31834
31834
31834
31769
31769
31769
31769
31769
31769
31769
31726
31726
31726
31812
31812
31812
31769
31769
31769
31726
31726
31726
31791
31791
31791
31791
31769
31769
31769
31769
31769
31769
31769
31769
31769
31791
31791
31791
31769
31769
31769
31769
31834
31834
31834
31726
31726
31726
31791
31791
31791
31769
31769
31769
31769
31769
31769
31769
31769
31769
31769
31812
31812
31812
31834
31834
31834
31705
31705
31705
31748
31748
31748
31748
31812
31812
31812
31769
31769
31769
31791
31791
31791
31812
31812
31812
31748
31748
31748
31748
31769
31769
31769
31748
31748
31748
31748
31748
31748
31812
31812
31812
31791
31791
31791
31791
31769
31769
31769
31791
31791
31791
31769
31769
31769
31834
31834
31834
31791
31791
31791
31791
31769
31769
31769
31791
31791
31791
31769
31769
31769
31812
31812
31812
31812
31812
31812
31812
31812
31812
31812
31812
31812
31812
31812
31812
31812
31748
31748
31748
31769
31769
31769
31769
31748
31748
31748
31748
31748
31748
31791
31791
31791
31791
31791
31791
31748
31748
31748
31748
31791
31791
31791
31726
31726
31726
31812
31812
31812
31855
31855
31855
31834
31834
31834
31834
31748
31748
31748
31769
31769
31769
31726
31726
31726
31769
31769
31769
31834
31834
31834
31834
31769
31769
31769
31812
31812
31812
31748
31748
31748
31791
31791
31791
31769
31769
31769
31769
31769
31769
31769
31791
31791
31791
31834
31834
31834
31726
31726
31726
31812
31812
31812
31812
31748
31748
31748
31769
31769
31769
31791
31791
31791
31791
31791
31791
31791
31791
31791
31791
31726
31726
31726
31769
31769
31769
31726
31726
31726
31791
31791
31791
31769
31769
31769
31769
31812
31812
31812
31812
31812
31812
31726
31726
31726
31834
31834
31834
31791
31791
31791
31791
31769
31769
31769
31791
31791
31791
31769
31769
31769
31834
31834
31834
31748
31748
31748
31748
31769
31769
31769
31855
31855
31855
31877
31877
31877
31834
31834
31834
31769
31769
31769
31769
31812
31812
31812
31769
31769
31769
31769
31769
31769
31834
31834
31834
31791
31791
31791
31791
31791
31791
31791
31791
31791
31791
31769
31769
31769
31791
31791
31791
31855
31855
31855
31855
31769
31769
31769
31769
31769
31769
31726
31726
31726
31791
31791
31791
31812
31812
31812
31812
31726
31726
31726
31769
31769
31769
31726
31726
31726
31812
31812
31812
31705
31705
31705
31705
31748
31748
31748
31726
31726
31726
31748
31748
31748
31726
31726
31726
31812
31812
31812
31812
31683
31683
31683
31748
31748
31748
31834
31834
31834
31791
31791
31791
31748
31748
31748
31748
31705
31705
31705
31769
31769
31769
31791
31791
31791
31748
31748
31748
31769
31769
31769
31769
31834
31834
31834
31748
31748
31748
31834
31834
31834
31834
31834
31834
31726
31726
31726
31726
31812
31812
31812
31726
31726
31726
31769
31769
31769
31812
31812
31812
31726
31726
31726
31726
31769
31769
31769
31791
31791
31791
31791
31791
31791
31812
31812
31812
31705
31705
31705
31705
31769
31769
31769
31834
31834
31834
31705
31705
31705
31769
31769
31769
31748
31748
31748
31748
31791
31791
31791
31769
31769
31769
31769
31769
31769
31791
31791
31791
31791
31791
31791
31791
31877
31877
31877
31791
31791
31791
31834
31834
31834
31748
31748
31748
31812
31812
31812
31812
31834
31834
31834
31791
31791
31791
31791
31791
31791
31812
31812
31812
31791
31791
31791
31791
31877
31877
31877
31834
31834
31834
31748
31748
31748
31834
31834
31834
31812
31812
31812
31812
31748
31748
31748
31855
31855
31855
31726
31726
31726
31769
31769
31769
31705
31705
31705
31705
31748
31748
31748
31791
31791
31791
31769
31769
31769
31812
31812
31812
31748
31748
31748
31748
31791
31791
31791
31812
31812
31812
31769
31769
31769
31769
31769
31769
31748
31748
31748
31748
31748
31748
31748
31769
31769
31769
31748
31748
31748
31812
31812
31812
31769
31769
31769
31769
31791
31791
31791
31705
31705
31705
31726
31726
31726
31855
31855
31855
31791
31791
31791
31791
31748
31748
31748
31834
31834
31834
31769
31769
31769
31834
31834
31834
31748
31748
31748
31748
31748
31748
31748
31769
31769
31769
31812
31812
31812
31769
31769
31769
31769
31769
31769
31769
31791
31791
31791
31748
31748
31748
31769
31769
31769
31748
31748
31748
31748
31748
31748
31748
31812
31812
31812
31726
31726
31726
31791
31791
31791
31834
31834
31834
31769
31769
31769
31769
31812
31812
31812
31834
31834
31834
31748
31748
31748
31812
31812
31812
31898
31898
31898
31898
31769
31769
31769
31834
31834
31834
31748
31748
31748
31791
31791
31791
31834
31834
31834
31834
31726
31726
31726
31791
31791
31791
31791
31791
31791
31791
31791
31791
31748
31748
31748
31748
31769
31769
31769
31812
31812
31812
31791
31791
31791
31791
31791
31791
31812
31812
31812
31812
31812
31812
31812
31769
31769
31769
31769
31769
31769
31834
31834
31834
31791
31791
31791
31791
31834
31834
31834
31855
31855
31855
31769
31769
31769
31812
31812
31812
31769
31769
31769
31769
31769
31769
31769
31748
31748
31748
31812
31812
31812
31726
31726
31726
31769
31769
31769
31769
31748
31748
31748
31855
31855
31855
31791
31791
31791
31748
31748
31748
31791
31791
31791
31791
31748
31748
31748
31769
31769
31769
31769
31769
31769
31769
31769
31769
31791
31791
31791
31791
31748
31748
31748
31748
31748
31748
31769
31769
31769
31834
31834
31834
31748
31748
31748
31748
31726
31726
31726
31855
31855
31855
31705
31705
31705
31812
31812
31812
31769
31769
31769
31769
31748
31748
31748
31834
31834
31834
31791
31791
31791
31726
31726
31726
31812
31812
31812
31812
31769
31769
31769
31769
31769
31769
31705
31705
31705
31812
31812
31812
31791
31791
31791
31791
31769
31769
31769
31791
31791
31791
31769
31769
31769
31769
31769
31769
31812
31812
31812
31812
31834
31834
31834
31769
31769
31769
31769
31769
31769
31769
31769
31769
31812
31812
31812
31812
31812
31812
31812
31877
31877
31877
31769
31769
31769
31769
31769
31769
31769
31769
31769
31769
31726
31726
31726
31877
31877
31877
31748
31748
31748
31769
31769
31769
31769
31769
31769
31769
31748
31748
31748
31812
31812
31812
31726
31726
31726
31812
31812
31812
31769
31769
31769
31769
31769
31769
31769
31769
31769
31769
31812
31812
31812
31791
31791
31791
31726
31726
31726
31726
31748
31748
31748
31812
31812
31812
31769
31769
31769
31769
31769
31769
31791
31791
31791
31791
31791
31791
31791
31834
31834
31834
31812
31812
31812
31769
31769
31769
31834
31834
31834
31834
31683
31683
31683
31769
31769
31769
31769
31769
31769
31748
31748
31748
31791
31791
31791
31791
31726
31726
31726
31834
31834
31834
31748
31748
31748
31769
31769
31769
31791
31791
31791
31791
31726
31726
31726
31812
31812
31812
31791
31791
31791
31769
31769
31769
31812
31812
31812
31812
31812
31812
31812
31791
31791
31791
31748
31748
31748
31769
31769
31769
31726
31726
31726
31726
31769
31769
31769
31791
31791
31791
31748
31748
31748
31791
31791
31791
31769
31769
31769
31769
31769
31769
31769
31812
31812
31812
31769
31769
31769
31791
31791
31791
31748
31748
31748
31748
31769
31769
31769
31834
31834
31834
31748
31748
31748
31812
31812
31812
31791
31791
31791
31791
31748
31748
31748
31769
31769
31769
31791
31791
31791
32092
32092
32092
31769
31769
31769
31769
31812
31812
31812
31791
31791
31791
31791
31791
31791
31812
31812
31812
31748
31748
31748
31748
31791
31791
31791
31769
31769
31769
31791
31791
31791
31812
31812
31812
31791
31791
31791
31791
31812
31812
31812
31834
31834
31834
31769
31769
31769
31812
31812
31812
31748
31748
31748
31748
31834
31834
31834
31769
31769
31769
31769
31769
31769
31812
31812
31812
31748
31748
31748
31748
31748
31748
31748
31748
31748
31748
31791
31791
31791
31812
31812
31812
31748
31748
31748
31748
31748
31748
31748
31812
31812
31812
31769
31769
31769
31834
31834
31834
31834
31834
31834
31834
31769
31769
31769
31769
31769
31769
31769
31769
31769
31791
31791
31791
31769
31769
31769
31769
31726
31726
31726
31791
31791
31791
31812
31812
31812
31812
31812
31812
31769
31769
31769
31769
31726
31726
31726
31812
31812
31812
31791
31791
31791
31769
31769
31769
31812
31812
31812
31812
31769
31769
31769
31791
31791
31791
31791
31791
31791
31855
31855
31855
31769
31769
31769
31769
31791
31791
31791
31791
31791
31791
31834
31834
31834
31769
31769
31769
31791
31791
31791
31791
31748
31748
31748
31898
31898
31898
31812
31812
31812
31769
31769
31769
31812
31812
31812
31812
31812
31812
31812
31769
31769
31769
31726
31726
31726
31898
31898
31898
31748
31748
31748
31748
31812
31812
31812
31748
31748
31748
31834
31834
31834
31791
31791
31791
31748
31748
31748
31748
31769
31769
31769
31812
31812
31812
31855
31855
31855
31748
31748
31748
31791
31791
31791
31791
31791
31791
31791
31812
31812
31812
31748
31748
31748
31834
31834
31834
31812
31812
31812
31812
31748
31748
31748
31791
31791
31791
31769
31769
31769
31769
31769
31769
31812
31812
31812
31812
31791
31791
31791
31812
31812
31812
31812
31812
31812
31748
31748
31748
31812
31812
31812
31812
31812
31812
31812
31791
31791
31791
31748
31748
31748
31769
31769
31769
31812
31812
31812
31812
31898
31898
31898
31769
31769
31769
31834
31834
31834
31791
31791
31791
31769
31769
31769
31769
31748
31748
31748
31834
31834
31834
31812
31812
31812
31748
31748
31748
31791
31791
31791
31791
31726
31726
31726
31769
31769
31769
31812
31812
31812
31769
31769
31769
31769
31769
31769
31769
31726
31726
31726
31748
31748
31748
31834
31834
31834
31834
31834
31834
31769
31769
31769
31769
31791
31791
31791
31769
31769
31769
31726
31726
31726
31748
31748
31748
31769
31769
31769
31769
31748
31748
31748
31769
31769
31769
31791
31791
31791
31834
31834
31834
31748
31748
31748
31748
31705
31705
31705
31791
31791
31791
31834
31834
31834
31855
31855
31855
31791
31791
31791
31791
31791
31791
31791
31791
31791
31791
31769
31769
31769
31812
31812
31812
31748
31748
31748
31748
31726
31726
31726
31769
31769
31769
31834
31834
31834
31769
31769
31769
31748
31748
31748
31748
31726
31726
31726
31834
31834
31834
31769
31769
31769
31812
31812
31812
31726
31726
31726
31726
31791
31791
31791
31748
31748
31748
31791
31791
31791
31834
31834
31834
31769
31769
31769
31769
31769
31769
31769
31812
31812
31812
31855
31855
31855
31769
31769
31769
31769
31769
31769
31769
31791
31791
31791
31791
31791
31791
31877
31877
31877
31769
31769
31769
31791
31791
31791
31791
31877
31877
31877
31769
31769
31769
31791
31791
31791
31769
31769
31769
31748
31748
31748
31748
31812
31812
31812
31791
31791
31791
31748
31748
31748
31812
31812
31812
31748
31748
31748
31748
31834
31834
31834
31812
31812
31812
31769
31769
31769
31769
31769
31769
31791
31791
31791
31791
31769
31769
31769
31705
31705
31705
31791
31791
31791
31769
31769
31769
31769
31769
31769
31769
31791
31791
31791
31748
31748
31748
31791
31791
31791
31834
31834
31834
31769
31769
31769
31769
31812
31812
31812
31769
31769
31769
31726
31726
31726
31748
31748
31748
31791
31791
31791
31791
31791
31791
31791
31683
31683
31683
31812
31812
31812
31769
31769
31769
31812
31812
31812
31812
31769
31769
31769
31769
31769
31769
31791
31791
31791
31812
31812
31812
31791
31791
31791
31791
31812
31812
31812
31791
31791
31791
31769
31769
31769
31812
31812
31812
31791
31791
31791
31791
31769
31769
31769
31769
31769
31769
31769
31769
31769
31855
31855
31855
31748
31748
31748
31748
31726
31726
31726
31855
31855
31855
31769
31769
31769
31855
31855
31855
31791
31791
31791
31791
31748
31748
31748
31834
31834
31834
31791
31791
31791
31769
31769
31769
31812
31812
31812
31812
31791
31791
31791
31812
31812
31812
31769
31769
31769
31791
31791
31791
31791
31791
31791
31791
31812
31812
31812
31769
31769
31769
31769
31769
31769
31791
31791
31791
31812
31812
31812
31812
31812
31812
31812
31812
31812
31812
31748
31748
31748
31812
31812
31812
31769
31769
31769
31769
31791
31791
31791
31855
31855
31855
31748
31748
31748
31791
31791
31791
31791
31791
31791
31791
31748
31748
31748
31791
31791
31791
31791
31791
31791
31791
31791
31791
31791
31791
31791
31791
31748
31748
31748
31791
31791
31791
31769
31769
31769
31791
31791
31791
31791
31791
31791
31791
31769
31769
31769
31769
31769
31769
31812
31812
31812
31834
31834
31834
31769
31769
31769
31769
31705
31705
31705
31855
31855
31855
31812
31812
31812
31791
31791
31791
31812
31812
31812
31812
31769
31769
31769
31791
31791
31791
31834
31834
31834
31877
31877
31877
31769
31769
31769
31769
31748
31748
31748
31769
31769
31769
31855
31855
31855
31812
31812
31812
31791
31791
31791
31791
31877
31877
31877
31748
31748
31748
31748
31748
31748
31791
31791
31791
31812
31812
31812
31812
31791
31791
31791
31769
31769
31769
31791
31791
31791
31834
31834
31834
31748
31748
31748
31748
31791
31791
31791
31812
31812
31812
31812
31812
31812
31791
31791
31791
31791
31791
31791
31791
31726
31726
31726
31877
31877
31877
31791
31791
31791
31748
31748
31748
31791
31791
31791
31791
31748
31748
31748
31769
31769
31769
31769
31769
31769
31791
31791
31791
31769
31769
31769
31769
31726
31726
31726
31898
31898
31898
31748
31748
31748
31769
31769
31769
31769
31769
31769
31769
31791
31791
31791
31769
31769
31769
31769
31769
31769
31791
31791
31791
31726
31726
31726
31726
31791
31791
31791
31791
31791
31791
31791
31791
31791
31791
31791
31791
31726
31726
31726
31726
31726
31726
31726
31791
31791
31791
31855
31855
31855
31791
31791
31791
31683
31683
31683
31683
31748
31748
31748
31769
31769
31769
31769
31769
31769
31812
31812
31812
31941
31941
31941
31941
31791
31791
31791
31791
31791
31791
31812
31812
31812
31769
31769
31769
31812
31812
31812
31812
31791
31791
31791
31769
31769
31769
31812
31812
31812
31769
31769
31769
31791
31791
31791
31791
31791
31791
31791
31769
31769
31769
31769
31769
31769
31812
31812
31812
31791
31791
31791
31791
31662
31662
31662
31791
31791
31791
31705
31705
31705
31877
31877
31877
31791
31791
31791
31791
31748
31748
31748
31877
31877
31877
31705
31705
31705
31791
31791
31791
31855
31855
31855
31855
31791
31791
31791
31834
31834
31834
31769
31769
31769
31769
31769
31769
31748
31748
31748
31748
31748
31748
31748
31791
31791
31791
31769
31769
31769
31834
31834
31834
31791
31791
31791
31791
31748
31748
31748
31812
31812
31812
31726
31726
31726
31511
31511
31511
31769
31769
31769
31769
31812
31812
31812
31791
31791
31791
31726
31726
31726
31834
31834
31834
31726
31726
31726
31726
31726
31726
31726
31812
31812
31812
31726
31726
31726
31769
31769
31769
31791
31791
31791
31791
31726
31726
31726
31769
31769
31769
31834
31834
31834
31726
31726
31726
31791
31791
31791
31791
31812
31812
31812
31769
31769
31769
31748
31748
31748
31748
31748
31748
31791
31791
31791
31791
31662
31662
31662
31791
31791
31791
31748
31748
31748
31791
31791
31791
31748
31748
31748
31748
31748
31748
31748
31683
31683
31683
31769
31769
31769
31855
31855
31855
31812
31812
31812
31812
31791
31791
31791
31726
31726
31726
31791
31791
31791
31791
31791
31791
31812
31812
31812
31812
31748
31748
31748
31791
31791
31791
31748
31748
31748
31791
31791
31791
31791
31791
31791
31791
31769
31769
31769
31769
31769
31769
31812
31812
31812
31791
31791
31791
31769
31769
31769
31769
31748
31748
31748
31748
31748
31748
31791
31791
31791
31812
31812
31812
31791
31791
31791
31791
31705
31705
31705
31791
31791
31791
31791
31791
31791
31812
31812
31812
31769
31769
31769
31769
31726
31726
31726
31812
31812
31812
31726
31726
31726
31726
31726
31726
31812
31812
31812
31812
31812
31812
31812
31812
31812
31812
31791
31791
31791
31769
31769
31769
31791
31791
31791
31791
31769
31769
31769
31855
31855
31855
31834
31834
31834
31812
31812
31812
31791
31791
31791
31791
31769
31769
31769
31791
31791
31791
31834
31834
31834
31791
31791
31791
31769
31769
31769
31769
31748
31748
31748
31834
31834
31834
31834
31834
31834
31791
31791
31791
31941
31941
31941
31941
31834
31834
31834
31791
31791
31791
31748
31748
31748
31855
31855
31855
31769
31769
31769
31769
31877
31877
31877
31791
31791
31791
31791
31791
31791
31834
31834
31834
31791
31791
31791
31791
31726
31726
31726
31769
31769
31769
31748
31748
31748
31791
31791
31791
31769
31769
31769
31769
31855
31855
31855
31791
31791
31791
31812
31812
31812
31791
31791
31791
31748
31748
31748
31748
31748
31748
31748
31748
31748
31748
31769
31769
31769
31877
31877
31877
31748
31748
31748
31748
31726
31726
31726
31769
31769
31769
31748
31748
31748
31769
31769
31769
31726
31726
31726
31726
31769
31769
31769
31791
31791
31791
31812
31812
31812
31812
31812
31812
31812
31812
31812
31812
31769
31769
31769
31769
31769
31769
31834
31834
31834
31748
31748
31748
31812
31812
31812
31812
31812
31812
31812
31769
31769
31769
31748
31748
31748
31769
31769
31769
31791
31791
31791
31791
31812
31812
31812
31855
31855
31855
31726
31726
31726
31834
31834
31834
31791
31791
31791
31791
31726
31726
31726
31748
31748
31748
31748
31748
31748
31769
31769
31769
31791
31791
31791
31791
31748
31748
31748
31834
31834
31834
31791
31791
31791
31812
31812
31812
31812
31812
31812
31812
31769
31769
31769
31791
31791
31791
31791
31791
31791
31812
31812
31812
31855
31855
31855
31855
31791
31791
31791
31791
31791
31791
31791
31791
31791
31855
31855
31855
31748
31748
31748
31748
31791
31791
31791
31748
31748
31748
31834
31834
31834
31705
31705
31705
31705
31705
31705
31705
31791
31791
31791
31769
31769
31769
31769
31769
31769
31791
31791
31791
31791
31791
31791
31791
31834
31834
31834
31769
31769
31769
31769
31769
31769
31834
31834
31834
31812
31812
31812
31812
31769
31769
31769
31812
31812
31812
31769
31769
31769
31812
31812
31812
31748
31748
31748
31748
31705
31705
31705
31855
31855
31855
31812
31812
31812
31769
31769
31769
31855
31855
31855
31855
31748
31748
31748
31769
31769
31769
31726
31726
31726
31769
31769
31769
31748
31748
31748
31748
31726
31726
31726
31834
31834
31834
31791
31791
31791
31791
31791
31791
31769
31769
31769
31769
31791
31791
31791
31855
31855
31855
31748
31748
31748
31812
31812
31812
31769
31769
31769
31769
31748
31748
31748
31791
31791
31791
31769
31769
31769
31791
31791
31791
31748
31748
31748
31748
31769
31769
31769
31748
31748
31748
31791
31791
31791
31662
31662
31662
31769
31769
31769
31769
31791
31791
31791
31812
31812
31812
31791
31791
31791
31834
31834
31834
31769
31769
31769
31769
31726
31726
31726
31769
31769
31769
31812
31812
31812
31748
31748
31748
31748
31748
31748
31748
31748
31748
31748
31812
31812
31812
31769
31769
31769
31812
31812
31812
31812
31812
31812
31812
31812
31812
31812
31812
31812
31812
31769
31769
31769
31791
31791
31791
31748
31748
31748
31748
31769
31769
31769
31769
31769
31769
31726
31726
31726
31791
31791
31791
31834
31834
31834
31834
31726
31726
31726
31812
31812
31812
31791
31791
31791
31791
31791
31791
31748
31748
31748
31748
31769
31769
31769
31812
31812
31812
31726
31726
31726
31812
31812
31812
31748
31748
31748
31748
31812
31812
31812
31791
31791
31791
31748
31748
31748
31791
31791
31791
31791
31791
31791
31791
31877
31877
31877
31812
31812
31812
31877
31877
31877
31769
31769
31769
31812
31812
31812
31812
31748
31748
31748
31898
31898
31898
31769
31769
31769
31748
31748
31748
31812
31812
31812
31812
31726
31726
31726
31791
31791
31791
31791
31791
31791
31748
31748
31748
31791
31791
31791
31791
31748
31748
31748
31769
31769
31769
31791
31791
31791
31769
31769
31769
31748
31748
31748
31748
31769
31769
31769
31769
31769
31769
31748
31748
31748
31791
31791
31791
31791
31791
31791
31791
31834
31834
31834
31834
31834
31834
31726
31726
31726
31812
31812
31812
31834
31834
31834
31834
31812
31812
31812
31769
31769
31769
31769
31769
31769
31769
31769
31769
31748
31748
31748
31748
31791
31791
31791
31791
31791
31791
31791
31791
31791
31748
31748
31748
31812
31812
31812
31812
31748
31748
31748
31748
31748
31748
31812
31812
31812
31769
31769
31769
31769
31769
31769
31769
31812
31812
31812
31791
31791
31791
31748
31748
31748
31812
31812
31812
31769
31769
31769
31769
31726
31726
31726
31791
31791
31791
31726
31726
31726
31834
31834
31834
31769
31769
31769
31769
31812
31812
31812
31812
31812
31812
31812
31812
31812
31834
31834
31834
31834
31834
31834
31834
31791
31791
31791
31812
31812
31812
31791
31791
31791
31791
31791
31791
31834
31834
31834
31834
31769
31769
31769
31791
31791
31791
31791
31791
31791
31791
31791
31791
31769
31769
31769
31769
31726
31726
31726
31812
31812
31812
31855
31855
31855
31877
31877
31877
31769
31769
31769
31769
31812
31812
31812
31791
31791
31791
31748
31748
31748
31791
31791
31791
31683
31683
31683
31683
31726
31726
31726
31748
31748
31748
31791
31791
31791
31791
31791
31791
31812
31812
31812
31812
31791
31791
31791
31791
31791
31791
31791
31791
31791
31855
31855
31855
31812
31812
31812
31812
31726
31726
31726
31812
31812
31812
31791
31791
31791
31791
31791
31791
31791
31791
31791
31791
31791
31791
31791
31855
31855
31855
31726
31726
31726
31662
31662
31662
31812
31812
31812
31812
31769
31769
31769
31812
31812
31812
31769
31769
31769
31791
31791
31791
31791
31791
31791
31791
31769
31769
31769
31812
31812
31812
31748
31748
31748
31812
31812
31812
31769
31769
31769
31769
31855
31855
31855
31769
31769
31769
31834
31834
31834
31791
31791
31791
31791
31791
31791
31791
31726
31726
31726
31812
31812
31812
31834
31834
31834
31769
31769
31769
31748
31748
31748
31748
31769
31769
31769
31855
31855
31855
31791
31791
31791
31855
31855
31855
31834
31834
31834
31834
31791
31791
31791
31812
31812
31812
31748
31748
31748
31748
31748
31748
31769
31769
31769
31769
31812
31812
31812
31726
31726
31726
31812
31812
31812
31769
31769
31769
31726
31726
31726
31726
31769
31769
31769
31769
31769
31769
31769
31769
31769
31812
31812
31812
31748
31748
31748
31748
31769
31769
31769
31791
31791
31791
31748
31748
31748
31791
31791
31791
31791
31791
31791
31791
31812
31812
31812
31791
31791
31791
31812
31812
31812
31834
31834
31834
31877
31877
31877
31877
31726
31726
31726
31791
31791
31791
31726
31726
31726
31769
31769
31769
31748
31748
31748
31748
31748
31748
31748
31769
31769
31769
31812
31812
31812
31812
31812
31812
31769
31769
31769
31769
31791
31791
31791
31748
31748
31748
31812
31812
31812
31834
31834
31834
31769
31769
31769
31769
31812
31812
31812
31812
31812
31812
31726
31726
31726
31769
31769
31769
31791
31791
31791
31791
31769
31769
31769
31791
31791
31791
31769
31769
31769
31791
31791
31791
31791
31791
31791
31791
31726
31726
31726
31963
31963
31963
31769
31769
31769
31748
31748
31748
31726
31726
31726
31726
31748
31748
31748
31769
31769
31769
31705
31705
31705
31791
31791
31791
31769
31769
31769
31769
31855
31855
31855
31791
31791
31791
31748
31748
31748
31791
31791
31791
31769
31769
31769
31769
31920
31920
31920
31812
31812
31812
31705
31705
31705
31812
31812
31812
31769
31769
31769
31769
31791
31791
31791
31748
31748
31748
31791
31791
31791
31812
31812
31812
31791
31791
31791
31791
31769
31769
31769
31791
31791
31791
31791
31791
31791
31748
31748
31748
31769
31769
31769
31769
31812
31812
31812
31812
31812
31812
31791
31791
31791
31769
31769
31769
31662
31662
31662
31662
31791
31791
31791
31834
31834
31834
31769
31769
31769
31769
31769
31769
31812
31812
31812
31812
31834
31834
31834
31877
31877
31877
31855
31855
31855
31726
31726
31726
31834
31834
31834
31834
31769
31769
31769
31769
31769
31769
31748
31748
31748
31855
31855
31855
31791
31791
31791
31791
31834
31834
31834
31791
31791
31791
31791
31791
31791
31791
31791
31791
31812
31812
31812
31812
31748
31748
31748
31791
31791
31791
31769
31769
31769
31769
31769
31769
31791
31791
31791
31791
31769
31769
31769
31769
31769
31769
31812
31812
31812
31769
31769
31769
31791
31791
31791
31791
31769
31769
31769
31791
31791
31791
31812
31812
31812
31812
31812
31812
31855
31855
31855
31855
31726
31726
31726
31791
31791
31791
31791
31791
31791
31855
31855
31855
31769
31769
31769
31769
31791
31791
31791
31791
31791
31791
31769
31769
31769
31769
31769
31769
31748
31748
31748
31748
31748
31748
31748
31812
31812
31812
31812
31812
31812
31812
31812
31812
31791
31791
31791
31791
31791
31791
31791
31769
31769
31769
31791
31791
31791
31748
31748
31748
31769
31769
31769
31769
31769
31769
31769
31834
31834
31834
31726
31726
31726
31748
31748
31748
31812
31812
31812
31812
31769
31769
31769
31748
31748
31748
31834
31834
31834
31812
31812
31812
31812
31812
31812
31812
31769
31769
31769
31748
31748
31748
31748
31748
31748
31791
31791
31791
31812
31812
31812
31812
31748
31748
31748
31748
31748
31748
31769
31769
31769
31769
31769
31769
31769
31769
31769
31769
31748
31748
31748
31791
31791
31791
31769
31769
31769
31791
31791
31791
31812
31812
31812
31812
31812
31812
31812
31812
31812
31812
31769
31769
31769
31769
31769
31769
31769
31769
31769
31769
31834
31834
31834
31791
31791
31791
31791
31791
31791
31791
31791
31791
31791
31791
31791
31791
31769
31769
31769
31769
31769
31769
31791
31791
31791
31834
31834
31834
31769
31769
31769
31769
31705
31705
31705
31705
31705
31705
31705
31705
31705
31941
31941
31941
31769
31769
31769
31769
31769
31769
31769
31855
31855
31855
31769
31769
31769
31769
31769
31769
31769
31769
31769
31769
31769
31769
31769
31791
31791
31791
31769
31769
31769
31812
31812
31812
31791
31791
31791
31791
31769
31769
31769
31791
31791
31791
31791
31791
31791
31769
31769
31769
31769
31769
31769
31769
31812
31812
31812
31877
31877
31877
31834
31834
31834
31812
31812
31812
31791
31791
31791
31791
31726
31726
31726
31855
31855
31855
31748
31748
31748
31769
31769
31769
31812
31812
31812
31812
31834
31834
31834
31769
31769
31769
31812
31812
31812
31812
31812
31812
31769
31769
31769
31769
31769
31769
31769
31791
31791
31791
31748
31748
31748
31791
31791
31791
31769
31769
31769
31769
31769
31769
31769
31769
31769
31769
31791
31791
31791
31855
31855
31855
31726
31726
31726
31726
31855
31855
31855
31769
31769
31769
31748
31748
31748
31834
31834
31834
31812
31812
31812
31812
31791
31791
31791
31791
31791
31791
31791
31791
31791
31769
31769
31769
31748
31748
31748
31748
31769
31769
31769
31834
31834
31834
31791
31791
31791
31791
31791
31791
31769
31769
31769
31769
31726
31726
31726
31812
31812
31812
31769
31769
31769
31791
31791
31791
31812
31812
31812
31812
31812
31812
31812
31769
31769
31769
31812
31812
31812
31791
31791
31791
31769
31769
31769
31769
31791
31791
31791
31791
31791
31791
31748
31748
31748
31791
31791
31791
31769
31769
31769
31769
31791
31791
31791
31791
31791
31791
31769
31769
31769
31791
31791
31791
31791
31791
31791
31791
31791
31791
31791
31791
31791
31791
31748
31748
31748
31812
31812
31812
31769
31769
31769
31769
31705
31705
31705
31855
31855
31855
31705
31705
31705
31812
31812
31812
31812
31812
31812
31812
31812
31812
31812
31769
31769
31769
31769
31769
31769
31812
31812
31812
31683
31683
31683
31683
31834
31834
31834
31683
31683
31683
31791
31791
31791
31812
31812
31812
31769
31769
31769
31769
31748
31748
31748
31812
31812
31812
31791
31791
31791
31791
31791
31791
31769
31769
31769
31769
31726
31726
31726
31726
31726
31726
31791
31791
31791
31834
31834
31834
31705
31705
31705
31705
31791
31791
31791
31834
31834
31834
31769
31769
31769
31834
31834
31834
31855
31855
31855
31855
31748
31748
31748
31791
31791
31791
31812
31812
31812
31791
31791
31791
31748
31748
31748
31748
31791
31791
31791
31769
31769
31769
31812
31812
31812
31791
31791
31791
31791
31791
31791
31791
31769
31769
31769
31791
31791
31791
31812
31812
31812
31791
31791
31791
31769
31769
31769
31769
31769
31769
31769
31791
31791
31791
31791
31791
31791
31791
31791
31791
31748
31748
31748
31748
31791
31791
31791
31726
31726
31726
31812
31812
31812
31769
31769
31769
31812
31812
31812
31812
31748
31748
31748
31748
31748
31748
31812
31812
31812
31791
31791
31791
31812
31812
31812
31812
31791
31791
31791
31769
31769
31769
31769
31769
31769
31748
31748
31748
31791
31791
31791
31791
31769
31769
31769
31834
31834
31834
31726
31726
31726
31791
31791
31791
31812
31812
31812
31812
31791
31791
31791
31812
31812
31812
31769
31769
31769
31855
31855
31855
31705
31705
31705
31705
31769
31769
31769
31726
31726
31726
31769
31769
31769
31791
31791
31791
31769
31769
31769
31769
31769
31769
31769
31855
31855
31855
31834
31834
31834
31791
31791
31791
31769
31769
31769
31769
31791
31791
31791
31769
31769
31769
31726
31726
31726
31855
31855
31855
31769
31769
31769
31769
31726
31726
31726
31791
31791
31791
31834
31834
31834
31877
31877
31877
31726
31726
31726
31726
31748
31748
31748
31769
31769
31769
31791
31791
31791
31769
31769
31769
31748
31748
31748
31748
31726
31726
31726
31791
31791
31791
31834
31834
31834
31769
31769
31769
31791
31791
31791
31791
31769
31769
31769
31791
31791
31791
31748
31748
31748
31769
31769
31769
31791
31791
31791
31791
31748
31748
31748
31705
31705
31705
31855
31855
31855
31834
31834
31834
31812
31812
31812
31812
31791
31791
31791
31812
31812
31812
31769
31769
31769
31791
31791
31791
31812
31812
31812
31812
31812
31812
31812
31705
31705
31705
31726
31726
31726
31769
31769
31769
31791
31791
31791
31791
31769
31769
31769
31812
31812
31812
31748
31748
31748
31812
31812
31812
31855
31855
31855
31855
31834
31834
31834
31812
31812
31812
31791
31791
31791
31791
31791
31791
31748
31748
31748
31748
31769
31769
31769
31791
31791
31791
31812
31812
31812
31726
31726
31726
31748
31748
31748
31748
31769
31769
31769
31769
31769
31769
31769
31769
31769
31769
31769
31769
31812
31812
31812
31812
31769
31769
31769
31855
31855
31855
31791
31791
31791
31812
31812
31812
31791
31791
31791
31791
31726
31726
31726
31769
31769
31769
31769
31769
31769
31769
31769
31769
31748
31748
31748
31748
31748
31748
31748
31769
31769
31769
31748
31748
31748
31834
31834
31834
31920
31920
31920
31920
31812
31812
31812
31834
31834
31834
31769
31769
31769
31769
31769
31769
31769
31769
31769
31769
31726
31726
31726
31791
31791
31791
31769
31769
31769
31769
31769
31769
