2062
2062
2062
2069
2069
2069
2063
2063
2063
2067
2067
2067
2067
2066
2066
2066
2062
2062
2062
2066
2066
2066
2057
2057
2057
2065
2065
2065
2065
2067
2067
2067
2061
2061
2061
2064
2064
2064
2062
2062
2062
2069
2069
2069
2069
2069
2069
2069
2061
2061
2061
2065
2065
2065
2059
2059
2059
2066
2066
2066
2066
2073
2073
2073
2061
2061
2061
2065
2065
2065
2063
2063
2063
2066
2066
2066
2066
2059
2059
2059
2063
2063
2063
2058
2058
2058
2063
2063
2063
2066
2066
2066
2066
2066
2066
2066
2065
2065
2065
2063
2063
2063
2064
2064
2064
2059
2059
2059
2063
2063
2063
2063
2065
2065
2065
2061
2061
2061
2061
2061
2061
2063
2063
2063
2064
2064
2064
2064
2060
2060
2060
2061
2061
2061
2065
2065
2065
2062
2062
2062
2063
2063
2063
2063
2065
2065
2065
2065
2065
2065
2068
2068
2068
2065
2065
2065
2063
2063
2063
2063
2063
2063
2063
2055
2055
2055
2066
2066
2066
2061
2061
2061
2065
2065
2065
2065
2058
2058
2058
2060
2060
2060
2066
2066
2066
2063
2063
2063
2060
2060
2060
2060
2062
2062
2062
2062
2062
2062
2065
2065
2065
2061
2061
2061
2063
2063
2063
2063
2061
2061
2061
2063
2063
2063
2063
2063
2063
2066
2066
2066
2064
2064
2064
2064
2065
2065
2065
2063
2063
2063
2065
2065
2065
2062
2062
2062
2066
2066
2066
2066
2064
2064
2064
2060
2060
2060
2069
2069
2069
2064
2064
2064
2065
2065
2065
2065
2065
2065
2065
2060
2060
2060
2065
2065
2065
2063
2063
2063
2068
2068
2068
2068
2065
2065
2065
2058
2058
2058
2065
2065
2065
2062
2062
2062
2063
2063
2063
2063
2067
2067
2067
2070
2070
2070
2066
2066
2066
2064
2064
2064
2066
2066
2066
2066
2063
2063
2063
2063
2063
2063
2066
2066
2066
2062
2062
2062
2066
2066
2066
2066
2064
2064
2064
2063
2063
2063
2063
2063
2063
2062
2062
2062
2073
2073
2073
2073
2070
2070
2070
2061
2061
2061
2066
2066
2066
2067
2067
2067
2067
2067
2067
2067
2064
2064
2064
2060
2060
2060
2065
2065
2065
2060
2060
2060
2058
2058
2058
2058
2069
2069
2069
2060
2060
2060
2062
2062
2062
2063
2063
2063
2068
2068
2068
2068
2065
2065
2065
2059
2059
2059
2065
2065
2065
2065
2065
2065
2069
2069
2069
2069
2066
2066
2066
2062
2062
2062
2072
2072
2072
2059
2059
2059
2067
2067
2067
2067
2064
2064
2064
2061
2061
2061
2067
2067
2067
2065
2065
2065
2065
2065
2065
2065
2065
2065
2065
2059
2059
2059
2065
2065
2065
2061
2061
2061
2058
2058
2058
2058
2064
2064
2064
2062
2062
2062
2063
2063
2063
2064
2064
2064
2063
2063
2063
2063
2065
2065
2065
2061
2061
2061
2065
2065
2065
2057
2057
2057
2060
2060
2060
2060
2066
2066
2066
2063
2063
2063
2067
2067
2067
2059
2059
2059
2065
2065
2065
2065
2060
2060
2060
2061
2061
2061
2064
2064
2064
2057
2057
2057
2066
2066
2066
2066
2064
2064
2064
2061
2061
2061
2063
2063
2063
2059
2059
2059
2066
2066
2066
2066
2065
2065
2065
2056
2056
2056
2066
2066
2066
2063
2063
2063
2065
2065
2065
2065
2063
2063
2063
2065
2065
2065
2065
2065
2065
2062
2062
2062
2064
2064
2064
2064
2070
2070
2070
2061
2061
2061
2066
2066
2066
2062
2062
2062
2063
2063
2063
2063
2063
2063
2063
2058
2058
2058
2066
2066
2066
2062
2062
2062
2061
2061
2061
2061
2067
2067
2067
2063
2063
2063
2065
2065
2065
2056
2056
2056
2065
2065
2065
2065
2065
2065
2065
2061
2061
2061
2063
2063
2063
2062
2062
2062
2064
2064
2064
2064
2063
2063
2063
2064
2064
2064
2066
2066
2066
2063
2063
2063
2065
2065
2065
2065
2063
2063
2063
2062
2062
2062
2066
2066
2066
2059
2059
2059
2066
2066
2066
2066
2064
2064
2064
2072
2072
2072
2060
2060
2060
2061
2061
2061
2063
2063
2063
2063
2061
2061
2061
2065
2065
2065
2067
2067
2067
2062
2062
2062
2063
2063
2063
2063
2065
2065
2065
2062
2062
2062
2062
2062
2062
2062
2062
2062
2064
2064
2064
2064
2064
2064
2064
2060
2060
2060
2064
2064
2064
2064
2064
2064
2064
2064
2064
2064
2059
2059
2059
2062
2062
2062
2065
2065
2065
2062
2062
2062
2064
2064
2064
2064
2063
2063
2063
2062
2062
2062
2069
2069
2069
2070
2070
2070
2063
2063
2063
2063
2058
2058
2058
2061
2061
2061
2063
2063
2063
2064
2064
2064
2066
2066
2066
2066
2065
2065
2065
2061
2061
2061
2063
2063
2063
2058
2058
2058
2066
2066
2066
2066
2066
2066
2066
2060
2060
2060
2063
2063
2063
2064
2064
2064
2065
2065
2065
2065
2065
2065
2065
2065
2065
2065
2065
2065
2065
2064
2064
2064
2063
2063
2063
2063
2070
2070
2070
2057
2057
2057
2063
2063
2063
2061
2061
2061
2065
2065
2065
2065
2063
2063
2063
2060
2060
2060
2066
2066
2066
2063
2063
2063
2064
2064
2064
2064
2065
2065
2065
2064
2064
2064
2064
2064
2064
2059
2059
2059
2062
2062
2062
2062
2064
2064
2064
2064
2064
2064
2065
2065
2065
2062
2062
2062
2065
2065
2065
2065
2064
2064
2064
2060
2060
2060
2067
2067
2067
2059
2059
2059
2064
2064
2064
2064
2061
2061
2061
2063
2063
2063
2065
2065
2065
2055
2055
2055
2064
2064
2064
2064
2070
2070
2070
2063
2063
2063
2062
2062
2062
2066
2066
2066
2065
2065
2065
2065
2065
2065
2065
2059
2059
2059
2059
2059
2059
2063
2063
2063
2068
2068
2068
2068
2071
2071
2071
2060
2060
2060
2066
2066
2066
2063
2063
2063
2066
2066
2066
2066
2063
2063
2063
2062
2062
2062
2064
2064
2064
2062
2062
2062
2065
2065
2065
2065
2065
2065
2065
2062
2062
2062
2064
2064
2064
2062
2062
2062
2061
2061
2061
2061
2060
2060
2060
2063
2063
2063
2063
2063
