2051
2051
2051
2045
2045
2045
2047
2047
2047
2047
2047
2047
2047
2047
2047
2047
2053
2053
2053
2044
2044
2044
2052
2052
2052
2052
2053
2053
2053
2047
2047
2047
2054
2054
2054
2049
2049
2049
2049
2049
2049
2049
2051
2051
2051
2048
2048
2048
2051
2051
2051
2051
2051
2051
2052
2052
2052
2052
2053
2053
2053
2045
2045
2045
2054
2054
2054
2045
2045
2045
2052
2052
2052
2052
2051
2051
2051
2048
2048
2048
2053
2053
2053
2053
2053
2053
2045
2045
2045
2049
2049
2049
2049
2056
2056
2056
2047
2047
2047
2053
2053
2053
2050
2050
2050
2053
2053
2053
2053
2052
2052
2052
2048
2048
2048
2054
2054
2054
2046
2046
2046
2052
2052
2052
2052
2052
2052
2052
2046
2046
2046
2049
2049
2049
2039
2039
2039
2050
2050
2050
2050
2053
2053
2053
2047
2047
2047
2050
2050
2050
2043
2043
2043
2057
2057
2057
2057
2050
2050
2050
2044
2044
2044
2057
2057
2057
2047
2047
2047
2048
2048
2048
2048
2045
2045
2045
2049
2049
2049
2049
2049
2049
2045
2045
2045
2049
2049
2049
2049
2040
2040
2040
2047
2047
2047
2047
2047
2047
2049
2049
2049
2050
2050
2050
2050
2047
2047
2047
2047
2047
2047
2050
2050
2050
2048
2048
2048
2051
2051
2051
2051
2052
2052
2052
2046
2046
2046
2049
2049
2049
2044
2044
2044
2045
2045
2045
2045
2050
2050
2050
2048
2048
2048
2055
2055
2055
2047
2047
2047
2054
2054
2054
2054
2059
2059
2059
2047
2047
2047
2053
2053
2053
2046
2046
2046
2053
2053
2053
2053
2048
2048
2048
2047
2047
2047
2055
2055
2055
2046
2046
2046
2053
2053
2053
2053
2051
2051
2051
2049
2049
2049
2057
2057
2057
2047
2047
2047
2052
2052
2052
2052
2051
2051
2051
2044
2044
2044
2052
2052
2052
2045
2045
2045
2058
2058
2058
2058
2051
2051
2051
2049
2049
2049
2053
2053
2053
2045
2045
2045
2050
2050
2050
2050
2054
2054
2054
2046
2046
2046
2053
2053
2053
2049
2049
2049
2049
2049
2049
2049
2063
2063
2063
2046
2046
2046
2051
2051
2051
2049
2049
2049
2050
2050
2050
2050
2050
2050
2050
2044
2044
2044
2049
2049
2049
2034
2034
2034
2051
2051
2051
2051
2051
2051
2051
2046
2046
2046
2046
2046
2046
2047
2047
2047
2049
2049
2049
2049
2051
2051
2051
2045
2045
2045
2048
2048
2048
2046
2046
2046
2052
2052
2052
2052
2047
2047
2047
2047
2047
2047
2050
2050
2050
2045
2045
2045
2048
2048
2048
2048
2051
2051
2051
2045
2045
2045
2050
2050
2050
2049
2049
2049
2048
2048
2048
2048
2052
2052
2052
2058
2058
2058
2048
2048
2048
2045
2045
2045
2051
2051
2051
2051
2053
2053
2053
2043
2043
2043
2050
2050
2050
2047
2047
2047
2050
2050
2050
2050
2051
2051
2051
2046
2046
2046
2051
2051
2051
2041
2041
2041
2052
2052
2052
2052
2050
2050
2050
2050
2050
2050
2052
2052
2052
2048
2048
2048
2048
2048
2048
2048
2050
2050
2050
2049
2049
2049
2052
2052
2052
2048
2048
2048
2049
2049
2049
2049
2048
2048
2048
2048
2048
2048
2039
2039
2039
2045
2045
2045
2052
2052
2052
2052
2052
2052
2052
2047
2047
2047
2052
2052
2052
2049
2049
2049
2052
2052
2052
2052
2053
2053
2053
2047
2047
2047
2052
2052
2052
2053
2053
2053
2045
2045
2045
2045
2048
2048
2048
2050
2050
2050
2047
2047
2047
2045
2045
2045
2053
2053
2053
2053
2048
2048
2048
2047
2047
2047
2049
2049
2049
2045
2045
2045
2044
2044
2044
2044
2047
2047
2047
2045
2045
2045
2052
2052
2052
2048
2048
2048
2049
2049
2049
2049
2056
2056
2056
2047
2047
2047
2049
2049
2049
2055
2055
2055
2051
2051
2051
2051
2051
2051
2051
2047
2047
2047
2043
2043
2043
2050
2050
2050
2050
2050
2050
2050
2048
2048
2048
2048
2048
2048
2055
2055
2055
2047
2047
2047
2051
2051
2051
2051
2049
2049
2049
2050
2050
2050
2052
2052
2052
2046
2046
2046
2051
2051
2051
2051
2051
2051
2051
2049
2049
2049
2049
2049
2049
2046
2046
2046
2051
2051
2051
2051
2047
2047
2047
2046
2046
2046
2053
2053
2053
2043
2043
2043
2050
2050
2050
2050
2049
2049
2049
2047
2047
2047
2053
2053
2053
2045
2045
2045
2043
2043
2043
2043
2054
2054
2054
2046
2046
2046
2056
2056
2056
2041
2041
2041
2054
2054
2054
2054
2054
2054
2054
2043
2043
2043
2050
2050
2050
2048
2048
2048
2050
2050
2050
2050
2049
2049
2049
2048
2048
2048
2055
2055
2055
2044
2044
2044
2052
2052
2052
2052
2052
2052
2052
2049
2049
2049
2047
2047
2047
2045
2045
2045
2051
2051
2051
2051
2054
2054
2054
2047
2047
2047
2045
2045
2045
2047
2047
2047
2048
2048
2048
2048
2050
2050
2050
2044
2044
2044
2050
2050
2050
2047
2047
2047
2049
2049
2049
2049
2050
2050
2050
2055
2055
2055
2054
2054
2054
2039
2039
2039
2053
2053
2053
2053
2056
2056
2056
2045
2045
2045
2053
2053
2053
2049
2049
2049
2051
2051
2051
2051
2049
2049
2049
2044
2044
2044
2052
2052
2052
2047
2047
2047
2050
2050
2050
2050
2053
2053
2053
2047
2047
2047
2052
2052
2052
2050
2050
2050
2051
2051
2051
2051
2047
2047
2047
2051
2051
2051
2048
2048
2048
2045
2045
2045
2055
2055
2055
2055
2050
2050
2050
2047
2047
2047
2054
2054
2054
2046
2046
2046
2050
2050
2050
2050
2049
2049
2049
2045
2045
2045
2055
2055
2055
2047
2047
2047
2051
2051
2051
2051
2053
2053
2053
2044
2044
2044
2046
2046
2046
2045
2045
2045
2051
2051
2051
2051
2051
2051
2051
2050
2050
2050
2053
2053
2053
2049
2049
2049
2049
2049
2049
2049
2044
2044
2044
2053
2053
2053
2051
2051
2051
2044
2044
2044
2057
2057
2057
2057
2044
2044
2044
2043
2043
2043
2056
2056
2056
2045
2045
