2005
2005
2007
2007
2007
2009
2009
2009
2006
2006
2006
2004
2004
2004
2004
2006
2006
2006
2006
2006
2006
2006
2006
2006
2007
2007
2007
1999
1999
1999
1999
2007
2007
2007
2010
2010
2010
2006
2006
2006
2007
2007
2007
2002
2002
2002
2002
2010
2010
2010
2009
2009
2009
2008
2008
2008
2006
2006
2006
2005
2005
2005
2005
2005
2005
2005
2008
2008
2008
2005
2005
2005
2007
2007
2007
2003
2003
2003
2003
2005
2005
2005
2004
2004
2004
2005
2005
2005
2012
2012
2012
2004
2004
2004
2004
2008
2008
2008
2006
2006
2006
2004
2004
2004
2005
2005
2005
2002
2002
2002
2002
2002
2002
2002
2007
2007
2007
2005
2005
2005
2003
2003
2003
1998
1998
1998
1998
2005
2005
2005
2007
2007
2007
2006
2006
2006
2004
2004
2004
2002
2002
2002
2002
2007
2007
2007
2005
2005
2005
2009
2009
2009
2008
2008
2008
2004
2004
2004
2004
2004
2004
2004
2009
2009
2009
2003
2003
2003
2005
2005
2005
2004
2004
2004
2004
2004
2004
2004
2002
2002
2002
2004
2004
2004
2005
2005
2005
2002
2002
2002
2002
2010
2010
2010
2005
2005
2005
2004
2004
2004
2007
2007
2007
2005
2005
2005
2005
2004
2004
2004
2005
2005
2005
2004
2004
2004
2005
2005
2005
2005
2005
2005
2005
2005
2005
2005
2011
2011
2011
2005
2005
2005
2005
2005
2005
2007
2007
2007
2007
2000
2000
2000
2010
2010
2010
2004
2004
2004
2008
2008
2008
2008
2008
2008
2008
2003
2003
2003
2007
2007
2007
2002
2002
2002
2002
2002
2002
2004
2004
2004
2004
2004
2004
2004
2005
2005
2005
2003
2003
2003
2002
2002
2002
1997
1997
1997
1997
2004
2004
2004
2008
2008
2008
2003
2003
2003
2009
2009
2009
2005
2005
2005
2005
2003
2003
2003
2010
2010
2010
2003
2003
2003
2005
2005
2005
2000
2000
2000
2000
2000
2000
2000
2003
2003
2003
2007
2007
2007
2007
2007
2007
2009
2009
2009
2009
2004
2004
2004
2005
2005
2005
2004
2004
2004
2008
2008
2008
2007
2007
2007
2007
2004
2004
2004
2006
2006
2006
2009
2009
2009
2009
2009
2009
2002
2002
2002
2002
2003
2003
2003
2009
2009
2009
1999
1999
1999
2004
2004
2004
2005
2005
2005
2005
2002
2002
2002
2005
2005
2005
2004
2004
2004
2005
2005
2005
2004
2004
2004
2004
2008
2008
2008
2007
2007
2007
2006
2006
2006
2019
2019
2019
2006
2006
2006
2006
2004
2004
2004
2006
2006
2006
2003
2003
2003
2003
2003
2003
2003
2003
2003
2003
2004
2004
2004
2006
2006
2006
2010
2010
2010
2005
2005
2005
2001
2001
2001
2001
2005
2005
2005
2006
2006
2006
2007
2007
2007
2007
2007
2007
2003
2003
2003
2003
2009
2009
2009
2009
2009
2009
2004
2004
2004
2005
2005
2005
2009
2009
2009
2009
2004
2004
2004
2005
2005
2005
2004
2004
2004
2005
2005
2005
2003
2003
2003
2003
2004
2004
2004
2006
2006
2006
2002
2002
2002
2002
2002
2002
2004
2004
2004
2004
2004
2004
2004
2008
2008
2008
2005
2005
2005
2004
2004
2004
2006
2006
2006
2006
2005
2005
2005
2001
2001
2001
2007
2007
2007
2006
2006
2006
2005
2005
2005
2005
2002
2002
2002
2001
2001
2001
2005
2005
2005
2006
2006
2006
2004
2004
2004
2004
2004
2004
2004
2008
2008
2008
2005
2005
2005
2008
2008
2008
2007
2007
2007
2007
2005
2005
2005
2004
2004
2004
2013
2013
2013
2006
2006
2006
2005
2005
2005
2005
2004
2004
2004
2008
2008
2008
2005
2005
2005
2007
2007
2007
2002
2002
2002
2002
2002
2002
2002
2005
2005
2005
2002
2002
2002
2007
2007
2007
2000
2000
2000
2000
2003
2003
2003
2008
2008
2008
2005
2005
2005
2012
2012
2012
2006
2006
2006
2006
2005
2005
2005
2007
2007
2007
2005
2005
2005
2009
2009
2009
2004
2004
2004
2004
2005
2005
2005
2007
2007
2007
2007
2007
2007
2005
2005
2005
2006
2006
2006
2006
1997
1997
1997
2005
2005
2005
2005
2005
2005
2006
2006
2006
2007
2007
2007
2007
2006
2006
2006
2005
2005
2005
2002
2002
2002
2004
2004
2004
2005
2005
2005
2005
2001
2001
2001
2005
2005
2005
2005
2005
2005
2005
2005
2005
2005
2005
2005
2005
2007
2007
2007
2006
2006
2006
2006
2006
2006
2007
2007
2007
2005
2005
2005
2005
2007
2007
2007
2006
2006
2006
2002
2002
2002
2007
2007
2007
2001
2001
2001
2001
2005
2005
2005
2004
2004
2004
2004
2004
2004
2005
2005
2005
1995
1995
1995
1995
2001
2001
2001
2007
2007
2007
2004
2004
2004
2009
2009
2009
2004
2004
2004
2004
2006
2006
2006
2007
2007
2007
2013
2013
2013
2009
2009
2009
2004
2004
2004
2004
2005
2005
2005
2003
2003
2003
2007
2007
2007
2008
2008
2008
2004
2004
2004
2004
2005
2005
2005
2007
2007
2007
2003
2003
2003
2006
2006
2006
2006
2006
2006
2006
2000
2000
2000
2006
2006
2006
2012
2012
2012
2007
2007
2007
2006
2006
2006
2006
2004
2004
2004
2005
2005
2005
2004
2004
2004
2007
2007
2007
1987
1987
1987
1987
2008
2008
2008
2008
2008
2008
2009
2009
2009
2007
2007
2007
2002
2002
2002
2002
2007
2007
2007
2009
2009
2009
1996
1996
1996
2007
2007
2007
2006
2006
2006
2006
2007
2007
2007
2012
2012
2012
2004
2004
2004
2007
2007
2007
2003
2003
2003
2003
2006
2006
2006
2006
2006
2006
2007
2007
2007
2011
2011
2011
2004
2004
2004
2004
2007
2007
2007
2005
2005
2005
2006
2006
2006
2002
2002
2002
2004
2004
2004
2004
2005
2005
2005
2004
2004
2004
2010
2010
2010
2007
2007
2007
2006
2006
2006
2006
2006
2006
2006
2008
2008
2008
2006
2006
2006
2005
2005
2005
2006
2006
2006
2006
2008
2008
2008
2009
2009
2009
2006
2006
2006
2006
2006
2006
2002
2002
2002
2002
2007
2007
2007
2009
2009
2009
2007
2007
2007
2003
2003
2003
2004
2004
2004
2004
2004
2004
2004
2008
2008
2008
2007
2007
2007
2005
2005
2005
2002
2002
2002
2002
2011
2011
2011
2007
2007
2007
2006
2006
2006
2003
2003
2003
2006
2006
2006
2006
2005
2005
2005
2001
2001
2001
2005
2005
2005
2006
2006
2006
2004
2004
2004
2004
2003
2003
2003
2010
2010
2010
2007
2007
2007
2012
2012
2012
2001
2001
2001
2001
2006
2006
2006
2005
2005
2005
2006
2006
2006
2005
2005
2005
2004
2004
2004
2004
2004
2004
2004
2003
2003
2003
1998
1998
1998
2008
2008
2008
2003
2003
2003
2003
2005
2005
2005
2005
2005
2005
2005
2005
2005
2007
2007
2007
1999
1999
1999
1999
2004
2004
2004
2007
2007
2007
2006
2006
2006
2006
2006
2006
1999
1999
1999
1999
2010
2010
2010
2006
2006
2006
2001
2001
2001
2010
2010
2010
2004
2004
2004
2004
2003
2003
2003
2006
2006
2006
2011
2011
2011
2008
2008
2008
2005
2005
2005
2005
2005
2005
2005
2005
2005
2005
2003
2003
2003
2006
2006
2006
2006
2006
2006
2006
2008
2008
2008
2002
2002
2002
2006
2006
2006
2010
2010
2010
2000
2000
2000
2000
2006
2006
2006
2007
2007
2007
2003
2003
2003
2013
2013
2013
2004
2004
2004
2004
2004
2004
2004
2009
2009
2009
2004
2004
2004
2008
2008
2008
2008
2008
2008
2008
2003
2003
2003
2006
2006
2006
2010
2010
2010
2005
2005
2005
2004
2004
2004
2004
2004
2004
2004
2003
2003
2003
2004
2004
2004
2006
2006
2006
2007
2007
2007
2007
2006
2006
2006
2011
2011
2011
2003
2003
2003
2009
2009
2009
2006
2006
2006
2006
2006
2006
2006
2006
2006
2006
2004
2004
2004
2006
2006
2006
2004
2004
2004
2004
2006
2006
2006
2004
2004
2004
2015
2015
2015
2005
2005
2005
2005
2005
2005
2005
2005
2005
2005
2011
2011
2011
2005
2005
2005
2007
2007
2007
1999
1999
1999
1999
2007
2007
2007
2007
2007
2007
2006
2006
2006
2006
2006
2006
2002
2002
2002
2002
2009
2009
2009
2007
2007
2007
2007
2007
2007
2007
2007
2007
2004
2004
2004
2004
2005
2005
2005
2005
2005
2005
2001
2001
2001
2007
2007
2007
2004
2004
2004
2004
2006
2006
2006
2016
2016
2016
2006
2006
2006
2004
2004
2004
2005
2005
2005
2005
1999
1999
1999
2006
2006
2006
2007
2007
2007
2012
2012
2012
2008
2008
2008
2008
2008
2008
2008
2005
2005
2005
2005
2005
2005
2006
2006
2006
2006
2006
2006
2006
2005
2005
2005
2005
2005
2005
2004
2004
2004
2008
2008
2008
2006
2006
2006
2006
2003
2003
2003
2010
2010
2010
2003
2003
2003
2005
2005
2005
2005
2005
2005
2005
2006
2006
2006
2008
2008
2008
2005
2005
2005
2008
2008
2008
2001
2001
2001
2001
2000
2000
2000
2011
2011
2011
2005
2005
2005
2004
2004
2004
2002
2002
2002
2002
2004
2004
2004
2006
2006
2006
2000
2000
2000
2004
2004
2004
2003
2003
2003
2003
2002
2002
2002
2010
2010
2010
2001
2001
2001
2006
2006
2006
2005
2005
2005
2005
2004
2004
2004
2005
2005
2005
2006
2006
2006
2006
2006
2006
2006
2006
2006
2006
2010
2010
2010
2007
2007
2007
2005
2005
2005
2013
2013
2013
2000
2000
2000
2000
2003
2003
2003
2005
2005
2005
2002
2002
2002
2010
2010
2010
2006
2006
2006
2006
2004
2004
2004
2005
2005
2005
2005
2005
2005
2005
2005
2005
1998
1998
1998
1998
2003
2003
2003
2008
2008
2008
2006
2006
2006
2005
2005
2005
2004
2004
2004
2004
2005
2005
2005
2007
2007
2007
2003
2003
2003
2003
2003
2003
2004
2004
2004
2004
2003
2003
2003
2006
2006
2006
2005
2005
2005
2011
2011
2011
2005
2005
2005
2005
2005
2005
2005
2007
2007
2007
2005
2005
2005
2005
2005
2005
2004
2004
2004
2004
1999
1999
1999
2008
2008
2008
2005
2005
2005
2003
2003
2003
2008
2008
2008
2008
1998
1998
1998
2006
2006
2006
2001
2001
2001
2009
2009
2009
2009
2009
2009
2009
2002
2002
2002
2002
2002
2002
2005
2005
2005
2006
2006
2006
2010
2010
2010
2010
2008
2008
2008
2006
2006
2006
2010
2010
2010
2004
2004
2004
2003
2003
2003
2003
2004
2004
2004
2008
2008
2008
2008
2008
2008
2007
2007
2007
2006
2006
2006
2006
2002
2002
2002
2009
2009
2009
2006
2006
2006
2005
2005
2005
1999
1999
1999
1999
2016
2016
2016
2006
2006
2006
2007
2007
2007
2007
2007
2007
2002
2002
2002
2002
2006
2006
2006
2008
2008
2008
2001
2001
2001
2006
2006
2006
2003
2003
2003
2003
2006
2006
2006
2003
2003
2003
2003
2003
2003
2008
2008
2008
2005
2005
2005
2005
2003
2003
2003
2011
2011
2011
2007
2007
2007
2017
2017
2017
2006
2006
2006
2006
2001
2001
2001
2004
2004
2004
2007
2007
2007
2009
2009
2009
2006
2006
2006
2006
2005
2005
2005
2007
2007
2007
2004
2004
2004
2007
2007
2007
2007
2007
2007
2007
2008
2008
2008
2001
2001
2001
2004
2004
2004
2010
2010
2010
2004
2004
2004
2004
2005
2005
2005
2009
2009
2009
2006
2006
2006
2006
2006
2006
2008
2008
2008
2008
2006
2006
2006
2004
2004
2004
2007
2007
2007
2006
2006
2006
2006
2006
2006
2006
2000
2000
2000
2002
2002
2002
2004
2004
2004
2011
2011
2011
2002
2002
2002
2002
2002
2002
2002
2007
2007
2007
2000
2000
2000
2003
2003
2003
2005
2005
2005
2005
2005
2005
2005
2004
2004
2004
2003
2003
2003
2005
2005
2005
2002
2002
2002
2002
2007
2007
2007
2000
2000
2000
2004
2004
2004
2007
2007
2007
2002
2002
2002
2002
1998
1998
1998
2007
2007
2007
2003
2003
2003
2004
2004
2004
2003
2003
2003
2003
2005
2005
2005
2005
2005
2005
2001
2001
2001
2007
2007
2007
2002
2002
2002
2002
2005
2005
2005
2008
2008
2008
2002
2002
2002
2007
2007
2007
1998
1998
1998
1998
2004
2004
2004
2000
2000
2000
2005
2005
2005
2005
2005
2005
2004
2004
2004
2004
2001
2001
2001
2007
2007
2007
2006
2006
2006
2003
2003
2003
2003
2003
2003
2003
2005
2005
2005
2006
2006
2006
2005
2005
2005
2008
2008
2008
2011
2011
2011
2011
2008
2008
2008
2005
2005
2005
2006
2006
2006
2008
2008
2008
2004
2004
2004
2004
2009
2009
2009
2006
2006
2006
2005
2005
2005
2005
2005
2005
2002
2002
2002
2002
2002
2002
2002
2005
2005
2005
2003
2003
2003
2005
2005
2005
2001
2001
2001
2001
2002
2002
2002
2006
2006
2006
2006
2006
2006
2008
2008
2008
2006
2006
2006
2006
2010
2010
2010
2007
2007
2007
2006
2006
2006
2003
2003
2003
2003
2003
2003
2003
2005
2005
2005
2003
2003
2003
2001
2001
2001
2006
2006
2006
2005
2005
2005
2005
2006
2006
2006
2009
2009
2009
2005
2005
2005
2008
2008
2008
2006
2006
2006
2006
2006
2006
2006
2006
2006
2006
2005
2005
2005
2004
2004
2004
2003
2003
2003
2003
2003
2003
2003
2006
2006
2006
2001
2001
2001
2007
2007
2007
2004
2004
2004
2004
2004
2004
2004
2009
2009
2009
2005
2005
2005
2006
2006
2006
2007
2007
2007
2007
2002
2002
2002
2011
2011
2011
2006
2006
2006
2008
2008
2008
2005
2005
2005
2005
2005
2005
2005
2005
2005
2005
2008
2008
2008
2008
2008
2008
2009
2009
2009
2009
2005
2005
2005
2006
2006
2006
2004
2004
2004
2009
2009
2009
2003
2003
2003
2003
2002
2002
2002
2006
2006
2006
2001
2001
2001
2003
2003
2003
2005
2005
2005
2005
2005
2005
2005
2004
2004
2004
2005
2005
2005
2004
2004
2004
2007
2007
2007
2007
2003
2003
2003
2009
2009
2009
2005
2005
2005
2011
2011
2011
1997
1997
1997
1997
2006
2006
2006
2005
2005
2005
2005
2005
2005
1998
1998
1998
2003
2003
2003
2003
2004
2004
2004
2012
2012
2012
2009
2009
2009
2008
2008
2008
2003
2003
2003
2003
2005
2005
2005
2004
2004
2004
2005
2005
2005
2007
2007
2007
2001
2001
2001
2001
2005
2005
2005
2001
2001
2001
2005
2005
2005
2008
2008
2008
1999
1999
1999
1999
2008
2008
2008
2006
2006
2006
2005
2005
2005
2005
2005
2005
2005
2005
2005
2005
2005
2005
2005
2006
2006
2006
2007
2007
2007
2006
2006
2006
2004
2004
2004
2004
2004
2004
2004
2008
2008
2008
2001
2001
2001
2006
2006
2006
2001
2001
2001
2001
2005
2005
2005
2007
2007
2007
2002
2002
2002
2001
2001
2001
2002
2002
2002
2002
2008
2008
2008
2005
2005
2005
2003
2003
2003
2003
2003
2003
2004
2004
2004
2004
2006
2006
2006
2006
2006
2006
2008
2008
2008
2007
2007
2007
2006
2006
2006
2006
2004
2004
2004
2004
2004
2004
2008
2008
2008
2002
2002
2002
2005
2005
2005
2005
2005
2005
2005
2003
2003
2003
2003
2003
2003
2009
2009
2009
2002
2002
2002
2002
2000
2000
2000
2004
2004
2004
2004
2004
2004
2004
2004
2004
2007
2007
2007
2007
2000
2000
2000
2006
2006
2006
2003
2003
2003
2000
2000
2000
2005
2005
2005
2005
2005
2005
2005
2007
2007
2007
2001
2001
2001
2008
2008
2008
2002
2002
2002
2002
2004
2004
2004
2003
2003
2003
2004
2004
2004
2008
2008
2008
2006
2006
2006
2006
2008
2008
2008
2009
2009
2009
2005
2005
2005
2002
2002
2002
2008
2008
2008
2008
2006
2006
2006
2006
2006
2006
2001
2001
2001
2003
2003
2003
2004
2004
2004
2004
2006
2006
2006
2011
2011
2011
2001
2001
2001
2005
2005
2005
2003
2003
2003
2003
2000
2000
2000
2011
2011
2011
2003
2003
2003
2011
2011
2011
2006
2006
2006
2006
2004
2004
2004
2002
2002
2002
2006
2006
2006
2006
2006
2006
2004
2004
2004
2004
2008
2008
2008
1998
1998
1998
2007
2007
2007
2008
2008
2008
2006
2006
2006
2006
2000
2000
2000
2007
2007
2007
2002
2002
2002
2001
2001
2001
2005
2005
2005
2005
2005
2005
2005
2008
2008
2008
2010
2010
2010
2006
2006
2006
2005
2005
2005
2005
2004
2004
2004
2006
2006
2006
2006
2006
2006
2006
2006
2006
2000
2000
2000
2000
2003
2003
2003
2008
2008
2008
2007
2007
2007
2012
2012
2012
2004
2004
2004
2004
2007
2007
2007
2006
2006
2006
2004
2004
2004
2004
2004
2004
2004
2004
2004
2004
2006
2006
2006
2007
2007
2007
2008
2008
2008
2007
2007
2007
2003
2003
2003
2003
1998
1998
1998
2002
2002
2002
2005
2005
2005
2002
2002
2002
2004
2004
2004
2004
2004
2004
2004
2004
2004
2004
2007
2007
2007
2006
2006
2006
2001
2001
2001
2001
2001
2001
2001
2004
2004
2004
2008
2008
2008
2008
2008
2008
2003
2003
2003
2003
1999
1999
1999
2005
2005
2005
2007
2007
2007
2011
2011
2011
2005
2005
2005
2005
2004
2004
2004
2007
2007
2007
2009
2009
2009
2006
2006
2006
2004
2004
2004
2004
2005
2005
2005
2002
2002
2002
2006
2006
2006
2006
2006
2006
2001
2001
2001
2001
2006
2006
2006
2007
2007
2007
2004
2004
2004
1999
1999
1999
2004
2004
2004
2004
2007
2007
2007
2007
2007
2007
2002
2002
2002
2009
2009
2009
2003
2003
2003
2003
2005
2005
2005
2010
2010
2010
2005
2005
2005
2007
2007
2007
2006
2006
2006
2006
2007
2007
2007
2011
2011
2011
2004
2004
2004
2012
2012
2012
2003
2003
2003
2003
2004
2004
2004
2009
2009
2009
2003
2003
2003
2007
2007
2007
2000
2000
2000
2000
2007
2007
2007
2004
2004
2004
2005
2005
2005
2006
2006
2006
2004
2004
2004
2004
2002
2002
2002
2008
2008
2008
2006
2006
2006
2004
2004
2004
2005
2005
2005
2005
2004
2004
2004
2010
2010
2010
2008
2008
2008
2005
2005
2005
2007
2007
2007
2007
2006
2006
2006
2003
2003
2003
2003
2003
2003
2007
2007
2007
2002
2002
2002
2002
2001
2001
2001
2005
2005
2005
2005
2005
2005
2008
2008
2008
2003
2003
2003
2003
2004
2004
2004
2007
2007
2007
2003
2003
2003
2006
2006
2006
2002
2002
2002
2002
2005
2005
2005
2010
2010
2010
2011
2011
2011
2007
2007
2007
2005
2005
2005
2005
2005
2005
2005
2006
2006
2006
2006
2006
2006
2007
2007
2007
2001
2001
2001
2001
2006
2006
2006
2007
2007
2007
2006
2006
2006
2006
2006
2006
2001
2001
2001
2001
2002
2002
2002
2004
2004
2004
2007
2007
2007
2005
2005
2005
2002
2002
2002
2002
2007
2007
2007
2007
2007
2007
2009
2009
2009
2008
2008
2008
2003
2003
2003
2003
2005
2005
2005
2007
2007
2007
2007
2007
2007
2009
2009
2009
2009
2009
2009
2009
2006
2006
2006
2004
2004
2004
2005
2005
2005
2006
2006
2006
2002
2002
2002
2002
2008
2008
2008
2005
2005
2005
2002
2002
2002
2000
2000
2000
2003
2003
2003
2003
2007
2007
2007
2007
2007
2007
2005
2005
2005
2008
2008
2008
2004
2004
2004
2004
2005
2005
2005
2011
2011
2011
2011
2011
2011
2011
2011
2011
2005
2005
2005
2005
2003
2003
2003
2003
2003
2003
2004
2004
2004
2004
2004
2004
2008
2008
2008
2008
2005
2005
2005
2005
2005
2005
2004
2004
2004
2005
2005
2005
2005
2005
2005
2005
2001
2001
2001
2007
2007
2007
2004
2004
2004
2000
2000
2000
2005
2005
2005
2005
2002
2002
2002
2005
2005
2005
2001
2001
2001
2006
2006
2006
2004
2004
2004
2004
2007
2007
2007
2006
2006
2006
2003
2003
2003
2007
2007
2007
2008
2008
2008
2008
2006
2006
2006
2008
2008
2008
2005
2005
2005
2003
2003
2003
2003
2003
2003
2003
1999
1999
1999
2007
2007
2007
2004
2004
2004
2005
2005
2005
2004
2004
2004
2004
2004
2004
2004
2004
2004
2004
2007
2007
2007
2008
2008
2008
2006
2006
2006
2006
2005
2005
2005
2006
2006
2006
2009
2009
2009
2007
2007
2007
2004
2004
2004
2004
2007
2007
2007
2007
2007
2007
2002
2002
2002
2007
2007
2007
2003
2003
2003
2003
2005
2005
2005
2007
2007
2007
2007
2007
2007
2007
2007
2007
2010
2010
2010
2010
2005
2005
2005
2005
2005
2005
2007
2007
2007
2005
2005
2005
2004
2004
2004
2004
2004
2004
2004
2006
2006
2006
2003
2003
2003
2005
2005
2005
2004
2004
2004
2004
2004
2004
2004
2002
2002
2002
2005
2005
2005
2008
2008
2008
2005
2005
2005
2005
2005
2005
2005
2005
2005
2005
2007
2007
2007
2008
2008
2008
2004
2004
2004
2004
2004
2004
2004
2003
2003
2003
2010
2010
2010
2005
2005
2005
2005
2005
2005
2005
2002
2002
2002
2001
2001
2001
2005
2005
2005
2012
2012
2012
2008
2008
2008
2008
2005
2005
2005
2008
2008
2008
2005
2005
2005
2014
2014
2014
2004
2004
2004
2004
2004
2004
2004
2010
2010
2010
2013
2013
2013
2005
2005
2005
2005
2005
2005
2005
2007
2007
2007
2002
2002
2002
2004
2004
2004
2006
2006
2006
2003
2003
2003
2003
2009
2009
2009
2007
2007
2007
2004
2004
2004
2005
2005
2005
2004
2004
2004
2004
2004
2004
2004
2008
2008
2008
2009
2009
2009
2007
2007
2007
2003
2003
2003
2003
2007
2007
2007
2001
2001
2001
2002
2002
2002
2009
2009
2009
2007
2007
2007
2007
2007
2007
2007
2007
2007
2007
2004
2004
2004
2006
2006
2006
2004
2004
2004
2004
2004
2004
2004
2008
2008
2008
2003
2003
2003
2012
2012
2012
2001
2001
2001
2001
2004
2004
2004
2007
2007
2007
2005
2005
2005
2006
2006
2006
2003
2003
2003
2003
2002
2002
2002
2006
2006
2006
2011
2011
2011
2008
2008
2008
2004
2004
2004
2004
2003
2003
2003
2006
2006
2006
1997
1997
1997
2007
2007
2007
2002
2002
2002
2002
2004
2004
2004
2006
2006
2006
2005
2005
2005
2005
2005
2005
2006
2006
2006
2006
2001
2001
2001
2006
2006
2006
2006
2006
2006
2010
2010
2010
2010
2010
2010
2010
2005
2005
2005
2005
2005
2005
2009
2009
2009
2007
2007
2007
2009
2009
2009
2009
2004
2004
2004
2005
2005
2005
2010
2010
2010
2006
2006
2006
2003
2003
2003
2003
2002
2002
2002
2005
2005
2005
2009
2009
2009
2005
2005
2005
2005
2005
2005
2005
2004
2004
2004
2008
2008
2008
2002
2002
2002
2006
2006
2006
2012
2012
2012
2012
2009
2009
2009
2005
2005
2005
2004
2004
2004
2006
2006
2006
2003
2003
2003
2003
2004
2004
2004
2006
2006
2006
2007
2007
2007
2009
2009
2009
2005
2005
2005
2005
2005
2005
2005
2007
2007
2007
2013
2013
2013
2007
2007
2007
2016
2016
2016
2016
2003
2003
2003
2007
2007
2007
2006
2006
2006
2007
2007
2007
2007
2007
2007
2007
2002
2002
2002
2007
2007
2007
2004
2004
2004
2010
2010
2010
2007
2007
2007
2007
2005
2005
2005
2007
2007
2007
2004
2004
2004
2010
2010
2010
2005
2005
2005
2005
1999
1999
1999
2006
2006
2006
2003
2003
2003
2010
2010
2010
2004
2004
2004
2004
2004
2004
2004
2009
2009
2009
2012
2012
2012
2007
2007
2007
2003
2003
2003
2003
2004
2004
2004
2010
2010
2010
2007
2007
2007
2006
2006
2006
2006
2006
2006
2006
2011
2011
2011
2005
2005
2005
2004
2004
2004
1999
1999
1999
2003
2003
2003
2003
2003
2003
2003
2005
2005
2005
2004
2004
2004
2009
2009
2009
2005
2005
2005
2005
2003
2003
2003
2008
2008
2008
2005
2005
2005
2006
2006
2006
2002
2002
2002
2002
2002
2002
2002
2001
2001
2001
2005
2005
2005
2010
2010
2010
2004
2004
2004
2004
2003
2003
2003
2013
2013
2013
2003
2003
2003
2007
2007
2007
2002
2002
2002
2002
1998
1998
1998
2005
2005
2005
2005
2005
2005
2002
2002
2002
2003
2003
2003
2003
2008
2008
2008
2007
2007
2007
2004
2004
2004
2002
2002
2002
2006
2006
2006
2006
2002
2002
2002
2005
2005
2005
2000
2000
2000
2005
2005
2005
2005
2005
2005
2005
2005
2005
2005
2010
2010
2010
2006
2006
2006
2003
2003
2003
2003
2003
2003
2003
2007
2007
2007
2008
2008
2008
2005
2005
2005
2008
2008
2008
2007
2007
2007
2007
1999
1999
1999
2006
2006
2006
2003
2003
2003
2007
2007
2007
1998
1998
1998
1998
2004
2004
2004
2006
2006
2006
2002
2002
2002
2006
2006
2006
2006
2006
2006
2006
2004
2004
2004
2009
2009
2009
2004
2004
2004
2006
2006
2006
2006
2006
2006
2006
2004
2004
2004
2004
2004
2004
2005
2005
2005
2006
2006
2006
2007
2007
2007
2007
2007
2007
2007
2009
2009
2009
2007
2007
2007
2004
2004
2004
2007
2007
2007
2007
2006
2006
2006
2006
2006
2006
2013
2013
2013
2011
2011
2011
2006
2006
2006
2006
2005
2005
2005
2009
2009
2009
2005
2005
2005
2008
2008
2008
2008
2008
2008
2008
2006
2006
2006
2007
2007
2007
2005
2005
2005
2007
2007
2007
2004
2004
2004
2004
2004
2004
2004
2004
2004
2004
2004
2004
2004
2005
2005
2005
2006
2006
2006
2006
2008
2008
2008
2008
2008
2008
2006
2006
2006
2002
2002
2002
2000
2000
2000
2000
2008
2008
2008
2007
2007
2007
2006
2006
2006
2008
2008
2008
2003
2003
2003
2003
2005
2005
2005
2005
2005
2005
2002
2002
2002
2008
2008
2008
2005
2005
2005
2005
2003
2003
2003
2003
2003
2003
2005
2005
2005
2007
2007
2007
2005
2005
2005
2005
2006
2006
2006
2007
2007
2007
2009
2009
2009
2008
2008
2008
2003
2003
2003
2003
2002
2002
2002
2007
2007
2007
2009
2009
2009
2010
2010
2010
2003
2003
2003
2003
2004
2004
2004
2008
2008
2008
2002
2002
2002
2005
2005
2005
2002
2002
2002
2002
2003
2003
2003
2005
2005
2005
2001
2001
2001
2006
2006
2006
2003
2003
2003
2003
2005
2005
2005
2010
2010
2010
2004
2004
2004
2008
2008
2008
1998
1998
1998
1998
2002
2002
2002
2003
2003
2003
2003
2003
2003
2008
2008
2008
2008
2008
2008
2008
2006
2006
2006
2005
2005
2005
2005
2005
2005
2005
2005
2005
2004
2004
2004
2004
2005
2005
2005
2008
2008
2008
2004
2004
2004
2006
2006
2006
2001
2001
2001
2001
2004
2004
2004
2010
2010
2010
2007
2007
2007
2007
2007
2007
2005
2005
2005
2005
2004
2004
2004
2006
2006
2006
2008
2008
2008
2008
2008
2008
2007
2007
2007
2007
2006
2006
2006
2004
2004
2004
2005
2005
2005
2008
2008
2008
2005
2005
2005
2005
2004
2004
2004
2004
2004
2004
2005
2005
2005
2011
2011
2011
2005
2005
2005
2005
2002
2002
2002
2006
2006
2006
2007
2007
2007
2012
2012
2012
2000
2000
2000
2000
2005
2005
2005
2006
2006
2006
2009
2009
2009
2012
2012
2012
2007
2007
2007
2007
2005
2005
2005
2003
2003
2003
2004
2004
2004
2006
2006
2006
2010
2010
2010
2010
2007
2007
2007
2007
2007
2007
2006
2006
2006
2009
2009
2009
2006
2006
2006
2006
2006
2006
2006
2007
2007
2007
2006
2006
2006
2002
2002
2002
2008
2008
2008
2008
2005
2005
2005
2008
2008
2008
2003
2003
2003
2005
2005
2005
2003
2003
2003
2003
2005
2005
2005
2007
2007
2007
2004
2004
2004
2007
2007
2007
2002
2002
2002
2002
2007
2007
2007
2006
2006
2006
2005
2005
2005
2003
2003
2003
1999
1999
1999
1999
2009
2009
2009
2007
2007
2007
2007
2007
2007
2005
2005
2005
2001
2001
2001
2001
2003
2003
2003
2006
2006
2006
2006
2006
2006
2003
2003
2003
2001
2001
2001
2001
2009
2009
2009
2009
2009
2009
2007
2007
2007
2005
2005
2005
2004
2004
2004
2004
2004
2004
2004
2007
2007
2007
2003
2003
2003
2007
2007
2007
1999
1999
1999
1999
2004
2004
2004
2002
2002
2002
2004
2004
2004
2005
2005
2005
2002
2002
2002
2002
2006
2006
2006
2007
2007
2007
2002
2002
2002
2002
2002
2002
2002
2002
2002
2002
2005
2005
2005
2007
2007
2007
2008
2008
2008
2003
2003
2003
2005
2005
2005
2005
2004
2004
2004
2009
2009
2009
2002
2002
2002
2005
2005
2005
2001
2001
2001
2001
2008
2008
2008
2013
2013
2013
1998
1998
1998
2006
2006
2006
2004
2004
2004
2004
2006
2006
2006
2012
2012
2012
2003
2003
2003
2007
2007
2007
2005
2005
2005
2005
2002
2002
2002
2008
2008
2008
2003
2003
2003
1998
1998
1998
2004
2004
2004
2004
2006
2006
2006
2007
2007
2007
2005
2005
2005
2007
2007
2007
2003
2003
2003
2003
2005
2005
2005
2007
2007
2007
2008
2008
2008
2007
2007
2007
2004
2004
2004
2004
2003
2003
2003
2007
2007
2007
2006
2006
2006
2004
2004
2004
2004
2004
2004
2004
2002
2002
2002
2010
2010
2010
2006
2006
2006
2010
2010
2010
2001
2001
2001
2001
2006
2006
2006
2007
2007
2007
2004
2004
2004
2019
2019
2019
2007
2007
2007
2007
2005
2005
2005
2007
2007
2007
2005
2005
2005
2006
2006
2006
2004
2004
2004
2004
2006
2006
2006
2007
2007
2007
2004
2004
2004
2005
2005
2005
2000
2000
2000
2000
1997
1997
1997
2004
2004
2004
2005
2005
2005
2006
2006
2006
2004
2004
2004
2004
2011
2011
2011
2006
2006
2006
2005
2005
2005
2007
2007
2007
2004
2004
2004
2004
2003
2003
2003
2009
2009
2009
2006
2006
2006
2006
2006
2006
2008
2008
2008
2008
2000
2000
2000
2004
2004
2004
2005
2005
2005
2005
2005
2005
2005
2005
2005
2005
2004
2004
2004
2004
2004
2004
2011
2011
2011
2006
2006
2006
2005
2005
2005
2005
2004
2004
2004
2005
2005
2005
2007
2007
2007
2007
2007
2007
2000
2000
2000
2000
2006
2006
2006
2008
2008
2008
2004
2004
2004
2010
2010
2010
2000
2000
2000
2000
2008
2008
2008
2005
2005
2005
2003
2003
2003
2002
2002
2002
2002
2002
2002
2002
2007
2007
2007
2007
2007
2007
2012
2012
2012
2012
2012
2012
2006
2006
2006
2006
2004
2004
2004
2007
2007
2007
2012
2012
2012
2007
2007
2007
2006
2006
2006
2006
2003
2003
2003
2009
2009
2009
2005
2005
2005
2004
2004
2004
2009
2009
2009
2009
2003
2003
2003
2008
2008
2008
2006
2006
2006
2003
2003
2003
2000
2000
2000
2000
2000
2000
2000
2006
2006
2006
2003
2003
2003
2007
2007
2007
2004
2004
2004
2004
2005
2005
2005
2009
2009
2009
2003
2003
2003
2005
2005
2005
2002
2002
2002
2002
2005
2005
2005
2009
2009
2009
2008
2008
2008
2004
2004
2004
2008
2008
2008
2008
2004
2004
2004
2019
2019
2019
2006
2006
2006
2004
2004
2004
2002
2002
2002
2002
2007
2007
2007
2009
2009
2009
2005
2005
2005
2013
2013
2013
2005
2005
2005
2005
2006
2006
2006
2006
2006
2006
2004
2004
2004
2007
2007
2007
2004
2004
2004
2004
2005
2005
2005
2002
2002
2002
2007
2007
2007
2007
2007
2007
2002
2002
2002
2002
2004
2004
2004
2005
2005
2005
2006
2006
2006
2011
2011
2011
2005
2005
2005
2005
2005
2005
2005
2002
2002
2002
2003
2003
2003
2007
2007
2007
2001
2001
2001
2001
2004
2004
2004
2011
2011
2011
2004
2004
2004
2000
2000
2000
2001
2001
2001
2001
2010
2010
2010
2006
2006
2006
2005
2005
2005
2001
2001
2001
2005
2005
2005
2005
2005
2005
2005
2006
2006
2006
2005
2005
2005
2007
2007
2007
2004
2004
2004
2004
2003
2003
2003
1999
1999
1999
2005
2005
2005
2008
2008
2008
2003
2003
2003
2003
2011
2011
2011
2002
2002
2002
2005
2005
2005
2008
2008
2008
2002
2002
2002
2002
2009
2009
2009
2007
2007
2007
2003
2003
2003
2006
2006
2006
2011
2011
2011
2011
2001
2001
2001
2005
2005
2005
2005
2005
2005
2001
2001
2001
2005
2005
2005
2005
2004
2004
2004
2005
2005
2005
2007
2007
2007
2004
2004
2004
2005
2005
2005
2005
2007
2007
2007
2008
2008
2008
2004
2004
2004
2006
2006
2006
2004
2004
2004
2004
2005
2005
2005
2011
2011
2011
2003
2003
2003
2006
2006
2006
2005
2005
2005
2005
2002
2002
2002
2011
2011
2011
2005
2005
2005
2005
2005
2005
2007
2007
2007
2007
2000
2000
2000
2007
2007
2007
2005
2005
2005
2008
2008
2008
2005
2005
2005
2005
2006
2006
2006
2007
2007
2007
2006
2006
2006
2003
2003
2003
1998
1998
1998
1998
2004
2004
2004
2007
2007
2007
2006
2006
2006
2006
2006
2006
2004
2004
2004
2004
2005
2005
2005
2006
2006
2006
2008
2008
2008
2007
2007
2007
2000
2000
2000
2000
2004
2004
2004
2007
2007
2007
2007
2007
2007
2001
2001
2001
2006
2006
2006
2006
2004
2004
2004
2007
2007
2007
2005
2005
2005
2005
2005
2005
2006
2006
2006
2006
2006
2006
2006
2007
2007
2007
2004
2004
2004
2006
2006
2006
2005
2005
2005
2005
2005
2005
2005
2009
2009
2009
2000
2000
2000
2007
2007
2007
2004
2004
2004
2004
1999
1999
1999
2005
2005
2005
2001
2001
2001
2011
2011
2011
2006
2006
2006
2006
2005
2005
2005
2005
2005
2005
2003
2003
2003
2009
2009
2009
2004
2004
2004
2004
2005
2005
2005
2010
2010
2010
2005
2005
2005
2008
2008
2008
1998
1998
1998
1998
2002
2002
2002
2005
2005
2005
2004
2004
2004
2007
2007
2007
2004
2004
2004
2004
2005
2005
2005
2002
2002
2002
2006
2006
2006
2006
2006
2006
2015
2015
2015
2015
2005
2005
2005
2006
2006
2006
2007
2007
2007
2005
2005
2005
2007
2007
2007
2007
2003
2003
2003
2004
2004
2004
2006
2006
2006
2007
2007
2007
2004
2004
2004
2004
2002
2002
2002
2006
2006
2006
2006
2006
2006
2004
2004
2004
2006
2006
2006
2006
2005
2005
2005
2008
2008
2008
2011
2011
2011
2008
2008
2008
2006
2006
2006
2006
2003
2003
2003
2002
2002
2002
2002
2002
2002
2009
2009
2009
2004
2004
2004
2004
2008
2008
2008
2005
2005
2005
2006
2006
2006
2005
2005
2005
2007
2007
2007
2007
2006
2006
2006
2004
2004
2004
2001
2001
2001
2006
2006
2006
2000
2000
2000
2000
2001
2001
2001
2009
2009
2009
2005
2005
2005
2004
2004
2004
1999
1999
1999
1999
2007
2007
2007
2008
2008
2008
2004
2004
2004
2005
2005
2005
1995
1995
1995
1995
2008
2008
2008
2004
2004
2004
2003
2003
2003
2006
2006
2006
2004
2004
2004
2004
2004
2004
2004
2007
2007
2007
2002
2002
2002
2009
2009
2009
2005
2005
2005
2005
2007
2007
2007
2007
2007
2007
2007
2007
2007
2010
2010
2010
2002
2002
2002
2002
2004
2004
2004
2006
2006
2006
2001
2001
2001
2009
2009
2009
2003
2003
2003
2003
2006
2006
2006
2009
2009
2009
2006
2006
2006
2005
2005
2005
2006
2006
2006
2006
2003
2003
2003
2010
2010
2010
2006
2006
2006
2002
2002
2002
2006
2006
2006
2006
2004
2004
2004
2015
2015
2015
2005
2005
2005
2008
2008
2008
2005
2005
2005
2005
2005
2005
2005
2006
2006
2006
2005
2005
2005
2008
2008
2008
2002
2002
2002
2002
2000
2000
2000
2006
2006
2006
2004
2004
2004
2005
2005
2005
1995
1995
1995
1995
2008
2008
2008
2005
2005
2005
2004
2004
2004
2003
2003
2003
2005
2005
2005
2005
2003
2003
2003
2005
2005
2005
2007
2007
2007
2001
2001
2001
2004
2004
2004
2004
2004
2004
2004
2009
2009
2009
2006
2006
2006
2003
2003
2003
2001
2001
2001
2001
2005
2005
2005
2007
2007
2007
2015
2015
2015
2005
2005
2005
2005
2005
2005
2005
2003
2003
2003
1999
1999
1999
2005
2005
2005
2008
2008
2008
2005
2005
2005
2005
2007
2007
2007
2009
2009
2009
2002
2002
2002
2006
2006
2006
2004
2004
2004
2004
2004
2004
2004
2007
2007
2007
2005
2005
2005
2008
2008
2008
2004
2004
2004
2004
2001
2001
2001
2007
2007
2007
2007
2007
2007
2009
2009
2009
2005
2005
2005
2005
2006
2006
2006
2007
2007
2007
2008
2008
2008
2012
2012
2012
2007
2007
2007
2007
2008
2008
2008
2005
2005
2005
2007
2007
2007
2007
2007
2007
2003
2003
2003
2003
2006
2006
2006
2005
2005
2005
2002
2002
2002
2005
2005
2005
2002
2002
2002
2002
2001
2001
2001
2007
2007
2007
2001
2001
2001
2004
2004
2004
2004
2004
2004
2004
2005
2005
2005
2005
2005
2005
2012
2012
2012
2006
2006
2006
2004
2004
2004
2004
2005
2005
2005
2008
2008
2008
2003
2003
2003
2007
2007
2007
2001
2001
2001
2001
2002
2002
2002
2008
2008
2008
2003
2003
2003
2006
2006
2006
2004
2004
2004
2004
2005
2005
2005
2006
2006
2006
2006
2006
2006
2003
2003
2003
2001
2001
2001
2001
1997
1997
1997
2005
2005
2005
2006
2006
2006
2003
2003
2003
2003
2003
2003
2003
2005
2005
2005
2007
2007
2007
2008
2008
2008
2007
2007
2007
2003
2003
2003
2003
2004
2004
2004
2006
2006
2006
2004
2004
2004
2006
2006
2006
2004
2004
2004
2004
2004
2004
2004
2008
2008
2008
2003
2003
2003
2008
2008
2008
2006
2006
2006
2006
2004
2004
2004
2006
2006
2006
2005
2005
2005
2010
2010
2010
2010
2010
2010
2010
2007
2007
2007
2008
2008
2008
2001
2001
2001
2004
2004
2004
2007
2007
2007
2007
1998
1998
1998
2006
2006
2006
2006
2006
2006
2006
2006
2006
2004
2004
2004
2004
1997
1997
1997
2005
2005
2005
2008
2008
2008
2002
2002
2002
2005
2005
2005
2005
2003
2003
2003
2001
2001
2001
2009
2009
2009
2005
2005
2005
2008
2008
2008
2008
2000
2000
2000
2004
2004
2004
2001
2001
2001
2004
2004
2004
2004
2004
2004
2004
2005
2005
2005
2005
2005
2005
2001
2001
2001
2006
2006
2006
2004
2004
2004
2004
2003
2003
2003
2002
2002
2002
2005
2005
2005
2009
2009
2009
2000
2000
2000
2000
2002
2002
2002
2012
2012
2012
2003
2003
2003
2005
2005
2005
2007
2007
2007
2007
2003
2003
2003
2008
2008
2008
2004
2004
2004
2006
2006
2006
2000
2000
2000
2000
1998
1998
1998
2008
2008
2008
2005
2005
2005
2005
2005
2005
2004
2004
2004
2004
2001
2001
2001
2003
2003
2003
2005
2005
2005
2011
2011
2011
2001
2001
2001
2001
2001
2001
2001
2006
2006
2006
2005
2005
2005
1998
1998
1998
2005
2005
2005
2005
2003
2003
2003
2016
2016
2016
2010
2010
2010
2004
2004
2004
1998
1998
1998
1998
2003
2003
2003
2007
2007
2007
2008
2008
2008
2008
2008
2008
2004
2004
2004
2004
2005
2005
2005
2008
2008
2008
2004
2004
2004
2006
2006
2006
2002
2002
2002
2002
2003
2003
2003
2005
2005
2005
2007
2007
2007
2005
2005
2005
1997
1997
1997
1997
2003
2003
2003
2005
2005
2005
2004
2004
2004
2006
2006
2006
2004
2004
2004
2004
2002
2002
2002
2007
2007
2007
2003
2003
2003
2002
2002
2002
2005
2005
2005
2005
2001
2001
2001
2005
2005
2005
2008
2008
2008
2004
2004
2004
2004
2004
2004
2004
2003
2003
2003
2003
2003
2003
2004
2004
2004
2004
2004
2004
2001
2001
2001
2001
2004
2004
2004
2007
2007
2007
2006
2006
2006
2005
2005
2005
2004
2004
2004
2004
2005
2005
2005
2003
2003
2003
2003
2003
2003
2007
2007
2007
2006
2006
2006
2006
2001
2001
2001
2000
2000
2000
2007
2007
2007
2003
2003
2003
2005
2005
2005
2005
2004
2004
2004
1999
1999
1999
2007
2007
2007
2008
2008
2008
1999
1999
1999
1999
2003
2003
2003
2009
2009
2009
2003
2003
2003
2007
2007
2007
2002
2002
2002
2002
2002
2002
2002
2004
2004
2004
2003
2003
2003
2003
2003
2003
2003
2003
2003
2003
2011
2011
2011
2009
2009
2009
2007
2007
2007
2008
2008
2008
2002
2002
2002
2002
2002
2002
2002
2006
2006
2006
2007
2007
2007
1998
1998
1998
2000
2000
2000
2000
2005
2005
2005
2007
2007
2007
2007
2007
2007
2002
2002
2002
2005
2005
2005
2005
2005
2005
2005
2005
2005
2005
2000
2000
2000
2005
2005
2005
2005
2005
2005
2005
2005
2005
2005
2010
2010
2010
2005
2005
2005
2005
2005
2005
2003
2003
2003
2003
2000
2000
2000
2009
2009
2009
2008
2008
2008
2007
2007
2007
1997
1997
1997
1997
2005
2005
2005
2003
2003
2003
2005
2005
2005
2004
2004
2004
2003
2003
2003
2003
1997
1997
1997
2006
2006
2006
2009
2009
2009
2006
2006
2006
2012
2012
2012
2012
2003
2003
2003
2009
2009
2009
2006
2006
2006
2003
2003
2003
2003
2003
2003
2003
2006
2006
2006
2006
2006
2006
2008
2008
2008
2008
2008
2008
2004
2004
2004
2004
2005
2005
2005
2006
2006
2006
2002
2002
2002
2007
2007
2007
2005
2005
2005
2005
2004
2004
2004
2004
2004
2004
2003
2003
2003
2005
2005
2005
2006
2006
2006
2006
2005
2005
2005
2007
2007
2007
2001
2001
2001
2006
2006
2006
2001
2001
2001
2001
2009
2009
2009
2006
2006
2006
2006
2006
2006
2006
2006
2006
2004
2004
2004
2004
2005
2005
2005
2007
2007
2007
2003
2003
2003
2008
2008
2008
1999
1999
1999
1999
1997
1997
1997
2007
2007
2007
2005
2005
2005
2010
2010
2010
2005
2005
2005
2005
2003
2003
2003
2005
2005
2005
2005
2005
2005
2009
2009
2009
2000
2000
2000
2000
2003
2003
2003
2007
2007
2007
2006
2006
2006
2006
2006
2006
2004
2004
2004
2004
2005
2005
2005
2005
2005
2005
2004
2004
2004
2009
2009
2009
2006
2006
2006
2006
2004
2004
2004
2006
2006
2006
2004
2004
2004
2009
2009
2009
2006
2006
2006
2006
2003
2003
2003
2006
2006
2006
2010
2010
2010
2005
2005
2005
2001
2001
2001
2001
2003
2003
2003
2003
2003
2003
2008
2008
2008
2010
2010
2010
2005
2005
2005
2005
2003
2003
2003
2006
2006
2006
2005
2005
2005
2007
2007
2007
2006
2006
2006
2006
2009
2009
2009
2007
2007
2007
2005
2005
2005
2006
2006
2006
2008
2008
2008
2008
2003
2003
2003
2009
2009
2009
2006
2006
2006
2006
2006
2006
2010
2010
2010
2010
2001
2001
2001
2008
2008
2008
2006
2006
2006
2004
2004
2004
2009
2009
2009
2009
2003
2003
2003
2007
2007
2007
2005
2005
2005
2003
2003
2003
2002
2002
2002
2002
2004
2004
2004
2011
2011
2011
2004
2004
2004
2011
2011
2011
2004
2004
2004
2004
2003
2003
2003
2008
2008
2008
2003
2003
2003
2001
2001
2001
2004
2004
2004
2004
2005
2005
2005
2005
2005
2005
2012
2012
2012
2008
2008
2008
2003
2003
2003
2003
2004
2004
2004
2002
2002
2002
2004
2004
2004
2004
2004
2004
2003
2003
2003
2003
2005
2005
2005
2001
2001
2001
2003
2003
2003
2008
2008
2008
2004
2004
2004
2004
2006
2006
2006
2007
2007
2007
2005
2005
2005
2006
2006
2006
2003
2003
2003
2003
2005
2005
2005
2007
2007
2007
1999
1999
1999
2009
2009
2009
2003
2003
2003
2003
2004
2004
2004
2005
2005
2005
2002
2002
2002
2008
2008
2008
2007
2007
2007
2007
2004
2004
2004
2007
2007
2007
2001
2001
2001
2001
2001
2001
2003
2003
2003
2003
2003
2003
2003
2012
2012
2012
2005
2005
2005
2001
2001
2001
2004
2004
2004
2004
2002
2002
2002
2006
2006
2006
2001
2001
2001
2007
2007
2007
2004
2004
2004
2004
2004
2004
2004
2003
2003
2003
2010
2010
2010
2005
2005
2005
2004
2004
2004
2004
2003
2003
2003
2002
2002
2002
2006
2006
2006
2008
2008
2008
2003
2003
2003
2003
2004
2004
2004
2015
2015
2015
2006
2006
2006
2006
2006
2006
2008
2008
2008
2008
2009
2009
2009
2003
2003
2003
2003
2003
2003
2007
2007
2007
2003
2003
2003
2003
2003
2003
2003
2007
2007
2007
2004
2004
2004
2006
2006
2006
2004
2004
2004
2004
2010
2010
2010
2004
2004
2004
2005
2005
2005
2009
2009
2009
2004
2004
2004
2004
2009
2009
2009
2006
2006
2006
2005
2005
2005
2009
2009
2009
2006
2006
2006
2006
2000
2000
2000
2005
2005
2005
2001
2001
2001
2011
2011
2011
2006
2006
2006
2006
2004
2004
2004
2005
2005
2005
2001
2001
2001
2006
2006
2006
2004
2004
2004
2004
2001
2001
2001
2001
2001
2001
2008
2008
2008
2007
2007
2007
2005
2005
2005
2005
2004
2004
2004
2005
2005
2005
2003
2003
2003
2008
2008
2008
2005
2005
2005
2005
2005
2005
2005
2008
2008
2008
2005
2005
2005
2013
2013
2013
2000
2000
2000
2000
2002
2002
2002
2004
2004
2004
2007
2007
2007
2007
2007
2007
1998
1998
1998
1998
2000
2000
2000
2005
2005
2005
2006
2006
2006
2000
2000
2000
2005
2005
2005
2005
2007
2007
2007
2005
2005
2005
2001
2001
2001
2000
2000
2000
2004
2004
2004
2004
2005
2005
2005
2007
2007
2007
2006
2006
2006
2010
2010
2010
2004
2004
2004
2004
2002
2002
2002
2009
2009
2009
2004
2004
2004
2006
2006
2006
2005
2005
2005
2005
2004
2004
2004
2003
2003
2003
2006
2006
2006
2006
2006
2006
2005
2005
2005
2005
2006
2006
2006
2005
2005
2005
2005
2005
2005
2008
2008
2008
2004
2004
2004
2004
2005
2005
2005
2007
2007
2007
2007
2007
2007
2007
2007
2007
2004
2004
2004
2004
2006
2006
2006
2002
2002
2002
1995
1995
1995
2004
2004
2004
2002
2002
2002
2002
2003
2003
2003
2001
2001
2001
2004
2004
2004
2004
2004
2004
1999
1999
1999
1999
2009
2009
2009
2006
2006
2006
2003
2003
2003
2004
2004
2004
2005
2005
2005
2005
2006
2006
2006
2004
2004
2004
2005
2005
2005
2004
2004
2004
2003
2003
2003
2003
2010
2010
2010
2008
2008
2008
2006
2006
2006
2011
2011
2011
2002
2002
2002
2002
2003
2003
2003
2008
2008
2008
2001
2001
2001
2008
2008
2008
2012
2012
2012
2012
2017
2017
2017
2006
2006
2006
2005
2005
2005
2004
2004
2004
2005
2005
2005
2005
2007
2007
2007
2009
2009
2009
2010
2010
2010
2005
2005
2005
2003
2003
2003
2003
2006
2006
2006
2009
2009
2009
2004
2004
2004
2008
2008
2008
2004
2004
2004
2004
2003
2003
2003
2006
2006
2006
1999
1999
1999
2006
2006
2006
2002
2002
2002
2002
1999
1999
1999
2005
2005
2005
2004
2004
2004
2014
2014
2014
2006
2006
2006
2006
2008
2008
2008
2006
2006
2006
2008
2008
2008
2004
2004
2004
2005
2005
2005
2005
2003
2003
2003
2006
2006
2006
2004
2004
2004
2007
2007
2007
2003
2003
2003
2003
2002
2002
2002
2006
2006
2006
2003
2003
2003
2010
2010
2010
2005
2005
2005
2005
2003
2003
2003
2007
2007
2007
2002
2002
2002
1999
1999
1999
2005
2005
2005
2005
2004
2004
2004
2005
2005
2005
1998
1998
1998
2005
2005
2005
2002
2002
2002
2002
2005
2005
2005
2007
2007
2007
2009
2009
2009
2005
2005
2005
2006
2006
2006
2006
2004
2004
2004
2004
2004
2004
2008
2008
2008
2008
2008
2008
2005
2005
2005
2005
2005
2005
2005
2004
2004
2004
2004
2004
2004
2005
2005
2005
2003
2003
2003
2003
2007
2007
2007
2005
2005
2005
2008
2008
2008
2006
2006
2006
2005
2005
2005
2005
2002
2002
2002
2012
2012
2012
2005
2005
2005
2006
2006
2006
2008
2008
2008
2008
2007
2007
2007
2007
2007
2007
2002
2002
2002
2002
2002
2002
2003
2003
2003
2003
1999
1999
1999
2014
2014
2014
2005
2005
2005
2000
2000
2000
2002
2002
2002
2002
2003
2003
2003
2007
2007
2007
2008
2008
2008
2007
2007
2007
2003
2003
2003
2003
2005
2005
2005
2005
2005
2005
2001
2001
2001
2006
2006
2006
2004
2004
2004
2004
2005
2005
2005
2004
2004
2004
2006
2006
2006
2004
2004
2004
2004
2004
2004
2004
2006
2006
2006
2008
2008
2008
2003
2003
2003
2003
2003
2003
2003
2003
2003
2003
2000
2000
2000
2014
2014
2014
2004
2004
2004
2005
2005
2005
2004
2004
2004
2004
2003
2003
2003
2001
2001
2001
2004
2004
2004
2007
2007
2007
2012
2012
2012
2012
2000
2000
2000
2002
2002
2002
2005
2005
2005
2004
2004
2004
2002
2002
2002
2002
2008
2008
2008
2006
2006
2006
2005
2005
2005
2011
2011
2011
1998
1998
1998
1998
2001
2001
2001
2006
2006
2006
2005
2005
2005
2009
2009
2009
2001
2001
2001
2001
2001
2001
2001
2005
2005
2005
2001
2001
2001
2015
2015
2015
2003
2003
2003
2003
2003
2003
2003
2007
2007
2007
2004
2004
2004
2011
2011
2011
2003
2003
2003
2003
2005
2005
2005
2006
2006
2006
2008
2008
2008
2008
2008
2008
2001
2001
2001
2001
2004
2004
2004
2006
2006
2006
2008
2008
2008
2002
2002
2002
2004
2004
2004
2004
2004
2004
2004
2008
2008
2008
2003
2003
2003
2005
2005
2005
2002
2002
2002
2002
2003
2003
2003
2009
2009
2009
2002
2002
2002
2005
2005
2005
2003
2003
2003
2003
2004
2004
2004
2008
2008
2008
2005
2005
2005
2006
2006
2006
2003
2003
2003
2003
2002
2002
2002
2011
2011
2011
2005
2005
2005
2003
2003
2003
2011
2011
2011
2011
2004
2004
2004
2007
2007
2007
2006
2006
2006
2005
2005
2005
2007
2007
2007
2007
2010
2010
2010
2005
2005
2005
2004
2004
2004
2000
2000
2000
2007
2007
2007
2007
2006
2006
2006
2005
2005
2005
2005
2005
2005
2008
2008
2008
2005
2005
2005
2005
2005
2005
2005
2005
2005
2005
2006
2006
2006
2010
2010
2010
2005
2005
2005
2005
2006
2006
2006
2007
2007
2007
2007
2007
2007
2004
2004
2004
2006
2006
2006
2006
2005
2005
2005
2007
2007
2007
1999
1999
1999
2005
2005
2005
2005
2005
2005
2005
2005
2005
2005
2007
2007
2007
2004
2004
2004
2009
2009
2009
2003
2003
2003
2003
2005
2005
2005
2006
2006
2006
2005
2005
2005
2008
2008
2008
2003
2003
2003
2003
2003
2003
2003
2004
2004
2004
2004
2004
2004
2007
2007
2007
2003
2003
2003
2003
2005
2005
2005
2015
2015
2015
2004
2004
2004
2006
2006
2006
2007
2007
2007
2007
2001
2001
2001
2004
2004
2004
2004
2004
2004
2005
2005
2005
2005
2005
2005
2005
2009
2009
2009
2006
2006
2006
2006
2006
2006
2009
2009
2009
2008
2008
2008
2008
2010
2010
2010
2007
2007
2007
2003
2003
2003
2007
2007
2007
2005
2005
2005
2005
2004
2004
2004
2002
2002
2002
2006
2006
2006
2002
2002
2002
1997
1997
1997
1997
2005
2005
2005
2007
2007
2007
2004
2004
2004
2006
2006
2006
2005
2005
2005
2005
2003
2003
2003
2008
2008
2008
2005
2005
2005
2007
2007
2007
2007
2007
2007
2007
2003
2003
2003
2008
2008
2008
2007
2007
2007
2006
2006
2006
2001
2001
2001
2001
2005
2005
2005
2007
2007
2007
2007
2007
2007
2006
2006
2006
2001
2001
2001
2001
2002
2002
2002
2009
2009
2009
2003
2003
2003
2008
2008
2008
2006
2006
2006
2006
2003
2003
2003
2001
2001
2001
2003
2003
2003
2008
2008
2008
2008
2008
2008
2008
2004
2004
2004
2002
2002
2002
2004
2004
2004
2011
2011
2011
2003
2003
2003
2003
2007
2007
2007
2008
2008
2008
2005
2005
2005
2009
2009
2009
2002
2002
2002
2002
2005
2005
2005
2009
2009
2009
2004
2004
2004
2006
2006
2006
2006
2006
2006
2006
2007
2007
2007
2005
2005
2005
2003
2003
2003
2001
2001
2001
2002
2002
2002
2002
2001
2001
2001
2007
2007
2007
2007
2007
2007
2002
2002
2002
2003
2003
2003
2003
2005
2005
2005
2006
2006
2006
2005
2005
2005
2005
2005
2005
1996
1996
1996
1996
2005
2005
2005
2008
2008
2008
2001
2001
2001
2007
2007
2007
2005
2005
2005
2005
2004
2004
2004
2008
2008
2008
2004
2004
2004
2006
2006
2006
1998
1998
1998
1998
1995
1995
1995
2003
2003
2003
2005
2005
2005
2001
2001
2001
2003
2003
2003
2003
2005
2005
2005
2012
2012
2012
2003
2003
2003
2012
2012
2012
2013
2013
2013
2013
2006
2006
2006
2006
2006
2006
2002
2002
2002
1999
1999
1999
2001
2001
2001
2001
2000
2000
2000
2007
2007
2007
2006
2006
2006
2005
2005
2005
2002
2002
2002
2002
2009
2009
2009
2004
2004
2004
2007
2007
2007
2001
2001
2001
2008
2008
2008
2008
2004
2004
2004
2006
2006
2006
2003
2003
2003
2005
2005
2005
2013
2013
2013
2013
2002
2002
2002
2005
2005
2005
2004
2004
2004
2009
2009
2009
2002
2002
2002
2002
2004
2004
2004
2003
2003
2003
2001
2001
2001
2005
2005
2005
2009
2009
2009
2009
1997
1997
1997
2005
2005
2005
2006
2006
2006
2012
2012
2012
2003
2003
2003
2003
2003
2003
2003
2005
2005
2005
2002
2002
2002
2007
2007
2007
2002
2002
2002
2002
2005
2005
2005
2004
2004
2004
2008
2008
2008
2007
2007
2007
2003
2003
2003
2003
2003
2003
2003
2004
2004
2004
2010
2010
2010
2005
2005
2005
1995
1995
1995
1995
2008
2008
2008
2005
2005
2005
2003
2003
2003
2007
2007
2007
2006
2006
2006
2006
2005
2005
2005
2002
2002
2002
2006
2006
2006
2008
2008
2008
2000
2000
2000
2000
2002
2002
2002
2006
2006
2006
2004
2004
2004
2008
2008
2008
2002
2002
2002
2002
2005
2005
2005
2006
2006
2006
2001
2001
2001
2009
2009
2009
2003
2003
2003
2003
2003
2003
2003
2006
2006
2006
2007
2007
2007
2007
2007
2007
2003
2003
2003
2003
1999
1999
1999
2008
2008
2008
2005
2005
2005
2004
2004
2004
2004
2004
2004
2004
2003
2003
2003
2005
2005
2005
2007
2007
2007
2013
2013
2013
2001
2001
2001
2001
2004
2004
2004
2005
2005
2005
2003
2003
2003
2007
2007
2007
2001
2001
2001
2001
2003
2003
2003
2006
2006
2006
2010
2010
2010
2011
2011
2011
2001
2001
2001
2001
2007
2007
2007
2006
2006
2006
2010
2010
2010
2008
2008
2008
2004
2004
2004
2004
2005
2005
2005
2000
2000
2000
2007
2007
2007
2016
2016
2016
2003
2003
2003
2003
2005
2005
2005
2005
2005
2005
2005
2005
2005
2007
2007
2007
2004
2004
2004
2004
2005
2005
2005
2005
2005
2005
2004
2004
2004
2004
2004
2004
2004
2004
2004
2004
1999
1999
1999
2002
2002
2002
2000
2000
2000
2006
2006
2006
2009
2009
2009
2009
2010
2010
2010
2005
2005
2005
2004
2004
2004
2015
2015
2015
2005
2005
2005
2005
2003
2003
2003
2005
2005
2005
2011
2011
2011
2005
2005
2005
2006
2006
2006
2006
2007
2007
2007
2005
2005
2005
2008
2008
2008
2006
2006
2006
2002
2002
2002
2002
2004
2004
2004
2006
2006
2006
2001
2001
2001
2006
2006
2006
2006
2006
2006
2006
2007
2007
2007
2005
2005
2005
2010
2010
2010
2002
2002
2002
2005
2005
2005
2005
2003
2003
2003
2008
2008
2008
1995
1995
1995
2007
2007
2007
2005
2005
2005
2005
2005
2005
2005
2005
2005
2005
2008
2008
2008
2006
2006
2006
2003
2003
2003
2003
2007
2007
2007
2006
2006
2006
2003
2003
2003
2007
2007
2007
2002
2002
2002
2002
2004
2004
2004
1995
1995
1995
2008
2008
2008
2006
2006
2006
2005
2005
2005
2005
1999
1999
1999
2000
2000
2000
2005
2005
2005
2007
2007
2007
1999
1999
1999
1999
2004
2004
2004
2009
2009
2009
2003
2003
2003
2007
2007
2007
2011
2011
2011
2011
2002
2002
2002
2004
2004
2004
2003
2003
2003
2009
2009
2009
2002
2002
2002
2002
2006
2006
2006
2007
2007
2007
2006
2006
2006
2008
2008
2008
2005
2005
2005
2005
1999
1999
1999
2005
2005
2005
2007
2007
2007
2002
2002
2002
2004
2004
2004
2004
2001
2001
2001
2008
2008
2008
2003
2003
2003
2003
2003
2003
2009
2009
2009
2009
2001
2001
2001
2006
2006
2006
2006
2006
2006
2012
2012
2012
2004
2004
2004
2004
2005
2005
2005
2005
2005
2005
2004
2004
2004
2011
2011
2011
2004
2004
2004
2004
1998
1998
1998
2007
2007
2007
2011
2011
2011
2004
2004
2004
2003
2003
2003
2003
2004
2004
2004
2002
2002
2002
2001
2001
2001
2006
2006
2006
2006
2006
2006
2006
2008
2008
2008
2008
2008
2008
2010
2010
2010
2008
2008
2008
2005
2005
2005
2005
2005
2005
2005
2008
2008
2008
2005
2005
2005
2007
2007
2007
2008
2008
2008
2008
1998
1998
1998
2005
2005
2005
2004
2004
2004
2009
2009
2009
2005
2005
2005
2005
2006
2006
2006
2003
2003
2003
2004
2004
2004
2008
2008
2008
2004
2004
2004
2004
2006
2006
2006
2006
2006
2006
2002
2002
2002
2005
2005
2005
2003
2003
2003
2003
2000
2000
2000
2005
2005
2005
2003
2003
2003
2007
2007
2007
2011
2011
2011
2011
2012
2012
2012
2006
2006
2006
2005
2005
2005
2003
2003
2003
2007
2007
2007
2007
2006
2006
2006
2005
2005
2005
2004
2004
2004
2010
2010
2010
2004
2004
2004
2004
2000
2000
2000
2006
2006
2006
1998
1998
1998
2005
2005
2005
2001
2001
2001
2001
2004
2004
2004
2006
2006
2006
2001
2001
2001
2005
2005
2005
2003
2003
2003
2003
2003
2003
2003
2007
2007
2007
2003
2003
2003
2005
2005
2005
2008
2008
2008
2008
2005
2005
2005
2008
2008
2008
2007
2007
2007
2008
2008
2008
2005
2005
2005
2005
2003
2003
2003
2005
2005
2005
2008
2008
2008
2003
2003
2003
2001
2001
2001
2001
2003
2003
2003
2009
2009
2009
2008
2008
2008
2007
2007
2007
2001
2001
2001
2001
2006
2006
2006
2006
2006
2006
2005
2005
2005
2007
2007
2007
2005
2005
2005
2005
1997
1997
1997
2006
2006
2006
2004
2004
2004
2010
2010
2010
2010
2010
2010
2010
2000
2000
2000
2007
2007
2007
2005
2005
2005
2002
2002
2002
2004
2004
2004
2004
2005
2005
2005
2007
2007
2007
2005
2005
2005
2007
2007
2007
2004
2004
2004
2004
2006
2006
2006
2007
2007
2007
2003
2003
2003
2002
2002
2002
2004
2004
2004
2004
2006
2006
2006
2004
2004
2004
2008
2008
2008
2008
2008
2008
2012
2012
2012
2012
2005
2005
2005
2002
2002
2002
2005
2005
2005
2006
2006
2006
2004
2004
2004
2004
2003
2003
2003
2009
2009
2009
2005
2005
2005
2005
2005
2005
2003
2003
2003
2003
2007
2007
2007
2003
2003
2003
2005
2005
2005
2005
2005
2005
2007
2007
2007
2007
2002
2002
2002
2006
2006
2006
2005
2005
2005
2006
2006
2006
2002
2002
2002
2002
2006
2006
2006
2001
2001
2001
2007
2007
2007
2006
2006
2006
2005
2005
2005
2005
2002
2002
2002
2001
2001
2001
2005
2005
2005
2004
2004
2004
2002
2002
2002
2002
2005
2005
2005
2007
2007
2007
2005
2005
2005
2004
2004
2004
2005
2005
2005
2005
2008
2008
2008
2008
2008
2008
2002
2002
2002
2007
2007
2007
2007
2007
2007
2007
2003
2003
2003
2007
2007
2007
2009
2009
2009
2007
2007
2007
1998
1998
1998
1998
2003
2003
2003
2005
2005
2005
2005
2005
2005
2009
2009
2009
2005
2005
2005
2005
2003
2003
2003
2008
2008
2008
2009
2009
2009
2003
2003
2003
2002
2002
2002
2002
2003
2003
2003
2004
2004
2004
2006
2006
2006
2006
2006
2006
2004
2004
2004
2004
2002
2002
2002
2007
2007
2007
2009
2009
2009
2007
2007
2007
2009
2009
2009
2009
2004
2004
2004
2005
2005
2005
2007
2007
2007
2005
2005
2005
2001
2001
2001
2001
2003
2003
2003
2010
2010
2010
2006
2006
2006
2006
2006
2006
2004
2004
2004
2004
2004
2004
2004
2006
2006
2006
2003
2003
2003
2007
2007
2007
2007
2007
2007
2007
2008
2008
2008
2002
2002
2002
2004
2004
2004
2005
2005
2005
2002
2002
2002
2002
1999
1999
1999
2005
2005
2005
2006
2006
2006
2009
2009
2009
2005
2005
2005
2005
1998
1998
1998
2006
2006
2006
2005
2005
2005
2007
2007
2007
2003
2003
2003
2003
2002
2002
2002
2009
2009
2009
2005
2005
2005
2005
2005
2005
2004
2004
2004
2004
2004
2004
2004
2005
2005
2005
2007
2007
2007
2005
2005
2005
2004
2004
2004
2004
2002
