2169
2169
2174
2174
2174
2166
2166
2166
2166
2168
2168
2168
2174
2174
2174
2170
2170
2170
2178
2178
2178
2175
2175
2175
2175
2175
2175
2175
2177
2177
2177
2173
2173
2173
2177
2177
2177
2172
2172
2172
2172
2171
2171
2171
2176
2176
2176
2173
2173
2173
2172
2172
2172
2172
2172
2172
2172
2174
2174
2174
2175
2175
2175
2172
2172
2172
2161
2161
2161
2178
2178
2178
2178
2174
2174
2174
2174
2174
2174
2172
2172
2172
2175
2175
2169
2176
2176
2176
2172
2172
2172
2172
2171
2171
2171
2170
2170
2170
2175
2175
2175
2172
2172
2172
2167
2167
2167
2167
2172
2172
2172
2175
2175
2175
2170
2170
2170
2176
2176
2176
2172
2172
2172
2172
2175
2175
2175
2169
2169
2169
2169
2169
2169
2174
2174
2174
2174
2174
2174
2174
2174
2174
2174
2173
2173
2173
2172
2172
2172
2173
2173
2173
2175
2175
2175
2175
2168
2168
2168
2173
2173
2173
2172
2172
2172
2169
2169
2169
2173
2173
2173
2173
2170
2170
2170
2176
2176
2176
2172
2172
2172
2174
2174
2174
2174
2174
2174
2174
2171
2171
2171
2173
2173
2173
2172
2172
2172
2173
2173
2173
2171
2171
2171
2171
2175
2175
2175
2173
2173
2173
2173
2173
2173
2178
2178
2178
2176
2176
2176
2176
2173
2173
2173
2173
2173
2173
2176
2176
2176
2173
2173
2173
2171
2171
2171
2171
2169
2169
2169
2171
2171
2171
2173
2173
2173
2173
2173
2173
2171
2171
2171
2171
2173
2173
2173
2173
2173
2173
2173
2173
2173
2168
2168
2168
2171
2171
2171
2171
2175
2175
2175
2173
2173
2173
2173
2173
2173
2170
2170
2170
2174
2174
2174
2174
2172
2172
2172
2174
2174
2174
2173
2173
2173
2173
2173
2173
2171
2171
2171
2171
2174
2174
2174
2173
2173
2173
2173
2173
2173
2173
2173
2173
2172
2172
2172
2172
2170
2170
2170
2175
2175
2175
2173
2173
2173
2175
2175
2175
2174
2174
2174
2174
2169
2169
2169
2171
2171
2171
2168
2168
2168
2173
2173
2173
2173
2173
2173
2173
2173
2173
2173
2170
2170
2170
2173
2173
2173
2171
2171
2171
2168
2168
2168
2168
2173
2173
2173
2175
2175
2175
2173
2173
2173
2173
2173
2173
2174
2174
2174
2174
2175
2175
2175
2175
2175
2175
2170
2170
2170
2176
2176
2176
2173
2173
2173
2173
2170
2170
2170
2171
2171
2171
2172
2172
2172
2175
2175
2175
2180
2180
2180
2180
2173
2173
2173
2173
2173
2173
2179
2179
2179
2164
2164
2164
2173
2173
2173
2173
2178
2178
2178
2169
2169
2169
2170
2170
2170
2174
2174
2174
2172
2172
2172
2172
2173
2173
2173
2170
2170
2170
2176
2176
2176
2174
2174
2174
2173
2173
2173
2173
2165
2165
2165
2173
2173
2173
2182
2182
2182
2174
2174
2174
2169
2169
2169
2169
2169
2169
2169
2179
2179
2179
2173
2173
2173
2169
2169
2169
2175
2175
2175
2175
2173
2173
2173
2175
2175
2175
2174
2174
2174
2177
2177
2177
2170
2170
2170
2170
2173
2173
2173
2178
2178
2178
2171
2171
2171
2172
2172
2172
2176
2176
2176
2176
2170
2170
2170
2172
2172
2172
2172
2172
2172
2179
2179
2179
2174
2174
2174
2174
2171
2171
2171
2171
2171
2171
2173
2173
2173
2175
2175
2175
2172
2172
2172
2172
2173
2173
2173
2174
2174
2174
2173
2173
2173
2175
2175
2175
2172
2172
2172
2172
2170
2170
2170
2176
2176
2176
2174
2174
2174
2175
2175
2175
2172
2172
2172
2172
2173
2173
2173
2174
2174
2174
2175
2175
2175
2175
2175
2175
2169
2169
2169
2169
2172
2172
2172
2171
2171
2171
2172
2172
2172
2174
2174
2174
2177
2177
2177
2177
2174
2174
2174
2172
2172
2172
2169
2169
2169
2173
2173
2173
2172
2172
2172
2172
2173
2173
2173
2172
2172
2172
2171
2171
2171
2174
2174
2174
2174
2174
2174
2174
2171
2171
2171
2169
2169
2169
2174
2174
2174
2168
2168
2168
2171
2171
2171
2171
2171
2171
2171
2165
2165
2165
2169
2169
2169
2174
2174
2174
2170
2170
2170
2170
2177
2177
2177
2174
2174
2174
2175
2175
2175
2178
2178
2178
2171
2171
2171
2171
2173
2173
2173
2177
2177
2177
2172
2172
2172
2169
2169
2169
2175
2175
2175
2175
2174
2174
2174
2166
2166
2166
2173
2173
2173
2176
2176
2176
2173
2173
2173
2173
2169
2169
2169
2172
2172
2172
2172
2172
2172
2169
2169
2169
2173
2173
2173
2173
2177
2177
2177
2173
2173
2173
2169
2169
2169
2174
2174
2174
2169
2169
2169
2169
2174
2174
2174
2170
2170
2170
2173
2173
2173
2174
2174
2174
2175
2175
2175
2175
2165
2165
2165
2174
2174
2174
2170
2170
2170
2175
2175
2175
2174
2174
2174
2174
2173
2173
2173
2173
2173
2173
2170
2170
2170
2173
2173
2173
2180
2180
2180
2180
2176
2176
2176
2178
2178
2178
2178
2178
2178
2172
2172
2172
2171
2171
2171
2171
2177
2177
2177
2173
2173
2173
2172
2172
2172
2172
2172
2172
2173
2173
2173
2173
2172
2172
2172
2171
2171
2171
2171
2171
2171
2173
2173
2173
2184
2184
2184
2184
2171
2171
2171
2175
2175
2175
2187
2187
2187
2174
2174
2174
2172
2172
2172
2172
2164
2164
2164
2173
2173
2173
2175
2175
2175
2175
2175
2175
2170
2170
2170
2170
2167
2167
2167
2173
2173
2173
2175
2175
2175
2171
2171
2171
2175
2175
2175
2175
2173
2173
2173
2175
2175
2175
2172
2172
2172
2174
2174
2174
2174
2174
2174
2174
2176
2176
2176
2175
2175
2175
2172
2172
2172
2173
2173
2173
2173
2173
2173
2173
2173
2173
2173
2173
2173
2173
2172
2172
2172
2171
2171
2171
2172
2172
2172
2172
2171
2171
2171
2173
2173
2173
2180
2180
2180
2174
2174
2174
2173
2173
2173
2173
2170
2170
2170
2171
2171
2171
2174
2174
2174
2172
2172
2172
2174
2174
2174
2174
2168
2168
2168
2174
2174
2174
2172
2172
2172
2173
2173
2173
