2136
2136
2136
2136
2132
2132
2132
2140
2140
2140
2141
2141
2141
2140
2140
2140
2138
2138
2138
2138
2139
2139
2139
2139
2139
2139
2138
2138
2138
2139
2139
2139
2137
2137
2137
2137
2131
2131
2131
2144
2144
2144
2143
2143
2143
2140
2140
2140
2144
2144
2144
2144
2140
2140
2140
2140
2140
2140
2140
2140
2140
2139
2139
2139
2137
2137
2137
2137
2139
2139
2139
2142
2142
2142
2140
2140
2140
2141
2141
2141
2137
2137
2137
2137
2146
2146
2146
2139
2139
2139
2145
2145
2145
2141
2141
2141
2142
2142
2142
2138
2138
2138
2138
2139
2139
2139
2143
2143
2143
2140
2140
2140
2137
2137
2137
2139
2139
2139
2139
2139
2139
2139
2138
2138
2138
2139
2139
2139
2138
2138
2138
2134
2134
2134
2134
2142
2142
2142
2139
2139
2139
2138
2138
2138
2143
2143
2143
2140
2140
2140
2140
2137
2137
2137
2139
2139
2139
2132
2132
2132
2140
2140
2140
2143
2143
2143
2143
2138
2138
2138
2138
2138
2138
2143
2143
2143
2131
2131
2131
2137
2137
2137
2137
2133
2133
2133
2140
2140
2140
2135
2135
2135
2139
2139
2139
2141
2141
2141
2141
2138
2138
2138
2140
2140
2140
2140
2140
2140
2140
2140
2140
2139
2139
2139
2139
2135
2135
2135
2139
2139
2139
2140
2140
2140
2143
2143
2143
2140
2140
2140
2140
2137
2137
2137
2140
2140
2140
2137
2137
2137
2143
2143
2143
2140
2140
2140
2140
2141
2141
2141
2139
2139
2139
2134
2134
2134
2142
2142
2142
2142
2142
2142
2142
2144
2144
2144
2140
2140
2140
2142
2142
2142
2139
2139
2139
2137
2137
2137
2137
2140
2140
2140
2135
2135
2135
2137
2137
2137
2143
2143
2143
2137
2137
2137
2137
2139
2139
2139
2141
2141
2141
2141
2141
2141
2141
2141
2141
2139
2139
2139
2139
2129
2129
2129
2139
2139
2139
2142
2142
2142
2141
2141
2141
2137
2137
2137
2137
2139
2139
2139
2135
2135
2135
2140
2140
2140
2138
2138
2138
2138
2138
2138
2138
2136
2136
2136
2138
2138
2138
2142
2142
2142
2143
2143
2143
2138
2138
2138
2138
2139
2139
2139
2138
2138
2138
2139
2139
2139
2141
2141
2141
2151
2151
2151
2151
2139
2139
2139
2144
2144
2144
2138
2138
2138
2143
2143
2143
2139
2139
2139
2139
2138
2138
2138
2140
2140
2140
2132
2132
2132
2139
2139
2139
2139
2139
2139
2139
2140
2140
2140
2137
2137
2137
2140
2140
2140
2139
2139
2139
2134
2134
2134
2134
2144
2144
2144
2141
2141
2141
2137
2137
2137
2141
2141
2141
2139
2139
2139
2139
2143
2143
2143
2142
2142
2142
2139
2139
2139
2138
2138
2138
2140
2140
2140
2140
2140
2140
2140
2140
2140
2140
2139
2139
2139
2140
2140
2140
2139
2139
2139
2139
2141
2141
2141
2138
2138
2138
2138
2138
2138
2141
2141
2141
2140
2140
2140
2140
2137
2137
2137
2141
2141
2141
2137
2137
2137
2142
2142
2142
2142
2142
2142
2142
2139
2139
2139
2137
2137
2137
2138
2138
2138
2142
2142
2142
2138
2138
2138
2138
2140
2140
2140
2135
2135
2135
2140
2140
2140
2140
2140
2140
2140
2140
2140
2140
2141
2141
2141
2137
2137
2137
2140
2140
2140
2141
2141
2141
2138
2138
2138
2138
2142
2142
2142
2138
2138
2138
2136
2136
2136
2140
2140
2140
2141
2141
2141
2141
2137
2137
2137
2140
2140
2140
2142
2142
2142
2141
2141
2141
2141
2141
2141
2141
2139
2139
2139
2129
2129
2129
2133
2133
2133
2128
2128
2128
2139
2139
2139
2139
2132
2132
2132
2139
2139
2139
2142
2142
2142
2140
2140
2140
2140
2140
2140
2140
2136
2136
2136
2137
2137
2137
2140
2140
2140
2138
2138
2138
2137
2137
2137
2137
2139
2139
2139
2139
2139
2139
2139
2139
2139
2137
2137
2137
2137
2137
2137
2137
2140
2140
2140
2136
2136
2136
2133
2133
2133
2139
2139
2139
2142
2142
2142
2142
2137
2137
2137
2141
2141
2141
2142
2142
2142
2141
2141
2141
2139
2139
2139
2139
2142
2142
2142
2139
2139
2139
2140
2140
2140
2141
2141
2141
2138
2138
2138
2138
2139
2139
2139
2139
2139
2139
2139
2139
2139
2139
2139
2139
2142
2142
2142
2142
2136
2136
2136
2138
2138
2138
2140
2140
2140
2140
2140
2140
2139
2139
2139
2139
2139
2139
2139
2138
2138
2138
2143
2143
2143
2140
2140
2140
2141
2141
2141
2141
2138
2138
2138
2145
2145
2145
2138
2138
2138
2139
2139
2139
2136
2136
2136
2136
2136
2136
2136
2135
2135
2135
2142
2142
2142
2143
2143
2143
2139
2139
2139
2139
2138
2138
2138
2141
2141
2141
2136
2136
2136
2140
2140
2140
2131
2131
2131
2131
2141
2141
2141
2135
2135
2135
2135
2135
2135
2147
2147
2147
2140
2140
2140
2140
2144
2144
2144
2140
2140
2140
2139
2139
2139
2143
2143
2143
2139
2139
2139
2139
2139
2139
2139
2144
2144
2144
2137
2137
2137
2140
2140
2140
2134
2134
2134
2134
2140
2140
2140
2140
2140
2140
2139
2139
2139
2140
2140
2140
2140
2140
2140
2140
2141
2141
2141
2140
2140
2140
2134
2134
2134
2143
2143
2143
2142
2142
2142
2142
2138
2138
2138
2142
2142
2142
2141
2141
2141
2141
2141
2141
2138
2138
2138
2138
2139
2139
2139
2140
2140
2140
2139
2139
2139
2142
2142
2142
2140
2140
2140
2140
2140
2140
2140
2141
2141
2141
2143
2143
2143
2140
2140
2140
2138
2138
2138
2138
2143
2143
2143
2141
2141
2141
2139
2139
2139
2138
2138
2138
2139
2139
2139
2139
2138
2138
2138
2141
2141
2141
2135
2135
2135
2140
2140
2140
2141
2141
2141
2141
2140
2140
2140
2140
2140
2140
2138
2138
2138
2139
2139
2139
2132
2132
2132
2132
2140
2140
2140
2139
2139
2139
2140
2140
2140
2151
2151
2151
2136
2136
2136
2136
2139
2139
2139
2138
2138
2138
2145
2145
2145
2140
2140
2140
2139
2139
2139
2139
2139
