2131
2131
2129
2129
2129
2133
2133
2133
2132
2132
2132
2134
2134
2134
2133
2133
2133
2133
2133
2133
2133
2132
2132
2132
2132
2132
2132
2130
2130
2130
2132
2132
2132
2132
2133
2133
2133
2134
2134
2134
2132
2132
2132
2133
2133
2133
2131
2131
2131
2131
2127
2127
2127
2132
2132
2132
2133
2133
2133
2135
2135
2135
2135
2135
2135
2135
2132
2132
2132
2135
2135
2135
2135
2135
2135
2135
2135
2135
2135
2135
2135
2135
2133
2133
2128
2128
2132
2132
2132
2135
2135
2135
2133
2133
2133
2134
2134
2134
2134
2134
2134
2134
2133
2133
2133
2133
2133
2133
2133
2133
2133
2132
2132
2132
2135
2135
2135
2135
2130
2130
2130
2135
2135
2135
2135
2135
2135
2135
2135
2135
2132
2132
2132
2132
2127
2127
2127
2135
2135
2135
2131
2131
2131
2132
2132
2132
2135
2135
2135
2135
2132
2132
2132
2137
2137
2137
2133
2133
2133
2136
2136
2136
2133
2133
2133
2133
2133
2133
2133
2132
2132
2132
2133
2133
2133
2135
2135
2135
2133
2133
2133
2133
2133
2133
2133
2135
2135
2135
2129
2129
2129
2135
2135
2135
2133
2133
2133
2133
2132
2132
2132
2133
2133
2133
2133
2133
2133
2137
2137
2137
2140
2140
2140
2140
2134
2134
2134
2132
2132
2132
2137
2137
2137
2137
2137
2137
2133
2133
2133
2133
2130
2130
2130
2135
2135
2135
2132
2132
2132
2129
2129
2129
2133
2133
2133
2133
2135
2135
2135
2140
2140
2140
2139
2139
2139
2136
2136
2136
2134
2134
2134
2134
2135
2135
2135
2133
2133
2133
2133
2133
2133
2137
2137
2137
2131
2131
2131
2131
2131
2131
2131
2135
2135
2135
2127
2127
2127
2133
2133
2133
2134
2134
2134
2134
2133
2133
2133
2134
2134
2134
2133
2133
2133
2136
2136
2136
2133
2133
2133
2133
2128
2128
2128
2138
2138
2138
2134
2134
2134
2131
2131
2131
2132
2132
2132
2132
2127
2127
2127
2134
2134
2134
2132
2132
2132
2136
2136
2136
2129
2129
2129
2129
2135
2135
2135
2138
2138
2138
2134
2134
2134
2129
2129
2129
2131
2131
2131
2131
2133
2133
2133
2136
2136
2136
2135
2135
2135
2133
2133
2133
2133
2133
2133
2133
2134
2134
2134
2134
2134
2134
2130
2130
2130
2135
2135
2135
2133
2133
2133
2133
2134
2134
2134
2134
2134
2134
2127
2127
2127
2136
2136
2136
2134
2134
2134
2134
2132
2132
2132
2130
2130
2130
2134
2134
2134
2132
2132
2132
2130
2130
2130
2130
2136
2136
2136
2132
2132
2132
2134
2134
2134
2132
2132
2132
2135
2135
2135
2135
2132
2132
2132
2126
2126
2126
2132
2132
2132
2134
2134
2134
2134
2134
2134
2134
2131
2131
2131
2141
2141
2141
2136
2136
2136
2136
2136
2136
2133
2133
2133
2133
2133
2133
2133
2131
2131
2131
2131
2131
2131
2133
2133
2133
2135
2135
2135
2135
2132
2132
2132
2133
2133
2133
2132
2132
2132
2134
2134
2134
2134
2134
2134
2134
2126
2126
2126
2140
2140
2140
2133
2133
2133
2134
2134
2134
2132
2132
2132
2132
2133
2133
2133
2135
2135
2135
2134
2134
2134
2139
2139
2139
2135
2135
2135
2135
2130
2130
2130
2134
2134
2134
2132
2132
2132
2132
2132
2132
2135
2135
2135
2135
2133
2133
2133
2135
2135
2135
2132
2132
2132
2136
2136
2136
2136
2136
2136
2136
2135
2135
2135
2131
2131
2131
2130
2130
2130
2134
2134
2134
2132
2132
2132
2132
2134
2134
2134
2133
2133
2133
2128
2128
2128
2136
2136
2136
2128
2128
2128
2128
2132
2132
2132
2135
2135
2135
2130
2130
2130
2135
2135
2135
2132
2132
2132
2132
2130
2130
2130
2132
2132
2132
2134
2134
2134
2135
2135
2135
2133
2133
2133
2133
2137
2137
2137
2132
2132
2132
2132
2132
2132
2134
2134
2134
2133
2133
2133
2133
2132
2132
2132
2138
2138
2138
2132
2132
2132
2132
2132
2132
2134
2134
2134
2134
2134
2134
2134
2133
2133
2133
2130
2130
2130
2133
2133
2133
2132
2132
2132
2132
2131
2131
2131
2132
2132
2132
2133
2133
2133
2134
2134
2134
2134
2134
2134
2134
2131
2131
2131
2135
2135
2135
2134
2134
2134
2136
2136
2136
2133
2133
2133
2133
2124
2124
2124
2134
2134
2134
2131
2131
2131
2134
2134
2134
2130
2130
2130
2130
2132
2132
2132
2137
2137
2137
2132
2132
2132
2135
2135
2135
2135
2135
2135
2135
2134
2134
2134
2134
2134
2134
2133
2133
2133
2134
2134
2134
2133
2133
2133
2133
2134
2134
2134
2133
2133
2133
2134
2134
2134
2135
2135
2135
2132
2132
2132
2132
2132
2132
2132
2134
2134
2134
2130
2130
2130
2127
2127
2127
2131
2131
2131
2131
2132
2132
2132
2133
2133
2133
2133
2133
2133
2138
2138
2138
2134
2134
2134
2134
2132
2132
2132
2134
2134
2134
2133
2133
2133
2134
2134
2134
2134
2134
2134
2134
2129
2129
2129
2136
2136
2136
2134
2134
2134
2133
2133
2133
2132
2132
2132
2132
2132
2132
2132
2132
2132
2132
2133
2133
2133
2134
2134
2134
2133
2133
2133
2133
2130
2130
2130
2133
2133
2133
2134
2134
2134
2133
2133
2133
2132
2132
2132
2132
2133
2133
2133
2134
2134
2134
2134
2134
2134
2129
2129
2129
2135
2135
2135
2135
2131
2131
2131
2133
2133
2133
2131
2131
2131
2135
2135
2135
2133
2133
2133
2133
2131
2131
2131
2129
2129
2129
2133
2133
2133
2129
2129
2129
2132
2132
2132
2132
2134
2134
2134
2137
2137
2137
2132
2132
2132
2134
2134
2134
2133
2133
2133
2133
2137
2137
2137
2133
2133
2133
2133
2133
2133
2130
2130
2130
2133
2133
2133
2133
2136
2136
2136
2134
2134
2134
2131
2131
2131
2134
2134
2134
2131
2131
2131
2131
2133
2133
2133
2133
2133
2133
2139
2139
2139
2132
2132
2132
2133
2133
2133
2133
2128
2128
2128
2134
2134
2134
2134
2134
2134
2139
2139
2139
2134
2134
2134
2134
2133
2133
