2045
2044
2044
2044
2043
2043
2043
2040
2040
2040
2048
2048
2048
2048
2048
2048
2048
2044
2044
2044
2051
2051
2051
2044
2044
2044
2047
2047
2047
2047
2044
2044
2044
2045
2045
2045
2048
2048
2048
2046
2046
2046
2045
2045
2045
2045
2044
2044
2044
2038
2038
2038
2049
2049
2049
2043
2043
2043
2048
2048
2048
2048
2049
2049
2049
2036
2036
2036
2055
2055
2055
2043
2043
2043
2047
2047
2047
2047
2043
2043
2043
2053
2053
2047
2037
2037
2037
2048
2048
2048
2046
2046
2046
2038
2038
2038
2038
2048
2048
2048
2043
2043
2043
2051
2051
2051
2044
2044
2044
2045
2045
2045
2045
2047
2047
2047
2044
2044
2044
2045
2045
2045
2049
2049
2049
2044
2044
2044
2044
2043
2043
2043
2037
2037
2037
2048
2048
2048
2045
2045
2045
2046
2046
2046
2046
2040
2040
2040
2048
2048
2048
2043
2043
2043
2041
2041
2041
2047
2047
2047
2047
2049
2049
2049
2052
2052
2052
2043
2043
2043
2043
2043
2043
2046
2046
2046
2046
2040
2040
2040
2045
2045
2045
2043
2043
2043
2043
2043
2043
2047
2047
2047
2047
2053
2053
2053
2036
2036
2036
2047
2047
2047
2045
2045
2045
2058
2058
2058
2058
2051
2051
2051
2048
2048
2048
2047
2047
2047
2042
2042
2042
2049
2049
2049
2049
2050
2050
2050
2046
2046
2046
2047
2047
2047
2045
2045
2045
2047
2047
2047
2047
2036
2036
2036
2038
2038
2038
2047
2047
2047
2044
2044
2044
2049
2049
2049
2049
2045
2045
2045
2039
2039
2039
2045
2045
2045
2042
2042
2042
2046
2046
2046
2046
2048
2048
2048
2054
2054
2054
2048
2048
2048
2044
2044
2044
2048
2048
2048
2048
2040
2040
2040
2040
2040
2040
2049
2049
2049
2045
2045
2045
2047
2047
2047
2047
2045
2045
2045
2043
2043
2043
2045
2045
2045
2044
2044
2044
2053
2053
2053
2053
2051
2051
2051
2047
2047
2047
2057
2057
2057
2041
2041
2041
2047
2047
2047
2047
2049
2049
2049
2045
2045
2045
2045
2045
2045
2034
2034
2034
2047
2047
2047
2047
2045
2045
2045
2044
2044
2044
2050
2050
2050
2041
2041
2041
2043
2043
2043
2043
2046
2046
2046
2043
2043
2043
2046
2046
2046
2044
2044
2044
2046
2046
2046
2046
2042
2042
2042
2042
2042
2042
2047
2047
2047
2043
2043
2043
2043
2043
2043
2043
2047
2047
2047
2045
2045
2045
2044
2044
2044
2043
2043
2043
2047
2047
2047
2047
2047
2047
2047
2047
2047
2047
2045
2045
2045
2045
2045
2045
2047
2047
2047
2047
2045
2045
2045
2044
2044
2044
2049
2049
2049
2044
2044
2044
2046
2046
2046
2046
2043
2043
2043
2044
2044
2044
2047
2047
2047
2052
2052
2052
2045
2045
2045
2045
2043
2043
2043
2044
2044
2044
2053
2053
2053
2042
2042
2042
2046
2046
2046
2046
2047
2047
2047
2044
2044
2044
2044
2044
2044
2045
2045
2045
2048
2048
2048
2048
2044
2044
2044
2042
2042
2042
2048
2048
2048
2045
2045
2045
2053
2053
2053
2053
2044
2044
2044
2044
2044
2044
2044
2044
2044
2045
2045
2045
2047
2047
2047
2047
2045
2045
2045
2041
2041
2041
2047
2047
2047
2042
2042
2042
2041
2041
2041
2041
2045
2045
2045
2043
2043
2043
2046
2046
2046
2044
2044
2044
2052
2052
2052
2052
2038
2038
2038
2043
2043
2043
2045
2045
2045
2043
2043
2043
2051
2051
2051
2051
2044
2044
2044
2042
2042
2042
2046
2046
2046
2042
2042
2042
2054
2054
2054
2054
2043
2043
2043
2044
2044
2044
2046
2046
2046
2044
2044
2044
2048
2048
2048
2048
2044
2044
2044
2043
2043
2043
2048
2048
2048
2046
2046
2046
2048
2048
2048
2048
2044
2044
2044
2044
2044
2044
2038
2038
2038
2041
2041
2041
2046
2046
2046
2046
2044
2044
2044
2042
2042
2042
2045
2045
2045
2048
2048
2048
2043
2043
2043
2043
2046
2046
2046
2044
2044
2044
2041
2041
2041
2042
2042
2042
2046
2046
2046
2046
2048
2048
2048
2042
2042
2042
2049
2049
2049
2041
2041
2041
2048
2048
2048
2048
2045
2045
2045
2039
2039
2039
2048
2048
2048
2045
2045
2045
2051
2051
2051
2051
2046
2046
2046
2044
2044
2044
2048
2048
2048
2039
2039
2039
2042
2042
2042
2042
2048
2048
2048
2046
2046
2046
2041
2041
2041
2044
2044
2044
2045
2045
2045
2045
2044
2044
2044
2041
2041
2041
2051
2051
2051
2048
2048
2048
2046
2046
2046
2046
2051
2051
2051
2043
2043
2043
2046
2046
2046
2037
2037
2037
2045
2045
2045
2045
2045
2045
2045
2041
2041
2041
2051
2051
2051
2044
2044
2044
2041
2041
2041
2041
2043
2043
2043
2043
2043
2043
2055
2055
2055
2044
2044
2044
2048
2048
2048
2048
2045
2045
2045
2046
2046
2046
2046
2046
2046
2043
2043
2043
2049
2049
2049
2049
2049
2049
2049
2047
2047
2047
2048
2048
2048
2044
2044
2044
2045
2045
2045
2045
2046
2046
2046
2038
2038
2038
2045
2045
2045
2043
2043
2043
2045
2045
2045
2045
2047
2047
2047
2047
2047
2047
2044
2044
2044
2045
2045
2045
2047
2047
2047
2047
2051
2051
2051
2044
2044
2044
2048
2048
2048
2044
2044
2044
2045
2045
2045
2045
2049
2049
2049
2043
2043
2043
2047
2047
2047
2044
2044
2044
2044
2044
2044
2044
2043
2043
2043
2045
2045
2045
2045
2045
2045
2033
2033
2033
2047
2047
2047
2047
2046
2046
2046
2040
2040
2040
2047
2047
2047
2043
2043
2043
2045
2045
2045
2045
2044
2044
2044
2047
2047
2047
2044
2044
2044
2043
2043
2043
2049
2049
2049
2049
2045
2045
2045
2042
2042
2042
2045
2045
2045
2044
2044
2044
2048
2048
2048
2048
2046
2046
2046
2044
2044
2044
2044
2044
2044
2044
2044
2044
2047
2047
2047
2047
2046
2046
2046
2043
2043
2043
2046
2046
2046
2044
2044
2044
2045
2045
2045
2045
2042
2042
2042
2036
2036
2036
2047
