2134
2134
2136
2136
2136
2133
2133
2133
2133
2133
2133
2135
2135
2135
2133
2133
2133
2133
2132
2132
2132
2136
2136
2136
2132
2132
2132
2135
2135
2135
2131
2131
2131
2131
2133
2133
2133
2134
2134
2134
2130
2130
2130
2132
2132
2132
2137
2137
2137
2137
2135
2135
2135
2135
2135
2135
2132
2132
2132
2134
2134
2134
2134
2134
2134
2134
2134
2134
2134
2133
2133
2133
2133
2133
2133
2130
2130
2130
2135
2135
2135
2135
2131
2133
2133
2133
2130
2130
2130
2132
2132
2132
2135
2135
2135
2132
2132
2132
2134
2134
2134
2134
2134
2134
2134
2133
2133
2133
2128
2128
2128
2134
2134
2134
2133
2133
2133
2133
2131
2131
2131
2134
2134
2134
2129
2129
2129
2133
2133
2133
2140
2140
2140
2140
2130
2130
2130
2134
2134
2134
2128
2128
2128
2133
2133
2133
2134
2134
2134
2134
2131
2131
2131
2130
2130
2130
2131
2131
2131
2134
2134
2134
2131
2131
2131
2131
2137
2137
2137
2132
2132
2132
2135
2135
2135
2134
2134
2134
2135
2135
2135
2135
2131
2131
2131
2132
2132
2132
2127
2127
2127
2137
2137
2137
2133
2133
2133
2133
2132
2132
2132
2133
2133
2133
2134
2134
2134
2133
2133
2133
2133
2133
2133
2133
2132
2132
2132
2132
2132
2132
2133
2133
2133
2131
2131
2131
2135
2135
2135
2135
2130
2130
2130
2134
2134
2134
2133
2133
2133
2130
2130
2130
2136
2136
2136
2136
2131
2131
2131
2136
2136
2136
2135
2135
2135
2132
2132
2132
2138
2138
2138
2138
2131
2131
2131
2133
2133
2133
2131
2131
2131
2135
2135
2135
2133
2133
2133
2133
2133
2133
2133
2130
2130
2130
2131
2131
2131
2133
2133
2133
2137
2137
2137
2137
2132
2132
2132
2121
2121
2121
2134
2134
2134
2130
2130
2130
2133
2133
2133
2133
2135
2135
2135
2133
2133
2133
2128
2128
2128
2134
2134
2134
2135
2135
2135
2135
2127
2127
2127
2122
2122
2122
2131
2131
2131
2138
2138
2138
2132
2132
2132
2132
2132
2132
2132
2135
2135
2135
2132
2132
2132
2136
2136
2136
2131
2131
2131
2131
2130
2130
2130
2132
2132
2132
2133
2133
2133
2133
2133
2133
2133
2133
2133
2133
2131
2131
2131
2133
2133
2133
2132
2132
2132
2127
2127
2127
2135
2135
2135
2135
2140
2140
2140
2134
2134
2134
2133
2133
2133
2131
2131
2131
2135
2135
2135
2135
2135
2135
2135
2133
2133
2133
2135
2135
2135
2134
2134
2134
2133
2133
2133
2133
2136
2136
2136
2134
2134
2134
2132
2132
2132
2130
2130
2130
2133
2133
2133
2133
2129
2129
2129
2133
2133
2133
2132
2132
2132
2134
2134
2134
2131
2131
2131
2131
2133
2133
2133
2137
2137
2137
2131
2131
2131
2133
2133
2133
2130
2130
2130
2130
2130
2130
2130
2130
2130
2130
2131
2131
2131
2133
2133
2133
2131
2131
2131
2131
2132
2132
2132
2131
2131
2131
2135
2135
2135
2134
2134
2134
2133
2133
2133
2133
2133
2133
2133
2131
2131
2131
2132
2132
2132
2133
2133
2133
2133
2133
2133
2133
2133
2133
2133
2133
2133
2133
2131
2131
2131
2135
2135
2135
2134
2134
2134
2134
2132
2132
2132
2132
2132
2132
2133
2133
2133
2134
2134
2134
2132
2132
2132
2132
2139
2139
2139
2132
2132
2132
2135
2135
2135
2132
2132
2132
2130
2130
2130
2130
2131
2131
2131
2127
2127
2127
2131
2131
2131
2132
2132
2132
2130
2130
2130
2130
2129
2129
2129
2133
2133
2133
2139
2139
2139
2133
2133
2133
2132
2132
2132
2132
2131
2131
2131
2132
2132
2132
2130
2130
2130
2129
2129
2129
2134
2134
2134
2134
2132
2132
2132
2136
2136
2136
2133
2133
2133
2134
2134
2134
2130
2130
2130
2130
2133
2133
2133
2131
2131
2131
2132
2132
2132
2133
2133
2133
2131
2131
2131
2131
2132
2132
2132
2117
2117
2117
2133
2133
2133
2133
2133
2133
2136
2136
2136
2136
2135
2135
2135
2131
2131
2131
2135
2135
2135
2129
2129
2129
2136
2136
2136
2136
2132
2132
2132
2130
2130
2130
2129
2129
2129
2134
2134
2134
2133
2133
2133
2133
2133
2133
2133
2135
2135
2135
2132
2132
2132
2133
2133
2133
2133
2133
2133
2133
2134
2134
2134
2134
2134
2134
2133
2133
2133
2132
2132
2132
2127
2127
2127
2127
2133
2133
2133
2123
2123
2123
2133
2133
2133
2130
2130
2130
2130
2130
2130
2130
2132
2132
2132
2134
2134
2134
2134
2134
2134
2133
2133
2133
2138
2138
2138
2138
2134
2134
2134
2129
2129
2129
2133
2133
2133
2129
2129
2129
2134
2134
2134
2134
2133
2133
2133
2131
2131
2131
2133
2133
2133
2129
2129
2129
2140
2140
2140
2140
2129
2129
2129
2130
2130
2130
2131
2131
2131
2132
2132
2132
2132
2132
2132
2132
2131
2131
2131
2135
2135
2135
2129
2129
2129
2133
2133
2133
2131
2131
2131
2131
2130
2130
2130
2132
2132
2132
2127
2127
2127
2133
2133
2133
2131
2131
2131
2131
2132
2132
2132
2133
2133
2133
2132
2132
2132
2134
2134
2134
2133
2133
2133
2133
2129
2129
2129
2132
2132
2132
2135
2135
2135
2133
2133
2133
2129
2129
2129
2129
2135
2135
2135
2136
2136
2136
2133
2133
2133
2141
2141
2141
2130
2130
2130
2130
2128
2128
2128
2132
2132
2132
2130
2130
2130
2138
2138
2138
2129
2129
2129
2129
2133
2133
2133
2131
2131
2131
2134
2134
2134
2131
2131
2131
2133
2133
2133
2133
2133
2133
2133
2133
2133
2133
2133
2133
2133
2130
2130
2130
2133
2133
2133
2133
2132
2132
2132
2132
2132
2132
2132
2132
2132
2133
2133
2133
2133
2133
2133
2133
2133
2133
2133
2135
2135
2135
2131
2131
2131
2130
2130
2130
2130
2130
2130
2130
2130
2130
2130
2130
2130
2130
2122
2122
2122
2132
2132
2132
2130
2130
2130
2130
2131
2131
2131
2131
2131
2131
2131
2131
2131
2131
2131
2131
2133
2133
2133
2133
2130
2130
