1923
1915
1915
1915
1925
1925
1925
1925
1921
1921
1921
1918
1918
1918
1923
1923
1923
1917
1917
1917
1924
1924
1924
1924
1917
1917
1917
1914
1914
1914
1923
1923
1923
1919
1919
1919
1922
1922
1922
1922
1922
1922
1922
1919
1919
1919
1923
1923
1923
1919
1919
1919
1924
1924
1924
1924
1921
1921
1921
1920
1920
1920
1921
1921
1921
1918
1918
1918
1924
1924
1924
1924
1926
1926
1926
1918
1918
1918
1923
1923
1923
1918
1918
1918
1928
1928
1928
1928
1921
1921
1921
1919
1919
1919
1922
1922
1922
1918
1918
1918
1924
1924
1924
1924
1921
1921
1921
1920
1920
1920
1922
1922
1922
1920
1920
1920
1925
1925
1925
1925
1924
1924
1924
1917
1917
1917
1923
1923
1923
1917
1917
1917
1921
1921
1921
1921
1923
1923
1923
1921
1921
1921
1923
1923
1923
1917
1917
1917
1923
1923
1923
1923
1925
1925
1925
1919
1919
1919
1921
1921
1921
1919
1919
1919
1925
1925
1925
1925
1921
1921
1921
1918
1918
1918
1923
1923
1923
1917
1917
1917
1923
1923
1923
1923
1918
1918
1918
1920
1920
1920
1923
1923
1923
1916
1916
1916
1925
1925
1925
1925
1922
1922
1922
1917
1917
1917
1924
1924
1924
1921
1921
1921
1924
1924
1924
1924
1922
1922
1922
1918
1918
1918
1922
1922
1922
1918
1918
1918
1924
1924
1924
1924
1924
1924
1924
1916
1916
1916
1924
1924
1924
1918
1918
1918
1922
1922
1922
1922
1922
1922
1922
1918
1918
1918
1924
1924
1924
1921
1921
1921
1923
1923
1923
1923
1923
1923
1923
1916
1916
1916
1925
1925
1925
1915
1915
1915
1923
1923
1923
1923
1921
1921
1921
1919
1919
1919
1920
1920
1920
1916
1916
1916
1927
1927
1927
1927
1922
1922
1922
1919
1919
1919
1925
1925
1925
1917
1917
1917
1922
1922
1922
1922
1921
1921
1921
1920
1920
1920
1923
1923
1923
1917
1917
1917
1928
1928
1928
1928
1923
1923
1923
1918
1918
1918
1924
1924
1924
1918
1918
1918
1924
1924
1924
1924
1921
1921
1921
1918
1918
1918
1923
1923
1923
1919
1919
1919
1924
1924
1924
1924
1922
1922
1922
1919
1919
1919
1922
1922
1922
1919
1919
1919
1923
1923
1923
1923
1925
1925
1925
1921
1921
1921
1925
1925
1925
1917
1917
1917
1923
1923
1923
1923
1919
1919
1919
1918
1918
1918
1924
1924
1924
1919
1919
1919
1924
1924
1924
1924
1923
1923
1923
1917
1917
1917
1923
1923
1923
1917
1917
1917
1920
1920
1920
1920
1929
1929
1929
1916
1916
1916
1924
1924
1924
1916
1916
1916
1922
1922
1922
1922
1923
1923
1923
1919
1919
1919
1925
1925
1925
1918
1918
1918
1924
1924
1924
1924
1922
1922
1922
1917
1917
1917
1922
1922
1922
1917
1917
1917
1922
1922
1922
1922
1921
1921
1921
1918
1918
1918
1922
1922
1922
1919
1919
1919
1922
1922
1922
1922
1920
1920
1920
1917
1917
1917
1923
1923
1923
1916
1916
1916
1923
1923
1923
1923
1924
1924
1924
1918
1918
1918
1930
1930
1930
1920
1920
1920
1924
1924
1924
1924
1920
1920
1920
1920
1920
1920
1924
1924
1924
1926
1926
1926
1922
1922
1922
1922
1923
1923
1923
1918
1918
1918
1922
1922
1922
1918
1918
1918
1922
1922
1922
1922
1924
1924
1924
1923
1923
1923
1923
1923
1923
1919
1919
1919
1925
1925
1925
1925
1925
1925
1925
1917
1917
1917
1922
1922
1922
1917
1917
1917
1924
1924
1924
1924
1921
1921
1921
1918
1918
1918
1925
1925
1925
1919
1919
1919
1922
1922
1922
1922
1925
1925
1925
1919
1919
1919
1921
1921
1921
1915
1915
1915
1923
1923
1923
1923
1926
1926
1926
1920
1920
1920
1924
1924
1924
1919
1919
1919
1921
1921
1921
1921
1920
1920
1920
1919
1919
1919
1924
1924
1924
1917
1917
1917
1921
1921
1921
1921
1922
1922
1922
1916
1916
1916
1923
1923
1923
1919
1919
1919
1921
1921
1921
1921
1924
1924
1924
1918
1918
1918
1925
1925
1925
1918
1918
1918
1923
1923
1923
1923
1921
1921
1921
1920
1920
1920
1923
1923
1923
1919
1919
1919
1926
1926
1926
1926
1922
1922
1922
1920
1920
1920
1924
1924
1924
1916
1916
1916
1922
1922
1922
1922
1923
1923
1923
1915
1915
1915
1921
1921
1921
1919
1919
1919
1923
1923
1923
1923
1917
1917
1917
1921
1921
1921
1923
1923
1923
1919
1919
1919
1925
1925
1925
1925
1915
1915
1915
1923
1923
1923
1920
1920
1920
1918
1918
1918
1924
1924
1924
1924
1930
1930
1930
1915
1915
1915
1926
1926
1926
1918
1918
1918
1922
1922
1922
1922
1921
1921
1921
1920
1920
1920
1923
1923
1923
1914
1914
1914
1923
1923
1923
1923
1926
1926
1926
1919
1919
1919
1923
1923
1923
1918
1918
1918
1923
1923
1923
1923
1920
1920
1920
1922
1922
1922
1925
1925
1925
1923
1923
1923
1921
1921
1921
1921
1922
1922
1922
1918
1918
1918
1921
1921
1921
1919
1919
1919
1929
1929
1929
1929
1922
1922
1922
1917
1917
1917
1928
1928
1928
1919
1919
1919
1924
1924
1924
1924
1922
1922
1922
1917
1917
1917
1924
1924
1924
1918
1918
1918
1922
1922
1922
1922
1925
1925
1925
1919
1919
1919
1924
1924
1924
1920
1920
1920
1924
1924
1924
1924
1924
1924
1924
1917
1917
1917
1925
1925
1925
1920
1920
1920
1924
1924
1924
1924
1923
1923
1923
1919
1919
1919
1922
1922
1922
1920
1920
1920
1923
1923
1923
1923
1921
1921
1921
1916
1916
1916
1919
1919
1919
1920
1920
1920
1922
1922
1922
1922
1922
1922
1922
1917
1917
1917
1927
1927
1927
1915
1915
1915
1921
1921
1921
1921
1927
1927
1927
1918
1918
1918
1925
1925
1925
1918
1918
1918
1925
1925
1925
1925
1923
1923
1923
1917
1917
1917
1925
1925
1925
1919
1919
1919
1923
1923
1923
1923
1923
1923
1923
1918
1918
1918
1921
1921
1921
1915
1915
1915
1926
1926
1926
1926
1921
1921
1921
1920
1920
1920
1922
1922
1922
1919
1919
1919
1925
1925
1925
1925
1923
1923
1923
1917
1917
1917
1920
1920
1920
1918
1918
1918
1924
1924
1924
1924
1923
1923
1923
1918
1918
1918
1920
1920
1920
1921
1921
1921
1927
1927
1927
1927
1923
1923
1923
1919
1919
1919
1921
1921
1921
1917
1917
1917
1924
1924
1924
1924
1923
1923
1923
1919
1919
1919
1928
1928
1928
1919
1919
1919
1920
1920
1920
1920
1923
1923
1923
1919
1919
1919
1922
1922
1922
1919
1919
1919
1925
1925
1925
1925
1921
1921
1921
1919
1919
1919
1925
1925
1925
1918
1918
1918
1919
1919
1919
1919
1925
1925
1925
1917
1917
1917
1922
1922
1922
1919
1919
1919
1923
1923
1923
1923
1922
1922
1922
1917
1917
1917
1924
1924
1924
1918
1918
1918
1918
1918
1918
1918
1923
1923
1923
1916
1916
1916
1922
1922
1922
1917
1917
1917
1928
1928
1928
1928
1921
1921
1921
1919
1919
1919
1926
1926
1926
1917
1917
1917
1923
1923
1923
1923
1922
1922
1922
1919
1919
1919
1922
1922
1922
1918
1918
1918
1924
1924
1924
1924
1919
1919
1919
1920
1920
1920
1923
1923
1923
1919
1919
1919
1921
1921
1921
1921
1925
1925
1925
1916
1916
1916
1925
1925
1925
1919
1919
1919
1922
1922
1922
1922
1924
1924
1924
1919
1919
1919
1921
1921
1921
1921
1921
1921
1923
1923
1923
1923
1923
1923
1923
1920
1920
1920
1923
1923
1923
1920
1920
1920
1921
1921
1921
1921
1917
1917
1917
1917
1917
1917
1925
1925
1925
1917
1917
1917
1924
1924
1924
1924
1925
1925
1925
1918
1918
1918
1922
1922
1922
1920
1920
1920
1924
1924
1924
1924
1924
1924
1924
1919
1919
1919
1922
1922
1922
1916
1916
1916
1922
1922
1922
1922
1930
1930
1930
1918
1918
1918
1923
1923
1923
1920
1920
1920
1923
1923
1923
1923
1925
1925
1925
1916
1916
1916
1922
1922
1922
1921
1921
1921
1922
1922
1922
1922
1919
1919
1919
1919
1919
1919
1919
1919
1919
1918
1918
1918
1922
1922
1922
1922
1923
1923
1923
1916
1916
1916
1921
1921
1921
1918
1918
1918
1923
1923
1923
1923
1924
1924
1924
1919
1919
1919
1922
1922
1922
1919
1919
1919
1925
1925
1925
1925
1926
1926
1926
1918
1918
1918
1923
1923
1923
1917
1917
1917
1926
1926
1926
1926
1921
1921
1921
1920
1920
1920
1922
1922
1922
1919
1919
1919
1923
1923
1923
1923
1921
1921
1921
1920
1920
1920
1923
1923
1923
1918
1918
1918
1927
1927
1927
1927
1922
1922
1922
1920
1920
1920
1922
1922
1922
1919
1919
1919
1925
1925
1925
1925
1922
1922
1922
1917
1917
1917
1924
1924
1924
1918
1918
1918
1922
1922
1922
1922
1922
1922
1922
1917
1917
1917
1922
1922
1922
1914
1914
1914
1923
1923
1923
1923
1923
1923
1923
1918
1918
1918
1921
1921
1921
1918
1918
1918
1923
1923
1923
1923
1918
1918
1918
1916
1916
1916
1920
1920
1920
1921
1921
1921
1924
1924
1924
1924
1922
1922
1922
1919
1919
1919
1922
1922
1922
1918
1918
1918
1926
1926
1926
1926
1926
1926
1926
1917
1917
1917
1922
1922
1922
1921
1921
1921
1923
1923
1923
1923
1923
1923
1923
1918
1918
1918
1921
1921
1921
1916
1916
1916
1923
1923
1923
1923
1922
1922
1922
1919
1919
1919
1923
1923
1923
1918
1918
1918
1921
1921
1921
1921
1921
1921
1921
1918
1918
1918
1928
1928
1928
1921
1921
1921
1925
1925
1925
1925
1922
1922
1922
1915
1915
1915
1923
1923
1923
1926
1926
1926
1918
1918
1918
1918
1922
1922
1922
1919
1919
1919
1924
1924
1924
1918
1918
1918
1923
1923
1923
1923
1922
1922
1922
1920
1920
1920
1923
1923
1923
1919
1919
1919
1923
1923
1923
1923
1922
1922
1922
1918
1918
1918
1924
1924
1924
1919
1919
1919
1926
1926
1926
1926
1924
1924
1924
1917
1917
1917
1921
1921
1921
1923
1923
1923
1923
1923
1923
1923
1923
1923
1923
1918
1918
1918
1924
1924
1924
1918
1918
1918
1923
1923
1923
1923
1922
1922
1922
1917
1917
1917
1922
1922
1922
1922
1922
1922
1923
1923
1923
1923
1925
1925
1925
1917
1917
1917
1922
1922
1922
1919
1919
1919
1923
1923
1923
1923
1922
1922
1922
1920
1920
1920
1925
1925
1925
1919
1919
1919
1922
1922
1922
1922
1927
1927
1927
1919
1919
1919
1923
1923
1923
1919
1919
1919
1921
1921
1921
1921
1915
1915
1915
1923
1923
1923
1922
1922
1922
1921
1921
1921
1922
1922
1922
1922
1919
1919
1919
1921
1921
1921
1921
1921
1921
1918
1918
1918
1923
1923
1923
1923
1923
1923
1923
1918
1918
1918
1920
1920
1920
1918
1918
1918
1922
1922
1922
1922
1918
1918
1918
1920
1920
1920
1922
1922
1922
1917
1917
1917
1925
1925
1925
1925
1922
1922
1922
1920
1920
1920
1917
1917
1917
1917
1917
1917
1924
1924
1924
1924
1925
1925
1925
1917
1917
1917
1922
1922
1922
1920
1920
1920
1924
1924
1924
1924
1922
1922
1922
1921
1921
1921
1926
1926
1926
1916
1916
1916
1923
1923
1923
1923
1924
1924
1924
1916
1916
1916
1924
1924
1924
1919
1919
1919
1921
1921
1921
1921
1921
1921
1921
1914
1914
1914
1924
1924
1924
1919
1919
1919
1922
1922
1922
1922
1923
1923
1923
1920
1920
1920
1919
1919
1919
1917
1917
1917
1924
1924
1924
1924
1923
1923
1923
1919
1919
1919
1923
1923
1923
1920
1920
1920
1921
1921
1921
1921
1923
1923
1923
1917
1917
1917
1921
1921
1921
1920
1920
1920
1919
1919
1919
1919
1923
1923
1923
1920
1920
1920
1925
1925
1925
1918
1918
1918
1920
1920
1920
1920
1924
1924
1924
1918
1918
1918
1922
1922
1922
1922
1922
1922
1924
1924
1924
1924
1922
1922
1922
1916
1916
1916
1922
1922
1922
1920
1920
1920
1924
1924
1924
1924
1924
1924
1924
1920
1920
1920
1922
1922
1922
1918
1918
1918
1924
1924
1924
1924
1922
1922
1922
1919
1919
1919
1923
1923
1923
1917
1917
1917
1922
1922
1922
1922
1917
1917
1917
1918
1918
1918
1924
1924
1924
1919
1919
1919
1923
1923
1923
1923
1923
1923
1923
1916
1916
1916
1922
1922
1922
1916
1916
1916
1923
1923
1923
1923
1922
1922
1922
1914
1914
1914
1922
1922
1922
1918
1918
1918
1924
1924
1924
1924
1923
1923
1923
1915
1915
1915
1922
1922
1922
1919
1919
1919
1923
1923
1923
1923
1920
1920
1920
1915
1915
1915
1920
1920
1920
1918
1918
1918
1923
1923
1923
1923
1924
1924
1924
1917
1917
1917
1919
1919
1919
1917
1917
1917
1925
1925
1925
1925
1924
1924
1924
1920
1920
1920
1921
1921
1921
1919
1919
1919
1923
1923
1923
1923
1923
1923
1923
1919
1919
1919
1922
1922
1922
1916
1916
1916
1922
1922
1922
1922
1922
1922
1922
1919
1919
1919
1918
1918
1918
1918
1918
1918
1921
1921
1921
1921
1924
1924
1924
1921
1921
1921
1923
1923
1923
1919
1919
1919
1924
1924
1924
1924
1922
1922
1922
1919
1919
1919
1925
1925
1925
1922
1922
1922
1922
1922
1922
1922
1921
1921
1921
1921
1921
1921
1923
1923
1923
1918
1918
1918
1924
1924
1924
1924
1923
1923
1923
1918
1918
1918
1927
1927
1927
1919
1919
1919
1922
1922
1922
1922
1921
1921
1921
1918
1918
1918
1924
1924
1924
1921
1921
1921
1922
1922
1922
1922
1923
1923
1923
1917
1917
1917
1923
1923
1923
1917
1917
1917
1923
1923
1923
1923
1922
1922
1922
1922
1922
1922
1924
1924
1924
1921
1921
1921
1924
1924
1924
1924
1925
1925
1925
1920
1920
1920
1925
1925
1925
1917
1917
1917
1921
1921
1921
1921
1922
1922
1922
1918
1918
1918
1923
1923
1923
1921
1921
1921
1923
1923
1923
1923
1925
1925
1925
1919
1919
1919
1920
1920
1920
1918
1918
1918
1922
1922
1922
1922
1921
1921
1921
1919
1919
1919
1924
1924
1924
1916
1916
1916
1923
1923
1923
1923
1923
1923
1923
1920
1920
1920
1921
1921
1921
1918
1918
1918
1923
1923
1923
1923
1924
1924
1924
1921
1921
1921
1923
1923
1923
1916
1916
1916
1925
1925
1925
1925
1924
1924
1924
1919
1919
1919
1925
1925
1925
1919
1919
1919
1919
1919
1919
1919
1924
1924
1924
1918
1918
1918
1920
1920
1920
1914
1914
1914
1924
1924
1924
1924
1922
1922
1922
1916
1916
1916
1917
1917
1917
1913
1913
1913
1923
1923
1923
1923
1924
1924
1924
1914
1914
1914
1921
1921
1921
1919
1919
1919
1924
1924
1924
1924
1922
1922
1922
1918
1918
1918
1924
1924
1924
1919
1919
1919
1927
1927
1927
1927
1923
1923
1923
1917
1917
1917
1924
1924
1924
1921
1921
1921
1919
1919
1919
1919
1922
1922
1922
1919
1919
1919
1920
1920
1920
1919
1919
1919
1925
1925
1925
1925
1922
1922
1922
1919
1919
1919
1923
1923
1923
1916
1916
1916
1923
1923
1923
1923
1924
1924
1924
1918
1918
1918
1924
1924
1924
1916
1916
1916
1922
1922
1922
1922
1921
1921
1921
1917
1917
1917
1924
1924
1924
1916
1916
1916
1924
1924
1924
1924
1926
1926
1926
1916
1916
1916
1921
1921
1921
1919
1919
1919
1923
1923
1923
1923
1925
1925
1925
1920
1920
1920
1925
1925
1925
1921
1921
1921
1923
1923
1923
1923
1925
1925
1925
1921
1921
1921
1922
1922
1922
1918
1918
1918
1925
1925
1925
1925
1920
1920
1920
1911
1911
1911
1923
1923
1923
1917
1917
1917
1924
1924
1924
1924
1926
1926
1926
1919
1919
1919
1920
1920
1920
1917
1917
1917
1923
1923
1923
1923
1922
1922
1922
1912
1912
1912
1920
1920
1920
1920
1920
1920
1923
1923
1923
1923
1926
1926
1926
1920
1920
1920
1922
1922
1922
1919
1919
1919
1924
1924
1924
1924
1922
1922
1922
1920
1920
1920
1921
1921
1921
1921
1921
1921
1923
1923
1923
1923
1923
1923
1923
1919
1919
1919
1923
1923
1923
1913
1913
1913
1921
1921
1921
1921
1924
1924
1924
1916
1916
1916
1923
1923
1923
1923
1923
1923
1926
1926
1926
1926
1920
1920
1920
1919
1919
1919
1923
1923
1923
1919
1919
1919
1923
1923
1923
1923
1923
1923
1923
1919
1919
1919
1923
1923
1923
1917
1917
1917
1920
1920
1920
1920
1923
1923
1923
1917
1917
1917
1920
1920
1920
1920
1920
1920
1929
1929
1929
1929
1921
1921
1921
1917
1917
1917
1924
1924
1924
1919
1919
1919
1921
1921
1921
1921
1922
1922
1922
1918
1918
1918
1921
1921
1921
1920
1920
1920
1924
1924
1924
1924
1923
1923
1923
1917
1917
1917
1924
1924
1924
1920
1920
1920
1924
1924
1924
1924
1922
1922
1922
1918
1918
1918
1921
1921
1921
1918
1918
1918
1921
1921
1921
1921
1922
1922
1922
1917
1917
1917
1924
1924
1924
1917
1917
1917
1923
1923
1923
1923
1916
1916
1916
1924
1924
1924
1923
1923
1923
1918
1918
1918
1921
1921
1921
1921
1923
1923
1923
1914
1914
1914
1922
1922
1922
1915
1915
1915
1923
1923
1923
1923
1923
1923
1923
1920
1920
1920
1924
1924
1924
1916
1916
1916
1925
1925
1925
1925
1922
1922
1922
1919
1919
1919
1927
1927
1927
1916
1916
1916
1922
1922
1922
1922
1922
1922
1922
1914
1914
1914
1921
1921
1921
1918
1918
1918
1921
1921
1921
1921
1921
1921
1921
1920
1920
1920
1922
1922
1922
1916
1916
1916
1927
1927
1927
1927
1921
1921
1921
1915
1915
1915
1923
1923
1923
1915
1915
1915
1915
1915
1915
1915
1923
1923
1923
1918
1918
1918
1922
1922
1922
1920
1920
1920
1927
1927
1927
1927
1922
1922
1922
1922
1922
1922
1921
1921
1921
1919
1919
1919
1922
1922
1922
1922
1925
1925
1925
1919
1919
1919
1920
1920
1920
1920
1920
1920
1923
1923
1923
1923
1920
1920
1920
1921
1921
1921
1924
1924
1924
1919
1919
1919
1924
1924
1924
1924
1930
1930
1930
1918
1918
1918
1923
1923
1923
1919
1919
1919
1922
1922
1922
1922
1920
1920
1920
1917
1917
1917
1924
1924
1924
1917
1917
1917
1920
1920
1920
1920
1923
1923
1923
1919
1919
1919
1922
1922
1922
1916
1916
1916
1925
1925
1925
1925
1922
1922
1922
1911
1911
1911
1922
1922
1922
1916
1916
1916
1921
1921
1921
1921
1923
1923
1923
1918
1918
1918
1920
1920
1920
1913
1913
1913
1924
1924
1924
1924
1919
1919
1919
1919
1919
1919
1924
1924
1924
1919
1919
1919
1923
1923
1923
1923
1923
1923
1923
1919
1919
1919
1923
1923
1923
1923
1923
1923
1919
1919
1919
1919
1923
1923
1923
1917
1917
1917
1923
1923
1923
1911
1911
1911
1915
1915
1915
1915
1923
1923
1923
1917
1917
1917
1921
1921
1921
1916
1916
1916
1924
1924
1924
1924
1925
1925
1925
1919
1919
1919
1922
1922
1922
1918
1918
1918
1923
1923
1923
1923
1923
1923
1923
1918
1918
1918
1923
1923
1923
1918
1918
1918
1924
1924
1924
1924
1921
1921
1921
1919
1919
1919
1922
1922
1922
1919
1919
1919
1923
1923
1923
1923
1921
1921
1921
1928
1928
1928
1925
1925
1925
1919
1919
1919
1922
1922
1922
1922
1923
1923
1923
1916
1916
1916
1921
1921
1921
1922
1922
1922
1922
1922
1922
1922
1923
1923
1923
1920
1920
1920
1924
1924
1924
1920
1920
1920
1923
1923
1923
1923
1915
1915
1915
1913
1913
1913
1916
1916
1916
1921
1921
1921
1923
1923
1923
1923
1924
1924
1924
1918
1918
1918
1921
1921
1921
1916
1916
1916
1922
1922
1922
1922
1922
1922
1922
1918
1918
1918
1921
1921
1921
1917
1917
1917
1923
1923
1923
1923
1923
1923
1923
1918
1918
1918
1924
1924
1924
1918
1918
1918
1924
1924
1924
1924
1922
1922
1922
1914
1914
1914
1927
1927
1927
1916
1916
1916
1923
1923
1923
1923
1923
1923
1923
1920
1920
1920
1926
1926
1926
1919
1919
1919
1921
1921
1921
1921
1923
1923
1923
1921
1921
1921
1922
1922
1922
1918
1918
1918
1926
1926
1926
1926
1922
1922
1922
1919
1919
1919
1924
1924
1924
1919
1919
1919
1910
1910
1910
1910
1924
1924
1924
1917
1917
1917
1924
1924
1924
1918
1918
1918
1926
1926
1926
1926
1922
1922
1922
1920
1920
1920
1924
1924
1924
1918
1918
1918
1922
1922
1922
1922
1921
1921
1921
1917
1917
1917
1922
1922
1922
1914
1914
1914
1923
1923
1923
1923
1922
1922
1922
1917
1917
1917
1925
1925
1925
1919
1919
1919
1926
1926
1926
1926
1921
1921
1921
1917
1917
1917
1923
1923
1923
1917
1917
1917
1923
1923
1923
1923
1925
1925
1925
1918
1918
1918
1925
1925
1925
1918
1918
1918
1924
1924
1924
1924
1922
1922
1922
1922
1922
1922
1925
1925
1925
1919
1919
1919
1922
1922
1922
1922
1924
1924
1924
1921
1921
1921
1921
1921
1921
1920
1920
1920
1922
1922
1922
1922
1922
1922
1922
1918
1918
1918
1918
1918
1918
1920
1920
1920
1922
1922
1922
1922
1924
1924
1924
1917
1917
1917
1925
1925
1925
1917
1917
1917
1926
1926
1926
1926
1923
1923
1923
1919
1919
1919
1922
1922
1922
1919
1919
1919
1923
1923
1923
1923
1925
1925
1925
1915
1915
1915
1921
1921
1921
1913
1913
1913
1924
1924
1924
1924
1923
1923
1923
1919
1919
1919
1923
1923
1923
1919
1919
1919
1928
1928
1928
1928
1923
1923
1923
1918
1918
1918
1924
1924
1924
1914
1914
1914
1922
1922
1922
1922
1923
1923
1923
1917
1917
1917
1924
1924
1924
1918
1918
1918
1922
1922
1922
1922
1923
1923
1923
1920
1920
1920
1922
1922
1922
1916
1916
1916
1926
1926
1926
1926
1923
1923
1923
1917
1917
1917
1922
1922
1922
1918
1918
1918
1925
1925
1925
1925
1922
1922
1922
1918
1918
1918
1924
1924
1924
1919
1919
1919
1923
1923
1923
1923
1930
1930
1930
1922
1922
1922
1920
1920
1920
1918
1918
1918
1921
1921
1921
1921
1925
1925
1925
1916
1916
1916
1923
1923
1923
1917
1917
1917
1924
1924
1924
1924
1917
1917
1917
1921
1921
1921
1921
1921
1921
1918
1918
1918
1925
1925
1925
1925
1922
1922
1922
1921
1921
1921
1924
1924
1924
1916
1916
1916
1923
1923
1923
1923
1922
1922
1922
1918
1918
1918
1915
1915
1915
1916
1916
1916
1923
1923
1923
1923
1922
1922
1922
1920
1920
1920
1924
1924
1924
1918
1918
1918
1921
1921
1921
1921
1922
1922
1922
1918
1918
1918
1921
1921
1921
1919
1919
1919
1928
1928
1928
1928
1923
1923
1923
1921
1921
1921
1923
1923
1923
1918
1918
1918
1924
1924
1924
1924
1927
1927
1927
1918
1918
1918
1926
1926
1926
1917
1917
1917
1923
1923
1923
1923
1920
1920
1920
1920
1920
1920
1922
1922
1922
1917
1917
1917
1923
1923
1923
1923
1923
1923
1923
1919
1919
1919
1922
1922
1922
1920
1920
1920
1926
1926
1926
1926
1917
1917
1917
1917
1917
1917
1924
1924
1924
1917
1917
1917
1924
1924
1924
1924
1921
1921
1921
1919
1919
1919
1925
1925
1925
1918
1918
1918
1924
1924
1924
1924
1920
1920
1920
1919
1919
1919
1926
1926
1926
1919
1919
1919
1923
1923
1923
1923
1923
1923
1923
1913
1913
1913
1920
1920
1920
1919
1919
1919
1923
1923
1923
1923
1921
1921
1921
1921
1921
1921
1917
1917
1917
1918
1918
1918
1922
1922
1922
1922
1923
1923
1923
1917
1917
1917
1921
1921
1921
1919
1919
1919
1921
1921
1921
1921
1924
1924
1924
1917
1917
1917
1921
1921
1921
1915
1915
1915
1921
1921
1921
1921
1924
1924
1924
1917
1917
1917
1924
1924
1924
1917
1917
1917
1923
1923
1923
1923
1926
1926
1926
1919
1919
1919
1925
1925
1925
1917
1917
1917
1924
1924
1924
1924
1922
1922
1922
1917
1917
1917
1923
1923
1923
1917
1917
1917
1919
1919
1919
1919
1922
1922
1922
1919
1919
1919
1921
1921
1921
1918
1918
1918
1927
1927
1927
1927
1921
1921
1921
1918
1918
1918
1922
1922
1922
1917
1917
1917
1923
1923
1923
1923
1919
1919
1919
1919
1919
1919
1921
1921
1921
1918
1918
1918
1925
1925
1925
1925
1924
1924
1924
1923
1923
1923
1923
1923
1923
1923
1923
1923
1923
1923
1923
1923
1923
1923
1923
1919
1919
1919
1922
1922
1922
1916
1916
1916
1924
1924
1924
1924
1924
1924
1924
1920
1920
1920
1922
1922
1922
1921
1921
1921
1922
1922
1922
1922
1920
1920
1920
1918
1918
1918
1923
1923
1923
1920
1920
1920
1925
1925
1925
1925
1923
1923
1923
1919
1919
1919
1923
1923
1923
1919
1919
1919
1921
1921
1921
1921
1922
1922
1922
1917
1917
1917
1924
1924
1924
1922
1922
1922
1926
1926
1926
1926
1922
1922
1922
1919
1919
1919
1921
1921
1921
1916
1916
1916
1926
1926
1926
1926
1921
1921
1921
1919
1919
1919
1924
1924
1924
1917
1917
1917
1917
1917
1917
1917
1929
1929
1929
1918
1918
1918
1923
1923
1923
1917
1917
1917
1925
1925
1925
1925
1922
1922
1922
1918
1918
1918
1925
1925
1925
1920
1920
1920
1927
1927
1927
1927
1922
1922
1922
1918
1918
1918
1921
1921
1921
1918
1918
1918
1923
1923
1923
1923
1922
1922
1922
1918
1918
1918
1922
1922
1922
1917
1917
1917
1927
1927
1927
1927
1925
1925
1925
1920
1920
1920
1924
1924
1924
1918
1918
1918
1925
1925
1925
1925
1923
1923
1923
1915
1915
1915
1924
1924
1924
1919
1919
1919
1923
1923
1923
1923
1923
1923
1923
1921
1921
1921
1925
1925
1925
1917
1917
1917
1926
1926
1926
1926
1926
1926
1926
1919
1919
1919
1924
1924
1924
1918
1918
1918
1926
1926
1926
1926
1920
1920
1920
1912
1912
1912
1922
1922
1922
1919
1919
1919
1922
1922
1922
1922
1925
1925
1925
1916
1916
1916
1925
1925
1925
1916
1916
1916
1924
1924
1924
1924
1916
1916
1916
1916
1916
1916
1919
1919
1919
1919
1919
1919
1924
1924
1924
1924
1921
1921
1921
1919
1919
1919
1922
1922
1922
1922
1922
1922
1931
1931
1931
1931
1921
1921
1921
1918
1918
1918
1923
1923
1923
1914
1914
1914
1921
1921
1921
1921
1923
1923
1923
1917
1917
1917
1920
1920
1920
1917
1917
1917
1927
1927
1927
1927
1924
1924
1924
1915
1915
1915
1923
1923
1923
1918
1918
1918
1927
1927
1927
1927
1923
1923
1923
1920
1920
1920
1922
1922
1922
1916
1916
1916
1924
1924
1924
1924
1922
1922
1922
1916
1916
1916
1919
1919
1919
1918
1918
1918
1925
1925
1925
1925
1920
1920
1920
1917
1917
1917
1921
1921
1921
1918
1918
1918
1923
1923
1923
1923
1926
1926
1926
1920
1920
1920
1923
1923
1923
1919
1919
1919
1923
1923
1923
1923
1927
1927
1927
1917
1917
1917
1923
1923
1923
1920
1920
1920
1922
1922
1922
1922
1924
1924
1924
1921
1921
1921
1923
1923
1923
1919
1919
1919
1926
1926
1926
1926
1926
1926
1926
1917
1917
1917
1923
1923
1923
1918
1918
1918
1922
1922
1922
1922
1924
1924
1924
1920
1920
1920
1927
1927
1927
1920
1920
1920
1923
1923
1923
1923
1923
1923
1923
1918
1918
1918
1920
1920
1920
1918
1918
1918
1922
1922
1922
1922
1922
1922
1922
1920
1920
1920
1924
1924
1924
1919
1919
1919
1918
1918
1918
1918
1923
1923
1923
1917
1917
1917
1920
1920
1920
1919
1919
1919
1924
1924
1924
1924
1923
1923
1923
1919
1919
1919
1922
1922
1922
1917
1917
1917
1925
1925
1925
1925
1923
1923
1923
1918
1918
1918
1922
1922
1922
1920
1920
1920
1922
1922
1922
1922
1922
1922
1922
1918
1918
1918
1924
1924
1924
1918
1918
1918
1923
1923
1923
1923
1928
1928
1928
1919
1919
1919
1922
1922
1922
1920
1920
1920
1922
1922
1922
1922
1923
1923
1923
1919
1919
1919
1921
1921
1921
1916
1916
1916
1924
1924
1924
1924
1923
1923
1923
1920
1920
1920
1920
1920
1920
1920
1920
1920
1926
1926
1926
1926
1925
1925
1925
1916
1916
1916
1923
1923
1923
1916
1916
1916
1922
1922
1922
1922
1923
1923
1923
1917
1917
1917
1927
1927
1927
1919
1919
1919
1923
1923
1923
1923
1922
1922
1922
1915
1915
1915
1922
1922
1922
1922
1922
1922
1923
1923
1923
1923
1924
1924
1924
1919
1919
1919
1921
1921
1921
1915
1915
1915
1924
1924
1924
1924
1921
1921
1921
1919
1919
1919
1922
1922
1922
1915
1915
1915
1924
1924
1924
1924
1924
1924
1924
1917
1917
1917
1926
1926
1926
1918
1918
1918
1928
1928
1928
1928
1921
1921
1921
1919
1919
1919
1923
1923
1923
1917
1917
1917
1924
1924
1924
1924
1921
1921
1921
1916
1916
1916
1923
1923
1923
1916
1916
1916
1924
1924
1924
1924
1922
1922
1922
1919
1919
1919
1923
1923
1923
1920
1920
1920
1923
1923
1923
1923
1923
1923
1923
1916
1916
1916
1921
1921
1921
1919
1919
1919
1925
1925
1925
1925
1922
1922
1922
1917
1917
1917
1924
1924
1924
1918
1918
1918
1925
1925
1925
1925
1917
1917
1917
1929
1929
1929
1921
1921
1921
1917
1917
1917
1922
1922
1922
1922
1926
1926
1926
1921
1921
1921
1923
1923
1923
1918
1918
1918
1925
1925
1925
1925
1925
1925
1925
1918
1918
1918
1924
1924
1924
1919
1919
1919
1923
1923
1923
1923
1923
1923
1923
1917
1917
1917
1929
1929
1929
1916
1916
1916
1924
1924
1924
1924
1921
1921
1921
1919
1919
1919
1927
1927
1927
1919
1919
1919
1923
1923
1923
1923
1925
1925
1925
1919
1919
1919
1921
1921
1921
1916
1916
1916
1923
1923
1923
1923
1924
1924
1924
1919
1919
1919
1925
1925
1925
1916
1916
1916
1927
1927
1927
1927
1922
1922
1922
1919
1919
1919
1920
1920
1920
1919
1919
1919
1924
1924
1924
1924
1923
1923
1923
1918
1918
1918
1924
1924
1924
1918
1918
1918
1924
1924
1924
1924
1923
1923
1923
1922
1922
1922
1923
1923
1923
1919
1919
1919
1923
1923
1923
1923
1916
1916
1916
1919
1919
1919
1924
1924
1924
1917
1917
1917
1923
1923
1923
1923
1921
1921
1921
1918
1918
1918
1923
1923
1923
1918
1918
1918
1923
1923
1923
1923
1923
1923
1923
1915
1915
1915
1921
1921
1921
1917
1917
1917
1925
1925
1925
1925
1923
1923
1923
1910
1910
1910
1923
1923
1923
1921
1921
1921
1923
1923
1923
1923
1923
1923
1923
1920
1920
1920
1919
1919
1919
1919
1919
1919
1924
1924
1924
1924
1922
1922
1922
1916
1916
1916
1924
1924
1924
1918
1918
1918
1924
1924
1924
1924
1922
1922
1922
1919
1919
1919
1922
1922
1922
1920
1920
1920
1922
1922
1922
1922
1922
1922
1922
1918
1918
1918
1923
1923
1923
1919
1919
1919
1924
1924
1924
1924
1922
1922
1922
1919
1919
1919
1923
1923
1923
1916
1916
1916
1923
1923
1923
1923
1924
1924
1924
1919
1919
1919
1922
1922
1922
1918
1918
1918
1924
1924
1924
1924
1921
1921
1921
1914
1914
1914
1922
1922
1922
1917
1917
1917
1924
1924
1924
1924
1922
1922
1922
1919
1919
1919
1924
1924
1924
1918
1918
1918
1922
1922
1922
1922
1925
1925
1925
1921
1921
1921
1922
1922
1922
1917
1917
1917
1923
1923
1923
1923
1920
1920
1920
1913
1913
1913
1921
1921
1921
1919
1919
1919
1924
1924
1924
1924
1922
1922
1922
1919
1919
1919
1923
1923
1923
1919
1919
1919
1924
1924
1924
1924
1924
1924
1924
1920
1920
1920
1928
1928
1928
1922
1922
1922
1924
1924
1924
1924
1921
1921
1921
1920
1920
1920
1920
1920
1920
1913
1913
1913
1924
1924
1924
1924
1922
1922
1922
1918
1918
1918
1923
1923
1923
1922
1922
1922
1920
1920
1920
1920
1921
1921
1921
1917
1917
1917
1921
1921
1921
1917
1917
1917
1924
1924
1924
1924
1923
1923
1923
1920
1920
1920
1924
1924
1924
1919
1919
1919
1918
1918
1918
1918
1926
1926
1926
1918
1918
1918
1923
1923
1923
1920
1920
1920
1925
1925
1925
1925
1923
1923
1923
1918
1918
1918
1922
1922
1922
1916
1916
1916
1922
1922
1922
1922
1920
1920
1920
1921
1921
1921
1923
1923
1923
1918
1918
1918
1924
1924
1924
1924
1924
1924
1924
1916
1916
1916
1921
1921
1921
1919
1919
1919
1923
1923
1923
1923
1919
1919
1919
1918
1918
1918
1923
1923
1923
1919
1919
1919
1920
1920
1920
1920
1922
1922
1922
1920
1920
1920
1923
1923
1923
1918
1918
1918
1922
1922
1922
1922
1924
1924
1924
1919
1919
1919
1924
1924
1924
1917
1917
1917
1921
1921
1921
1921
1922
1922
1922
1918
1918
1918
1925
1925
1925
1917
1917
1917
1922
1922
1922
1922
1923
1923
1923
1917
1917
1917
1922
1922
1922
1917
1917
1917
1922
1922
1922
1922
1920
1920
1920
1917
1917
1917
1924
1924
1924
1915
1915
1915
1919
1919
1919
1919
1924
1924
1924
1919
1919
1919
1926
1926
1926
1915
1915
1915
1919
1919
1919
1919
1923
1923
1923
1920
1920
1920
1923
1923
1923
1917
1917
1917
1925
1925
1925
1925
1923
1923
1923
1915
1915
1915
1925
1925
1925
1917
1917
1917
1921
1921
1921
1921
1927
1927
1927
1919
1919
1919
1926
1926
1926
1917
1917
1917
1923
1923
1923
1923
1923
1923
1923
1920
1920
1920
1922
1922
1922
1917
1917
1917
1922
1922
1922
1922
1919
1919
1919
1919
1919
1919
1921
1921
1921
1918
1918
1918
1923
1923
1923
1923
1927
1927
1927
1921
1921
1921
1921
1921
1921
1923
1923
1923
1923
1923
1923
1923
1922
1922
1922
1918
1918
1918
1923
1923
1923
1917
1917
1917
1921
1921
1921
1921
1921
1921
1921
1917
1917
1917
1922
1922
1922
1918
1918
1918
1923
1923
1923
1923
1924
1924
1924
1920
1920
1920
1920
1920
1920
1915
1915
1915
1924
1924
1924
1924
1925
1925
1925
1919
1919
1919
1922
1922
1922
1921
1921
1921
1922
1922
1922
1922
1922
1922
1922
1919
1919
1919
1924
1924
1924
1919
1919
1919
1922
1922
1922
1922
1923
1923
1923
1916
1916
1916
1921
1921
1921
1917
1917
1917
1925
1925
1925
1925
1922
1922
1922
1917
1917
1917
1923
1923
1923
1918
1918
1918
1924
1924
1924
1924
1922
1922
1922
1920
1920
1920
1923
1923
1923
1919
1919
1919
1921
1921
1921
1921
1922
1922
1922
1917
1917
1917
1923
1923
1923
1917
1917
1917
1924
1924
1924
1924
1921
1921
1921
1917
1917
1917
1921
1921
1921
1918
1918
1918
1926
1926
1926
1926
1922
1922
1922
1920
1920
1920
1923
1923
1923
1921
1921
1921
1923
1923
1923
1923
1922
1922
1922
1918
1918
1918
1923
1923
1923
1921
1921
1921
1926
1926
1926
1926
1922
1922
1922
1921
1921
1921
1924
1924
1924
1919
1919
1919
1921
1921
1921
1921
1922
1922
1922
1917
1917
1917
1925
1925
1925
1919
1919
1919
1919
1919
1919
1919
1922
1922
1922
1922
1922
1922
1922
1922
1922
1919
1919
1919
1924
1924
1924
1924
1920
1920
1920
1913
1913
1913
1918
1918
1918
1919
1919
1919
1923
1923
1923
1923
1923
1923
1923
1920
1920
1920
1922
1922
1922
1918
1918
1918
1923
1923
1923
1923
1924
1924
1924
1917
1917
1917
1922
1922
1922
1920
1920
1920
1922
1922
1922
1922
1924
1924
1924
1918
1918
1918
1922
1922
1922
1918
1918
1918
1926
1926
1926
1926
1925
1925
1925
1918
1918
1918
1926
1926
1926
1916
1916
1916
1925
1925
1925
1925
1923
1923
1923
1919
1919
1919
1923
1923
1923
1919
1919
1919
1923
1923
1923
1923
1921
1921
1921
1919
1919
1919
1924
1924
1924
1921
1921
1921
1924
1924
1924
1924
1924
1924
1924
1919
1919
1919
1923
1923
1923
1918
1918
1918
1922
1922
1922
1922
1924
1924
1924
1920
1920
1920
1921
1921
1921
1920
1920
1920
1923
1923
1923
1923
1925
1925
1925
1920
1920
1920
1920
1920
1920
1919
1919
1919
1923
1923
1923
1923
1922
1922
1922
1915
1915
1915
1924
1924
1924
1921
1921
1921
1923
1923
1923
1923
1926
1926
1926
1920
1920
1920
1924
1924
1924
1917
1917
1917
1924
1924
1924
1924
1925
1925
1925
1921
1921
1921
1922
1922
1922
1916
1916
1916
1922
1922
1922
1922
1921
1921
1921
1921
1921
1921
1923
1923
1923
1918
1918
1918
1924
1924
1924
1924
1925
1925
1925
1920
1920
1920
1923
1923
1923
1921
1921
1921
1923
1923
1923
1923
1925
1925
1925
1921
1921
1921
1922
1922
1922
1917
1917
1917
1920
1920
1920
1920
1923
1923
1923
1918
1918
1918
1925
1925
1925
1919
1919
1919
1924
1924
1924
1924
1924
1924
1924
1921
1921
1921
1917
1917
1917
1921
1921
1921
1924
1924
1924
1924
1921
1921
1921
1918
1918
1918
1926
1926
1926
1915
1915
1915
1923
1923
1923
1923
1920
1920
1920
1918
1918
1918
1924
1924
1924
1917
1917
1917
1928
1928
1928
1928
1922
1922
1922
1919
1919
1919
1925
1925
1925
1919
1919
1919
1920
1920
1920
1920
1923
1923
1923
1916
1916
1916
1924
1924
1924
1920
1920
1920
1924
1924
1924
1924
1922
1922
1922
1917
1917
1917
1927
1927
1927
1919
1919
1919
1919
1919
1919
1919
1925
1925
1925
1921
1921
1921
1923
1923
1923
1918
1918
1918
1922
1922
1922
1922
1923
1923
1923
1918
1918
1918
1922
1922
1922
1918
1918
1918
1922
1922
1922
1922
1927
1927
1927
1915
1915
1915
1922
1922
1922
1920
1920
1920
1924
1924
1924
1924
1924
1924
1924
1918
1918
1918
1922
1922
1922
1919
1919
1919
1920
1920
1920
1920
1921
1921
1921
1917
1917
1917
1923
1923
1923
1920
1920
1920
1924
1924
1924
1924
1922
1922
1922
1920
1920
1920
1925
1925
1925
1918
1918
1918
1921
1921
1921
1921
1927
1927
1927
1918
1918
1918
1924
1924
1924
1922
1922
1922
1923
1923
1923
1923
1925
1925
1925
1923
1923
1923
1921
1921
1921
1919
1919
1919
1921
1921
1921
1921
1924
1924
1924
1916
1916
1916
1928
1928
1928
1915
1915
1915
1924
1924
1924
1924
1923
1923
1923
1917
1917
1917
1925
1925
1925
1919
1919
1919
1928
1928
1928
1928
1922
1922
1922
1917
1917
1917
1925
1925
1925
1918
1918
1918
1924
1924
1924
1924
1926
1926
1926
1918
1918
1918
1923
1923
1923
1918
1918
1918
1922
1922
1922
1922
1924
1924
1924
1918
1918
1918
1921
1921
1921
1921
1921
1921
1923
1923
1923
1923
1923
1923
1923
1917
1917
1917
1924
1924
1924
1917
1917
1917
1922
1922
1922
1922
1925
1925
1925
1921
1921
1921
1924
1924
1924
1917
1917
1917
1923
1923
1923
1923
1924
1924
1924
1916
1916
1916
1921
1921
1921
1918
1918
1918
1923
1923
1923
1923
1922
1922
1922
1917
1917
1917
1925
1925
1925
1919
1919
1919
1922
1922
1922
1922
1923
1923
1923
1919
1919
1919
1925
1925
1925
1920
1920
1920
1921
1921
1921
1921
1924
1924
1924
1918
1918
1918
1924
1924
1924
1917
1917
1917
1926
1926
1926
1926
1922
1922
1922
1919
1919
1919
1926
1926
1926
1920
1920
1920
1923
1923
1923
1923
1924
1924
1924
1917
1917
1917
1924
1924
1924
1919
1919
1919
1922
1922
1922
1922
1921
1921
1921
1918
1918
1918
1922
1922
1922
1916
1916
1916
1925
1925
1925
1925
1918
1918
1918
1921
1921
1921
1925
1925
1925
1917
1917
1917
1921
1921
1921
1921
1922
1922
1922
1924
1924
1924
1918
1918
1918
1920
1920
1920
1922
1922
1922
1922
1921
1921
1921
1919
1919
1919
1921
1921
1921
1919
1919
1919
1921
1921
1921
1921
1922
1922
1922
1923
1923
1923
1924
1924
1924
1921
1921
1921
1925
1925
1925
1925
1922
1922
1922
1918
1918
1918
1922
1922
1922
1918
1918
1918
1922
1922
1922
1922
1923
1923
1923
1919
1919
1919
1917
1917
1917
1919
1919
1919
1922
1922
1922
1922
1923
1923
1923
1919
1919
1919
1921
1921
1921
1918
1918
1918
1921
1921
1921
1921
1920
1920
1920
1917
1917
1917
1921
1921
1921
1918
1918
1918
1925
1925
1925
1925
1921
1921
1921
1917
1917
1917
1925
1925
1925
1919
1919
1919
1922
1922
1922
1922
1923
1923
1923
1919
1919
1919
1923
1923
1923
1919
1919
1919
1918
1918
1918
1918
1923
1923
1923
1914
1914
1914
1923
1923
1923
1918
1918
1918
1921
1921
1921
1921
1921
1921
1921
1918
1918
1918
1926
1926
1926
1919
1919
1919
1921
1921
1921
1921
1922
1922
1922
1917
1917
1917
1925
1925
1925
1915
1915
1915
1921
1921
1921
1921
1926
1926
1926
1921
1921
1921
1922
1922
1922
1918
1918
1918
1919
1919
1919
1919
1924
1924
1924
1919
1919
1919
1922
1922
1922
1919
1919
1919
1925
1925
1925
1925
1922
1922
1922
1915
1915
1915
1923
1923
1923
1918
1918
1918
1923
1923
1923
1923
1920
1920
1920
1916
1916
1916
1922
1922
1922
1918
1918
1918
1922
1922
1922
1922
1921
1921
1921
1920
1920
1920
1921
1921
1921
1917
1917
1917
1924
1924
1924
1924
1924
1924
1924
1916
1916
1916
1926
1926
1926
1915
1915
1915
1921
1921
1921
1921
1921
1921
1921
1916
1916
1916
1923
1923
1923
1916
1916
1916
1923
1923
1923
1923
1922
1922
1922
1919
1919
1919
1923
1923
1923
1913
1913
1913
1918
1918
1918
1918
1922
1922
1922
1919
1919
1919
1924
1924
1924
1919
1919
1919
1926
1926
1926
1926
1922
1922
1922
1919
1919
1919
1922
1922
1922
1915
1915
1915
1924
1924
1924
1924
1920
1920
1920
1917
1917
1917
1922
1922
1922
1919
1919
1919
1923
1923
1923
1923
1925
1925
1925
1920
1920
1920
1923
1923
1923
1911
1911
1911
1924
1924
1924
1924
1923
1923
1923
1918
1918
1918
1927
1927
1927
1916
1916
1916
1923
1923
1923
1923
1925
1925
1925
1918
1918
1918
1922
1922
1922
1918
1918
1918
1924
1924
1924
1924
1920
1920
1920
1919
1919
1919
1923
1923
1923
1916
1916
1916
1923
1923
1923
1923
1926
1926
1926
1922
1922
1922
1925
1925
1925
1920
1920
1920
1924
1924
1924
1924
1921
1921
1921
1917
1917
1917
1924
1924
1924
1918
1918
1918
1922
1922
1922
1922
1926
1926
1926
1919
1919
1919
1921
1921
1921
1912
1912
1912
1921
1921
1921
1921
1924
1924
1924
1918
1918
1918
1922
1922
1922
1919
1919
1919
1920
1920
1920
1920
1925
1925
1925
1919
1919
1919
1922
1922
1922
1920
1920
1920
1926
1926
1926
1926
1922
1922
1922
1918
1918
1918
1925
1925
1925
1917
1917
1917
1927
1927
1927
1927
1924
1924
1924
1917
1917
1917
1923
1923
1923
1918
1918
1918
1923
1923
1923
1923
1923
1923
1923
1921
1921
1921
1923
1923
1923
1918
1918
1918
1923
1923
1923
1923
1922
1922
1922
1919
1919
1919
1923
1923
1923
1918
1918
1918
1928
1928
1928
1928
1923
1923
1923
1918
1918
1918
1923
1923
1923
1917
1917
1917
1923
1923
1923
1923
1926
1926
1926
1919
1919
1919
1924
1924
1924
1919
1919
1919
1922
1922
1922
1922
1924
1924
1924
1918
1918
1918
1922
1922
1922
1917
1917
1917
1924
1924
1924
1924
1925
1925
1925
1918
1918
1918
1924
1924
1924
1917
1917
1917
1922
1922
1922
1922
1923
1923
1923
1916
1916
1916
1927
1927
1927
1917
1917
1917
1923
1923
1923
1923
1921
1921
1921
1923
1923
1923
1925
1925
1925
1919
1919
1919
1925
1925
1925
1925
1922
1922
1922
1920
1920
1920
1921
1921
1921
1921
1921
1921
1925
1925
1925
1925
1922
1922
1922
1917
1917
1917
1923
1923
1923
1916
1916
1916
1928
1928
1928
1928
1924
1924
1924
1920
1920
1920
1922
1922
1922
1915
1915
1915
1929
1929
1929
1929
1923
1923
1923
1917
1917
1917
1924
1924
1924
1918
1918
1918
1923
1923
1923
1923
1923
1923
1923
1919
1919
1919
1926
1926
1926
1917
1917
1917
1924
1924
1924
1924
1921
1921
1921
1918
1918
1918
1922
1922
1922
1920
1920
1920
1921
1921
1921
1921
1921
1921
1921
1921
1921
1921
1924
1924
1924
1918
1918
1918
1924
1924
1924
1924
1924
1924
1924
1919
1919
1919
1923
1923
1923
1918
1918
1918
1925
1925
1925
1925
1921
1921
1921
1916
1916
1916
1923
1923
1923
1917
1917
1917
1925
1925
1925
1925
1915
1915
1915
1912
1912
1912
1924
1924
1924
1919
1919
1919
1926
1926
1926
1926
1922
1922
1922
1921
1921
1921
1924
1924
1924
1917
1917
1917
1922
1922
1922
1922
1917
1917
1917
1919
1919
1919
1920
1920
1920
1920
1920
1920
1925
1925
1925
1925
1921
1921
1921
1917
1917
1917
1918
1918
1918
1920
1920
1920
1924
1924
1924
1924
1922
1922
1922
1920
1920
1920
1927
1927
1927
1915
1915
1915
1923
1923
1923
1923
1923
1923
1923
1918
1918
1918
1923
1923
1923
1915
1915
1915
1920
1920
1920
1920
1927
1927
1927
1919
1919
1919
1922
1922
1922
1920
1920
1920
1925
1925
1925
1925
1929
1929
1929
1918
1918
1918
1924
1924
1924
1920
1920
1920
1926
1926
1926
1926
1925
1925
1925
1917
1917
1917
1924
1924
1924
1918
1918
1918
1925
1925
1925
1925
1921
1921
1921
1919
1919
1919
1921
1921
1921
1916
1916
1916
1923
1923
1923
1923
1919
1919
1919
1919
1919
1919
1923
1923
1923
1920
1920
1920
1921
1921
1921
1921
1924
1924
1924
1918
1918
1918
1924
1924
1924
1920
1920
1920
1928
1928
1928
1928
1925
1925
1925
1915
1915
1915
1923
1923
1923
1920
1920
1920
1922
1922
1922
1922
1923
1923
1923
1917
1917
1917
1920
1920
1920
1919
1919
1919
1921
1921
1921
1921
1923
1923
1923
1914
1914
1914
1924
1924
1924
1919
1919
1919
1923
1923
1923
1923
1923
1923
1923
1914
1914
1914
1925
1925
1925
1916
1916
1916
1925
1925
1925
1925
1924
1924
1924
1917
1917
1917
1924
1924
1924
1918
1918
1918
1925
1925
1925
1925
1922
1922
1922
1916
1916
1916
1924
1924
1924
1917
1917
1917
1921
1921
1921
1921
1923
1923
1923
1917
1917
1917
1926
1926
1926
1921
1921
1921
1925
1925
1925
1925
1924
1924
1924
1921
1921
1921
1922
1922
1922
1916
1916
1916
1922
1922
1922
1922
1921
1921
1921
1918
1918
1918
1926
1926
1926
1919
1919
1919
1920
1920
1920
1920
1925
1925
1925
1920
1920
1920
1921
1921
1921
1917
1917
1917
1923
1923
1923
1923
1924
1924
1924
1921
1921
1921
1924
1924
1924
1919
1919
1919
1924
1924
1924
1924
1924
1924
1924
1919
1919
1919
1921
1921
1921
1921
1921
1921
1923
1923
1923
1923
1921
1921
1921
1922
1922
1922
1924
1924
1924
1918
1918
1918
1923
1923
1923
1923
1926
1926
1926
1922
1922
1922
1925
1925
1925
1918
1918
1918
1921
1921
1921
1921
1923
1923
1923
1919
1919
1919
1926
1926
1926
1915
1915
1915
1921
1921
1921
1921
1924
1924
1924
1918
1918
1918
1911
1911
1911
1912
1912
1912
1919
1919
1919
1919
1926
1926
1926
1917
1917
1917
1923
1923
1923
1917
1917
1917
1926
1926
1926
1926
1923
1923
1923
1920
1920
1920
1922
1922
1922
1919
1919
1919
1921
1921
1921
1921
1924
1924
1924
1917
1917
1917
1922
1922
1922
1920
1920
1920
1920
1920
1920
1920
1921
1921
1921
1916
1916
1916
1923
1923
1923
1919
1919
1919
1921
1921
1921
1921
1922
1922
1922
1919
1919
1919
1924
1924
1924
1918
1918
1918
1925
1925
1925
1925
1924
1924
1924
1917
1917
1917
1921
1921
1921
1917
1917
1917
1925
1925
1925
1925
1926
1926
1926
1918
1918
1918
1923
1923
1923
1919
1919
1919
1922
1922
1922
1922
1924
1924
1924
1921
1921
1921
1920
1920
1920
1919
1919
1919
1922
1922
1922
1922
1923
1923
1923
1915
1915
1915
1923
1923
1923
1916
1916
1916
1922
1922
1922
1922
1924
1924
1924
1918
1918
1918
1923
1923
1923
1924
1924
1924
1925
1925
1925
1925
1922
1922
1922
1916
1916
1916
1924
1924
1924
1909
1909
1909
1918
1918
1918
1918
1921
1921
1921
1918
1918
1918
1924
1924
1924
1920
1920
1920
1924
1924
1924
1924
1923
1923
1923
1917
1917
1917
1925
1925
1925
1919
1919
1919
1923
1923
1923
1923
1921
1921
1921
1919
1919
1919
1924
1924
1924
1917
1917
1917
1922
1922
1922
1922
1922
1922
1922
1921
1921
1921
1923
1923
1923
1917
1917
1917
1923
1923
1923
1923
1922
1922
1922
1917
1917
1917
1925
1925
1925
1918
1918
1918
1924
1924
1924
1924
1920
1920
1920
1918
1918
1918
1924
1924
1924
1921
1921
1921
1925
1925
1925
1925
1925
1925
1925
1921
1921
1921
1924
1924
1924
1919
1919
1919
1921
1921
1921
1921
1920
1920
1920
1918
1918
1918
1926
1926
1926
1921
1921
1921
1921
1921
1921
1921
1923
1923
1923
1917
1917
1917
1926
1926
1926
1920
1920
1920
1923
1923
1923
1923
1923
1923
1923
1918
1918
1918
1922
1922
1922
1921
1921
1921
1923
1923
1923
1923
1923
1923
1923
1916
1916
1916
1924
1924
1924
1919
1919
1919
1923
1923
1923
1923
1923
1923
1923
1918
1918
1918
1919
1919
1919
1919
1919
1919
1929
1929
1929
1929
1923
1923
1923
1920
1920
1920
1924
1924
1924
1917
1917
1917
1923
1923
1923
1923
1933
1933
1933
1918
1918
1918
1921
1921
1921
1917
1917
1917
1924
1924
1924
1924
1916
1916
1916
1916
1916
1916
1922
1922
1922
1918
1918
1918
1925
1925
1925
1925
1921
1921
1921
1917
1917
1917
1924
1924
1924
1917
1917
1917
1923
1923
1923
1923
1922
1922
1922
1923
1923
1923
1926
1926
1926
1918
1918
1918
1925
1925
1925
1925
1921
1921
1921
1916
1916
1916
1923
1923
1923
1919
1919
1919
1924
1924
1924
1924
1921
1921
1921
1917
1917
1917
1920
1920
1920
1921
1921
1921
1922
1922
1922
1922
1923
1923
1923
1916
1916
1916
1922
1922
1922
1926
1926
1926
1924
1924
1924
1924
1923
1923
1923
1919
1919
1919
1929
1929
1929
1918
1918
1918
1923
1923
1923
1923
1922
1922
1922
1918
1918
1918
1923
1923
1923
1925
1925
1925
1922
1922
1922
1922
1923
1923
1923
1920
1920
1920
1925
1925
1925
1918
1918
1918
1922
1922
1922
1922
1926
1926
1926
1923
1923
1923
1925
1925
1925
1918
1918
1918
1925
1925
1925
1925
1920
1920
1920
1921
1921
1921
1923
1923
1923
1919
1919
1919
1926
1926
1926
1926
1918
1918
1918
1918
1918
1918
1922
1922
1922
1919
1919
1919
1923
1923
1923
1923
1923
1923
1923
1921
1921
1921
1922
1922
1922
1917
1917
1917
1923
1923
1923
1923
1924
1924
1924
1920
1920
1920
1927
1927
1927
1920
1920
1920
1922
1922
1922
1922
1924
1924
1924
1918
1918
1918
1920
1920
1920
1912
1912
1912
1925
1925
1925
1925
1922
1922
1922
1919
1919
1919
1922
1922
1922
1918
1918
1918
1922
1922
1922
1922
1920
1920
1920
1917
1917
1917
1923
1923
1923
1919
1919
1919
1929
1929
1929
1929
1925
1925
1925
1920
1920
1920
1923
1923
1923
1919
1919
1919
1920
1920
1920
1920
1924
1924
1924
1924
1924
1924
1923
1923
1923
1920
1920
1920
1923
1923
1923
1923
1940
1940
1940
1921
1921
1921
1923
1923
1923
1919
1919
1919
1922
1922
1922
1922
1924
1924
1924
1919
1919
1919
1923
1923
1923
1918
1918
1918
1921
1921
1921
1921
1921
1921
1921
1920
1920
1920
1924
1924
1924
1917
1917
1917
1923
1923
1923
1923
1924
1924
1924
1914
1914
1914
1926
1926
1926
1920
1920
1920
1923
1923
1923
1923
1922
1922
1922
1918
1918
1918
1923
1923
1923
1918
1918
1918
1923
1923
1923
1923
1924
1924
1924
1917
1917
1917
1926
1926
1926
1917
1917
1917
1922
1922
1922
1922
1923
1923
1923
1916
1916
1916
1923
1923
1923
1922
1922
1922
1923
1923
1923
1923
1925
1925
1925
1916
1916
1916
1926
1926
1926
1916
1916
1916
1921
1921
1921
1921
1923
1923
1923
1919
1919
1919
1924
1924
1924
1921
1921
1921
1922
1922
1922
1922
1923
1923
1923
1918
1918
1918
1924
1924
1924
1905
1905
1905
1921
1921
1921
1921
1923
1923
1923
1919
1919
1919
1917
1917
1917
1919
1919
1919
1923
1923
1923
1923
1926
1926
1926
1920
1920
1920
1922
1922
1922
1915
1915
1915
1924
1924
1924
1924
1925
1925
1925
1919
1919
1919
1923
1923
1923
1919
1919
1919
1922
1922
1922
1922
1924
1924
1924
1918
1918
1918
1927
1927
1927
1917
1917
1917
1924
1924
1924
1924
1924
1924
1924
1917
1917
1917
1925
1925
1925
1915
1915
1915
1922
1922
1922
1922
1923
1923
1923
1917
1917
1917
1925
1925
1925
1921
1921
1921
1925
1925
1925
1925
1922
1922
1922
1919
1919
1919
1926
1926
1926
1915
1915
1915
1927
1927
1927
1927
1922
1922
1922
1919
1919
1919
1924
1924
1924
1918
1918
1918
1923
1923
1923
1923
1923
1923
1923
1918
1918
1918
1924
1924
1924
1918
1918
1918
1924
1924
1924
1924
1923
1923
1923
1919
1919
1919
1923
1923
1923
1919
1919
1919
1924
1924
1924
1924
1927
1927
1927
1917
1917
1917
1921
1921
1921
1917
1917
1917
1924
1924
1924
1924
1925
1925
1925
1919
1919
1919
1925
1925
1925
1920
1920
1920
1924
1924
1924
1924
1923
1923
1923
1919
1919
1919
1926
1926
1926
1918
1918
1918
1923
1923
1923
1923
1924
1924
1924
1917
1917
1917
1922
1922
1922
1919
1919
1919
1922
1922
1922
1922
1923
1923
1923
1919
1919
1919
1923
1923
1923
1921
1921
1921
1923
1923
1923
1923
1922
1922
1922
1921
1921
1921
1923
1923
1923
1922
1922
1922
1918
1918
1918
1918
1923
1923
1923
1918
1918
1918
1923
1923
1923
1920
1920
1920
1925
1925
1925
1925
1926
1926
1926
1918
1918
1918
1923
1923
1923
1919
1919
1919
1923
1923
1923
1923
1923
1923
1923
1920
1920
1920
1924
1924
1924
1917
1917
1917
1923
1923
1923
1923
1925
1925
1925
1920
1920
1920
1921
1921
1921
1918
1918
1918
1922
1922
1922
1922
1924
1924
1924
1918
1918
1918
1922
1922
1922
1917
1917
1917
1921
1921
1921
1921
1926
1926
1926
1923
1923
1923
1924
1924
1924
1919
1919
1919
1920
1920
1920
1920
1922
1922
1922
1922
1922
1922
1923
1923
1923
1917
1917
1917
1925
1925
1925
1925
1924
1924
1924
1923
1923
1923
1921
1921
1921
1916
1916
1916
1924
1924
1924
1924
1923
1923
1923
1918
1918
1918
1921
1921
1921
1923
1923
1923
1922
1922
1922
1922
1924
1924
1924
1916
1916
1916
1921
1921
1921
1916
1916
1916
1928
1928
1928
1928
1924
1924
1924
1919
1919
1919
1923
1923
1923
1918
1918
1918
1930
1930
1930
1930
1922
1922
1922
1923
1923
1923
1923
1923
1923
1918
1918
1918
1923
1923
1923
1923
1923
1923
1923
1918
1918
1918
1923
1923
1923
1918
1918
1918
1921
1921
1921
1921
1921
1921
1921
1918
1918
1918
1923
1923
1923
1920
1920
1920
1921
1921
1921
1921
1918
1918
1918
1918
1918
1918
1924
1924
1924
1919
1919
1919
1924
1924
1924
1924
1922
1922
1922
1922
1922
1922
1923
1923
1923
1921
1921
1921
1923
1923
1923
1923
1922
1922
1922
1913
1913
1913
1918
1918
1918
1919
1919
1919
1923
1923
1923
1923
1924
1924
1924
1917
1917
1917
1922
1922
1922
1918
1918
1918
1923
1923
1923
1923
1923
1923
1923
1920
1920
1920
1924
1924
1924
1920
1920
1920
1925
1925
1925
1925
1923
1923
1923
1920
1920
1920
1922
1922
1922
1918
1918
1918
1924
1924
1924
1924
1923
1923
1923
1919
1919
1919
1923
1923
1923
1920
1920
1920
1923
1923
1923
1923
1921
1921
1921
1916
1916
1916
1924
1924
1924
1919
1919
1919
1923
1923
1923
1923
1922
1922
1922
1920
1920
1920
1922
1922
1922
1919
1919
1919
1924
1924
1924
1924
1925
1925
1925
1922
1922
1922
1923
1923
1923
1915
1915
1915
1925
1925
1925
1925
1925
1925
1925
1916
1916
1916
1921
1921
1921
1917
1917
1917
1922
1922
1922
1922
1925
1925
1925
1918
1918
1918
1917
1917
1917
1922
1922
1922
1924
1924
1924
1924
1922
1922
1922
1917
1917
1917
1926
1926
1926
1919
1919
1919
1929
1929
1929
1929
1920
1920
1920
1918
1918
1918
1922
1922
1922
1917
1917
1917
1927
1927
1927
1927
1923
1923
1923
1919
1919
1919
1923
1923
1923
1920
1920
1920
1922
1922
1922
1922
1922
1922
1922
1918
1918
1918
1925
1925
1925
1918
1918
1918
1924
1924
1924
1924
1921
1921
1921
1920
1920
1920
1923
1923
1923
1918
1918
1918
1923
1923
1923
1923
1922
1922
1922
1917
1917
1917
1923
1923
1923
1919
1919
1919
1924
1924
1924
1924
1921
1921
1921
1917
1917
1917
1922
1922
1922
1919
1919
1919
1923
1923
1923
1923
1921
1921
1921
1920
1920
1920
1924
1924
1924
1919
1919
1919
1924
1924
1924
1924
1922
1922
1922
1915
1915
1915
1915
1915
1915
1918
1918
1918
1924
1924
1924
1924
1924
1924
1924
1913
1913
1913
1923
1923
1923
1923
1923
1923
1922
1922
1922
1922
1924
1924
1924
1919
1919
1919
1921
1921
1921
1918
1918
1918
1924
1924
1924
1924
1921
1921
1921
1918
1918
1918
1924
1924
1924
1924
1924
1924
1926
1926
1926
1926
1922
1922
1922
1917
1917
1917
1919
1919
1919
1919
1919
1919
1922
1922
1922
1922
1918
1918
1918
1922
1922
1922
1925
1925
1925
1921
1921
1921
1922
1922
1922
1922
1922
1922
1922
1921
1921
1921
1923
1923
1923
1919
1919
1919
1924
1924
1924
1924
1926
1926
1926
1919
1919
1919
1925
1925
1925
1921
1921
1921
1921
1921
1921
1921
1923
1923
1923
1917
1917
1917
1923
1923
1923
1923
1923
1923
1922
1922
1922
1922
1923
1923
1923
1921
1921
1921
1927
1927
1927
1918
1918
1918
1929
1929
1929
1929
1922
1922
1922
1917
1917
1917
1926
1926
1926
1916
1916
1916
1921
1921
1921
1921
1923
1923
1923
1917
1917
1917
1926
1926
1926
1919
1919
1919
1927
1927
1927
1927
1925
1925
1925
1918
1918
1918
1923
1923
1923
1921
1921
1921
1926
1926
1926
1926
1923
1923
1923
1919
1919
1919
1924
1924
1924
1919
1919
1919
1924
1924
1924
1924
1920
1920
1920
1918
1918
1918
1923
1923
1923
1919
1919
1919
1924
1924
1924
1924
1925
1925
1925
1916
1916
1916
1924
1924
1924
1918
1918
1918
1923
1923
1923
1923
1925
1925
1925
1918
1918
1918
1922
1922
1922
1918
1918
1918
1923
1923
1923
1923
1928
1928
1928
1924
1924
1924
1927
1927
1927
1919
1919
1919
1923
1923
1923
1923
1922
1922
1922
1915
1915
1915
1922
1922
1922
1919
1919
1919
1928
1928
1928
1928
1919
1919
1919
1919
1919
1919
1921
1921
1921
1925
1925
1925
1928
1928
1928
1928
1921
1921
1921
1918
1918
1918
1923
1923
1923
1916
1916
1916
1924
1924
1924
1924
1924
1924
1924
1916
1916
1916
1922
1922
1922
1918
1918
1918
1923
1923
1923
1923
1924
1924
1924
1920
1920
1920
1921
1921
1921
1916
1916
1916
1923
1923
1923
1923
1925
1925
1925
1917
1917
1917
1922
1922
1922
1920
1920
1920
1922
1922
1922
1922
1929
1929
1929
1919
1919
1919
1923
1923
1923
1918
1918
1918
1922
1922
1922
1922
1921
1921
1921
1917
1917
1917
1924
1924
1924
1918
1918
1918
1923
1923
1923
1923
1924
1924
1924
1918
1918
1918
1922
1922
1922
1920
1920
1920
1923
1923
1923
1923
1921
1921
1921
1918
1918
1918
1921
1921
1921
1918
1918
1918
1925
1925
1925
1925
1925
1925
1925
1917
1917
1917
1926
1926
1926
1920
1920
1920
1923
1923
1923
1923
1925
1925
1925
1917
1917
1917
1923
1923
1923
1920
1920
1920
1923
1923
1923
1923
1922
1922
1922
1919
1919
1919
1924
1924
