2024
2024
2024
2024
2022
2022
2022
2023
2023
2023
2025
2025
2025
2025
2025
2025
2025
2025
2025
2025
2023
2023
2023
2026
2026
2026
2023
2023
2023
2022
2022
2022
2022
2022
2022
2022
2026
2026
2026
2025
2025
2025
2024
2024
2024
2021
2021
2021
2026
2026
2026
2026
2022
2022
2022
2025
2025
2025
2025
2025
2025
2023
2023
2023
2024
2024
2024
2024
2022
2022
2022
2025
2025
2025
2025
2025
2025
2025
2025
2025
2025
2025
2025
2017
2017
2017
2017
2022
2022
2022
2024
2024
2024
2023
2023
2023
2021
2021
2021
2023
2023
2023
2023
2017
2017
2017
2026
2026
2026
2024
2024
2024
2026
2026
2026
2020
2020
2020
2020
2025
2025
2025
2025
2025
2025
2026
2026
2026
2025
2025
2025
2022
2022
2022
2022
2024
2024
2024
2024
2024
2024
2024
2024
2024
2024
2024
2024
2024
2024
2024
2024
2024
2024
2024
2023
2023
2023
2024
2024
2024
2024
2024
2024
2022
2022
2022
2022
2025
2025
2025
2026
2026
2026
2023
2023
2023
2026
2026
2026
2025
2025
2025
2025
2022
2022
2022
2024
2024
2024
2023
2023
2023
2025
2025
2025
2024
2024
2024
2024
2023
2023
2023
2027
2027
2027
2023
2023
2023
2023
2023
2023
2021
2021
2021
2021
2024
2024
2024
2022
2022
2022
2025
2025
2025
2029
2029
2029
2022
2022
2022
2022
2024
2024
2024
2023
2023
2023
2022
2022
2022
2024
2024
2024
2029
2029
2029
2029
2025
2025
2025
2029
2029
2029
2024
2024
2024
2023
2023
2023
2026
2026
2026
2026
2021
2021
2021
2020
2020
2020
2022
2022
2022
2024
2024
2024
2024
2024
2024
2024
2021
2021
2021
2025
2025
2025
2026
2026
2026
2024
2024
2024
2025
2025
2025
2025
2023
2023
2023
2025
2025
2025
2025
2025
2025
2025
2025
2025
2025
2025
2025
2025
2023
2023
2023
2024
2024
2024
2025
2025
2025
2029
2029
2029
2025
2025
2025
2025
2025
2025
2025
2027
2027
2027
2025
2025
2025
2023
2023
2023
2022
2022
2022
2022
2022
2022
2022
2025
2025
2025
2024
2024
2024
2022
2022
2022
2025
2025
2025
2025
2024
2024
2024
2026
2026
2026
2024
2024
2024
2023
2023
2023
2024
2024
2024
2024
2024
2024
2024
2022
2022
2022
2027
2027
2027
2025
2025
2025
2025
2025
2025
2025
2023
2023
2023
2022
2022
2022
2030
2030
2030
2024
2024
2024
2023
2023
2023
2023
2019
2019
2019
2025
2025
2025
2022
2022
2022
2025
2025
2025
2024
2024
2024
2024
2022
2022
2022
2025
2025
2025
2025
2025
2025
2019
2019
2019
2023
2023
2023
2023
2023
2023
2023
2024
2024
2024
2025
2025
2025
2020
2020
2020
2024
2024
2024
2024
2024
2024
2024
2022
2022
2022
2023
2023
2023
2026
2026
2026
2027
2027
2027
2027
2022
2022
2022
2028
2028
2028
2024
2024
2024
2021
2021
2021
2021
2021
2021
2021
2024
2024
2024
2021
2021
2021
2024
2024
2024
2023
2023
2023
2024
2024
2024
2024
2025
2025
2025
2025
2025
2025
2023
2023
2023
2026
2026
2026
2025
2025
2025
2025
2022
2022
2022
2024
2024
2024
2026
2026
2026
2026
2026
2026
2023
2023
2023
2023
2023
2023
2023
2024
2024
2024
2024
2024
2024
2025
2025
2025
2024
2024
2024
2024
2023
2023
2023
2025
2025
2025
2023
2023
2023
2025
2025
2025
2024
2024
2024
2024
2024
2024
2024
2025
2025
2025
2024
2024
2024
2025
2025
2025
2025
2025
2025
2025
2022
2022
2022
2020
2020
2020
2024
2024
2024
2024
2024
2024
2026
2026
2026
2026
2024
2024
2024
2018
2018
2018
2020
2020
2020
2026
2026
2026
2024
2024
2024
2024
2024
2024
2024
2023
2023
2023
2030
2030
2030
2025
2025
2025
2025
2025
2025
2025
2023
2023
2023
2026
2026
2026
2035
2035
2035
2015
2015
2015
2025
2025
2025
2025
2023
2023
2023
2025
2025
2025
2028
2028
2028
2029
2029
2029
2025
2025
2025
2025
2024
2024
2024
2027
2027
2027
2025
2025
2025
2025
2025
2025
2023
2023
2023
2023
2024
2024
2024
2029
2029
2029
2024
2024
2024
2025
2025
2025
2022
2022
2022
2022
2021
2021
2021
2030
2030
2030
2023
2023
2023
2025
2025
2025
2022
2022
2022
2022
2025
2025
2025
2027
2027
2027
2024
2024
2024
2025
2025
2025
2027
2027
2027
2027
2022
2022
2022
2025
2025
2025
2028
2028
2028
2023
2023
2023
2023
2023
2023
2023
2024
2024
2024
2023
2023
2023
2025
2025
2025
2025
2025
2025
2025
2025
2025
2025
2024
2024
2024
2032
2032
2032
2023
2023
2023
2024
2024
2024
2025
2025
2025
2025
2025
2025
2025
2025
2025
2025
2024
2024
2024
2024
2024
2024
2022
2022
2022
2022
2020
2020
2020
2026
2026
2026
2024
2024
2024
2025
2025
2025
2028
2028
2028
2028
2024
2024
2024
2028
2028
2028
2021
2021
2021
2025
2025
2025
2024
2024
2024
2024
2023
2023
2023
2022
2022
2022
2024
2024
2024
2026
2026
2026
2025
2025
2025
2025
2022
2022
2022
2025
2025
2025
2019
2019
2019
2022
2022
2022
2022
2022
2022
2022
2024
2024
2024
2026
2026
2026
2026
2026
2026
2021
2021
2021
2023
2023
2023
2023
2024
2024
2024
2025
2025
2025
2024
2024
2024
2025
2025
2025
2023
2023
2023
2023
2017
2017
2017
2023
2023
2023
2025
2025
2025
2027
2027
2027
2027
2027
2027
2027
2022
2022
2022
2025
2025
2025
2024
2024
2024
2023
2023
2023
2021
2021
2021
2021
2024
2024
2024
2016
2016
2016
2020
2020
2020
2023
2023
2023
2023
2023
2023
2023
2023
2023
2023
2027
2027
2027
2025
2025
2025
2027
2027
2027
2021
2021
2021
2021
2025
2025
2025
2025
2025
2025
2027
2027
2027
2030
2030
2030
2023
2023
2023
2023
2023
2023
2023
2025
2025
2025
2029
2029
2029
2022
2022
2022
2022
2022
2022
2022
2024
2024
2024
2024
2024
2024
2023
2023
2023
2019
2019
2019
2027
2027
2027
2027
2024
