2137
2137
2146
2146
2146
2140
2140
2140
2143
2143
2143
2143
2143
2143
2141
2141
2141
2141
2141
2141
2141
2144
2144
2144
2140
2140
2140
2143
2143
2143
2142
2142
2142
2142
2139
2139
2139
2135
2135
2135
2141
2141
2141
2141
2141
2141
2146
2146
2146
2146
2144
2144
2144
2141
2141
2141
2143
2143
2143
2143
2143
2143
2139
2139
2139
2139
2141
2141
2141
2142
2142
2142
2141
2141
2141
2142
2142
2142
2144
2144
2144
2144
2140
2138
2138
2138
2138
2138
2138
2134
2134
2134
2144
2144
2144
2144
2144
2144
2146
2146
2146
2146
2146
2146
2146
2141
2141
2141
2143
2143
2143
2141
2141
2141
2142
2142
2142
2142
2142
2142
2142
2142
2142
2142
2143
2143
2143
2143
2143
2143
2147
2147
2147
2147
2144
2144
2144
2144
2144
2144
2152
2152
2152
2146
2146
2146
2143
2143
2143
2143
2143
2143
2143
2143
2143
2143
2142
2142
2142
2143
2143
2143
2142
2142
2142
2142
2143
2143
2143
2144
2144
2144
2142
2142
2142
2144
2144
2144
2142
2142
2142
2142
2142
2142
2142
2145
2145
2145
2142
2142
2142
2144
2144
2144
2146
2146
2146
2146
2139
2139
2139
2140
2140
2140
2141
2141
2141
2145
2145
2145
2143
2143
2143
2143
2140
2140
2140
2142
2142
2142
2141
2141
2141
2146
2146
2146
2146
2146
2146
2146
2136
2136
2136
2134
2134
2134
2144
2144
2144
2147
2147
2147
2145
2145
2145
2145
2143
2143
2143
2142
2142
2142
2142
2142
2142
2145
2145
2145
2143
2143
2143
2143
2141
2141
2141
2144
2144
2144
2143
2143
2143
2137
2137
2137
2137
2137
2137
2137
2145
2145
2145
2139
2139
2139
2135
2135
2135
2138
2138
2138
2141
2141
2141
2141
2143
2143
2143
2141
2141
2141
2143
2143
2143
2143
2143
2143
2141
2141
2141
2141
2141
2141
2141
2144
2144
2144
2140
2140
2140
2149
2149
2149
2141
2141
2141
2141
2135
2135
2135
2145
2145
2145
2153
2153
2153
2145
2145
2145
2143
2143
2143
2143
2139
2139
2139
2145
2145
2145
2143
2143
2143
2142
2142
2142
2144
2144
2144
2144
2142
2142
2142
2142
2142
2142
2140
2140
2140
2145
2145
2145
2143
2143
2143
2143
2143
2143
2143
2139
2139
2139
2147
2147
2147
2144
2144
2144
2146
2146
2146
2146
2136
2136
2136
2145
2145
2145
2143
2143
2143
2144
2144
2144
2136
2136
2136
2136
2140
2140
2140
2145
2145
2145
2142
2142
2142
2140
2140
2140
2142
2142
2142
2142
2143
2143
2143
2144
2144
2144
2145
2145
2145
2147
2147
2147
2142
2142
2142
2142
2144
2144
2144
2144
2144
2144
2142
2142
2142
2144
2144
2144
2141
2141
2141
2141
2142
2142
2142
2142
2142
2142
2140
2140
2140
2141
2141
2141
2143
2143
2143
2143
2138
2138
2138
2144
2144
2144
2136
2136
2136
2145
2145
2145
2145
2145
2145
2145
2141
2141
2141
2142
2142
2142
2142
2142
2142
2144
2144
2144
2139
2139
2139
2139
2140
2140
2140
2142
2142
2142
2142
2142
2142
2140
2140
2140
2143
2143
2143
2143
2135
2135
2135
2144
2144
2144
2143
2143
2143
2143
2143
2143
2143
2143
2143
2143
2137
2137
2137
2143
2143
2143
2144
2144
2144
2145
2145
2145
2142
2142
2142
2142
2141
2141
2141
2142
2142
2142
2144
2144
2144
2144
2144
2144
2142
2142
2142
2142
2139
2139
2139
2135
2135
2135
2139
2139
2139
2143
2143
2143
2142
2142
2142
2142
2140
2140
2140
2143
2143
2143
2142
2142
2142
2143
2143
2143
2143
2143
2143
2143
2143
2143
2143
2143
2143
2143
2138
2138
2138
2138
2138
2138
2143
2143
2143
2143
2137
2137
2137
2141
2141
2141
2142
2142
2142
2142
2142
2142
2143
2143
2143
2143
2141
2141
2141
2142
2142
2142
2143
2143
2143
2141
2141
2141
2138
2138
2138
2138
2143
2143
2143
2143
2143
2143
2141
2141
2141
2145
2145
2145
2143
2143
2143
2143
2144
2144
2144
2139
2139
2139
2135
2135
2135
2143
2143
2143
2139
2139
2139
2139
2143
2143
2143
2142
2142
2142
2145
2145
2145
2145
2145
2145
2138
2138
2138
2138
2142
2142
2142
2144
2144
2144
2145
2145
2145
2144
2144
2144
2141
2141
2141
2141
2139
2139
2139
2143
2143
2143
2143
2143
2143
2141
2141
2141
2143
2143
2143
2143
2140
2140
2140
2142
2142
2142
2141
2141
2141
2143
2143
2143
2138
2138
2138
2138
2141
2141
2141
2144
2144
2144
2142
2142
2142
2141
2141
2141
2142
2142
2142
2142
2143
2143
2143
2142
2142
2142
2136
2136
2136
2138
2138
2138
2144
2144
2144
2144
2140
2140
2140
2143
2143
2143
2140
2140
2140
2144
2144
2144
2148
2148
2148
2148
2140
2140
2140
2143
2143
2143
2153
2153
2153
2142
2142
2142
2140
2140
2140
2140
2139
2139
2139
2130
2130
2130
2143
2143
2143
2145
2145
2145
2143
2143
2143
2143
2141
2141
2141
2143
2143
2143
2141
2141
2141
2143
2143
2143
2144
2144
2144
2144
2140
2140
2140
2140
2140
2140
2138
2138
2138
2141
2141
2141
2142
2142
2142
2142
2144
2144
2144
2145
2145
2145
2139
2139
2139
2138
2138
2138
2138
2138
2138
2138
2140
2140
2140
2144
2144
2144
2141
2141
2141
2142
2142
2142
2148
2148
2148
2148
2142
2142
2142
2145
2145
2145
2143
2143
2143
2139
2139
2139
2142
2142
2142
2142
2143
2143
2143
2142
2142
2142
2138
2138
2138
2139
2139
2139
2139
2139
2139
2139
2142
2142
2142
2143
2143
2143
2142
2142
2142
2143
2143
2143
2142
2142
2142
2142
2141
2141
2141
2144
2144
2144
2143
2143
2143
2142
2142
2142
2143
2143
2143
2143
2148
2148
2148
2146
2146
2146
2145
2145
2145
2139
2139
2139
2139
2139
2139
2139
2142
2142
2142
2141
2141
2141
2141
2141
2141
2144
2144
2144
2139
2139
2139
2139
2140
2140
2140
2143
2143
2143
2147
2147
2147
2145
2145
2145
2144
2144
2144
2144
2137
2137
