2067
2067
2067
2062
2062
2062
2063
2063
2063
2063
2062
2062
2062
2063
2063
2063
2062
2062
2062
2063
2063
2063
2061
2061
2061
2061
2062
2062
2062
2062
2062
2062
2060
2060
2060
2064
2064
2064
2062
2062
2062
2062
2061
2061
2061
2061
2061
2061
2060
2060
2060
2059
2059
2059
2060
2060
2060
2060
2060
2060
2060
2063
2063
2063
2062
2062
2062
2063
2063
2063
2063
2063
2063
2063
2059
2059
2059
2062
2062
2062
2064
2064
2064
2063
2063
2063
2063
2063
2063
2063
2063
2063
2063
2062
2062
2062
2062
2062
2062
2061
2061
2061
2062
2062
2062
2062
2061
2061
2061
2061
2061
2061
2062
2062
2062
2060
2060
2060
2063
2063
2063
2063
2058
2058
2058
2063
2063
2063
2061
2061
2061
2058
2058
2058
2062
2062
2062
2062
2063
2063
2063
2061
2061
2061
2062
2062
2062
2063
2063
2063
2065
2065
2065
2065
2065
2065
2065
2058
2058
2058
2060
2060
2060
2063
2063
2063
2059
2059
2059
2059
2061
2061
2061
2061
2061
2061
2059
2059
2059
2061
2061
2061
2062
2062
2062
2062
2059
2059
2059
2065
2065
2065
2062
2062
2062
2063
2063
2063
2063
2063
2063
2063
2061
2061
2061
2059
2059
2059
2063
2063
2063
2065
2065
2065
2061
2061
2061
2061
2058
2058
2058
2063
2063
2063
2059
2059
2059
2068
2068
2068
2060
2060
2060
2060
2062
2062
2062
2064
2064
2064
2064
2064
2064
2063
2063
2063
2061
2061
2061
2061
2061
2061
2061
2063
2063
2063
2059
2059
2059
2061
2061
2061
2061
2061
2061
2061
2062
2062
2062
2063
2063
2063
2062
2062
2062
2065
2065
2065
2062
2062
2062
2062
2059
2059
2059
2062
2062
2062
2062
2062
2062
2064
2064
2064
2061
2061
2061
2061
2059
2059
2059
2061
2061
2061
2059
2059
2059
2060
2060
2060
2059
2059
2059
2059
2060
2060
2060
2063
2063
2063
2062
2062
2062
2064
2064
2064
2067
2067
2067
2067
2062
2062
2062
2060
2060
2060
2061
2061
2061
2062
2062
2062
2065
2065
2065
2065
2062
2062
2062
2062
2062
2062
2063
2063
2063
2061
2061
2061
2064
2064
2064
2064
2059
2059
2059
2064
2064
2064
2061
2061
2061
2061
2061
2061
2060
2060
2060
2060
2059
2059
2059
2063
2063
2063
2064
2064
2064
2065
2065
2065
2062
2062
2062
2062
2062
2062
2062
2062
2062
2062
2063
2063
2063
2062
2062
2062
2063
2063
2063
2063
2064
2064
2064
2062
2062
2062
2061
2061
2061
2063
2063
2063
2061
2061
2061
2061
2060
2060
2060
2063
2063
2063
2061
2061
2061
2061
2061
2061
2060
2060
2060
2060
2060
2060
2060
2062
2062
2062
2064
2064
2064
2062
2062
2062
2063
2063
2063
2063
2063
2063
2063
2065
2065
2065
2065
2065
2065
2062
2062
2062
2062
2062
2062
2062
2063
2063
2063
2063
2063
2063
2062
2062
2062
2063
2063
2063
2061
2061
2061
2061
2062
2062
2062
2061
2061
2061
2062
2062
2062
2063
2063
2063
2061
2061
2061
2061
2061
2061
2061
2062
2062
2062
2060
2060
2060
2064
2064
2064
2062
2062
2062
2062
2062
2062
2062
2062
2062
2062
2059
2059
2059
2062
2062
2062
2059
2059
2059
2059
2063
2063
2063
2063
2063
2063
2063
2063
2063
2063
2063
2063
2061
2061
2061
2061
2065
2065
2065
2064
2064
2064
2057
2057
2057
2062
2062
2062
2061
2061
2061
2061
2061
2061
2061
2062
2062
2062
2062
2062
2062
2064
2064
2064
2062
2062
2062
2062
2064
2064
2064
2062
2062
2062
2063
2063
2063
2063
2063
2063
2062
2062
2062
2062
2063
2063
2063
2064
2064
2064
2061
2061
2061
2063
2063
2063
2063
2063
2063
2063
2055
2055
2055
2065
2065
2065
2063
2063
2063
2063
2063
2063
2061
2061
2061
2061
2060
2060
2060
2063
2063
2063
2060
2060
2060
2063
2063
2063
2062
2062
2062
2062
2061
2061
2061
2065
2065
2065
2063
2063
2063
2063
2063
2063
2062
2062
2062
2062
2061
2061
2061
2062
2062
2062
2061
2061
2061
2063
2063
2063
2061
2061
2061
2061
2061
2061
2061
2059
2059
2059
2059
2059
2059
2060
2060
2060
2062
2062
2062
2062
2061
2061
2061
2061
2061
2061
2057
2057
2057
2064
2064
2064
2062
2062
2062
2062
2059
2059
2059
2064
2064
2064
2059
2059
2059
2062
2062
2062
2062
2062
2062
2062
2061
2061
2061
2063
2063
2063
2062
2062
2062
2058
2058
2058
2062
2062
2062
2062
2061
2061
2061
2063
2063
2063
2063
2063
2063
2059
2059
2059
2060
2060
2060
2060
2062
2062
2062
2064
2064
2064
2061
2061
2061
2059
2059
2059
2065
2065
2065
2065
2061
2061
2061
2064
2064
2064
2063
2063
2063
2067
2067
2067
2064
2064
2064
2064
2062
2062
2062
2063
2063
2063
2061
2061
2061
2067
2067
2067
2060
2060
2060
2060
2061
2061
2061
2062
2062
2062
2062
2062
2062
2062
2062
2062
2063
2063
2063
2063
2061
2061
2061
2062
2062
2062
2066
2066
2066
2063
2063
2063
2060
2060
2060
2060
2062
2062
2062
2063
2063
2063
2063
2063
2063
2062
2062
2062
2060
2060
2060
2060
2062
2062
2062
2064
2064
2064
2061
2061
2061
2063
2063
2063
2063
2063
2063
2063
2062
2062
2062
2064
2064
2064
2061
2061
2061
2062
2062
2062
2061
2061
2061
2061
2063
2063
2063
2063
2063
2063
2062
2062
2062
2063
2063
2063
2063
2063
2063
2063
2062
2062
2062
2060
2060
2060
2062
2062
2062
2062
2062
2062
2061
2061
2061
2061
2061
2061
2061
2062
2062
2062
2062
2062
2062
2065
2065
2065
2061
2061
2061
2061
2058
2058
2058
2062
2062
2062
2061
2061
2061
2064
2064
2064
2059
2059
2059
2059
2059
2059
2059
2062
2062
2062
2062
2062
2062
2062
2062
2062
2063
2063
2063
2063
2063
2063
2063
2062
2062
2062
2062
2062
2062
2061
2061
2061
2062
2062
2062
2062
2065
2065
2065
2062
2062
2062
2060
2060
2060
2062
2062
2062
2064
2064
2064
2064
2059
2059
2059
2064
2064
2064
2064
2064
2064
2063
2063
2063
2061
2061
2061
2061
2059
2059
2059
2062
2062
2062
2061
2061
2061
2063
2063
2063
2063
2063
2063
2063
2057
2057
2057
2064
2064
2064
2064
2064
2064
2065
2065
2065
2064
2064
2064
2064
2065
2065
2065
2064
2064
2064
2060
2060
2060
2063
2063
2063
2061
2061
2061
2061
2061
2061
2061
2068
2068
2068
2063
2063
2063
2065
2065
2065
2061
2061
2061
2061
2062
2062
2062
2065
2065
2065
2061
2061
2061
2064
2064
2064
2062
2062
2062
2062
2065
2065
2065
2065
2065
2065
2061
2061
2061
2065
2065
2065
2064
2064
2064
2064
2061
2061
2061
2061
2061
2061
2063
2063
2063
2062
2062
2062
2065
2065
2065
2065
2060
2060
2060
2060
2060
2060
2061
2061
2061
2063
2063
2063
2063
2063
2063
2063
2058
2058
2058
2060
2060
2060
2060
2060
2060
2064
2064
2064
2061
2061
2061
2061
2060
2060
2060
2063
2063
2063
2065
2065
2065
2058
2058
2058
2063
2063
2063
2063
2064
2064
2064
2064
2064
2064
2063
2063
2063
2063
2063
2063
2062
2062
2062
2062
2060
2060
2060
2062
2062
2062
2064
2064
2064
2065
2065
2065
2065
2065
2065
2065
2061
2061
2061
2058
2058
2058
2058
2058
2058
2063
2063
2063
2063
2063
2063
2063
2061
2061
2061
2062
2062
2062
2062
2062
2062
2061
2061
2061
2063
2063
2063
2063
2060
2060
2060
2062
2062
2062
2061
2061
2061
2064
2064
2064
2062
2062
2062
2062
2064
2064
2064
2062
2062
2062
2063
2063
2063
2066
2066
2066
2065
2065
2065
2065
2060
2060
2060
2061
2061
2061
2061
2061
2061
2064
2064
2064
2064
2064
2064
2064
2061
2061
2061
2061
2061
2061
2059
2059
2059
2063
2063
2063
2059
2059
2059
2059
2062
2062
2062
2062
2062
2062
2062
2062
2062
2063
2063
2063
2063
2063
2063
2063
2062
2062
2062
2061
2061
2061
2061
2061
2061
2059
2059
2059
2063
2063
2063
2063
2060
2060
2060
2064
2064
2064
2063
2063
2063
2064
2064
2064
2063
2063
2063
2063
2060
2060
2060
2063
2063
2063
2061
2061
2061
2067
2067
2067
2061
2061
2061
2061
2060
2060
2060
2060
2060
2060
2059
2059
2059
2059
2059
2059
2062
2062
2062
2062
2065
2065
2065
2063
2063
2063
2062
2062
2062
2063
2063
2063
2063
2063
2063
2063
2061
2061
2061
2063
2063
2063
2064
2064
2064
2063
2063
2063
2060
2060
2060
2060
2063
2063
2063
2063
2063
2063
2062
2062
2062
2061
2061
2061
2064
2064
2064
2064
2059
2059
2059
2062
2062
2062
2064
2064
2064
2061
2061
2061
2061
2061
2061
2061
2062
2062
2062
2064
2064
2064
2062
2062
2062
2062
2062
2062
2063
2063
2063
2063
2056
2056
2056
2062
2062
2062
2064
2064
2064
2061
2061
2061
2063
2063
2063
2063
2057
2057
2057
2062
2062
2062
2063
2063
2063
2061
2061
2061
2062
2062
2062
2062
2063
2063
2063
2067
2067
2067
2061
2061
2061
2061
2061
2061
2064
2064
2064
2064
2064
2064
2064
2061
2061
2061
2060
2060
2060
2059
2059
2059
2060
2060
2060
2060
2058
2058
2058
2063
2063
2063
2063
2063
2063
2064
2064
2064
2063
2063
2063
2063
2068
2068
2068
2061
2061
2061
2061
2061
2061
2063
2063
2063
2063
2063
2063
2063
2059
2059
2059
2063
2063
2063
2063
2063
2063
2062
2062
2062
2062
2062
2062
2062
2062
2062
2062
2066
2066
2066
2059
2059
2059
2061
2061
2061
2061
2061
2061
2061
2063
2063
2063
2056
2056
2056
2063
2063
2063
2056
2056
2056
2064
2064
2064
2064
2061
2061
2061
2065
2065
2065
2060
2060
2060
2059
2059
2059
2061
2061
2061
2061
2058
2058
2058
2064
2064
2064
2057
2057
2057
2066
2066
2066
2062
2062
2062
2062
2061
2061
2061
2063
2063
2063
2059
2059
2059
2065
2065
2065
2064
2064
2064
2064
2062
2062
2062
2063
2063
2063
2061
2061
2061
2065
2065
2065
2065
2065
2065
2065
2062
2062
2062
2063
2063
2063
2058
2058
2058
2061
2061
2061
2063
2063
2063
2063
2063
2063
2063
2063
2063
2063
2062
2062
2062
2061
2061
2061
2064
2064
2064
2064
2064
2064
2064
2061
2061
2061
2061
2061
2061
2065
2065
2065
2064
2064
2064
2064
2062
2062
2062
2063
2063
2063
2061
2061
2061
2061
2061
2061
2062
2062
2062
2062
2061
2061
2061
2063
2063
2063
2062
2062
2062
2064
2064
2064
2058
2058
2058
2058
2061
2061
2061
2061
2061
2061
2063
2063
2063
2066
2066
2066
2059
2059
2059
2059
2062
2062
2062
2062
2062
2062
2063
2063
2063
2063
2063
2063
2061
2061
2061
2061
2064
2064
2064
2063
2063
2063
2062
2062
2062
2062
2062
2062
2061
2061
2061
2061
2063
2063
2063
2062
2062
2062
2062
2062
2062
2061
2061
2061
2067
2067
2067
2067
2063
2063
2063
2063
2063
2063
2064
2064
2064
2061
2061
2061
2063
2063
2063
2063
2061
2061
2061
2062
2062
2062
2062
2062
2062
2063
2063
2063
2059
2059
2059
2059
2061
2061
2061
2062
2062
2062
2062
2062
2062
2063
2063
2063
2063
2063
2063
2063
2061
2061
2061
2064
2064
2064
2060
2060
2060
2064
2064
2064
2062
2062
2062
2062
2060
2060
2060
2063
2063
2063
2059
2059
2059
2063
2063
2063
2062
2062
2062
2062
2061
2061
2061
2061
2061
2061
2062
2062
2062
2063
2063
2063
2060
2060
2060
2060
2065
2065
2065
2064
2064
2064
2063
2063
2063
2062
2062
2062
2060
2060
2060
2060
2060
2060
2060
2062
2062
2062
2063
2063
2063
2062
2062
2062
2063
2063
2063
2063
2068
2068
2068
2060
2060
2060
2065
2065
2065
2064
2064
2064
2062
2062
2062
2062
2065
2065
2065
2067
2067
2067
2062
2062
2062
2063
2063
2063
2065
2065
2065
2065
2056
2056
2056
2062
2062
2062
2062
2062
2062
2062
2062
2062
2061
2061
2061
2061
2055
2055
2055
2062
2062
2062
2062
2062
2062
2061
2061
2061
2062
2062
2062
2062
2063
2063
2063
2065
2065
2065
2062
2062
2062
2064
2064
2064
2065
2065
2065
2065
2062
2062
2062
2060
2060
2060
2066
2066
2066
2063
2063
2063
2062
2062
2062
2062
2059
2059
2059
2061
2061
2061
2061
2061
2061
2062
2062
2062
2063
2063
2063
2063
2060
2060
2060
2061
2061
2061
2064
2064
2064
2062
2062
2062
2063
2063
2063
2063
2062
2062
2062
2064
2064
2064
2058
2058
2058
2064
2064
2064
2056
2056
2056
2056
2061
2061
2061
2065
2065
2065
2063
2063
2063
2061
2061
2061
2062
2062
2062
2062
2059
2059
2059
2063
2063
2063
2059
2059
2059
2063
2063
2063
2061
2061
2061
2061
2062
2062
2062
2061
2061
2061
2064
2064
2064
2064
2064
2064
2061
2061
2061
2061
2061
2061
2061
2064
2064
2064
2062
2062
2062
2065
2065
2065
2061
2061
2061
2061
2062
2062
2062
2064
2064
2064
2065
2065
2065
2057
2057
2057
2061
2061
2061
2061
2061
2061
2061
2061
2061
2061
2063
2063
2063
2066
2066
2066
2063
2063
2063
2063
2060
2060
2060
2062
2062
2062
2060
2060
2060
2065
2065
2065
2061
2061
2061
2061
2063
2063
2063
2064
2064
2064
2061
2061
2061
2066
2066
2066
2062
2062
2062
2062
2060
2060
2060
2063
2063
2063
2061
2061
2061
2062
2062
2062
2063
2063
2063
2063
2063
2063
2063
2065
2065
2065
2062
2062
2062
2062
2062
2062
2061
2061
2061
2061
2060
2060
2060
2063
2063
2063
2060
2060
2060
2061
2061
2061
2062
2062
2062
2062
2061
2061
2061
2063
2063
2063
2064
2064
2064
2062
2062
2062
2060
2060
2060
2060
2061
2061
2061
2064
2064
2064
2064
2064
2064
2063
2063
2063
2060
2060
2060
2060
2063
2063
2063
2061
2061
2061
2060
2060
2060
2064
2064
2064
2061
2061
2061
2061
2060
2060
2060
2062
2062
2062
2062
2062
2062
2063
2063
2063
2059
2059
2059
2059
2064
2064
2064
2061
2061
2061
2062
2062
2062
2062
2062
2062
2064
2064
2064
2064
2061
2061
2061
2062
2062
2062
2060
2060
2060
2063
2063
2063
2065
2065
2065
2065
2061
2061
2061
2060
2060
2060
2062
2062
2062
2059
2059
2059
2062
2062
2062
2062
2059
2059
2059
2061
2061
2061
2059
2059
2059
2064
2064
2064
2061
2061
2061
2061
2059
2059
2059
2061
2061
2061
2062
2062
2062
2061
2061
2061
2062
2062
2062
2062
2061
2061
2061
2063
2063
2063
2063
2063
2063
2063
2063
2063
2063
2063
2063
2063
2060
2060
2060
2062
2062
2062
2064
2064
2064
2062
2062
2062
2061
2061
2061
2061
2062
2062
2062
2061
2061
2061
2064
2064
2064
2065
2065
2065
2065
2065
2065
2065
2063
2063
2063
2064
2064
2064
2063
2063
2063
2062
2062
2062
2061
2061
2061
2061
2060
2060
2060
2061
2061
2061
2062
2062
2062
2063
2063
2063
2060
2060
2060
2060
2061
2061
2061
2066
2066
2066
2061
2061
2061
2062
2062
2062
2064
2064
2064
2064
2063
2063
2063
2061
2061
2061
2060
2060
2060
2061
2061
2061
2063
2063
2063
2063
2063
2063
2063
2063
2063
2063
2060
2060
2060
2062
2062
2062
2062
2062
2062
2062
2059
2059
2059
2061
2061
2061
2060
2060
2060
2062
2062
2062
2061
2061
2061
2061
2057
2057
2057
2061
2061
2061
2062
2062
2062
2062
2062
2062
2064
2064
2064
2064
2063
2063
2063
2063
2063
2063
2063
2063
2063
2063
2063
2063
2060
2060
2060
2060
2063
2063
2063
2063
2063
2063
2062
2062
2062
2063
2063
2063
2064
2064
2064
2064
2060
2060
2060
2066
2066
2066
2062
2062
2062
2062
2062
2062
2061
2061
2061
2061
2064
2064
2064
2063
2063
2063
2060
2060
2060
2064
2064
2064
2063
2063
2063
2063
2052
2052
2052
2067
2067
2067
2062
2062
2062
2062
2062
2062
2063
2063
2063
2063
2064
2064
2064
2064
2064
2064
2064
2064
2064
2063
2063
2063
2062
2062
2062
2062
2058
2058
2058
2063
2063
2063
2060
2060
2060
2063
2063
2063
2064
2064
2064
2064
2061
2061
2061
2059
2059
2059
2059
2059
2059
2062
2062
2062
2061
2061
2061
2061
2065
2065
2065
2061
2061
2061
2065
2065
2065
2060
2060
2060
2059
2059
2059
2059
2060
2060
2060
2058
2058
2058
2065
2065
2065
2062
2062
2062
2061
2061
2061
2061
2063
2063
2063
2063
2063
2063
2071
2071
2071
2061
2061
2061
2061
2061
2061
2061
2060
2060
2060
2059
2059
2059
2064
2064
2064
2064
2064
2064
2061
2061
2061
2061
2059
2059
2059
2060
2060
2060
2062
2062
2062
2062
2062
2062
2063
2063
2063
2063
2062
2062
2062
2059
2059
2059
2062
2062
2062
2063
2063
2063
2064
2064
2064
2064
2063
2063
2063
2063
2063
2063
2065
2065
2065
2062
2062
2062
2060
2060
2060
2060
2062
2062
2062
2067
2067
2067
2060
2060
2060
2065
2065
2065
2065
2065
2065
2065
2063
2063
2063
2061
2061
2061
2061
2061
2061
2062
2062
2062
2062
2062
2062
2062
2061
2061
2061
2064
2064
2064
2061
2061
2061
2063
2063
2063
2061
2061
2061
2061
2061
2061
2061
2062
2062
2062
2063
2063
2063
2065
2065
2065
2063
2063
2063
2063
2061
2061
2061
2061
2061
2061
2062
2062
2062
2067
2067
2067
2062
2062
2062
2062
2062
2062
2062
2059
2059
2059
2060
2060
2060
2065
2065
2065
2063
2063
2063
2063
2061
2061
2061
2062
2062
2062
2062
2062
2062
2059
2059
2059
2062
2062
2062
2062
2062
2062
2062
2064
2064
2064
2061
2061
2061
2063
2063
2063
2065
2065
2065
2065
2061
2061
2061
2062
2062
2062
2063
2063
2063
2061
2061
2061
2056
2056
2056
2056
2060
2060
2060
2064
2064
2064
2062
2062
2062
2064
2064
2064
2066
2066
2066
2066
2062
2062
2062
2062
2062
2062
2062
2062
2062
2064
2064
2064
2062
2062
2062
2062
2063
2063
2063
2061
2061
2061
2059
2059
2059
2063
2063
2063
2065
2065
2065
2065
2063
2063
2063
2061
2061
2061
2058
2058
2058
2063
2063
2063
2061
2061
2061
2061
2061
2061
2061
2062
2062
2062
2062
2062
2062
2063
2063
2063
2063
2063
2063
2063
2061
2061
2061
2064
2064
2064
2063
2063
2063
2064
2064
2064
2061
2061
2061
2061
2059
2059
2059
2064
2064
2064
2060
2060
2060
2061
2061
2061
2059
2059
2059
2059
2060
2060
2060
2062
2062
2062
2062
2062
2062
2062
2062
2062
2062
2062
2062
2062
2059
2059
2059
2062
2062
2062
2063
2063
2063
2063
2063
2063
2063
2063
2063
2063
2065
2065
2065
2063
2063
2063
2064
2064
2064
2062
2062
2062
2063
2063
2063
2063
2062
2062
2062
2063
2063
2063
2061
2061
2061
2061
2061
2061
2061
2061
2061
2061
2062
2062
2062
2062
2062
2062
2055
2055
2055
2062
2062
2062
2061
2061
2061
2061
2061
2061
2061
2062
2062
2062
2063
2063
2063
2061
2061
2061
2063
2063
2063
2063
2061
2061
2061
2062
2062
2062
2061
2061
2061
2063
2063
2063
2062
2062
2062
2062
2059
2059
2059
2063
2063
2063
2063
2063
2063
2062
2062
2062
2061
2061
2061
2061
2062
2062
2062
2063
2063
2063
2063
2063
2063
2064
2064
2064
2063
2063
2063
2063
2061
2061
2061
2064
2064
2064
2062
2062
2062
2063
2063
2063
2062
2062
2062
2062
2061
2061
2061
2061
2061
2061
2059
2059
2059
2063
2063
2063
2061
2061
2061
2061
2061
2061
2061
2062
2062
2062
2061
2061
2061
2060
2060
2060
2063
2063
2063
2063
2059
2059
2059
2061
2061
2061
2059
2059
2059
2061
2061
2061
2062
2062
2062
2062
2061
2061
2061
2063
2063
2063
2062
2062
2062
2064
2064
2064
2062
2062
2062
2062
2062
2062
2062
2061
2061
2061
2061
2061
2061
2062
2062
2062
2063
2063
2063
2063
2060
2060
2060
2062
2062
2062
2060
2060
2060
2063
2063
2063
2063
2063
2063
2063
2063
2063
2063
2063
2063
2063
2062
2062
2062
2065
2065
2065
2063
2063
2063
2063
2066
2066
2066
2062
2062
2062
2065
2065
2065
2066
2066
2066
2062
2062
2062
2062
2063
2063
2063
2061
2061
2061
2062
2062
2062
2061
2061
2061
2062
2062
2062
2062
2065
2065
2065
2065
2065
2065
2062
2062
2062
2063
2063
2063
2063
2063
2063
2063
2062
2062
2062
2062
2062
2062
2061
2061
2061
2063
2063
2063
2064
2064
2064
2064
2062
2062
2062
2061
2061
2061
2061
2061
2061
2063
2063
2063
2063
2063
2063
2063
2062
2062
2062
2064
2064
2064
2062
2062
2062
2062
2062
2062
2063
2063
2063
2063
2062
2062
2062
2061
2061
2061
2061
2061
2061
2063
2063
2063
2063
2063
2063
2063
2062
2062
2062
2063
2063
2063
2060
2060
2060
2063
2063
2063
2061
2061
2061
2061
2057
2057
2057
2059
2059
2059
2060
2060
2060
2061
2061
2061
2062
2062
2062
2062
2059
2059
2059
2063
2063
2063
2062
2062
2062
2064
2064
2064
2061
2061
2061
2061
2060
2060
2060
2065
2065
2065
2060
2060
2060
2062
2062
2062
2061
2061
2061
2061
2065
2065
2065
2062
2062
2062
2061
2061
2061
2068
2068
2068
2059
2059
2059
2059
2063
2063
2063
2059
2059
2059
2062
2062
2062
2063
2063
2063
2066
2066
2066
2066
2063
2063
2063
2057
2057
2057
2063
2063
2063
2065
2065
2065
2059
2059
2059
2059
2061
2061
2061
2064
2064
2064
2062
2062
2062
2064
2064
2064
2065
2065
2065
2065
2061
2061
2061
2062
2062
2062
2060
2060
2060
2065
2065
2065
2063
2063
2063
2063
2063
2063
2063
2063
2063
2063
2064
2064
2064
2063
2063
2063
2060
2060
2060
2060
2063
2063
2063
2067
2067
2067
2062
2062
2062
2060
2060
2060
2061
2061
2061
2061
2060
2060
2060
2054
2054
2054
2062
2062
2062
2063
2063
2063
2061
2061
2061
2061
2062
2062
2062
2058
2058
2058
2059
2059
2059
2061
2061
2061
2063
2063
2063
2063
2061
2061
2061
2057
2057
2057
2062
2062
2062
2062
2062
2062
2061
2061
2061
2061
2062
2062
2062
2060
2060
2060
2063
2063
2063
2063
2063
2063
2061
2061
2061
2061
2062
2062
2062
2065
2065
2065
2061
2061
2061
2063
2063
2063
2061
2061
2061
2061
2065
2065
2065
2060
2060
2060
2061
2061
2061
2065
2065
2065
2061
2061
2061
2061
2060
2060
2060
2061
2061
2061
2061
2061
2061
2062
2062
2062
2061
2061
2061
2061
2061
2061
2061
2061
2061
2061
2061
2061
2061
2061
2061
2061
2062
2062
2062
2062
2060
2060
2060
2060
2060
2060
2060
2060
2060
2063
2063
2063
2061
2061
2061
2061
2062
2062
2062
2063
2063
2063
2064
2064
2064
2062
2062
2062
2063
2063
2063
2063
2062
2062
2062
2064
2064
2064
2061
2061
2061
2062
2062
2062
2062
2062
2062
2062
2061
2061
2061
2064
2064
2064
2061
2061
2061
2063
2063
2063
2061
2061
2061
2061
2059
2059
2059
2060
2060
2060
2061
2061
2061
2066
2066
2066
2062
2062
2062
2062
2062
2062
2062
2056
2056
2056
2062
2062
2062
2065
2065
2065
2061
2061
2061
2061
2059
2059
2059
2058
2058
2058
2060
2060
2060
2061
2061
2061
2062
2062
2062
2062
2062
2062
2062
2063
2063
2063
2059
2059
2059
2065
2065
2065
2061
2061
2061
2061
2059
2059
2059
2058
2058
2058
2062
2062
2062
2061
2061
2061
2062
2062
2062
2062
2063
2063
2063
2062
2062
2062
2061
2061
2061
2062
2062
2062
2063
2063
2063
2063
2061
2061
2061
2063
2063
2063
2063
2063
2063
2062
2062
2062
2063
2063
2063
2063
2065
2065
2065
2059
2059
2059
2064
2064
2064
2062
2062
2062
2061
2061
2061
2061
2058
2058
2058
2061
2061
2061
2062
2062
2062
2064
2064
2064
2064
2064
2064
2064
2063
2063
2063
2057
2057
2057
2061
2061
2061
2063
2063
2063
2062
2062
2062
2062
2064
2064
2064
2061
2061
2061
2059
2059
2059
2063
2063
2063
2060
2060
2060
2060
2063
2063
2063
2068
2068
2068
2064
2064
2064
2065
2065
2065
2063
2063
2063
2063
2061
2061
2061
2066
2066
2066
2060
2060
2060
2061
2061
2061
2062
2062
2062
2062
2060
2060
2060
2059
2059
2059
2063
2063
2063
2063
2063
2063
2061
2061
2061
2061
2063
2063
2063
2066
2066
2066
2060
2060
2060
2064
2064
2064
2061
2061
2061
2061
2058
2058
2058
2065
2065
2065
2062
2062
2062
2063
2063
2063
2060
2060
2060
2060
2060
2060
2060
2065
2065
2065
2060
2060
2060
2062
2062
2062
2060
2060
2060
2060
2060
2060
2060
2062
2062
2062
2063
2063
2063
2062
2062
2062
2060
2060
2060
2060
2061
2061
2061
2059
2059
2059
2060
2060
2060
2060
2060
2060
2062
2062
2062
2062
2061
2061
2061
2061
2061
2061
2058
2058
2058
2065
2065
2065
2063
2063
2063
2063
2061
2061
2061
2064
2064
2064
2065
2065
2065
2061
2061
2061
2062
2062
2062
2062
2064
2064
2064
2065
2065
2065
2061
2061
2061
2060
2060
2060
2064
2064
2064
2064
2063
2063
2063
2065
2065
2065
2062
2062
2062
2063
2063
2063
2063
2063
2063
2063
2061
2061
2061
2060
2060
2060
2063
2063
2063
2063
2063
2063
2060
2060
2060
2060
2059
2059
2059
2060
2060
2060
2066
2066
2066
2062
2062
2062
2064
2064
2064
2064
2064
2064
2064
2065
2065
2065
2057
2057
2057
2062
2062
2062
2063
2063
2063
2063
2061
2061
2061
2060
2060
2060
2059
2059
2059
2066
2066
2066
2063
2063
2063
2063
2061
2061
2061
2063
2063
2063
2066
2066
2066
2057
2057
2057
2062
2062
2062
2062
2063
2063
2063
2061
2061
2061
2063
2063
2063
2060
2060
2060
2062
2062
2062
2062
2061
2061
2061
2065
2065
2065
2060
2060
2060
2063
2063
2063
2063
2063
2063
2063
2061
2061
2061
2059
2059
2059
2064
2064
2064
2062
2062
2062
2062
2062
2062
2062
2062
2062
2062
2065
2065
2065
2055
2055
2055
2060
2060
2060
2064
2064
2064
2064
2061
2061
2061
2062
2062
2062
2063
2063
2063
2063
2063
2063
2063
2063
2063
2063
2057
2057
2057
2067
2067
2067
2059
2059
2059
2062
2062
2062
2062
2062
2062
2062
2064
2064
2064
2068
2068
2068
2064
2064
2064
2057
2057
2057
2062
2062
2062
2062
2062
2062
2062
2061
2061
2061
2061
2061
2061
2065
2065
2065
2062
2062
2062
2062
2060
2060
2060
2066
2066
2066
2062
2062
2062
2063
2063
2063
2064
2064
2064
2064
2060
2060
2060
2065
2065
2065
2063
2063
2063
2064
2064
2064
2063
2063
2063
2063
2061
2061
2061
2062
2062
2062
2063
2063
2063
2061
2061
2061
2062
2062
2062
2062
2061
2061
2061
2063
2063
2063
2062
2062
2062
2063
2063
2063
2062
2062
2062
2062
2061
2061
2061
2061
2061
2061
2060
2060
2060
2062
2062
2062
2062
2062
2062
2062
2058
2058
2058
2061
2061
2061
2060
2060
2060
2062
2062
2062
2061
2061
2061
2061
2060
2060
2060
2061
2061
2061
2062
2062
2062
2061
2061
2061
2062
2062
2062
2062
2059
2059
2059
2067
2067
2067
2062
2062
2062
2060
2060
2060
2061
2061
2061
2061
2062
2062
2062
2061
2061
2061
2061
2061
2061
2061
2061
2061
2060
2060
2060
2060
2064
2064
2064
2063
2063
2063
2061
2061
2061
2063
2063
2063
2060
2060
2060
2060
2064
2064
2064
2066
2066
2066
2060
2060
2060
2061
2061
2061
2062
2062
2062
2062
2059
2059
2059
2064
2064
2064
2063
2063
2063
2061
2061
2061
2062
2062
2062
2062
2067
2067
2067
2060
2060
2060
2061
2061
2061
2062
2062
2062
2063
2063
2063
2063
2064
2064
2064
2063
2063
2063
2063
2063
2063
2064
2064
2064
2064
2064
2064
2064
2057
2057
2057
2063
2063
2063
2061
2061
2061
2062
2062
2062
2063
2063
2063
2063
2061
2061
2061
2061
2061
2061
2062
2062
2062
2064
2064
2064
2065
2065
2065
2065
2061
2061
2061
2065
2065
2065
2059
2059
2059
2062
2062
2062
2062
2062
2062
2062
2060
2060
2060
2062
2062
2062
2062
2062
2062
2063
2063
2063
2063
2063
2063
2063
2060
2060
2060
2062
2062
2062
2062
2062
2062
2062
2062
2062
2062
2062
2062
2062
2058
2058
2058
2061
2061
2061
2062
2062
2062
2065
2065
2065
2062
2062
2062
2062
2061
2061
2061
2062
2062
2062
2063
2063
2063
2062
2062
2062
2062
2062
2062
2062
2064
2064
2064
2061
2061
2061
2063
2063
2063
2061
2061
2061
2061
2061
2061
2061
2064
2064
2064
2061
2061
2061
2061
2061
2061
2064
2064
2064
2064
2064
2064
2064
2059
2059
2059
2061
2061
2061
2062
2062
2062
2063
2063
2063
2064
2064
2064
2064
2062
2062
2062
2065
2065
2065
2063
2063
2063
2063
2063
2063
2064
2064
2064
2064
2063
2063
2063
2065
2065
2065
2062
2062
2062
2064
2064
2064
2062
2062
2062
2062
2062
2062
2062
2063
2063
2063
2063
2063
2063
2064
2064
2064
2060
2060
2060
2060
2061
2061
2061
2063
2063
2063
2062
2062
2062
2064
2064
2064
2063
2063
2063
2063
2063
2063
2063
2063
2063
2063
2060
2060
2060
2067
2067
2067
2061
2061
2061
2061
2060
2060
2060
2063
2063
2063
2060
2060
2060
2061
2061
2061
2063
2063
2063
2063
2060
2060
2060
2062
2062
2062
2065
2065
2065
2061
2061
2061
2061
2061
2061
2061
2060
2060
2060
2063
2063
2063
2062
2062
2062
2063
2063
2063
2063
2063
2063
2063
2062
2062
2062
2063
2063
2063
2060
2060
2060
2062
2062
2062
2063
2063
2063
2063
2062
2062
2062
2060
2060
2060
2062
2062
2062
2062
2062
2062
2063
2063
2063
2063
2062
2062
2062
2064
2064
2064
2062
2062
2062
2061
2061
2061
2063
2063
2063
2063
2061
2061
2061
2063
2063
2063
2060
2060
2060
2063
2063
2063
2062
2062
2062
2062
2062
2062
2062
2063
2063
2063
2062
2062
2062
2066
2066
2066
2063
2063
2063
2063
2064
2064
2064
2061
2061
2061
2062
2062
2062
2064
2064
2064
2058
2058
2058
2058
2062
2062
2062
2061
2061
2061
2060
2060
2060
2063
2063
2063
2057
2057
2057
2057
2062
2062
2062
2063
2063
2063
2063
2063
2063
2064
2064
2064
2063
2063
2063
2063
2062
2062
2062
2062
2062
2062
2062
2062
2062
2064
2064
2064
2057
2057
2057
2057
2064
2064
2064
2063
2063
2063
2063
2063
2063
2064
2064
2064
2061
2061
2061
2061
2062
2062
2062
2063
2063
2063
2060
2060
2060
2064
2064
2064
2057
2057
2057
2057
2063
2063
2063
2065
2065
2065
2061
2061
2061
2064
2064
2064
2065
2065
2065
2065
2059
2059
2059
2062
2062
2062
2061
2061
2061
2061
2061
2061
2064
2064
2064
2064
2059
2059
2059
2061
2061
2061
2062
2062
2062
2065
2065
2065
2062
2062
2062
2062
2064
2064
2064
2063
2063
2063
2063
2063
2063
2065
2065
2065
2057
2057
2057
2057
2062
2062
2062
2062
2062
2062
2061
2061
2061
2064
2064
2064
2062
2062
2062
2062
2061
2061
2061
2062
2062
2062
2062
2062
2062
2062
2062
2062
2066
2066
2066
2066
2060
2060
2060
2061
2061
2061
2061
2061
2061
2061
2061
2061
2061
2061
2061
2061
2064
2064
2064
2063
2063
2063
2063
2063
2063
2065
2065
2065
2060
2060
2060
2060
2060
2060
2060
2061
2061
2061
2062
2062
2062
2060
2060
2060
2063
2063
2063
2063
2062
2062
2062
2060
2060
2060
2061
2061
2061
2060
2060
2060
2062
2062
2062
2062
2063
2063
2063
2064
2064
2064
2061
2061
2061
2060
2060
2060
2065
2065
2065
2065
2061
2061
2061
2062
2062
2062
2058
2058
2058
2057
2057
2057
2060
2060
2060
2060
2061
2061
2061
2062
2062
2062
2063
2063
2063
2064
2064
2064
2060
2060
2060
2060
2063
2063
2063
2058
2058
2058
2059
2059
2059
2065
2065
2065
2062
2062
2062
2062
2062
2062
2062
2062
2062
2062
2062
2062
2062
2063
2063
2063
2064
2064
2064
2064
2064
2064
2064
2063
2063
2063
2061
2061
2061
2060
2060
2060
2060
2060
2060
2060
2064
2064
2064
2065
2065
2065
2061
2061
2061
2062
2062
2062
2062
2062
2062
2062
2058
2058
2058
2064
2064
2064
2061
2061
2061
2064
2064
2064
2062
2062
2062
2062
2064
2064
2064
2063
2063
2063
2063
2063
2063
2064
2064
2064
2062
2062
2062
2062
2062
2062
2062
2061
2061
2061
2061
2061
2061
2062
2062
2062
2062
2062
2062
2062
2060
2060
2060
2061
2061
2061
2061
2061
2061
2063
2063
2063
2061
2061
2061
2061
2061
2061
2061
2061
2061
2061
2063
2063
2063
2062
2062
2062
2060
2060
2060
2060
2062
2062
2062
2059
2059
2059
2061
2061
2061
2062
2062
2062
2062
2062
2062
2062
2060
2060
2060
2062
2062
2062
2062
2062
2062
2063
2063
2063
2060
2060
2060
2060
2063
2063
2063
2064
2064
2064
2061
2061
2061
2060
2060
2060
2066
2066
2066
2066
2062
2062
2062
2060
2060
2060
2065
2065
2065
2065
2065
2065
2061
2061
2061
2061
2061
2061
2061
2063
2063
2063
2065
2065
2065
2061
2061
2061
2064
2064
2064
2064
2060
2060
2060
2062
2062
2062
2061
2061
2061
2062
2062
2062
2061
2061
2061
2061
2058
2058
2058
2063
2063
2063
2064
2064
2064
2062
2062
2062
2061
2061
2061
2061
2060
2060
2060
2061
2061
2061
2062
2062
2062
2064
2064
2064
2060
2060
2060
2060
2062
2062
2062
2061
2061
2061
2062
2062
2062
2062
2062
2062
2062
2062
2062
2062
2060
2060
2060
2061
2061
2061
2064
2064
2064
2063
2063
2063
2062
2062
2062
2062
2060
2060
2060
2066
2066
2066
2064
2064
2064
2061
2061
2061
2066
2066
2066
2066
2060
2060
2060
2060
2060
2060
2061
2061
2061
2061
2061
2061
2061
2061
2061
2061
2061
2061
2061
2063
2063
2063
2061
2061
2061
2060
2060
2060
2064
2064
2064
2064
2060
2060
2060
2064
2064
2064
2062
2062
2062
2066
2066
2066
2063
2063
2063
2063
2059
2059
2059
2064
2064
2064
2066
2066
2066
2066
2066
2066
2062
2062
2062
2062
2060
2060
2060
2063
2063
2063
2061
2061
2061
2064
2064
2064
2061
2061
2061
2061
2062
2062
2062
2063
2063
2063
2059
2059
2059
2061
2061
2061
2063
2063
2063
2063
2065
2065
2065
2060
2060
2060
2059
2059
2059
2060
2060
2060
2061
2061
2061
2061
2061
2061
2061
2063
2063
2063
2062
2062
2062
2062
2062
2062
2060
2060
2060
2060
2062
2062
2062
2060
2060
2060
2060
2060
2060
2065
2065
2065
2063
2063
2063
2063
2061
2061
2061
2063
2063
2063
2060
2060
2060
2062
2062
2062
2061
2061
2061
2061
2061
2061
2061
2061
2061
2061
2064
2064
2064
2060
2060
2060
2059
2059
2059
2059
2061
2061
2061
2063
2063
2063
2064
2064
2064
2060
2060
2060
2060
2060
2060
2060
2058
2058
2058
2066
2066
2066
2061
2061
2061
2060
2060
2060
2061
2061
2061
2061
2058
2058
2058
2061
2061
2061
2059
2059
2059
2060
2060
2060
2063
2063
2063
2063
2060
2060
2060
2060
2060
2060
2062
2062
2062
2061
2061
2061
2063
2063
2063
2063
2061
2061
2061
2064
2064
2064
2063
2063
2063
2063
2063
2063
2064
2064
2064
2064
2062
2062
2062
2061
2061
2061
2062
2062
2062
2061
2061
2061
2060
2060
2060
2060
2060
2060
2060
2062
2062
2062
2060
2060
2060
2067
2067
2067
2061
2061
2061
2061
2059
2059
2059
2056
2056
2056
2062
2062
2062
2063
2063
2063
2061
2061
2061
2061
2059
2059
2059
2064
2064
2064
2062
2062
2062
2065
2065
2065
2061
2061
2061
2061
2061
2061
2061
2064
2064
2064
2060
2060
2060
2063
2063
2063
2063
2063
2063
2063
2062
2062
2062
2063
2063
2063
2062
2062
2062
2062
2062
2062
2066
2066
2066
2066
2060
2060
2060
2061
2061
2061
2061
2061
2061
2063
2063
2063
2065
2065
2065
2065
2062
2062
2062
2061
2061
2061
2062
2062
2062
2062
2062
2062
2064
2064
2064
2064
2061
2061
2061
2060
2060
2060
2062
2062
2062
2066
2066
2066
2061
2061
2061
2061
2058
2058
2058
2062
2062
2062
2059
2059
2059
2064
2064
2064
2063
2063
2063
2063
2061
2061
2061
2062
2062
2062
2062
2062
2062
2061
2061
2061
2063
2063
2063
2063
2061
2061
2061
2066
2066
2066
2060
2060
2060
2061
2061
2061
2062
2062
2062
2062
2062
2062
2062
2067
2067
2067
2061
2061
2061
2061
2061
2061
2059
2059
2059
2059
2051
2051
2051
2056
2056
2056
2059
2059
2059
2061
2061
2061
2061
2061
2061
2061
2062
2062
2062
2059
2059
2059
2059
2059
2059
2063
2063
2063
2060
2060
2060
2060
2060
2060
2060
2062
2062
2062
2062
2062
2062
2062
2062
2062
2060
2060
2060
2060
2059
2059
2059
2064
2064
2064
2063
2063
2063
2063
2063
2063
2063
2063
2063
2063
2060
2060
2060
2062
2062
2062
2062
2062
2062
2061
2061
2061
2063
2063
2063
2063
2061
2061
2061
2063
2063
2063
2062
2062
2062
2065
2065
2065
2061
2061
2061
2061
2060
2060
2060
2063
2063
2063
2061
2061
2061
2062
2062
2062
2060
2060
2060
2060
2060
2060
2060
2063
2063
2063
2062
2062
2062
2063
2063
2063
2063
2063
2063
2063
2060
2060
2060
2062
2062
2062
2061
2061
2061
2066
2066
2066
2065
2065
2065
2065
2061
2061
2061
2062
2062
2062
2063
2063
2063
2057
2057
2057
2062
2062
2062
2062
2059
2059
2059
2062
2062
2062
2057
2057
2057
2059
2059
2059
2061
2061
2061
2061
2060
2060
2060
2064
2064
2064
2063
2063
2063
2061
2061
2061
2063
2063
2063
2063
2062
2062
2062
2066
2066
2066
2060
2060
2060
2062
2062
2062
2064
2064
2064
2064
2060
2060
2060
2061
2061
2061
2058
2058
2058
2064
2064
2064
2062
2062
2062
2062
2058
2058
2058
2063
2063
2063
2062
2062
2062
2062
2062
2062
2062
2062
2062
2062
2063
2063
2063
2060
2060
2060
2060
2060
2060
2066
2066
2066
2064
2064
2064
2064
2058
2058
2058
2059
2059
2059
2061
2061
2061
2064
2064
2064
2060
2060
2060
2060
2063
2063
2063
2059
2059
2059
2062
2062
2062
2064
2064
2064
2062
2062
2062
2062
2061
2061
2061
2061
2061
2061
2063
2063
2063
2063
2063
2063
2061
2061
2061
2061
2061
2061
2061
2063
2063
2063
2062
2062
2062
2062
2062
2062
2065
2065
2065
2065
2060
2060
2060
2060
2060
2060
2066
2066
2066
2063
2063
2063
2059
2059
2059
2059
2062
2062
2062
2064
2064
2064
2059
2059
2059
2060
2060
2060
2062
2062
2062
2062
2059
2059
2059
2061
2061
2061
2065
2065
2065
2063
2063
2063
2061
2061
2061
2061
2056
2056
2056
2061
2061
2061
2062
2062
2062
2061
2061
2061
2062
2062
2062
2062
2060
2060
2060
2062
2062
2062
2062
2062
2062
2062
2062
2062
2061
2061
2061
2061
2060
2060
2060
2064
2064
2064
2062
2062
2062
2063
2063
2063
2059
2059
2059
2059
2061
2061
2061
2062
2062
2062
2062
2062
2062
2062
2062
2062
2065
2065
2065
2065
2062
2062
2062
2062
2062
2062
2061
2061
2061
2063
2063
2063
2064
2064
2064
2064
2062
2062
2062
2062
2062
2062
2061
2061
2061
2059
2059
2059
2066
2066
2066
2066
2062
2062
2062
2064
2064
2064
2061
2061
2061
2064
2064
2064
2059
2059
2059
2059
2061
2061
2061
2061
2061
2061
2060
2060
2060
2062
2062
2062
2065
2065
2065
2065
2061
2061
2061
2065
2065
2065
2061
2061
2061
2061
2061
2061
2061
2061
2061
2061
2060
2060
2060
2064
2064
2064
2060
2060
2060
2066
2066
2066
2061
2061
2061
2061
2059
2059
2059
2061
2061
2061
2063
2063
2063
2063
2063
2063
2061
2061
2061
2061
2059
2059
2059
2059
2059
2059
2061
2061
2061
2066
2066
2066
2062
2062
2062
2062
2058
2058
2058
2062
2062
2062
2061
2061
2061
2064
2064
2064
2063
2063
2063
2063
2062
2062
2062
2058
2058
2058
2061
2061
2061
2062
2062
2062
2061
2061
2061
2061
2061
2061
2061
2062
2062
2062
2060
2060
2060
2062
2062
2062
2059
2059
2059
2059
2061
2061
2061
2063
2063
2063
2062
2062
2062
2063
2063
2063
2064
2064
2064
2064
2060
2060
2060
2063
2063
2063
2062
2062
2062
2062
2062
2062
2065
2065
2065
2065
2061
2061
2061
2062
2062
2062
2062
2062
2062
2063
2063
2063
2063
2063
2063
2063
2062
2062
2062
2061
2061
2061
2063
2063
2063
2064
2064
2064
2060
2060
2060
2060
2062
2062
2062
2060
2060
2060
2067
2067
2067
2063
2063
2063
2061
2061
2061
2061
2061
2061
2061
2062
2062
2062
2065
2065
2065
2062
2062
2062
2062
2062
2062
2062
2064
2064
2064
2067
2067
2067
2057
2057
2057
2061
2061
2061
2061
2061
2061
2061
2063
2063
2063
2060
2060
2060
2062
2062
2062
2060
2060
2060
2061
2061
2061
2061
2061
2061
2061
2063
2063
2063
2062
2062
2062
2062
2062
2062
2062
2062
2062
2062
2060
2060
2060
2063
2063
2063
2062
2062
2062
2063
2063
2063
2065
2065
2065
2065
2061
2061
2061
2061
2061
2061
2062
2062
2062
2062
2062
2062
2061
2061
2061
2061
2059
2059
2059
2062
2062
2062
2063
2063
2063
2064
2064
2064
2060
2060
2060
2060
2061
2061
2061
2061
2061
2061
2060
2060
2060
2062
2062
2062
2061
2061
2061
2061
2061
2061
2061
2062
2062
2062
2062
2062
2062
2062
2062
2062
2066
2066
2066
2066
2059
2059
2059
2063
2063
2063
2062
2062
2062
2061
2061
2061
2060
2060
2060
2060
2061
2061
2061
2065
2065
2065
2062
2062
2062
2059
2059
2059
2065
2065
2065
2065
2061
2061
2061
2059
2059
2059
2063
2063
2063
2060
2060
2060
2063
2063
2063
2063
2064
2064
2064
2064
2064
2064
2060
2060
2060
2065
2065
2065
2061
2061
2061
2061
2062
2062
2062
2060
2060
2060
2060
2060
2060
2063
2063
2063
2063
2063
2063
2063
2063
2063
2063
2062
2062
2062
2065
2065
2065
2062
2062
2062
2062
2062
2062
2062
2059
2059
2059
2063
2063
2063
2064
2064
2064
2065
2065
2065
2063
2063
2063
2063
2060
2060
2060
2061
2061
2061
2060
2060
2060
2063
2063
2063
2062
2062
2062
2062
2059
2059
2059
2060
2060
2060
2061
2061
2061
2062
2062
2062
2063
2063
2063
2063
2059
2059
2059
2061
2061
2061
2061
2061
2061
2063
2063
2063
2062
2062
2062
2062
2062
2062
2062
2063
2063
2063
2062
2062
2062
2061
2061
2061
2060
2060
2060
2060
2061
2061
2061
2062
2062
2062
2059
2059
2059
2065
2065
2065
2065
2065
2065
2065
2063
2063
2063
2063
2063
2063
2061
2061
2061
2063
2063
2063
2060
2060
2060
2060
2062
2062
2062
2062
2062
2062
2060
2060
2060
2062
2062
2062
2060
2060
2060
2060
2065
2065
2065
2064
2064
2064
2062
2062
2062
2063
2063
2063
2061
2061
2061
2061
2059
2059
2059
2063
2063
2063
2063
2063
2063
2062
2062
2062
2062
2062
2062
2062
2058
2058
2058
2062
2062
2062
2060
2060
2060
2063
2063
2063
2062
2062
2062
2062
2061
2061
2061
2062
2062
2062
2062
2062
2062
2061
2061
2061
2063
2063
2063
2063
2062
2062
2062
2062
2062
2062
2061
2061
2061
2063
2063
2063
2064
2064
2064
2064
2062
2062
2062
2061
2061
2061
2060
2060
2060
2063
2063
2063
2066
2066
2066
2066
2060
2060
2060
2063
2063
2063
2063
2063
2063
2061
2061
2061
2066
2066
2066
2066
2061
2061
2061
2064
2064
2064
2057
2057
2057
2064
2064
2064
2061
2061
2061
2061
2060
2060
2060
2062
2062
2062
2059
2059
2059
2065
2065
2065
2062
2062
2062
2062
2060
2060
2060
2064
2064
2064
2066
2066
2066
2064
2064
2064
2059
2059
2059
2059
2064
2064
2064
2061
2061
2061
2063
2063
2063
2060
2060
2060
2061
2061
2061
2061
2059
2059
2059
2060
2060
2060
2062
2062
2062
2061
2061
2061
2062
2062
2062
2062
2061
2061
2061
2065
2065
2065
2061
2061
2061
2061
2061
2061
2063
2063
2063
2063
2062
2062
2062
2064
2064
2064
2063
2063
2063
2060
2060
2060
2061
2061
2061
2061
2065
2065
2065
2061
2061
2061
2059
2059
2059
2062
2062
2062
2062
2062
2062
2062
2061
2061
2061
2060
2060
2060
2058
2058
2058
2063
2063
2063
2062
2062
2062
2062
2061
2061
2061
2062
2062
2062
2061
2061
2061
2060
2060
2060
2063
2063
2063
2063
2061
2061
2061
2065
2065
2065
2059
2059
2059
2062
2062
2062
2063
2063
2063
2063
2057
2057
2057
2060
2060
2060
2061
2061
2061
2062
2062
2062
2062
2062
2062
2062
2062
2062
2062
2060
2060
2060
2063
2063
2063
2062
2062
2062
2062
2062
2062
2062
2065
2065
2065
2062
2062
2062
2061
2061
2061
2063
2063
2063
2061
2061
2061
2061
2061
2061
2061
2063
2063
2063
2065
2065
2065
2063
2063
2063
2062
2062
2062
2062
2061
2061
2061
2063
2063
2063
2062
2062
2062
2061
2061
2061
2063
2063
2063
2063
2062
2062
2062
2061
2061
2061
2061
2061
2061
2063
2063
2063
2060
2060
2060
2060
2062
2062
2062
2063
2063
2063
2061
2061
2061
2062
2062
2062
2057
2057
2057
2057
2063
2063
2063
2062
2062
2062
2065
2065
2065
2060
2060
2060
2062
2062
2062
2062
2062
2062
2062
2063
2063
2063
2059
2059
2059
2066
2066
2066
2064
2064
2064
2064
2060
2060
2060
2062
2062
2062
2063
2063
2063
2062
2062
2062
2064
2064
2064
2064
2065
2065
2065
2063
2063
2063
2063
2063
2063
2061
2061
2061
2062
2062
2062
2062
2062
2062
2062
2064
2064
2064
2055
2055
2055
2062
2062
2062
2060
2060
2060
2060
2063
2063
2063
2061
2061
2061
2063
2063
2063
2065
2065
2065
2063
2063
2063
2063
2061
2061
2061
2062
2062
2062
2060
2060
2060
2064
2064
2064
2062
2062
2062
2062
2059
2059
2059
2063
2063
2063
2062
2062
2062
2066
2066
2066
2064
2064
2064
2064
2059
2059
2059
2062
2062
2062
2064
2064
2064
2062
2062
2062
2064
2064
2064
2064
2059
2059
2059
2063
2063
2063
2061
2061
2061
2063
2063
2063
2063
2063
2063
2063
2061
2061
2061
2058
2058
2058
2063
2063
2063
2060
2060
2060
2061
2061
2061
2061
2060
2060
2060
2064
2064
2064
2063
2063
2063
2062
2062
2062
2060
2060
2060
2060
2059
2059
2059
2061
2061
2061
2061
2061
2061
2061
2061
2061
2062
2062
2062
2062
2059
2059
2059
2063
2063
2063
2064
2064
2064
2064
2064
2064
2061
2061
2061
2061
2061
2061
2061
2059
2059
2059
2060
2060
2060
2063
2063
2063
2061
2061
2061
2061
2060
2060
2060
2062
2062
2062
2062
2062
2062
2063
2063
2063
2059
2059
2059
2059
2061
2061
2061
2059
2059
2059
2060
2060
2060
2061
2061
2061
2056
2056
2056
2056
2061
2061
2061
2062
2062
2062
2060
2060
2060
2068
2068
2068
2061
2061
2061
2061
2062
2062
2062
2062
2062
2062
2058
2058
2058
2066
2066
2066
2062
2062
2062
2062
2060
2060
2060
2064
2064
2064
2065
2065
2065
2061
2061
2061
2063
2063
2063
2063
2062
2062
2062
2061
2061
2061
2063
2063
2063
2063
2063
2063
2062
2062
2062
2062
2063
2063
2063
2063
2063
2063
2060
2060
2060
2061
2061
2061
2064
2064
2064
2064
2061
2061
2061
2063
2063
2063
2062
2062
2062
2063
2063
2063
2064
2064
2064
2064
2060
2060
2060
2064
2064
2064
2062
2062
2062
2061
2061
2061
2063
2063
2063
2063
2062
2062
2062
2062
2062
2062
2063
2063
2063
2065
2065
2065
2065
2065
2065
2065
2061
2061
2061
2062
2062
2062
2066
2066
2066
2058
2058
2058
2060
2060
2060
2060
2060
2060
2060
2058
2058
2058
2064
2064
2064
2062
2062
2062
2062
2062
2062
2062
2058
2058
2058
2064
2064
2064
2064
2064
2064
2064
2064
2064
2063
2063
2063
2063
2065
2065
2065
2064
2064
2064
2062
2062
2062
2063
2063
2063
2061
2061
2061
2061
2061
2061
2061
2061
2061
2061
2061
2061
2061
2062
2062
2062
2061
2061
2061
2061
2061
2061
2061
2062
2062
2062
2063
2063
2063
2061
2061
2061
2062
2062
2062
2062
2059
2059
2059
2063
2063
2063
2060
2060
2060
2063
2063
2063
2062
2062
2062
2062
2061
2061
2061
2055
2055
2055
2061
2061
2061
2064
2064
2064
2065
2065
2065
2065
2062
2062
2062
2062
2062
2062
2064
2064
2064
2063
2063
2063
2066
2066
2066
2066
2062
2062
2062
2062
2062
2062
2063
2063
2063
2061
2061
2061
2061
2061
2061
2061
2063
2063
2063
2061
2061
2061
2059
2059
2059
2061
2061
2061
2061
2061
2061
2061
2062
2062
2062
2062
2062
2062
2061
2061
2061
2061
2061
2061
2060
2060
2060
2060
2056
2056
2056
2060
2060
2060
2065
2065
2065
2060
2060
2060
2065
2065
2065
2065
2062
2062
2062
2064
2064
2064
2061
2061
2061
2060
2060
2060
2063
2063
2063
2063
2062
2062
2062
2061
2061
2061
2059
2059
2059
2062
2062
2062
2064
2064
2064
2064
2062
2062
2062
2063
2063
2063
2063
2063
2063
2060
2060
2060
2060
2060
2060
2060
2061
2061
2061
2064
2064
2064
2060
2060
2060
2064
2064
2064
2064
2064
2064
2064
2061
2061
2061
2062
2062
2062
2060
2060
2060
2065
2065
2065
2064
2064
2064
2064
2060
2060
2060
2064
2064
2064
2061
2061
2061
2062
2062
2062
2063
2063
2063
2063
2064
2064
2064
2060
2060
2060
2066
2066
2066
2062
2062
2062
2063
2063
2063
2063
2060
2060
2060
2062
2062
2062
2062
2062
2062
2063
2063
2063
2062
2062
2062
2062
2059
2059
2059
2063
2063
2063
2061
2061
2061
2064
2064
2064
2061
2061
2061
2061
2064
2064
2064
2060
2060
2060
2063
2063
2063
2061
2061
2061
2063
2063
2063
2063
2059
2059
2059
2063
2063
2063
2060
2060
2060
2061
2061
2061
2064
2064
2064
2064
2057
2057
2057
2063
2063
2063
2063
2063
2063
2063
2063
2063
2064
2064
2064
2064
2062
2062
2062
2064
2064
2064
2058
2058
2058
2062
2062
2062
2062
2062
2062
2062
2062
2062
2062
2062
2062
2062
2059
2059
2059
2064
2064
2064
2062
2062
2062
2062
2062
2062
2062
2065
2065
2065
2062
2062
2062
2062
2062
2062
2061
2061
2061
2061
2059
2059
2059
2062
2062
2062
2062
2062
2062
2062
2062
2062
2063
2063
2063
2063
2061
2061
2061
2061
2061
2061
2062
2062
2062
2063
2063
2063
2063
2063
2063
2063
2062
2062
2062
2065
2065
2065
2061
2061
2061
2061
2061
2061
2066
2066
2066
2066
2060
2060
2060
2062
2062
2062
2064
2064
2064
2062
2062
2062
2061
2061
2061
2061
2061
2061
2061
2064
2064
2064
2060
2060
2060
2060
2060
2060
2062
2062
2062
2062
2061
2061
2061
2061
2061
2061
2058
2058
2058
2064
2064
2064
2061
2061
2061
2061
2064
2064
2064
2062
2062
2062
2063
2063
2063
2062
2062
2062
2062
2062
2062
2062
2058
2058
2058
2061
2061
2061
2062
2062
2062
2061
2061
2061
2064
2064
2064
2064
2059
2059
2059
2065
2065
2065
2062
2062
2062
2062
2062
2062
2060
2060
2060
2060
2061
2061
2061
2063
2063
2063
2063
2063
2063
2065
2065
2065
2060
2060
2060
2060
2060
2060
2060
2061
2061
2061
2061
2061
2061
2061
2061
2061
2055
2055
2055
2055
2060
2060
2060
2065
2065
2065
2062
2062
2062
2061
2061
2061
2062
2062
2062
2062
2060
2060
2060
2063
2063
2063
2064
2064
2064
2061
2061
2061
2061
2061
2061
2061
2062
2062
2062
2061
2061
2061
2060
2060
2060
2060
2060
2060
2066
2066
2066
2066
2054
2054
2054
2062
2062
2062
2062
2062
2062
2064
2064
2064
2061
2061
2061
2061
2059
2059
2059
2061
2061
2061
2061
2061
2061
2066
2066
2066
2060
2060
2060
2060
2059
2059
2059
2063
2063
2063
2060
2060
2060
2060
2060
2060
2062
2062
2062
2062
2062
2062
2062
2064
2064
2064
2059
2059
2059
2061
2061
2061
2063
2063
2063
2063
2062
2062
2062
2060
2060
2060
2062
2062
2062
2062
2062
2062
2065
2065
2065
2065
2061
2061
2061
2061
2061
2061
2063
2063
2063
2057
2057
2057
2063
2063
2063
2063
2062
2062
2062
2062
2062
2062
2061
2061
2061
2063
2063
2063
2063
2063
2063
2063
2062
2062
2062
2059
2059
2059
2060
2060
2060
2065
2065
2065
2061
2061
2061
2061
2059
2059
2059
2062
2062
2062
2060
2060
2060
2060
2060
2060
2059
2059
2059
2059
2062
2062
2062
2064
2064
2064
2058
2058
2058
2062
2062
2062
2061
2061
2061
2061
2064
2064
2064
2059
2059
2059
2059
2059
2059
2063
2063
2063
2063
2063
2063
2063
2059
2059
2059
2061
2061
2061
2060
2060
2060
2063
2063
2063
2060
2060
2060
2060
2062
2062
2062
2061
2061
2061
2059
2059
2059
2067
2067
2067
2067
2067
2067
2067
2060
2060
2060
2063
2063
2063
2066
2066
2066
2065
2065
2065
2062
2062
2062
2062
2061
2061
2061
2061
2061
2061
2061
2061
2061
2062
2062
2062
2063
2063
2063
2063
2059
2059
2059
2063
2063
2063
2062
2062
2062
2063
2063
2063
2060
2060
2060
2060
2065
2065
2065
2064
2064
2064
2062
2062
2062
2062
2062
2062
2063
2063
2063
2063
2059
2059
2059
2060
2060
2060
2061
2061
2061
2062
2062
2062
2062
2062
2062
2062
2059
2059
2059
2061
2061
2061
2062
2062
2062
2062
2062
2062
2061
2061
2061
2061
2063
2063
2063
2064
2064
2064
2062
2062
2062
2065
2065
2065
2063
2063
2063
2063
2061
2061
2061
2063
2063
2063
2063
2063
2063
2063
2063
2063
2061
2061
2061
2061
2061
2061
2061
2066
2066
2066
2061
2061
2061
2061
2061
2061
2063
2063
2063
2063
2055
2055
2055
2060
2060
2060
2063
2063
2063
2062
2062
2062
2063
2063
2063
2063
2061
2061
2061
2064
2064
2064
2063
2063
2063
2061
2061
2061
2061
2061
2061
2061
2059
2059
2059
2063
2063
2063
2062
2062
2062
2061
2061
2061
2062
2062
2062
2062
2060
2060
2060
2062
2062
2062
2061
2061
2061
2061
2061
2061
2061
2061
2061
2061
2060
2060
2060
2062
2062
2062
2061
2061
2061
2061
2061
2061
2063
2063
2063
2063
2060
2060
2060
2061
2061
2061
2060
2060
2060
2056
2056
2056
2059
2059
2059
2059
2063
2063
2063
2060
2060
2060
2055
2055
2055
2063
2063
2063
2062
2062
2062
2062
2058
2058
2058
2060
2060
2060
2061
2061
2061
2062
2062
2062
2062
2062
2062
2062
2061
2061
2061
2061
2061
2061
2062
2062
2062
2061
2061
2061
2062
2062
2062
2062
2063
2063
2063
2063
2063
2063
2063
2063
2063
2063
2063
2063
2061
2061
2061
2061
2061
2061
2061
2062
2062
2062
2062
2062
2062
2062
2062
2062
2061
2061
2061
2061
2059
2059
2059
2063
2063
2063
2061
2061
2061
2064
2064
2064
2062
2062
2062
2062
2061
2061
2061
2062
2062
2062
2060
2060
2060
2059
2059
2059
2062
2062
2062
2062
2061
2061
2061
2060
2060
2060
2063
2063
2063
2064
2064
2064
2062
2062
2062
2062
2056
2056
2056
2065
2065
2065
2063
2063
2063
2062
2062
2062
2063
2063
2063
2063
2064
2064
2064
2063
2063
2063
2061
2061
2061
2062
2062
2062
2061
2061
2061
2061
2062
2062
2062
2061
2061
2061
2061
2061
2061
2062
2062
2062
2061
2061
2061
2061
2060
2060
2060
2063
2063
2063
2062
2062
2062
2061
2061
2061
2062
2062
2062
2062
2059
2059
2059
2062
2062
2062
2060
2060
2060
2064
2064
2064
2060
2060
2060
2060
2059
2059
2059
2062
2062
2062
2062
2062
2062
2062
2062
2062
2063
2063
2063
2063
2058
2058
2058
2061
2061
2061
2062
2062
2062
2060
2060
2060
2064
2064
2064
2064
2062
2062
2062
2058
2058
2058
2064
2064
2064
2063
2063
2063
2061
2061
2061
2061
2067
2067
2067
2060
2060
2060
2062
2062
2062
2061
2061
2061
2062
2062
2062
2062
2061
2061
2061
2062
2062
2062
2060
2060
2060
2062
2062
2062
2064
2064
2064
2064
2062
2062
2062
2062
2062
2062
2060
2060
2060
2063
2063
2063
2061
2061
2061
2061
2059
2059
2059
2062
2062
2062
2063
2063
2063
2061
2061
2061
2058
2058
2058
2058
2060
2060
2060
2061
2061
2061
2062
2062
2062
2066
2066
2066
2063
2063
2063
2063
2059
2059
2059
2062
2062
2062
2056
2056
2056
2062
2062
2062
2064
2064
2064
2064
2064
2064
2064
2059
2059
2059
2064
2064
2064
2060
2060
2060
2060
2060
2060
2060
2064
2064
2064
2061
2061
2061
2061
2061
2061
2066
2066
2066
2063
2063
2063
2063
2058
2058
2058
2060
2060
2060
2062
2062
2062
2061
2061
2061
2062
2062
2062
2062
2059
2059
2059
2062
2062
2062
2063
2063
2063
2061
2061
2061
2062
2062
2062
2062
2059
2059
2059
2062
2062
2062
2059
2059
2059
2061
2061
2061
2062
2062
2062
2062
2062
2062
2062
2061
2061
2061
2059
2059
2059
2061
2061
2061
2059
2059
2059
2059
2062
2062
2062
2064
2064
2064
2062
2062
2062
2061
2061
2061
2059
2059
2059
2059
2064
2064
2064
2063
2063
2063
2062
2062
2062
2062
2062
2062
2062
2062
2062
2062
2063
2063
2063
2060
2060
2060
2062
2062
2062
2062
2062
2062
2062
2062
2062
2062
2062
2062
2062
2066
2066
2066
2060
2060
2060
2062
2062
2062
2064
2064
2064
2064
2058
2058
2058
2061
2061
2061
2062
2062
2062
2061
2061
2061
2063
2063
2063
2063
2060
2060
2060
2062
2062
2062
2062
2062
2062
2062
2062
2062
2061
2061
2061
2061
2063
2063
2063
2062
2062
2062
2063
2063
2063
2062
2062
2062
2056
2056
2056
2056
2063
2063
2063
2061
2061
2061
2062
2062
2062
2065
2065
2065
2061
2061
2061
2061
2060
2060
2060
2063
2063
2063
2063
2063
2063
2061
2061
2061
2063
2063
2063
2063
2061
2061
2061
2055
2055
2055
2061
2061
2061
2062
2062
2062
2063
2063
2063
2063
2065
2065
2065
2063
2063
2063
2060
2060
2060
2061
2061
2061
2060
2060
2060
2060
2063
2063
2063
2063
2063
2063
2062
2062
2062
2063
2063
2063
2061
2061
2061
2061
2064
2064
2064
2063
2063
2063
2063
2063
2063
2061
2061
2061
2063
2063
2063
2063
2061
2061
2061
2063
2063
2063
2061
2061
2061
2063
2063
2063
2062
2062
2062
2062
2061
2061
2061
2061
2061
2061
2062
2062
2062
2063
2063
2063
2060
2060
2060
2060
2061
2061
2061
2061
2061
2061
2063
2063
2063
2059
2059
2059
2061
2061
2061
2061
2059
2059
2059
2061
2061
2061
2063
2063
2063
2063
2063
2063
2060
2060
2060
2060
2059
2059
2059
2063
2063
2063
2062
2062
2062
2062
2062
2062
2059
2059
2059
2059
2059
2059
2059
2061
2061
2061
2060
2060
2060
2064
2064
2064
2063
2063
2063
2063
2061
2061
2061
2062
2062
2062
2061
2061
2061
2062
2062
2062
2062
2062
2062
2062
2061
2061
2061
2061
2061
2061
2062
2062
2062
2061
2061
2061
2062
2062
2062
2062
2063
2063
2063
2062
2062
2062
2065
2065
2065
2058
2058
2058
2059
2059
2059
2059
2059
2059
2059
2061
2061
2061
2063
2063
2063
2062
2062
2062
2061
2061
2061
2061
2061
2061
2061
2065
2065
2065
2063
2063
2063
2062
2062
2062
2060
2060
2060
2060
2064
2064
2064
2063
2063
2063
2060
2060
2060
2061
2061
2061
2061
2061
2061
2061
2059
2059
2059
2063
2063
2063
2060
2060
2060
2056
2056
2056
2062
2062
2062
2062
2061
2061
2061
2061
2061
2061
2061
2061
2061
2062
2062
2062
2061
2061
2061
2061
2063
2063
2063
2063
2063
2063
2062
2062
2062
2066
2066
2066
2062
2062
2062
2062
2062
2062
2062
2062
2062
2062
2063
2063
2063
2063
2063
2063
2065
2065
2065
2065
2057
2057
2057
2063
2063
2063
2062
2062
2062
2057
2057
2057
2059
2059
2059
2059
2062
2062
2062
2060
2060
2060
2052
2052
2052
2063
2063
2063
2063
2063
2063
2063
2058
2058
2058
2056
2056
2056
