2049
2045
2045
2045
2051
2051
2051
2048
2048
2048
2050
2050
2050
2050
2049
2049
2049
2046
2046
2046
2049
2049
2049
2046
2046
2046
2051
2051
2051
2051
2048
2048
2048
2045
2045
2045
2051
2051
2051
2046
2046
2046
2050
2050
2050
2050
2051
2051
2051
2045
2045
2045
2049
2049
2049
2046
2046
2046
2052
2052
2052
2052
2050
2050
2050
2047
2047
2047
2049
2049
2049
2048
2048
2048
2050
2050
2050
2050
2049
2049
2049
2046
2046
2046
2049
2049
2049
2053
2053
2053
2046
2046
2046
2050
2050
2050
2050
2050
2050
2050
2045
2045
2045
2053
2053
2053
2044
2044
2044
2049
2049
2049
2049
2049
2049
2049
2045
2045
2045
2052
2052
2052
2045
2045
2045
2049
2049
2049
2049
2051
2051
2051
2045
2045
2045
2048
2048
2048
2050
2050
2050
2050
2050
2050
2050
2049
2049
2049
2046
2046
2046
2051
2051
2051
2046
2046
2046
2046
2046
2046
2046
2050
2050
2050
2043
2043
2043
2052
2052
2052
2045
2045
2045
2050
2050
2050
2050
2048
2048
2048
2045
2045
2045
2047
2047
2047
2048
2048
2048
2049
2049
2049
2049
2052
2052
2052
2044
2044
2044
2055
2055
2055
2046
2046
2046
2051
2051
2051
2051
2053
2053
2053
2045
2045
2045
2047
2047
2047
2046
2046
2046
2050
2050
2050
2050
2050
2050
2050
2041
2041
2041
2051
2051
2051
2047
2047
2047
2050
2050
2050
2050
2059
2059
2059
2042
2042
2042
2051
2051
2051
2045
2045
2045
2049
2049
2049
2049
2051
2051
2051
2043
2043
2043
2051
2051
2051
2047
2047
2047
2052
2052
2052
2052
2051
2051
2051
2040
2040
2040
2051
2051
2051
2047
2047
2047
2049
2049
2049
2049
2051
2051
2051
2043
2043
2043
2052
2052
2052
2041
2041
2041
2051
2051
2051
2051
2048
2048
2048
2047
2047
2047
2046
2046
2046
2042
2042
2042
2053
2053
2053
2053
2051
2051
2051
2049
2049
2049
2050
2050
2050
2040
2040
2040
2050
2050
2050
2050
2052
2052
2052
2044
2044
2044
2053
2053
2053
2045
2045
2045
2052
2052
2052
2052
2049
2049
2049
2047
2047
2047
2050
2050
2050
2044
2044
2044
2048
2048
2048
2048
2051
2051
2051
2047
2047
2047
2050
2050
2050
2047
2047
2047
2048
2048
2048
2048
2050
2050
2050
2043
2043
2043
2052
2052
2052
2041
2041
2041
2050
2050
2050
2050
2050
2050
2050
2048
2048
2048
2049
2049
2049
2047
2047
2047
2049
2049
2049
2049
2048
2048
2048
2048
2048
2048
2050
2050
2050
2043
2043
2043
2051
2051
2051
2051
2049
2049
2049
2046
2046
2046
2050
2050
2050
2044
2044
2044
2048
2048
2048
2048
2054
2054
2054
2046
2046
2046
2054
2054
2054
2045
2045
2045
2054
2054
2054
2054
2051
2051
2051
2046
2046
2046
2050
2050
2050
2046
2046
2046
2052
2052
2052
2052
2049
2049
2049
2045
2045
2045
2049
2049
2049
2052
2052
2052
2050
2050
2050
2050
2046
2046
2046
2045
2045
2045
2050
2050
2050
2045
2045
2045
2050
2050
2050
2050
2050
2050
2050
2045
2045
2045
2048
2048
2048
2044
2044
2044
2044
2044
2044
2044
2050
2050
2050
2045
2045
2045
2051
2051
2051
2047
2047
2047
2050
2050
2050
2050
2049
2049
2049
2045
2045
2045
2052
2052
2052
2048
2048
2048
2052
2052
2052
2052
2050
2050
2050
2046
2046
2046
2052
2052
2052
2047
2047
2047
2050
2050
2050
2050
2049
2049
2049
2045
2045
2045
2050
2050
2050
2046
2046
2046
2048
2048
2048
2048
2050
2050
2050
2039
2039
2039
2050
2050
2050
2043
2043
2043
2047
2047
2047
2047
2049
2049
2049
2046
2046
2046
2051
2051
2051
2046
2046
2046
2049
2049
2049
2049
2049
2049
2049
2046
2046
2046
2055
2055
2055
2045
2045
2045
2049
2049
2049
2049
2050
2050
2050
2048
2048
2048
2050
2050
2050
2045
2045
2045
2049
2049
2049
2049
2049
2049
2049
2047
2047
2047
2050
2050
2050
2044
2044
2044
2050
2050
2050
2050
2050
2050
2050
2044
2044
2044
2049
2049
2049
2045
2045
2045
2048
2048
2048
2048
2048
2048
2048
2049
2049
2049
2050
2050
2050
2045
2045
2045
2051
2051
2051
2051
2048
2048
2048
2046
2046
2046
2051
2051
2051
2045
2045
2045
2050
2050
2050
2050
2050
2050
2050
2044
2044
2044
2048
2048
2048
2047
2047
2047
2052
2052
2052
2052
2048
2048
2048
2047
2047
2047
2051
2051
2051
2046
2046
2046
2050
2050
2050
2050
2049
2049
2049
2047
2047
2047
2052
2052
2052
2039
2039
2039
2050
2050
2050
2050
2042
2042
2042
2046
2046
2046
2046
2046
2046
2048
2048
2048
2051
2051
2051
2051
2048
2048
2048
2044
2044
2044
2051
2051
2051
2048
2048
2048
2042
2042
2042
2042
2051
2051
2051
2047
2047
2047
2051
2051
2051
2046
2046
2046
2052
2052
2052
2052
2049
2049
2049
2046
2046
2046
2050
2050
2050
2045
2045
2045
2050
2050
2050
2050
2051
2051
2051
2044
2044
2044
2050
2050
2050
2047
2047
2047
2051
2051
2051
2051
2050
2050
2050
2049
2049
2049
2052
2052
2052
2043
2043
2043
2050
2050
2050
2050
2055
2055
2055
2045
2045
2045
2051
2051
2051
2046
2046
2046
2049
2049
2049
2049
2051
2051
2051
2046
2046
2046
2050
2050
2050
2045
2045
2045
2051
2051
2051
2051
2045
2045
2045
2050
2050
2050
2052
2052
2052
2043
2043
2043
2052
2052
2052
2052
2049
2049
2049
2048
2048
2048
2051
2051
2051
2045
2045
2045
2051
2051
2051
2051
2054
2054
2054
2046
2046
2046
2053
2053
2053
2046
2046
2046
2047
2047
2047
2047
2054
2054
2054
2045
2045
2045
2058
2058
2058
2046
2046
2046
2050
2050
2050
2050
2047
2047
2047
2045
2045
2045
2055
2055
2055
2049
2049
2049
2049
2049
2049
2049
2054
2054
2054
2044
2044
2044
2048
2048
2048
2046
2046
2046
2051
2051
2051
2051
2042
2042
2042
2046
2046
2046
2046
