2046
2046
2046
2046
2046
2046
2046
2046
2046
2046
2046
2049
2049
2049
2047
2047
2047
2047
2045
2045
2045
2047
2047
2047
2045
2045
2045
2047
2047
2047
2053
2053
2053
2053
2044
2044
2044
2047
2047
2047
2048
2048
2048
2047
2047
2047
2047
2047
2047
2047
2048
2048
2048
2046
2046
2046
2046
2046
2046
2048
2048
2048
2046
2046
2046
2046
2046
2046
2046
2052
2052
2052
2046
2046
2046
2046
2046
2046
2050
2050
2050
2050
2040
2046
2046
2045
2045
2045
2049
2049
2049
2048
2048
2048
2047
2047
2047
2048
2048
2048
2048
2046
2046
2046
2046
2046
2046
2045
2045
2045
2051
2051
2051
2044
2044
2044
2044
2040
2040
2040
2046
2046
2046
2046
2046
2046
2046
2046
2046
2044
2044
2044
2044
2049
2049
2049
2045
2045
2045
2050
2050
2050
2047
2047
2047
2048
2048
2048
2048
2047
2047
2047
2046
2046
2046
2048
2048
2048
2045
2045
2045
2049
2049
2049
2049
2042
2042
2042
2046
2046
2046
2045
2045
2045
2044
2044
2044
2052
2052
2052
2052
2046
2046
2046
2044
2044
2044
2047
2047
2047
2047
2047
2047
2046
2046
2046
2046
2047
2047
2047
2047
2047
2047
2044
2044
2044
2045
2045
2045
2047
2047
2047
2047
2045
2045
2045
2046
2046
2046
2045
2045
2045
2045
2045
2045
2041
2041
2041
2041
2046
2046
2046
2043
2043
2043
2047
2047
2047
2047
2047
2047
2046
2046
2046
2046
2050
2050
2050
2046
2046
2046
2045
2045
2045
2048
2048
2048
2048
2048
2048
2048
2039
2039
2039
2045
2045
2045
2044
2044
2044
2045
2045
2045
2046
2046
2046
2046
2050
2050
2050
2045
2045
2045
2047
2047
2047
2047
2047
2047
2047
2047
2047
2047
2047
2047
2047
2047
2047
2047
2041
2041
2041
2042
2042
2042
2047
2047
2047
2047
2051
2051
2051
2049
2049
2049
2045
2045
2045
2047
2047
2047
2042
2042
2042
2042
2044
2044
2044
2041
2041
2041
2046
2046
2046
2047
2047
2047
2046
2046
2046
2046
2047
2047
2047
2046
2046
2046
2048
2048
2048
2045
2045
2045
2048
2048
2048
2048
2046
2046
2046
2048
2048
2048
2045
2045
2045
2043
2043
2043
2048
2048
2048
2048
2048
2048
2048
2043
2043
2043
2050
2050
2050
2047
2047
2047
2045
2045
2045
2045
2046
2046
2046
2048
2048
2048
2050
2050
2050
2048
2048
2048
2046
2046
2046
2046
2042
2042
2042
2047
2047
2047
2044
2044
2044
2044
2044
2044
2046
2046
2046
2046
2046
2046
2046
2051
2051
2051
2047
2047
2047
2048
2048
2048
2042
2042
2042
2042
2046
2046
2046
2046
2046
2046
2051
2051
2051
2043
2043
2043
2042
2042
2042
2042
2045
2045
2045
2047
2047
2047
2045
2045
2045
2044
2044
2044
2041
2041
2041
2041
2045
2045
2045
2040
2040
2040
2040
2040
2040
2045
2045
2045
2042
2042
2042
2042
2044
2044
2044
2046
2046
2046
2040
2040
2040
2045
2045
2045
2048
2048
2048
2048
2042
2042
2042
2046
2046
2046
2052
2052
2052
2051
2051
2051
2051
2051
2051
2051
2045
2045
2045
2047
2047
2047
2046
2046
2046
2047
2047
2047
2045
2045
2045
2045
2046
2046
2046
2047
2047
2047
2045
2045
2045
2053
2053
2053
2049
2049
2049
2049
2040
2040
2040
2046
2046
2046
2047
2047
2047
2045
2045
2045
2050
2050
2050
2050
2046
2046
2046
2042
2042
2042
2047
2047
2047
2046
2046
2046
2049
2049
2049
2049
2049
2049
2049
2048
2048
2048
2053
2053
2053
2048
2048
2048
2048
2048
2048
2048
2047
2047
2047
2040
2040
2040
2047
2047
2047
2030
2030
2030
2050
2050
2050
2050
2046
2046
2046
2043
2043
2043
2046
2046
2046
2046
2046
2046
2042
2042
2042
2042
2046
2046
2046
2045
2045
2045
2045
2045
2045
2046
2046
2046
2048
2048
2048
2048
2047
2047
2047
2047
2047
2047
2046
2046
2046
2039
2039
2039
2047
2047
2047
2047
2048
2048
2048
2048
2048
2048
2048
2048
2048
2047
2047
2047
2051
2051
2051
2051
2048
2048
2048
2045
2045
2045
2044
2044
2044
2050
2050
2050
2046
2046
2046
2046
2047
2047
2047
2046
2046
2046
2046
2046
2046
2046
2046
2046
2045
2045
2045
2045
2046
2046
2046
2045
2045
2045
2046
2046
2046
2048
2048
2048
2043
2043
2043
2043
2048
2048
2048
2047
2047
2047
2043
2043
2043
2048
2048
2048
2045
2045
2045
2045
2046
2046
2046
2048
2048
2048
2045
2045
2045
2048
2048
2048
2047
2047
2047
2047
2047
2047
2047
2049
2049
2049
2046
2046
2046
2045
2045
2045
2043
2043
2043
2043
2047
2047
2047
2046
2046
2046
2045
2045
2045
2048
2048
2048
2044
2044
2044
2044
2047
2047
2047
2047
2047
2047
2046
2046
2046
2051
2051
2051
2046
2046
2046
2046
2046
2046
2046
2047
2047
2047
2045
2045
2045
2047
2047
2047
2051
2051
2051
2051
2046
2046
2046
2046
2046
2046
2049
2049
2049
2047
2047
2047
2046
2046
2046
2046
2045
2045
2045
2046
2046
2046
2047
2047
2047
2049
2049
2049
2045
2045
2045
2045
2047
2047
2047
2047
2047
2047
2048
2048
2048
2044
2044
2044
2050
2050
2050
2050
2050
2050
2050
2047
2047
2047
2048
2048
2048
2049
2049
2049
2047
2047
2047
2047
2046
2046
2046
2046
2046
2046
2048
2048
2048
2049
2049
2049
2047
2047
2047
2047
2046
2046
2046
2045
2045
2045
2047
2047
2047
2046
2046
2046
2041
2041
2041
2041
2048
2048
2048
2047
2047
2047
2047
2047
2047
2048
2048
2048
2044
2044
2044
2044
2047
2047
2047
2048
2048
2048
2048
2048
2048
2049
2049
2049
2045
2045
2045
2045
2046
2046
2046
2048
2048
2048
2047
2047
2047
2045
2045
2045
2054
2054
2054
2054
2045
2045
2045
2047
2047
2047
2047
2047
2047
2046
2046
2046
2043
2043
2043
2043
2047
2047
2047
2047
2047
2047
2047
2047
2047
2049
2049
2049
2045
2045
2045
2045
2043
2043
2043
