2144
2144
2143
2143
2143
2143
2143
2143
2143
2144
2144
2144
2145
2145
2145
2143
2143
2143
2143
2143
2143
2143
2143
2143
2143
2141
2141
2141
2145
2145
2145
2143
2143
2143
2144
2144
2144
2141
2141
2141
2141
2140
2140
2140
2145
2145
2145
2144
2144
2144
2145
2145
2145
2142
2142
2142
2142
2141
2141
2141
2141
2141
2141
2143
2143
2143
2145
2145
2145
2142
2142
2142
2142
2142
2142
2142
2142
2142
2142
2139
2139
2139
2142
2144
2144
2149
2149
2149
2141
2141
2141
2141
2141
2141
2141
2143
2143
2143
2144
2144
2144
2148
2148
2148
2146
2146
2146
2146
2144
2144
2144
2144
2144
2144
2144
2144
2144
2145
2145
2145
2142
2142
2142
2142
2140
2140
2140
2140
2140
2140
2143
2143
2143
2145
2145
2145
2143
2143
2143
2143
2142
2142
2142
2145
2145
2145
2144
2144
2144
2152
2152
2152
2144
2144
2144
2144
2145
2145
2145
2142
2142
2142
2143
2143
2143
2143
2143
2143
2141
2141
2141
2141
2139
2139
2139
2142
2142
2142
2144
2144
2144
2147
2147
2147
2144
2144
2144
2144
2143
2143
2143
2146
2146
2146
2149
2149
2149
2144
2144
2144
2141
2141
2141
2141
2141
2141
2141
2144
2144
2144
2140
2140
2140
2141
2141
2141
2146
2146
2146
2146
2144
2144
2144
2149
2149
2149
2142
2142
2142
2141
2141
2141
2147
2147
2147
2147
2144
2144
2144
2145
2145
2145
2142
2142
2142
2139
2139
2139
2143
2143
2143
2143
2143
2143
2143
2145
2145
2145
2143
2143
2143
2143
2143
2143
2142
2142
2142
2142
2145
2145
2145
2141
2141
2141
2146
2146
2146
2141
2141
2141
2143
2143
2143
2143
2145
2145
2145
2145
2145
2145
2141
2141
2141
2151
2151
2151
2146
2146
2146
2146
2141
2141
2141
2146
2146
2146
2135
2135
2135
2144
2144
2144
2144
2144
2144
2144
2141
2141
2141
2143
2143
2143
2143
2143
2143
2143
2143
2143
2143
2143
2143
2143
2142
2142
2142
2145
2145
2145
2139
2139
2139
2146
2146
2146
2141
2141
2141
2141
2144
2144
2144
2145
2145
2145
2145
2145
2145
2142
2142
2142
2145
2145
2145
2145
2142
2142
2142
2146
2146
2146
2139
2139
2139
2141
2141
2141
2143
2143
2143
2143
2143
2143
2143
2143
2143
2143
2141
2141
2141
2147
2147
2147
2141
2141
2141
2141
2142
2142
2142
2143
2143
2143
2145
2145
2145
2139
2139
2139
2145
2145
2145
2145
2140
2140
2140
2144
2144
2144
2143
2143
2143
2143
2143
2143
2142
2142
2142
2142
2143
2143
2143
2143
2143
2143
2145
2145
2145
2139
2139
2139
2142
2142
2142
2142
2150
2150
2150
2145
2145
2145
2143
2143
2143
2146
2146
2146
2145
2145
2145
2145
2147
2147
2147
2150
2150
2150
2142
2142
2142
2140
2140
2140
2143
2143
2143
2143
2139
2139
2139
2143
2143
2143
2140
2140
2140
2144
2144
2144
2142
2142
2142
2142
2142
2142
2142
2145
2145
2145
2143
2143
2143
2144
2144
2144
2140
2140
2140
2140
2141
2141
2141
2149
2149
2149
2142
2142
2142
2141
2141
2141
2142
2142
2142
2142
2141
2141
2141
2143
2143
2143
2141
2141
2141
2145
2145
2145
2143
2143
2143
2143
2141
2141
2141
2144
2144
2144
2140
2140
2140
2145
2145
2145
2143
2143
2143
2143
2144
2144
2144
2152
2152
2152
2142
2142
2142
2150
2150
2150
2144
2144
2144
2144
2136
2136
2136
2145
2145
2145
2143
2143
2143
2143
2143
2143
2143
2143
2143
2143
2141
2141
2141
2146
2146
2146
2145
2145
2145
2143
2143
2143
2157
2157
2157
2157
2145
2145
2145
2139
2139
2139
2144
2144
2144
2148
2148
2148
2146
2146
2146
2146
2140
2140
2140
2143
2143
2143
2143
2143
2143
2144
2144
2144
2142
2142
2142
2142
2143
2143
2143
2147
2147
2147
2146
2146
2146
2144
2144
2144
2145
2145
2145
2145
2138
2138
2138
2149
2149
2149
2144
2144
2144
2145
2145
2145
2141
2141
2141
2141
2147
2147
2147
2141
2141
2141
2147
2147
2147
2141
2141
2141
2142
2142
2142
2142
2142
2142
2142
2145
2145
2145
2139
2139
2139
2146
2146
2146
2143
2143
2143
2143
2144
2144
2144
2144
2144
2144
2142
2142
2142
2141
2141
2141
2146
2146
2146
2146
2145
2145
2145
2145
2145
2145
2144
2144
2144
2145
2145
2145
2142
2142
2142
2142
2145
2145
2145
2143
2143
2143
2151
2151
2151
2149
2149
2149
2140
2140
2140
2140
2143
2143
2143
2141
2141
2141
2141
2141
2141
2144
2144
2144
2141
2141
2141
2141
2150
2150
2150
2146
2146
2146
2145
2145
2145
2143
2143
2143
2144
2144
2144
2144
2142
2142
2142
2142
2142
2142
2139
2139
2139
2144
2144
2144
2145
2145
2145
2145
2143
2143
2143
2147
2147
2147
2140
2140
2140
2142
2142
2142
2144
2144
2144
2144
2147
2147
2147
2145
2145
2145
2144
2144
2144
2144
2144
2144
2140
2140
2140
2140
2142
2142
2142
2144
2144
2144
2142
2142
2142
2143
2143
2143
2141
2141
2141
2141
2143
2143
2143
2147
2147
2147
2145
2145
2145
2142
2142
2142
2145
2145
2145
2145
2146
2146
2146
2141
2141
2141
2143
2143
2143
2138
2138
2138
2143
2143
2143
2143
2143
2143
2143
2147
2147
2147
2135
2135
2135
2144
2144
2144
2140
2140
2140
2140
2143
2143
2143
2144
2144
2144
2143
2143
2143
2146
2146
2146
2139
2139
2139
2139
2148
2148
2148
2144
2144
2144
2143
2143
2143
2140
2140
2140
2142
2142
2142
2142
2144
2144
2144
2145
2145
2145
2137
2137
2137
2143
2143
2143
2143
2143
2143
2143
2144
2144
2144
2143
2143
2143
2143
2143
2143
2141
2141
2141
2146
2146
2146
2146
2143
2143
2143
2145
2145
2145
2143
2143
2143
2140
2140
2140
2145
2145
2145
2145
2139
2139
2139
2144
2144
2144
2146
2146
2146
2146
2146
2146
2143
2143
2143
2143
2141
2141
2141
2147
2147
2147
2142
2142
2142
2144
2144
2144
