2200
2200
2200
2208
2208
2208
2208
2202
2202
2202
2201
2201
2201
2204
2204
2204
2203
2203
2203
2203
2203
2203
2203
2203
2203
2203
2194
2194
2194
2203
2203
2203
2199
2199
2199
2204
2204
2204
2204
2202
2202
2202
2201
2201
2201
2203
2203
2203
2201
2201
2201
2205
2205
2205
2205
2209
2209
2209
2201
2201
2201
2205
2205
2205
2204
2204
2204
2204
2204
2204
2204
2203
2203
2203
2202
2202
2202
2205
2205
2205
2203
2203
2203
2199
2199
2199
2206
2206
2206
2206
2204
2204
2204
2199
2199
2199
2205
2205
2205
2198
2198
2198
2201
2201
2201
2201
2205
2205
2205
2201
2201
2201
2202
2202
2202
2205
2205
2205
2203
2203
2203
2203
2206
2206
2206
2203
2203
2203
2204
2204
2204
2200
2200
2200
2204
2204
2204
2204
2202
2202
2202
2199
2199
2199
2203
2203
2203
2201
2201
2201
2205
2205
2205
2205
2205
2205
2205
2202
2202
2202
2202
2202
2202
2204
2204
2204
2206
2206
2206
2206
2203
2203
2203
2200
2200
2200
2204
2204
2204
2202
2202
2202
2203
2203
2203
2203
2205
2205
2205
2198
2198
2198
2204
2204
2204
2199
2199
2199
2204
2204
2204
2204
2205
2205
2205
2199
2199
2199
2206
2206
2206
2200
2200
2200
2205
2205
2205
2205
2206
2206
2206
2204
2204
2204
2204
2204
2204
2199
2199
2199
2205
2205
2205
2205
2203
2203
2203
2204
2204
2204
2204
2204
2204
2202
2202
2202
2204
2204
2204
2204
2206
2206
2206
2200
2200
2200
2207
2207
2207
2202
2202
2202
2202
2202
2202
2202
2203
2203
2203
2200
2200
2200
2204
2204
2204
2202
2202
2202
2204
2204
2204
2204
2211
2211
2211
2199
2199
2199
2202
2202
2202
2202
2202
2202
2201
2201
2201
2201
2202
2202
2202
2196
2196
2196
2206
2206
2206
2201
2201
2201
2208
2208
2208
2208
2203
2203
2203
2201
2201
2201
2205
2205
2205
2201
2201
2201
2203
2203
2203
2203
2203
2203
2203
2200
2200
2200
2209
2209
2209
2198
2198
2198
2203
2203
2203
2203
2204
2204
2204
2200
2200
2200
2203
2203
2203
2197
2197
2197
2201
2201
2201
2201
2201
2201
2201
2199
2199
2199
2209
2209
2209
2199
2199
2199
2203
2203
2203
2203
2197
2197
2197
2200
2200
2200
2204
2204
2204
2196
2196
2196
2206
2206
2206
2206
2204
2204
2204
2197
2197
2197
2203
2203
2203
2201
2201
2201
2204
2204
2204
2204
2203
2203
2203
2200
2200
2200
2210
2210
2210
2200
2200
2200
2205
2205
2205
2205
2205
2205
2205
2201
2201
2201
2204
2204
2204
2197
2197
2197
2208
2208
2208
2208
2203
2203
2203
2199
2199
2199
2205
2205
2205
2199
2199
2199
2202
2202
2202
2202
2209
2209
2209
2201
2201
2201
2207
2207
2207
2201
2201
2201
2204
2204
2204
2204
2204
2204
2204
2201
2201
2201
2205
2205
2205
2199
2199
2199
2203
2203
2203
2203
2205
2205
2205
2200
2200
2200
2205
2205
2205
2201
2201
2201
2204
2204
2204
2204
2207
2207
2207
2203
2203
2203
2204
2204
2204
2202
2202
2202
2202
2202
2202
2202
2204
2204
2204
2202
2202
2202
2205
2205
2205
2199
2199
2199
2204
2204
2204
2204
2204
2204
2204
2201
2201
2201
2208
2208
2208
2200
2200
2200
2203
2203
2203
2203
2203
2203
2203
2204
2204
2204
2206
2206
2206
2199
2199
2199
2205
2205
2205
2205
2201
2201
2201
2199
2199
2199
2209
2209
2209
2199
2199
2199
2202
2202
2202
2202
2204
2204
2204
2200
2200
2200
2202
2202
2202
2199
2199
2199
2203
2203
2203
2203
2203
2203
2203
2198
2198
2198
2204
2204
2204
2202
2202
2202
2203
2203
2203
2203
2203
2203
2203
2202
2202
2202
2203
2203
2203
2200
2200
2200
2203
2203
2203
2203
2206
2206
2206
2198
2198
2198
2203
2203
2203
2201
2201
2201
2205
2205
2205
2205
2204
2204
2204
2196
2196
2196
2201
2201
2201
2203
2203
2203
2205
2205
2205
2205
2205
2205
2205
2201
2201
2201
2203
2203
2203
2199
2199
2199
2203
2203
2203
2203
2206
2206
2206
2199
2199
2199
2205
2205
2205
2198
2198
2198
2202
2202
2202
2202
2204
2204
2204
2198
2198
2198
2203
2203
2203
2198
2198
2198
2205
2205
2205
2205
2203
2203
2203
2199
2199
2199
2205
2205
2205
2200
2200
2200
2203
2203
2203
2203
2205
2205
2205
2198
2198
2198
2203
2203
2203
2201
2201
2201
2204
2204
2204
2204
2203
2203
2203
2202
2202
2202
2204
2204
2204
2198
2198
2198
2205
2205
2205
2205
2204
2204
2204
2201
2201
2201
2202
2202
2202
2200
2200
2200
2205
2205
2205
2205
2203
2203
2203
2199
2199
2199
2203
2203
2203
2201
2201
2201
2205
2205
2205
2205
2207
2207
2207
2200
2200
2200
2203
2203
2203
2200
2200
2200
2201
2201
2201
2201
2206
2206
2206
2200
2200
2200
2202
2202
2202
2200
2200
2200
2206
2206
2206
2206
2206
2206
2206
2195
2195
2195
2201
2201
2201
2199
2199
2199
2204
2204
2204
2204
2203
2203
2203
2199
2199
2199
2199
2199
2199
2198
2198
2198
2199
2199
2199
2199
2204
2204
2204
2201
2201
2201
2204
2204
2204
2198
2198
2198
2204
2204
2204
2204
2201
2201
2201
2202
2202
2202
2204
2204
2204
2199
2199
2199
2202
2202
2202
2202
2199
2199
2199
2199
2199
2199
2204
2204
2204
2201
2201
2201
2203
2203
2203
2203
2206
2206
2206
2201
2201
2201
2204
2204
2204
2203
2203
2203
2203
2203
2203
2203
2203
2203
2203
2196
2196
2196
2205
2205
2205
2200
2200
2200
2202
2202
2202
2202
2203
2203
2203
2200
2200
2200
2202
2202
2202
2198
2198
2198
2204
2204
2204
2204
2206
2206
2206
2199
2199
2199
2203
2203
2203
2193
2193
2193
2200
2200
2200
2200
2203
2203
2203
2205
2205
2205
2204
2204
2204
2198
2198
2198
2206
2206
2206
2206
2203
2203
2203
2198
2198
2198
2204
2204
2204
2199
2199
2199
2206
2206
