%!PS-Adobe-3.0 EPSF-3.0
%%Title: curvas_e_i.eps
%%Creator: Matplotlib v3.6.0, https://matplotlib.org/
%%CreationDate: Tue Sep 20 20:43:01 2022
%%Orientation: portrait
%%BoundingBox: -1 92 614 700
%%HiResBoundingBox: -1.668750 92.465625 613.668750 699.534375
%%EndComments
%%BeginProlog
/mpldict 11 dict def
mpldict begin
/_d { bind def } bind def
/m { moveto } _d
/l { lineto } _d
/r { rlineto } _d
/c { curveto } _d
/cl { closepath } _d
/ce { closepath eofill } _d
/box {
      m
      1 index 0 r
      0 exch r
      neg 0 r
      cl
    } _d
/clipbox {
      box
      clip
      newpath
    } _d
/sc { setcachedevice } _d
%!PS-Adobe-3.0 Resource-Font
%%Creator: Converted from TrueType to Type 3 by Matplotlib.
10 dict begin
/FontName /DejaVuSans def
/PaintType 0 def
/FontMatrix [0.00048828125 0 0 0.00048828125 0 0] def
/FontBBox [-2090 -948 3673 2524] def
/FontType 3 def
/Encoding [/minus /space /period /zero /one /two /three /four /five /six /eight /A /B /C /D /E /F /a /c /e /i /l /n /o /r /s /t] def
/CharStrings 28 dict dup begin
/.notdef 0 def
/minus{1716 0 217 557 1499 727 sc
217 727 m
1499 727 l
1499 557 l
217 557 l
217 727 l

ce} _d
/space{651 0 0 0 0 0 sc
ce} _d
/period{651 0 219 0 430 254 sc
219 254 m
430 254 l
430 0 l
219 0 l
219 254 l

ce} _d
/zero{1303 0 135 -29 1167 1520 sc
651 1360 m
547 1360 469 1309 416 1206 c
364 1104 338 950 338 745 c
338 540 364 387 416 284 c
469 182 547 131 651 131 c
756 131 834 182 886 284 c
939 387 965 540 965 745 c
965 950 939 1104 886 1206 c
834 1309 756 1360 651 1360 c

651 1520 m
818 1520 946 1454 1034 1321 c
1123 1189 1167 997 1167 745 c
1167 494 1123 302 1034 169 c
946 37 818 -29 651 -29 c
484 -29 356 37 267 169 c
179 302 135 494 135 745 c
135 997 179 1189 267 1321 c
356 1454 484 1520 651 1520 c

ce} _d
/one{1303 0 225 0 1114 1493 sc
254 170 m
584 170 l
584 1309 l
225 1237 l
225 1421 l
582 1493 l
784 1493 l
784 170 l
1114 170 l
1114 0 l
254 0 l
254 170 l

ce} _d
/two{1303 0 150 0 1098 1520 sc
393 170 m
1098 170 l
1098 0 l
150 0 l
150 170 l
227 249 331 356 463 489 c
596 623 679 709 713 748 c
778 821 823 882 848 932 c
874 983 887 1032 887 1081 c
887 1160 859 1225 803 1275 c
748 1325 675 1350 586 1350 c
523 1350 456 1339 385 1317 c
315 1295 240 1262 160 1217 c
160 1421 l
241 1454 317 1478 388 1495 c
459 1512 523 1520 582 1520 c
737 1520 860 1481 952 1404 c
1044 1327 1090 1223 1090 1094 c
1090 1033 1078 974 1055 919 c
1032 864 991 800 930 725 c
913 706 860 650 771 557 c
682 465 556 336 393 170 c

ce} _d
/three{1303 0 156 -29 1139 1520 sc
831 805 m
928 784 1003 741 1057 676 c
1112 611 1139 530 1139 434 c
1139 287 1088 173 987 92 c
886 11 742 -29 555 -29 c
492 -29 428 -23 361 -10 c
295 2 227 20 156 45 c
156 240 l
212 207 273 183 340 166 c
407 149 476 141 549 141 c
676 141 772 166 838 216 c
905 266 938 339 938 434 c
938 522 907 591 845 640 c
784 690 698 715 588 715 c
414 715 l
414 881 l
596 881 l
695 881 771 901 824 940 c
877 980 903 1037 903 1112 c
903 1189 876 1247 821 1288 c
767 1329 689 1350 588 1350 c
533 1350 473 1344 410 1332 c
347 1320 277 1301 201 1276 c
201 1456 l
278 1477 349 1493 416 1504 c
483 1515 547 1520 606 1520 c
759 1520 881 1485 970 1415 c
1059 1346 1104 1252 1104 1133 c
1104 1050 1080 980 1033 923 c
986 866 918 827 831 805 c

ce} _d
/four{1303 0 100 0 1188 1493 sc
774 1317 m
264 520 l
774 520 l
774 1317 l

721 1493 m
975 1493 l
975 520 l
1188 520 l
1188 352 l
975 352 l
975 0 l
774 0 l
774 352 l
100 352 l
100 547 l
721 1493 l

ce} _d
/five{1303 0 158 -29 1124 1493 sc
221 1493 m
1014 1493 l
1014 1323 l
406 1323 l
406 957 l
435 967 465 974 494 979 c
523 984 553 987 582 987 c
749 987 881 941 978 850 c
1075 759 1124 635 1124 479 c
1124 318 1074 193 974 104 c
874 15 733 -29 551 -29 c
488 -29 424 -24 359 -13 c
294 -2 227 14 158 35 c
158 238 l
218 205 280 181 344 165 c
408 149 476 141 547 141 c
662 141 754 171 821 232 c
888 293 922 375 922 479 c
922 583 888 665 821 726 c
754 787 662 817 547 817 c
493 817 439 811 385 799 c
332 787 277 768 221 743 c
221 1493 l

ce} _d
/six{1303 0 143 -29 1174 1520 sc
676 827 m
585 827 513 796 460 734 c
407 672 381 587 381 479 c
381 372 407 287 460 224 c
513 162 585 131 676 131 c
767 131 838 162 891 224 c
944 287 971 372 971 479 c
971 587 944 672 891 734 c
838 796 767 827 676 827 c

1077 1460 m
1077 1276 l
1026 1300 975 1318 923 1331 c
872 1344 821 1350 770 1350 c
637 1350 535 1305 464 1215 c
394 1125 354 989 344 807 c
383 865 433 909 492 940 c
551 971 617 987 688 987 c
838 987 956 941 1043 850 c
1130 759 1174 636 1174 479 c
1174 326 1129 203 1038 110 c
947 17 827 -29 676 -29 c
503 -29 371 37 280 169 c
189 302 143 494 143 745 c
143 981 199 1169 311 1309 c
423 1450 573 1520 762 1520 c
813 1520 864 1515 915 1505 c
967 1495 1021 1480 1077 1460 c

ce} _d
/eight{1303 0 139 -29 1163 1520 sc
651 709 m
555 709 479 683 424 632 c
369 581 342 510 342 420 c
342 330 369 259 424 208 c
479 157 555 131 651 131 c
747 131 823 157 878 208 c
933 260 961 331 961 420 c
961 510 933 581 878 632 c
823 683 748 709 651 709 c

449 795 m
362 816 295 857 246 916 c
198 975 174 1048 174 1133 c
174 1252 216 1347 301 1416 c
386 1485 503 1520 651 1520 c
800 1520 916 1485 1001 1416 c
1086 1347 1128 1252 1128 1133 c
1128 1048 1104 975 1055 916 c
1007 857 940 816 854 795 c
951 772 1027 728 1081 662 c
1136 596 1163 515 1163 420 c
1163 275 1119 164 1030 87 c
942 10 816 -29 651 -29 c
486 -29 360 10 271 87 c
183 164 139 275 139 420 c
139 515 166 596 221 662 c
276 728 352 772 449 795 c

375 1114 m
375 1037 399 976 447 933 c
496 890 564 868 651 868 c
738 868 805 890 854 933 c
903 976 928 1037 928 1114 c
928 1191 903 1252 854 1295 c
805 1338 738 1360 651 1360 c
564 1360 496 1338 447 1295 c
399 1252 375 1191 375 1114 c

ce} _d
/A{1401 0 16 0 1384 1493 sc
700 1294 m
426 551 l
975 551 l
700 1294 l

586 1493 m
815 1493 l
1384 0 l
1174 0 l
1038 383 l
365 383 l
229 0 l
16 0 l
586 1493 l

ce} _d
/B{1405 0 201 0 1260 1493 sc
403 713 m
403 166 l
727 166 l
836 166 916 188 968 233 c
1021 278 1047 347 1047 440 c
1047 533 1021 602 968 646 c
916 691 836 713 727 713 c
403 713 l

403 1327 m
403 877 l
702 877 l
801 877 874 895 922 932 c
971 969 995 1026 995 1102 c
995 1177 971 1234 922 1271 c
874 1308 801 1327 702 1327 c
403 1327 l

201 1493 m
717 1493 l
871 1493 990 1461 1073 1397 c
1156 1333 1198 1242 1198 1124 c
1198 1033 1177 960 1134 906 c
1091 852 1029 818 946 805 c
1045 784 1122 739 1177 671 c
1232 604 1260 519 1260 418 c
1260 285 1215 182 1124 109 c
1033 36 904 0 737 0 c
201 0 l
201 1493 l

ce} _d
/C{1430 0 115 -29 1319 1520 sc
1319 1378 m
1319 1165 l
1251 1228 1178 1276 1101 1307 c
1024 1338 943 1354 856 1354 c
685 1354 555 1302 464 1197 c
373 1093 328 942 328 745 c
328 548 373 398 464 293 c
555 189 685 137 856 137 c
943 137 1024 153 1101 184 c
1178 215 1251 263 1319 326 c
1319 115 l
1248 67 1173 31 1094 7 c
1015 -17 932 -29 844 -29 c
618 -29 440 40 310 178 c
180 317 115 506 115 745 c
115 985 180 1174 310 1312 c
440 1451 618 1520 844 1520 c
933 1520 1017 1508 1096 1484 c
1175 1461 1250 1425 1319 1378 c

ce} _d
/D{1577 0 201 0 1456 1493 sc
403 1327 m
403 166 l
647 166 l
853 166 1004 213 1099 306 c
1195 399 1243 547 1243 748 c
1243 948 1195 1094 1099 1187 c
1004 1280 853 1327 647 1327 c
403 1327 l

201 1493 m
616 1493 l
905 1493 1118 1433 1253 1312 c
1388 1192 1456 1004 1456 748 c
1456 491 1388 302 1252 181 c
1116 60 904 0 616 0 c
201 0 l
201 1493 l

ce} _d
/E{1294 0 201 0 1163 1493 sc
201 1493 m
1145 1493 l
1145 1323 l
403 1323 l
403 881 l
1114 881 l
1114 711 l
403 711 l
403 170 l
1163 170 l
1163 0 l
201 0 l
201 1493 l

ce} _d
/F{1178 0 201 0 1059 1493 sc
201 1493 m
1059 1493 l
1059 1323 l
403 1323 l
403 883 l
995 883 l
995 713 l
403 713 l
403 0 l
201 0 l
201 1493 l

ce} _d
/a{1255 0 123 -29 1069 1147 sc
702 563 m
553 563 450 546 393 512 c
336 478 307 420 307 338 c
307 273 328 221 371 182 c
414 144 473 125 547 125 c
649 125 731 161 792 233 c
854 306 885 402 885 522 c
885 563 l
702 563 l

1069 639 m
1069 0 l
885 0 l
885 170 l
843 102 791 52 728 19 c
665 -13 589 -29 498 -29 c
383 -29 292 3 224 67 c
157 132 123 218 123 326 c
123 452 165 547 249 611 c
334 675 460 707 627 707 c
885 707 l
885 725 l
885 810 857 875 801 921 c
746 968 668 991 567 991 c
503 991 441 983 380 968 c
319 953 261 930 205 899 c
205 1069 l
272 1095 338 1114 401 1127 c
464 1140 526 1147 586 1147 c
748 1147 869 1105 949 1021 c
1029 937 1069 810 1069 639 c

ce} _d
/c{1126 0 113 -29 999 1147 sc
999 1077 m
999 905 l
947 934 895 955 842 969 c
790 984 737 991 684 991 c
565 991 472 953 406 877 c
340 802 307 696 307 559 c
307 422 340 316 406 240 c
472 165 565 127 684 127 c
737 127 790 134 842 148 c
895 163 947 184 999 213 c
999 43 l
948 19 894 1 839 -11 c
784 -23 726 -29 664 -29 c
495 -29 361 24 262 130 c
163 236 113 379 113 559 c
113 742 163 885 263 990 c
364 1095 501 1147 676 1147 c
733 1147 788 1141 842 1129 c
896 1118 948 1100 999 1077 c

ce} _d
/e{1260 0 113 -29 1151 1147 sc
1151 606 m
1151 516 l
305 516 l
313 389 351 293 419 226 c
488 160 583 127 705 127 c
776 127 844 136 910 153 c
977 170 1043 196 1108 231 c
1108 57 l
1042 29 974 8 905 -7 c
836 -22 765 -29 694 -29 c
515 -29 374 23 269 127 c
165 231 113 372 113 549 c
113 732 162 878 261 985 c
360 1093 494 1147 662 1147 c
813 1147 932 1098 1019 1001 c
1107 904 1151 773 1151 606 c

967 660 m
966 761 937 841 882 901 c
827 961 755 991 664 991 c
561 991 479 962 417 904 c
356 846 320 764 311 659 c
967 660 l

ce} _d
/i{569 0 193 0 377 1556 sc
193 1120 m
377 1120 l
377 0 l
193 0 l
193 1120 l

193 1556 m
377 1556 l
377 1323 l
193 1323 l
193 1556 l

ce} _d
/l{569 0 193 0 377 1556 sc
193 1556 m
377 1556 l
377 0 l
193 0 l
193 1556 l

ce} _d
/n{1298 0 186 0 1124 1147 sc
1124 676 m
1124 0 l
940 0 l
940 670 l
940 776 919 855 878 908 c
837 961 775 987 692 987 c
593 987 514 955 457 892 c
400 829 371 742 371 633 c
371 0 l
186 0 l
186 1120 l
371 1120 l
371 946 l
415 1013 467 1064 526 1097 c
586 1130 655 1147 733 1147 c
862 1147 959 1107 1025 1027 c
1091 948 1124 831 1124 676 c

ce} _d
/o{1253 0 113 -29 1141 1147 sc
627 991 m
528 991 450 952 393 875 c
336 798 307 693 307 559 c
307 425 335 319 392 242 c
449 165 528 127 627 127 c
725 127 803 166 860 243 c
917 320 946 426 946 559 c
946 692 917 797 860 874 c
803 952 725 991 627 991 c

627 1147 m
787 1147 913 1095 1004 991 c
1095 887 1141 743 1141 559 c
1141 376 1095 232 1004 127 c
913 23 787 -29 627 -29 c
466 -29 340 23 249 127 c
158 232 113 376 113 559 c
113 743 158 887 249 991 c
340 1095 466 1147 627 1147 c

ce} _d
/r{842 0 186 0 842 1147 sc
842 948 m
821 960 799 969 774 974 c
750 980 723 983 694 983 c
590 983 510 949 454 881 c
399 814 371 717 371 590 c
371 0 l
186 0 l
186 1120 l
371 1120 l
371 946 l
410 1014 460 1064 522 1097 c
584 1130 659 1147 748 1147 c
761 1147 775 1146 790 1144 c
805 1143 822 1140 841 1137 c
842 948 l

ce} _d
/s{1067 0 111 -29 967 1147 sc
907 1087 m
907 913 l
855 940 801 960 745 973 c
689 986 631 993 571 993 c
480 993 411 979 365 951 c
320 923 297 881 297 825 c
297 782 313 749 346 724 c
379 700 444 677 543 655 c
606 641 l
737 613 829 573 884 522 c
939 471 967 400 967 309 c
967 205 926 123 843 62 c
761 1 648 -29 504 -29 c
444 -29 381 -23 316 -11 c
251 0 183 18 111 41 c
111 231 l
179 196 246 169 312 151 c
378 134 443 125 508 125 c
595 125 661 140 708 169 c
755 199 778 241 778 295 c
778 345 761 383 727 410 c
694 437 620 462 506 487 c
442 502 l
328 526 246 563 195 612 c
144 662 119 730 119 817 c
119 922 156 1004 231 1061 c
306 1118 412 1147 549 1147 c
617 1147 681 1142 741 1132 c
801 1122 856 1107 907 1087 c

ce} _d
/t{803 0 55 0 754 1438 sc
375 1438 m
375 1120 l
754 1120 l
754 977 l
375 977 l
375 369 l
375 278 387 219 412 193 c
437 167 488 154 565 154 c
754 154 l
754 0 l
565 0 l
423 0 325 26 271 79 c
217 132 190 229 190 369 c
190 977 l
55 977 l
55 1120 l
190 1120 l
190 1438 l
375 1438 l

ce} _d
end readonly def

/BuildGlyph {
 exch begin
 CharStrings exch
 2 copy known not {pop /.notdef} if
 true 3 1 roll get exec
 end
} _d

/BuildChar {
 1 index /Encoding get exch get
 1 index /BuildGlyph get exec
} _d

FontName currentdict end definefont pop
end
%%EndProlog
mpldict begin
-1.669 92.466 translate
615.337 607.069 0 0 clipbox
gsave
0 0 m
615.3375 0 l
615.3375 607.06875 l
0 607.06875 l
cl
1.000 setgray
fill
grestore
gsave
50.1375 421.684926 m
303.773864 421.684926 l
303.773864 584.74375 l
50.1375 584.74375 l
cl
1.000 setgray
fill
grestore
0.800 setlinewidth
1 setlinejoin
0 setlinecap
[] 0 setdash
0.000 setgray
gsave
/o {
gsave
newpath
translate
0.8 setlinewidth
1 setlinejoin

0 setlinecap

0 0 m
0 -3.5 l

gsave
0.000 setgray
fill
grestore
stroke
grestore
} bind def
66.1006 421.685 o
grestore
gsave
/o {
gsave
newpath
translate
0.8 setlinewidth
1 setlinejoin

0 setlinecap

0 0 m
0 -3.5 l

gsave
0.000 setgray
fill
grestore
stroke
grestore
} bind def
103.052 421.685 o
grestore
gsave
/o {
gsave
newpath
translate
0.8 setlinewidth
1 setlinejoin

0 setlinecap

0 0 m
0 -3.5 l

gsave
0.000 setgray
fill
grestore
stroke
grestore
} bind def
140.004 421.685 o
grestore
gsave
/o {
gsave
newpath
translate
0.8 setlinewidth
1 setlinejoin

0 setlinecap

0 0 m
0 -3.5 l

gsave
0.000 setgray
fill
grestore
stroke
grestore
} bind def
176.956 421.685 o
grestore
gsave
/o {
gsave
newpath
translate
0.8 setlinewidth
1 setlinejoin

0 setlinecap

0 0 m
0 -3.5 l

gsave
0.000 setgray
fill
grestore
stroke
grestore
} bind def
213.907 421.685 o
grestore
gsave
/o {
gsave
newpath
translate
0.8 setlinewidth
1 setlinejoin

0 setlinecap

0 0 m
0 -3.5 l

gsave
0.000 setgray
fill
grestore
stroke
grestore
} bind def
250.859 421.685 o
grestore
gsave
/o {
gsave
newpath
translate
0.8 setlinewidth
1 setlinejoin

0 setlinecap

0 0 m
0 -3.5 l

gsave
0.000 setgray
fill
grestore
stroke
grestore
} bind def
287.811 421.685 o
grestore
/DejaVuSans 10.000 selectfont
gsave

142.62 406.591 translate
0 rotate
0 0 m /C glyphshow
6.98242 0 m /o glyphshow
13.1006 0 m /r glyphshow
17.0869 0 m /r glyphshow
21.1982 0 m /i glyphshow
23.9766 0 m /e glyphshow
30.1289 0 m /n glyphshow
36.4668 0 m /t glyphshow
40.3877 0 m /e glyphshow
46.54 0 m /space glyphshow
49.7188 0 m /r glyphshow
53.5801 0 m /e glyphshow
59.7324 0 m /a glyphshow
65.8604 0 m /l glyphshow
grestore
gsave
/o {
gsave
newpath
translate
0.8 setlinewidth
1 setlinejoin

0 setlinecap

-0 0 m
-3.5 0 l

gsave
0.000 setgray
fill
grestore
stroke
grestore
} bind def
50.1375 428.189 o
grestore
/DejaVuSans 10.000 selectfont
gsave

20.8719 424.392 translate
0 rotate
0 0 m /zero glyphshow
6.3623 0 m /period glyphshow
9.54102 0 m /zero glyphshow
15.9033 0 m /zero glyphshow
grestore
gsave
/o {
gsave
newpath
translate
0.8 setlinewidth
1 setlinejoin

0 setlinecap

-0 0 m
-3.5 0 l

gsave
0.000 setgray
fill
grestore
stroke
grestore
} bind def
50.1375 461.04 o
grestore
/DejaVuSans 10.000 selectfont
gsave

20.8719 457.243 translate
0 rotate
0 0 m /zero glyphshow
6.3623 0 m /period glyphshow
9.54102 0 m /zero glyphshow
15.9033 0 m /two glyphshow
grestore
gsave
/o {
gsave
newpath
translate
0.8 setlinewidth
1 setlinejoin

0 setlinecap

-0 0 m
-3.5 0 l

gsave
0.000 setgray
fill
grestore
stroke
grestore
} bind def
50.1375 493.892 o
grestore
/DejaVuSans 10.000 selectfont
gsave

20.8719 490.095 translate
0 rotate
0 0 m /zero glyphshow
6.3623 0 m /period glyphshow
9.54102 0 m /zero glyphshow
15.9033 0 m /four glyphshow
grestore
gsave
/o {
gsave
newpath
translate
0.8 setlinewidth
1 setlinejoin

0 setlinecap

-0 0 m
-3.5 0 l

gsave
0.000 setgray
fill
grestore
stroke
grestore
} bind def
50.1375 526.744 o
grestore
/DejaVuSans 10.000 selectfont
gsave

20.8719 522.947 translate
0 rotate
0 0 m /zero glyphshow
6.3623 0 m /period glyphshow
9.54102 0 m /zero glyphshow
15.9033 0 m /six glyphshow
grestore
gsave
/o {
gsave
newpath
translate
0.8 setlinewidth
1 setlinejoin

0 setlinecap

-0 0 m
-3.5 0 l

gsave
0.000 setgray
fill
grestore
stroke
grestore
} bind def
50.1375 559.595 o
grestore
/DejaVuSans 10.000 selectfont
gsave

20.8719 555.798 translate
0 rotate
0 0 m /zero glyphshow
6.3623 0 m /period glyphshow
9.54102 0 m /zero glyphshow
15.9033 0 m /eight glyphshow
grestore
/DejaVuSans 10.000 selectfont
gsave

14.7938 491.019 translate
90 rotate
0 0 m /E glyphshow
6.31836 0 m /r glyphshow
10.3047 0 m /r glyphshow
14.166 0 m /o glyphshow
20.2842 0 m /r glyphshow
grestore
1.000 setlinewidth
0.122 0.467 0.706 setrgbcolor
gsave
253.636 163.059 50.138 421.685 clipbox
/o {
gsave
newpath
translate
1.0 setlinewidth
1 setlinejoin

0 setlinecap

-3 -3 m
3 3 l
-3 3 m
3 -3 l

gsave
0.122 0.467 0.706 setrgbcolor
fill
grestore
stroke
grestore
} bind def
176.807 436.032 o
149.538 436.443 o
149.685 446.208 o
121.972 447.475 o
148.798 437.403 o
120.937 452.417 o
121.011 448.142 o
92.7058 458.754 o
149.39 436.256 o
121.38 437.794 o
121.38 454.533 o
93.4449 452.725 o
120.937 438.137 o
92.7058 466.562 o
92.7058 474.026 o
63.8835 494.409 o
289.289 436.933 o
260.466 453.094 o
260.466 442.503 o
232.753 431.777 o
259.727 435.158 o
232.309 437.62 o
232.161 431.069 o
204.3 443.882 o
260.466 433.832 o
232.901 441.046 o
232.679 433.226 o
204.743 443.432 o
232.309 431.364 o
204.374 446.813 o
204.374 453.478 o
176.831 459.989 o
grestore
1.000 0.498 0.055 setrgbcolor
gsave
253.636 163.059 50.138 421.685 clipbox
/o {
gsave
newpath
translate
1.0 setlinewidth
1 setlinejoin

0 setlinecap

0 -3 m
0.795609 -3 1.55874 -2.683901 2.12132 -2.12132 c
2.683901 -1.55874 3 -0.795609 3 0 c
3 0.795609 2.683901 1.55874 2.12132 2.12132 c
1.55874 2.683901 0.795609 3 0 3 c
-0.795609 3 -1.55874 2.683901 -2.12132 2.12132 c
-2.683901 1.55874 -3 0.795609 -3 0 c
-3 -0.795609 -2.683901 -1.55874 -2.12132 -2.12132 c
-1.55874 -2.683901 -0.795609 -3 0 -3 c
cl

gsave
1.000 0.498 0.055 setrgbcolor
fill
grestore
stroke
grestore
} bind def
176.807 435.941 o
149.538 439.955 o
149.685 449.643 o
121.972 454.567 o
148.798 441.007 o
120.937 459.616 o
121.011 455.357 o
92.7058 469.648 o
149.39 439.788 o
121.38 445.021 o
121.38 461.661 o
93.4449 463.557 o
120.937 445.421 o
92.7058 477.41 o
92.7058 484.829 o
63.8835 508.903 o
289.289 451.799 o
260.466 441.839 o
260.466 431.311 o
232.753 432.064 o
259.727 432.27 o
232.309 430.18 o
232.161 432.69 o
204.3 440.109 o
260.466 433.686 o
232.901 433.507 o
232.679 440.628 o
204.743 439.603 o
232.309 432.415 o
204.374 443.012 o
204.374 449.638 o
176.831 459.752 o
grestore
0 setlinejoin
0.173 0.627 0.173 setrgbcolor
gsave
253.636 163.059 50.138 421.685 clipbox
/o {
gsave
newpath
translate
1.0 setlinewidth
0 setlinejoin

0 setlinecap

0 3 m
-3 -3 l
3 -3 l
cl

gsave
0.173 0.627 0.173 setrgbcolor
fill
grestore
stroke
grestore
} bind def
176.807 435.994 o
149.538 436.619 o
149.685 446.547 o
121.972 448.054 o
148.798 443.343 o
120.937 458.611 o
121.011 454.599 o
92.7058 465.445 o
149.39 429.121 o
121.38 431.047 o
121.38 447.902 o
93.4449 446.424 o
120.937 437.115 o
92.7058 465.778 o
92.7058 473.382 o
63.8835 494.127 o
289.289 437.063 o
260.466 453.176 o
260.466 442.934 o
232.753 432.552 o
259.727 441.162 o
232.309 443.817 o
232.161 437.559 o
204.3 450.664 o
260.466 429.407 o
232.901 434.32 o
232.679 439.571 o
204.743 437.327 o
232.309 430.427 o
204.374 446.074 o
204.374 452.958 o
176.831 459.738 o
grestore
0.800 setlinewidth
2 setlinecap
0.000 setgray
gsave
50.1375 421.684926 m
50.1375 584.74375 l
stroke
grestore
gsave
303.773864 421.684926 m
303.773864 584.74375 l
stroke
grestore
gsave
50.1375 421.684926 m
303.773864 421.684926 l
stroke
grestore
gsave
50.1375 584.74375 m
303.773864 584.74375 l
stroke
grestore
/DejaVuSans 12.000 selectfont
gsave

157.557 590.744 translate
0 rotate
0 0 m /F glyphshow
5.77734 0 m /a glyphshow
13.1309 0 m /s glyphshow
19.3828 0 m /e glyphshow
26.7656 0 m /space glyphshow
30.5801 0 m /A glyphshow
grestore
1.000 setlinewidth
0 setlinecap
0.800 setgray
gsave
252.914489 532.728125 m
296.773864 532.728125 l
298.107197 532.728125 298.773864 533.394792 298.773864 534.728125 c
298.773864 577.74375 l
298.773864 579.077083 298.107197 579.74375 296.773864 579.74375 c
252.914489 579.74375 l
251.581155 579.74375 250.914489 579.077083 250.914489 577.74375 c
250.914489 534.728125 l
250.914489 533.394792 251.581155 532.728125 252.914489 532.728125 c
cl
gsave
1.000 setgray
fill
grestore
stroke
grestore
1 setlinejoin
0.122 0.467 0.706 setrgbcolor
gsave
/o {
gsave
newpath
translate
1.0 setlinewidth
1 setlinejoin

0 setlinecap

-3 -3 m
3 3 l
-3 3 m
3 -3 l

gsave
0.122 0.467 0.706 setrgbcolor
fill
grestore
stroke
grestore
} bind def
264.914 571.65 o
grestore
0.000 setgray
/DejaVuSans 10.000 selectfont
gsave

282.914 568.15 translate
0 rotate
0 0 m /c glyphshow
5.49805 0 m /one glyphshow
grestore
1.000 0.498 0.055 setrgbcolor
gsave
/o {
gsave
newpath
translate
1.0 setlinewidth
1 setlinejoin

0 setlinecap

0 -3 m
0.795609 -3 1.55874 -2.683901 2.12132 -2.12132 c
2.683901 -1.55874 3 -0.795609 3 0 c
3 0.795609 2.683901 1.55874 2.12132 2.12132 c
1.55874 2.683901 0.795609 3 0 3 c
-0.795609 3 -1.55874 2.683901 -2.12132 2.12132 c
-2.683901 1.55874 -3 0.795609 -3 0 c
-3 -0.795609 -2.683901 -1.55874 -2.12132 -2.12132 c
-1.55874 -2.683901 -0.795609 -3 0 -3 c
cl

gsave
1.000 0.498 0.055 setrgbcolor
fill
grestore
stroke
grestore
} bind def
264.914 556.978 o
grestore
0.000 setgray
/DejaVuSans 10.000 selectfont
gsave

282.914 553.478 translate
0 rotate
0 0 m /c glyphshow
5.49805 0 m /two glyphshow
grestore
0 setlinejoin
0.173 0.627 0.173 setrgbcolor
gsave
/o {
gsave
newpath
translate
1.0 setlinewidth
0 setlinejoin

0 setlinecap

0 3 m
-3 -3 l
3 -3 l
cl

gsave
0.173 0.627 0.173 setrgbcolor
fill
grestore
stroke
grestore
} bind def
264.914 542.306 o
grestore
0.000 setgray
/DejaVuSans 10.000 selectfont
gsave

282.914 538.806 translate
0 rotate
0 0 m /c glyphshow
5.49805 0 m /three glyphshow
grestore
gsave
354.501136 421.684926 m
608.1375 421.684926 l
608.1375 584.74375 l
354.501136 584.74375 l
cl
1.000 setgray
fill
grestore
0.800 setlinewidth
1 setlinejoin
gsave
/o {
gsave
newpath
translate
0.8 setlinewidth
1 setlinejoin

0 setlinecap

0 0 m
0 -3.5 l

gsave
0.000 setgray
fill
grestore
stroke
grestore
} bind def
368.283 421.685 o
grestore
gsave
/o {
gsave
newpath
translate
0.8 setlinewidth
1 setlinejoin

0 setlinecap

0 0 m
0 -3.5 l

gsave
0.000 setgray
fill
grestore
stroke
grestore
} bind def
405.837 421.685 o
grestore
gsave
/o {
gsave
newpath
translate
0.8 setlinewidth
1 setlinejoin

0 setlinecap

0 0 m
0 -3.5 l

gsave
0.000 setgray
fill
grestore
stroke
grestore
} bind def
443.39 421.685 o
grestore
gsave
/o {
gsave
newpath
translate
0.8 setlinewidth
1 setlinejoin

0 setlinecap

0 0 m
0 -3.5 l

gsave
0.000 setgray
fill
grestore
stroke
grestore
} bind def
480.944 421.685 o
grestore
gsave
/o {
gsave
newpath
translate
0.8 setlinewidth
1 setlinejoin

0 setlinecap

0 0 m
0 -3.5 l

gsave
0.000 setgray
fill
grestore
stroke
grestore
} bind def
518.497 421.685 o
grestore
gsave
/o {
gsave
newpath
translate
0.8 setlinewidth
1 setlinejoin

0 setlinecap

0 0 m
0 -3.5 l

gsave
0.000 setgray
fill
grestore
stroke
grestore
} bind def
556.051 421.685 o
grestore
gsave
/o {
gsave
newpath
translate
0.8 setlinewidth
1 setlinejoin

0 setlinecap

0 0 m
0 -3.5 l

gsave
0.000 setgray
fill
grestore
stroke
grestore
} bind def
593.604 421.685 o
grestore
/DejaVuSans 10.000 selectfont
gsave

446.983 406.591 translate
0 rotate
0 0 m /C glyphshow
6.98242 0 m /o glyphshow
13.1006 0 m /r glyphshow
17.0869 0 m /r glyphshow
21.1982 0 m /i glyphshow
23.9766 0 m /e glyphshow
30.1289 0 m /n glyphshow
36.4668 0 m /t glyphshow
40.3877 0 m /e glyphshow
46.54 0 m /space glyphshow
49.7188 0 m /r glyphshow
53.5801 0 m /e glyphshow
59.7324 0 m /a glyphshow
65.8604 0 m /l glyphshow
grestore
gsave
/o {
gsave
newpath
translate
0.8 setlinewidth
1 setlinejoin

0 setlinecap

-0 0 m
-3.5 0 l

gsave
0.000 setgray
fill
grestore
stroke
grestore
} bind def
354.501 428.189 o
grestore
gsave
/o {
gsave
newpath
translate
0.8 setlinewidth
1 setlinejoin

0 setlinecap

-0 0 m
-3.5 0 l

gsave
0.000 setgray
fill
grestore
stroke
grestore
} bind def
354.501 461.04 o
grestore
gsave
/o {
gsave
newpath
translate
0.8 setlinewidth
1 setlinejoin

0 setlinecap

-0 0 m
-3.5 0 l

gsave
0.000 setgray
fill
grestore
stroke
grestore
} bind def
354.501 493.892 o
grestore
gsave
/o {
gsave
newpath
translate
0.8 setlinewidth
1 setlinejoin

0 setlinecap

-0 0 m
-3.5 0 l

gsave
0.000 setgray
fill
grestore
stroke
grestore
} bind def
354.501 526.744 o
grestore
gsave
/o {
gsave
newpath
translate
0.8 setlinewidth
1 setlinejoin

0 setlinecap

-0 0 m
-3.5 0 l

gsave
0.000 setgray
fill
grestore
stroke
grestore
} bind def
354.501 559.595 o
grestore
/DejaVuSans 10.000 selectfont
gsave

344.923 491.019 translate
90 rotate
0 0 m /E glyphshow
6.31836 0 m /r glyphshow
10.3047 0 m /r glyphshow
14.166 0 m /o glyphshow
20.2842 0 m /r glyphshow
grestore
1.000 setlinewidth
0.122 0.467 0.706 setrgbcolor
gsave
253.636 163.059 354.501 421.685 clipbox
/o {
gsave
newpath
translate
1.0 setlinewidth
1 setlinejoin

0 setlinecap

-3 -3 m
3 3 l
-3 3 m
3 -3 l

gsave
0.122 0.467 0.706 setrgbcolor
fill
grestore
stroke
grestore
} bind def
480.396 452.107 o
451.877 441.652 o
451.877 449.475 o
421.91 483.195 o
451.577 446.866 o
422.961 437.085 o
422.886 436.439 o
394.571 434.067 o
595.858 470.423 o
565.815 476.716 o
565.815 486.784 o
537.8 463.396 o
565.815 472.516 o
537.199 462.535 o
537.274 474.694 o
508.433 470.485 o
452.328 465.244 o
423.712 474.399 o
423.637 453.706 o
395.322 452.223 o
423.412 446.099 o
395.322 448.867 o
395.322 437.443 o
366.03 449.624 o
565.815 463.604 o
537.65 481.327 o
537.499 459.254 o
508.959 462.987 o
537.274 462.47 o
508.433 480.553 o
508.583 478.201 o
480.413 464.369 o
grestore
1.000 0.498 0.055 setrgbcolor
gsave
253.636 163.059 354.501 421.685 clipbox
/o {
gsave
newpath
translate
1.0 setlinewidth
1 setlinejoin

0 setlinecap

0 -3 m
0.795609 -3 1.55874 -2.683901 2.12132 -2.12132 c
2.683901 -1.55874 3 -0.795609 3 0 c
3 0.795609 2.683901 1.55874 2.12132 2.12132 c
1.55874 2.683901 0.795609 3 0 3 c
-0.795609 3 -1.55874 2.683901 -2.12132 2.12132 c
-2.683901 1.55874 -3 0.795609 -3 0 c
-3 -0.795609 -2.683901 -1.55874 -2.12132 -2.12132 c
-1.55874 -2.683901 -0.795609 -3 0 -3 c
cl

gsave
1.000 0.498 0.055 setrgbcolor
fill
grestore
stroke
grestore
} bind def
480.396 452.046 o
451.877 447.461 o
451.877 455.211 o
421.91 494.686 o
451.577 452.688 o
422.961 448.79 o
422.886 448.164 o
394.571 451.546 o
595.858 446.821 o
565.815 459.137 o
565.815 469.112 o
537.8 451.611 o
565.815 454.976 o
537.199 450.88 o
537.274 462.911 o
508.433 464.579 o
452.328 470.744 o
423.712 485.606 o
423.637 465.119 o
395.322 469.382 o
423.412 457.628 o
395.322 466.057 o
395.322 454.739 o
366.03 472.736 o
565.815 446.146 o
537.65 469.407 o
537.499 447.568 o
508.959 457.045 o
537.274 450.8 o
508.433 474.554 o
508.583 472.193 o
480.413 464.192 o
grestore
0 setlinejoin
0.173 0.627 0.173 setrgbcolor
gsave
253.636 163.059 354.501 421.685 clipbox
/o {
gsave
newpath
translate
1.0 setlinewidth
0 setlinejoin

0 setlinecap

0 3 m
-3 -3 l
3 -3 l
cl

gsave
0.173 0.627 0.173 setrgbcolor
fill
grestore
stroke
grestore
} bind def
480.396 451.976 o
451.877 447.49 o
451.877 452.68 o
421.91 492.436 o
451.577 454.182 o
422.961 450.37 o
422.886 447.267 o
394.571 450.943 o
595.858 470.321 o
565.815 482.767 o
565.815 490.164 o
537.8 472.909 o
565.815 479.997 o
537.199 475.926 o
537.274 485.511 o
508.433 487.422 o
452.328 447.649 o
423.712 462.75 o
423.637 439.725 o
395.322 444.391 o
423.412 436.178 o
395.322 444.876 o
395.322 431.095 o
366.03 449.257 o
565.815 446.357 o
537.65 469.953 o
537.499 445.675 o
508.959 455.321 o
537.274 452.688 o
508.433 476.69 o
508.583 471.828 o
480.413 463.965 o
grestore
0.800 setlinewidth
2 setlinecap
0.000 setgray
gsave
354.501136 421.684926 m
354.501136 584.74375 l
stroke
grestore
gsave
608.1375 421.684926 m
608.1375 584.74375 l
stroke
grestore
gsave
354.501136 421.684926 m
608.1375 421.684926 l
stroke
grestore
gsave
354.501136 584.74375 m
608.1375 584.74375 l
stroke
grestore
/DejaVuSans 12.000 selectfont
gsave

461.905 590.744 translate
0 rotate
0 0 m /F glyphshow
5.77734 0 m /a glyphshow
13.1309 0 m /s glyphshow
19.3828 0 m /e glyphshow
26.7656 0 m /space glyphshow
30.5801 0 m /B glyphshow
grestore
1.000 setlinewidth
0 setlinecap
0.800 setgray
gsave
557.278125 532.728125 m
601.1375 532.728125 l
602.470833 532.728125 603.1375 533.394792 603.1375 534.728125 c
603.1375 577.74375 l
603.1375 579.077083 602.470833 579.74375 601.1375 579.74375 c
557.278125 579.74375 l
555.944792 579.74375 555.278125 579.077083 555.278125 577.74375 c
555.278125 534.728125 l
555.278125 533.394792 555.944792 532.728125 557.278125 532.728125 c
cl
gsave
1.000 setgray
fill
grestore
stroke
grestore
1 setlinejoin
0.122 0.467 0.706 setrgbcolor
gsave
/o {
gsave
newpath
translate
1.0 setlinewidth
1 setlinejoin

0 setlinecap

-3 -3 m
3 3 l
-3 3 m
3 -3 l

gsave
0.122 0.467 0.706 setrgbcolor
fill
grestore
stroke
grestore
} bind def
569.278 571.65 o
grestore
0.000 setgray
/DejaVuSans 10.000 selectfont
gsave

587.278 568.15 translate
0 rotate
0 0 m /c glyphshow
5.49805 0 m /one glyphshow
grestore
1.000 0.498 0.055 setrgbcolor
gsave
/o {
gsave
newpath
translate
1.0 setlinewidth
1 setlinejoin

0 setlinecap

0 -3 m
0.795609 -3 1.55874 -2.683901 2.12132 -2.12132 c
2.683901 -1.55874 3 -0.795609 3 0 c
3 0.795609 2.683901 1.55874 2.12132 2.12132 c
1.55874 2.683901 0.795609 3 0 3 c
-0.795609 3 -1.55874 2.683901 -2.12132 2.12132 c
-2.683901 1.55874 -3 0.795609 -3 0 c
-3 -0.795609 -2.683901 -1.55874 -2.12132 -2.12132 c
-1.55874 -2.683901 -0.795609 -3 0 -3 c
cl

gsave
1.000 0.498 0.055 setrgbcolor
fill
grestore
stroke
grestore
} bind def
569.278 556.978 o
grestore
0.000 setgray
/DejaVuSans 10.000 selectfont
gsave

587.278 553.478 translate
0 rotate
0 0 m /c glyphshow
5.49805 0 m /two glyphshow
grestore
0 setlinejoin
0.173 0.627 0.173 setrgbcolor
gsave
/o {
gsave
newpath
translate
1.0 setlinewidth
0 setlinejoin

0 setlinecap

0 3 m
-3 -3 l
3 -3 l
cl

gsave
0.173 0.627 0.173 setrgbcolor
fill
grestore
stroke
grestore
} bind def
569.278 542.306 o
grestore
0.000 setgray
/DejaVuSans 10.000 selectfont
gsave

587.278 538.806 translate
0 rotate
0 0 m /c glyphshow
5.49805 0 m /three glyphshow
grestore
gsave
50.1375 226.014338 m
303.773864 226.014338 l
303.773864 389.073162 l
50.1375 389.073162 l
cl
1.000 setgray
fill
grestore
0.800 setlinewidth
1 setlinejoin
gsave
/o {
gsave
newpath
translate
0.8 setlinewidth
1 setlinejoin

0 setlinecap

0 0 m
0 -3.5 l

gsave
0.000 setgray
fill
grestore
stroke
grestore
} bind def
66.1006 226.014 o
grestore
gsave
/o {
gsave
newpath
translate
0.8 setlinewidth
1 setlinejoin

0 setlinecap

0 0 m
0 -3.5 l

gsave
0.000 setgray
fill
grestore
stroke
grestore
} bind def
103.052 226.014 o
grestore
gsave
/o {
gsave
newpath
translate
0.8 setlinewidth
1 setlinejoin

0 setlinecap

0 0 m
0 -3.5 l

gsave
0.000 setgray
fill
grestore
stroke
grestore
} bind def
140.004 226.014 o
grestore
gsave
/o {
gsave
newpath
translate
0.8 setlinewidth
1 setlinejoin

0 setlinecap

0 0 m
0 -3.5 l

gsave
0.000 setgray
fill
grestore
stroke
grestore
} bind def
176.956 226.014 o
grestore
gsave
/o {
gsave
newpath
translate
0.8 setlinewidth
1 setlinejoin

0 setlinecap

0 0 m
0 -3.5 l

gsave
0.000 setgray
fill
grestore
stroke
grestore
} bind def
213.907 226.014 o
grestore
gsave
/o {
gsave
newpath
translate
0.8 setlinewidth
1 setlinejoin

0 setlinecap

0 0 m
0 -3.5 l

gsave
0.000 setgray
fill
grestore
stroke
grestore
} bind def
250.859 226.014 o
grestore
gsave
/o {
gsave
newpath
translate
0.8 setlinewidth
1 setlinejoin

0 setlinecap

0 0 m
0 -3.5 l

gsave
0.000 setgray
fill
grestore
stroke
grestore
} bind def
287.811 226.014 o
grestore
/DejaVuSans 10.000 selectfont
gsave

142.62 210.921 translate
0 rotate
0 0 m /C glyphshow
6.98242 0 m /o glyphshow
13.1006 0 m /r glyphshow
17.0869 0 m /r glyphshow
21.1982 0 m /i glyphshow
23.9766 0 m /e glyphshow
30.1289 0 m /n glyphshow
36.4668 0 m /t glyphshow
40.3877 0 m /e glyphshow
46.54 0 m /space glyphshow
49.7188 0 m /r glyphshow
53.5801 0 m /e glyphshow
59.7324 0 m /a glyphshow
65.8604 0 m /l glyphshow
grestore
gsave
/o {
gsave
newpath
translate
0.8 setlinewidth
1 setlinejoin

0 setlinecap

-0 0 m
-3.5 0 l

gsave
0.000 setgray
fill
grestore
stroke
grestore
} bind def
50.1375 232.518 o
grestore
/DejaVuSans 10.000 selectfont
gsave

20.8719 228.721 translate
0 rotate
0 0 m /zero glyphshow
6.3623 0 m /period glyphshow
9.54102 0 m /zero glyphshow
15.9033 0 m /zero glyphshow
grestore
gsave
/o {
gsave
newpath
translate
0.8 setlinewidth
1 setlinejoin

0 setlinecap

-0 0 m
-3.5 0 l

gsave
0.000 setgray
fill
grestore
stroke
grestore
} bind def
50.1375 265.37 o
grestore
/DejaVuSans 10.000 selectfont
gsave

20.8719 261.573 translate
0 rotate
0 0 m /zero glyphshow
6.3623 0 m /period glyphshow
9.54102 0 m /zero glyphshow
15.9033 0 m /two glyphshow
grestore
gsave
/o {
gsave
newpath
translate
0.8 setlinewidth
1 setlinejoin

0 setlinecap

-0 0 m
-3.5 0 l

gsave
0.000 setgray
fill
grestore
stroke
grestore
} bind def
50.1375 298.221 o
grestore
/DejaVuSans 10.000 selectfont
gsave

20.8719 294.424 translate
0 rotate
0 0 m /zero glyphshow
6.3623 0 m /period glyphshow
9.54102 0 m /zero glyphshow
15.9033 0 m /four glyphshow
grestore
gsave
/o {
gsave
newpath
translate
0.8 setlinewidth
1 setlinejoin

0 setlinecap

-0 0 m
-3.5 0 l

gsave
0.000 setgray
fill
grestore
stroke
grestore
} bind def
50.1375 331.073 o
grestore
/DejaVuSans 10.000 selectfont
gsave

20.8719 327.276 translate
0 rotate
0 0 m /zero glyphshow
6.3623 0 m /period glyphshow
9.54102 0 m /zero glyphshow
15.9033 0 m /six glyphshow
grestore
gsave
/o {
gsave
newpath
translate
0.8 setlinewidth
1 setlinejoin

0 setlinecap

-0 0 m
-3.5 0 l

gsave
0.000 setgray
fill
grestore
stroke
grestore
} bind def
50.1375 363.925 o
grestore
/DejaVuSans 10.000 selectfont
gsave

20.8719 360.128 translate
0 rotate
0 0 m /zero glyphshow
6.3623 0 m /period glyphshow
9.54102 0 m /zero glyphshow
15.9033 0 m /eight glyphshow
grestore
/DejaVuSans 10.000 selectfont
gsave

14.7938 295.348 translate
90 rotate
0 0 m /E glyphshow
6.31836 0 m /r glyphshow
10.3047 0 m /r glyphshow
14.166 0 m /o glyphshow
20.2842 0 m /r glyphshow
grestore
1.000 setlinewidth
0.122 0.467 0.706 setrgbcolor
gsave
253.636 163.059 50.138 226.014 clipbox
/o {
gsave
newpath
translate
1.0 setlinewidth
1 setlinejoin

0 setlinecap

-3 -3 m
3 3 l
-3 3 m
3 -3 l

gsave
0.122 0.467 0.706 setrgbcolor
fill
grestore
stroke
grestore
} bind def
176.413 237.727 o
147.764 274.783 o
147.764 309.597 o
118.72 307.394 o
292.245 302.162 o
262.684 298.298 o
262.684 290.662 o
234.083 302.357 o
148.207 326.85 o
118.942 274.976 o
118.942 332.948 o
90.4887 312.598 o
262.684 311.12 o
233.713 330.557 o
233.861 372.089 o
204.817 320.083 o
148.355 311.219 o
119.385 320.349 o
119.311 287.168 o
91.2278 247.795 o
261.945 259.502 o
233.787 291.024 o
233.713 274.94 o
204.817 256.88 o
119.385 259.802 o
91.2278 307.072 o
91.2278 261.724 o
61.6664 246.381 o
233.344 301.138 o
204.669 319.252 o
204.817 333.051 o
176.369 338.939 o
grestore
1.000 0.498 0.055 setrgbcolor
gsave
253.636 163.059 50.138 226.014 clipbox
/o {
gsave
newpath
translate
1.0 setlinewidth
1 setlinejoin

0 setlinecap

0 -3 m
0.795609 -3 1.55874 -2.683901 2.12132 -2.12132 c
2.683901 -1.55874 3 -0.795609 3 0 c
3 0.795609 2.683901 1.55874 2.12132 2.12132 c
1.55874 2.683901 0.795609 3 0 3 c
-0.795609 3 -1.55874 2.683901 -2.12132 2.12132 c
-2.683901 1.55874 -3 0.795609 -3 0 c
-3 -0.795609 -2.683901 -1.55874 -2.12132 -2.12132 c
-1.55874 -2.683901 -0.795609 -3 0 -3 c
cl

gsave
1.000 0.498 0.055 setrgbcolor
fill
grestore
stroke
grestore
} bind def
176.413 237.572 o
147.764 285.247 o
147.764 318.781 o
118.72 327.123 o
292.245 311.205 o
262.684 317.955 o
262.684 309.228 o
234.083 331.487 o
148.207 306.411 o
118.942 265.383 o
118.942 322.042 o
90.4887 312.413 o
262.684 300.109 o
233.713 330.127 o
233.861 370.371 o
204.817 329.049 o
148.355 301.491 o
119.385 321.065 o
119.311 287.035 o
91.2278 258.246 o
261.945 259.235 o
233.787 301.15 o
233.713 284.118 o
204.817 276.6 o
119.385 234.571 o
91.2278 287.991 o
91.2278 241.907 o
61.6664 236.998 o
233.344 280.952 o
204.669 309.458 o
204.817 322.098 o
176.369 338.543 o
grestore
0 setlinejoin
0.173 0.627 0.173 setrgbcolor
gsave
253.636 163.059 50.138 226.014 clipbox
/o {
gsave
newpath
translate
1.0 setlinewidth
0 setlinejoin

0 setlinecap

0 3 m
-3 -3 l
3 -3 l
cl

gsave
0.173 0.627 0.173 setrgbcolor
fill
grestore
stroke
grestore
} bind def
176.413 237.315 o
147.764 285.791 o
147.764 318 o
118.72 327.423 o
292.245 346.055 o
262.684 353.832 o
262.684 344.397 o
234.083 367.71 o
148.207 282.343 o
118.942 243.13 o
118.942 298.179 o
90.4887 290.118 o
262.684 311.883 o
233.713 342.788 o
233.861 381.661 o
204.817 342.085 o
148.355 285.943 o
119.385 306.412 o
119.311 272.13 o
91.2278 245.105 o
261.945 279.735 o
233.787 322.459 o
233.713 304.906 o
204.817 298.682 o
119.385 272.03 o
91.2278 251.058 o
91.2278 260.074 o
61.6664 263.969 o
233.344 278.355 o
204.669 307.691 o
204.817 319.366 o
176.369 336.962 o
grestore
0.800 setlinewidth
2 setlinecap
0.000 setgray
gsave
50.1375 226.014338 m
50.1375 389.073162 l
stroke
grestore
gsave
303.773864 226.014338 m
303.773864 389.073162 l
stroke
grestore
gsave
50.1375 226.014338 m
303.773864 226.014338 l
stroke
grestore
gsave
50.1375 389.073162 m
303.773864 389.073162 l
stroke
grestore
/DejaVuSans 12.000 selectfont
gsave

157.471 395.073 translate
0 rotate
0 0 m /F glyphshow
5.77734 0 m /a glyphshow
13.1309 0 m /s glyphshow
19.3828 0 m /e glyphshow
26.7656 0 m /space glyphshow
30.5801 0 m /C glyphshow
grestore
1.000 setlinewidth
0 setlinecap
0.800 setgray
gsave
57.1375 337.057537 m
100.996875 337.057537 l
102.330208 337.057537 102.996875 337.724203 102.996875 339.057537 c
102.996875 382.073162 l
102.996875 383.406495 102.330208 384.073162 100.996875 384.073162 c
57.1375 384.073162 l
55.804167 384.073162 55.1375 383.406495 55.1375 382.073162 c
55.1375 339.057537 l
55.1375 337.724203 55.804167 337.057537 57.1375 337.057537 c
cl
gsave
1.000 setgray
fill
grestore
stroke
grestore
1 setlinejoin
0.122 0.467 0.706 setrgbcolor
gsave
/o {
gsave
newpath
translate
1.0 setlinewidth
1 setlinejoin

0 setlinecap

-3 -3 m
3 3 l
-3 3 m
3 -3 l

gsave
0.122 0.467 0.706 setrgbcolor
fill
grestore
stroke
grestore
} bind def
69.1375 375.979 o
grestore
0.000 setgray
/DejaVuSans 10.000 selectfont
gsave

87.1375 372.479 translate
0 rotate
0 0 m /c glyphshow
5.49805 0 m /one glyphshow
grestore
1.000 0.498 0.055 setrgbcolor
gsave
/o {
gsave
newpath
translate
1.0 setlinewidth
1 setlinejoin

0 setlinecap

0 -3 m
0.795609 -3 1.55874 -2.683901 2.12132 -2.12132 c
2.683901 -1.55874 3 -0.795609 3 0 c
3 0.795609 2.683901 1.55874 2.12132 2.12132 c
1.55874 2.683901 0.795609 3 0 3 c
-0.795609 3 -1.55874 2.683901 -2.12132 2.12132 c
-2.683901 1.55874 -3 0.795609 -3 0 c
-3 -0.795609 -2.683901 -1.55874 -2.12132 -2.12132 c
-1.55874 -2.683901 -0.795609 -3 0 -3 c
cl

gsave
1.000 0.498 0.055 setrgbcolor
fill
grestore
stroke
grestore
} bind def
69.1375 361.308 o
grestore
0.000 setgray
/DejaVuSans 10.000 selectfont
gsave

87.1375 357.808 translate
0 rotate
0 0 m /c glyphshow
5.49805 0 m /two glyphshow
grestore
0 setlinejoin
0.173 0.627 0.173 setrgbcolor
gsave
/o {
gsave
newpath
translate
1.0 setlinewidth
0 setlinejoin

0 setlinecap

0 3 m
-3 -3 l
3 -3 l
cl

gsave
0.173 0.627 0.173 setrgbcolor
fill
grestore
stroke
grestore
} bind def
69.1375 346.636 o
grestore
0.000 setgray
/DejaVuSans 10.000 selectfont
gsave

87.1375 343.136 translate
0 rotate
0 0 m /c glyphshow
5.49805 0 m /three glyphshow
grestore
gsave
354.501136 226.014338 m
608.1375 226.014338 l
608.1375 389.073162 l
354.501136 389.073162 l
cl
1.000 setgray
fill
grestore
0.800 setlinewidth
1 setlinejoin
gsave
/o {
gsave
newpath
translate
0.8 setlinewidth
1 setlinejoin

0 setlinecap

0 0 m
0 -3.5 l

gsave
0.000 setgray
fill
grestore
stroke
grestore
} bind def
368.283 226.014 o
grestore
gsave
/o {
gsave
newpath
translate
0.8 setlinewidth
1 setlinejoin

0 setlinecap

0 0 m
0 -3.5 l

gsave
0.000 setgray
fill
grestore
stroke
grestore
} bind def
405.837 226.014 o
grestore
gsave
/o {
gsave
newpath
translate
0.8 setlinewidth
1 setlinejoin

0 setlinecap

0 0 m
0 -3.5 l

gsave
0.000 setgray
fill
grestore
stroke
grestore
} bind def
443.39 226.014 o
grestore
gsave
/o {
gsave
newpath
translate
0.8 setlinewidth
1 setlinejoin

0 setlinecap

0 0 m
0 -3.5 l

gsave
0.000 setgray
fill
grestore
stroke
grestore
} bind def
480.944 226.014 o
grestore
gsave
/o {
gsave
newpath
translate
0.8 setlinewidth
1 setlinejoin

0 setlinecap

0 0 m
0 -3.5 l

gsave
0.000 setgray
fill
grestore
stroke
grestore
} bind def
518.497 226.014 o
grestore
gsave
/o {
gsave
newpath
translate
0.8 setlinewidth
1 setlinejoin

0 setlinecap

0 0 m
0 -3.5 l

gsave
0.000 setgray
fill
grestore
stroke
grestore
} bind def
556.051 226.014 o
grestore
gsave
/o {
gsave
newpath
translate
0.8 setlinewidth
1 setlinejoin

0 setlinecap

0 0 m
0 -3.5 l

gsave
0.000 setgray
fill
grestore
stroke
grestore
} bind def
593.604 226.014 o
grestore
/DejaVuSans 10.000 selectfont
gsave

446.983 210.921 translate
0 rotate
0 0 m /C glyphshow
6.98242 0 m /o glyphshow
13.1006 0 m /r glyphshow
17.0869 0 m /r glyphshow
21.1982 0 m /i glyphshow
23.9766 0 m /e glyphshow
30.1289 0 m /n glyphshow
36.4668 0 m /t glyphshow
40.3877 0 m /e glyphshow
46.54 0 m /space glyphshow
49.7188 0 m /r glyphshow
53.5801 0 m /e glyphshow
59.7324 0 m /a glyphshow
65.8604 0 m /l glyphshow
grestore
gsave
/o {
gsave
newpath
translate
0.8 setlinewidth
1 setlinejoin

0 setlinecap

-0 0 m
-3.5 0 l

gsave
0.000 setgray
fill
grestore
stroke
grestore
} bind def
354.501 232.518 o
grestore
gsave
/o {
gsave
newpath
translate
0.8 setlinewidth
1 setlinejoin

0 setlinecap

-0 0 m
-3.5 0 l

gsave
0.000 setgray
fill
grestore
stroke
grestore
} bind def
354.501 265.37 o
grestore
gsave
/o {
gsave
newpath
translate
0.8 setlinewidth
1 setlinejoin

0 setlinecap

-0 0 m
-3.5 0 l

gsave
0.000 setgray
fill
grestore
stroke
grestore
} bind def
354.501 298.221 o
grestore
gsave
/o {
gsave
newpath
translate
0.8 setlinewidth
1 setlinejoin

0 setlinecap

-0 0 m
-3.5 0 l

gsave
0.000 setgray
fill
grestore
stroke
grestore
} bind def
354.501 331.073 o
grestore
gsave
/o {
gsave
newpath
translate
0.8 setlinewidth
1 setlinejoin

0 setlinecap

-0 0 m
-3.5 0 l

gsave
0.000 setgray
fill
grestore
stroke
grestore
} bind def
354.501 363.925 o
grestore
/DejaVuSans 10.000 selectfont
gsave

344.923 295.348 translate
90 rotate
0 0 m /E glyphshow
6.31836 0 m /r glyphshow
10.3047 0 m /r glyphshow
14.166 0 m /o glyphshow
20.2842 0 m /r glyphshow
grestore
1.000 setlinewidth
0.122 0.467 0.706 setrgbcolor
gsave
253.636 163.059 354.501 226.014 clipbox
/o {
gsave
newpath
translate
1.0 setlinewidth
1 setlinejoin

0 setlinecap

-3 -3 m
3 3 l
-3 3 m
3 -3 l

gsave
0.122 0.467 0.706 setrgbcolor
fill
grestore
stroke
grestore
} bind def
480.906 241.864 o
452.403 238.282 o
596.609 245.136 o
566.566 263.96 o
452.403 241.427 o
423.186 254.078 o
566.566 251.756 o
538.175 252.694 o
452.704 246.687 o
423.787 245.204 o
567.317 262.003 o
538.551 256.268 o
423.712 246.165 o
395.322 259.593 o
538.1 261.879 o
509.334 256.539 o
452.929 260.516 o
424.088 274.521 o
566.566 272.338 o
538.25 253.778 o
423.938 248.449 o
396.073 247.807 o
537.8 251.165 o
509.334 252.251 o
424.313 249.714 o
396.824 258.385 o
538.25 248.677 o
509.785 252.863 o
396.073 254.008 o
367.532 270.106 o
509.259 267.395 o
480.927 268.531 o
grestore
1.000 0.498 0.055 setrgbcolor
gsave
253.636 163.059 354.501 226.014 clipbox
/o {
gsave
newpath
translate
1.0 setlinewidth
1 setlinejoin

0 setlinecap

0 -3 m
0.795609 -3 1.55874 -2.683901 2.12132 -2.12132 c
2.683901 -1.55874 3 -0.795609 3 0 c
3 0.795609 2.683901 1.55874 2.12132 2.12132 c
1.55874 2.683901 0.795609 3 0 3 c
-0.795609 3 -1.55874 2.683901 -2.12132 2.12132 c
-2.683901 1.55874 -3 0.795609 -3 0 c
-3 -0.795609 -2.683901 -1.55874 -2.12132 -2.12132 c
-1.55874 -2.683901 -0.795609 -3 0 -3 c
cl

gsave
1.000 0.498 0.055 setrgbcolor
fill
grestore
stroke
grestore
} bind def
480.906 241.863 o
452.403 238.205 o
596.609 245.444 o
566.566 264.19 o
452.403 241.35 o
423.186 253.926 o
566.566 251.984 o
538.175 252.847 o
452.704 246.612 o
423.787 245.052 o
567.317 262.235 o
538.551 256.422 o
423.712 246.012 o
395.322 259.367 o
538.1 262.033 o
509.334 256.616 o
452.929 260.444 o
424.088 274.373 o
566.566 272.569 o
538.25 253.932 o
423.938 248.298 o
396.073 247.582 o
537.8 251.318 o
509.334 252.328 o
424.313 249.564 o
396.824 258.163 o
538.25 248.83 o
509.785 252.941 o
396.073 253.784 o
367.532 269.808 o
509.259 267.474 o
480.927 268.534 o
grestore
0 setlinejoin
0.173 0.627 0.173 setrgbcolor
gsave
253.636 163.059 354.501 226.014 clipbox
/o {
gsave
newpath
translate
1.0 setlinewidth
0 setlinejoin

0 setlinecap

0 3 m
-3 -3 l
3 -3 l
cl

gsave
0.173 0.627 0.173 setrgbcolor
fill
grestore
stroke
grestore
} bind def
480.906 241.759 o
452.403 243.65 o
596.609 244.844 o
566.566 269.197 o
452.403 250.213 o
423.186 268.356 o
566.566 260.577 o
538.175 267.026 o
452.704 241.69 o
423.787 245.9 o
567.317 256.999 o
538.551 256.906 o
423.712 250.24 o
395.322 269.09 o
538.1 265.784 o
509.334 266.089 o
452.929 250.266 o
424.088 269.696 o
566.566 262.221 o
538.25 249.308 o
423.938 247.352 o
396.073 252.103 o
537.8 250.131 o
509.334 256.717 o
424.313 235.034 o
396.824 249 o
538.25 234.139 o
509.785 243.746 o
396.073 248.185 o
367.532 269.671 o
509.259 261.491 o
480.927 268.108 o
grestore
0.800 setlinewidth
2 setlinecap
0.000 setgray
gsave
354.501136 226.014338 m
354.501136 389.073162 l
stroke
grestore
gsave
608.1375 226.014338 m
608.1375 389.073162 l
stroke
grestore
gsave
354.501136 226.014338 m
608.1375 226.014338 l
stroke
grestore
gsave
354.501136 389.073162 m
608.1375 389.073162 l
stroke
grestore
/DejaVuSans 12.000 selectfont
gsave

461.405 395.073 translate
0 rotate
0 0 m /F glyphshow
5.77734 0 m /a glyphshow
13.1309 0 m /s glyphshow
19.3828 0 m /e glyphshow
26.7656 0 m /space glyphshow
30.5801 0 m /D glyphshow
grestore
1.000 setlinewidth
0 setlinecap
0.800 setgray
gsave
557.278125 337.057537 m
601.1375 337.057537 l
602.470833 337.057537 603.1375 337.724203 603.1375 339.057537 c
603.1375 382.073162 l
603.1375 383.406495 602.470833 384.073162 601.1375 384.073162 c
557.278125 384.073162 l
555.944792 384.073162 555.278125 383.406495 555.278125 382.073162 c
555.278125 339.057537 l
555.278125 337.724203 555.944792 337.057537 557.278125 337.057537 c
cl
gsave
1.000 setgray
fill
grestore
stroke
grestore
1 setlinejoin
0.122 0.467 0.706 setrgbcolor
gsave
/o {
gsave
newpath
translate
1.0 setlinewidth
1 setlinejoin

0 setlinecap

-3 -3 m
3 3 l
-3 3 m
3 -3 l

gsave
0.122 0.467 0.706 setrgbcolor
fill
grestore
stroke
grestore
} bind def
569.278 375.979 o
grestore
0.000 setgray
/DejaVuSans 10.000 selectfont
gsave

587.278 372.479 translate
0 rotate
0 0 m /c glyphshow
5.49805 0 m /one glyphshow
grestore
1.000 0.498 0.055 setrgbcolor
gsave
/o {
gsave
newpath
translate
1.0 setlinewidth
1 setlinejoin

0 setlinecap

0 -3 m
0.795609 -3 1.55874 -2.683901 2.12132 -2.12132 c
2.683901 -1.55874 3 -0.795609 3 0 c
3 0.795609 2.683901 1.55874 2.12132 2.12132 c
1.55874 2.683901 0.795609 3 0 3 c
-0.795609 3 -1.55874 2.683901 -2.12132 2.12132 c
-2.683901 1.55874 -3 0.795609 -3 0 c
-3 -0.795609 -2.683901 -1.55874 -2.12132 -2.12132 c
-1.55874 -2.683901 -0.795609 -3 0 -3 c
cl

gsave
1.000 0.498 0.055 setrgbcolor
fill
grestore
stroke
grestore
} bind def
569.278 361.308 o
grestore
0.000 setgray
/DejaVuSans 10.000 selectfont
gsave

587.278 357.808 translate
0 rotate
0 0 m /c glyphshow
5.49805 0 m /two glyphshow
grestore
0 setlinejoin
0.173 0.627 0.173 setrgbcolor
gsave
/o {
gsave
newpath
translate
1.0 setlinewidth
0 setlinejoin

0 setlinecap

0 3 m
-3 -3 l
3 -3 l
cl

gsave
0.173 0.627 0.173 setrgbcolor
fill
grestore
stroke
grestore
} bind def
569.278 346.636 o
grestore
0.000 setgray
/DejaVuSans 10.000 selectfont
gsave

587.278 343.136 translate
0 rotate
0 0 m /c glyphshow
5.49805 0 m /three glyphshow
grestore
gsave
193.4175 37.54375 m
446.8575 37.54375 l
446.8575 203.14375 l
193.4175 203.14375 l
cl
1.000 setgray
fill
grestore
0.800 setlinewidth
1 setlinejoin
gsave
/o {
gsave
newpath
translate
0.8 setlinewidth
1 setlinejoin

0 setlinecap

0 0 m
0 -3.5 l

gsave
0.000 setgray
fill
grestore
stroke
grestore
} bind def
209.368 37.5438 o
grestore
/DejaVuSans 10.000 selectfont
gsave

197.228 22.95 translate
0 rotate
0 0 m /minus glyphshow
8.37891 0 m /one glyphshow
14.7412 0 m /period glyphshow
17.9199 0 m /five glyphshow
grestore
gsave
/o {
gsave
newpath
translate
0.8 setlinewidth
1 setlinejoin

0 setlinecap

0 0 m
0 -3.5 l

gsave
0.000 setgray
fill
grestore
stroke
grestore
} bind def
246.291 37.5438 o
grestore
/DejaVuSans 10.000 selectfont
gsave

234.151 22.95 translate
0 rotate
0 0 m /minus glyphshow
8.37891 0 m /one glyphshow
14.7412 0 m /period glyphshow
17.9199 0 m /zero glyphshow
grestore
gsave
/o {
gsave
newpath
translate
0.8 setlinewidth
1 setlinejoin

0 setlinecap

0 0 m
0 -3.5 l

gsave
0.000 setgray
fill
grestore
stroke
grestore
} bind def
283.214 37.5438 o
grestore
/DejaVuSans 10.000 selectfont
gsave

271.074 22.95 translate
0 rotate
0 0 m /minus glyphshow
8.37891 0 m /zero glyphshow
14.7412 0 m /period glyphshow
17.9199 0 m /five glyphshow
grestore
gsave
/o {
gsave
newpath
translate
0.8 setlinewidth
1 setlinejoin

0 setlinecap

0 0 m
0 -3.5 l

gsave
0.000 setgray
fill
grestore
stroke
grestore
} bind def
320.137 37.5438 o
grestore
/DejaVuSans 10.000 selectfont
gsave

312.184 22.95 translate
0 rotate
0 0 m /zero glyphshow
6.3623 0 m /period glyphshow
9.54102 0 m /zero glyphshow
grestore
gsave
/o {
gsave
newpath
translate
0.8 setlinewidth
1 setlinejoin

0 setlinecap

0 0 m
0 -3.5 l

gsave
0.000 setgray
fill
grestore
stroke
grestore
} bind def
357.061 37.5438 o
grestore
/DejaVuSans 10.000 selectfont
gsave

349.107 22.95 translate
0 rotate
0 0 m /zero glyphshow
6.3623 0 m /period glyphshow
9.54102 0 m /five glyphshow
grestore
gsave
/o {
gsave
newpath
translate
0.8 setlinewidth
1 setlinejoin

0 setlinecap

0 0 m
0 -3.5 l

gsave
0.000 setgray
fill
grestore
stroke
grestore
} bind def
393.984 37.5438 o
grestore
/DejaVuSans 10.000 selectfont
gsave

386.031 22.95 translate
0 rotate
0 0 m /one glyphshow
6.3623 0 m /period glyphshow
9.54102 0 m /zero glyphshow
grestore
gsave
/o {
gsave
newpath
translate
0.8 setlinewidth
1 setlinejoin

0 setlinecap

0 0 m
0 -3.5 l

gsave
0.000 setgray
fill
grestore
stroke
grestore
} bind def
430.907 37.5438 o
grestore
/DejaVuSans 10.000 selectfont
gsave

422.954 22.95 translate
0 rotate
0 0 m /one glyphshow
6.3623 0 m /period glyphshow
9.54102 0 m /five glyphshow
grestore
/DejaVuSans 10.000 selectfont
gsave

285.802 9.27813 translate
0 rotate
0 0 m /C glyphshow
6.98242 0 m /o glyphshow
13.1006 0 m /r glyphshow
17.0869 0 m /r glyphshow
21.1982 0 m /i glyphshow
23.9766 0 m /e glyphshow
30.1289 0 m /n glyphshow
36.4668 0 m /t glyphshow
40.3877 0 m /e glyphshow
46.54 0 m /space glyphshow
49.7188 0 m /r glyphshow
53.5801 0 m /e glyphshow
59.7324 0 m /a glyphshow
65.8604 0 m /l glyphshow
grestore
gsave
/o {
gsave
newpath
translate
0.8 setlinewidth
1 setlinejoin

0 setlinecap

-0 0 m
-3.5 0 l

gsave
0.000 setgray
fill
grestore
stroke
grestore
} bind def
193.418 44.1489 o
grestore
/DejaVuSans 10.000 selectfont
gsave

164.152 40.352 translate
0 rotate
0 0 m /zero glyphshow
6.3623 0 m /period glyphshow
9.54102 0 m /zero glyphshow
15.9033 0 m /zero glyphshow
grestore
gsave
/o {
gsave
newpath
translate
0.8 setlinewidth
1 setlinejoin

0 setlinecap

-0 0 m
-3.5 0 l

gsave
0.000 setgray
fill
grestore
stroke
grestore
} bind def
193.418 77.5124 o
grestore
/DejaVuSans 10.000 selectfont
gsave

164.152 73.7156 translate
0 rotate
0 0 m /zero glyphshow
6.3623 0 m /period glyphshow
9.54102 0 m /zero glyphshow
15.9033 0 m /two glyphshow
grestore
gsave
/o {
gsave
newpath
translate
0.8 setlinewidth
1 setlinejoin

0 setlinecap

-0 0 m
-3.5 0 l

gsave
0.000 setgray
fill
grestore
stroke
grestore
} bind def
193.418 110.876 o
grestore
/DejaVuSans 10.000 selectfont
gsave

164.152 107.079 translate
0 rotate
0 0 m /zero glyphshow
6.3623 0 m /period glyphshow
9.54102 0 m /zero glyphshow
15.9033 0 m /four glyphshow
grestore
gsave
/o {
gsave
newpath
translate
0.8 setlinewidth
1 setlinejoin

0 setlinecap

-0 0 m
-3.5 0 l

gsave
0.000 setgray
fill
grestore
stroke
grestore
} bind def
193.418 144.24 o
grestore
/DejaVuSans 10.000 selectfont
gsave

164.152 140.443 translate
0 rotate
0 0 m /zero glyphshow
6.3623 0 m /period glyphshow
9.54102 0 m /zero glyphshow
15.9033 0 m /six glyphshow
grestore
gsave
/o {
gsave
newpath
translate
0.8 setlinewidth
1 setlinejoin

0 setlinecap

-0 0 m
-3.5 0 l

gsave
0.000 setgray
fill
grestore
stroke
grestore
} bind def
193.418 177.603 o
grestore
/DejaVuSans 10.000 selectfont
gsave

164.152 173.806 translate
0 rotate
0 0 m /zero glyphshow
6.3623 0 m /period glyphshow
9.54102 0 m /zero glyphshow
15.9033 0 m /eight glyphshow
grestore
/DejaVuSans 10.000 selectfont
gsave

158.074 108.148 translate
90 rotate
0 0 m /E glyphshow
6.31836 0 m /r glyphshow
10.3047 0 m /r glyphshow
14.166 0 m /o glyphshow
20.2842 0 m /r glyphshow
grestore
1.000 setlinewidth
0.122 0.467 0.706 setrgbcolor
gsave
253.44 165.6 193.418 37.544 clipbox
/o {
gsave
newpath
translate
1.0 setlinewidth
1 setlinejoin

0 setlinecap

-3 -3 m
3 3 l
-3 3 m
3 -3 l

gsave
0.122 0.467 0.706 setrgbcolor
fill
grestore
stroke
grestore
} bind def
321.404 80.6058 o
433.344 59.1627 o
291.411 69.696 o
407.128 75.4891 o
290.008 77.5041 o
404.248 55.4172 o
263.276 55.0179 o
375.891 57.575 o
291.19 74.476 o
406.39 72.9511 o
265.27 58.3623 o
377.442 47.6146 o
263.276 54.9954 o
376.482 45.9316 o
235.879 62.2951 o
350.341 89.823 o
292.15 66.8886 o
406.39 69.8305 o
266.451 69.5399 o
377.885 78.278 o
265.122 58.1914 o
375.67 57.4608 o
236.544 55.9699 o
350.045 77.156 o
266.451 75.6015 o
376.851 61.726 o
238.168 57.3311 o
351.67 101.553 o
236.544 53.9718 o
349.528 66.3319 o
209.885 53.9454 o
321.387 46.6147 o
grestore
1.000 0.498 0.055 setrgbcolor
gsave
253.44 165.6 193.418 37.544 clipbox
/o {
gsave
newpath
translate
1.0 setlinewidth
1 setlinejoin

0 setlinecap

0 -3 m
0.795609 -3 1.55874 -2.683901 2.12132 -2.12132 c
2.683901 -1.55874 3 -0.795609 3 0 c
3 0.795609 2.683901 1.55874 2.12132 2.12132 c
1.55874 2.683901 0.795609 3 0 3 c
-0.795609 3 -1.55874 2.683901 -2.12132 2.12132 c
-2.683901 1.55874 -3 0.795609 -3 0 c
-3 -0.795609 -2.683901 -1.55874 -2.12132 -2.12132 c
-1.55874 -2.683901 -0.795609 -3 0 -3 c
cl

gsave
1.000 0.498 0.055 setrgbcolor
fill
grestore
stroke
grestore
} bind def
321.404 80.609 o
433.344 60.4008 o
291.411 69.3967 o
407.128 74.5582 o
290.008 77.1934 o
404.248 56.3373 o
263.276 54.4058 o
375.891 58.188 o
291.19 74.1767 o
406.39 72.027 o
265.27 58.9647 o
377.442 46.9929 o
263.276 54.3833 o
376.482 45.3195 o
235.879 61.3888 o
350.341 89.5161 o
292.15 66.596 o
406.39 68.9049 o
266.451 70.1349 o
377.885 77.6663 o
265.122 58.7954 o
375.67 58.0713 o
236.544 55.0677 o
350.045 76.8462 o
266.451 76.1994 o
376.851 61.1175 o
238.168 58.2276 o
351.67 101.237 o
236.544 53.0687 o
349.528 66.0225 o
209.885 55.1476 o
321.387 46.6301 o
grestore
0 setlinejoin
0.173 0.627 0.173 setrgbcolor
gsave
253.44 165.6 193.418 37.544 clipbox
/o {
gsave
newpath
translate
1.0 setlinewidth
0 setlinejoin

0 setlinecap

0 3 m
-3 -3 l
3 -3 l
cl

gsave
0.173 0.627 0.173 setrgbcolor
fill
grestore
stroke
grestore
} bind def
321.404 80.7465 o
433.344 58.7841 o
291.411 74.9265 o
407.128 70.4383 o
290.008 99.6947 o
404.248 77.5336 o
263.276 83.0774 o
375.891 85.4556 o
291.19 46.5975 o
406.39 105.295 o
265.27 85.2883 o
377.442 74.3559 o
263.276 45.071 o
376.482 55.9588 o
235.879 57.7188 o
350.341 94.091 o
292.15 69.6312 o
406.39 67.3376 o
266.451 60.7777 o
377.885 69.3032 o
265.122 55.7472 o
375.67 82.7822 o
236.544 87.3096 o
350.045 45.751 o
266.451 104.046 o
376.851 90.7015 o
238.168 79.9801 o
351.67 124.329 o
236.544 47.6357 o
349.528 72.9573 o
209.885 54.8466 o
321.387 45.701 o
grestore
0.800 setlinewidth
2 setlinecap
0.000 setgray
gsave
193.4175 37.54375 m
193.4175 203.14375 l
stroke
grestore
gsave
446.8575 37.54375 m
446.8575 203.14375 l
stroke
grestore
gsave
193.4175 37.54375 m
446.8575 37.54375 l
stroke
grestore
gsave
193.4175 203.14375 m
446.8575 203.14375 l
stroke
grestore
/DejaVuSans 12.000 selectfont
gsave

301.052 209.144 translate
0 rotate
0 0 m /F glyphshow
5.77734 0 m /a glyphshow
13.1309 0 m /s glyphshow
19.3828 0 m /e glyphshow
26.7656 0 m /space glyphshow
30.5801 0 m /E glyphshow
grestore
1.000 setlinewidth
0 setlinecap
0.800 setgray
gsave
395.998125 151.128125 m
439.8575 151.128125 l
441.190833 151.128125 441.8575 151.794792 441.8575 153.128125 c
441.8575 196.14375 l
441.8575 197.477083 441.190833 198.14375 439.8575 198.14375 c
395.998125 198.14375 l
394.664792 198.14375 393.998125 197.477083 393.998125 196.14375 c
393.998125 153.128125 l
393.998125 151.794792 394.664792 151.128125 395.998125 151.128125 c
cl
gsave
1.000 setgray
fill
grestore
stroke
grestore
1 setlinejoin
0.122 0.467 0.706 setrgbcolor
gsave
/o {
gsave
newpath
translate
1.0 setlinewidth
1 setlinejoin

0 setlinecap

-3 -3 m
3 3 l
-3 3 m
3 -3 l

gsave
0.122 0.467 0.706 setrgbcolor
fill
grestore
stroke
grestore
} bind def
407.998 190.05 o
grestore
0.000 setgray
/DejaVuSans 10.000 selectfont
gsave

425.998 186.55 translate
0 rotate
0 0 m /c glyphshow
5.49805 0 m /one glyphshow
grestore
1.000 0.498 0.055 setrgbcolor
gsave
/o {
gsave
newpath
translate
1.0 setlinewidth
1 setlinejoin

0 setlinecap

0 -3 m
0.795609 -3 1.55874 -2.683901 2.12132 -2.12132 c
2.683901 -1.55874 3 -0.795609 3 0 c
3 0.795609 2.683901 1.55874 2.12132 2.12132 c
1.55874 2.683901 0.795609 3 0 3 c
-0.795609 3 -1.55874 2.683901 -2.12132 2.12132 c
-2.683901 1.55874 -3 0.795609 -3 0 c
-3 -0.795609 -2.683901 -1.55874 -2.12132 -2.12132 c
-1.55874 -2.683901 -0.795609 -3 0 -3 c
cl

gsave
1.000 0.498 0.055 setrgbcolor
fill
grestore
stroke
grestore
} bind def
407.998 175.378 o
grestore
0.000 setgray
/DejaVuSans 10.000 selectfont
gsave

425.998 171.878 translate
0 rotate
0 0 m /c glyphshow
5.49805 0 m /two glyphshow
grestore
0 setlinejoin
0.173 0.627 0.173 setrgbcolor
gsave
/o {
gsave
newpath
translate
1.0 setlinewidth
0 setlinejoin

0 setlinecap

0 3 m
-3 -3 l
3 -3 l
cl

gsave
0.173 0.627 0.173 setrgbcolor
fill
grestore
stroke
grestore
} bind def
407.998 160.706 o
grestore
0.000 setgray
/DejaVuSans 10.000 selectfont
gsave

425.998 157.206 translate
0 rotate
0 0 m /c glyphshow
5.49805 0 m /three glyphshow
grestore

end
showpage
