36914
36966
36966
37018
37019
36966
36966
36914
36914
36861
36861
36914
36913
36966
36966
37018
37018
36966
36966
36914
36914
36861
36861
36913
36913
36966
36966
37018
37018
36966
36966
36913
36913
36861
36861
36913
36913
36966
36966
37018
37018
36966
36966
36913
36913
36861
36861
36913
36913
36966
36966
36913
36913
36861
36861
36808
36808
36860
36860
36913
36913
36965
36965
36913
36913
36860
36860
36808
36807
36860
36860
36912
36912
36965
36965
37017
37017
36965
36965
36912
36912
36965
36965
37017
37017
37070
37070
37115
37115
37063
37063
37010
37010
36958
36958
37010
37010
37063
37063
37074
37074
37022
37022
36970
36970
36938
36938
36991
36991
37043
37043
37096
37096
37043
37043
36991
36991
36939
36939
36958
36958
36905
36905
36958
36958
36905
36905
36853
36853
36905
36905
36957
36957
37010
37010
36957
36957
36954
36954
37006
37006
37059
37059
37022
37022
37075
37075
37127
37127
37075
37075
37023
37023
36970
36970
37015
37015
37030
37030
36978
36978
36926
36926
36873
36873
36925
36925
36978
36978
37030
37030
36978
36978
36926
36926
36873
36873
36925
36925
36978
36978
37030
37030
36978
36978
36926
36926
36873
36873
36925
36925
36978
36978
37030
37030
36978
36978
36925
36925
36873
36873
36925
36925
36978
36978
37030
37030
36978
36978
36925
36925
36873
36873
36925
36925
36978
36978
37030
37030
36978
36978
36925
36925
36873
36873
36925
36925
36978
36978
37030
37030
36978
36978
36925
36925
36939
36939
36943
36943
36995
36995
37048
37048
37100
37100
37048
37048
36996
36996
36943
36943
36996
36996
37048
37048
37068
37068
37016
37016
36964
36964
36911
36911
36963
36963
36932
36932
36880
36880
36878
36878
36826
36826
36796
36796
36849
36849
36901
36901
36953
36953
36943
36943
36890
36890
36838
36838
36890
36890
36873
36873
36926
36926
36935
36935
36950
36950
36897
36897
36950
36950
36915
36915
36863
36863
36915
36915
36919
36919
36971
36971
36919
36919
36969
36969
36916
36916
36864
36864
36873
36873
36820
36820
36872
36872
36925
36925
36872
36872
36918
36918
36971
36971
36995
36995
37047
37047
37078
37078
37044
37044
36992
36992
36939
36939
36976
36976
36972
36972
37025
37025
37037
37037
36984
36984
36932
36932
36907
36907
36855
36855
36907
36907
36960
36960
36907
36907
36884
36884
36845
36845
36898
36898
36950
36950
36960
36960
36908
36908
36855
36855
36803
36803
36855
36855
36907
36907
36960
36960
37012
37012
36960
36960
37012
37012
37065
37065
37088
37089
37141
37141
37089
37089
37037
37037
36984
36984
36932
36932
36984
36984
37037
37037
37085
37086
37033
37033
36981
36981
36928
36928
36981
36981
37033
37033
36981
36981
36929
36929
36876
36876
36928
36928
36981
36981
37033
37033
37086
37086
37034
37034
37018
37018
36966
36966
36935
36935
36987
36987
36992
36992
36940
36940
36887
36887
36919
36919
36969
36969
36917
36917
36969
36969
37021
37021
37074
37074
37022
37022
36970
36970
36918
36917
36970
36970
36969
36969
36917
36917
36950
36950
36898
36898
36950
36950
37003
37003
36950
36950
36958
36958
37010
37010
36969
36969
36917
36917
36969
36969
36965
36965
36913
36913
36889
36889
36941
36941
36939
36939
36991
36991
37043
37044
36991
36991
36939
36939
36886
36886
36939
36939
36991
36991
36988
36988
36936
36936
36883
36883
36936
36936
36988
36988
37041
37041
37093
37093
37041
37041
36988
36988
36936
36936
36988
36988
37041
37041
37093
37094
37146
37146
37094
37094
37042
37042
36989
36989
36937
36937
36989
36989
37042
37042
36989
36989
36937
36937
36885
36884
36937
36937
36989
36989
37042
37042
36989
36989
36937
36937
36885
36885
36937
36937
36989
36989
37042
37042
36989
36989
36937
36937
36885
36885
36937
36937
36989
36989
37042
37042
36990
36990
36937
36937
36885
36885
36937
36937
36989
36989
36940
36940
36887
36887
36940
36940
36951
36951
36899
36899
36951
36951
36899
36899
36901
36901
36849
36849
36901
36901
36953
36953
37006
37006
36953
36953
36901
36901
36953
36953
37006
37006
37058
37058
37006
37006
36954
36954
36901
36901
36954
36954
37006
37006
36993
36993
36940
36940
36888
36888
36940
36940
36943
36943
36970
36970
36918
36917
36901
36901
36849
36848
36901
36901
36953
36953
36901
36901
36848
36848
36796
36796
36848
36848
36869
36869
36817
36817
36764
36764
36787
36787
36840
36839
36892
36892
36944
36944
36892
36892
36839
36839
36787
36787
36839
36839
36891
36891
36944
36944
36891
36891
36839
36838
36860
36860
36912
36912
36965
36965
37017
37017
37070
37070
37017
37017
36965
36965
36912
36912
36965
36965
37017
37017
37070
37070
37017
37017
36965
36965
36913
36913
36965
36965
36952
36952
37005
37005
36952
36952
36900
36900
36860
36860
36912
36912
36965
36965
36990
36990
36938
36938
36983
36983
36964
36964
36911
36911
36859
36859
36911
36911
36963
36963
36929
36929
36971
36971
36998
36998
37002
37002
36949
36949
36941
36941
36956
36956
36903
36903
36851
36851
36903
36903
36956
36956
37008
37008
37061
37061
37008
37008
36956
36956
36903
36903
36956
36956
37008
37008
37061
37061
37008
37009
36956
36956
36904
36904
36956
36956
37008
37009
37061
37061
37009
37009
36956
36956
36904
36904
36956
36956
37009
37009
37061
37061
37009
37009
36956
36956
36904
36904
36956
36956
37009
37009
37061
37061
37009
37009
36957
36957
36904
36904
36918
36918
36876
36876
36903
36903
36880
36880
36932
36932
36984
36984
36975
36975
36926
36926
36873
36873
36926
36926
36922
36922
36914
36914
36966
36966
36971
36971
36919
36919
36868
36868
36815
36815
36868
36867
36920
36920
36867
36867
36815
36815
36867
36867
36919
36919
36882
36882
36871
36871
36923
36923
36901
36901
36947
36947
36924
36924
36872
36872
36909
36909
36870
36870
36839
36839
36787
36787
36757
36757
36761
36761
36813
36813
36865
36865
36813
36813
36760
36760
36812
36812
36864
36864
36830
36830
36777
36777
36724
36724
36672
36672
36724
36724
36776
36776
36793
36793
36742
36742
36794
36794
36847
36847
36899
36899
36846
36846
36851
36851
36858
36858
36911
36911
36963
36963
37015
37015
36963
36963
36911
36911
36866
36866
36918
36918
36971
36971
37018
37018
36966
36966
36914
36914
36966
36966
36914
36914
36966
36966
36914
36914
36881
36881
36931
36931
36983
36983
37022
37022
36970
36970
36917
36917
36865
36865
36839
36838
36891
36891
36943
36943
36961
36961
36909
36909
36877
36877
36929
36929
36904
36904
36927
36927
36904
36904
36904
36904
36851
36851
36903
36903
36956
36956
36938
36938
36885
36885
36833
36833
36818
36818
36870
36870
36923
36923
36945
36945
36893
36893
36840
36840
36892
36892
36945
36945
36997
36997
36945
36945
36892
36892
36872
36872
36922
36922
36974
36974
37027
37027
36974
36974
36922
36922
36869
36869
36922
36922
36974
36974
37027
37027
36974
36974
36922
36922
36869
36869
36922
36922
36974
36974
37027
37027
36974
36974
36922
36922
36869
36869
36922
36922
36974
36974
37027
37027
36974
36974
36922
36922
36869
36869
36922
36922
36974
36974
37027
37027
37079
37079
37027
37027
36974
36974
36922
36922
36974
36974
37027
37027
37079
37080
37027
37027
36975
36975
36922
36922
36975
36975
37010
37010
37010
37010
36958
36958
36905
36905
36876
36876
36926
36926
36979
36979
37031
37031
36979
36979
36926
36926
36874
36874
36880
36880
36933
36933
36985
36985
37037
37038
36985
36985
36933
36933
36880
36880
36872
36872
36925
36925
36977
36977
37030
37030
36977
36977
36925
36925
36872
36872
36925
36925
36977
36977
37030
37030
36977
36977
36925
36925
36873
36872
36925
36925
36977
36977
37030
37030
36977
36977
36925
36925
36873
36872
36925
36925
36977
36977
37030
37030
36977
36977
36925
36925
36899
36899
36952
36952
37004
37004
37057
37057
37005
37005
36952
36952
36900
36900
36952
36952
37005
37005
37057
37057
37005
37005
36952
36952
36900
36900
36952
36952
37005
37005
37057
37057
37005
37005
36953
36953
36900
36900
36952
36952
37005
37005
37057
37058
37110
37110
37058
37058
37005
37005
36953
36953
37006
37006
37058
37058
37098
37098
37045
37046
36993
36993
36941
36941
36993
36993
37046
37046
37027
37027
36975
36975
36922
36922
36870
36870
36922
36922
36974
36974
36997
36997
36944
36944
36892
36892
36944
36944
36997
36997
37027
37027
36975
36975
36922
36922
36870
36870
36901
36901
36954
36954
37006
37006
36954
36954
36901
36901
36917
36917
36969
36969
36981
36981
36997
36997
36944
36944
36892
36892
36839
36839
36892
36892
36944
36944
36996
36996
36944
36944
36892
36892
36944
36944
36996
36996
37049
37049
36997
36997
36944
36944
36892
36892
36944
36944
36997
36997
36989
36989
36937
36937
36884
36884
36832
36832
36884
36884
36936
36936
36989
36989
36936
36936
36884
36884
36831
36831
36884
36884
36936
36936
36988
36988
36936
36936
36884
36884
36831
36831
36883
36883
36936
36936
36988
36988
36936
36936
36883
36883
36936
36936
36980
36980
37033
37033
36981
36981
36928
36928
36876
36876
36928
36928
36969
36969
36917
36917
36864
36864
36812
36812
36864
36864
36916
36916
36969
36969
36916
36916
36864
36864
36811
36811
36863
36863
36916
36916
36968
36968
36916
36916
36953
36953
36901
36901
36953
36953
37005
37005
37033
37033
37067
37067
37014
37014
36962
36962
36909
36909
36962
36962
36909
36909
36962
36962
36991
36991
36939
36939
36900
36900
36952
36952
36949
36949
36946
36946
36893
36893
36841
36841
36893
36893
36945
36945
36896
36896
36888
36888
36865
36865
36812
36812
36864
36864
36917
36917
36969
36969
36983
36983
36930
36930
36952
36952
36900
36900
36937
36937
36956
36956
36907
36907
36914
36914
36967
36967
37019
37019
36967
36967
36998
36998
37051
37051
37002
37002
36968
36968
37020
37020
37073
37073
37119
37119
37066
37066
37014
37014
37025
37025
37041
37041
37018
37018
37067
37067
37075
37075
37127
37127
37075
37075
37023
37023
36970
36970
36966
36966
37018
37018
37071
37071
37123
37124
37071
37071
37019
37019
36967
36967
36917
36917
36909
36909
36962
36962
36909
36909
36857
36857
36840
36839
36892
36892
36944
36944
36997
36997
36944
36944
36892
36892
36839
36839
36892
36892
36944
36944
36892
36892
36839
36839
36786
36786
36839
36839
36891
36891
36839
36838
36786
36786
36764
36764
36816
36816
36869
36869
36921
36921
36869
36868
36876
36876
36918
36918
36866
36866
36918
36918
36876
36876
36823
36823
36856
36856
36852
36852
36905
36905
36918
36918
36937
36937
36933
36933
36898
36898
36951
36951
36898
36898
36906
36906
36958
36958
37011
37011
36959
36959
36906
36906
36958
36958
36906
36906
36883
36883
36830
36830
36883
36883
36830
36830
36882
36882
36830
36830
36882
36882
36890
36890
36924
36924
36920
36920
36973
36973
37025
37025
36973
36973
36921
36921
36973
36973
36921
36921
36973
36973
36921
36921
36868
36868
36816
36816
36769
36769
36822
36822
36769
36769
36788
36788
36841
36841
36893
36893
36945
36945
36998
36998
36945
36945
36927
36927
36875
36875
36927
36927
36979
36979
36927
36927
36875
36874
36822
36822
36874
36874
36896
36896
36843
36843
36791
36791
36738
36738
36790
36790
36843
36843
36790
36790
36783
36782
36763
36763
36815
36815
36867
36867
36920
36920
36867
36867
36815
36815
36867
36867
36919
36919
36972
36972
36919
36919
36867
36867
36814
36814
36867
36867
36919
36919
36971
36971
36919
36919
36866
36866
36919
36919
36971
36971
36919
36919
36866
36866
36814
36814
36866
36866
36814
36814
36866
36866
36918
36918
36885
36885
36833
36832
36780
36780
36832
36832
36885
36884
36937
36937
36884
36884
36832
36832
36779
36779
36832
36832
36884
36884
36831
36831
36779
36779
36726
36726
36778
36778
36831
36831
36883
36883
36935
36935
36988
36988
36935
36935
36988
36988
37040
37040
37054
37054
37002
37002
36949
36949
36897
36897
36845
36845
36897
36897
36914
36914
36861
36861
36809
36809
36766
36766
36819
36819
36871
36871
36923
36923
36970
36970
36918
36918
36865
36865
36918
36918
36970
36970
37023
37023
36970
36970
36918
36918
36865
36865
36918
36918
36970
36970
37023
37023
36970
36970
36918
36918
36865
36865
36918
36918
36970
36970
36955
36955
36903
36903
36882
36882
36935
36935
36987
36987
36935
36935
36987
36987
36935
36935
36882
36882
36830
36830
36882
36882
36886
36886
36932
36932
36879
36879
36932
36932
36893
36893
36928
36928
36875
36875
36897
36897
36905
36905
36859
36859
36911
36911
36963
36963
36981
36981
36928
36928
36908
36908
36961
36961
36931
36931
36984
36984
37036
37036
37089
37089
37037
37037
36984
36984
36932
36932
36984
36984
37037
37037
36985
36985
36932
36932
36880
36880
36827
36827
36879
36879
36932
36932
36984
36984
36932
36932
36879
36879
36827
36827
36879
36879
36932
36932
36879
36879
36827
36827
36774
36774
36826
36826
36879
36879
36931
36931
36879
36878
36826
36826
36878
36878
36931
36931
36983
36983
36931
36931
36878
36878
36881
36881
36877
36877
36929
36929
36877
36877
36824
36824
36877
36877
36929
36929
36919
36919
36911
36911
36923
36923
36975
36975
36923
36923
36975
36975
36923
36923
36888
36888
36853
36853
36826
36826
36853
36853
36895
36895
36884
36884
36853
36853
36800
36800
36759
36759
36812
36811
36864
36864
36916
36916
36879
36879
36829
36829
36881
36881
36856
36856
36898
36898
36845
36845
36898
36898
36845
36845
36821
36820
36855
36855
36840
36840
36892
36892
36851
36851
36851
36851
36903
36903
36928
36928
36875
36875
36882
36882
36829
36829
36881
36881
36916
36916
36965
36965
36969
36969
36917
36917
36916
36916
36968
36968
36992
36992
37044
37045
36992
36992
36940
36940
36887
36887
36940
36940
36992
36992
37022
37022
36970
36970
36918
36918
36865
36865
36813
36813
36865
36865
36917
36917
36970
36970
36917
36917
36865
36865
36917
36917
36970
36970
36935
36935
36883
36883
36830
36830
36882
36882
36935
36935
36987
36987
36942
36942
36890
36890
36912
36912
36859
36859
36912
36912
36877
36877
36827
36827
36879
36879
36932
36932
36969
36969
36916
36916
36864
36864
36831
36830
36846
36846
36842
36842
36894
36894
36892
36892
36938
36938
36885
36885
36833
36833
36822
36822
36874
36874
36927
36927
36874
36874
36857
36857
36804
36804
36856
36856
36909
36909
36961
36961
36909
36909
36856
36856
36804
36804
36856
36856
36908
36908
36856
36856
36803
36803
36751
36751
36803
36803
36855
36855
36908
36908
36855
36855
36803
36803
36855
36855
36907
36907
36954
36954
36902
36902
36849
36849
36820
36820
36872
36872
36925
36925
36872
36872
36820
36820
36808
36808
36860
36860
36900
36900
36953
36953
36900
36900
36848
36848
36795
36795
36847
36847
36900
36900
36847
36847
36850
36850
36896
36896
36948
36948
37001
37001
37053
37053
37001
37001
36948
36948
36896
36896
36915
36915
36968
36968
37020
37020
36968
36968
36915
36915
36863
36863
36810
36810
36863
36863
36915
36915
36967
36967
36915
36915
36900
36900
36877
36877
36929
36929
36981
36982
37034
37034
36982
36982
36929
36929
36877
36877
36929
36929
36982
36982
37034
37034
36982
36982
36929
36929
36877
36877
36929
36929
36982
36982
37034
37034
37087
37087
37035
37035
36982
36982
36930
36930
36982
36982
37035
37035
37087
37088
37140
37140
37088
37088
37036
37036
37083
37083
37031
37031
37083
37083
37136
37136
37189
37189
37241
37241
37189
37189
37137
37137
37085
37085
37033
37033
36980
36980
37033
37033
37085
37085
37138
37138
37191
37191
37139
37139
37086
37086
37034
37034
36982
36982
37034
37034
37087
37087
37035
37035
36982
36982
36930
36930
36982
36982
36997
36997
37008
37009
36956
36956
36904
36904
36898
36898
36951
36951
37003
37003
36951
36951
36898
36898
36846
36846
36898
36898
36951
36951
37003
37003
36951
36951
36898
36898
36846
36846
36898
36898
36950
36950
36989
36989
36937
36937
36885
36885
36832
36832
36832
36832
36859
36859
36807
36807
36754
36754
36806
36806
36859
36859
36911
36911
36963
36963
36985
36985
36932
36932
36935
36935
36988
36988
37040
37040
36988
36988
36936
36936
36883
36883
36831
36831
36883
36883
36935
36935
36981
36981
36929
36929
36876
36876
36928
36928
36981
36981
37033
37033
37086
37086
37034
37034
36981
36981
36959
36959
36951
36951
36899
36899
36846
36846
36851
36851
36799
36799
36851
36851
36903
36903
36956
36956
36903
36903
36874
36874
36866
36866
36919
36919
36971
36971
37024
37024
36971
36971
36919
36919
36866
36866
36814
36814
36866
36866
36918
36918
36866
36866
36813
36813
36761
36761
36813
36813
36865
36865
36918
36918
36865
36865
36815
36815
36867
36867
36920
36920
36972
36972
36920
36920
36867
36867
36815
36815
36762
36762
36814
36814
36867
36867
36861
36860
36808
36808
36755
36755
36808
36808
36860
36860
36912
36912
36864
36864
36811
36811
36833
36832
36871
36871
36886
36886
36939
36939
36886
36886
36834
36834
36886
36886
36938
36938
36886
36886
36834
36833
36781
36781
36833
36833
36886
36886
36938
36938
36909
36908
36856
36856
36908
36908
36882
36882
36889
36889
36942
36942
36908
36908
36856
36856
36831
36831
36884
36883
36936
36936
36988
36988
36980
36980
36984
36984
37007
37007
37030
37030
37082
37082
37030
37030
36978
36978
37015
37015
37034
37034
37038
37038
37004
37004
37057
37057
37004
37004
36967
36967
36914
36914
36967
36967
37019
37019
36967
36967
36914
36914
36967
36967
36917
36917
36925
36925
36977
36977
36925
36925
36977
36977
37030
37030
36978
36978
36925
36925
36873
36873
36925
36925
36978
36978
37030
37030
36978
36978
36925
36925
36873
36873
36820
36820
36873
36873
36820
36820
36872
36872
36820
36820
36872
36872
36886
36886
36917
36917
36925
36925
36894
36894
36848
36848
36900
36900
36952
36952
37005
37005
36953
36953
36900
36900
36901
36901
36954
36954
37006
37006
37059
37059
37007
37007
36954
36954
36902
36902
36951
36951
37004
37004
37005
37005
36952
36952
36900
36900
36952
36952
36900
36900
36860
36860
36912
36912
36955
36955
37008
37008
36955
36955
36903
36903
36890
36890
36838
36838
36890
36890
36943
36943
36995
36995
36943
36943
36959
36959
36907
36907
36854
36854
36875
36875
36822
36822
36875
36875
36927
36927
36875
36875
36890
36890
36909
36909
36857
36856
36909
36909
36961
36961
36947
36947
36901
36901
36951
36951
36898
36898
36951
36951
37003
37003
37008
37008
36955
36955
36903
36903
36851
36850
36903
36903
36955
36955
36903
36903
36850
36850
36798
36798
36850
36850
36902
36902
36955
36955
36902
36902
36955
36955
36902
36902
36955
36955
36985
36985
37037
37037
36985
36985
36932
36932
36880
36880
36932
36932
36985
36985
36932
36932
36880
36880
36886
36886
36833
36833
36886
36886
36938
36938
36962
36962
36909
36909
36857
36857
36804
36804
36857
36857
36909
36909
36857
36857
36804
36804
36752
36751
36804
36804
36856
36856
36804
36803
36751
36751
36698
36698
36750
36750
36803
36803
36855
36855
36802
36802
36790
36790
36755
36755
36807
36807
36860
36860
36912
36912
36932
36932
36880
36880
36932
36932
36974
36974
36948
36948
36895
36895
36843
36843
36895
36895
36947
36947
37000
37000
37052
37052
37000
37000
36948
36948
36895
36895
36948
36948
37000
37000
37053
37053
37000
37000
36948
36948
36896
36896
36933
36933
36985
36985
37028
37028
36975
36975
36923
36923
36870
36870
36923
36923
36975
36975
36923
36923
36870
36870
36818
36818
36870
36870
36923
36922
36870
36870
36818
36817
36837
36837
36784
36784
36836
36836
36889
36889
36836
36836
36784
36784
36731
36731
36783
36783
36835
36835
36888
36888
36835
36835
36783
36783
36730
36730
36677
36677
36730
36729
36782
36782
36834
36834
36782
36781
36729
36729
36740
36740
36792
36792
36845
36845
36897
36897
36845
36844
36879
36879
36898
36898
36944
36944
36929
36929
36981
36981
36929
36929
36876
36876
36824
36824
36864
36864
36898
36898
36846
36846
36793
36793
36845
36845
36898
36898
36924
36924
36974
36974
36921
36921
36886
36886
36882
36882
36935
36935
36951
36951
37004
37004
36951
36951
36963
36963
36910
36910
36858
36858
36828
36828
36881
36881
36828
36828
36776
36776
36801
36801
36853
36853
36906
36906
36958
36958
36906
36906
36853
36853
36801
36801
36853
36853
36905
36905
36958
36958
36905
36905
36853
36853
36800
36800
36853
36853
36905
36905
36957
36957
36905
36905
36852
36852
36804
36804
36856
36856
36908
36908
36961
36961
36909
36909
36856
36856
36804
36803
36751
36751
36803
36803
36855
36855
36803
36803
36780
36779
36791
36791
36843
36843
36830
36829
36882
36882
36934
36934
36882
36882
36934
36934
36986
36986
36963
36963
36941
36941
36922
36922
36937
36937
36884
36884
36883
36883
36936
36936
36883
36883
36845
36845
36810
36810
36790
36790
36843
36843
36895
36895
36947
36947
36978
36978
36955
36955
37008
37008
36956
36956
36948
36948
36929
36929
36981
36981
36929
36929
36877
36877
36824
36824
36868
36868
36825
36825
36871
36871
36864
36864
36916
36916
36968
36968
37021
37021
36978
36978
37008
37008
36974
36975
36922
36922
36870
36870
36917
36917
36865
36865
36813
36812
36760
36760
36812
36812
36865
36864
36886
36886
36939
36939
36947
36947
36898
36898
36932
36932
36985
36985
37037
37037
37090
37090
37037
37038
36985
36985
36933
36933
36880
36880
36933
36933
36952
36952
36899
36899
36847
36847
36899
36899
36952
36952
37004
37004
36952
36952
36899
36899
36944
36944
36892
36892
36944
36944
36910
36910
36906
36906
36854
36854
36801
36801
36749
36748
36801
36801
36853
36853
36801
36800
36853
36853
36801
36801
36854
36853
36906
36906
36893
36893
36841
36841
36824
36824
36876
36876
36929
36929
36876
36876
36929
36929
36876
36876
36843
36843
36800
36800
36853
36853
36905
36905
36958
36958
36905
36905
36853
36853
36800
36800
36853
36852
36905
36905
36957
36957
36905
36905
36852
36852
36831
36831
36883
36883
36936
36936
36988
36988
36936
36936
36883
36883
36831
36831
36883
36883
36936
36936
36988
36988
36936
36936
36883
36883
36831
36831
36883
36883
36935
36935
36883
36883
36831
36831
36778
36778
36830
36830
36883
36883
36935
36935
36883
36883
36830
36830
36778
36777
36830
36830
36882
36882
36830
36830
36777
36777
36752
36752
36804
36804
36856
36856
36909
36909
36856
36856
36875
36875
36823
36823
36875
36875
36927
36927
36959
36959
36982
36982
36929
36929
36877
36877
36929
36929
36982
36982
37034
37034
37087
37087
37035
37035
36982
36982
36930
36930
36877
36877
36930
36930
36982
36982
37035
37035
37087
37087
37035
37035
36983
36983
36930
36930
36983
36983
37035
37036
37028
37028
36976
36976
36924
36924
36871
36871
36924
36924
36976
36976
37029
37029
36976
36976
36924
36924
36871
36871
36924
36924
36976
36976
37029
37029
36976
36977
36931
36931
36878
36878
36931
36931
36983
36983
37036
37036
37078
37078
37026
37026
36973
36973
36984
36984
37037
37037
37019
37019
37037
37037
36985
36985
36933
36933
36880
36880
36933
36933
36985
36985
37038
37038
36985
36985
36933
36933
36881
36881
36828
36828
36880
36880
36933
36933
36880
36880
36828
36828
36775
36775
36828
36828
36880
36880
36932
36932
36880
36880
36827
36827
36775
36775
36827
36827
36879
36879
36827
36827
36774
36774
36722
36722
36774
36774
36826
36826
36774
36774
36721
36721
36773
36773
36826
36826
36878
36878
36930
36930
36878
36878
36853
36853
36826
36826
36878
36878
36930
36930
36983
36983
36931
36931
36878
36878
36931
36931
36983
36983
36937
36937
36884
36884
36841
36841
36893
36893
36946
36946
36925
36925
36978
36978
36925
36925
36873
36873
36821
36820
36873
36873
36925
36925
36978
36978
36925
36925
36873
36873
36872
36872
36924
36924
36977
36977
37029
37029
37082
37082
37029
37029
36977
36977
36925
36925
36977
36977
37030
37030
37082
37082
37030
37030
36978
36978
36925
36925
36978
36978
36938
36938
36990
36990
36938
36938
36886
36886
36833
36833
36885
36885
36938
36938
36990
36990
36938
36938
36886
36886
36833
36833
36885
36885
36938
36938
36990
36990
36938
36938
36886
36886
36833
36833
36885
36885
36938
36938
36990
36990
36938
36938
36885
36885
36833
36833
36885
36885
36938
36938
36990
36990
37029
37029
36976
36976
36924
36924
36892
36892
36945
36945
36997
36997
37050
37050
37044
37044
36992
36992
36939
36939
36887
36887
36939
36939
36992
36992
37044
37044
36992
36992
36940
36940
36887
36887
36940
36940
36992
36992
36996
36996
36943
36943
36891
36891
36866
36866
36878
36878
36905
36905
36852
36852
36800
36800
36843
36843
36790
36790
36843
36843
36895
36895
36947
36947
36895
36895
36843
36843
36790
36790
36842
36842
36790
36790
36842
36842
36790
36789
36788
36788
36840
36840
36892
36892
36945
36945
36971
36972
36919
36919
36867
36867
36919
36919
36926
36926
36918
36918
36866
36866
36880
36880
36932
36932
36926
36926
36978
36978
36926
36926
36873
36873
36926
36926
36978
36978
36926
36926
36874
36873
36821
36821
36873
36873
36857
36857
36849
36849
36818
36818
36766
36765
36713
36713
36765
36765
36817
36817
36765
36765
36712
36712
36764
36764
36817
36817
36766
36766
36713
36713
36661
36661
36710
36710
36726
36726
36714
36714
36682
36682
36734
36734
36787
36787
36776
36776
36764
36764
36816
36816
36806
36806
36859
36858
36911
36911
36963
36963
36911
36911
36940
36940
36914
36914
36861
36861
36914
36914
36966
36966
37019
37019
37071
37071
37019
37019
36967
36967
36979
36979
37031
37031
37084
37084
37136
37137
37084
37084
37032
37032
36980
36980
36976
36976
36924
36924
36896
36896
36919
36919
36912
36912
36859
36859
36911
36911
36915
36915
36863
36863
36915
36915
36863
36863
36915
36915
36968
36968
37020
37020
36968
36968
36938
36938
36991
36991
37010
37010
36958
36958
36906
36906
36931
36931
36879
36878
36826
36826
36878
36878
36919
36919
36881
36881
36934
36934
36986
36986
37007
37007
37014
37014
36962
36962
36909
36909
36857
36857
36909
36909
36881
36881
36934
36934
36881
36881
36829
36829
36820
36820
36872
36872
36924
36924
36977
36977
36924
36924
36900
36900
36889
36889
36941
36941
36994
36994
36969
36969
37021
37021
36969
36969
36917
36917
36864
36864
36917
36917
36935
36935
36987
36987
37033
37033
36981
36981
36928
36928
36981
36981
37033
37034
37056
37056
37075
37075
37023
37023
36970
36970
36918
36918
36970
36970
37023
37023
37075
37076
37023
37023
36971
36971
36918
36918
36971
36971
37023
37024
37076
37076
37024
37024
36971
36971
36919
36919
36972
36972
37024
37024
37039
37039
36987
36987
36935
36935
36938
36938
36979
36979
36927
36927
36979
36979
37013
37013
36983
36983
36931
36931
36983
36983
37036
37036
37089
37089
37036
37036
36984
36984
36932
36932
36879
36879
36932
36932
36984
36984
37037
37037
36984
36984
36932
36932
36879
36879
36932
36932
36984
36984
37037
37037
36985
36985
36932
36932
36880
36880
36932
36932
36966
36966
37018
37018
36966
36966
36913
36913
36861
36861
36913
36913
36966
36966
37018
37018
36966
36966
36914
36914
36861
36861
36914
36914
36966
36966
37018
37019
36966
36966
36914
36914
36861
36861
36809
36809
36861
36861
36913
36913
36966
36966
37018
37018
36966
36966
36914
36914
36861
36861
36914
36914
36966
36966
37019
37019
36966
36966
36914
36914
36894
36894
36841
36841
36894
36894
36946
36946
36996
36996
36944
36944
36970
36970
36918
36918
36963
36963
36910
36910
36963
36963
36910
36910
36858
36858
36910
36910
36962
36963
37015
37015
37004
37004
36985
36985
36955
36955
37008
37008
36955
36955
37008
37008
36997
36997
37031
37031
36979
36979
36926
36926
36880
36879
36932
36932
36922
36922
36974
36974
36997
36998
36945
36945
36893
36893
36945
36945
36998
36998
37050
37050
37084
37084
37032
37032
36979
36980
36927
36927
36980
36980
37032
37032
37085
37085
37032
37032
36980
36980
36928
36928
36980
36980
37033
37033
37085
37085
37033
37033
36981
36981
36928
36928
36981
36981
37033
37033
36992
36992
36940
36940
36887
36887
36835
36835
36887
36887
36940
36940
36992
36992
36940
36940
36887
36887
36835
36835
36887
36887
36939
36939
36905
36905
36897
36897
36949
36949
36897
36897
36949
36949
37002
37002
36958
36958
36984
36985
36935
36935
36883
36883
36935
36935
36988
36988
36935
36935
36988
36988
36935
36935
36909
36909
36924
36924
36976
36976
36989
36989
37041
37041
36989
36989
36936
36936
36884
36884
36936
36936
36959
36959
36928
36928
36966
36966
37019
37019
36966
36966
36914
36914
36932
36932
36890
36890
36902
36902
36849
36849
36901
36901
36890
36890
36942
36942
36936
36936
36940
36940
36890
36890
36936
36936
36901
36901
36954
36954
36996
36996
37027
37027
36974
36974
36922
36922
36869
36869
36922
36922
36966
36966
36925
36925
36886
36886
36913
36913
36861
36861
36913
36913
36965
36965
37012
37012
36959
36959
36907
36907
36854
36854
36907
36907
36959
36959
37012
37012
36959
36959
36907
36907
36855
36854
36907
36907
36959
36959
36974
36974
36922
36922
36974
36974
36922
36922
36955
36955
36963
36963
37015
37015
36963
36963
36911
36911
36858
36858
36910
36910
36963
36963
37015
37015
36963
36963
36911
36911
36891
36891
36902
36902
36954
36954
36963
36963
36911
36911
36858
36858
36887
36887
36939
36939
36992
36992
36978
36978
37031
37031
36978
36978
36926
36926
36874
36874
36926
36926
36978
36978
37031
37031
36979
36979
36926
36926
36874
36874
36926
36926
36979
36979
36979
36979
36926
36926
36874
36874
36891
36891
36943
36943
36996
36996
37048
37049
37101
37101
37049
37049
36996
36997
36944
36944
36997
36997
37049
37049
37092
37092
37040
37040
36988
36988
36935
36935
36988
36988
37040
37040
37093
37093
37145
37146
37093
37093
37041
37041
36989
36989
37041
37041
37094
37094
37120
37120
37068
37068
37015
37016
36963
36963
37008
37008
37024
37024
37076
37076
37129
37129
37076
37077
37024
37024
36972
36972
37024
37024
36972
36972
37025
37025
36972
36972
36920
36920
36915
36915
36967
36967
37017
37017
37002
37002
36950
36950
36897
36897
36845
36845
36897
36897
36950
36950
37002
37002
36950
36950
36897
36897
36845
36845
36792
36792
36845
36845
36897
36897
36845
36844
36792
36792
36739
36739
36792
36791
36844
36844
36896
36896
36844
36844
36791
36791
36782
36782
36834
36834
36887
36887
36939
36939
36887
36887
36834
36834
36782
36782
36729
36729
36781
36781
36834
36834
36781
36781
36728
36728
36702
36702
36754
36754
36807
36807
36857
36857
36907
36907
36855
36855
36907
36907
36960
36960
37012
37012
37065
37065
37117
37117
37065
37065
37013
37013
36960
36960
37013
37013
36961
36961
36908
36908
36856
36856
36803
36803
36855
36855
36908
36908
36960
36960
36908
36908
36855
36855
36803
36803
36855
36855
36907
36907
36960
36960
36907
36907
36855
36855
36802
36802
36855
36855
36907
36907
36855
36855
36802
36802
36750
36749
36802
36802
36854
36854
36906
36906
36854
36854
36826
36825
36798
36798
36841
36841
36893
36893
36945
36945
36998
36998
36946
36946
36893
36893
36852
36852
36905
36905
36957
36957
37010
37010
36957
36957
36914
36914
36906
36906
36958
36959
37011
37011
37064
37064
37011
37011
36990
36990
36945
36945
36922
36922
36974
36974
37027
37027
36974
36974
36922
36922
36870
36870
36922
36922
36974
36974
37027
37027
36975
36975
36922
36922
36870
36870
36922
36922
36975
36975
37027
37027
37006
37006
36953
36953
36901
36901
36849
36849
36901
36901
36953
36953
36900
36900
36848
36848
36795
36795
36848
36848
36900
36900
36952
36952
37005
37005
36953
36953
36900
36900
36848
36848
36900
36900
36952
36952
37005
37005
36953
36953
36900
36900
36848
36848
36900
36900
36952
36952
37005
37005
36953
36953
36900
36900
36848
36848
36818
36818
36870
36870
36923
36923
36975
36975
36923
36923
36870
36870
36918
36918
36970
36970
37023
37023
37075
37076
37118
37118
37066
37066
37013
37013
36961
36961
37013
37013
37021
37021
37006
37006
36954
36954
36902
36902
36877
36877
36929
36929
36982
36982
36946
36946
36893
36893
36842
36842
36831
36831
36883
36883
36831
36830
36883
36883
36830
36830
36815
36815
36867
36867
36865
36865
36812
36812
36803
36803
36834
36833
36886
36886
36876
36876
36823
36823
36876
36876
36928
36928
36980
36980
37033
37033
37085
37086
37062
37062
37009
37009
36968
36968
37020
37020
37040
37040
37092
37092
37040
37040
36988
36988
37040
37040
37033
37033
36980
36980
37033
37033
36981
36981
37033
37033
36981
36981
37018
37018
36966
36966
37018
37018
37041
37041
36989
36989
37041
37041
37019
37019
37068
37068
37015
37016
37068
37068
37098
37098
37151
37151
37106
37106
37128
37128
37076
37076
37024
37024
36972
36972
36919
36919
36972
36972
37024
37024
37055
37055
37107
37107
37160
37160
37108
37108
37055
37056
37011
37011
36988
36988
37040
37041
37090
37090
37037
37037
37090
37090
37038
37038
36985
36985
36933
36933
36985
36985
36940
36940
36992
36992
36940
36940
36887
36887
36835
36835
36887
36887
36928
36928
36939
36939
36887
36887
36835
36834
36809
36808
36861
36861
36913
36913
36966
36966
37018
37018
36966
36966
36913
36913
36861
36861
36913
36913
36966
36966
36970
36970
37022
37022
36970
36970
37022
37022
36970
36970
36917
36917
36865
36865
36917
36917
36970
36970
36932
36932
36882
36882
36934
36934
36882
36882
36924
36924
36872
36872
36819
36819
36766
36766
36819
36819
36804
36804
36856
36856
36831
36831
36883
36883
36846
36846
36899
36899
36942
36942
36890
36890
36837
36837
36889
36889
36942
36942
36994
36994
36942
36942
36889
36889
36942
36942
36889
36889
36881
36881
36828
36828
36792
36791
36739
36739
36791
36791
36843
36843
36887
36887
36835
36835
36887
36887
36835
36835
36887
36887
36940
36940
36906
36906
36854
36854
36837
36837
36790
36790
36843
36842
36895
36895
36947
36947
36895
36895
36842
36842
36848
36848
36900
36900
36932
36932
36985
36985
36932
36932
36880
36880
36827
36827
36880
36880
36932
36932
36984
36985
36932
36932
36880
36880
36827
36827
36879
36879
36932
36932
36984
36984
36932
36932
36928
36928
36924
36924
36977
36977
37029
37029
36997
36997
37034
37034
36982
36982
37035
37035
37072
37072
37020
37020
37072
37072
37028
37028
37080
37080
37028
37028
36976
36976
36923
36923
36871
36871
36923
36923
36976
36976
37028
37028
36976
36976
36923
36923
36871
36871
36923
36923
36976
36976
37028
37028
36976
36976
36923
36923
36871
36871
36884
36884
36936
36936
36989
36989
37041
37041
37058
37059
37006
37006
36961
36961
36942
36942
36965
36965
37017
37017
37070
37070
37122
37122
37175
37175
37228
37228
37175
37176
37228
37228
37176
37176
37124
37124
37072
37072
37020
37020
37072
37072
37125
37125
37177
37177
37228
37229
37176
37176
37124
37124
37072
37072
37020
37020
37048
37048
36996
36996
36944
36944
36996
36996
37003
37003
36981
36981
36928
36928
36876
36876
36897
36897
36949
36949
37002
37002
36954
36954
36943
36943
36893
36893
36924
36924
36871
36871
36924
36924
36973
36973
36921
36921
36889
36889
36904
36904
36904
36904
36852
36852
36889
36889
36935
36935
36987
36987
37007
37007
37059
37060
37007
37007
37034
37034
37034
37034
36981
36981
36929
36929
36981
36981
36929
36929
36877
36877
36929
36929
36877
36877
36824
36824
36876
36876
36929
36929
36981
36981
36929
36929
36876
36876
36824
36824
36876
36876
36928
36928
36981
36981
36929
36929
36876
36876
36824
36823
36876
36876
36928
36928
36981
36981
36928
36928
36876
36876
36823
36823
36876
36876
36928
36928
36980
36980
36928
36928
36912
36912
36859
36859
36911
36911
36964
36964
36995
36995
36943
36943
36890
36890
36943
36943
36890
36890
36850
36850
36865
36865
36861
36861
36815
36815
36867
36867
36919
36919
36926
36926
36930
36930
36878
36878
36872
36872
36925
36925
36977
36977
36957
36957
36904
36904
36857
36857
36804
36804
36857
36857
36806
36806
36767
36767
36820
36819
36872
36872
36924
36924
36977
36977
37029
37029
36977
36977
37009
37009
36957
36957
36994
36994
36942
36942
36889
36889
36941
36941
36889
36889
36837
36837
36887
36887
36939
36939
36887
36887
36939
36939
36887
36887
36939
36939
36982
36982
37035
37035
36982
36982
36945
36945
36892
36892
36941
36941
36960
36960
36907
36907
36952
36952
36900
36900
36847
36847
36833
36833
36885
36885
36887
36887
36834
36834
36782
36782
36770
36770
36823
36823
36875
36875
36927
36927
36878
36878
36832
36832
36884
36884
36937
36937
36989
36989
37042
37042
36989
36989
36937
36937
36885
36885
36937
36937
36989
36990
36937
36937
36885
36885
36937
36937
36936
36936
36928
36928
36981
36981
37027
37027
36974
36975
36922
36922
36870
36870
36817
36817
36869
36869
36824
36824
36867
36867
36847
36847
36900
36900
36878
36878
36930
36930
36878
36878
36893
36893
36928
36928
36980
36980
37033
37033
36981
36981
36929
36929
36876
36876
36843
36843
36896
36896
36948
36948
37001
37001
36948
36948
36928
36928
36875
36875
36928
36928
36980
36980
36932
36932
36879
36879
36827
36827
36774
36774
36826
36826
36879
36879
36931
36931
36879
36879
36826
36826
36773
36773
36826
36826
36878
36878
36930
36930
36878
36878
36827
36827
36807
36807
36859
36859
36912
36912
36964
36964
36912
36912
36859
36859
36807
36807
36859
36859
36911
36911
36964
36964
36911
36911
36859
36859
36806
36806
36859
36859
36911
36911
36964
36964
36911
36911
36859
36859
36806
36806
36858
36858
36911
36911
36963
36963
36911
36911
36952
36952
36952
36952
36944
36944
36986
36986
37028
37028
36975
36975
36926
36926
36873
36873
36910
36910
36963
36963
37015
37015
37068
37068
37120
37120
37068
37068
37016
37016
36963
36963
36926
36926
36979
36979
37010
37010
37062
37062
37010
37010
36958
36958
36905
36905
36958
36958
36957
36957
37010
37010
36957
36957
36905
36905
36852
36852
36905
36905
36957
36957
36905
36905
36852
36852
36800
36800
36852
36852
36904
36904
36957
36957
36904
36904
36852
36852
36799
36799
36852
36852
36904
36904
36861
36861
36826
36826
36878
36878
36931
36931
36983
36983
37036
37036
36983
36983
36931
36931
36879
36878
36931
36931
36983
36983
37036
37036
36984
36984
36931
36931
36879
36879
36931
36931
36984
36984
37036
37036
37089
37089
37036
37036
36984
36984
36932
36932
36984
36984
37037
37037
37089
37089
37037
37037
36985
36985
36932
36932
36880
36880
36932
36932
36965
36965
37018
37018
36965
36965
36913
36913
36861
36861
36913
36913
36965
36965
36913
36913
36860
36860
36808
36808
36860
36860
36913
36913
36965
36965
36913
36913
36860
36860
36808
36808
36860
36860
36877
36877
36824
36824
36772
36772
36824
36824
36876
36876
36929
36929
36981
36981
36929
36929
36960
36960
36908
36908
36960
36960
37013
37013
37065
37066
37013
37013
36961
36961
36908
36908
36856
36856
36908
36908
36961
36961
37013
37013
36961
36961
36908
36908
36856
36856
36908
36908
36961
36961
37013
37013
36961
36961
36908
36908
36856
36856
36908
36908
36961
36961
36908
36908
36856
36856
36803
36803
36856
36856
36908
36908
36960
36960
36908
36908
36856
36856
36908
36908
36960
36960
37013
37013
36960
36960
36908
36908
36856
36856
36908
36908
36960
36960
37010
37010
36957
36957
36905
36905
36852
36852
36905
36905
36957
36957
36905
36905
36852
36852
36800
36800
36852
36852
36895
36895
36948
36948
36895
36895
36843
36843
36790
36790
36842
36842
36895
36895
36947
36947
36895
36895
36842
36842
36895
36895
36947
36947
36999
36999
37020
37020
36968
36968
36915
36915
36863
36863
36915
36915
36968
36968
36944
36944
36892
36892
36845
36845
36897
36897
36845
36845
36897
36897
36949
36949
37002
37002
37024
37024
36971
36971
36919
36919
36971
36971
36929
36929
36982
36982
36952
36952
36956
36956
37008
37008
37009
37009
37062
37062
37062
37062
37010
37010
37010
37010
36957
36957
36905
36905
36941
36941
36949
36949
36976
36976
37028
37028
36976
36976
36923
36923
36938
36938
36990
36990
37025
37025
36973
36973
36920
36920
36868
36868
36865
36865
36918
36918
36957
36957
36953
36953
36919
36919
36866
36866
36814
36814
36866
36866
36919
36919
36866
36866
36876
36876
36929
36929
36981
36981
37034
37034
37059
37059
37006
37006
36954
36954
36901
36901
36849
36849
36901
36901
36954
36954
37006
37006
36954
36954
36901
36901
36954
36954
36938
36938
36990
36990
37043
37043
36991
36991
36938
36938
36991
36991
36946
36946
36998
36998
36946
36946
36999
36999
36946
36946
36894
36894
36841
36841
36894
36894
36946
36946
36894
36894
36841
36841
36788
36788
36841
36841
36893
36893
36946
36946
36893
36893
36945
36945
36900
36900
36945
36945
36998
36998
36946
36946
36938
36938
36886
36886
36833
36833
36885
36885
36938
36938
36885
36885
36938
36938
36979
36980
36995
36995
36942
36942
36890
36890
36934
36934
36930
36930
36983
36983
36934
36934
36968
36968
37021
37021
37059
37059
37007
37007
36954
36954
36946
36946
36927
36927
36896
36896
36927
36927
36979
36979
36927
36927
36979
36979
36927
36927
36979
36979
37026
37026
37078
37078
37063
37063
37011
37011
36959
36959
36906
36906
36959
36959
37011
37011
36977
36977
36925
36925
36962
36962
36910
36910
36962
36962
36970
36970
36917
36917
36878
36878
36930
36930
36878
36878
36930
36930
36983
36983
37035
37035
36983
36983
36931
36931
36878
36878
36931
36931
36878
36878
36878
36878
36866
36866
36814
36814
36828
36828
36880
36880
36932
36932
36984
36984
36932
36932
36880
36879
36827
36827
36879
36879
36932
36932
36879
36879
36827
36827
36774
36774
36826
36826
36879
36879
36931
36931
36879
36879
36826
36826
36774
36774
36826
36826
36878
36878
36931
36931
36983
36983
36949
36949
36964
36964
37010
37010
36957
36957
36964
36964
36912
36912
36964
36964
36912
36912
36907
36907
36942
36942
36968
36968
37021
37021
36968
36968
36916
36916
36863
36863
36916
36916
36968
36968
36916
36916
36863
36863
36811
36811
36758
36758
36810
36810
36863
36863
36915
36915
36863
36863
36810
36810
36758
36757
36810
36810
36862
36862
36837
36837
36806
36806
36794
36794
36741
36741
36793
36793
36846
36846
36793
36793
36805
36805
36824
36824
36876
36876
36835
36835
36888
36888
36835
36835
36783
36783
36745
36745
36798
36798
36850
36850
36902
36902
36850
36850
36797
36797
36745
36745
36797
36797
36849
36849
36902
36902
36849
36849
36797
36796
36744
36744
36796
36796
36848
36848
36901
36901
36848
36848
36796
36796
36848
36848
36900
36900
36953
36953
36900
36900
36848
36848
36900
36900
36953
36953
37005
37005
36974
36974
36922
36922
36869
36869
36817
36817
36869
36869
36921
36921
36882
36882
36867
36867
36890
36890
36837
36837
36890
36890
36913
36913
36965
36965
36974
36974
36970
36970
36918
36918
36970
36970
37008
37008
36955
36955
36905
36905
36932
36932
36936
36936
36894
36894
36946
36946
36999
36999
37051
37051
36999
36999
36947
36947
36894
36894
36947
36947
36999
36999
37052
37052
37104
37104
37052
37052
37000
37000
36947
36947
37000
37000
37052
37053
37105
37105
37053
37053
37001
37001
36948
36948
37001
37001
37053
37053
37106
37106
37133
37133
37081
37081
37029
37029
36977
36977
37029
37029
37078
37078
37112
37112
37060
37060
37008
37008
36955
36955
37008
37008
37060
37060
37008
37008
36967
36967
36978
36978
37005
37005
37020
37020
37072
37072
37020
37020
36968
36968
37020
37020
36968
36968
36948
36948
36899
36899
36910
36910
36922
36922
36974
36974
36952
36952
36900
36900
36937
36937
36885
36884
36937
36937
36989
36989
36937
36937
36945
36945
36979
36979
36986
36986
36934
36934
36987
36987
36960
36960
36908
36908
36876
36876
36928
36928
36907
36907
36952
36952
36945
36945
36892
36892
36840
36840
36892
36892
36945
36945
36990
36990
36960
36960
36907
36907
36855
36855
36907
36907
36960
36960
36948
36948
36896
36896
36844
36843
36860
36860
36872
36872
36910
36910
36858
36858
36805
36805
36752
36752
36805
36805
36857
36857
36909
36909
36859
36859
36912
36912
36890
36890
36901
36901
36936
36936
36883
36883
36831
36831
36883
36883
36936
36936
36909
36909
36856
36856
36804
36804
36856
36856
36824
36824
36771
36771
36793
36792
36796
36796
36849
36849
36796
36796
36743
36743
36796
36796
36823
36823
36875
36875
36896
36896
36873
36873
36830
36830
36882
36882
36935
36935
36987
36987
36994
36994
36942
36942
36994
36994
37010
37010
37062
37062
37092
37092
37100
37100
37100
37100
37048
37048
36996
36996
36943
36943
36988
36988
37041
37041
36988
36988
36936
36936
36883
36883
36936
36936
36969
36969
36977
36977
36925
36925
36872
36872
36882
36882
36855
36855
36907
36907
36959
36960
37012
37012
36960
36960
36907
36907
36855
36855
36907
36907
36960
36960
37012
37012
36960
36960
36907
36907
36855
36855
36907
36907
36960
36960
37012
37012
36960
36960
36907
36907
36855
36855
36907
36907
36960
36960
37012
37012
36960
36960
36907
36907
36855
36855
36802
36802
36855
36855
36907
36907
36959
36959
36907
36907
36858
36858
36901
36901
36953
36953
37005
37005
36977
36977
36924
36924
36872
36872
36924
36924
36965
36965
37018
37018
37070
37071
37086
37086
37034
37034
36981
36982
36929
36929
36877
36877
36929
36929
36981
36982
37034
37034
36993
36993
36940
36940
36888
36888
36855
36855
36908
36908
36960
36960
37013
37013
36960
36960
36908
36908
36855
36855
36908
36908
36960
36960
37013
37013
37065
37065
37013
37013
36961
36961
36908
36908
36961
36961
37013
37013
37066
37066
37013
37013
36961
36961
36909
36909
36961
36961
37014
37014
37039
37039
36987
36987
36934
36934
36882
36882
36934
36934
36987
36987
37039
37039
37047
37047
36994
36994
36945
36945
36893
36893
36945
36945
36997
36997
37050
37050
37103
37103
37050
37050
36998
36998
36946
36946
36998
36998
37051
37051
37025
37025
36973
36973
36921
36921
36868
36868
36921
36921
36973
36973
37025
37025
37078
37078
37026
37026
36973
36973
36921
36921
36973
36973
37026
37026
37078
37079
37026
37026
36974
36974
36922
36921
36869
36869
36921
36921
36974
36974
37026
37026
36974
36974
36922
36922
36869
36869
36922
36922
36974
36974
37026
37027
36974
36974
36922
36922
36869
36869
36840
36840
36892
36892
36944
36944
36892
36892
36840
36839
36892
36892
36944
36944
36997
36997
37049
37049
37102
37102
37050
37050
36997
36997
36997
36997
37049
37049
37102
37102
37050
37050
36997
36998
36945
36945
36893
36893
36945
36945
36998
36998
37050
37050
36998
36998
36945
36945
36893
36893
36945
36945
36998
36998
37024
37024
36972
36972
36919
36919
36914
36914
36941
36941
36993
36993
37046
37046
36994
36994
36941
36941
36889
36889
36941
36941
36994
36994
37046
37046
36994
36994
36941
36941
36889
36889
36941
36941
36994
36994
37017
37017
36965
36965
36912
36912
36860
36860
36912
36912
36965
36965
37017
37017
36965
36965
36912
36912
36860
36860
36912
36912
36965
36965
36942
36942
36889
36889
36941
36941
36889
36889
36837
36836
36889
36889
36941
36941
36994
36994
36941
36941
36889
36889
36836
36836
36889
36889
36941
36941
36994
36994
36941
36941
36889
36889
36836
36836
36889
36889
36941
36941
36993
36993
36941
36941
36971
36972
36919
36919
36867
36867
36919
36919
36907
36907
36854
36854
36887
36887
36940
36940
36887
36887
36940
36940
36992
36992
36940
36940
36887
36887
36876
36876
36928
36928
36876
36876
36928
36928
36980
36980
36928
36928
36876
36876
36906
36906
36959
36959
37011
37011
36959
36959
36956
36956
36904
36904
36956
36956
37008
37008
37061
37061
37114
37114
37061
37061
37114
37114
37062
37062
37009
37009
36980
36980
37032
37032
37040
37040
37093
37093
37041
37041
37093
37093
37041
37041
37094
37094
37041
37041
37094
37094
37142
37142
37090
37090
37132
37132
37079
37079
37027
37027
36975
36975
36971
36971
37023
37023
37076
37076
37024
37024
36971
36971
36919
36919
36866
36866
36919
36919
36866
36866
36919
36919
36866
36866
36849
36848
36872
36872
36924
36924
36948
36948
36896
36896
36871
36871
36844
36844
36867
36867
36920
36920
36972
36972
37008
37008
36956
36956
36904
36904
36851
36851
36903
36903
36956
36956
37008
37008
37061
37061
37009
37009
37046
37046
37035
37035
37032
37032
37084
37084
37058
37058
37006
37006
36956
36956
36907
36907
36854
36854
36907
36907
36854
36854
36903
36903
36903
36903
36955
36955
36964
36964
36911
36911
36945
36945
36941
36941
36993
36993
37028
37028
37069
37070
37028
37028
37081
37081
37029
37029
36976
36976
36924
36924
36892
36892
36839
36839
36842
36842
36894
36894
36946
36946
36894
36894
36911
36911
36963
36963
36960
36960
37013
37013
37047
37047
36995
36995
37002
37002
36950
36950
37002
37002
37055
37055
37003
37003
36950
36950
36898
36898
36919
36919
36971
36971
37024
37024
36972
36972
37014
37014
36965
36965
37017
37018
37070
37070
37018
37018
37070
37070
37018
37018
36966
36966
36913
36913
36935
36935
36889
36889
36889
36889
36874
36874
36901
36901
36953
36953
36988
36988
37041
37041
37082
37082
37030
37030
36978
36978
36958
36958
37011
37011
37063
37063
37105
37105
37053
37053
37001
37001
36948
36948
37001
37001
37053
37053
37001
37001
36949
36949
36896
36896
36949
36949
37001
37001
37054
37054
37001
37001
36949
36949
36940
36940
36971
36971
36948
36948
36896
36896
36948
36948
36896
36896
36921
36921
36894
36894
36910
36910
36962
36962
36910
36910
36857
36857
36860
36860
36912
36912
36964
36964
37017
37017
36965
36965
36912
36912
36860
36860
36912
36912
36964
36964
37017
37017
36964
36965
36912
36912
36860
36860
36912
36912
36964
36964
37017
37017
36964
36964
37017
37017
36965
36965
37017
37017
37043
37043
37095
37095
37140
37140
37088
37088
37035
37035
36983
36983
36964
36964
37017
37017
36964
36964
36912
36912
36859
36859
36912
36912
36964
36964
37017
37017
36964
36964
36912
36912
36859
36859
36912
36912
36964
36964
37017
37017
36964
36964
36912
36912
36859
36859
36912
36912
36964
36964
36912
36912
36859
36859
36911
36911
36914
36914
36967
36967
37019
37019
37072
37072
37124
37124
37072
37072
37020
37020
36967
36968
36987
36987
36938
36938
36886
36886
36833
36833
36884
36884
36915
36915
36967
36967
36923
36922
36934
36934
36986
36986
37039
37039
37078
37078
37085
37085
37044
37044
36992
36992
36940
36940
36992
36992
36940
36940
36887
36887
36892
36892
36840
36840
36811
36811
36759
36758
36811
36811
36863
36863
36915
36915
36863
36863
36810
36810
36758
36758
36810
36810
36862
36862
36915
36915
36862
36862
36810
36810
36757
36757
36809
36809
36862
36862
36914
36914
36861
36861
36809
36809
36756
36756
36809
36808
36861
36861
36870
36870
36828
36828
36775
36775
36827
36827
36880
36880
36932
36932
36984
36984
36932
36932
36880
36880
36827
36827
36879
36879
36932
36932
36973
36973
36954
36954
36901
36901
36904
36904
36896
36896
36949
36949
36931
36931
36888
36888
36873
36873
36925
36925
36961
36961
36980
36980
37022
37022
36969
36969
36942
36942
36890
36890
36912
36911
36964
36964
36911
36911
36885
36885
36846
36846
36898
36898
36951
36951
36898
36898
36919
36919
36907
36907
36960
36960
36907
36907
36855
36855
36888
36888
36853
36853
36906
36906
36853
36853
36906
36905
36903
36903
36868
36868
36816
36816
36771
36771
36823
36823
36876
36876
36928
36928
36876
36876
36823
36823
36875
36875
36894
36894
36947
36947
36999
36999
36947
36947
36894
36894
36842
36842
36894
36894
36947
36947
36894
36894
36842
36842
36809
36809
36861
36861
36914
36914
36955
36955
36940
36940
36947
36947
36917
36917
36928
36928
36981
36981
37033
37033
37086
37086
37034
37034
36981
36981
36929
36929
36981
36981
37001
37001
37054
37054
37001
37001
36949
36949
36899
36899
36925
36925
36873
36873
36925
36925
36873
36873
36820
36820
36867
36867
36898
36898
36902
36902
36849
36849
36797
36797
36849
36849
36797
36796
36849
36849
36851
36851
36904
36904
36956
36956
36904
36903
36956
36956
37008
37008
37061
37061
37114
37114
37061
37061
37009
37009
36957
36957
37009
37009
37062
37062
37114
37114
37167
37167
37115
37115
37062
37063
37010
37010
37063
37063
37032
37032
37062
37062
37010
37010
36958
36958
36905
36905
36853
36853
36905
36905
36958
36958
37010
37010
36958
36958
36905
36905
36853
36853
36905
36905
36941
36941
36889
36889
36837
36836
36784
36784
36836
36836
36889
36889
36941
36941
36888
36888
36836
36836
36783
36783
36836
36836
36888
36888
36940
36940
36888
36888
36835
36835
36813
36813
36866
36866
36918
36918
36970
36970
36918
36918
36865
36865
36813
36813
36865
36865
36918
36918
36970
36970
36918
36918
36865
36865
36813
36813
36865
36865
36855
36855
36907
36907
36855
36855
36889
36889
36837
36837
36889
36889
36942
36942
36889
36889
36837
36837
36784
36784
36836
36836
36889
36889
36941
36941
36889
36889
36836
36836
36784
36784
36836
36836
36888
36888
36836
36836
36783
36783
36730
36730
36783
36783
36835
36835
36887
36887
36835
36835
36782
36782
36834
36834
36887
36887
36939
36939
36887
36887
36834
36834
36782
36782
36834
36834
36886
36886
36939
36939
36886
36886
36848
36848
36795
36795
36847
36847
36900
36900
36952
36952
36900
36900
36897
36897
36845
36845
36805
36804
36857
36857
36909
36909
36962
36962
36909
36909
36857
36857
36804
36804
36812
36812
36864
36864
36916
36916
36969
36969
36916
36916
36864
36864
36812
36811
36864
36864
36916
36916
36969
36969
37021
37021
36969
36969
36916
36916
36864
36864
36916
36916
36969
36969
37021
37021
37074
37074
37021
37021
36969
36969
36917
36917
36864
36864
36917
36917
36969
36969
37022
37022
37074
37074
37022
37022
36969
36970
36917
36917
36970
36970
37004
37004
37056
37056
37109
37109
37161
37161
37183
37183
37131
37131
37079
37079
37026
37026
37001
37001
37054
37054
37028
37028
36979
36979
36927
36927
36880
36880
36868
36868
36918
36918
36970
36970
36918
36918
36866
36866
36813
36813
36865
36865
36918
36918
36865
36865
36813
36813
36841
36841
36893
36893
36945
36945
36998
36998
36945
36945
36893
36893
36840
36840
36809
36809
36862
36862
36914
36914
36862
36862
36809
36809
36809
36809
36861
36861
36914
36914
36966
36966
36914
36914
36861
36861
36913
36913
36966
36966
37018
37018
37071
37071
37019
37019
36966
36966
36914
36914
36966
36966
37019
37019
37071
37071
37019
37019
36967
36967
36914
36914
36867
36867
36920
36920
36867
36867
36815
36815
36762
36762
36814
36814
36867
36867
36919
36919
36972
36972
36919
36919
36867
36867
36867
36867
36919
36919
36971
36971
36919
36919
36867
36867
36814
36814
36866
36866
36919
36919
36971
36971
36919
36919
36866
36866
36919
36919
36971
36971
37024
37024
37067
37068
37015
37015
36963
36963
36910
36910
36858
36858
36910
36910
36858
36858
36816
36816
36764
36764
36816
36816
36868
36868
36921
36921
36897
36897
36844
36844
36877
36877
36930
36930
36957
36957
36905
36905
36912
36912
36869
36869
36922
36922
36974
36974
37027
37027
37018
37018
36966
36966
36969
36969
36917
36917
36864
36864
36917
36917
36969
36969
36999
36999
37052
37052
37000
37000
37033
37034
37056
37056
37097
37097
37045
37045
37019
37019
36967
36967
36978
36978
36925
36925
36978
36978
36925
36925
36913
36913
36921
36921
36959
36959
37011
37011
36959
36959
37011
37011
36959
36959
36907
36907
36959
36959
37011
37012
37064
37064
37012
37012
36959
36959
36907
36907
36959
36959
36907
36907
36952
36952
36899
36899
36864
36864
36916
36916
36969
36969
37021
37021
36969
36969
36916
36916
36864
36864
36852
36852
36904
36904
36957
36957
36963
36963
36911
36911
36858
36858
36806
36806
36858
36858
36910
36910
36858
36858
36886
36886
36921
36921
36973
36973
37026
37026
37057
37057
37005
37005
37027
37027
36975
36975
36971
36971
36918
36918
36866
36866
36867
36867
36848
36848
36871
36871
36860
36859
36879
36879
36826
36826
36878
36878
36931
36931
36936
36936
36883
36883
36831
36831
36801
36801
36853
36853
36906
36906
36939
36939
36992
36992
36981
36981
37026
37026
36974
36974
36970
36970
37022
37022
36970
36970
36978
36978
36966
36966
36914
36914
36909
36909
36902
36902
36954
36954
36947
36947
37000
37000
36947
36947
36895
36895
36843
36842
36895
36895
36947
36947
36895
36895
36842
36842
36847
36847
36894
36894
36946
36946
36998
36998
36962
36962
37000
37000
36948
36948
36955
36955
37007
37007
37060
37060
37008
37008
36955
36955
36903
36903
36850
36850
36903
36903
36936
36936
36884
36884
36844
36844
36867
36867
36919
36919
36972
36972
37019
37019
36967
36967
36936
36936
36883
36883
36936
36936
36988
36988
37041
37041
36989
36989
36936
36936
36884
36884
36936
36936
36989
36989
37041
37041
36989
36989
36936
36936
36884
36884
36936
36936
36989
36989
37041
37041
36989
36989
36937
36937
36982
36982
36930
36930
36910
36910
36962
36962
36994
36994
36952
36952
36956
36956
36903
36903
36891
36891
36887
36887
36834
36834
36782
36782
36834
36834
36886
36886
36939
36939
36886
36886
36834
36834
36781
36781
36834
36834
36886
36886
36938
36938
36886
36886
36833
36833
36781
36781
36833
36833
36885
36885
36833
36833
36785
36785
36732
36732
36784
36784
36837
36837
36784
36784
36836
36836
36784
36784
36836
36836
36888
36888
36941
36941
36922
36922
36870
36870
36922
36922
36975
36975
37027
37027
36975
36975
36922
36922
36870
36870
36922
36922
36975
36975
37027
37027
37080
37080
37028
37028
36975
36975
36923
36923
36975
36975
36942
36942
36994
36994
36942
36942
36890
36890
36837
36837
36889
36889
36942
36942
36889
36889
36837
36837
36799
36799
36852
36852
36904
36904
36956
36956
36904
36904
36851
36851
36799
36799
36851
36851
36868
36868
36816
36816
36795
36795
36787
36787
36839
36839
36891
36891
36944
36944
36891
36891
36944
36944
36891
36891
36944
36944
36996
36996
37024
37024
37076
37076
37024
37024
37054
37054
37017
37017
36964
36964
36912
36912
36945
36945
36892
36892
36840
36840
36892
36892
36945
36945
36997
36997
36945
36945
36892
36892
36840
36840
36892
36892
36945
36945
36997
36997
36945
36945
36892
36892
36840
36840
36892
36892
36945
36945
36997
36997
36945
36945
36892
36892
36945
36945
36997
36997
37039
37039
36987
36987
36934
36934
36882
36882
36830
36829
36882
36882
36934
36934
36987
36987
36934
36934
36882
36882
36914
36914
36907
36907
36854
36854
36802
36801
36825
36825
36848
36848
36901
36901
36953
36953
36971
36971
37023
37023
36994
36994
36941
36941
36889
36889
36941
36941
36960
36960
36960
36960
36907
36907
36876
36876
36928
36928
36956
36956
36903
36903
36851
36851
36902
36902
36879
36879
36932
36932
36984
36984
36932
36932
36984
36984
36932
36932
36960
36960
36907
36907
36855
36855
36833
36833
36844
36844
36792
36792
36844
36844
36813
36813
36865
36865
36918
36918
36921
36921
36973
36973
37026
37026
36997
36997
37031
37031
37001
37001
37038
37039
36986
36986
36934
36934
36881
36881
36829
36829
36881
36881
36829
36829
36776
36776
36782
36782
36834
36834
36887
36887
36939
36939
36991
36991
36962
36962
37015
37015
37023
37023
36971
36971
36989
36989
37042
37042
36989
36989
36937
36937
36885
36885
36937
36937
36989
36990
36937
36937
36885
36885
36832
36832
36885
36884
36937
36937
36989
36989
37042
37042
37016
37016
36964
36964
36911
36911
36964
36964
37016
37016
36964
36964
36911
36911
36859
36859
36806
36806
36859
36859
36879
36879
36829
36829
36881
36881
36934
36934
36986
36986
37039
37039
37027
37027
36975
36975
37027
37027
37028
37028
36975
36975
37028
37028
36975
36975
36923
36923
36871
36870
36818
36818
36870
36870
36923
36923
36975
36975
36923
36923
36879
36879
36932
36932
36984
36984
37037
37037
37089
37089
37037
37037
36985
36985
36932
36932
36880
36880
36932
36932
36971
36971
36919
36919
36867
36867
36814
36814
36866
36866
36919
36919
36971
36971
36919
36919
36866
36866
36895
36895
36947
36947
37000
37000
37052
37052
37000
37000
36948
36948
36895
36895
36948
36948
37000
37000
37053
37053
37000
37000
36948
36948
36896
36896
36948
36948
37000
37000
37021
37021
36969
36969
36916
36916
36864
36864
36916
36916
36969
36969
37021
37021
36969
36969
36916
36916
36864
36864
36819
36819
36871
36871
36923
36923
36976
36976
36923
36923
36871
36871
36818
36818
36871
36871
36923
36923
36976
36976
36923
36923
36899
36899
36847
36847
36899
36899
36951
36951
37004
37004
36952
36952
36899
36899
36847
36847
36899
36899
36951
36951
37004
37004
36952
36952
36899
36899
36847
36847
36899
36899
36951
36951
37004
37004
36952
36952
36899
36899
36847
36847
36899
36899
36951
36951
37004
37004
37002
37002
36949
36949
36897
36897
36844
36844
36897
36897
36949
36949
37002
37002
36949
36949
36897
36897
36844
36844
36897
36897
36949
36949
37002
37002
37054
37054
37002
37002
36949
36950
36897
36897
36949
36949
37002
37002
37051
37051
36999
36999
36946
36946
36894
36894
36946
36946
36999
36999
37051
37051
37104
37104
37052
37052
36999
36999
36947
36947
36999
36999
37052
37052
37104
37105
37052
37052
37000
37000
36948
36948
36895
36895
36948
36948
37000
37000
37053
37053
37000
37000
36948
36948
36895
36895
36948
36948
37000
37000
36993
36993
36940
36940
36888
36888
36835
36835
36888
36888
36916
36916
36864
36864
36812
36811
36759
36759
36811
36811
36863
36863
36916
36916
36863
36863
36811
36811
36765
36765
36817
36817
36869
36869
36922
36922
36869
36869
36922
36922
36974
36974
36922
36922
36934
36934
36882
36882
36829
36829
36882
36882
36934
36934
36986
36986
36934
36934
36882
36882
36829
36829
36881
36881
36934
36934
36881
36881
36829
36829
36872
36872
36865
36865
36917
36917
36969
36969
36917
36917
36865
36865
36917
36917
36969
36969
36983
36983
36930
36930
36878
36878
36825
36825
36878
36878
36930
36930
36983
36983
36930
36930
36878
36878
36930
36930
36983
36983
37035
37035
36983
36983
36930
36930
36878
36878
36930
36930
36983
36983
37035
37035
36983
36983
36931
36931
36983
36983
37036
37036
37088
37088
37141
37141
37089
37089
37036
37036
36984
36984
36932
36932
36984
36984
36932
36932
36984
36984
36932
36932
36879
36879
36881
36881
36934
36934
36986
36986
37039
37039
37011
37011
36958
36958
36906
36906
36854
36853
36906
36906
36958
36958
37011
37011
36988
36988
36936
36936
36927
36927
36966
36966
36996
36996
37048
37048
36996
36996
36944
36944
36891
36891
36944
36944
36996
36996
37049
37049
37064
37064
37060
37061
37008
37008
37034
37034
36989
36989
37042
37042
37094
37095
37065
37065
37058
37058
37099
37099
37047
37047
37092
37092
37039
37040
36987
36987
37040
37040
36987
36987
36998
36999
36946
36946
36894
36894
36946
36946
36894
36894
36946
36946
36934
36934
36882
36882
36934
36934
36986
36986
36964
36964
36912
36912
36964
36964
36912
36912
36949
36949
36897
36897
36949
36949
36999
36999
36946
36946
36894
36894
36841
36841
36894
36894
36946
36946
36998
36998
36946
36946
36894
36894
36841
36841
36893
36893
36841
36841
36788
36788
36736
