8
28
0
28
8
28
0
8
28
0
12
30
8
28
0
28
12
0
30
8
12
0
28
12
0
30
12
8
20
8
30
0
12
30
0
12
28
14
29
14
28
14
12
0
12
30
12
6
8
30
4
14
0
12
0
14
4
14
0
12
6
12
30
15
4
30
15
30
4
15
30
15
30
4
14
15
30
4
14
0
15
6
12
6
14
0
15
6
14
4
14
0
6
15
4
2
14
4
7
14
6
0
15
6
0
2
7
14
23
15
6
0
6
15
6
0
7
2
0
7
14
23
15
2
7
0
2
4
15
2
7
6
0
7
2
7
0
6
7
2
15
7
2
23
15
7
2
7
0
7
2
23
3
0
7
19
2
1
3
23
2
1
23
2
1
7
2
1
2
23
3
0
7
0
19
7
0
3
23
3
0
3
23
3
2
1
23
3
0
19
3
23
1
19
3
0
19
1
19
0
1
19
19
1
0
19
19
1
0
19
0
1
18
1
0
19
1
19
0
19
1
0
19
27
1
23
27
17
19
17
19
27
17
1
27
17
0
19
25
17
0
27
17
0
17
27
0
17
0
27
17
0
17
27
16
1
16
25
19
29
27
17
0
25
17
0
27
16
25
0
17
24
0
17
25
16
0
25
17
27
25
16
25
0
16
25
25
16
8
17
24
29
24
0
25
16
29
24
0
25
24
0
29
24
0
16
8
25
20
25
26
29
25
0
24
29
24
0
24
29
16
8
29
24
0
24
29
24
0
28
8
28
24
29
8
28
0
28
24
8
28
0
0
24
12
0
28
0
28
8
28
0
28
8
0
28
8
0
24
0
28
8
28
0
28
8
30
29
12
30
8
28
12
30
12
28
14
29
14
28
0
14
28
0
14
12
0
30
12
4
8
30
4
8
4
30
12
0
14
12
30
0
12
14
4
0
12
14
0
30
4
14
0
12
14
0
4
14
0
14
4
0
14
4
14
0
14
4
0
14
15
30
6
15
4
14
6
12
2
4
15
6
14
0
6
15
0
6
15
6
0
6
15
0
6
0
6
15
2
4
15
6
0
6
15
2
4
2
15
23
15
2
7
30
7
6
0
7
0
6
15
2
7
0
6
3
6
7
2
15
23
7
2
15
23
7
2
7
0
3
2
23
1
2
7
0
3
6
1
2
23
7
2
1
2
23
1
2
7
19
15
23
3
0
3
23
1
2
23
3
0
3
23
3
19
1
2
23
1
3
19
0
1
19
0
3
23
1
19
0
3
23
27
1
23
27
3
23
27
1
23
19
27
1
23
27
19
0
1
19
17
0
19
1
17
27
19
0
17
27
1
19
16
1
19
27
17
0
1
16
27
1
16
19
25
1
16
19
1
24
19
1
24
17
0
27
17
25
19
25
0
17
27
17
16
1
24
17
0
25
16
27
25
16
17
8
17
16
9
16
25
0
16
25
0
24
17
25
24
0
17
24
29
27
29
16
8
17
28
25
0
24
25
16
25
0
24
0
29
24
0
24
29
24
29
26
29
24
29
0
24
29
26
29
24
0
28
25
0
28
8
16
8
28
0
24
29
8
28
0
24
29
8
28
0
28
24
8
28
0
28
8
0
28
30
8
29
28
14
24
4
8
28
0
12
24
30
29
12
30
8
28
12
0
28
14
29
30
12
0
30
12
8
30
12
0
4
8
30
4
12
0
30
12
0
14
28
15
30
12
0
12
30
4
14
8
4
30
12
14
0
14
12
4
30
15
4
30
15
14
4
14
4
2
12
6
0
14
15
22
12
15
2
4
0
14
0
6
15
30
4
15
6
14
0
6
12
15
6
0
14
6
4
15
6
0
14
7
6
15
2
6
0
15
6
2
5
2
6
15
23
15
6
3
6
0
7
0
2
7
0
6
15
23
2
15
6
1
6
0
3
6
0
7
2
7
0
7
2
7
0
2
7
7
2
23
3
0
7
3
2
23
3
0
7
19
7
27
7
19
0
3
1
2
23
1
2
23
1
2
23
3
0
1
2
23
1
2
3
23
0
3
1
2
19
5
19
3
23
27
3
23
1
19
3
17
19
3
17
27
23
1
27
19
17
0
1
19
0
17
0
27
19
1
0
19
17
0
19
0
1
27
23
17
27
3
17
0
27
17
0
19
25
23
27
17
0
17
27
17
0
17
27
17
27
17
25
19
25
0
17
16
25
0
17
27
16
25
0
17
25
0
16
25
0
25
0
16
25
0
25
16
27
29
17
26
29
17
27
24
17
29
27
16
25
8
16
25
29
24
0
25
16
24
29
24
29
0
24
29
26
29
24
25
0
28
25
0
24
28
0
25
28
0
24
0
29
24
0
24
29
8
16
28
8
24
29
24
8
20
8
24
4
24
12
24
0
28
8
28
0
28
8
0
28
0
28
8
28
0
12
24
4
8
30
29
30
8
12
28
0
28
8
30
12
0
28
0
12
30
8
12
30
0
12
28
14
0
12
30
4
8
12
4
30
12
0
14
28
0
14
0
12
30
0
12
14
4
30
15
12
30
4
14
4
14
0
14
4
14
0
14
12
0
6
12
2
4
15
30
15
4
14
6
0
14
4
0
14
6
0
15
6
0
14
4
15
6
0
14
7
30
15
6
0
6
15
6
15
0
6
15
6
0
6
15
0
6
2
7
0
6
15
2
7
0
6
0
7
6
0
7
2
15
6
7
0
2
7
15
23
2
7
2
0
7
2
7
23
11
7
23
2
0
7
3
0
7
2
23
3
0
7
27
7
19
0
7
3
0
23
3
2
5
2
3
23
0
3
23
3
0
3
23
3
0
3
23
3
17
2
1
23
3
19
0
3
17
2
1
23
27
3
23
17
3
19
1
2
17
3
0
17
3
16
1
19
0
19
1
19
27
1
19
0
17
27
23
25
19
1
16
3
17
27
23
1
27
17
0
19
25
23
27
17
27
17
0
17
27
0
17
0
17
27
17
0
25
16
27
17
0
25
17
27
17
0
25
17
16
27
29
27
16
29
27
17
24
0
17
25
0
24
17
0
25
16
25
0
24
17
25
24
0
25
16
25
0
24
17
8
16
29
24
25
0
24
29
24
0
25
28
16
25
24
0
29
24
0
0
28
25
28
0
24
29
8
16
8
28
0
24
29
24
0
24
29
24
8
16
29
8
28
0
24
12
28
24
0
28
8
28
0
12
24
0
12
24
30
12
29
30
8
28
0
12
24
4
8
30
28
12
0
8
28
0
12
30
0
12
28
0
14
28
0
8
30
4
8
28
14
12
0
12
28
14
4
8
30
4
14
12
0
14
28
14
4
14
0
12
30
4
15
30
15
30
12
6
0
12
14
0
4
14
0
14
4
0
14
0
6
12
14
6
12
0
6
14
15
4
14
0
6
15
6
0
6
0
14
7
14
0
6
15
4
2
4
15
2
4
2
15
6
0
6
15
6
0
6
15
0
6
7
0
6
3
14
7
2
4
3
6
0
7
2
7
2
15
23
6
15
7
2
0
7
0
7
2
7
0
3
6
23
3
6
1
2
7
0
7
19
2
7
0
3
3
23
3
0
3
23
2
1
23
2
7
1
2
23
3
0
3
23
3
0
3
23
27
1
23
3
0
19
1
2
1
23
0
19
0
3
23
27
7
1
19
3
23
27
3
17
23
3
27
17
3
17
19
0
1
19
0
17
19
0
19
1
27
17
0
19
27
17
1
27
17
0
19
17
27
0
17
19
0
17
27
0
17
1
16
27
1
16
1
27
16
1
16
27
17
0
17
27
25
17
0
16
25
19
25
0
17
25
16
27
25
17
16
25
0
25
16
25
0
24
17
0
24
29
27
29
16
25
0
24
17
8
16
25
0
25
16
8
17
24
29
27
24
29
16
25
28
0
25
28
0
24
29
24
0
24
29
8
16
8
29
16
8
24
0
29
24
0
24
29
24
28
0
24
28
8
29
24
0
28
8
28
0
28
8
28
0
8
28
0
30
29
8
28
30
29
8
30
29
8
30
29
30
12
0
28
8
30
29
12
30
8
28
0
12
0
28
8
14
28
0
12
30
12
30
12
0
12
30
12
4
30
12
0
14
12
0
14
30
4
8
4
14
0
12
30
15
4
30
14
4
0
14
0
12
14
0
4
14
0
14
4
30
15
4
10
4
0
14
14
4
14
0
14
4
6
15
0
6
12
6
15
6
0
6
15
0
6
0
2
15
6
6
0
14
7
14
4
7
10
4
6
3
14
4
7
2
4
2
15
6
0
7
2
15
23
6
15
7
2
0
7
0
6
3
0
6
3
6
1
2
7
2
7
2
5
2
7
0
7
2
23
15
7
19
2
5
2
3
0
23
3
0
7
2
3
23
0
3
23
15
19
7
3
0
23
3
0
3
23
19
15
19
23
3
1
2
1
23
3
0
19
0
3
23
27
1
23
19
3
1
19
0
19
1
19
0
3
17
19
0
1
19
0
19
1
0
27
19
1
19
0
19
1
16
19
1
27
17
19
0
1
17
27
19
0
17
27
21
27
0
17
27
17
0
17
27
17
0
27
17
0
17
27
0
17
27
17
0
25
17
16
27
17
0
25
16
27
17
29
27
25
16
0
25
16
29
27
29
16
25
0
25
16
0
25
0
24
17
25
27
29
16
25
0
24
25
16
0
25
24
0
29
24
16
25
28
0
25
28
24
0
25
28
0
24
29
8
16
25
8
28
16
25
8
20
24
0
29
24
8
0
28
24
29
8
30
25
28
8
16
12
24
0
28
29
8
28
0
28
8
28
0
8
28
0
28
8
30
28
0
12
24
12
0
30
12
0
28
8
30
29
12
30
0
12
28
8
30
4
8
12
30
0
12
30
0
12
28
15
30
12
30
12
0
12
30
15
4
30
12
14
28
15
30
4
14
12
0
14
4
0
14
0
14
4
14
0
12
6
0
12
2
4
8
6
12
2
4
14
0
14
4
14
0
6
12
6
15
30
15
6
4
15
6
0
14
6
15
6
0
6
15
0
6
15
2
4
2
7
0
6
15
2
4
2
7
4
10
7
4
2
15
4
2
7
0
6
15
2
6
1
6
2
7
4
2
7
15
23
2
7
0
3
6
3
7
0
2
7
23
3
0
6
3
0
7
3
23
2
1
2
7
0
19
7
0
3
23
3
0
3
23
0
3
0
3
23
3
0
3
23
0
3
23
15
19
7
19
0
3
3
17
2
1
19
23
27
3
23
17
3
0
19
1
19
1
19
0
3
17
0
19
1
19
0
19
0
1
27
23
27
17
3
16
1
19
27
1
17
19
0
17
27
23
17
27
1
19
25
0
19
25
19
0
17
27
17
0
17
0
25
0
17
0
16
27
17
25
0
17
27
16
25
19
25
0
17
25
16
27
17
29
27
16
25
0
25
0
16
25
0
25
16
25
0
16
25
0
25
16
29
24
27
29
16
25
24
29
27
29
16
8
16
29
27
24
29
24
0
25
28
25
16
8
29
24
0
24
29
24
0
24
29
24
0
28
24
29
24
0
28
8
29
30
24
13
30
24
0
29
8
28
0
24
28
8
29
30
29
30
8
29
30
0
28
8
28
8
28
0
28
12
8
30
29
28
8
30
12
0
28
12
14
28
0
12
30
0
12
30
0
8
4
30
8
4
8
30
4
8
30
12
0
12
28
14
0
4
8
12
6
28
14
12
30
4
14
0
12
6
8
6
12
0
14
0
6
12
0
14
4
14
0
14
4
14
4
15
30
15
6
0
12
6
0
14
0
6
14
0
4
15
6
0
14
6
15
6
0
14
6
15
0
6
4
15
2
4
6
15
2
6
15
23
14
7
2
0
7
14
23
15
6
0
7
2
0
7
14
7
0
7
2
6
1
6
2
7
0
2
7
15
23
2
7
7
2
0
7
3
0
23
2
7
0
3
0
7
2
7
19
15
23
2
1
2
23
3
0
7
3
0
23
3
0
7
19
3
7
19
0
7
19
3
0
23
3
0
1
19
7
19
1
2
19
1
23
27
3
23
19
1
27
23
1
19
27
23
1
27
19
1
0
19
1
19
0
19
0
1
16
3
17
27
23
1
27
23
27
1
16
3
17
0
19
1
17
27
19
17
0
27
17
19
25
17
27
17
0
17
27
16
25
1
16
27
17
0
25
16
1
27
16
25
0
17
27
29
16
27
17
29
27
16
29
27
17
24
1
24
17
24
1
16
25
27
16
29
27
29
16
25
0
24
25
16
29
27
24
29
16
8
17
24
29
0
24
25
0
24
29
24
16
8
25
20
24
9
28
16
8
29
24
24
0
29
24
0
28
8
16
8
29
28
24
0
8
28
0
24
29
30
29
8
28
0
24
12
16
8
28
0
8
28
0
28
8
28
8
20
8
28
0
8
28
30
13
28
30
8
12
0
28
8
4
30
8
28
12
30
12
0
12
30
0
12
30
12
0
30
12
0
14
28
15
30
12
4
30
13
30
14
4
0
12
0
14
30
0
12
14
4
8
6
12
0
14
30
4
8
6
12
0
14
4
14
0
14
4
14
6
15
4
30
15
6
0
14
7
14
4
2
14
4
15
6
0
14
7
30
15
6
0
15
6
0
6
0
15
4
2
6
15
4
2
6
15
0
6
15
6
0
7
6
15
2
7
6
0
7
2
7
0
6
3
6
0
7
2
7
0
3
6
1
2
7
0
2
7
0
3
4
3
2
23
15
23
2
1
7
2
7
19
15
2
23
7
0
3
23
2
1
7
2
19
7
0
3
19
7
27
3
23
1
19
0
7
19
0
3
23
3
1
19
0
3
19
0
1
23
27
23
0
3
23
1
19
0
3
19
1
19
0
19
1
19
27
23
1
27
19
1
17
19
0
19
1
27
17
0
19
27
17
0
17
27
23
1
17
27
0
17
0
27
17
0
17
27
0
17
19
25
19
0
17
27
17
0
17
27
25
16
1
16
25
17
0
25
16
27
29
27
17
24
0
17
27
24
21
25
0
24
17
25
0
16
25
0
25
16
0
25
16
25
0
25
16
8
17
28
27
29
24
0
25
16
29
24
25
0
24
29
24
0
24
29
16
8
25
28
16
25
8
28
27
28
25
0
24
28
29
8
16
28
8
29
30
24
29
0
8
28
0
24
12
24
0
28
0
8
28
28
0
24
12
24
0
28
8
0
28
12
24
4
8
28
12
30
29
8
30
12
0
28
30
12
0
8
30
4
8
28
4
8
30
0
12
0
28
14
28
0
12
30
12
0
14
12
0
12
30
12
14
0
12
30
4
0
14
0
12
6
12
30
15
14
4
30
15
4
14
30
15
4
30
14
0
4
14
0
15
4
14
0
6
12
15
30
6
15
30
15
4
6
0
14
4
2
15
6
14
0
6
15
6
0
15
6
4
2
15
6
4
3
14
6
1
6
14
3
4
2
6
15
0
6
0
7
0
6
15
23
2
15
6
7
2
7
15
6
23
2
7
3
6
1
2
7
3
0
2
7
19
0
15
23
3
0
23
15
23
2
1
6
3
0
7
2
23
15
3
23
2
7
3
23
15
19
7
23
3
0
3
19
7
19
1
2
19
1
0
19
3
17
3
23
27
3
23
1
0
19
0
3
17
2
1
23
27
23
1
19
0
3
17
2
1
19
27
23
1
19
27
21
27
3
17
19
1
27
17
19
0
17
19
0
17
27
1
16
1
27
17
0
19
25
0
19
25
0
17
0
16
27
17
1
16
27
1
16
17
0
27
17
25
27
17
0
17
27
16
25
0
17
25
16
27
29
16
25
27
29
16
25
0
16
25
0
25
16
25
0
25
16
8
17
24
0
25
29
16
8
16
25
29
26
29
16
25
0
24
29
0
24
24
29
16
8
25
0
28
25
0
24
28
25
28
24
0
29
24
0
24
29
30
8
29
24
28
0
8
24
0
28
8
29
30
29
24
12
30
25
28
0
12
24
0
12
28
26
29
30
8
29
30
12
0
28
8
28
0
12
28
0
8
28
30
12
0
28
14
8
28
14
28
4
8
30
12
0
14
28
0
12
14
28
4
14
8
4
30
15
28
6
8
4
14
0
30
12
0
14
28
15
30
12
15
4
30
15
30
4
14
14
4
0
14
4
10
4
14
0
4
14
15
6
0
14
4
6
15
30
15
4
2
14
4
15
6
0
14
7
30
15
6
0
7
14
0
6
15
6
0
6
4
15
2
6
15
2
4
7
2
15
6
0
7
2
4
3
6
0
7
2
15
23
6
15
2
7
0
6
7
0
2
7
0
3
6
3
23
15
2
23
15
19
7
0
3
6
3
23
15
19
7
0
3
23
0
2
7
1
2
23
0
3
0
7
19
7
0
3
3
23
2
1
19
7
27
23
3
3
23
1
2
19
1
23
11
23
19
1
19
3
17
23
11
23
19
0
1
19
0
19
1
27
19
0
1
19
25
23
27
19
1
0
19
1
16
3
17
0
19
0
1
19
27
17
0
19
17
27
17
1
27
17
19
25
0
17
27
17
16
27
17
0
25
23
25
0
16
1
27
16
25
1
16
27
17
0
25
16
1
27
16
25
0
17
27
29
16
27
29
16
25
27
16
29
17
27
24
29
17
27
24
29
27
29
24
17
24
25
28
16
9
16
24
29
0
24
29
24
0
25
24
0
29
24
0
0
24
29
0
24
29
24
28
25
0
24
28
27
29
24
0
28
8
24
29
30
29
24
8
28
0
8
28
0
28
24
0
28
8
28
0
12
24
0
28
8
0
28
8
28
0
12
24
4
8
30
29
30
8
4
24
12
30
0
12
28
8
4
28
14
28
8
4
30
8
12
30
15
28
14
0
12
30
4
12
0
14
28
15
30
0
12
0
14
4
30
12
0
14
12
30
4
15
30
12
0
14
4
14
0
14
4
14
0
14
4
14
0
6
12
15
22
15
14
0
6
4
14
0
0
6
15
0
6
12
2
4
15
6
14
0
6
15
4
14
2
4
15
2
6
4
15
2
6
7
0
6
15
6
3
4
2
15
23
2
15
7
6
0
3
6
0
7
2
4
2
7
0
2
15
23
15
2
7
0
7
2
7
0
7
2
23
15
3
23
2
7
0
3
6
1
2
23
3
7
23
3
2
5
19
2
7
1
2
23
3
1
2
23
3
1
18
1
3
0
19
1
2
23
1
2
17
7
19
0
3
0
19
7
27
23
1
3
19
0
3
17
3
23
27
19
1
23
19
1
27
19
1
19
17
0
19
1
16
27
1
19
0
17
27
0
17
27
23
25
3
16
1
19
0
17
27
1
16
19
1
16
27
1
16
17
27
17
27
17
0
25
19
25
17
0
27
21
25
27
16
17
25
0
16
25
0
25
16
27
29
27
16
25
0
25
16
1
24
17
0
24
1
16
29
27
24
29
17
24
25
16
27
25
16
29
27
24
29
25
16
29
24
29
26
29
24
0
24
29
8
16
28
25
8
28
0
24
29
0
24
0
24
0
29
24
0
24
29
30
25
28
8
29
24
28
0
24
12
24
29
30
8
29
28
8
30
29
30
8
29
30
28
8
0
28
12
0
24
12
28
30
8
12
20
8
12
0
30
12
0
28
8
4
30
8
12
30
0
12
28
0
14
0
28
12
30
0
12
12
0
30
8
4
14
28
15
30
12
0
14
12
30
4
14
0
12
6
12
30
15
12
6
12
6
30
15
4
10
4
0
14
6
0
14
4
0
14
4
15
30
0
6
15
30
15
4
14
6
0
14
4
15
6
0
14
7
14
0
6
6
15
6
0
6
15
0
6
15
23
15
2
6
15
6
0
6
15
23
15
2
6
1
6
2
1
6
4
7
2
15
6
0
7
2
15
23
6
3
6
3
7
0
2
7
3
0
7
2
23
15
3
23
0
7
2
19
7
0
3
23
15
19
6
1
2
3
23
7
0
3
23
0
3
7
27
7
19
3
0
3
23
3
0
19
7
17
3
0
19
3
19
1
23
3
27
23
1
19
0
19
1
19
0
3
0
17
3
0
19
0
19
1
19
0
19
1
16
3
17
0
27
1
19
17
0
19
1
19
27
17
1
18
1
17
27
0
17
19
25
19
29
27
17
0
16
27
17
0
17
27
17
0
25
19
29
27
17
0
27
17
25
0
17
27
16
25
16
1
16
25
0
16
25
17
8
17
24
17
27
25
16
0
25
29
16
25
24
0
25
16
8
29
16
25
24
0
25
0
24
29
0
16
25
0
24
0
29
24
25
0
24
29
16
24
8
17
28
24
0
25
28
24
0
28
25
8
28
24
29
8
16
12
24
0
28
8
29
30
28
8
29
30
25
28
0
8
28
0
28
8
16
12
24
12
30
29
8
30
29
30
8
28
0
28
12
8
30
29
30
12
0
12
30
28
8
4
8
30
12
28
15
30
12
0
28
14
0
12
30
12
0
30
12
0
4
8
14
4
30
12
0
14
12
4
30
15
12
30
4
14
0
12
14
0
6
12
2
12
6
0
14
4
14
0
4
14
0
14
4
0
14
7
30
15
14
4
2
12
6
15
30
15
4
6
0
14
6
15
6
0
6
15
6
0
15
6
0
6
15
6
0
7
2
6
15
23
15
2
6
0
7
14
23
15
6
0
7
2
15
6
0
7
2
15
23
6
3
15
22
7
3
6
0
7
2
1
6
3
7
0
3
6
3
23
0
3
6
1
2
23
3
3
23
0
7
3
0
3
23
0
3
23
2
1
3
0
23
3
3
0
23
3
0
19
7
0
19
7
27
23
3
1
19
2
1
19
0
3
19
1
23
27
23
1
19
0
1
19
0
19
1
0
19
19
1
27
23
27
1
19
0
17
3
17
19
0
1
27
19
29
19
0
17
27
17
0
19
17
27
1
16
19
9
17
18
1
25
19
16
25
19
0
25
17
0
27
17
0
17
25
0
16
17
27
25
0
17
16
25
27
17
0
25
16
27
29
17
24
27
29
17
24
0
25
16
29
27
29
16
27
29
24
0
25
16
25
27
29
24
16
9
16
29
24
0
25
28
25
16
8
24
29
0
24
0
24
29
24
0
28
25
0
24
29
30
25
0
24
28
29
8
24
28
0
24
12
16
8
29
30
24
29
8
28
0
24
29
30
8
29
28
0
8
28
30
8
28
28
8
12
28
0
30
12
29
30
8
28
0
12
30
0
12
30
8
4
8
28
0
12
30
12
0
12
30
0
12
30
0
12
28
14
0
28
14
29
14
0
12
30
4
8
14
4
12
30
14
12
4
30
15
30
4
15
14
4
30
15
14
4
0
14
0
6
8
6
4
14
0
14
4
15
30
15
6
0
14
0
4
15
30
6
15
4
14
0
6
15
6
0
15
6
14
0
6
15
6
0
6
15
6
0
6
15
23
6
15
2
6
7
0
15
6
0
6
7
14
7
2
7
0
2
7
15
2
23
7
2
0
3
7
0
2
7
0
23
15
23
3
0
6
3
0
7
2
0
7
2
7
0
3
23
15
23
3
2
7
0
3
23
3
0
3
23
3
23
3
0
3
23
3
0
23
3
0
19
3
1
23
27
23
3
0
19
1
3
23
19
0
3
1
19
0
0
19
1
0
19
3
17
3
23
19
27
1
23
27
19
1
0
19
17
27
1
19
0
17
19
1
0
19
25
19
0
17
27
0
17
19
29
27
17
0
19
25
1
18
25
1
19
16
27
17
1
16
27
17
1
16
27
17
25
0
25
16
17
27
29
16
27
25
16
29
27
17
25
0
16
25
0
25
16
29
27
0
24
17
29
26
29
17
24
27
29
16
27
29
25
0
24
17
24
0
25
24
29
27
16
29
24
0
24
29
24
29
24
24
29
0
24
29
8
16
8
29
26
25
0
24
29
30
29
24
12
28
0
28
24
12
16
8
28
29
8
28
0
24
28
0
8
28
0
8
0
28
0
24
12
24
0
28
8
0
28
12
30
29
12
28
30
8
12
30
0
12
28
8
30
12
0
12
30
0
12
30
4
8
30
12
0
12
30
0
12
0
12
30
0
12
30
12
4
0
14
0
12
30
14
4
8
4
14
0
14
4
30
15
12
30
6
13
14
30
4
15
14
4
2
12
6
14
4
0
14
4
2
15
4
14
2
4
15
30
7
14
0
6
15
0
6
12
2
4
15
6
0
14
6
15
4
2
6
15
0
6
7
14
2
7
6
0
7
2
15
23
15
2
6
1
6
15
23
2
15
6
23
15
2
4
3
6
0
7
2
7
0
7
2
7
0
3
6
3
0
7
2
7
23
2
7
1
2
23
3
0
3
23
3
0
3
23
0
3
7
19
0
7
0
19
7
27
7
19
0
3
7
19
0
3
23
27
7
1
18
1
3
23
19
3
1
23
19
11
23
19
1
0
19
0
19
1
19
1
19
27
1
23
27
19
1
0
19
0
19
1
0
17
27
23
27
1
19
0
17
27
17
3
17
17
27
23
25
19
0
17
27
17
0
27
17
0
17
27
25
19
16
25
1
16
17
0
25
0
16
27
25
17
0
25
19
25
16
0
25
17
0
24
17
25
0
16
25
27
29
16
27
29
16
25
0
25
16
25
0
24
17
8
16
25
25
16
0
24
25
29
16
8
24
29
16
25
12
16
25
8
16
29
24
0
28
27
28
8
29
16
8
0
24
29
24
0
24
29
24
28
0
24
29
8
28
0
24
28
8
29
30
29
8
28
0
28
8
30
29
8
28
30
0
28
8
0
28
0
12
24
12
0
28
8
30
29
30
8
4
24
12
30
12
0
28
12
8
30
4
8
28
14
28
0
14
28
15
28
14
0
12
30
4
8
14
4
30
12
0
14
4
8
4
14
28
14
0
12
6
8
4
30
15
14
4
0
14
0
14
4
0
14
4
14
0
6
12
30
15
6
12
6
0
14
4
14
7
10
4
14
0
6
15
4
2
4
15
6
2
0
6
15
6
15
4
2
14
7
0
6
15
4
2
6
15
0
6
6
0
15
2
7
4
2
7
14
23
15
2
7
7
2
0
7
2
7
0
7
2
23
15
23
2
1
2
7
0
3
6
3
0
7
2
1
6
19
7
0
3
6
3
23
15
3
23
2
0
7
19
0
7
3
23
0
3
3
23
0
3
3
23
27
3
23
3
17
3
23
3
0
17
3
0
23
27
1
23
3
0
19
0
3
17
2
1
19
0
19
1
19
0
3
17
19
3
17
3
17
19
0
19
1
27
17
0
19
25
19
0
17
27
0
17
1
16
27
23
25
1
18
1
16
1
27
0
17
27
23
25
19
0
17
27
17
17
27
17
0
25
17
0
27
16
25
17
24
17
27
25
16
29
27
29
17
26
29
17
27
24
0
17
25
0
24
17
0
24
25
0
17
24
25
0
16
29
25
0
24
29
16
8
16
25
24
29
27
24
29
0
24
25
0
24
29
16
24
29
24
0
28
25
8
28
16
8
29
24
0
24
29
30
8
29
24
4
24
12
24
0
28
24
0
28
8
29
30
29
8
30
29
24
0
12
24
0
28
8
28
30
29
8
30
28
12
0
8
28
12
30
0
12
28
30
13
30
8
4
30
8
4
12
30
8
4
8
30
4
8
4
8
30
12
4
8
30
4
12
30
0
12
14
0
4
14
30
12
0
14
4
8
4
14
30
4
14
12
0
2
0
12
6
12
2
12
4
14
14
4
15
30
15
6
4
14
15
2
4
14
6
0
14
4
2
15
4
2
4
15
2
4
2
15
6
4
2
15
4
14
23
14
7
0
14
6
15
2
4
2
7
14
23
15
2
7
4
2
7
15
6
2
1
6
7
2
23
15
2
7
0
3
6
0
3
23
15
23
2
15
23
7
0
2
0
7
3
0
6
3
23
15
7
2
23
3
7
2
23
3
7
19
3
0
3
23
3
0
1
23
3
0
19
1
2
19
1
2
23
1
19
0
7
27
23
0
3
23
3
0
3
19
1
0
19
3
17
0
3
19
1
19
0
19
1
19
0
17
3
16
1
19
27
1
23
27
17
0
19
1
19
0
17
27
23
27
1
17
27
0
17
19
25
23
27
17
0
17
27
0
17
27
17
0
17
27
16
25
1
16
27
17
0
25
17
0
25
16
27
17
0
25
16
0
25
17
0
24
17
27
29
27
16
25
0
25
16
25
16
25
0
25
16
29
27
29
24
0
25
16
25
0
24
16
29
27
28
25
0
24
29
24
0
25
24
29
24
16
29
24
0
24
29
8
16
8
29
28
24
8
0
24
29
28
8
16
28
0
8
29
24
30
29
0
8
28
0
24
0
12
24
28
0
28
8
28
8
16
12
24
0
12
24
4
8
28
28
8
30
12
0
28
12
0
30
12
28
14
0
28
12
0
14
28
0
12
0
30
8
4
8
30
4
8
14
28
0
12
14
28
4
14
28
14
0
12
14
0
4
14
0
12
30
15
30
4
14
4
14
0
12
6
14
0
12
6
15
30
4
15
30
15
4
2
12
6
0
14
4
2
12
6
15
30
15
6
0
14
4
15
6
0
6
15
6
0
6
15
2
4
15
2
6
0
6
15
0
6
7
15
22
15
2
4
7
2
15
6
0
7
6
0
15
2
7
0
6
3
6
0
7
2
7
0
7
2
7
0
3
6
3
0
7
2
23
3
0
7
2
1
23
2
7
0
7
2
1
2
7
19
15
23
3
0
23
3
7
19
0
3
23
3
0
3
23
3
0
19
7
27
23
3
1
18
1
23
11
23
19
1
3
0
19
1
18
1
19
3
0
17
3
19
0
1
19
0
19
1
0
19
1
16
3
17
19
0
1
19
27
1
19
0
17
19
27
1
16
1
19
25
0
19
17
0
25
19
0
17
27
17
0
17
27
16
1
16
27
1
16
25
1
16
27
17
0
25
0
17
27
16
25
17
0
25
16
27
17
29
27
16
25
0
17
24
25
16
25
27
29
16
25
0
25
16
0
25
24
29
0
24
25
16
0
29
24
0
25
16
8
29
16
25
24
0
29
24
0
24
29
16
8
24
29
0
24
25
30
29
0
24
29
8
28
24
0
28
8
16
8
29
30
29
24
0
28
8
16
12
24
29
30
8
29
30
24
12
29
28
8
30
29
28
8
30
29
8
30
12
24
4
8
30
4
8
28
0
12
30
8
4
28
8
30
0
12
0
30
12
0
12
30
12
0
12
30
0
12
30
13
30
12
30
4
12
14
28
15
30
4
10
12
4
14
0
14
4
30
15
30
4
14
0
14
4
15
30
15
4
30
15
0
30
15
4
30
15
14
4
30
15
6
12
6
15
30
15
6
12
6
15
6
0
6
15
6
0
6
15
2
4
2
15
4
2
4
2
7
14
0
7
0
6
15
2
7
4
2
15
6
0
6
7
0
6
15
2
7
2
7
0
7
2
7
0
7
2
0
7
2
7
23
15
2
23
7
11
23
2
7
0
3
23
15
2
23
3
7
0
3
23
2
1
6
3
23
0
3
3
23
0
3
23
11
23
1
19
2
1
23
3
0
3
23
0
3
19
0
3
23
1
19
3
0
19
1
23
27
3
17
23
27
3
21
27
3
23
17
11
19
23
27
1
19
0
17
19
0
1
19
25
19
0
1
19
17
27
0
17
19
0
27
17
1
18
17
9
19
0
17
27
17
0
17
27
0
17
27
16
17
0
25
19
29
27
17
0
17
25
27
16
1
16
25
0
25
16
27
17
25
16
0
25
16
9
16
25
0
25
16
27
29
16
27
29
16
25
0
25
16
25
24
29
0
25
24
16
29
8
16
25
28
27
28
25
0
28
25
0
24
25
0
24
29
30
25
0
28
25
30
29
24
0
29
24
0
24
29
24
12
24
0
28
25
28
8
30
29
24
12
24
0
28
0
28
8
0
28
8
28
0
28
8
0
28
8
28
30
8
28
12
0
28
12
28
14
28
0
12
0
30
8
4
8
30
12
0
0
28
14
0
28
8
4
8
30
4
8
12
0
30
12
0
12
30
12
4
30
14
12
0
14
12
30
4
14
0
14
4
0
14
12
6
8
4
2
14
15
2
4
14
0
4
14
4
14
4
0
14
4
0
14
0
4
14
6
0
14
15
4
2
14
4
6
15
0
6
15
6
0
6
15
6
0
15
6
0
2
6
15
6
0
7
14
7
0
6
15
23
6
15
2
7
0
6
2
7
15
23
2
15
6
3
0
6
15
19
7
0
7
2
7
0
7
2
0
7
0
3
6
23
3
0
7
2
7
19
7
2
0
7
19
15
23
3
3
0
23
3
3
0
23
3
0
23
3
0
3
23
3
0
3
19
7
0
19
1
23
2
1
19
0
7
19
1
27
23
3
27
23
1
19
0
19
1
19
3
17
0
3
19
17
0
27
23
1
27
19
17
3
17
19
0
1
19
27
17
0
0
19
1
16
27
1
17
27
17
0
17
0
27
17
19
25
0
17
19
25
0
17
27
16
1
16
27
17
0
25
19
25
0
17
27
29
16
27
17
25
0
16
25
17
24
0
17
25
0
16
25
0
24
17
25
24
0
25
16
29
27
29
16
27
29
24
0
25
0
24
29
0
24
25
0
24
16
25
29
24
16
25
8
16
29
24
24
0
29
24
29
24
12
16
8
28
25
30
29
8
28
0
24
0
28
8
16
8
29
30
25
28
0
8
28
0
24
29
8
28
0
24
28
0
8
28
28
0
8
28
12
30
28
8
12
28
30
12
0
12
30
28
8
4
12
0
30
12
0
0
12
30
0
12
30
8
4
8
30
0
12
0
30
12
0
12
28
14
4
8
30
12
4
0
14
12
0
14
12
30
4
14
0
14
4
14
4
14
0
14
4
14
0
14
4
2
12
0
6
0
15
4
14
2
4
15
30
6
15
0
14
0
6
4
15
30
4
14
15
6
0
14
7
14
23
14
15
6
2
4
15
2
7
6
0
6
15
7
6
0
7
6
2
15
4
2
7
0
2
7
0
2
7
0
6
3
15
23
6
11
23
15
6
23
15
2
7
0
7
2
23
15
19
7
2
7
0
3
7
2
23
3
0
7
3
23
2
1
2
23
1
2
7
19
1
2
23
1
3
0
23
3
0
3
23
3
0
3
23
3
0
19
7
27
23
3
1
19
0
19
1
19
0
3
17
19
3
0
17
3
0
19
1
16
3
17
0
19
1
27
23
27
1
16
3
17
0
19
1
19
0
19
25
23
27
1
16
19
25
3
17
17
27
0
17
27
17
0
17
27
0
17
27
17
16
1
27
17
16
9
16
17
27
25
0
17
16
25
27
16
25
0
17
24
1
16
25
0
25
16
0
25
0
25
16
0
25
16
25
0
25
16
29
27
16
29
24
27
29
16
25
8
16
25
29
24
0
25
24
0
29
24
0
24
29
0
24
16
29
24
8
16
29
8
24
28
0
25
28
8
16
29
8
24
29
30
24
29
24
0
28
8
28
0
24
12
0
28
8
0
28
8
20
8
28
0
8
28
0
28
8
30
29
12
30
24
12
0
28
8
28
0
12
30
8
4
24
12
30
12
0
12
30
12
0
12
30
0
12
30
12
0
14
28
0
14
28
15
30
4
8
4
14
28
15
30
12
0
14
4
30
8
4
14
4
14
12
0
6
12
0
14
0
14
4
14
0
14
4
14
6
0
14
4
15
6
0
14
4
2
15
4
14
0
6
0
15
4
2
14
4
2
15
4
2
6
15
0
6
14
7
4
2
14
7
0
6
15
6
0
7
14
23
15
2
6
7
0
15
2
7
0
6
3
6
0
7
2
7
0
7
2
7
0
2
7
0
3
6
23
11
7
23
2
7
0
3
6
0
3
23
15
23
2
1
6
3
0
7
19
7
2
1
7
19
2
1
23
3
0
19
7
19
3
0
3
3
23
0
3
19
0
1
23
19
3
0
1
19
0
3
19
0
1
19
0
19
3
17
7
27
23
1
19
0
19
1
19
0
3
17
23
27
1
19
0
17
27
23
27
17
1
27
19
17
0
27
17
19
25
19
1
16
27
1
17
16
1
27
16
1
16
27
29
19
25
0
17
0
16
1
27
29
18
25
17
27
0
17
27
25
17
16
27
29
17
27
16
25
29
19
25
24
17
0
24
25
0
25
16
24
25
0
16
25
29
24
0
29
16
8
25
16
29
24
0
25
30
25
0
29
16
27
29
24
25
0
24
29
24
16
8
29
24
0
28
24
29
24
0
24
29
8
24
0
28
25
30
29
28
8
16
8
28
0
8
28
0
28
8
28
0
28
8
28
0
28
8
28
0
8
28
0
28
8
0
28
8
0
28
30
8
4
28
12
30
8
4
12
8
30
12
0
12
30
0
12
30
0
12
30
29
14
0
12
30
12
0
12
30
0
12
30
4
8
6
12
30
12
15
30
4
14
12
0
14
4
14
0
14
4
14
0
4
14
0
14
0
6
12
0
6
12
2
4
15
30
15
4
14
0
6
14
4
15
30
6
15
0
6
14
7
14
4
15
6
6
15
0
6
15
2
4
2
15
23
6
2
15
0
6
7
0
2
4
15
2
7
4
2
15
6
0
7
2
4
7
2
15
23
2
15
7
2
23
15
2
7
23
15
2
23
7
3
0
7
2
3
23
2
5
3
2
23
7
0
3
2
23
1
2
7
1
2
23
3
3
0
19
7
19
15
19
23
1
2
1
23
3
0
3
23
27
23
3
0
19
1
2
1
23
27
23
3
1
19
0
3
17
23
27
3
23
27
1
23
27
19
1
19
0
17
3
16
1
19
17
27
1
19
17
0
27
19
1
16
1
27
23
25
19
25
19
0
17
0
27
17
0
17
27
17
1
16
27
17
0
27
17
0
17
27
16
1
25
16
0
17
25
0
27
16
25
17
0
25
16
27
29
17
27
16
25
0
25
16
0
25
25
16
25
0
16
29
24
27
29
16
25
24
29
27
29
24
0
25
16
8
16
29
24
0
25
28
27
29
0
24
25
28
0
24
29
0
24
29
26
29
24
29
24
0
24
29
24
0
28
8
29
30
24
29
8
28
24
0
12
24
0
28
8
28
0
28
8
28
0
28
8
0
28
0
12
30
29
8
30
28
8
0
28
12
0
30
12
24
4
8
30
29
14
28
8
0
28
14
29
30
12
12
30
12
0
12
30
12
30
4
14
8
4
30
15
28
14
0
12
14
4
0
14
12
30
0
14
4
8
4
30
15
4
30
14
4
15
30
14
4
15
30
15
4
14
0
14
0
6
14
0
4
14
6
15
4
14
4
14
7
30
15
6
0
6
15
0
6
15
2
6
0
7
14
6
0
7
14
0
7
14
0
6
0
15
23
2
15
6
7
0
6
15
2
7
0
6
7
0
6
3
6
15
23
2
7
15
2
23
15
7
18
7
15
23
3
6
3
0
3
23
2
1
2
7
19
15
23
3
0
7
0
3
23
2
7
1
2
23
3
0
7
19
15
23
2
1
23
3
2
23
3
3
23
1
2
19
1
19
0
3
1
19
23
1
27
23
1
19
19
0
3
17
19
27
1
19
0
19
1
0
19
0
1
19
0
1
18
1
0
19
0
17
3
17
27
23
27
1
19
17
27
1
19
16
1
17
27
17
19
25
0
17
27
17
0
16
27
17
0
25
19
25
0
16
1
24
17
0
25
19
25
16
1
16
27
29
17
27
16
25
1
16
25
27
16
25
0
25
16
25
0
25
16
25
29
16
24
25
0
25
16
8
16
29
27
28
25
0
24
25
16
29
8
16
29
24
0
25
28
27
29
24
0
24
29
0
24
29
30
25
28
0
24
29
24
0
24
12
24
29
24
28
0
24
8
29
30
29
24
0
28
8
28
0
8
28
8
28
0
28
8
30
29
12
30
0
28
8
4
24
12
0
28
8
30
29
30
12
8
28
30
12
0
12
30
0
12
8
20
14
8
20
12
14
0
28
15
30
12
0
12
30
0
12
30
15
28
14
4
8
30
12
4
14
0
12
14
30
4
14
12
6
0
12
6
14
0
15
30
4
15
2
12
6
0
14
4
0
14
4
14
0
6
12
6
15
0
14
4
2
15
4
14
6
0
6
14
15
6
0
6
15
0
6
15
2
4
7
2
4
2
15
6
0
7
14
23
15
2
7
6
0
2
7
15
6
0
7
2
0
7
0
6
3
6
1
6
0
7
2
0
7
6
3
6
1
2
7
2
7
3
23
15
23
3
2
7
0
3
23
3
0
23
3
0
3
23
0
7
2
1
23
27
7
27
23
3
0
3
23
3
3
23
3
0
7
19
0
19
1
3
23
27
3
23
1
19
0
19
1
0
19
19
1
19
0
19
1
27
23
1
27
23
27
1
23
27
19
1
19
0
19
1
16
19
1
27
23
25
19
1
0
27
17
0
17
27
17
0
19
17
27
0
17
27
17
0
17
27
17
0
17
27
17
24
1
16
27
29
17
0
27
17
24
17
0
25
16
27
29
27
16
25
0
17
25
0
16
25
0
17
24
1
16
25
27
16
29
25
24
0
25
16
29
24
25
0
24
29
16
25
24
0
24
29
24
0
25
28
0
25
0
28
27
28
25
24
0
28
25
24
0
29
24
0
24
29
28
8
16
8
28
29
24
28
8
0
28
8
0
28
8
28
0
28
0
8
16
12
24
0
28
8
0
28
8
28
0
28
8
0
28
30
8
29
30
12
0
28
12
30
12
0
24
12
30
12
0
12
30
12
12
0
30
12
30
12
0
12
30
12
0
14
4
8
30
4
12
2
12
4
30
15
28
15
30
0
14
4
8
6
12
30
15
4
30
14
0
12
6
12
0
14
4
14
14
0
6
12
6
0
15
6
0
14
4
15
6
0
15
6
30
15
6
14
0
6
15
4
2
4
15
2
4
3
15
30
7
2
4
15
6
0
6
14
23
15
6
14
7
0
6
15
2
7
6
0
7
2
7
2
4
3
6
3
7
0
2
7
0
7
2
0
7
2
5
2
23
15
3
23
0
2
7
3
0
2
7
0
3
23
0
7
2
1
23
2
7
3
23
3
0
7
3
19
0
7
19
3
0
19
7
19
1
19
0
3
23
27
7
19
1
0
3
23
27
3
23
1
19
0
3
17
2
1
19
0
19
1
0
19
1
18
1
19
0
19
1
27
17
3
16
1
19
1
16
19
1
27
17
19
0
17
27
1
16
19
9
16
19
1
16
17
27
1
16
27
1
16
0
25
19
25
0
17
27
17
0
17
0
25
19
25
16
17
27
25
16
1
16
25
0
25
16
25
0
16
25
0
25
16
0
25
0
24
17
25
0
24
17
8
16
25
29
16
25
0
24
29
24
17
24
0
24
29
27
28
25
0
24
29
16
8
25
30
29
27
28
25
0
24
29
24
0
28
25
28
24
0
29
24
8
28
24
29
8
28
16
8
28
0
28
8
0
28
0
12
24
30
8
29
30
8
29
30
29
30
12
24
0
12
28
0
8
28
0
28
8
30
12
28
0
12
28
8
30
4
8
30
12
0
12
30
12
0
28
14
12
0
12
30
4
8
14
4
30
12
0
14
0
12
30
7
12
30
4
8
6
12
0
14
30
0
12
0
14
0
4
14
12
6
12
0
14
4
14
0
14
4
2
12
6
14
0
6
15
4
14
0
6
15
4
2
14
4
15
6
0
6
15
0
6
0
14
7
2
14
7
6
0
15
6
0
6
15
0
6
6
15
0
7
6
2
15
23
6
11
23
6
15
2
7
0
6
7
0
3
6
0
7
2
7
0
7
2
7
0
3
6
0
3
7
0
2
7
3
23
0
2
7
3
23
0
3
23
3
0
7
3
23
2
1
7
2
19
0
3
23
1
2
1
23
3
0
3
19
23
3
0
3
23
27
1
23
3
0
19
1
19
3
0
19
1
23
27
23
1
27
19
1
19
23
27
1
23
27
19
0
1
19
0
17
19
27
1
19
17
0
27
1
16
1
19
0
17
27
0
17
19
0
27
17
1
27
16
17
3
25
16
1
19
29
27
16
1
16
27
17
25
19
29
27
17
16
25
19
25
0
25
16
27
29
17
24
27
21
25
16
25
0
25
16
0
25
0
24
17
0
24
25
0
16
25
0
25
16
29
27
24
29
16
25
8
16
25
29
24
0
24
17
24
29
8
16
24
29
0
24
8
29
24
28
0
24
29
30
25
28
0
24
29
8
24
0
28
29
8
16
12
24
0
28
8
16
8
28
0
24
12
0
24
28
8
29
28
30
29
8
28
30
12
0
8
28
30
8
12
0
28
12
30
0
12
28
0
12
30
0
12
8
30
12
0
28
0
12
30
0
12
30
13
30
12
30
4
8
14
4
8
30
4
12
0
14
12
30
15
30
12
4
10
4
30
15
4
30
14
4
12
14
0
14
4
14
4
2
12
6
15
30
15
4
14
0
6
15
30
15
4
2
14
4
0
6
15
30
7
14
0
6
15
4
6
14
0
7
14
0
7
6
10
7
4
2
15
6
0
6
7
0
14
7
6
0
7
2
15
6
0
7
2
15
23
6
15
23
2
15
7
2
3
23
15
2
23
15
23
2
7
0
7
2
7
0
7
2
5
2
3
23
0
3
0
3
23
