2063
2057
2057
2057
2065
2065
2065
2061
2061
2061
2066
2066
2066
2066
2064
2064
2064
2058
2058
2058
2059
2059
2059
2060
2060
2060
2062
2062
2062
2062
2065
2065
2065
2062
2062
2062
2066
2066
2066
2061
2061
2061
2062
2062
2062
2062
2053
2053
2053
2059
2059
2059
2060
2060
2060
2058
2058
2058
2059
2059
2059
2059
2061
2061
2061
2060
2060
2060
2064
2064
2064
2061
2061
2061
2065
2065
2065
2065
2064
2064
2064
2060
2060
2063
2055
2055
2055
2062
2062
2062
2058
2058
2058
2063
2063
2063
2063
2064
2064
2064
2060
2060
2060
2061
2061
2061
2059
2059
2059
2066
2066
2066
2066
2065
2065
2065
2059
2059
2059
2059
2059
2059
2059
2059
2059
2063
2063
2063
2063
2067
2067
2067
2057
2057
2057
2060
2060
2060
2060
2060
2060
2059
2059
2059
2059
2059
2059
2059
2060
2060
2060
2063
2063
2063
2057
2057
2057
2063
2063
2063
2063
2063
2063
2063
2058
2058
2058
2059
2059
2059
2060
2060
2060
2062
2062
2062
2062
2061
2061
2061
2055
2055
2055
2061
2061
2061
2060
2060
2060
2063
2063
2063
2063
2062
2062
2062
2059
2059
2059
2065
2065
2065
2058
2058
2058
2063
2063
2063
2063
2059
2059
2059
2055
2055
2055
2062
2062
2062
2056
2056
2056
2064
2064
2064
2064
2062
2062
2062
2059
2059
2059
2061
2061
2061
2060
2060
2060
2062
2062
2062
2062
2061
2061
2061
2058
2058
2058
2063
2063
2063
2058
2058
2058
2064
2064
2064
2064
2060
2060
2060
2063
2063
2063
2066
2066
2066
2060
2060
2060
2067
2067
2067
2067
2062
2062
2062
2059
2059
2059
2057
2057
2057
2062
2062
2062
2066
2066
2066
2066
2063
2063
2063
2060
2060
2060
2059
2059
2059
2055
2055
2055
2062
2062
2062
2062
2068
2068
2068
2060
2060
2060
2063
2063
2063
2060
2060
2060
2062
2062
2062
2062
2064
2064
2064
2060
2060
2060
2063
2063
2063
2067
2067
2067
2062
2062
2062
2062
2063
2063
2063
2057
2057
2057
2061
2061
2061
2062
2062
2062
2063
2063
2063
2063
2061
2061
2061
2061
2061
2061
2059
2059
2059
2065
2065
2065
2064
2064
2064
2064
2062
2062
2062
2059
2059
2059
2059
2059
2059
2059
2059
2059
2065
2065
2065
2065
2061
2061
2061
2058
2058
2058
2061
2061
2061
2059
2059
2059
2063
2063
2063
2063
2065
2065
2065
2065
2065
2065
2064
2064
2064
2059
2059
2059
2061
2061
2061
2061
2061
2061
2061
2060
2060
2060
2063
2063
2063
2060
2060
2060
2063
2063
2063
2063
2063
2063
2063
2057
2057
2057
2065
2065
2065
2061
2061
2061
2060
2060
2060
2060
2057
2057
2057
2061
2061
2061
2063
2063
2063
2057
2057
2057
2060
2060
2060
2060
2060
2060
2060
2061
2061
2061
2066
2066
2066
2057
2057
2057
2061
2061
2061
2061
2063
2063
2063
2059
2059
2059
2059
2059
2059
2063
2063
2063
2062
2062
2062
2062
2063
2063
2063
2058
2058
2058
2063
2063
2063
2060
2060
2060
2062
2062
2062
2062
2063
2063
2063
2063
2063
2063
2061
2061
2061
2061
2061
2061
2063
2063
2063
2063
2063
2063
2063
2063
2063
2063
2067
2067
2067
2059
2059
2059
2063
2063
2063
2063
2062
2062
2062
2060
2060
2060
2063
2063
2063
2056
2056
2056
2063
2063
2063
2063
2061
2061
2061
2057
2057
2057
2064
2064
2064
2059
2059
2059
2064
2064
2064
2064
2066
2066
2066
2055
2055
2055
2061
2061
2061
2059
2059
2059
2064
2064
2064
2064
2064
2064
2064
2059
2059
2059
2066
2066
2066
2054
2054
2054
2060
2060
2060
2060
2063
2063
2063
2060
2060
2060
2073
2073
2073
2059
2059
2059
2061
2061
2061
2061
2065
2065
2065
2059
2059
2059
2058
2058
2058
2059
2059
2059
2062
2062
2062
2062
2060
2060
2060
2058
2058
2058
2061
2061
2061
2059
2059
2059
2063
2063
2063
2063
2061
2061
2061
2061
2061
2061
2054
2054
2054
2059
2059
2059
2063
2063
2063
2063
2062
2062
2062
2060
2060
2060
2061
2061
2061
2059
2059
2059
2063
2063
2063
2063
2063
2063
2063
2064
2064
2064
2063
2063
2063
2056
2056
2056
2063
2063
2063
2063
2062
2062
2062
2055
2055
2055
2064
2064
2064
2056
2056
2056
2061
2061
2061
2061
2066
2066
2066
2067
2067
2067
2062
2062
2062
2060
2060
2060
2061
2061
2061
2061
2061
2061
2061
2062
2062
2062
2065
2065
2065
2059
2059
2059
2067
2067
2067
2067
2056
2056
2056
2060
2060
2060
2061
2061
2061
2058
2058
2058
2065
2065
2065
2065
2062
2062
2062
2058
2058
2058
2063
2063
2063
2062
2062
2062
2060
2060
2060
2060
2054
2054
2054
2059
2059
2059
2060
2060
2060
2060
2060
2060
2059
2059
2059
2059
2063
2063
2063
2058
2058
2058
2064
2064
2064
2054
2054
2054
2060
2060
2060
2060
2061
2061
2061
2055
2055
2055
2063
2063
2063
2060
2060
2060
2062
2062
2062
2062
2063
2063
2063
2061
2061
2061
2062
2062
2062
2066
2066
2066
2060
2060
2060
2060
2062
2062
2062
2063
2063
2063
2064
2064
2064
2059
2059
2059
2064
2064
2064
2064
2063
2063
2063
2062
2062
2062
2061
2061
2061
2062
2062
2062
2056
2056
2056
2056
2061
2061
2061
2068
2068
2068
2063
2063
2063
2066
2066
2066
2064
2064
2064
2064
2064
2064
2064
2061
2061
2061
2062
2062
2062
2059
2059
2059
2064
2064
2064
2064
2064
2064
2064
2058
2058
2058
2062
2062
2062
2058
2058
2058
2063
2063
2063
2063
2061
2061
2061
2060
2060
2060
2059
2059
2059
2057
2057
2057
2057
2057
2057
2057
2063
2063
2063
2060
2060
2060
2066
2066
2066
2060
2060
2060
2062
2062
2062
2062
2062
2062
2062
2061
2061
2061
2062
2062
2062
2057
2057
2057
2062
2062
2062
2062
2063
2063
2063
2056
2056
2056
2063
2063
2063
2057
2057
2057
2059
2059
2059
2059
2069
2069
2069
2058
2058
2058
2063
