2149
2149
2149
2148
2148
2148
2149
2149
2149
2158
2158
2158
2150
2150
2150
2150
2151
2151
2151
2151
2151
2151
2149
2149
2149
2154
2154
2154
2145
2145
2145
2145
2148
2148
2148
2152
2152
2152
2150
2150
2150
2151
2151
2151
2151
2151
2151
2151
2150
2150
2150
2151
2151
2151
2150
2150
2150
2143
2143
2143
2153
2153
2153
2153
2148
2148
2148
2152
2152
2152
2152
2152
2152
2150
2150
2150
2151
2151
2151
2151
2149
2149
2149
2148
2147
2147
2147
2151
2151
2151
2142
2142
2142
2151
2151
2151
2153
2153
2153
2153
2150
2150
2150
2152
2152
2152
2155
2155
2155
2153
2153
2153
2150
2150
2150
2150
2145
2145
2145
2151
2151
2151
2151
2151
2151
2150
2150
2150
2150
2150
2150
2150
2149
2149
2149
2150
2150
2150
2150
2150
2150
2150
2150
2150
2150
2150
2150
2150
2149
2149
2149
2151
2151
2151
2151
2151
2151
2151
2151
2151
2149
2149
2149
2149
2148
2148
2148
2158
2158
2158
2148
2148
2148
2152
2152
2152
2151
2151
2151
2151
2150
2150
2150
2150
2150
2150
2151
2151
2151
2150
2150
2150
2150
2150
2150
2150
2142
2142
2142
2155
2155
2155
2149
2149
2149
2149
2149
2149
2151
2151
2151
2151
2148
2148
2148
2150
2150
2150
2156
2156
2156
2150
2150
2150
2154
2154
2154
2154
2150
2150
2150
2152
2152
2152
2150
2150
2150
2153
2153
2153
2153
2153
2153
2153
2148
2148
2148
2150
2150
2150
2151
2151
2151
2154
2154
2154
2148
2148
2148
2148
2151
2151
2151
2151
2151
2151
2151
2151
2151
2147
2147
2147
2149
2149
2149
2149
2149
2149
2149
2150
2150
2150
2150
2150
2150
2149
2149
2149
2155
2155
2155
2155
2151
2151
2151
2152
2152
2152
2150
2150
2150
2150
2150
2150
2151
2151
2151
2151
2148
2148
2148
2152
2152
2152
2150
2150
2150
2148
2148
2148
2156
2156
2156
2156
2150
2150
2150
2150
2150
2150
2150
2150
2150
2149
2149
2149
2153
2153
2153
2153
2150
2150
2150
2147
2147
2147
2151
2151
2151
2153
2153
2153
2149
2149
2149
2149
2147
2147
2147
2146
2146
2146
2148
2148
2148
2151
2151
2151
2151
2151
2151
2151
2150
2150
2150
2151
2151
2151
2153
2153
2153
2151
2151
2151
2151
2151
2151
2151
2150
2150
2150
2151
2151
2151
2151
2151
2151
2154
2154
2154
2150
2150
2150
2150
2150
2150
2150
2151
2151
2151
2155
2155
2155
2150
2150
2150
2150
2150
2150
2150
2152
2152
2152
2156
2156
2156
2150
2150
2150
2148
2148
2148
2151
2151
2151
2151
2149
2149
2149
2152
2152
2152
2152
2152
2152
2152
2152
2152
2154
2154
2154
2154
2149
2149
2149
2151
2151
2151
2149
2149
2149
2148
2148
2148
2150
2150
2150
2150
2148
2148
2148
2152
2152
2152
2152
2152
2152
2149
2149
2149
2148
2148
2148
2148
2150
2150
2150
2154
2154
2154
2150
2150
2150
2150
2150
2150
2151
2151
2151
2151
2146
2146
2146
2152
2152
2152
2148
2148
2148
2148
2148
2148
2149
2149
2149
2149
2149
2149
2149
2149
2149
2149
2150
2150
2150
2150
2150
2150
2150
2150
2150
2150
2148
2148
2148
2151
2151
2151
2145
2145
2145
2152
2152
2152
2150
2150
2150
2150
2151
2151
2151
2151
2151
2151
2152
2152
2152
2151
2151
2151
2152
2152
2152
2152
2149
2149
2149
2149
2149
2149
2150
2150
2150
2149
2149
2149
2150
2150
2150
2150
2150
2150
2150
2152
2152
2152
2148
2148
2148
2149
2149
2149
2146
2146
2146
2146
2149
2149
2149
2150
2150
2150
2151
2151
2151
2149
2149
2149
2150
2150
2150
2150
2153
2153
2153
2147
2147
2147
2149
2149
2149
2151
2151
2151
2156
2156
2156
2156
2149
2149
2149
2151
2151
2151
2150
2150
2150
2150
2150
2150
2151
2151
2151
2151
2152
2152
2152
2150
2150
2150
2148
2148
2148
2151
2151
2151
2147
2147
2147
2147
2149
2149
2149
2151
2151
2151
2146
2146
2146
2151
2151
2151
2149
2149
2149
2149
2145
2145
2145
2150
2150
2150
2150
2150
2150
2149
2149
2149
2147
2147
2147
2147
2149
2149
2149
2150
2150
2150
2146
2146
2146
2151
2151
2151
2152
2152
2152
2152
2152
2152
2152
2149
2149
2149
2151
2151
2151
2151
2151
2151
2153
2153
2153
2153
2150
2150
2150
2152
2152
2152
2153
2153
2153
2150
2150
2150
2151
2151
2151
2151
2146
2146
2146
2151
2151
2151
2150
2150
2150
2150
2150
2150
2152
2152
2152
2152
2151
2151
2151
2151
2151
2151
2142
2142
2142
2154
2154
2154
2153
2153
2153
2153
2149
2149
2149
2149
2149
2149
2151
2151
2151
2148
2148
2148
2149
2149
2149
2149
2149
2149
2149
2150
2150
2150
2156
2156
2156
2146
2146
2146
2151
2151
2151
2151
2146
2146
2146
2151
2151
2151
2147
2147
2147
2149
2149
2149
2151
2151
2151
2151
2152
2152
2152
2150
2150
2150
2147
2147
2147
2151
2151
2151
2149
2149
2149
2149
2152
2152
2152
2147
2147
2147
2149
2149
2149
2151
2151
2151
2148
2148
2148
2148
2149
2149
2149
2152
2152
2152
2149
2149
2149
2153
2153
2153
2154
2154
2154
2154
2153
2153
2153
2152
2152
2152
2150
2150
2150
2153
2153
2153
2147
2147
2147
2147
2150
2150
2150
2152
2152
2152
2146
2146
2146
2150
2150
2150
2149
2149
2149
2149
2150
2150
2150
2150
2150
2150
2151
2151
2151
2150
2150
2150
2149
2149
2149
2149
2148
2148
2148
2150
2150
2150
2153
2153
2153
2140
2140
2140
2150
2150
2150
2150
2145
2145
2145
2153
2153
2153
2152
2152
2152
2150
2150
2150
2146
2146
2146
2146
2150
2150
2150
2152
2152
2152
2146
2146
2146
2150
2150
2150
2148
2148
2148
2148
2146
2146
2146
2146
2146
2146
2150
2150
2150
2149
2149
2149
2151
2151
2151
2151
2151
2151
2151
2150
2150
2150
2148
2148
2148
2154
2154
2154
2144
2144
2144
2144
2145
2145
2145
2153
