2021
2022
2022
2022
2021
2021
2021
2025
2025
2025
2026
2026
2026
2023
2023
2023
2023
2022
2022
2022
2022
2022
2022
2023
2023
2023
2032
2032
2032
2014
2014
2014
2014
2022
2022
2022
2022
2022
2022
2021
2021
2021
2025
2025
2025
2022
2022
2022
2022
2017
2017
2017
2024
2024
2024
2018
2018
2018
2023
2023
2023
2024
2024
2024
2024
2020
2020
2020
2024
2024
2024
2023
2023
2023
2024
2024
2024
2024
2024
2024
2024
2025
2025
2026
2026
2015
2015
2015
2023
2023
2023
2025
2025
2025
2022
2022
2022
2023
2023
2023
2023
2022
2022
2022
2020
2020
2020
2021
2021
2021
2021
2021
2021
2021
2021
2021
2021
2021
2021
2021
2023
2023
2023
2021
2021
2021
2021
2021
2021
2023
2023
2023
2023
2020
2020
2020
2024
2024
2024
2023
2023
2023
2020
2020
2020
2019
2019
2019
2019
2021
2021
2021
2024
2024
2024
2022
2022
2022
2021
2021
2021
2022
2022
2022
2022
2022
2022
2022
2023
2023
2023
2020
2020
2020
2024
2024
2024
2022
2022
2022
2022
2023
2023
2023
2025
2025
2025
2024
2024
2024
2025
2025
2025
2024
2024
2024
2024
2024
2024
2024
2021
2021
2021
2022
2022
2022
2020
2020
2020
2023
2023
2023
2023
2024
2024
2024
2024
2024
2024
2021
2021
2021
2023
2023
2023
2025
2025
2025
2025
2022
2022
2022
2017
2017
2017
2022
2022
2022
2023
2023
2023
2026
2026
2026
2026
2020
2020
2020
2021
2021
2021
2027
2027
2027
2024
2024
2024
2023
2023
2023
2023
2021
2021
2021
2024
2024
2024
2021
2021
2021
2022
2022
2022
2023
2023
2023
2023
2017
2017
2017
2023
2023
2023
2022
2022
2022
2022
2022
2022
2020
2020
2020
2020
2022
2022
2022
2025
2025
2025
2022
2022
2022
2022
2022
2022
2019
2019
2019
2019
2024
2024
2024
2020
2020
2020
2020
2020
2020
2021
2021
2021
2022
2022
2022
2022
2020
2020
2020
2022
2022
2022
2019
2019
2019
2021
2021
2021
2020
2020
2020
2020
2022
2022
2022
2021
2021
2021
2025
2025
2025
2028
2028
2028
2020
2020
2020
2020
2020
2020
2020
2024
2024
2024
2025
2025
2025
2023
2023
2023
2022
2022
2022
2022
2020
2020
2020
2023
2023
2023
2022
2022
2022
2020
2020
2020
2023
2023
2023
2023
2025
2025
2025
2022
2022
2022
2027
2027
2027
2021
2021
2021
2023
2023
2023
2023
2021
2021
2021
2024
2024
2024
2031
2031
2031
2023
2023
2023
2024
2024
2024
2024
2020
2020
2020
2023
2023
2023
2021
2021
2021
2024
2024
2024
2023
2023
2023
2023
2021
2021
2021
2021
2021
2021
2022
2022
2022
2023
2023
2023
2019
2019
2019
2019
2020
2020
2020
2017
2017
2017
2023
2023
2023
2023
2023
2023
2024
2024
2024
2024
2021
2021
2021
2026
2026
2026
2020
2020
2020
2021
2021
2021
2021
2021
2021
2021
2025
2025
2025
2024
2024
2024
2025
2025
2025
2023
2023
2023
2022
2022
2022
2022
2023
2023
2023
2023
2023
2023
2024
2024
2024
2020
2020
2020
2020
2020
2020
2020
2024
2024
2024
2021
2021
2021
2022
2022
2022
2022
2022
2022
2022
2022
2022
2022
2021
2021
2021
2022
2022
2022
2024
2024
2024
2024
2024
2024
2022
2022
2022
2022
2023
2023
2023
2023
2023
2023
2022
2022
2022
2022
2022
2022
2021
2021
2021
2021
2024
2024
2024
2022
2022
2022
2024
2024
2024
2021
2021
2021
2023
2023
2023
2023
2019
2019
2019
2021
2021
2021
2021
2021
2021
2029
2029
2029
2021
2021
2021
2021
2020
2020
2020
2021
2021
2021
2023
2023
2023
2022
2022
2022
2023
2023
2023
2023
2024
2024
2024
2022
2022
2022
2017
2017
2017
2022
2022
2022
2022
2022
2022
2022
2024
2024
2024
2022
2022
2022
2019
2019
2019
2019
2019
2019
2023
2023
2023
2023
2021
2021
2021
2020
2020
2020
2021
2021
2021
2025
2025
2025
2024
2024
2024
2024
2024
2024
2024
2024
2024
2024
2023
2023
2023
2017
2017
2017
2023
2023
2023
2023
2023
2023
2023
2022
2022
2022
2020
2020
2020
2024
2024
2024
2030
2030
2030
2030
2020
2020
2020
2023
2023
2023
2022
2022
2022
2025
2025
2025
2022
2022
2022
2022
2018
2018
2018
2023
2023
2023
2017
2017
2017
2022
2022
2022
2022
2022
2022
2022
2023
2023
2023
2023
2023
2023
2019
2019
2019
2020
2020
2020
2021
2021
2021
2021
2023
2023
2023
2024
2024
2024
2023
2023
2023
2031
2031
2031
2020
2020
2020
2020
2023
2023
2023
2025
2025
2025
2023
2023
2023
2023
2023
2023
2024
2024
2024
2024
2025
2025
2025
2022
2022
2022
2021
2021
2021
2024
2024
2024
2023
2023
2023
2023
2023
2023
2023
2023
2023
2023
2022
2022
2022
2022
2022
2022
2023
2023
2023
2023
2022
2022
2022
2020
2020
2020
2028
2028
2028
2024
2024
2024
2022
2022
2022
2022
2021
2021
2021
2024
2024
2024
2023
2023
2023
2015
2015
2015
2022
2022
2022
2022
2024
2024
2024
2024
2024
2024
2023
2023
2023
2023
2023
2023
2020
2020
2020
2020
2021
2021
2021
2023
2023
2023
2022
2022
2022
2024
2024
2024
2028
2028
2028
2028
2022
2022
2022
2021
2021
2021
2019
2019
2019
2024
2024
2024
2021
2021
2021
2021
2018
2018
2018
2023
2023
2023
2021
2021
2021
2020
2020
2020
2023
2023
2023
2023
2021
2021
2021
2025
2025
2025
2022
2022
2022
2028
2028
2028
2023
2023
2023
2023
2023
2023
2023
2023
2023
2023
2020
2020
2020
2024
2024
2024
2024
2024
2024
2024
2016
2016
2016
2025
2025
2025
2023
2023
2023
2023
2023
2023
2023
2023
2023
2023
2021
2021
2021
2023
2023
2023
2026
2026
2026
2022
2022
2022
2020
2020
2020
2020
2021
2021
2021
2022
2022
2022
2022
2022
2022
2024
2024
2024
2023
2023
2023
2023
2027
2027
2027
2023
2023
2023
2023
2023
2023
2017
2017
2017
2021
2021
2021
2021
2021
2021
2021
