29210
29361
29361
29361
29361
29318
29318
29318
29253
29253
29253
29296
29296
29296
29232
29232
29232
29296
29296
29296
29296
29318
29318
29318
29253
29253
29253
29339
29339
29339
29189
29189
29189
29275
29275
29275
29275
29447
29447
29447
29275
29275
29275
29382
29382
29382
29189
29189
29189
29339
29339
29339
29339
29339
29339
29339
29318
29318
29318
29361
29361
29361
29253
29253
29253
29361
29361
29361
29361
29318
29318
29318
29253
29253
29253
29339
29339
29339
29189
29189
29189
29404
29404
29404
29404
29339
29339
29339
29253
29253
29253
29425
29425
29425
29275
29275
29275
29318
29318
29318
29318
29296
29296
29296
29275
29275
29275
29361
29361
29361
29253
29253
29253
29318
29318
29318
29318
29296
29296
29296
29253
29253
29253
29296
29296
29296
29210
29210
29210
29382
29382
29382
29382
29296
29296
29296
29232
29232
29232
29339
29339
29339
29318
29318
29318
29382
29382
29382
29382
29318
29318
29318
29232
29232
29232
29318
29318
29318
29275
29275
29275
29339
29339
29339
29339
29361
29361
29361
29253
29253
29253
29339
29339
29339
29253
29253
29253
29275
29275
29275
29275
29404
29404
29404
29210
29210
29210
29361
29361
29361
29232
29232
29232
29339
29339
29339
29339
29361
29361
29361
29275
29275
29275
29339
29339
29339
29232
29232
29232
29425
29425
29425
29425
29275
29275
29275
29210
29210
29210
29296
29296
29296
29253
29253
29253
29382
29382
29382
29382
29296
29296
29296
29232
29232
29232
29382
29382
29382
29189
29189
29189
29296
29296
29296
29296
29296
29296
29296
29318
29318
29318
29339
29339
29339
29232
29232
29232
29318
29318
29318
29318
29275
29275
29275
29210
29210
29210
29361
29361
29361
29318
29318
29318
29318
29318
29318
29318
29361
29361
29361
29275
29275
29275
29361
29361
29361
29253
29253
29253
29339
29339
29339
29339
29382
29382
29382
29210
29210
29210
29447
29447
29447
29253
29253
29253
29339
29339
29339
29339
29339
29339
29339
29318
29318
29318
29339
29339
29339
29296
29296
29296
29296
29296
29296
29296
29339
29339
29339
29210
29210
29210
29318
29318
29318
29296
29296
29296
29425
29425
29425
29425
29339
29339
29339
29296
29296
29296
29275
29275
29275
29253
29253
29253
29361
29361
29361
29361
29318
29318
29318
29275
29275
29275
29382
29382
29382
29296
29296
29296
29296
29296
29296
29296
29339
29339
29339
29189
29189
29189
29318
29318
29318
29253
29253
29253
29339
29339
29339
29339
29361
29361
29361
29296
29296
29296
29361
29361
29361
29296
29296
29296
29361
29361
29361
29361
29339
29339
29339
29232
29232
29232
29318
29318
29318
29124
29124
29124
29318
29318
29318
29318
29361
29361
29361
29232
29232
29232
29339
29339
29339
29296
29296
29296
29318
29318
29318
29318
29382
29382
29382
29189
29189
29189
29404
29404
29404
29296
29296
29296
29318
29318
29318
29318
29361
29361
29361
29146
29146
29146
29318
29318
29318
29210
29210
29210
29318
29318
29318
29318
29318
29318
29318
29210
29210
29210
29296
29296
29296
29253
29253
29253
29361
29361
29361
29361
29339
29339
29339
29275
29275
29275
29404
29404
29404
29253
29253
29253
29361
29361
29361
29361
29382
29382
29382
29275
29275
29275
29318
29318
29318
29275
29275
29275
29339
29339
29339
29339
29361
29361
29361
29232
29232
29232
29339
29339
29339
29275
29275
29275
29296
29296
29296
29296
29382
29382
29382
29253
29253
29253
29382
29382
29382
29232
29232
29232
29447
29447
29447
29447
29318
29318
29318
29275
29275
29275
29361
29361
29361
29210
29210
29210
29339
29339
29339
29339
29318
29318
29318
29232
29232
29232
29253
29253
29253
29232
29232
29232
29382
29382
29382
29382
29339
29339
29339
29275
29275
29275
29339
29339
29339
29253
29253
29253
29318
29318
29318
29318
29382
29382
29382
29253
29253
29253
29382
29382
29382
29253
29253
29253
29361
29361
29361
29361
29318
29318
29318
29232
29232
29232
29318
29318
29318
29232
29232
29232
29296
29296
29296
29296
29339
29339
29339
29210
29210
29210
29361
29361
29361
29253
29253
29253
29382
29382
29382
29382
29318
29318
29318
29253
29253
29253
29382
29382
29382
29275
29275
29275
29361
29361
29361
29361
29339
29339
29339
29232
29232
29232
29404
29404
29404
29232
29232
29232
29275
29275
29275
29275
29318
29318
29318
29232
29232
29232
29447
29447
29447
29253
29253
29253
29361
29361
29361
29361
29361
29361
29361
29253
29253
29253
29339
29339
29339
29253
29253
29253
29339
29339
29339
29339
29382
29382
29382
29232
29232
29232
29275
29275
29275
29232
29232
29232
29339
29339
29339
29339
29296
29296
29296
29253
29253
29253
29339
29339
29339
29210
29210
29210
29361
29361
29361
29361
29361
29361
29361
29232
29232
29232
29382
29382
29382
29210
29210
29210
29339
29339
29339
29339
29339
29339
29339
29232
29232
29232
29318
29318
29318
29146
29146
29146
29275
29275
29275
29275
29318
29318
29318
29232
29232
29232
29404
29404
29404
29296
29296
29296
29339
29339
29339
29339
29361
29361
29361
29275
29275
29275
29339
29339
29339
29232
29232
29232
29339
29339
29339
29339
29339
29339
29339
29232
29232
29232
29404
29404
29404
29232
29232
29232
29361
29361
29361
29361
29296
29296
29296
29232
29232
29232
29339
29339
29339
29232
29232
29232
29404
29404
29404
29404
29318
29318
29318
29232
29232
29232
29361
29361
29361
29253
29253
29253
29318
29318
29318
29318
29253
29253
29253
29232
29232
29232
29189
29189
29189
29232
29232
29232
29382
29382
29382
29382
29318
29318
29318
29275
29275
29275
29275
29275
29275
29210
29210
29210
29318
29318
29318
29318
29275
29275
29275
29232
29232
29232
29361
29361
29361
29210
29210
29210
29361
29361
29361
29361
29361
29361
29361
29253
29253
29253
29275
29275
29275
29275
29275
29275
29382
29382
29382
29382
29339
29339
29339
29296
29296
29296
29318
29318
29318
29210
29210
29210
29382
29382
29382
29382
29318
29318
29318
29253
29253
29253
29318
29318
29318
29253
29253
29253
29275
29275
29275
29275
29339
29339
29339
29232
29232
29232
29361
29361
29361
29189
29189
29189
29404
29404
29404
29404
29361
29361
29361
29210
29210
29210
29318
29318
29318
29253
29253
29253
29382
29382
29382
29382
29210
29210
29210
29296
29296
29296
29361
29361
29361
29232
29232
29232
29447
29447
29447
29447
29296
29296
29296
29318
29318
29318
29318
29318
29318
29296
29296
29296
29318
29318
29318
29318
29296
29296
29296
29253
29253
29253
29361
29361
29361
29275
29275
29275
29318
29318
29318
29318
29361
29361
29361
29253
29253
29253
29318
29318
29318
29232
29232
29232
29275
29275
29275
29275
29339
29339
29339
29253
29253
29253
29339
29339
29339
29253
29253
29253
29382
29382
29382
29382
29081
29081
29081
29275
29275
29275
29361
29361
29361
29253
29253
29253
29361
29361
29361
29361
29382
29382
29382
29275
29275
29275
29339
29339
29339
29232
29232
29232
29425
29425
29425
29425
29296
29296
29296
29146
29146
29146
29382
29382
29382
29253
29253
29253
29339
29339
29339
29339
29339
29339
29339
29275
29275
29275
29339
29339
29339
29275
29275
29275
29339
29339
29339
29339
29296
29296
29296
29253
29253
29253
29318
29318
29318
29275
29275
29275
29425
29425
29425
29425
29382
29382
29382
29253
29253
29253
29361
29361
29361
29189
29189
29189
29296
29296
29296
29296
29318
29318
29318
29167
29167
29167
29339
29339
29339
29232
29232
29232
29318
29318
29318
29318
29361
29361
29361
29232
29232
29232
29318
29318
29318
29253
29253
29253
29382
29382
29382
29382
29318
29318
29318
29189
29189
29189
29318
29318
29318
29210
29210
29210
29275
29275
29275
29275
29361
29361
29361
29232
29232
29232
29339
29339
29339
29339
29339
29339
29361
29361
29361
29361
29361
29361
29361
29146
29146
29146
29404
29404
29404
29253
29253
29253
29339
29339
29339
29339
29361
29361
29361
29296
29296
29296
29318
29318
29318
29275
29275
29275
29318
29318
29318
29318
29296
29296
29296
29232
29232
29232
29361
29361
29361
29210
29210
29210
29382
29382
29382
29382
29382
29382
29382
29210
29210
29210
29339
29339
29339
29253
29253
29253
29382
29382
29382
29382
29318
29318
29318
29339
29339
29339
29425
29425
29425
29253
29253
29253
29339
29339
29339
29339
29404
29404
29404
29232
29232
29232
29361
29361
29361
29253
29253
29253
29425
29425
29425
29425
29339
29339
29339
29275
29275
29275
29318
29318
29318
29253
29253
29253
29339
29339
29339
29339
29382
29382
29382
29253
29253
29253
29296
29296
29296
29232
29232
29232
29468
29468
29468
29468
29296
29296
29296
29318
29318
29318
29339
29339
29339
29210
29210
29210
29339
29339
29339
29339
29361
29361
29361
29318
29318
29318
29339
29339
29339
29339
29339
29339
29339
29339
29339
29339
29339
29339
29339
29253
29253
29253
29447
29447
29447
29296
29296
29296
29318
29318
29318
29318
29339
29339
29339
29210
29210
29210
29339
29339
29339
29296
29296
29296
29404
29404
29404
29404
29361
29361
29361
29253
29253
29253
29210
29210
29210
29253
29253
29253
29339
29339
29339
29339
29318
29318
29318
29275
29275
29275
29382
29382
29382
29318
29318
29318
29361
29361
29361
29361
29318
29318
29318
29253
29253
29253
29339
29339
29339
29253
29253
29253
29361
29361
29361
29361
29361
29361
29361
29253
29253
29253
29296
29296
29296
29232
29232
29232
29404
29404
29404
29404
29339
29339
29339
29253
29253
29253
29189
29189
29189
29253
29253
29253
29361
29361
29361
29361
29404
29404
29404
29232
29232
29232
29382
29382
29382
29253
29253
29253
29447
29447
29447
29447
29339
29339
29339
29253
29253
29253
29404
29404
29404
29275
29275
29275
29382
29382
29382
29382
29339
29339
29339
29275
29275
29275
29339
29339
29339
29232
29232
29232
29339
29339
29339
29339
29318
29318
29318
29189
29189
29189
29361
29361
29361
29253
29253
29253
29339
29339
29339
29339
29404
29404
29404
29296
29296
29296
29382
29382
29382
29232
29232
29232
29339
29339
29339
29339
29318
29318
29318
29232
29232
29232
29361
29361
29361
29253
29253
29253
29425
29425
29425
29425
29404
29404
29404
29253
29253
29253
29339
29339
29339
29253
29253
29253
29382
29382
29382
29382
29318
29318
29318
29275
29275
29275
29404
29404
29404
29253
29253
29253
29339
29339
29339
29339
29253
29253
29253
29210
29210
29210
29361
29361
29361
29232
29232
29232
29253
29253
29253
29253
29361
29361
29361
29296
29296
29296
29253
29253
29253
29253
29253
29253
29425
29425
29425
29425
29318
29318
29318
29296
29296
29296
29404
29404
29404
29232
29232
29232
29361
29361
29361
29361
29339
29339
29339
29210
29210
29210
29339
29339
29339
29318
29318
29318
29361
29361
29361
29361
29382
29382
29382
29253
29253
29253
29318
29318
29318
29382
29382
29382
29361
29361
29361
29361
29339
29339
29339
29232
29232
29232
29318
29318
29318
29253
29253
29253
29339
29339
29339
29339
29404
29404
29404
29232
29232
29232
29382
29382
29382
29232
29232
29232
29382
29382
29382
29382
29318
29318
29318
29275
29275
29275
29210
29210
29210
29210
29210
29210
29382
29382
29382
29382
29296
29296
29296
29296
29296
29296
29382
29382
29382
29275
29275
29275
29296
29296
29296
29296
29318
29318
29318
29253
29253
29253
29318
29318
29318
29232
29232
29232
29361
29361
29361
29361
29296
29296
29296
29232
29232
29232
29533
29533
29533
29275
29275
29275
29339
29339
29339
29339
29339
29339
29339
29189
29189
29189
29361
29361
29361
29253
29253
29253
29339
29339
29339
29339
29232
29232
29232
29253
29253
29253
29318
29318
29318
29232
29232
29232
29447
29447
29447
29447
29339
29339
29339
29296
29296
29296
29318
29318
29318
29210
29210
29210
29404
29404
29404
29404
29382
29382
29382
29232
29232
29232
29339
29339
29339
29275
29275
29275
29296
29296
29296
29296
29339
29339
29339
29210
29210
29210
29318
29318
29318
29253
29253
29253
29361
29361
29361
29361
29382
29382
29382
29253
29253
29253
29339
29339
29339
29253
29253
29253
29318
29318
29318
29318
29404
29404
29404
29253
29253
29253
29404
29404
29404
29232
29232
29232
29318
29318
29318
29318
29253
29253
29253
29275
29275
29275
29361
29361
29361
29275
29275
29275
29404
29404
29404
29404
29339
29339
29339
29275
29275
29275
29382
29382
29382
29296
29296
29296
29339
29339
29339
29339
29339
29339
29339
29253
29253
29253
29361
29361
29361
29253
29253
29253
29296
29296
29296
29296
29361
29361
29361
29232
29232
29232
29318
29318
29318
29253
29253
29253
29361
29361
29361
29361
29361
29361
29361
29253
29253
29253
29318
29318
29318
29210
29210
29210
29404
29404
29404
29404
29361
29361
29361
29210
29210
29210
29318
29318
29318
29296
29296
29296
29382
29382
29382
29382
29318
29318
29318
29296
29296
29296
29382
29382
29382
29232
29232
29232
29339
29339
29339
29339
29296
29296
29296
29275
29275
29275
29339
29339
29339
29339
29339
29339
29318
29318
29318
29318
29447
29447
29447
29146
29146
29146
29318
29318
29318
29275
29275
29275
29361
29361
29361
29361
29382
29382
29382
29253
29253
29253
29318
29318
29318
29382
29382
29382
29404
29404
29404
29404
29361
29361
29361
29210
29210
29210
29339
29339
29339
29275
29275
29275
29339
29339
29339
29339
29404
29404
29404
29275
29275
29275
29361
29361
29361
29318
29318
29318
29361
29361
29361
29361
29339
29339
29339
29189
29189
29189
29425
29425
29425
29210
29210
29210
29361
29361
29361
29361
29361
29361
29361
29232
29232
29232
29318
29318
29318
29339
29339
29339
29318
29318
29318
29318
29339
29339
29339
29275
29275
29275
29361
29361
29361
29167
29167
29167
29361
29361
29361
29361
29339
29339
29339
29210
29210
29210
29339
29339
29339
29210
29210
29210
29339
29339
29339
29339
29339
29339
29339
29275
29275
29275
29361
29361
29361
29253
29253
29253
29339
29339
29339
29339
29296
29296
29296
29275
29275
29275
29361
29361
29361
29275
29275
29275
29339
29339
29339
29339
29296
29296
29296
29167
29167
29167
29339
29339
29339
29253
29253
29253
29339
29339
29339
29339
29339
29339
29339
29275
29275
29275
29339
29339
29339
29318
29318
29318
29318
29318
29318
29318
29339
29339
29339
29275
29275
29275
29339
29339
29339
29232
29232
29232
29361
29361
29361
29361
29339
29339
29339
29253
29253
29253
29382
29382
29382
29232
29232
29232
29296
29296
29296
29296
29318
29318
29318
29275
29275
29275
29339
29339
29339
29296
29296
29296
29404
29404
29404
29404
29339
29339
29339
29253
29253
29253
29318
29318
29318
29275
29275
29275
29339
29339
29339
29339
29382
29382
29382
29232
29232
29232
29382
29382
29382
29253
29253
29253
29339
29339
29339
29339
29318
29318
29318
29275
29275
29275
29382
29382
29382
29146
29146
29146
29382
29382
29382
29382
29339
29339
29339
29167
29167
29167
29382
29382
29382
29296
29296
29296
29318
29318
29318
29318
29296
29296
29296
29253
29253
29253
29404
29404
29404
29232
29232
29232
29382
29382
29382
29382
29361
29361
29361
29275
29275
29275
29339
29339
29339
29253
29253
29253
29339
29339
29339
29339
29361
29361
29361
29296
29296
29296
29339
29339
29339
29232
29232
29232
29361
29361
29361
29361
29382
29382
29382
29210
29210
29210
29425
29425
29425
29232
29232
29232
29361
29361
29361
29361
29275
29275
29275
29253
29253
29253
29361
29361
29361
29275
29275
29275
29339
29339
29339
29339
29361
29361
29361
29253
29253
29253
29382
29382
29382
29253
29253
29253
29318
29318
29318
29318
29296
29296
29296
29210
29210
29210
29318
29318
29318
29232
29232
29232
29339
29339
29339
29339
29339
29339
29339
29253
29253
29253
29318
29318
29318
29210
29210
29210
29339
29339
29339
29339
29339
29339
29339
29318
29318
29318
29361
29361
29361
29253
29253
29253
29339
29339
29339
29339
29318
29318
29318
29318
29318
29318
29275
29275
29275
29296
29296
29296
29361
29361
29361
29361
29339
29339
29339
29253
29253
29253
29361
29361
29361
29275
29275
29275
29382
29382
29382
29382
29339
29339
29339
29361
29361
29361
29296
29296
29296
29253
29253
29253
29361
29361
29361
29361
29339
29339
29339
29232
29232
29232
29361
29361
29361
29232
29232
29232
29296
29296
29296
29296
29339
29339
29339
29275
29275
29275
29318
29318
29318
29253
29253
29253
29361
29361
29361
29361
29339
29339
29339
29253
29253
29253
29361
29361
29361
29253
29253
29253
29382
29382
29382
29382
29382
29382
29382
29296
29296
29296
29404
29404
29404
29253
29253
29253
29361
29361
29361
29361
29361
29361
29361
29210
29210
29210
29361
29361
29361
29318
29318
29318
29361
29361
29361
29361
29339
29339
29339
29232
29232
29232
29447
29447
29447
29296
29296
29296
29382
29382
29382
29382
29296
29296
29296
29275
29275
29275
29339
29339
29339
29296
29296
29296
29318
29318
29318
29318
29232
29232
29232
29296
29296
29296
29404
29404
29404
29167
29167
29167
29361
29361
29361
29361
29425
29425
29425
29189
29189
29189
29275
29275
29275
29253
29253
29253
29382
29382
29382
29382
29318
29318
29318
29275
29275
29275
29468
29468
29468
29210
29210
29210
29275
29275
29275
29275
29361
29361
29361
29189
29189
29189
29339
29339
29339
29232
29232
29232
29425
29425
29425
29425
29361
29361
29361
29189
29189
29189
29382
29382
29382
29253
29253
29253
29361
29361
29361
29361
29361
29361
29361
29210
29210
29210
29361
29361
29361
29253
29253
29253
29339
29339
29339
29339
29296
29296
29296
29232
29232
29232
29404
29404
29404
29103
29103
29103
29361
29361
29361
29361
29361
29361
29361
29081
29081
29081
29318
29318
29318
29253
29253
29253
29404
29404
29404
29404
29339
29339
29339
29253
29253
29253
29361
29361
29361
29382
29382
29382
29361
29361
29361
29361
29339
29339
29339
29167
29167
29167
29382
29382
29382
29232
29232
29232
29318
29318
29318
29318
29339
29339
29339
29232
29232
29232
29361
29361
29361
29232
29232
29232
29361
29361
29361
29361
29382
29382
29382
29232
29232
29232
29382
29382
29382
29210
29210
29210
29296
29296
29296
29296
29382
29382
29382
29210
29210
29210
29296
29296
29296
29275
29275
29275
29382
29382
29382
29382
29382
29382
29382
29189
29189
29189
29490
29490
29490
29253
29253
29253
29339
29339
29339
29339
29361
29361
29361
29296
29296
29296
29404
29404
29404
29167
29167
29167
29425
29425
29425
29425
29296
29296
29296
29253
29253
29253
29382
29382
29382
29189
29189
29189
29339
29339
29339
29339
29425
29425
29425
29318
29318
29318
29361
29361
29361
29210
29210
29210
29339
29339
29339
29339
29296
29296
29296
29275
29275
29275
29318
29318
29318
29253
29253
29253
29339
29339
29339
29339
29361
29361
29361
29232
29232
29232
29361
29361
29361
29232
29232
29232
29318
29318
29318
29318
29339
29339
29339
29253
29253
29253
29339
29339
29339
29253
29253
29253
29296
29296
29296
29296
29361
29361
29361
29296
29296
29296
29296
29296
29296
29232
29232
29232
29339
29339
29339
29339
29318
29318
29318
29275
29275
29275
29318
29318
29318
29339
29339
29339
29339
29339
29339
29339
29318
29318
29318
29318
29318
29318
29361
29361
29361
29253
29253
29253
29339
29339
29339
29339
29339
29339
29339
29253
29253
29253
29296
29296
29296
29296
29296
29296
29339
29339
29339
29339
29318
29318
29318
29189
29189
29189
29361
29361
29361
29253
29253
29253
29382
29382
29382
29382
29296
29296
29296
29296
29296
29296
29339
29339
29339
29296
29296
29296
29361
29361
29361
29361
29382
29382
29382
29296
29296
29296
29339
29339
29339
29275
29275
29275
29318
29318
29318
29318
29339
29339
29339
29275
29275
29275
29382
29382
29382
29210
29210
29210
29060
29060
29060
29060
29382
29382
29382
29232
29232
29232
29318
29318
29318
29232
29232
29232
29361
29361
29361
29361
29318
29318
29318
29275
29275
29275
29361
29361
29361
29296
29296
29296
29318
29318
29318
29318
29339
29339
29339
29189
29189
29189
29361
29361
29361
29275
29275
29275
29339
29339
29339
29339
29361
29361
29361
29296
29296
29296
29339
29339
29339
29275
29275
29275
29318
29318
29318
29318
29275
29275
29275
29275
29275
29275
29339
29339
29339
29253
29253
29253
29361
29361
29361
29361
29361
29361
29361
29275
29275
29275
29361
29361
29361
29189
29189
29189
29318
29318
29318
29318
29339
29339
29339
29232
29232
29232
29318
29318
29318
29318
29318
29318
29361
29361
29361
29361
29318
29318
29318
29253
29253
29253
29339
29339
29339
29189
29189
29189
29361
29361
29361
29361
29339
29339
29339
29253
29253
29253
29296
29296
29296
29253
29253
29253
29361
29361
29361
29361
29361
29361
29361
29189
29189
29189
29382
29382
29382
29253
29253
29253
29404
29404
29404
29404
29318
29318
29318
29210
29210
29210
29382
29382
29382
29189
29189
29189
29382
29382
29382
29382
29468
29468
29468
29275
29275
29275
29382
29382
29382
29275
29275
29275
29468
29468
29468
29468
29361
29361
29361
29232
29232
29232
29382
29382
29382
29124
29124
29124
29382
29382
29382
29382
29382
29382
29382
29189
29189
29189
29339
29339
29339
29275
29275
29275
29275
29275
29275
29275
29361
29361
29361
29232
29232
29232
29382
29382
29382
29167
29167
29167
29339
29339
29339
29339
29361
29361
29361
29275
29275
29275
29318
29318
29318
29232
29232
29232
29339
29339
29339
29339
29318
29318
29318
29275
29275
29275
29361
29361
29361
29232
29232
29232
29382
29382
29382
29382
29339
29339
29339
29382
29382
29382
29361
29361
29361
29189
29189
29189
29318
29318
29318
29318
29339
29339
29339
29253
29253
29253
29318
29318
29318
29232
29232
29232
29382
29382
29382
29382
29339
29339
29339
29382
29382
29382
29361
29361
29361
29275
29275
29275
29361
29361
29361
29361
29382
29382
29382
29253
29253
29253
29361
29361
29361
29210
29210
29210
29447
29447
29447
29447
29296
29296
29296
29232
29232
29232
29339
29339
29339
29275
29275
29275
29339
29339
29339
29339
29318
29318
29318
29210
29210
29210
29382
29382
29382
29167
29167
29167
29318
29318
29318
29318
29232
29232
29232
29253
29253
29253
29404
29404
29404
29189
29189
29189
29361
29361
29361
29361
29361
29361
29361
29275
29275
29275
29382
29382
29382
29232
29232
29232
29447
29447
29447
29447
29318
29318
29318
29232
29232
29232
29404
29404
29404
29189
29189
29189
29361
29361
29361
29361
29318
29318
29318
29275
29275
29275
29339
29339
29339
29210
29210
29210
29339
29339
29339
29339
29318
29318
29318
29275
29275
29275
29318
29318
29318
29253
29253
29253
29339
29339
29339
29339
29296
29296
29296
29275
29275
29275
29339
29339
29339
29253
29253
29253
29339
29339
29339
29339
29318
29318
29318
29318
29318
29318
29404
29404
29404
29253
29253
29253
29382
29382
29382
29382
29339
29339
29339
29232
29232
29232
29339
29339
29339
29232
29232
29232
29361
29361
29361
29361
29339
29339
29339
29232
29232
29232
29318
29318
29318
29210
29210
29210
29361
29361
29361
29361
29361
29361
29361
29232
29232
29232
29382
29382
29382
29189
29189
29189
29296
29296
29296
29296
29339
29339
29339
29253
29253
29253
29361
29361
29361
29232
29232
29232
29339
29339
29339
29339
29361
29361
29361
29253
29253
29253
29361
29361
29361
29232
29232
29232
29404
29404
29404
29404
29339
29339
29339
29167
29167
29167
29361
29361
29361
29275
29275
29275
29425
29425
29425
29425
29318
29318
29318
29275
29275
29275
29382
29382
29382
29210
29210
29210
29468
29468
29468
29468
29404
29404
29404
29296
29296
29296
29361
29361
29361
29210
29210
29210
29404
29404
29404
29404
29275
29275
29275
29232
29232
29232
29296
29296
29296
29210
29210
29210
29382
29382
29382
29382
29339
29339
29339
29275
29275
29275
29275
29275
29275
29275
29275
29275
29382
29382
29382
29382
29361
29361
29361
29232
29232
29232
29361
29361
29361
29318
29318
29318
29318
29318
29318
29318
29404
29404
29404
29253
29253
29253
29339
29339
29339
29167
29167
29167
29361
29361
29361
29361
29361
29361
29361
29189
29189
29189
29339
29339
29339
29232
29232
29232
29382
29382
29382
29382
29339
29339
29339
29232
29232
29232
29382
29382
29382
29296
29296
29296
29361
29361
29361
29361
29318
29318
29318
29232
29232
29232
29361
29361
29361
29296
29296
29296
29361
29361
29361
29361
29318
29318
29318
29275
29275
29275
29361
29361
29361
29296
29296
29296
29318
29318
29318
29318
29361
29361
29361
29318
29318
29318
29361
29361
29361
29339
29339
29339
29339
29339
29339
29339
29318
29318
29318
29232
29232
29232
29339
29339
29339
29167
29167
29167
29361
29361
29361
29361
29404
29404
29404
29189
29189
29189
29361
29361
29361
29253
29253
29253
29339
29339
29339
29339
29318
29318
29318
29275
29275
29275
29296
29296
29296
29253
29253
29253
29318
29318
29318
29318
29339
29339
29339
29275
29275
29275
29318
29318
29318
29296
29296
29296
29361
29361
29361
29361
29361
29361
29361
29210
29210
29210
29447
29447
29447
29232
29232
29232
29404
29404
29404
29404
29361
29361
29361
29167
29167
29167
29339
29339
29339
29210
29210
29210
29339
29339
29339
29339
29318
29318
29318
29275
29275
29275
29296
29296
29296
29232
29232
29232
29318
29318
29318
29318
29382
29382
29382
29232
29232
29232
29425
29425
29425
29232
29232
29232
29361
29361
29361
29361
29339
29339
29339
29275
29275
29275
29361
29361
29361
29210
29210
29210
29296
29296
29296
29296
29318
29318
29318
29296
29296
29296
29318
29318
29318
29275
29275
29275
29361
29361
29361
29361
29232
29232
29232
29189
29189
29189
29318
29318
29318
29253
29253
29253
29232
29232
29232
29232
29296
29296
29296
29275
29275
29275
29382
29382
29382
29232
29232
29232
29382
29382
29382
29382
29361
29361
29361
29253
29253
29253
29318
29318
29318
29296
29296
29296
29296
29296
29296
29296
29318
29318
29318
29253
29253
29253
29382
29382
29382
29275
29275
29275
29382
29382
29382
29382
29253
29253
29253
29275
29275
29275
29361
29361
29361
29232
29232
29232
29447
29447
29447
29447
29296
29296
29296
29296
29296
29296
29296
29296
29296
29296
29296
29296
29339
29339
29339
29339
29382
29382
29382
29296
29296
29296
29275
29275
29275
29275
29275
29275
29404
29404
29404
29404
29318
29318
29318
29275
29275
29275
29361
29361
29361
29382
29382
29382
29339
29339
29339
29339
29339
29339
29339
29253
29253
29253
29382
29382
29382
29275
29275
29275
29382
29382
29382
29382
29339
29339
29339
29253
29253
29253
29318
29318
29318
29318
29318
29318
29361
29361
29361
29361
29361
29361
29361
29339
29339
29339
29361
29361
29361
29232
29232
29232
29361
29361
29361
29361
29361
29361
29361
29275
29275
29275
29339
29339
29339
29232
29232
29232
29339
29339
29339
29339
29318
29318
29318
29275
29275
29275
29382
29382
29382
29275
29275
29275
29296
29296
29296
29296
29382
29382
29382
29189
29189
29189
29275
29275
29275
29253
29253
29253
29339
29339
29339
29339
29339
29339
29339
29318
29318
29318
29382
29382
29382
29210
29210
29210
29318
29318
29318
29318
29318
29318
29318
29275
29275
29275
29382
29382
29382
29232
29232
29232
29275
29275
29275
29275
29318
29318
29318
29275
29275
29275
29318
29318
29318
29253
29253
29253
29339
29339
29339
29339
29296
29296
29296
29275
29275
29275
29382
29382
29382
29275
29275
29275
29404
29404
29404
29404
29275
29275
29275
29275
29275
29275
29468
29468
29468
29232
29232
29232
29382
29382
29382
29382
29318
29318
29318
29339
29339
29339
29339
29339
29339
29275
29275
29275
29339
29339
29339
29339
29318
29318
29318
29189
29189
29189
29382
29382
29382
29275
29275
29275
29318
29318
29318
29318
29318
29318
29318
29189
29189
29189
29382
29382
29382
29232
29232
29232
29275
29275
29275
29275
29361
29361
29361
29296
29296
29296
29382
29382
29382
29253
29253
29253
29361
29361
29361
29361
29382
29382
29382
29253
29253
29253
29382
29382
29382
29275
29275
29275
29361
29361
29361
29361
29361
29361
29361
29253
29253
29253
29339
29339
29339
29253
29253
29253
29361
29361
29361
29361
29361
29361
29361
29232
29232
29232
29339
29339
29339
29232
29232
29232
29339
29339
29339
29339
29339
29339
29339
29232
29232
29232
29404
29404
29404
29167
29167
29167
29339
29339
29339
29339
29339
29339
29339
29275
29275
29275
29361
29361
29361
29232
29232
29232
29339
29339
29339
29339
29404
29404
29404
29296
29296
29296
29339
29339
29339
29339
29339
29339
29339
29339
29339
29339
29361
29361
29361
29275
29275
29275
29339
29339
29339
29275
29275
29275
29361
29361
29361
29361
29253
29253
29253
29296
29296
29296
29382
29382
29382
29296
29296
29296
29361
29361
29361
29361
29339
29339
29339
29210
29210
29210
29382
29382
29382
29210
29210
29210
29339
29339
29339
29339
29339
29339
29339
29210
29210
29210
29318
29318
29318
29296
29296
29296
29361
29361
29361
29361
29339
29339
29339
29253
29253
29253
29425
29425
29425
29275
29275
29275
29339
29339
29339
29339
29425
29425
29425
29275
29275
29275
29339
29339
29339
29189
29189
29189
29339
29339
29339
29339
29296
29296
29296
29232
29232
29232
29253
29253
29253
29275
29275
29275
29296
29296
29296
29296
29361
29361
29361
29275
29275
29275
29382
29382
29382
29253
29253
29253
29339
29339
29339
29339
29339
29339
29339
29210
29210
29210
29339
29339
29339
29189
29189
29189
29339
29339
29339
29339
29318
29318
29318
29232
29232
29232
29339
29339
29339
29275
29275
29275
29361
29361
29361
29361
29361
29361
29361
29232
29232
29232
29339
29339
29339
29275
29275
29275
29382
29382
29382
29382
29361
29361
29361
29167
29167
29167
29339
29339
29339
29210
29210
29210
29382
29382
29382
29382
29361
29361
29361
29296
29296
29296
29318
29318
29318
29253
29253
29253
29425
29425
29425
29425
29382
29382
29382
29232
29232
29232
29339
29339
29339
29296
29296
29296
29339
29339
29339
29339
29339
29339
29339
29275
29275
29275
29361
29361
29361
29210
29210
29210
29318
29318
29318
29318
29339
29339
29339
29124
29124
29124
29404
29404
29404
29253
29253
29253
29339
29339
29339
29339
29318
29318
29318
29232
29232
29232
29382
29382
29382
29167
29167
29167
29361
29361
29361
29361
29339
29339
29339
29339
29339
29339
29318
29318
29318
29232
29232
29232
29404
29404
29404
29404
29361
29361
29361
29253
29253
29253
29339
29339
29339
29275
29275
29275
29404
29404
29404
29404
29361
29361
29361
29275
29275
29275
29382
29382
29382
29382
29382
29382
29318
29318
29318
29318
29339
29339
29339
29253
29253
29253
29339
29339
29339
29232
29232
29232
29404
29404
29404
29404
29533
29533
29533
29296
29296
29296
29232
29232
29232
29275
29275
29275
29361
29361
29361
29361
29318
29318
29318
29232
29232
29232
29382
29382
29382
29275
29275
29275
29318
29318
29318
29318
29404
29404
29404
29275
29275
29275
29404
29404
29404
29296
29296
29296
29318
29318
29318
29318
29339
29339
29339
29189
29189
29189
29361
29361
29361
29339
29339
29339
29296
29296
29296
29296
29361
29361
29361
29253
29253
29253
29339
29339
29339
29253
29253
29253
29318
29318
29318
29318
29318
29318
29318
29296
29296
29296
29382
29382
29382
29253
29253
29253
29361
29361
29361
29361
29296
29296
29296
29253
29253
29253
29210
29210
29210
29253
29253
29253
29339
29339
29339
29339
29210
29210
29210
29210
29210
29210
29361
29361
29361
29232
29232
29232
29318
29318
29318
29318
29275
29275
29275
29253
29253
29253
29404
29404
29404
29232
29232
29232
29382
29382
29382
29382
29318
29318
29318
29253
29253
29253
29275
29275
29275
29232
29232
29232
29361
29361
29361
29361
29361
29361
29361
29253
29253
29253
29361
29361
29361
29275
29275
29275
29318
29318
29318
29318
29275
29275
29275
29318
29318
29318
29361
29361
29361
29253
29253
29253
29361
29361
29361
29361
29361
29361
29361
29296
29296
29296
29339
29339
29339
29296
29296
29296
29318
29318
29318
29318
29382
29382
29382
29167
29167
29167
29339
29339
29339
29253
29253
29253
29339
29339
29339
29339
29361
29361
29361
29253
29253
29253
29296
29296
29296
29318
29318
29318
29361
29361
29361
29361
29318
29318
29318
29232
29232
29232
29404
29404
29404
29296
29296
29296
29296
29296
29296
29296
29361
29361
29361
29253
29253
29253
29361
29361
29361
29253
29253
29253
29404
29404
29404
29404
29339
29339
29339
29296
29296
29296
29382
29382
29382
29275
29275
29275
29361
29361
29361
29361
29318
29318
29318
29253
29253
29253
29339
29339
29339
29318
29318
29318
29318
29318
29318
29318
29339
29339
29339
29232
29232
29232
29339
29339
29339
29232
29232
29232
29361
29361
29361
29361
29318
29318
29318
29210
29210
29210
29382
29382
29382
29210
29210
29210
29189
29189
29189
29189
29318
29318
29318
29339
29339
29339
29425
29425
29425
29210
29210
29210
29361
29361
29361
29361
29361
29361
29361
29253
29253
29253
29361
29361
29361
29253
29253
29253
29404
29404
29404
29404
29361
29361
29361
29232
29232
29232
29382
29382
29382
29232
29232
29232
29318
29318
29318
29318
29318
29318
29318
29232
29232
29232
29318
29318
29318
29210
29210
29210
29339
29339
29339
29339
29318
29318
29318
29296
29296
29296
29318
29318
29318
29275
29275
29275
29361
29361
29361
29361
29339
29339
29339
29253
29253
29253
29339
29339
29339
29253
29253
29253
29318
29318
29318
29318
29361
29361
29361
29210
29210
29210
29339
29339
29339
29296
29296
29296
29361
29361
29361
29361
29275
29275
29275
29253
29253
29253
29382
29382
29382
29189
29189
29189
29361
29361
29361
29361
29404
29404
29404
29296
29296
29296
29296
29296
29296
29232
29232
29232
29361
29361
29361
29361
29425
29425
29425
29253
29253
29253
29361
29361
29361
29275
29275
29275
29296
29296
29296
29296
29339
29339
29339
29232
29232
29232
29296
29296
29296
29253
29253
29253
29339
29339
29339
29339
29382
29382
29382
29275
29275
29275
29339
29339
29339
29275
29275
29275
29382
29382
29382
29382
29361
29361
29361
29232
29232
29232
29404
29404
29404
29253
29253
29253
29361
29361
29361
29361
29361
29361
29361
29275
29275
29275
29361
29361
29361
29232
29232
29232
29404
29404
29404
29404
29318
29318
29318
29253
29253
29253
29210
29210
29210
29296
29296
29296
29339
29339
29339
29339
29339
29339
29339
29275
29275
29275
29361
29361
29361
29210
29210
29210
29404
29404
29404
29404
29361
29361
29361
29275
29275
29275
29382
29382
29382
29533
29533
29533
29361
29361
29361
29361
29318
29318
29318
29167
29167
29167
29339
29339
29339
29275
29275
29275
29339
29339
29339
29339
29318
29318
29318
29275
29275
29275
29404
29404
29404
29167
29167
29167
29296
29296
29296
29296
29296
29296
29296
29210
29210
29210
29318
29318
29318
29275
29275
29275
29339
29339
29339
29339
29318
29318
29318
29232
29232
29232
29361
29361
29361
29232
29232
29232
29339
29339
29339
29339
29382
29382
29382
29146
29146
29146
29382
29382
29382
29275
29275
29275
29296
29296
29296
29296
29361
29361
29361
29275
29275
29275
29318
29318
29318
29275
29275
29275
29382
29382
29382
29382
29339
29339
29339
29210
29210
29210
29382
29382
29382
29275
29275
29275
29382
29382
29382
29382
29339
29339
29339
29318
29318
29318
29361
29361
29361
29318
29318
29318
29382
29382
29382
29382
29361
29361
29361
29318
29318
29318
29339
29339
29339
29296
29296
29296
29318
29318
29318
29318
29361
29361
29361
29232
29232
29232
29339
29339
29339
29232
29232
29232
29253
29253
29253
29253
29339
29339
29339
29275
29275
29275
29339
29339
29339
29296
29296
29296
29382
29382
29382
29382
29361
29361
29361
29275
29275
29275
29404
29404
29404
29232
29232
29232
29468
29468
29468
29468
29361
29361
29361
29189
29189
29189
29382
29382
29382
29232
29232
29232
29361
29361
29361
29361
29318
29318
29318
29210
29210
29210
29296
29296
29296
29275
29275
29275
29318
29318
29318
29318
29296
29296
29296
29253
29253
29253
29404
29404
29404
29189
29189
29189
29339
29339
29339
29339
29382
29382
29382
29253
29253
29253
29361
29361
29361
29210
29210
29210
29490
29490
29490
29490
29318
29318
29318
29210
29210
29210
29404
29404
29404
29275
29275
29275
29404
29404
29404
29404
29425
29425
29425
29210
29210
29210
29361
29361
29361
29275
29275
29275
29318
29318
29318
29318
29318
29318
29318
29253
29253
29253
29296
29296
29296
29275
29275
29275
29339
29339
29339
29339
29361
29361
29361
29232
29232
29232
29382
29382
29382
29275
29275
29275
29339
29339
29339
29339
29361
29361
29361
29253
29253
29253
29361
29361
29361
29189
29189
29189
29382
29382
29382
29382
29339
29339
29339
29189
29189
29189
29318
29318
29318
29296
29296
29296
29275
29275
29275
29275
29339
29339
29339
29253
29253
29253
29447
29447
29447
29124
29124
29124
29382
29382
29382
29382
29339
29339
29339
29232
29232
29232
29361
29361
29361
29275
29275
29275
29361
29361
29361
29361
29339
29339
29339
29210
29210
29210
29339
29339
29339
29189
29189
29189
29339
29339
29339
29339
29318
29318
29318
29296
29296
29296
29425
29425
29425
29253
29253
29253
29318
29318
29318
29318
29318
29318
29318
29210
29210
29210
29425
29425
29425
29189
29189
29189
29339
29339
29339
29339
29339
29339
29339
29275
29275
29275
29361
29361
29361
29253
29253
29253
29382
29382
29382
29382
29339
29339
29339
29232
29232
29232
29318
29318
29318
29296
29296
29296
29339
29339
29339
29339
29361
29361
29361
29253
29253
29253
29318
29318
29318
29189
29189
29189
29339
29339
29339
29339
29318
29318
29318
29275
29275
29275
29404
29404
29404
29339
29339
29339
29318
29318
29318
29318
29275
29275
29275
29296
29296
29296
29318
29318
29318
29275
29275
29275
29296
29296
29296
29296
29339
29339
29339
29318
29318
29318
29382
29382
29382
29124
29124
29124
29361
29361
29361
29361
29318
29318
29318
29339
29339
29339
29361
29361
29361
29232
29232
29232
29361
29361
29361
29361
29382
29382
29382
29275
29275
29275
29361
29361
29361
29189
29189
29189
29361
29361
29361
29361
29339
29339
29339
29253
29253
29253
29339
29339
29339
29275
29275
29275
29339
29339
29339
29339
29296
29296
29296
29296
29296
29296
29361
29361
29361
29232
29232
29232
29404
29404
29404
29404
29404
29404
29404
29425
29425
29425
29296
29296
29296
29253
29253
29253
29318
29318
29318
29318
29361
29361
29361
29253
29253
29253
29318
29318
29318
29167
29167
29167
29318
29318
29318
29318
29339
29339
29339
29232
29232
29232
29382
29382
29382
29210
29210
29210
29361
29361
29361
29361
29232
29232
29232
29275
29275
29275
29382
29382
29382
29275
29275
29275
29361
29361
29361
29361
29339
29339
29339
29189
29189
29189
29447
29447
29447
29275
29275
29275
29361
29361
29361
29361
29339
29339
29339
29275
29275
29275
29361
29361
29361
29253
29253
29253
29318
29318
29318
29318
29318
29318
29318
29296
29296
29296
29296
29296
29296
29253
29253
29253
29339
29339
29339
29339
29296
29296
29296
29232
29232
29232
29447
29447
29447
29253
29253
29253
29318
29318
29318
29318
29361
29361
29361
29275
29275
29275
29253
29253
29253
29189
29189
29189
29361
29361
29361
29361
29425
29425
29425
29275
29275
29275
29361
29361
29361
29210
29210
29210
29361
29361
29361
29361
29361
29361
29361
29339
29339
29339
29253
29253
29253
29275
29275
29275
29318
29318
29318
29318
29361
29361
29361
29275
29275
29275
29382
29382
29382
29210
29210
29210
29361
29361
29361
29361
29318
29318
29318
29275
29275
29275
29425
29425
29425
29210
29210
29210
29361
29361
29361
29361
29339
29339
29339
29275
29275
29275
29339
29339
29339
29232
29232
29232
29253
29253
29253
29253
29339
29339
29339
29232
29232
29232
29404
29404
29404
29318
29318
29318
29382
29382
29382
29382
29447
29447
29447
29275
29275
29275
29339
29339
29339
29232
29232
29232
29404
29404
29404
29404
29296
29296
29296
29210
29210
29210
29382
29382
29382
29232
29232
29232
29361
29361
29361
29361
29296
29296
29296
29253
29253
29253
29361
29361
29361
29275
29275
29275
29318
29318
29318
29318
29296
29296
29296
29232
29232
29232
29468
29468
29468
29167
29167
29167
29361
29361
29361
29361
29318
29318
29318
29296
29296
29296
29339
29339
29339
29275
29275
29275
29382
29382
29382
29382
29339
29339
29339
29232
29232
29232
29382
29382
29382
29296
29296
29296
29339
29339
29339
29339
29296
29296
29296
29275
29275
29275
29361
29361
29361
29275
29275
29275
29253
29253
29253
29253
29339
29339
29339
29296
29296
29296
29339
29339
29339
29232
29232
29232
29361
29361
29361
29361
29361
29361
29361
29210
29210
29210
29404
29404
29404
29253
29253
29253
29361
29361
29361
29361
29339
29339
29339
29253
29253
29253
29361
29361
29361
29318
29318
29318
29382
29382
29382
29382
29339
29339
29339
29167
29167
29167
29361
29361
29361
29296
29296
29296
29339
29339
29339
29339
29361
29361
29361
29275
29275
29275
29361
29361
29361
29296
29296
29296
29318
29318
29318
29318
29318
29318
29318
29318
29318
29318
29339
29339
29339
29189
29189
29189
29425
29425
29425
29425
29339
29339
29339
29189
29189
29189
29339
29339
29339
29275
29275
29275
29339
29339
29339
29339
29404
29404
29404
29146
29146
29146
29382
29382
29382
29253
29253
29253
29318
29318
29318
29318
29318
29318
29318
29210
29210
29210
29361
29361
29361
29275
29275
29275
29382
29382
29382
29382
29318
29318
29318
29253
29253
29253
29382
29382
29382
29210
29210
29210
29382
29382
29382
29382
29361
29361
29361
29232
29232
29232
29382
29382
29382
29339
29339
29339
29318
29318
29318
29318
29275
29275
29275
29318
29318
29318
29361
29361
29361
29253
29253
29253
29361
29361
29361
29361
29318
29318
29318
29253
29253
29253
29339
29339
29339
29275
29275
29275
29361
29361
29361
29361
29318
29318
29318
29275
29275
29275
29361
29361
29361
29232
29232
29232
29339
29339
29339
29339
29318
29318
29318
29232
29232
29232
29382
29382
29382
29232
29232
29232
29361
29361
29361
29361
29361
29361
29361
29210
29210
29210
29361
29361
29361
29232
29232
29232
29232
29232
29232
29232
29318
29318
29318
29232
29232
29232
29382
29382
29382
29318
29318
29318
29318
29318
29318
29318
29296
29296
29296
29232
29232
29232
29361
29361
29361
29232
29232
29232
29404
29404
29404
29404
29296
29296
29296
29275
29275
29275
29318
29318
29318
29167
29167
29167
29339
29339
29339
29339
29318
29318
29318
29189
29189
29189
29339
29339
29339
29275
29275
29275
29339
29339
29339
29339
29318
29318
29318
29275
29275
29275
29361
29361
29361
29232
29232
29232
29296
29296
29296
29296
29339
29339
29339
29189
29189
29189
29318
29318
29318
29275
29275
29275
29339
29339
29339
29339
29318
29318
29318
29189
29189
29189
29425
29425
29425
29253
29253
29253
29361
29361
29361
29361
29318
29318
29318
29275
29275
29275
29382
29382
29382
29253
29253
29253
29404
29404
29404
29404
29382
29382
29382
29232
29232
29232
29318
29318
29318
29232
29232
29232
29382
29382
29382
29382
29361
29361
29361
29189
29189
29189
29339
29339
29339
29253
29253
29253
29339
29339
29339
29339
29361
29361
29361
29318
29318
29318
29382
29382
29382
29253
29253
29253
29339
29339
29339
29339
29296
29296
29296
29146
29146
29146
29318
29318
29318
29232
29232
29232
29339
29339
29339
29339
29253
29253
29253
29275
29275
29275
29361
29361
29361
29296
29296
29296
29339
29339
29339
29339
29361
29361
29361
29296
29296
29296
29404
29404
29404
29189
29189
29189
29339
29339
29339
29339
29318
29318
29318
29253
29253
29253
29318
29318
29318
29253
29253
29253
29361
29361
29361
29361
29296
29296
29296
29318
29318
29318
29361
29361
29361
29232
29232
29232
29361
29361
29361
29361
29361
29361
29361
29275
29275
29275
29318
29318
29318
29253
29253
29253
29318
29318
29318
29318
29339
29339
29339
29296
29296
29296
29318
29318
29318
29253
29253
29253
29339
29339
29339
29339
29339
29339
29339
29253
29253
29253
29339
29339
29339
29253
29253
29253
29425
29425
29425
29425
29318
29318
29318
29232
29232
29232
29339
29339
29339
29296
29296
29296
29318
29318
29318
29318
29361
29361
29361
29167
29167
29167
29318
29318
29318
29232
29232
29232
29361
29361
29361
29361
29339
29339
29339
29210
29210
29210
29253
29253
29253
29232
29232
29232
29339
29339
29339
29339
29339
29339
29339
29189
29189
29189
29318
29318
29318
29253
29253
29253
29361
29361
29361
29361
29296
29296
29296
29210
29210
29210
29361
29361
29361
29253
29253
29253
29361
29361
29361
29361
29339
29339
29339
29296
29296
29296
29361
29361
29361
29275
29275
29275
29296
29296
29296
29296
29339
29339
29339
29253
29253
29253
29361
29361
29361
29232
29232
29232
29275
29275
29275
29275
29318
29318
29318
29232
29232
29232
29382
29382
29382
29318
29318
29318
29361
29361
29361
29361
29339
29339
29339
29253
29253
29253
29361
29361
29361
29210
29210
29210
29361
29361
29361
29361
29339
29339
29339
29210
29210
29210
29361
29361
29361
29253
29253
29253
29339
29339
29339
29339
29339
29339
29339
29296
29296
29296
29296
29296
29296
29275
29275
29275
29318
29318
29318
29318
29318
29318
29318
29253
29253
29253
29275
29275
29275
29296
29296
29296
29361
29361
29361
29361
29339
29339
29339
29232
29232
29232
29339
29339
29339
29146
29146
29146
29318
29318
29318
29318
29339
29339
29339
29189
29189
29189
29361
29361
29361
29253
29253
29253
29339
29339
29339
29339
29339
29339
29339
29232
29232
29232
29339
29339
29339
29232
29232
29232
29382
29382
29382
29382
29361
29361
29361
29232
29232
29232
29382
29382
29382
29232
29232
29232
29361
29361
29361
29361
29275
29275
29275
29232
29232
29232
29339
29339
29339
29189
29189
29189
29339
29339
29339
29339
29339
29339
29339
29232
29232
29232
29275
29275
29275
29275
29275
29275
29339
29339
29339
29339
29361
29361
29361
29275
29275
29275
29361
29361
29361
29382
29382
29382
29425
29425
29425
29425
29318
29318
29318
29253
29253
29253
29339
29339
29339
29253
29253
29253
29533
29533
29533
29533
29318
29318
29318
29210
29210
29210
29339
29339
29339
29275
29275
29275
29425
29425
29425
29425
29339
29339
29339
29361
29361
29361
29296
29296
29296
29275
29275
29275
29318
29318
29318
29318
29339
29339
29339
29232
29232
29232
29318
29318
29318
29210
29210
29210
29296
29296
29296
29296
29361
29361
29361
29296
29296
29296
29339
29339
29339
29275
29275
29275
29361
29361
29361
29361
29404
29404
29404
29275
29275
29275
29339
29339
29339
29253
29253
29253
29318
29318
29318
29318
29361
29361
29361
29275
29275
29275
29404
29404
29404
29167
29167
29167
29361
29361
29361
29361
29382
29382
29382
29210
29210
29210
29382
29382
29382
29296
29296
29296
29361
29361
29361
29361
29339
29339
29339
29275
29275
29275
29339
29339
29339
29318
29318
29318
29339
29339
29339
29339
29404
29404
29404
29210
29210
29210
29361
29361
29361
29253
29253
29253
29361
29361
29361
29361
29339
29339
29339
29275
29275
29275
29318
29318
29318
29318
29318
29318
29339
29339
29339
29339
29339
29339
29339
29210
29210
29210
29361
29361
29361
29253
29253
29253
29339
29339
29339
29339
29361
29361
29361
29210
29210
29210
29382
29382
29382
29318
29318
29318
29296
29296
29296
29296
29318
29318
29318
29275
29275
29275
29382
29382
29382
29296
29296
29296
29318
29318
29318
29318
29318
29318
29318
29275
29275
29275
29296
29296
29296
29361
29361
29361
29404
29404
29404
29404
29361
29361
29361
29275
29275
29275
29361
29361
29361
29275
29275
29275
29296
29296
29296
29296
29318
29318
29318
29253
29253
29253
29318
29318
29318
29167
29167
29167
29339
29339
29339
29339
29296
29296
29296
29296
29296
29296
29296
29296
29296
29210
29210
29210
29339
29339
29339
29339
29339
29339
29339
29232
29232
29232
29318
29318
29318
29253
29253
29253
29318
29318
29318
29318
29361
29361
29361
29275
29275
29275
29361
29361
29361
29253
29253
29253
29318
29318
29318
29318
29318
29318
29318
29232
29232
29232
29382
29382
29382
29167
29167
29167
29296
29296
29296
29296
29339
29339
29339
29318
29318
29318
29339
29339
29339
29253
29253
29253
29361
29361
29361
29361
29339
29339
29339
29253
29253
29253
29361
29361
29361
29275
29275
29275
29253
29253
29253
29253
29339
29339
29339
29167
29167
29167
29361
29361
29361
29253
29253
29253
29361
29361
29361
29361
29382
29382
29382
29232
29232
29232
29339
29339
29339
29275
29275
29275
29318
29318
29318
29318
29339
29339
29339
29210
29210
29210
29404
29404
29404
29296
29296
29296
29382
29382
29382
29382
29382
29382
29382
29232
29232
29232
29404
29404
29404
29232
29232
29232
29447
29447
29447
29447
29296
29296
29296
29189
29189
29189
29404
29404
29404
29275
29275
29275
29339
29339
29339
29339
29275
29275
29275
29275
29275
29275
29339
29339
29339
29361
29361
29361
29339
29339
29339
29339
29318
29318
29318
29275
29275
29275
29382
29382
29382
29275
29275
29275
29361
29361
29361
29361
29296
29296
29296
29275
29275
29275
29339
29339
29339
29253
29253
29253
29404
29404
29404
29404
29339
29339
29339
29210
29210
29210
29361
29361
29361
29253
29253
29253
29318
29318
29318
29318
29275
29275
29275
29232
29232
29232
29361
29361
29361
29232
29232
29232
29275
29275
29275
29275
29339
29339
29339
29232
29232
29232
29296
29296
29296
29253
29253
29253
29382
29382
29382
29382
29404
29404
29404
29232
29232
29232
29339
29339
29339
29232
29232
29232
29318
29318
29318
29318
29339
29339
29339
29253
29253
29253
29361
29361
29361
29253
29253
29253
29361
29361
29361
29361
29318
29318
29318
29232
29232
29232
29318
29318
29318
29232
29232
29232
29361
29361
29361
29361
29361
29361
29361
29296
29296
29296
29253
29253
29253
29275
29275
29275
29361
29361
29361
29361
29318
29318
29318
29275
29275
29275
29361
29361
29361
29253
29253
29253
29382
29382
29382
29382
29361
29361
29361
29253
29253
29253
29339
29339
29339
29253
29253
29253
29339
29339
29339
29339
29361
29361
29361
29232
29232
29232
29318
29318
29318
29275
29275
29275
29339
29339
29339
29339
29361
29361
29361
29253
29253
29253
29253
29253
29253
29296
29296
29296
29339
29339
29339
29339
29339
29339
29339
29275
29275
29275
29361
29361
29361
29210
29210
29210
29361
29361
29361
29361
29296
29296
29296
29296
29296
29296
29339
29339
29339
29210
29210
29210
29339
29339
29339
29339
29361
29361
29361
29189
29189
29189
29425
29425
29425
29253
29253
29253
29382
29382
29382
29382
29339
29339
29339
29253
29253
29253
29339
29339
29339
29189
29189
29189
29404
29404
29404
29404
29382
29382
29382
29232
29232
29232
29361
29361
29361
29253
29253
29253
29490
29490
29490
29490
29339
29339
29339
29232
29232
29232
29382
29382
29382
29210
29210
29210
29339
29339
29339
29339
29339
29339
29339
29210
29210
29210
29318
29318
29318
29275
29275
29275
29318
29318
29318
29318
29318
29318
29318
29232
29232
29232
29318
29318
29318
29275
29275
29275
29361
29361
29361
29361
29404
29404
29404
29124
29124
29124
29339
29339
29339
29253
29253
29253
29318
29318
29318
29318
29296
29296
29296
29275
29275
29275
29361
29361
29361
29167
29167
29167
29361
29361
29361
29361
29404
29404
29404
29189
29189
29189
29382
29382
29382
29253
29253
29253
29361
29361
29361
29361
29318
29318
29318
29232
29232
29232
29339
29339
29339
29253
29253
29253
29318
29318
29318
29318
29339
29339
29339
29253
29253
29253
29382
29382
29382
29253
29253
29253
29361
29361
29361
29361
29361
29361
29361
29253
29253
29253
29447
29447
29447
29210
29210
29210
29339
29339
29339
29339
29361
29361
29361
29253
29253
29253
29361
29361
29361
29253
29253
29253
29404
29404
29404
29404
29275
29275
29275
29232
29232
29232
29382
29382
29382
29189
29189
29189
29361
29361
29361
29361
29296
29296
29296
29232
29232
29232
29361
29361
29361
29232
29232
29232
29361
29361
29361
29361
29318
29318
29318
29253
29253
29253
29339
29339
29339
29253
29253
29253
29339
29339
29339
29339
29361
29361
29361
29296
29296
29296
29382
29382
29382
29253
29253
29253
29361
29361
29361
29361
29382
29382
29382
29232
29232
29232
29339
29339
29339
29210
29210
29210
29339
29339
29339
29339
29275
29275
29275
29232
29232
29232
29361
29361
29361
29253
29253
29253
29382
29382
29382
29382
29382
29382
29382
29275
29275
29275
29361
29361
29361
29232
29232
29232
29447
29447
29447
29447
29318
29318
29318
29210
29210
29210
29404
29404
29404
29232
29232
29232
29318
29318
29318
29318
29382
29382
29382
29296
29296
29296
29339
29339
29339
29232
29232
29232
29382
29382
29382
29382
29361
29361
29361
29296
29296
29296
29275
29275
29275
29232
29232
29232
29382
29382
29382
29382
29361
29361
29361
29232
29232
29232
29361
29361
29361
29253
29253
29253
29339
29339
29339
29339
29339
29339
29339
29275
29275
29275
29296
29296
29296
29253
29253
29253
29339
29339
29339
29339
29318
29318
29318
29296
29296
29296
29361
29361
29361
29232
29232
29232
29275
29275
29275
29275
29275
29275
29275
29318
29318
29318
29275
29275
29275
29232
29232
29232
29361
29361
29361
29361
29382
29382
29382
29275
29275
29275
29404
29404
29404
29253
29253
29253
29382
29382
29382
29382
29361
29361
29361
29296
29296
29296
29318
29318
29318
29189
29189
29189
29382
29382
29382
29382
29382
29382
29382
29232
29232
29232
29339
29339
29339
29210
29210
29210
29339
29339
29339
29339
29318
29318
29318
29275
29275
29275
29361
29361
29361
29339
29339
29339
29361
29361
29361
29361
29339
29339
29339
29232
29232
29232
29404
29404
29404
29232
29232
29232
29382
29382
29382
29382
29318
29318
29318
29253
29253
29253
29339
29339
29339
29318
29318
29318
29361
29361
29361
29361
29318
29318
29318
29318
29318
29318
29318
29318
29318
29275
29275
29275
29382
29382
29382
29382
29339
29339
29339
29253
29253
29253
29361
29361
29361
29253
29253
29253
29404
29404
29404
29404
29339
29339
29339
29232
29232
29232
29361
29361
29361
29253
29253
29253
29382
29382
29382
29382
29339
29339
29339
29275
29275
29275
29382
29382
29382
29232
29232
29232
29404
29404
29404
29404
29318
29318
29318
29232
29232
29232
29361
29361
29361
29275
29275
29275
29296
29296
29296
29296
29361
29361
29361
29232
29232
29232
29339
29339
29339
29232
29232
29232
29361
29361
29361
29361
29339
29339
29339
29339
29339
29339
29296
29296
29296
29253
29253
29253
29361
29361
29361
29361
29232
29232
29232
29318
29318
29318
29318
29318
29318
29339
29339
29339
29253
29253
29253
29253
29296
29296
29296
29339
29339
29339
29275
29275
29275
29296
29296
29296
29404
29404
29404
29404
29253
29253
29253
29232
29232
29232
29361
29361
29361
29232
29232
29232
29468
29468
29468
29468
29296
29296
29296
29232
29232
29232
29361
29361
29361
29232
29232
29232
29339
29339
29339
29339
29361
29361
29361
29253
29253
29253
29339
29339
29339
29296
29296
29296
29318
29318
29318
29318
29339
29339
29339
29232
29232
29232
29447
29447
29447
29318
29318
29318
29361
29361
29361
29361
29253
29253
29253
29296
29296
29296
29361
29361
29361
29275
29275
29275
29318
29318
29318
29318
29339
29339
29339
29275
29275
29275
29361
29361
29361
29210
29210
29210
29339
29339
29339
29339
29404
29404
29404
29210
29210
29210
29361
29361
29361
29210
29210
29210
29404
29404
29404
29404
29339
29339
29339
29232
29232
29232
29404
29404
29404
29253
29253
29253
29318
29318
29318
29318
29275
29275
29275
29533
29533
29533
29339
29339
29339
29232
29232
29232
29296
29296
29296
29296
29339
29339
29339
29275
29275
29275
29296
29296
29296
29232
29232
29232
29339
29339
29339
29339
29404
29404
29404
29232
29232
29232
29382
29382
29382
29253
29253
29253
29318
29318
29318
29318
29404
29404
29404
29232
29232
29232
29361
29361
29361
29232
29232
29232
29339
29339
29339
29339
29404
29404
29404
29189
29189
29189
29339
29339
29339
29339
29339
29339
29318
29318
29318
29318
29275
29275
29275
29232
29232
29232
29296
29296
29296
29210
29210
29210
29296
29296
29296
29296
29253
29253
29253
29253
29253
29253
29361
29361
29361
29189
29189
29189
29361
29361
29361
29361
29404
29404
29404
29232
29232
29232
29361
29361
29361
29275
29275
29275
29339
29339
29339
29339
29339
29339
29339
29253
29253
29253
29361
29361
29361
29232
29232
29232
29318
29318
29318
29318
29339
29339
29339
29253
29253
29253
29339
29339
29339
29275
29275
29275
29382
29382
29382
29382
29339
29339
29339
29361
29361
29361
29361
29361
29361
29253
29253
29253
29318
29318
29318
29318
29361
29361
29361
29210
29210
29210
29318
29318
29318
29318
29318
29318
29339
29339
29339
29339
29382
29382
29382
29232
29232
29232
29339
29339
29339
29210
29210
29210
29339
29339
29339
29339
29339
29339
29339
29296
29296
29296
29361
29361
29361
29275
29275
29275
29318
29318
29318
29318
29339
29339
29339
29103
29103
29103
29339
29339
29339
29253
29253
29253
29318
29318
29318
29318
29339
29339
29339
29275
29275
29275
29339
29339
29339
29189
29189
29189
29339
29339
29339
29339
29296
29296
29296
29232
29232
29232
29404
29404
29404
29167
29167
29167
29361
29361
29361
29361
29275
29275
29275
29253
29253
29253
29361
29361
29361
29318
29318
29318
29339
29339
29339
29339
29361
29361
29361
29210
29210
29210
29425
29425
29425
29167
29167
29167
29361
29361
29361
29361
29318
29318
29318
29232
29232
29232
29404
29404
29404
29253
29253
29253
29253
29253
29253
29253
29318
29318
29318
29253
29253
29253
29339
29339
29339
29275
29275
29275
29318
29318
29318
29318
29339
29339
29339
29232
29232
29232
29361
29361
29361
29232
29232
29232
29210
29210
29210
29210
29318
29318
29318
29253
29253
29253
29253
29253
29253
29232
29232
29232
29339
29339
29339
29339
29318
29318
29318
29232
29232
29232
29339
29339
29339
29189
29189
29189
29382
29382
29382
29382
29339
29339
29339
29296
29296
29296
29382
29382
29382
29189
29189
29189
29339
29339
29339
29339
29361
29361
29361
29275
29275
29275
29318
29318
29318
29232
29232
29232
29318
29318
29318
29318
29296
29296
29296
29253
29253
29253
29296
29296
29296
29103
29103
29103
29382
29382
29382
29382
29404
29404
29404
29404
29404
29404
29339
29339
29339
29253
29253
29253
29361
29361
29361
29361
29339
29339
29339
29253
29253
29253
29296
29296
29296
29275
29275
29275
29382
29382
29382
29382
29339
29339
29339
29296
29296
29296
29361
29361
29361
29232
29232
29232
29361
29361
29361
29361
29361
29361
29361
29275
29275
29275
29361
29361
29361
29253
29253
29253
29361
29361
29361
29361
29318
29318
29318
29318
29318
29318
29361
29361
29361
29232
29232
29232
29339
29339
29339
29339
29318
29318
29318
29253
29253
29253
29361
29361
29361
29275
29275
29275
29339
29339
29339
29339
29339
29339
29339
29232
29232
29232
29296
29296
29296
29275
29275
29275
29296
29296
29296
29296
29318
29318
29318
29232
29232
29232
29339
29339
29339
29275
29275
29275
29318
29318
29318
29318
29339
29339
29339
29361
29361
29361
29339
29339
29339
29253
29253
29253
29382
29382
29382
29382
29382
29382
29382
29296
29296
29296
29404
29404
29404
29210
29210
29210
29447
29447
29447
29447
29339
29339
29339
29253
29253
29253
29382
29382
29382
29253
29253
29253
29382
29382
29382
29382
29361
29361
29361
29253
29253
29253
29296
29296
29296
29275
29275
29275
29382
29382
29382
29382
29318
29318
29318
29210
29210
29210
29339
29339
29339
29296
29296
29296
29382
29382
29382
29382
29339
29339
29339
29275
29275
29275
29339
29339
29339
29253
29253
29253
29361
29361
29361
29361
29382
29382
29382
29253
29253
29253
29339
29339
29339
29253
29253
29253
29318
29318
29318
29318
29318
29318
29318
29296
29296
29296
29361
29361
29361
29210
29210
29210
29382
29382
29382
29382
29404
29404
29404
29253
29253
29253
29318
29318
29318
29275
29275
29275
29318
29318
29318
29318
29318
29318
29318
29253
29253
29253
29232
29232
29232
29232
29232
29232
29318
29318
29318
29318
29361
29361
29361
29232
29232
29232
29361
29361
29361
29318
29318
29318
29339
29339
29339
29339
29382
29382
29382
29210
29210
29210
29425
29425
29425
29232
29232
29232
29339
29339
29339
29339
29404
29404
29404
29275
29275
29275
29382
29382
29382
29296
29296
29296
29447
29447
29447
29447
29339
29339
29339
29275
29275
29275
29404
29404
29404
29232
29232
29232
29361
29361
29361
29361
29253
29253
29253
29275
29275
29275
29382
29382
29382
29361
29361
29361
29339
29339
29339
29339
29318
29318
29318
29189
29189
29189
29382
29382
29382
29296
29296
29296
29382
29382
29382
29382
29382
29382
29382
29275
29275
29275
29447
29447
29447
29232
29232
29232
29296
29296
29296
29296
29339
29339
29339
29253
29253
29253
29339
29339
29339
29318
29318
29318
29361
29361
29361
29361
29339
29339
29339
29167
29167
29167
29339
29339
29339
29210
29210
29210
29382
29382
29382
29382
29318
29318
29318
29253
29253
29253
29361
29361
29361
29167
29167
29167
29382
29382
29382
29382
29361
29361
29361
29318
29318
29318
29361
29361
29361
29275
29275
29275
29361
29361
29361
29361
29361
29361
29361
29275
29275
29275
29382
29382
29382
29232
29232
29232
29382
29382
29382
29382
29361
29361
29361
29232
29232
29232
29404
29404
29404
29253
29253
29253
29361
29361
29361
29361
29361
29361
29361
29232
29232
29232
29318
29318
29318
29232
29232
29232
29296
29296
29296
29296
29339
29339
29339
29210
29210
29210
29189
29189
29189
29253
29253
29253
29361
29361
29361
29361
29189
29189
29189
29210
29210
29210
29361
29361
29361
29189
29189
29189
29361
29361
29361
29361
29339
29339
29339
29232
29232
29232
29404
29404
29404
29232
29232
29232
29339
29339
29339
29339
29339
29339
29339
29232
29232
29232
29339
29339
29339
29210
29210
29210
29404
29404
29404
29404
29339
29339
29339
29253
29253
29253
29361
29361
29361
29167
29167
29167
29339
29339
29339
29339
29339
29339
29339
29275
29275
29275
29382
29382
29382
29253
29253
29253
29318
29318
29318
29318
29318
29318
29318
29296
29296
29296
29318
29318
29318
29210
29210
29210
29382
29382
29382
29382
29296
29296
29296
29275
29275
29275
29404
29404
29404
29232
29232
29232
29361
29361
29361
29361
29296
29296
29296
29232
29232
29232
29404
29404
29404
29232
29232
29232
29361
29361
29361
29361
29296
29296
29296
29060
29060
29060
29425
29425
29425
29189
29189
29189
29339
29339
29339
29339
29361
29361
29361
29296
29296
29296
29382
29382
29382
29232
29232
29232
29275
29275
29275
29275
29361
29361
29361
29275
29275
29275
29339
29339
29339
29189
29189
29189
29339
29339
29339
29339
29361
29361
29361
29275
29275
29275
29404
29404
29404
29232
29232
29232
29382
29382
29382
29382
29318
29318
29318
29232
29232
29232
29404
29404
29404
29296
29296
29296
29361
29361
29361
29361
29339
29339
29339
29253
29253
29253
29361
29361
29361
29253
29253
29253
29318
29318
29318
29318
29318
29318
29318
29210
29210
29210
29275
29275
29275
29232
29232
29232
29382
29382
29382
29382
29404
29404
29404
29275
29275
29275
29318
29318
29318
29275
29275
29275
29339
29339
29339
29339
29318
29318
29318
29296
29296
29296
29361
29361
29361
29232
29232
29232
29361
29361
29361
29361
29404
29404
29404
29253
29253
29253
29361
29361
29361
29253
29253
29253
29339
29339
29339
29339
29318
29318
29318
29081
29081
29081
29318
29318
29318
29253
29253
29253
29339
29339
29339
29339
29361
29361
29361
29232
29232
29232
29361
29361
29361
29232
29232
