31901
31901
31901
31901
31901
31901
31814
31814
31814
31923
31923
31923
31814
31814
31814
31879
31879
31879
31879
31814
31814
31814
31792
31792
31792
31879
31879
31879
31814
31814
31814
31857
31857
31857
31857
31857
31857
31857
31814
31814
31814
31901
31901
31901
31770
31770
31770
31901
31901
31901
31901
31879
31879
31879
31770
31770
31770
31923
31923
31923
31814
31814
31814
31857
31857
31857
31857
31988
31988
31988
31814
31814
31814
31879
31879
31879
31770
31770
31770
31879
31879
31879
31879
31901
31901
31901
31792
31792
31792
32010
32010
32010
31770
31770
31770
31988
31988
31988
31988
31901
31901
31901
31792
31792
31792
31901
31901
31901
31748
31748
31748
31901
31901
31901
31901
31944
31944
31944
31814
31814
31814
31879
31879
31879
31814
31814
31814
31857
31857
31857
31857
31857
31857
31857
31792
31792
31792
31901
31901
31901
31835
31835
31835
31879
31879
31879
31879
31879
31879
31879
31814
31814
31814
31879
31879
31879
31792
31792
31792
31923
31923
31923
31923
31857
31857
31857
31792
31792
31792
31923
31923
31923
31770
31770
31770
31923
31923
31923
31923
31879
31879
31879
31792
31792
31792
31901
31901
31901
31814
31814
31814
31901
31901
31901
31901
31835
31835
31835
31770
31770
31770
31923
31923
31923
31748
31748
31748
31835
31835
31835
31835
31944
31944
31944
31792
31792
31792
31835
31835
31835
31792
31792
31792
31879
31879
31879
31879
31901
31901
31901
31770
31770
31770
31901
31901
31901
31835
31835
31835
31923
31923
31923
31923
31835
31835
31835
31835
31835
31835
31857
31857
31857
31792
31792
31792
31879
31879
31879
31879
31879
31879
31879
31814
31814
31814
31879
31879
31879
31792
31792
31792
31901
31901
31901
31901
31857
31857
31857
31770
31770
31770
31923
31923
31923
31814
31814
31814
31857
31857
31857
31857
31901
31901
31901
31770
31770
31770
31901
31901
31901
31814
31814
31814
31944
31944
31944
31944
31923
31923
31923
31792
31792
31792
31901
31901
31901
31770
31770
31770
31966
31966
31966
31966
31923
31923
31923
31792
31792
31792
31879
31879
31879
31988
31988
31988
31923
31923
31923
31923
31879
31879
31879
31792
31792
31792
31923
31923
31923
31814
31814
31814
31901
31901
31901
31901
31857
31857
31857
31814
31814
31814
31901
31901
31901
31814
31814
31814
31901
31901
31901
31901
31966
31966
31966
31814
31814
31814
31879
31879
31879
31748
31748
31748
31879
31879
31879
31879
31901
31901
31901
31835
31835
31835
31857
31857
31857
31792
31792
31792
31879
31879
31879
31879
31857
31857
31857
31857
31857
31857
31879
31879
31879
31770
31770
31770
31923
31923
31923
31923
31770
31770
31770
31857
31857
31857
31857
31857
31857
31748
31748
31748
31901
31901
31901
31901
31944
31944
31944
31814
31814
31814
31966
31966
31966
31792
31792
31792
31835
31835
31835
31835
31879
31879
31879
31748
31748
31748
31857
31857
31857
31748
31748
31748
31944
31944
31944
31944
31857
31857
31857
31748
31748
31748
31901
31901
31901
31748
31748
31748
31923
31923
31923
31923
31857
31857
31857
31748
31748
31748
31988
31988
31988
31748
31748
31748
31944
31944
31944
31944
31879
31879
31879
31835
31835
31835
31901
31901
31901
31726
31726
31726
31901
31901
31901
31901
31901
31901
31901
31726
31726
31726
31901
31901
31901
31770
31770
31770
31923
31923
31923
31923
31879
31879
31879
31814
31814
31814
31923
31923
31923
31835
31835
31835
31814
31814
31814
31814
31879
31879
31879
31792
31792
31792
31923
31923
31923
31705
31705
31705
31923
31923
31923
31923
31879
31879
31879
31814
31814
31814
31966
31966
31966
31814
31814
31814
31857
31857
31857
31857
31879
31879
31879
31814
31814
31814
31879
31879
31879
31857
31857
31857
31857
31857
31857
31857
31814
31814
31814
31814
31814
31814
31857
31857
31857
31835
31835
31835
31879
31879
31879
31879
31901
31901
31901
31770
31770
31770
31944
31944
31944
31792
31792
31792
31835
31835
31835
31835
31857
31857
31857
31770
31770
31770
31879
31879
31879
31792
31792
31792
31944
31944
31944
31944
31726
31726
31726
31792
31792
31792
31923
31923
31923
31770
31770
31770
31857
31857
31857
31857
31879
31879
31879
31814
31814
31814
31901
31901
31901
31792
31792
31792
31923
31923
31923
31923
31814
31814
31814
31726
31726
31726
31901
31901
31901
31792
31792
31792
31901
31901
31901
31901
31901
31901
31901
31770
31770
31770
31879
31879
31879
31770
31770
31770
31923
31923
31923
31923
31879
31879
31879
31835
31835
31835
31966
31966
31966
31814
31814
31814
31857
31857
31857
31857
31923
31923
31923
31792
31792
31792
31923
31923
31923
31726
31726
31726
31901
31901
31901
31901
31879
31879
31879
31792
31792
31792
31923
31923
31923
31726
31726
31726
31879
31879
31879
31879
31901
31901
31901
31792
31792
31792
31901
31901
31901
31748
31748
31748
31857
31857
31857
31857
31901
31901
31901
31814
31814
31814
31901
31901
31901
32053
32053
32053
31901
31901
31901
31901
31901
31901
31901
31748
31748
31748
31857
31857
31857
31792
31792
31792
31901
31901
31901
31901
31857
31857
31857
31857
31857
31857
31923
31923
31923
31835
31835
31835
31923
31923
31923
31923
31857
31857
31857
31814
31814
31814
31901
31901
31901
31770
31770
31770
31901
31901
31901
31901
31857
31857
31857
31792
31792
31792
31857
31857
31857
31770
31770
31770
31901
31901
31901
31901
31901
31901
31901
31792
31792
31792
31879
31879
31879
31792
31792
31792
31901
31901
31901
31901
31901
31901
31901
31770
31770
31770
31901
31901
31901
31792
31792
31792
31879
31879
31879
31879
31944
31944
31944
31770
31770
31770
31835
31835
31835
31770
31770
31770
31857
31857
31857
31857
31879
31879
31879
31792
31792
31792
31879
31879
31879
31857
31857
31857
31879
31879
31879
31879
31901
31901
31901
31770
31770
31770
31966
31966
31966
31770
31770
31770
31835
31835
31835
31835
31879
31879
31879
31705
31705
31705
31901
31901
31901
31835
31835
31835
31879
31879
31879
31879
31879
31879
31879
31814
31814
31814
31901
31901
31901
31770
31770
31770
31857
31857
31857
31857
31857
31857
31857
31814
31814
31814
31857
31857
31857
31814
31814
31814
31944
31944
31944
31944
31879
31879
31879
31705
31705
31705
31923
31923
31923
31748
31748
31748
31901
31901
31901
31901
31901
31901
31901
31814
31814
31814
31879
31879
31879
31748
31748
31748
31879
31879
31879
31879
31857
31857
31857
31814
31814
31814
31966
31966
31966
31814
31814
31814
31923
31923
31923
31923
31835
31835
31835
31901
31901
31901
31901
31901
31901
31748
31748
31748
31857
31857
31857
31857
31923
31923
31923
31770
31770
31770
31901
31901
31901
31792
31792
31792
31857
31857
31857
31857
31901
31901
31901
31814
31814
31814
31879
31879
31879
31770
31770
31770
31901
31901
31901
31901
31879
31879
31879
31857
31857
31857
31901
31901
31901
31770
31770
31770
31923
31923
31923
31923
31879
31879
31879
31770
31770
31770
31879
31879
31879
31748
31748
31748
31944
31944
31944
31944
31901
31901
31901
31835
31835
31835
31944
31944
31944
31792
31792
31792
31879
31879
31879
31879
31857
31857
31857
31835
31835
31835
31901
31901
31901
31857
31857
31857
31944
31944
31944
31944
31879
31879
31879
31835
31835
31835
31901
31901
31901
31792
31792
31792
31901
31901
31901
31901
31857
31857
31857
31835
31835
31835
31879
31879
31879
31792
31792
31792
31923
31923
31923
31923
31901
31901
31901
31879
31879
31879
31901
31901
31901
31748
31748
31748
31901
31901
31901
31901
31901
31901
31901
31835
31835
31835
31901
31901
31901
31770
31770
31770
31901
31901
31901
31901
31857
31857
31857
31814
31814
31814
31901
31901
31901
31792
31792
31792
31857
31857
31857
31857
31857
31857
31857
31792
31792
31792
31901
31901
31901
31792
31792
31792
31879
31879
31879
31879
31879
31879
31879
31835
31835
31835
31814
31814
31814
31792
31792
31792
31879
31879
31879
31879
31857
31857
31857
31814
31814
31814
31901
31901
31901
31792
31792
31792
31901
31901
31901
31901
31814
31814
31814
31792
31792
31792
31879
31879
31879
31792
31792
31792
31901
31901
31901
31901
31792
31792
31792
31770
31770
31770
32010
32010
32010
31835
31835
31835
31901
31901
31901
31901
31901
31901
31901
31814
31814
31814
31944
31944
31944
31901
31901
31901
31901
31901
31901
31901
31944
31944
31944
31726
31726
31726
31835
31835
31835
31748
31748
31748
31879
31879
31879
31879
31901
31901
31901
31792
31792
31792
31879
31879
31879
31814
31814
31814
31901
31901
31901
31901
31879
31879
31879
31835
31835
31835
31879
31879
31879
31923
31923
31923
31857
31857
31857
31857
31857
31857
31857
31835
31835
31835
31901
31901
31901
31770
31770
31770
31901
31901
31901
31901
31901
31901
31901
31770
31770
31770
31901
31901
31901
31814
31814
31814
31988
31988
31988
31988
31944
31944
31944
31792
31792
31792
31879
31879
31879
31814
31814
31814
31923
31923
31923
31923
31879
31879
31879
31770
31770
31770
31923
31923
31923
31792
31792
31792
31944
31944
31944
31944
31923
31923
31923
31879
31879
31879
31879
31879
31879
31770
31770
31770
31901
31901
31901
31901
31814
31814
31814
31857
31857
31857
31879
31879
31879
31770
31770
31770
31879
31879
31879
31879
31879
31879
31879
31814
31814
31814
31835
31835
31835
31770
31770
31770
31857
31857
31857
31857
31923
31923
31923
31726
31726
31726
31901
31901
31901
31770
31770
31770
31835
31835
31835
31835
31944
31944
31944
31814
31814
31814
31835
31835
31835
31792
31792
31792
31901
31901
31901
31901
31879
31879
31879
31748
31748
31748
31879
31879
31879
31814
31814
31814
31944
31944
31944
31944
31879
31879
31879
31770
31770
31770
31879
31879
31879
31770
31770
31770
31879
31879
31879
31879
31857
31857
31857
31835
31835
31835
31879
31879
31879
31792
31792
31792
31901
31901
31901
31901
31857
31857
31857
31857
31857
31857
31857
31857
31857
31814
31814
31814
31901
31901
31901
31901
31923
31923
31923
31835
31835
31835
31879
31879
31879
31814
31814
31814
31901
31901
31901
31901
31901
31901
31901
31792
31792
31792
31792
31792
31792
31770
31770
31770
31923
31923
31923
31923
31857
31857
31857
31770
31770
31770
31901
31901
31901
31770
31770
31770
31857
31857
31857
31857
31879
31879
31879
31770
31770
31770
31879
31879
31879
31770
31770
31770
31879
31879
31879
31879
31944
31944
31944
31879
31879
31879
31879
31879
31879
31792
31792
31792
31944
31944
31944
31944
31901
31901
31901
31814
31814
31814
31923
31923
31923
31814
31814
31814
31901
31901
31901
31901
31835
31835
31835
31792
31792
31792
31901
31901
31901
31835
31835
31835
31857
31857
31857
31857
31901
31901
31901
31770
31770
31770
31944
31944
31944
31792
31792
31792
31857
31857
31857
31857
31879
31879
31879
31814
31814
31814
31966
31966
31966
31814
31814
31814
31835
31835
31835
31835
31923
31923
31923
31726
31726
31726
31923
31923
31923
31726
31726
31726
31988
31988
31988
31988
31901
31901
31901
31748
31748
31748
31857
31857
31857
31792
31792
31792
31857
31857
31857
31857
31966
31966
31966
31814
31814
31814
31857
31857
31857
31814
31814
31814
31901
31901
31901
31901
31814
31814
31814
32032
32032
32032
31857
31857
31857
31726
31726
31726
31923
31923
31923
31923
31901
31901
31901
31879
31879
31879
31923
31923
31923
31814
31814
31814
31857
31857
31857
31857
31814
31814
31814
31792
31792
31792
31835
31835
31835
31835
31835
31835
31901
31901
31901
31901
31901
31901
31901
31814
31814
31814
31857
31857
31857
31835
31835
31835
31901
31901
31901
31901
31966
31966
31966
31770
31770
31770
31879
31879
31879
31879
31879
31879
31879
31879
31879
31879
31879
31879
31879
31792
31792
31792
31901
31901
31901
31770
31770
31770
31923
31923
31923
31923
31857
31857
31857
31835
31835
31835
31901
31901
31901
31770
31770
31770
31944
31944
31944
31944
31857
31857
31857
31814
31814
31814
31923
31923
31923
31814
31814
31814
31901
31901
31901
31901
31857
31857
31857
31792
31792
31792
31879
31879
31879
31792
31792
31792
31901
31901
31901
31901
31879
31879
31879
31792
31792
31792
31879
31879
31879
31792
31792
31792
31879
31879
31879
31879
31857
31857
31857
31814
31814
31814
31901
31901
31901
31814
31814
31814
31901
31901
31901
31901
31879
31879
31879
31770
31770
31770
31901
31901
31901
31814
31814
31814
31835
31835
31835
31835
31901
31901
31901
31792
31792
31792
31944
31944
31944
31748
31748
31748
31923
31923
31923
31923
31923
31923
31923
31814
31814
31814
31835
31835
31835
31814
31814
31814
31901
31901
31901
31901
31879
31879
31879
31814
31814
31814
31879
31879
31879
31792
31792
31792
31944
31944
31944
31944
32010
32010
32010
31835
31835
31835
31879
31879
31879
31748
31748
31748
31901
31901
31901
31901
31879
31879
31879
31814
31814
31814
31857
31857
31857
31770
31770
31770
31879
31879
31879
31879
31923
31923
31923
31770
31770
31770
31879
31879
31879
31792
31792
31792
31923
31923
31923
31923
31792
31792
31792
31835
31835
31835
31901
31901
31901
31748
31748
31748
31923
31923
31923
31923
31857
31857
31857
31792
31792
31792
31944
31944
31944
31770
31770
31770
31857
31857
31857
31857
31879
31879
31879
31835
31835
31835
31857
31857
31857
31726
31726
31726
31901
31901
31901
31901
31923
31923
31923
31792
31792
31792
31901
31901
31901
31792
31792
31792
31944
31944
31944
31944
31857
31857
31857
31923
31923
31923
31901
31901
31901
31770
31770
31770
31988
31988
31988
31988
31857
31857
31857
31814
31814
31814
31857
31857
31857
31814
31814
31814
31857
31857
31857
31857
31923
31923
31923
31792
31792
31792
31988
31988
31988
31814
31814
31814
31923
31923
31923
31923
31835
31835
31835
31639
31639
31639
31879
31879
31879
31814
31814
31814
31792
31792
31792
31792
32032
32032
32032
31792
31792
31792
31923
31923
31923
31901
31901
31901
31901
31901
31901
31901
31901
31901
31901
31814
31814
31814
31835
31835
31835
31748
31748
31748
31901
31901
31901
31901
31879
31879
31879
31770
31770
31770
31923
31923
31923
31814
31814
31814
31901
31901
31901
31901
31901
31901
31901
31814
31814
31814
31923
31923
31923
31814
31814
31814
31901
31901
31901
31901
31901
31901
31901
31814
31814
31814
31857
31857
31857
31770
31770
31770
31835
31835
31835
31835
31879
31879
31879
31792
31792
31792
31857
31857
31857
31748
31748
31748
31901
31901
31901
31901
31879
31879
31879
31814
31814
31814
31901
31901
31901
31814
31814
31814
31923
31923
31923
31923
31901
31901
31901
31748
31748
31748
31879
31879
31879
31814
31814
31814
31923
31923
31923
31923
31966
31966
31966
31770
31770
31770
31923
31923
31923
31726
31726
31726
31879
31879
31879
31879
31901
31901
31901
31814
31814
31814
31923
31923
31923
31814
31814
31814
31944
31944
31944
31944
31879
31879
31879
31835
31835
31835
31901
31901
31901
31770
31770
31770
31944
31944
31944
31944
31726
31726
31726
31792
31792
31792
31923
31923
31923
31814
31814
31814
31901
31901
31901
31901
31879
31879
31879
31770
31770
31770
31901
31901
31901
31770
31770
31770
31901
31901
31901
31901
31835
31835
31835
31726
31726
31726
31857
31857
31857
31814
31814
31814
31901
31901
31901
31901
31944
31944
31944
31814
31814
31814
31923
31923
31923
31857
31857
31857
31879
31879
31879
31879
31923
31923
31923
31770
31770
31770
31901
31901
31901
31748
31748
31748
31901
31901
31901
31901
31923
31923
31923
31835
31835
31835
31879
31879
31879
31879
31879
31879
31901
31901
31901
31901
31857
31857
31857
31792
31792
31792
31835
31835
31835
31835
31835
31835
31879
31879
31879
31879
31879
31879
31879
31814
31814
31814
31857
31857
31857
31792
31792
31792
31901
31901
31901
31901
31879
31879
31879
31770
31770
31770
31923
31923
31923
31857
31857
31857
31857
31857
31857
31857
31857
31857
31857
31835
31835
31835
31857
31857
31857
31748
31748
31748
31901
31901
31901
31901
31879
31879
31879
31792
31792
31792
31923
31923
31923
31726
31726
31726
31879
31879
31879
31879
31923
31923
31923
31748
31748
31748
31923
31923
31923
31835
31835
31835
31835
31835
31835
31835
31923
31923
31923
31814
31814
31814
31901
31901
31901
31814
31814
31814
31879
31879
31879
31879
31901
31901
31901
31748
31748
31748
31923
31923
31923
31792
31792
31792
31966
31966
31966
31966
31835
31835
31835
31792
31792
31792
31901
31901
31901
31792
31792
31792
31879
31879
31879
31879
31879
31879
31879
31748
31748
31748
31944
31944
31944
31770
31770
31770
31901
31901
31901
31901
31901
31901
31901
31770
31770
31770
31879
31879
31879
31770
31770
31770
31879
31879
31879
31879
31923
31923
31923
31814
31814
31814
31944
31944
31944
31814
31814
31814
31857
31857
31857
31857
31857
31857
31857
31770
31770
31770
31857
31857
31857
31792
31792
31792
31988
31988
31988
31988
31857
31857
31857
31792
31792
31792
31923
31923
31923
31748
31748
31748
31923
31923
31923
31923
31944
31944
31944
31835
31835
31835
31966
31966
31966
31792
31792
31792
31814
31814
31814
31814
31835
31835
31835
31726
31726
31726
31879
31879
31879
31748
31748
31748
31814
31814
31814
31814
31726
31726
31726
31814
31814
31814
31901
31901
31901
31835
31835
31835
31944
31944
31944
31944
31857
31857
31857
31835
31835
31835
31857
31857
31857
31814
31814
31814
31857
31857
31857
31857
31923
31923
31923
31792
31792
31792
31901
31901
31901
31792
31792
31792
31923
31923
31923
31923
31966
31966
31966
31835
31835
31835
31966
31966
31966
31814
31814
31814
31857
31857
31857
31857
31879
31879
31879
31814
31814
31814
31857
31857
31857
31835
31835
31835
31923
31923
31923
31923
31879
31879
31879
31683
31683
31683
31923
31923
31923
31770
31770
31770
31835
31835
31835
31835
31835
31835
31835
31792
31792
31792
31901
31901
31901
31835
31835
31835
31966
31966
31966
31966
31901
31901
31901
31814
31814
31814
31901
31901
31901
31748
31748
31748
31835
31835
31835
31835
31879
31879
31879
31726
31726
31726
31923
31923
31923
31814
31814
31814
31857
31857
31857
31857
31879
31879
31879
31814
31814
31814
31901
31901
31901
31835
31835
31835
31857
31857
31857
31857
31879
31879
31879
31814
31814
31814
31901
31901
31901
31792
31792
31792
31901
31901
31901
31901
31879
31879
31879
31814
31814
31814
31901
31901
31901
31792
31792
31792
31923
31923
31923
31923
31857
31857
31857
31814
31814
31814
31901
31901
31901
31814
31814
31814
31944
31944
31944
31944
31879
31879
31879
31748
31748
31748
31879
31879
31879
31792
31792
31792
31901
31901
31901
31901
31901
31901
31901
31814
31814
31814
31879
31879
31879
31814
31814
31814
31901
31901
31901
31901
31879
31879
31879
31814
31814
31814
31901
31901
31901
31770
31770
31770
31944
31944
31944
31944
31857
31857
31857
31726
31726
31726
31901
31901
31901
31814
31814
31814
31901
31901
31901
31901
31835
31835
31835
31857
31857
31857
31857
31857
31857
31792
31792
31792
31901
31901
31901
31901
31923
31923
31923
31814
31814
31814
31814
31814
31814
31792
31792
31792
31814
31814
31814
31814
31857
31857
31857
31814
31814
31814
31879
31879
31879
31770
31770
31770
31857
31857
31857
31857
31901
31901
31901
31726
31726
31726
31901
31901
31901
31792
31792
31792
31879
31879
31879
31879
31923
31923
31923
31857
31857
31857
31835
31835
31835
31814
31814
31814
31944
31944
31944
31944
31835
31835
31835
31835
31835
31835
31879
31879
31879
31792
31792
31792
31901
31901
31901
31901
31857
31857
31857
31792
31792
31792
31770
31770
31770
31835
31835
31835
31901
31901
31901
31901
31879
31879
31879
31835
31835
31835
31901
31901
31901
31770
31770
31770
31988
31988
31988
31988
31814
31814
31814
31792
31792
31792
31857
31857
31857
31748
31748
31748
31923
31923
31923
31923
31879
31879
31879
31792
31792
31792
31879
31879
31879
31792
31792
31792
31923
31923
31923
31923
31857
31857
31857
31792
31792
31792
31944
31944
31944
31770
31770
31770
31901
31901
31901
31901
31835
31835
31835
31792
31792
31792
31901
31901
31901
31814
31814
31814
31879
31879
31879
31879
31944
31944
31944
31814
31814
31814
31857
31857
31857
31748
31748
31748
31835
31835
31835
31835
31879
31879
31879
31814
31814
31814
31879
31879
31879
31792
31792
31792
31857
31857
31857
31857
31879
31879
31879
31814
31814
31814
31901
31901
31901
31792
31792
31792
31901
31901
31901
31901
31901
31901
31901
31879
31879
31879
31901
31901
31901
31814
31814
31814
31857
31857
31857
31857
31857
31857
31857
31770
31770
31770
31923
31923
31923
31792
31792
31792
31923
31923
31923
31923
31857
31857
31857
31814
31814
31814
31966
31966
31966
31792
31792
31792
31923
31923
31923
31923
31879
31879
31879
31835
31835
31835
31923
31923
31923
31814
31814
31814
31879
31879
31879
31879
31857
31857
31857
31857
31857
31857
31879
31879
31879
31792
31792
31792
31879
31879
31879
31879
31923
31923
31923
31835
31835
31835
31923
31923
31923
31792
31792
31792
31988
31988
31988
31988
31879
31879
31879
31770
31770
31770
31857
31857
31857
31792
31792
31792
31923
31923
31923
31923
31901
31901
31901
31770
31770
31770
31944
31944
31944
31770
31770
31770
31857
31857
31857
31857
31857
31857
31857
31792
31792
31792
31879
31879
31879
31814
31814
31814
31835
31835
31835
31835
31857
31857
31857
31879
31879
31879
31857
31857
31857
31814
31814
31814
31901
31901
31901
31901
31901
31901
31901
31814
31814
31814
31879
31879
31879
31792
31792
31792
31857
31857
31857
31857
31879
31879
31879
31792
31792
31792
31857
31857
31857
31857
31857
31857
31814
31814
31814
31814
31857
31857
31857
31814
31814
31814
31923
31923
31923
31770
31770
31770
31879
31879
31879
31879
31857
31857
31857
31792
31792
31792
31923
31923
31923
31792
31792
31792
31879
31879
31879
31879
31857
31857
31857
31792
31792
31792
31879
31879
31879
31814
31814
31814
31879
31879
31879
31879
31879
31879
31879
31748
31748
31748
31901
31901
31901
31814
31814
31814
31944
31944
31944
31944
31901
31901
31901
31792
31792
31792
31879
31879
31879
31792
31792
31792
31857
31857
31857
31857
31901
31901
31901
31814
31814
31814
31879
31879
31879
31748
31748
31748
31857
31857
31857
31857
31879
31879
31879
31835
31835
31835
31835
31835
31835
31792
31792
31792
31901
31901
31901
31901
31901
31901
31901
31835
31835
31835
31879
31879
31879
31792
31792
31792
31966
31966
31966
31966
31857
31857
31857
31792
31792
31792
31901
31901
31901
31814
31814
31814
31879
31879
31879
31879
31857
31857
31857
31792
31792
31792
31944
31944
31944
31792
31792
31792
31944
31944
31944
31944
31901
31901
31901
31857
31857
31857
31879
31879
31879
31792
31792
31792
31901
31901
31901
31901
31879
31879
31879
31835
31835
31835
31814
31814
31814
31792
31792
31792
31879
31879
31879
31879
31879
31879
31879
31835
31835
31835
31879
31879
31879
31792
31792
31792
31901
31901
31901
31901
31857
31857
31857
31770
31770
31770
31901
31901
31901
31879
31879
31879
31901
31901
31901
31901
31879
31879
31879
31879
31879
31879
31835
31835
31835
31814
31814
31814
31879
31879
31879
31879
31857
31857
31857
31814
31814
31814
31923
31923
31923
31770
31770
31770
31770
31770
31770
31770
31944
31944
31944
31770
31770
31770
31770
31770
31770
31748
31748
31748
31923
31923
31923
31923
31857
31857
31857
31770
31770
31770
31857
31857
31857
31705
31705
31705
31879
31879
31879
31879
31879
31879
31879
31748
31748
31748
31901
31901
31901
31748
31748
31748
31901
31901
31901
31901
31792
31792
31792
31792
31792
31792
31901
31901
31901
31792
31792
31792
31923
31923
31923
31923
31857
31857
31857
31857
31857
31857
31879
31879
31879
31814
31814
31814
31857
31857
31857
31857
31879
31879
31879
31792
31792
31792
31923
31923
31923
31748
31748
31748
31857
31857
31857
31857
31901
31901
31901
31857
31857
31857
31814
31814
31814
31792
31792
31792
31879
31879
31879
31879
31901
31901
31901
31814
31814
31814
31879
31879
31879
31770
31770
31770
31901
31901
31901
31901
31879
31879
31879
31857
31857
31857
31901
31901
31901
31705
31705
31705
31923
31923
31923
31923
31923
31923
31923
31792
31792
31792
31901
31901
31901
31770
31770
31770
31857
31857
31857
31857
31879
31879
31879
31814
31814
31814
31879
31879
31879
31792
31792
31792
31901
31901
31901
31901
31814
31814
31814
31814
31814
31814
31879
31879
31879
31792
31792
31792
31901
31901
31901
31901
31901
31901
31901
31748
31748
31748
31857
31857
31857
31814
31814
31814
31857
31857
31857
31857
31879
31879
31879
31814
31814
31814
31923
31923
31923
31814
31814
31814
31901
31901
31901
31901
31923
31923
31923
31792
31792
31792
31988
31988
31988
31814
31814
31814
31901
31901
31901
31901
31879
31879
31879
31792
31792
31792
32032
32032
32032
31770
31770
31770
31879
31879
31879
31879
31966
31966
31966
31835
31835
31835
31923
31923
31923
31879
31879
31879
31901
31901
31901
31901
31879
31879
31879
31748
31748
31748
31966
31966
31966
31770
31770
31770
31901
31901
31901
31901
31923
31923
31923
31814
31814
31814
31879
31879
31879
31792
31792
31792
31879
31879
31879
31879
31748
31748
31748
31857
31857
31857
31879
31879
31879
31901
31901
31901
31901
31901
31901
31901
31879
31879
31879
31814
31814
31814
31857
31857
31857
31770
31770
31770
31988
31988
31988
31988
31923
31923
31923
31792
31792
31792
31923
31923
31923
31705
31705
31705
31835
31835
31835
31835
31879
31879
31879
31835
31835
31835
31835
31835
31835
31770
31770
31770
31901
31901
31901
31901
31923
31923
31923
31705
31705
31705
31966
31966
31966
31770
31770
31770
31879
31879
31879
31879
31879
31879
31879
31748
31748
31748
31901
31901
31901
31748
31748
31748
31879
31879
31879
31879
31879
31879
31879
31792
31792
31792
31857
31857
31857
31814
31814
31814
31901
31901
31901
31901
31923
31923
31923
31879
31879
31879
31901
31901
31901
31792
31792
31792
31944
31944
31944
31944
31857
31857
31857
31792
31792
31792
31923
31923
31923
31857
31857
31857
31879
31879
31879
31879
31901
31901
31901
31835
31835
31835
31901
31901
31901
31792
31792
31792
31901
31901
31901
31901
31857
31857
31857
31879
31879
31879
31901
31901
31901
31814
31814
31814
31879
31879
31879
31879
31901
31901
31901
31814
31814
31814
31879
31879
31879
31792
31792
31792
31901
31901
31901
31901
31879
31879
31879
31792
31792
31792
31901
31901
31901
31770
31770
31770
31901
31901
31901
31901
31879
31879
31879
31792
31792
31792
31901
31901
31901
31792
31792
31792
31923
31923
31923
31923
31944
31944
31944
31835
31835
31835
31879
31879
31879
31814
31814
31814
31901
31901
31901
31901
31901
31901
31901
31814
31814
31814
31879
31879
31879
31814
31814
31814
31923
31923
31923
31923
31901
31901
31901
31814
31814
31814
31879
31879
31879
31835
31835
31835
31901
31901
31901
31901
31966
31966
31966
31792
31792
31792
31857
31857
31857
31814
31814
31814
31879
31879
31879
31879
31879
31879
31879
31835
31835
31835
31814
31814
31814
31770
31770
31770
31901
31901
31901
31901
31966
31966
31966
31835
31835
31835
31879
31879
31879
31726
31726
31726
31879
31879
31879
31879
31901
31901
31901
31814
31814
31814
31923
31923
31923
31835
31835
31835
31923
31923
31923
31923
31879
31879
31879
31814
31814
31814
31857
31857
31857
31814
31814
31814
31901
31901
31901
31901
31901
31901
31901
31814
31814
31814
31835
31835
31835
31792
31792
31792
31857
31857
31857
31857
31944
31944
31944
31835
31835
31835
31879
31879
31879
31705
31705
31705
31966
31966
31966
31966
31901
31901
31901
31748
31748
31748
31944
31944
31944
31726
31726
31726
31879
31879
31879
31879
31944
31944
31944
31792
31792
31792
31944
31944
31944
31988
31988
31988
31923
31923
31923
31923
31879
31879
31879
31857
31857
31857
31901
31901
31901
31770
31770
31770
31879
31879
31879
31879
31857
31857
31857
31792
31792
31792
31901
31901
31901
31814
31814
31814
31879
31879
31879
31879
31857
31857
31857
31748
31748
31748
31944
31944
31944
31770
31770
31770
31923
31923
31923
31923
31923
31923
31923
31814
31814
31814
31944
31944
31944
31814
31814
31814
31901
31901
31901
31901
31857
31857
31857
31814
31814
31814
31879
31879
31879
31770
31770
31770
31879
31879
31879
31879
31923
31923
31923
31792
31792
31792
31901
31901
31901
31770
31770
31770
31857
31857
31857
31857
31879
31879
31879
31748
31748
31748
31879
31879
31879
31748
31748
31748
31879
31879
31879
31879
31814
31814
31814
31857
31857
31857
31923
31923
31923
31770
31770
31770
31857
31857
31857
31857
31879
31879
31879
31814
31814
31814
31923
31923
31923
31792
31792
31792
31944
31944
31944
31944
31835
31835
31835
31814
31814
31814
31879
31879
31879
31770
31770
31770
31901
31901
31901
31901
31814
31814
31814
31770
31770
31770
31814
31814
31814
31770
31770
31770
31923
31923
31923
31923
31857
31857
31857
31792
31792
31792
31901
31901
31901
31814
31814
31814
31966
31966
31966
31966
31879
31879
31879
31770
31770
31770
31879
31879
31879
31726
31726
31726
31857
31857
31857
31857
31857
31857
31857
31726
31726
31726
31901
31901
31901
31944
31944
31944
31879
31879
31879
31879
31901
31901
31901
31661
31661
31661
31901
31901
31901
31792
31792
31792
31879
31879
31879
31879
31901
31901
31901
31814
31814
31814
31879
31879
31879
31726
31726
31726
31901
31901
31901
31901
31879
31879
31879
31835
31835
31835
31857
31857
31857
31792
31792
31792
31923
31923
31923
31923
31944
31944
31944
31814
31814
31814
31835
31835
31835
31835
31835
31835
31923
31923
31923
31923
31879
31879
31879
31814
31814
31814
31835
31835
31835
31835
31835
31835
31879
31879
31879
31879
31901
31901
31901
31770
31770
31770
31901
31901
31901
31792
31792
31792
31923
31923
31923
31923
31901
31901
31901
31792
31792
31792
31879
31879
31879
31705
31705
31705
31923
31923
31923
31923
31901
31901
31901
31726
31726
31726
31879
31879
31879
31814
31814
31814
31879
31879
31879
31879
31901
31901
31901
31639
31639
31639
31879
31879
31879
31814
31814
31814
31901
31901
31901
31901
31901
31901
31901
31814
31814
31814
31879
31879
31879
31879
31879
31879
31879
31879
31879
31879
31901
31901
31901
31857
31857
31857
31814
31814
31814
31770
31770
31770
31923
31923
31923
31923
31879
31879
31879
31857
31857
31857
31923
31923
31923
31770
31770
31770
32032
32032
32032
32032
31879
31879
31879
31835
31835
31835
31988
31988
31988
31814
31814
31814
31879
31879
31879
31879
31901
31901
31901
31835
31835
31835
31879
31879
31879
31792
31792
31792
31966
31966
31966
31966
31901
31901
31901
31835
31835
31835
31901
31901
31901
31770
31770
31770
31944
31944
31944
31944
31814
31814
31814
31792
31792
31792
31879
31879
31879
31792
31792
31792
31923
31923
31923
31923
31835
31835
31835
31770
31770
31770
31901
31901
31901
31792
31792
31792
31966
31966
31966
31966
31944
31944
31944
31748
31748
31748
31944
31944
31944
31770
31770
31770
31879
31879
31879
31879
31857
31857
31857
31814
31814
31814
31944
31944
31944
31748
31748
31748
31923
31923
31923
31923
31835
31835
31835
31879
31879
31879
31923
31923
31923
31814
31814
31814
31901
31901
31901
31901
31857
31857
31857
31792
31792
31792
31923
31923
31923
31748
31748
31748
31901
31901
31901
31901
31901
31901
31901
31792
31792
31792
31879
31879
31879
31726
31726
31726
31835
31835
31835
31835
31879
31879
31879
31835
31835
31835
31901
31901
31901
31770
31770
31770
31923
31923
31923
31923
31835
31835
31835
31814
31814
31814
31879
31879
31879
31792
31792
31792
31923
31923
31923
31923
31901
31901
31901
31770
31770
31770
31879
31879
31879
31748
31748
31748
31857
31857
31857
31857
31966
31966
31966
31770
31770
31770
31923
31923
31923
31705
31705
31705
31966
31966
31966
31966
31901
31901
31901
31814
31814
31814
31923
31923
31923
31770
31770
31770
31857
31857
31857
31857
31879
31879
31879
31857
31857
31857
31879
31879
31879
31814
31814
31814
31923
31923
31923
31923
31879
31879
31879
31748
31748
31748
31857
31857
31857
31792
31792
31792
31879
31879
31879
31879
31923
31923
31923
31792
31792
31792
31835
31835
31835
31792
31792
31792
31901
31901
31901
31901
31923
31923
31923
31770
31770
31770
31901
31901
31901
31770
31770
31770
31879
31879
31879
31879
31814
31814
31814
31814
31814
31814
31901
31901
31901
31857
31901
31901
31901
31792
31792
31792
31879
31879
31879
31879
31923
31923
31923
31879
31879
31879
31857
31857
31857
31835
31835
31835
31857
31857
31857
31857
31901
31901
31901
31879
31879
31879
31879
31879
31879
31814
31814
31814
31879
31879
31879
31879
31901
31901
31901
31792
31792
31792
31857
31857
31857
31792
31792
31792
31879
31879
31879
31879
31944
31944
31944
31770
31770
31770
31923
31923
31923
31748
31748
31748
31944
31944
31944
31944
31988
31988
31988
31835
31835
31835
31923
31923
31923
31770
31770
31770
31857
31857
31857
31857
31879
31879
31879
31814
31814
31814
31879
31879
31879
31770
31770
31770
31944
31944
31944
31944
31944
31944
31944
31857
31857
31857
31792
31792
31792
31901
31901
31901
31748
31748
31748
31879
31879
31879
31879
31901
31901
31901
31792
31792
31792
31923
31923
31923
31857
31857
31857
31879
31879
31879
31879
31879
31879
31879
31792
31792
31792
31857
31857
31857
31726
31726
31726
31966
31966
31966
31966
31879
31879
31879
31792
31792
31792
31857
31857
31857
31748
31748
31748
31857
31857
31857
31857
31901
31901
31901
31770
31770
31770
31923
31923
31923
31814
31814
31814
31835
31835
31835
31835
31857
31857
31857
31792
31792
31792
31901
31901
31901
31835
31835
31835
31857
31857
31857
31857
31923
31923
31923
31814
31814
31814
31857
31857
31857
31814
31814
31814
31923
31923
31857
31901
31901
31901
31901
31879
31879
31879
31814
31814
31814
31923
31923
31923
31748
31748
31748
31901
31901
31901
31901
31857
31857
31857
31770
31770
31770
32053
32053
32053
31792
31792
31792
31901
31901
31901
31901
31574
31574
31574
31748
31748
31748
31923
31923
31923
31748
31748
31748
31944
31944
31944
31944
31923
31923
31923
31770
31770
31770
31879
31879
31879
31748
31748
31748
31901
31901
31901
31901
31923
31923
31923
31814
31814
31814
31901
31901
31901
31748
31748
31748
31923
31923
31923
31923
31879
31879
31879
31835
31835
31835
31879
31879
31879
31792
31792
31792
31901
31901
31901
31901
31901
31901
31901
31770
31770
31770
31944
31944
31857
31966
31966
31966
31792
31792
31792
31944
31944
31944
31944
31901
31901
31901
31857
31857
31857
31901
31901
31901
31835
31835
31835
31923
31923
31923
31923
31901
31901
31901
31814
31814
31814
31879
31879
31879
31792
31792
31792
31857
31857
31857
31857
31901
31901
31901
31835
31835
31835
31835
31835
31835
31814
31814
31814
31901
31901
31901
31901
31901
31901
31901
31857
31857
31857
31879
31879
31879
31835
31835
31835
31770
31770
31770
31770
31944
31944
31944
31792
31792
31792
31879
31879
31879
31792
31792
31792
31901
31901
31901
31901
31770
31770
31770
31814
31814
31814
31944
31944
31944
31792
31792
31792
31944
31944
31944
31944
31901
31901
31901
31814
31814
31814
31814
31814
31814
31901
31901
31901
31748
31748
31748
31879
31879
31879
31879
31923
31923
31923
31814
31814
31814
31901
31901
31901
31770
31770
31770
31944
31944
31944
31944
31879
31879
31879
31857
31857
31857
31857
31857
31857
31814
31814
31814
31923
31923
31923
31923
31901
31901
31901
31835
31835
31835
31879
31879
31879
31814
31814
31814
31879
31879
31879
31879
31901
31901
31901
31835
31835
31835
31923
31923
31923
31770
31770
31770
31988
31988
31988
31988
31879
31879
31879
31814
31814
31814
31923
31923
31923
31770
31770
31770
31923
31923
31923
31923
31901
31901
31901
31792
31792
31792
31901
31901
31901
31879
31879
31879
31901
31901
31814
31814
31901
31901
31901
31901
31901
31901
31901
31901
31901
31901
31879
31879
31879
31792
31792
31792
31857
31857
31857
31857
31835
31835
31835
31857
31857
31857
31857
31857
31857
31814
31814
31814
31901
31901
31901
31901
31879
31879
31879
31835
31835
31835
31879
31879
31879
31770
31770
31770
31923
31923
31923
31923
31901
31901
31901
31770
31770
31770
31879
31879
31879
31814
31814
31814
31923
31923
31923
31923
31901
31901
31901
31792
31792
31792
31857
31857
31857
31792
31792
31792
31879
31879
31879
31879
31901
31901
31901
31814
31814
31814
31901
31901
31901
31792
31792
31792
31988
31988
31988
31988
31879
31879
31879
31857
31857
31857
31901
31901
31726
31923
31923
31923
31770
31770
31770
31901
31901
31901
31901
31835
31835
31835
31814
31814
31814
31901
31901
31901
31770
31770
31770
31748
31748
31748
31748
31923
31923
31923
31770
31770
31770
31901
31901
31901
31792
31792
31792
31901
31901
31901
31901
31879
31879
31879
31814
31814
31814
31923
31923
31923
31814
31814
31814
31879
31879
31879
31879
31857
31857
31857
31857
31857
31857
31923
31923
31923
31814
31814
31814
31966
31966
31966
31966
31944
31944
31944
31792
31792
31792
31901
31901
31901
31835
31835
31835
31923
31923
31923
31923
31857
31857
31857
31792
31792
31792
31835
31835
31835
31792
31792
31792
31901
31901
31901
31901
31879
31879
31879
31879
31879
31879
31857
31857
31857
31901
31901
31901
31792
31792
31792
31857
31857
31857
31857
31879
31879
31879
31792
31792
31792
31879
31879
31879
31726
31726
31726
31901
31901
31901
31901
31901
31901
31901
31814
31814
31814
31923
31923
31923
31835
31835
31835
31879
31879
31879
31879
31879
31879
31879
31792
31792
31792
31879
31879
31879
31835
31835
31835
31835
31835
31835
31835
31857
31857
31857
31792
31792
31792
31923
31923
31923
31814
31814
31814
31901
31901
31901
31901
31879
31879
31879
31792
31792
31792
31923
31923
31923
31835
31835
31835
31857
31857
31857
31857
31857
31857
31857
31857
31857
31857
31879
31879
31879
31748
31748
31748
31901
31814
31814
31879
31879
31879
31879
31879
31879
31879
31814
31814
31814
31879
31879
31879
31792
31792
31792
31835
31835
31835
31835
31835
31835
31835
31748
31748
31748
31923
31923
31923
31901
31901
31901
31901
31901
31901
31901
31901
31901
31901
31814
31814
31814
31879
31879
31879
31814
31814
31814
31901
31901
31901
31901
31857
31857
31857
31835
31835
31835
31901
31901
31901
31726
31726
31726
31814
31814
31814
31814
31857
31857
31857
31792
31792
31792
31879
31879
31879
31835
31835
31835
31901
31901
31901
31901
31879
31879
31879
31814
31814
31814
31835
31835
31835
31835
31835
31835
31901
31901
31901
31901
31901
31901
31901
31726
31726
31726
31857
31857
31792
31923
31923
31923
31857
31857
31857
31923
31923
31923
31923
31879
31879
31879
31770
31770
31770
31879
31879
31879
31814
31814
31814
31923
31923
31923
31923
31901
31901
31901
31814
31814
31814
31857
31857
31857
31770
31770
31770
31923
31923
31923
31923
31879
31879
31879
31792
31792
31792
31944
31944
31944
31857
31857
31857
31835
31835
31835
31835
31857
31857
31857
31792
31792
31792
31857
31857
31857
31792
31792
31792
31835
31835
31835
31835
31879
31879
31879
31705
31705
31705
31901
31901
31901
31792
31792
31792
31901
31901
31901
31901
31814
31814
31814
31792
31792
31792
31923
31923
31923
31901
31901
31901
31901
31901
31901
31901
31879
31879
31879
31835
31835
31835
31923
31923
31923
31814
31814
31814
31901
31901
31901
31901
31944
31944
31944
31770
31770
31770
31901
31901
31901
31814
31814
31814
32010
32010
32010
32010
31770
31770
31770
31792
31792
31792
31901
31901
31901
31792
31792
31792
31923
31923
31923
31923
31857
31857
31857
31748
31748
31748
31901
31901
31901
31792
31792
31792
31923
31923
31923
31923
31835
31835
31835
31770
31770
31770
31923
31923
31923
31814
31814
31814
31857
31857
31857
31857
31988
31988
31988
31792
31792
31792
31901
31901
31901
31792
31792
31792
31857
31857
31857
31857
31944
31944
31944
31792
31792
31792
31988
31988
31988
31770
31770
31770
31879
31879
31879
31879
31857
31857
31857
31792
31792
31792
31901
31901
31901
31857
31857
31857
31879
31879
31879
31879
31879
31879
31879
31814
31814
31814
31966
31966
31966
31726
31726
31726
31857
31857
31857
31857
31901
31901
31901
31770
31770
31770
31879
31879
31879
31792
31792
31792
31901
31901
31901
31901
31792
31792
31792
31835
31835
31835
31857
31857
31857
31814
31814
31814
31901
31901
31901
31901
31879
31879
31879
31835
31835
31835
31944
31944
31944
31770
31770
31770
31901
31901
31901
31901
31879
31879
31879
31857
31857
31857
31857
31857
31857
31923
31923
31923
31879
31879
31879
31879
31879
31879
31879
31814
31814
31814
31879
31879
31879
31770
31770
31770
31901
31901
31901
31901
31879
31879
31879
31792
31792
31792
31901
31901
31901
31726
31726
31726
31988
31988
31988
31988
31879
31879
31879
31792
31792
31792
31944
31944
31944
31879
31879
31879
31944
31944
31944
31944
31879
31879
31879
31792
31792
31792
31857
31857
31857
31835
31835
31835
31879
31879
31879
31879
31879
31879
31879
31814
31814
31814
31879
31879
31879
31792
31792
31792
31879
31879
31879
31879
31879
31879
31879
31814
31814
31814
31901
31901
31901
31792
31792
31792
31879
31879
31879
31879
31879
31879
31879
31770
31770
31770
31857
31857
31857
31792
31792
31792
31901
31901
31901
31901
31944
31944
31944
31901
31901
31901
31879
31879
31879
31835
31835
31835
31966
31966
31966
31966
31857
31857
31857
31835
31835
31835
31901
31901
31901
31770
31770
31770
31901
31901
31901
31901
31879
31879
31879
31814
31814
31814
31901
31901
31901
31792
31792
31792
31944
31944
31944
31944
31857
31857
31857
31770
31770
31770
31901
31901
31901
31748
31748
31748
31901
31901
31901
31901
31923
31923
31923
31814
31814
31814
31879
31879
31879
31814
31814
31814
31923
31923
31923
31923
31923
31923
31923
31770
31770
31770
31923
31923
31923
31814
31814
31814
31857
31857
31857
31857
31857
31857
31857
31835
31835
31835
31901
31901
31901
31792
31792
31792
31944
31944
31944
31944
31835
31835
31835
31857
31857
31857
31923
31923
31923
31770
31770
31770
31901
31901
31901
31901
31857
31857
31857
31835
31835
31835
31901
31901
31901
31814
31814
31814
31857
31857
31857
31857
31835
31835
31835
31814
31814
31814
31879
31879
31879
31748
31748
31748
31923
31923
31923
31923
31879
31879
31879
31814
31814
31814
31901
31901
31901
31792
31792
31792
31923
31923
31923
31923
31814
31814
31814
31857
31857
31857
31879
31879
31879
31835
31835
31835
31923
31923
31923
31923
31923
31923
31923
31814
31814
31814
31879
31879
31879
31835
31835
31835
31857
31857
31857
31857
31923
31923
31923
31792
31792
31792
31923
31923
31923
31792
31792
31792
31857
31857
31857
31857
31879
31879
31879
31792
31792
31792
31857
31857
31857
31835
31835
31835
31944
31944
31944
31944
31814
31814
31814
31857
31857
31857
31879
31879
31879
31879
31879
31879
31879
31879
31879
31879
31879
31879
31879
31814
31814
31814
31879
31879
31879
31770
31770
31770
31944
31944
31944
31944
31923
31923
31923
31770
31770
31770
31705
31705
31705
31814
31814
31814
31901
31901
31901
31901
31857
31857
31857
31814
31814
31814
31857
31857
31857
31748
31748
31748
31879
31879
31879
31879
31966
31966
31966
31770
31770
31770
31835
31835
31835
31857
31857
31857
31857
31857
31857
31857
31835
31835
31835
31814
31814
31814
31901
31901
31901
31770
31770
31770
31901
31901
31901
31901
31857
31857
31857
31814
31814
31814
31901
31901
31901
31814
31814
31814
31901
31901
31901
31901
31835
31835
31835
31814
31814
31814
31879
31879
31879
31770
31770
31770
31966
31966
31966
31966
31923
31923
31923
31814
31814
31814
31923
31923
31923
31814
31814
31814
31901
31901
31901
31901
31857
31857
31857
31726
31726
31726
31944
31944
31944
31792
31792
31792
31901
31901
31901
31901
31901
31901
31901
31792
31792
31792
31901
31901
31901
31814
31814
31814
31879
31879
31879
31879
31879
31879
31879
31814
31814
31814
31879
31879
31879
31814
31814
31814
31857
31857
31857
31857
31879
31879
31879
31835
31835
31835
31901
31901
31901
31814
31814
31814
31814
31814
31814
31814
31814
31814
31814
31792
31792
31792
31901
31901
31901
31857
31857
31857
31923
31923
31923
31923
31879
31879
31879
31835
31835
31835
31857
31857
31857
31770
31770
31770
31901
31901
31901
31901
31923
31923
31923
31792
31792
31792
31923
31923
31923
31792
31792
31792
31901
31901
31901
31901
31879
31879
31879
31814
31814
31814
31944
31944
31944
31814
31814
31814
31879
31879
31879
31879
31835
31835
31835
31814
31814
31814
31879
31879
31879
31814
31814
31814
31879
31879
31879
31879
31770
31770
31770
31770
31770
31770
31901
31901
31901
31857
31857
31857
31857
31857
31857
31857
31835
31835
31835
31792
31792
31792
31901
31901
31901
31835
31835
31835
31923
31923
31923
31923
31879
31879
31879
31770
31770
31770
31901
31901
31901
31814
31814
31814
31901
31901
31901
31901
31835
31835
31835
31857
31857
31857
31901
31901
31901
31792
31792
31792
31901
31901
31901
31901
31879
31879
31879
31792
31792
31792
31901
31901
31901
31770
31770
31770
31857
31857
31857
31857
31966
31966
31966
31879
31879
31879
31835
31835
31835
31792
31792
31792
31879
31879
31879
31879
31944
31944
31944
31835
31835
31835
31923
31923
31923
31814
31814
31814
31879
31879
31879
31879
31879
31879
31879
31792
31792
31792
31835
31835
31835
31835
31835
31835
31901
31901
31901
31901
31901
31901
31901
31814
31814
31814
31901
31901
31901
31770
31770
31770
31901
31901
31901
31901
31879
31879
31879
31770
31770
31770
31944
31944
31944
31726
31726
31726
31944
31944
31944
31944
31857
31857
31857
31814
31814
31814
31879
31879
31879
31770
31770
31770
31923
31923
31923
31923
31923
31923
31923
31835
31835
31835
31901
31901
31901
31814
31814
31814
31857
31857
31857
31857
31901
31901
31901
31814
31814
31814
32010
32010
32010
31792
31792
31792
31814
31814
31814
31814
31879
31879
31879
31814
31814
31814
31901
31901
31901
31835
31835
31835
31944
31944
31944
31944
31988
31988
31988
31683
31683
31683
31923
31923
31923
31857
31857
31857
31901
31901
31901
31901
31901
31901
31901
31814
31814
31814
31857
31857
31857
31770
31770
31770
31901
31901
31901
31901
31901
31901
31901
31879
31879
31879
31901
31901
31901
31835
31835
31835
31857
31857
31857
31857
31879
31879
31879
31770
31770
31770
31857
31857
31857
31770
31770
31770
31879
31879
31879
31879
31857
31857
31857
31726
31726
31726
31923
31923
31923
31770
31770
31770
31857
31857
31857
31857
31879
31879
31879
31770
31770
31770
31901
31901
31901
31770
31770
31770
31879
31879
31879
31879
31944
31944
31944
31814
31814
31814
31923
31923
31923
31814
31814
31814
31879
31879
31879
31879
31879
31879
31879
31857
31857
31857
31901
31901
31901
31792
31792
31792
31944
31944
31944
31944
31901
31901
31901
31770
31770
31770
31857
31857
31857
31748
31748
31748
31901
31901
31901
31901
31835
31835
31835
31792
31792
31792
31923
31923
31923
31770
31770
31770
31901
31901
31901
31901
31901
31901
31901
31835
31835
31835
31879
31879
31879
31770
31770
31770
31901
31901
31901
31901
31923
31923
31923
31835
31835
31835
31879
31879
31879
31814
31814
31814
31901
31901
31901
31901
31923
31923
31923
31748
31748
31748
31944
31944
31944
31792
31792
31792
31879
31879
31879
31879
31879
31879
31879
31748
31748
31748
31792
31792
31792
31835
31835
31835
31879
31879
31879
31879
31901
31901
31901
31814
31814
31814
31923
31923
31923
31814
31814
31814
31879
31879
31879
31879
31879
31879
31879
31792
31792
31792
31901
31901
31901
31835
31835
31835
31814
31814
31814
31814
31857
31857
31857
31879
31879
31879
31857
31857
31857
31814
31814
31814
31879
31879
31879
31879
31814
31814
31814
31792
31792
31792
31857
31857
31857
31770
31770
31770
31879
31879
31879
31879
31901
31901
31901
31770
31770
31770
31944
31944
31944
31770
31770
31770
31944
31944
31944
31944
31901
31901
31901
31770
31770
31770
31923
31923
31923
31792
31792
31792
31944
31944
31944
31944
31879
31879
31879
31770
31770
31770
31944
31944
31944
31770
31770
31770
31879
31879
31879
31879
31923
31923
31923
31726
31726
31726
31857
31857
31857
31814
31814
31814
31923
31923
31923
31923
31901
31901
31901
31770
31770
31770
31879
31879
31879
31770
31770
31770
31792
31792
31792
31792
31901
31901
31901
31792
31792
31792
31879
31879
31879
31792
31792
31792
31901
31901
31901
31901
31923
31923
31923
31770
31770
31770
31901
31901
31901
31814
31814
31814
31923
31923
31923
31923
31879
31879
31879
31792
31792
31792
31901
31901
31901
31792
31792
31792
31857
31857
31857
31857
31879
31879
31879
31835
31835
31835
31879
31879
31879
31748
31748
31748
31792
31792
31792
31792
31835
31835
31835
31770
31770
31770
31879
31879
31879
31857
31857
31857
31879
31879
31879
31879
31879
31879
31879
31792
31792
31792
31923
31923
31923
31814
31814
31814
31901
31901
31901
31901
31857
31857
31857
31792
31792
31792
31901
31901
31901
31770
31770
31770
31901
31901
31901
31901
32010
32010
32010
31857
31857
31857
31901
31901
31901
31748
31748
31748
31923
31923
31923
31923
31901
31901
31901
31835
31835
31835
31814
31814
31814
31770
31770
31770
31879
31879
31879
31879
31835
31835
31835
31770
31770
31770
31901
31901
31901
31792
31792
31792
31901
31901
31901
31901
31879
31879
31879
31770
31770
31770
31879
31879
31879
31770
31770
31770
31857
31857
31857
31857
31835
31835
31835
31814
31814
31814
31879
31879
31879
31923
31923
31923
31901
31901
31901
31901
31835
31835
31835
31770
31770
31770
31879
31879
31879
31814
31814
31814
31901
31901
31901
31901
31944
31944
31944
31748
31748
31748
31814
31814
31814
31792
31792
31792
31857
31857
31857
31857
31944
31944
31944
31748
31748
31748
31923
31923
31923
31835
31835
31835
31944
31944
31944
31944
31879
31879
31879
31814
31814
31814
31879
31879
31879
31857
31857
31857
31879
31879
31879
31879
31901
31901
31901
31770
31770
31770
31879
31879
31879
31726
31726
31726
31879
31879
31879
31879
31879
31879
31879
31879
31879
31879
31879
31879
31879
31814
31814
31814
31835
31835
31835
31835
31726
31726
31726
31814
31814
31814
31966
31966
31966
31726
31726
31726
31879
31879
31879
31879
31879
31879
31879
31835
31835
31835
31923
31923
31923
31792
31792
31792
31879
31879
31879
31879
31901
31901
31901
31792
31792
31792
31879
31879
31879
31770
31770
31770
31923
31923
31923
31923
31792
31792
31792
31792
31792
31792
31923
31923
31923
31835
31835
31835
31901
31901
31901
31901
31879
31879
31879
31835
31835
31835
31879
31879
31879
31792
31792
31792
31879
31879
31879
31879
31857
31857
31857
31814
31814
31814
31901
31901
31901
31705
31705
31705
31901
31901
31901
31901
31923
31923
31923
31814
31814
31814
31857
31857
31857
31835
31835
31835
31901
31901
31901
31901
31944
31944
31944
31857
31857
31857
31923
31923
31923
31814
31814
31814
31966
31966
31966
31966
31835
31835
31835
31792
31792
31792
31901
31901
31901
31748
31748
31748
31901
31901
31901
31901
31879
31879
31879
31814
31814
31814
31923
31923
31923
31814
31814
31814
31879
31879
31879
31879
31879
31879
31879
31901
31901
31901
31857
31857
31857
31792
31792
31792
31901
31901
31901
31901
31814
31814
31814
31835
31835
31835
31857
31857
31857
31770
31770
31770
31901
31901
31901
31901
31923
31923
31923
31835
31835
31835
31835
31835
31835
31835
31835
31835
31857
31857
31857
31857
31901
31901
31901
31835
31835
31835
31901
31901
31901
31770
31770
31770
31901
31901
31901
31901
31835
31835
31835
31814
31814
31814
31901
31901
31901
31792
31792
31792
31944
31944
31944
31944
31814
31814
31814
31857
31857
31857
31835
31835
31835
31792
31792
31792
31901
31901
31901
31901
31835
31835
31835
31814
31814
31814
31879
31879
31879
31857
31857
31857
31923
31923
31923
31923
31879
31879
31879
31835
31835
31835
31901
31901
31901
31901
31901
31901
31901
31901
31901
31901
31901
31901
31901
31814
31814
31814
31901
31901
31901
31748
31748
31748
31857
31857
31857
31857
32010
32010
32010
31792
31792
31792
31835
31835
31835
31814
31814
31814
31966
31966
31966
31966
31879
31879
31879
31814
31814
31814
31966
31966
31966
31792
31792
31792
31923
31923
31923
31923
31901
31901
31901
31705
31705
31705
31923
31923
31923
31814
31814
31814
31879
31879
31879
31879
31857
31857
31857
31857
31857
31857
31901
31901
31901
31792
31792
31792
31879
31879
31879
31879
31879
31879
31879
31835
31835
31835
31901
31901
31901
31792
31792
31792
31879
31879
31879
31879
31923
31923
31923
31814
31814
31814
31901
31901
31901
31857
31857
31857
31901
31901
31901
31901
31814
31814
31814
31792
31792
31792
31835
31835
31835
31814
31814
31814
31901
31901
31901
31901
31901
31901
31901
31814
31814
31814
31901
31901
31901
31770
31770
31770
31814
31814
31814
31814
31966
31966
31966
31792
31792
31792
31835
31835
31835
31835
31835
31835
31857
31857
31857
31857
31814
31814
31814
31814
31814
31814
31879
31879
31879
31814
31814
31814
31901
31901
31901
31901
31944
31944
31944
31792
31792
31792
31923
31923
31923
31814
31814
31814
31901
31901
31901
31901
31966
31966
31966
31792
31792
31792
31879
31879
31879
31792
31792
31792
31901
31901
31901
31901
31923
31923
31923
31792
31792
31792
31879
31879
31879
31814
31814
31814
31988
31988
31988
31988
31923
31923
31923
31814
31814
31814
31923
31923
31923
31857
31857
31857
31944
31944
31944
31944
31814
31814
31814
31792
31792
31792
31879
31879
31879
31792
31792
31792
31879
31879
31879
31879
31879
31879
31879
31835
31835
31835
31901
31901
31901
31770
31770
31770
31901
31901
31901
31901
31923
31923
31923
31857
31857
31857
31857
31857
31857
31770
31770
31770
31923
31923
31923
31923
31857
31857
31857
31770
31770
31770
31923
31923
31923
31792
31792
31792
31879
31879
31879
31879
31944
31944
31944
31857
31857
31857
31814
31814
31814
31726
31726
31726
31901
31901
31901
31901
31857
31857
31857
31857
31857
31857
31857
31857
31857
31814
31814
31814
31923
31923
31923
31923
31901
31901
31901
31792
31792
31792
31901
31901
31901
31770
31770
31770
31923
31923
31923
31923
31923
31923
31923
31792
31792
31792
31966
31966
31966
31726
31726
31726
32141
32141
32141
32141
31879
31879
31879
31814
31814
31814
31944
31944
31944
31792
31792
31792
31944
31944
31944
31944
31901
31901
31901
31857
31857
31857
32010
32010
32010
31835
31835
31835
31966
31966
31966
31966
31835
31835
31835
31814
31814
31814
31879
31879
31879
31748
31748
31748
31879
31879
31879
31879
31923
31923
31923
31770
31770
31770
31770
31770
31770
31683
31683
31683
31879
31879
31879
31879
31879
31879
31879
31814
31814
31814
31901
31901
31901
31835
31835
31835
31857
31857
31857
31857
31944
31944
31944
31835
31835
31835
31857
31857
31857
31726
31726
31726
31879
31879
31879
31879
31879
31879
31879
31792
31792
31792
31857
31857
31857
31814
31814
31814
31944
31944
31944
31944
31879
31879
31879
31835
31835
31835
31923
31923
31923
31770
31770
31770
31923
31923
31923
31923
31879
31879
31879
31770
31770
31770
31835
31835
31835
31814
31814
31814
31835
31835
31835
31835
31879
31879
31879
31901
31901
31901
31901
31901
31901
31814
31814
31814
31901
31901
31901
31901
31879
31879
31879
31835
31835
31835
31879
31879
31879
31748
31748
31748
31923
31923
31923
31923
31901
31901
31901
31770
31770
31770
31901
31901
31901
31814
31814
31814
31923
31923
31923
31923
31944
31944
31944
31857
31857
31857
31923
31923
31923
31705
31705
31705
31879
31879
31879
31879
31966
31966
31966
31814
31814
31814
31923
31923
31923
31792
31792
31792
31879
31879
31879
31879
31901
31901
31901
31639
31639
31639
31923
31923
31923
31792
31792
31792
31814
31814
31814
31814
31966
31966
31966
31770
31770
31770
31901
31901
31901
31879
31879
31879
31901
31901
31901
31901
31901
31901
31901
31770
31770
31770
31835
31835
31835
31814
31814
31814
31879
31879
31879
31879
31879
31879
31879
31748
31748
31748
31879
31879
31879
31814
31814
31814
31879
31879
31879
31879
31901
31901
31901
31792
31792
31792
31901
31901
31901
31814
31814
31814
31857
31857
31857
31857
31857
31857
31857
31792
31792
31792
31901
31901
31901
31792
31792
31792
31923
31923
31923
31923
31879
31879
31879
31726
31726
31726
31923
31923
31923
31792
31792
31792
31923
31923
31923
31923
31879
31879
31879
31770
31770
31770
31923
31923
31923
31792
31792
31792
31879
31879
31879
31879
31923
31923
31923
31814
31814
31814
31923
31923
31923
31857
31857
31857
31857
31857
31857
31857
31879
31879
31879
31835
31835
31835
31879
31879
31879
31770
31770
31770
31879
31879
31879
31879
31879
31879
31879
31814
31814
31814
31944
31944
31944
31814
31814
31814
31923
31923
31923
31923
31966
31966
31966
31792
31792
31792
31901
31901
31901
31792
31792
31792
31792
31792
31792
31792
31814
31814
31814
31792
31792
31792
31857
31857
31857
31792
31792
31792
31879
31879
31879
31879
31879
31879
31879
31835
31835
31835
31879
31879
31879
31770
31770
31770
31923
31923
31923
31923
31879
31879
31879
31792
31792
31792
31901
31901
31901
31792
31792
31792
31879
31879
31879
31879
31923
31923
31923
31726
31726
31726
31879
31879
31879
31792
31792
31792
31879
31879
31879
31879
31966
31966
31966
31857
31857
31857
31923
31923
31923
31770
31770
31770
31901
31901
31901
31901
31879
31879
31879
31792
31792
31792
31901
31901
31901
31792
31792
31792
31857
31857
31857
31857
31944
31944
31944
31792
31792
31792
31966
31966
31966
31770
31770
31770
31923
31923
31923
31923
31901
31901
31901
31814
31814
31814
31879
31879
31879
31770
31770
31770
31857
31857
31857
31857
31923
31923
31923
31792
31792
31792
31901
31901
31901
31748
31748
31748
31944
31944
31944
31944
31901
31901
31901
31857
31857
31857
31879
31879
31879
31835
31835
31835
31835
31835
31835
31835
31857
31857
31857
31814
31814
31814
31901
31901
31901
31792
31792
31792
31879
31879
31879
31879
31857
31857
31857
31814
31814
31814
31944
31944
31944
31792
31792
31792
31879
31879
31879
31879
31901
31901
31901
31792
31792
31792
31901
31901
31901
31726
31726
31726
31966
31966
31966
31966
31901
31901
31901
31770
31770
31770
31923
31923
31923
31726
31726
31726
31901
31901
31901
31901
31923
31923
31923
31792
31792
31792
31835
31835
31835
31748
31748
31748
31923
31923
31923
31923
31923
31923
31923
31770
31770
31770
31901
31901
31901
31792
31792
31792
31923
31923
31923
31923
31879
31879
31879
31835
31835
31835
31879
31879
31879
31792
31792
31792
31879
31879
31879
31879
31901
31901
31901
31814
31814
31814
31879
31879
31879
31814
31814
31814
31923
31923
31923
31923
31857
31857
31857
31748
31748
31748
31923
31923
31923
31770
31770
31770
31923
31923
31923
31923
31879
31879
31879
31748
31748
31748
31923
31923
31923
31792
31792
31792
31944
31944
31944
31944
31879
31879
31879
31835
31835
31835
31923
31923
31923
31770
31770
31770
31944
31944
31944
31944
31944
31944
31944
31835
31835
31835
31814
31814
31814
31748
31748
31748
31966
31966
31966
31966
31966
31966
31966
31770
31770
31770
31944
31944
31944
31792
31792
31792
32032
32032
32032
32032
31879
31879
31879
31835
31835
31835
31792
31792
31792
31770
31770
31770
31879
31879
31879
31879
31923
31923
31923
31792
31792
31792
31857
31857
31857
31814
31814
31814
31857
31857
31857
31857
31901
31901
31901
31792
31792
31792
31901
31901
31901
31792
31792
31792
31923
31923
31923
31923
31879
31879
31879
31792
31792
31792
31901
31901
31901
31835
31835
31835
31857
31857
31857
31857
31857
31857
31857
31814
31814
31814
31944
31944
31944
31835
31835
31835
31901
31901
31901
31901
31879
31879
31879
31857
31857
31857
31901
31901
31901
31792
31792
31792
31857
31857
31857
31857
31901
31901
31901
31792
31792
31792
31923
31923
31923
31814
31814
31814
31923
31923
31923
31923
31923
31923
31923
31705
31705
31705
31923
31923
31923
31814
31814
31814
31944
31944
31944
31944
31770
31770
31770
31835
31835
31835
31879
31879
31879
31879
31879
31879
31923
31923
31923
31923
31835
31835
31835
31835
31835
31835
31879
31879
31879
31814
31814
31814
31835
31835
31835
31835
31901
31901
31901
31814
31814
31814
31879
31879
31879
31770
31770
31770
31879
31879
31879
31879
31901
31901
31901
31857
31857
31857
31923
31923
31923
31814
31814
31814
31901
31901
31901
31901
31923
31923
31923
31792
31792
31792
31857
31857
31857
31835
31835
31835
31835
31835
31835
31835
31879
31879
31879
31770
31770
31770
31944
31944
31944
31792
31792
31792
31879
31879
31879
31879
31923
31923
31923
31792
31792
31792
31944
31944
31944
31792
31792
31792
31879
31879
31879
31879
31901
31901
31901
31814
31814
31814
31901
31901
31901
31814
31814
31814
31923
31923
31923
31923
31901
31901
31901
31835
31835
31835
31901
31901
31901
31814
31814
31814
31879
31879
31879
31879
31879
31879
31879
31814
31814
31814
31857
31857
31857
31814
31814
31814
31901
31901
31901
31901
31879
31879
31879
31857
31857
31857
31923
31923
31923
31792
31792
31792
31835
31835
31835
31835
31814
31814
31814
31792
31792
31792
31901
31901
31901
31814
31814
31814
31901
31901
31901
31901
31901
31901
31901
31835
31835
31835
31923
31923
31923
31814
31814
31814
31835
31835
31835
31835
31923
31923
31923
31770
31770
31770
31901
31901
31901
31792
31792
31792
31879
31879
31879
31879
31857
31857
31857
31814
31814
31814
31923
31923
31923
31792
31792
31792
31857
31857
31857
31857
31923
31923
31923
31705
31705
31705
31923
31923
31923
31748
31748
31748
31966
31966
31966
31966
31944
31944
31944
31792
31792
31792
31879
31879
31879
31792
31792
31792
31944
31944
31944
31944
31879
31879
31879
31879
31879
31879
31901
31901
31901
31792
31792
31792
31879
31879
31879
31879
31923
31923
31923
31879
31879
31879
31857
31857
31857
31770
31770
31770
31857
31857
31857
31857
31923
31923
31923
31792
31792
31792
31835
31835
31835
31814
31814
31814
31901
31901
31901
31901
31879
31879
31879
31835
31835
31835
31835
31835
31835
31792
31792
31792
31814
31814
31814
31814
31944
31944
31944
31792
31792
31792
31879
31879
31879
31770
31770
31770
31879
31879
31879
31879
31923
31923
31923
31770
31770
31770
31923
31923
31923
31814
31814
31814
31901
31901
31901
31901
31814
31814
31814
31879
31879
31879
31879
31879
31879
31835
31835
31835
31857
31857
31857
31857
31792
31792
31792
31814
31814
31814
31814
31814
31814
31814
31814
31814
31944
31944
31944
31944
31857
31857
31857
31835
31835
31835
31901
31901
31901
31835
31835
31835
31857
31857
31857
31857
31879
31879
31879
31748
31748
31748
31901
31901
31901
31748
31748
31748
31879
31879
31879
31879
31966
31966
31966
31770
31770
31770
31923
31923
31923
31857
31857
31857
31879
31879
31879
31879
31901
31901
31901
31705
31705
31705
31923
31923
31923
31770
31770
31770
31901
31901
31901
31901
31901
31901
31901
31835
31835
31835
31901
31901
31901
31792
31792
31792
31944
31944
31944
31944
31901
31901
31901
31814
31814
31814
31923
31923
31923
31814
31814
31814
31923
