2144
2144
2141
2141
2141
2141
2147
2147
2147
2147
2147
2147
2143
2143
2143
2142
2142
2142
2151
2151
2151
2151
2146
2146
2146
2139
2139
2139
2146
2146
2146
2138
2138
2138
2146
2146
2146
2146
2145
2145
2145
2139
2139
2139
2147
2147
2147
2145
2145
2145
2148
2148
2148
2148
2142
2142
2142
2137
2137
2137
2148
2148
2148
2140
2140
2140
2147
2147
2147
2147
2146
2146
2146
2142
2142
2142
2145
2145
2145
2144
2144
2144
2154
2143
2143
2143
2146
2146
2146
2146
2146
2146
2146
2144
2144
2144
2146
2146
2146
2139
2139
2139
2140
2140
2140
2140
2144
2144
2144
2144
2144
2144
2143
2143
2143
2141
2141
2141
2147
2147
2147
2147
2147
2147
2147
2142
2142
2142
2149
2149
2149
2143
2143
2143
2145
2145
2145
2145
2151
2151
2151
2140
2140
2140
2148
2148
2148
2141
2141
2141
2148
2148
2148
2148
2148
2148
2148
2133
2133
2133
2146
2146
2146
2142
2142
2142
2139
2139
2139
2139
2145
2145
2145
2148
2148
2148
2148
2148
2148
2140
2140
2140
2145
2145
2145
2145
2148
2148
2148
2144
2144
2144
2148
2148
2148
2143
2143
2143
2148
2148
2148
2148
2146
2146
2146
2141
2141
2141
2145
2145
2145
2141
2141
2141
2149
2149
2149
2149
2146
2146
2146
2145
2145
2145
2148
2148
2148
2143
2143
2143
2144
2144
2144
2144
2144
2144
2144
2138
2138
2138
2148
2148
2148
2143
2143
2143
2143
2143
2143
2143
2143
2143
2143
2144
2144
2144
2146
2146
2146
2141
2141
2141
2156
2156
2156
2156
2146
2146
2146
2146
2146
2146
2147
2147
2147
2142
2142
2142
2146
2146
2146
2146
2146
2146
2146
2142
2142
2142
2144
2144
2144
2143
2143
2143
2146
2146
2146
2146
2144
2144
2144
2147
2147
2147
2149
2149
2149
2144
2144
2144
2147
2147
2147
2147
2146
2146
2146
2143
2143
2143
2146
2146
2146
2145
2145
2145
2147
2147
2147
2147
2147
2147
2147
2135
2135
2135
2146
2146
2146
2140
2140
2140
2145
2145
2145
2145
2149
2149
2149
2146
2146
2146
2149
2149
2149
2143
2143
2143
2143
2143
2143
2143
2149
2149
2149
2140
2140
2140
2146
2146
2146
2141
2141
2141
2144
2144
2144
2144
2144
2144
2144
2152
2152
2152
2145
2145
2145
2141
2141
2141
2145
2145
2145
2145
2146
2146
2146
2149
2149
2149
2148
2148
2148
2141
2141
2141
2150
2150
2150
2150
2143
2143
2143
2146
2146
2146
2146
2146
2146
2143
2143
2143
2140
2140
2140
2140
2147
2147
2147
2148
2148
2148
2147
2147
2147
2143
2143
2143
2149
2149
2149
2149
2147
2147
2147
2146
2146
2146
2145
2145
2145
2140
2140
2140
2148
2148
2148
2148
2145
2145
2145
2139
2139
2139
2146
2146
2146
2148
2148
2148
2141
2141
2141
2141
2145
2145
2145
2141
2141
2141
2146
2146
2146
2142
2142
2142
2146
2146
2146
2146
2146
2146
2146
2150
2150
2150
2146
2146
2146
2143
2143
2143
2143
2143
2143
2143
2145
2145
2145
2144
2144
2144
2147
2147
2147
2143
2143
2143
2148
2148
2148
2148
2145
2145
2145
2153
2153
2153
2147
2147
2147
2142
2142
2142
2147
2147
2147
2147
2144
2144
2144
2143
2143
2143
2146
2146
2146
2145
2145
2145
2144
2144
2144
2144
2145
2145
2145
2140
2140
2140
2146
2146
2146
2149
2149
2149
2144
2144
2144
2144
2145
2145
2145
2140
2140
2140
2147
2147
2147
2141
2141
2141
2145
2145
2145
2145
2147
2147
2147
2135
2135
2135
2147
2147
2147
2141
2141
2141
2144
2144
2144
2144
2145
2145
2145
2141
2141
2141
2144
2144
2144
2143
2143
2143
2148
2148
2148
2148
2146
2146
2146
2143
2143
2143
2146
2146
2146
2141
2141
2141
2149
2149
2149
2149
2149
2149
2149
2140
2140
2140
2146
2146
2146
2145
2145
2145
2147
2147
2147
2147
2151
2151
2151
2143
2143
2143
2147
2147
2147
2141
2141
2141
2145
2145
2145
2145
2145
2145
2145
2143
2143
2143
2148
2148
2148
2143
2143
2143
2146
2146
2146
2146
2143
2143
2143
2140
2140
2140
2143
2143
2143
2145
2145
2145
2151
2151
2151
2151
2147
2147
2147
2142
2142
2142
2147
2147
2147
2142
2142
2142
2141
2141
2141
2141
2147
2147
2147
2147
2147
2147
2146
2146
2146
2144
2144
2144
2142
2142
2142
2142
2147
2147
2147
2144
2144
2144
2146
2146
2146
2143
2143
2143
2148
2148
2148
2148
2146
2146
2146
2135
2135
2135
2146
2146
2146
2141
2141
2141
2140
2140
2140
2140
2145
2145
2145
2141
2141
2141
2145
2145
2145
2145
2145
2145
2148
2148
2148
2148
2147
2147
2147
2138
2138
2138
2145
2145
2145
2142
2142
2142
2150
2150
2150
2150
2143
2143
2143
2142
2142
2142
2147
2147
2147
2141
2141
2141
2141
2141
2141
2141
2150
2150
2150
2142
2142
2142
2151
2151
2151
2142
2142
2142
2147
2147
2147
2147
2142
2142
2142
2143
2143
2143
2144
2144
2144
2141
2141
2141
2140
2140
2140
2140
2146
2146
2146
2143
2143
2143
2145
2145
2145
2141
2141
2141
2148
2148
2148
2148
2146
2146
2146
2142
2142
2142
2144
2144
2144
2142
2142
2142
2147
2147
2147
2147
2148
2148
2148
2139
2139
2139
2150
2150
2150
2140
2140
2140
2147
2147
2147
2147
2148
2148
2148
2144
2144
2144
2145
2145
2145
2143
2143
2143
2144
2144
2144
2144
2144
2144
2144
2143
2143
2143
2155
2155
2155
2143
2143
2143
2146
2146
2146
2146
2145
2145
2145
2143
2143
2143
2138
2138
2138
2141
2141
2141
2146
2146
2146
2146
2146
2146
2146
2142
2142
2142
2142
2142
2142
2142
2142
2142
2147
2147
2147
2147
2146
2146
2146
2141
2141
2141
2147
2147
2147
2144
2144
2144
2144
2144
2144
2144
2146
2146
2146
2143
2143
2143
2143
2143
2143
2145
2145
2145
2145
2145
2145
2145
2146
2146
2146
2139
2139
2139
2143
2143
2143
2142
2142
2142
2147
2147
