2145
2138
2138
2138
2145
2145
2145
2133
2133
2133
2141
2141
2141
2141
2140
2140
2140
2137
2137
2137
2141
2141
2141
2139
2139
2139
2140
2140
2140
2140
2142
2142
2142
2136
2136
2136
2139
2139
2139
2138
2138
2138
2140
2140
2140
2140
2138
2138
2138
2138
2138
2138
2141
2141
2141
2137
2137
2137
2143
2143
2143
2143
2135
2135
2135
2134
2134
2134
2138
2138
2138
2135
2135
2135
2140
2140
2140
2140
2143
2143
2143
2134
2134
2140
2140
2138
2138
2138
2142
2142
2142
2137
2137
2137
2143
2143
2143
2143
2139
2139
2139
2135
2135
2135
2139
2139
2139
2136
2136
2136
2140
2140
2140
2140
2143
2143
2143
2136
2136
2136
2138
2138
2138
2134
2134
2134
2138
2138
2138
2138
2141
2141
2141
2137
2137
2137
2141
2141
2141
2141
2141
2141
2138
2138
2138
2138
2144
2144
2144
2140
2140
2140
2139
2139
2139
2139
2139
2139
2145
2145
2145
2145
2140
2140
2140
2137
2137
2137
2142
2142
2142
2134
2134
2134
2138
2138
2138
2138
2141
2141
2141
2136
2136
2136
2143
2143
2143
2139
2139
2139
2142
2142
2142
2142
2141
2141
2141
2139
2139
2139
2144
2144
2144
2140
2140
2140
2141
2141
2141
2141
2142
2142
2142
2138
2138
2138
2138
2138
2138
2136
2136
2136
2141
2141
2141
2141
2144
2144
2144
2140
2140
2140
2134
2134
2134
2133
2133
2133
2141
2141
2141
2141
2139
2139
2139
2136
2136
2136
2140
2140
2140
2138
2138
2138
2140
2140
2140
2140
2143
2143
2143
2140
2140
2140
2137
2137
2137
2137
2137
2137
2143
2143
2143
2143
2142
2142
2142
2139
2139
2139
2142
2142
2142
2138
2138
2138
2142
2142
2142
2142
2142
2142
2142
2139
2139
2139
2139
2139
2139
2137
2137
2137
2141
2141
2141
2141
2141
2141
2141
2136
2136
2136
2141
2141
2141
2136
2136
2136
2141
2141
2141
2141
2144
2144
2144
2138
2138
2138
2142
2142
2142
2137
2137
2137
2141
2141
2141
2141
2139
2139
2139
2137
2137
2137
2142
2142
2142
2139
2139
2139
2141
2141
2141
2141
2137
2137
2137
2138
2138
2138
2139
2139
2139
2135
2135
2135
2141
2141
2141
2141
2139
2139
2139
2138
2138
2138
2143
2143
2143
2136
2136
2136
2142
2142
2142
2142
2141
2141
2141
2138
2138
2138
2140
2140
2140
2137
2137
2137
2141
2141
2141
2141
2144
2144
2144
2139
2139
2139
2142
2142
2142
2141
2141
2141
2142
2142
2142
2142
2139
2139
2139
2136
2136
2136
2142
2142
2142
2137
2137
2137
2138
2138
2138
2138
2143
2143
2143
2140
2140
2140
2142
2142
2142
2138
2138
2138
2148
2148
2148
2148
2140
2140
2140
2133
2133
2133
2140
2140
2140
2137
2137
2137
2141
2141
2141
2141
2139
2139
2139
2137
2137
2137
2140
2140
2140
2135
2135
2135
2141
2141
2141
2141
2140
2140
2140
2136
2136
2136
2138
2138
2138
2137
2137
2137
2141
2141
2141
2141
2141
2141
2141
2137
2137
2137
2140
2140
2140
2138
2138
2138
2143
2143
2143
2143
2141
2141
2141
2136
2136
2136
2139
2139
2139
2135
2135
2135
2140
2140
2140
2140
2140
2140
2140
2137
2137
2137
2140
2140
2140
2133
2133
2133
2137
2137
2137
2137
2141
2141
2141
2138
2138
2138
2139
2139
2139
2135
2135
2135
2142
2142
2142
2142
2141
2141
2141
2136
2136
2136
2137
2137
2137
2133
2133
2133
2140
2140
2140
2140
2142
2142
2142
2137
2137
2137
2138
2138
2138
2142
2142
2142
2142
2142
2142
2142
2141
2141
2141
2138
2138
2138
2139
2139
2139
2136
2136
2136
2141
2141
2141
2141
2139
2139
2139
2139
2139
2139
2145
2145
2145
2137
2137
2137
2141
2141
2141
2141
2141
2141
2141
2141
2141
2141
2137
2137
2137
2136
2136
2136
2140
2140
2140
2140
2140
2140
2140
2134
2134
2134
2141
2141
2141
2140
2140
2140
2141
2141
2141
2141
2139
2139
2139
2133
2133
2133
2139
2139
2139
2136
2136
2136
2144
2144
2144
2144
2134
2134
2134
2132
2132
2132
2142
2142
2142
2138
2138
2138
2140
2140
2140
2140
2137
2137
2137
2140
2140
2140
2140
2140
2140
2138
2138
2138
2139
2139
2139
2139
2146
2146
2146
2135
2135
2135
2142
2142
2142
2136
2136
2136
2141
2141
2141
2141
2141
2141
2141
2137
2137
2137
2142
2142
2142
2136
2136
2136
2141
2141
2141
2141
2141
2141
2141
2137
2137
2137
2141
2141
2141
2133
2133
2133
2142
2142
2142
2142
2143
2143
2143
2135
2135
2135
2140
2140
2140
2137
2137
2137
2140
2140
2140
2140
2141
2141
2141
2137
2137
2137
2143
2143
2143
2138
2138
2138
2142
2142
2142
2142
2141
2141
2141
2136
2136
2136
2139
2139
2139
2138
2138
2138
2143
2143
2143
2143
2140
2140
2140
2136
2136
2136
2139
2139
2139
2135
2135
2135
2140
2140
2140
2140
2141
2141
2141
2136
2136
2136
2142
2142
2142
2143
2143
2143
2140
2140
2140
2140
2139
2139
2139
2137
2137
2137
2142
2142
2142
2138
2138
2138
2140
2140
2140
2140
2141
2141
2141
2137
2137
2137
2141
2141
2141
2137
2137
2137
2140
2140
2140
2140
2144
2144
2144
2138
2138
2138
2143
2143
2143
2135
2135
2135
2145
2145
2145
2145
2143
2143
2143
2136
2136
2136
2139
2139
2139
2135
2135
2135
2140
2140
2140
2140
2142
2142
2142
2137
2137
2137
2141
2141
2141
2136
2136
2136
2143
2143
2143
2143
2141
2141
2141
2137
2137
2137
2141
2141
2141
2135
2135
2135
2135
2135
2135
2135
2142
2142
2142
2137
2137
2137
2141
2141
2141
2139
2139
2139
2141
2141
2141
2141
2139
2139
2139
2136
2136
2136
2138
2138
2138
2133
2133
2133
2140
2140
2140
2140
2140
2140
2140
2137
2137
2137
2140
2140
2140
2140
2140
2140
2140
2140
2140
2140
2141
2141
2141
2136
2136
2136
2141
2141
2141
2144
2144
2144
2146
2146
2146
2146
2140
2140
2140
2137
2137
2137
