1989
1989
1989
1984
1984
1984
1992
1992
1992
1992
1988
1988
1988
1989
1989
1989
1986
1986
1986
1993
1993
1993
1987
1987
1987
1987
1991
1991
1991
1998
1998
1998
1991
1991
1991
1987
1987
1987
1991
1991
1991
1991
1988
1988
1988
1996
1996
1996
1991
1991
1991
1989
1989
1989
1991
1991
1991
1991
1994
1994
1994
1997
1997
1997
1990
1990
1990
1990
1990
1990
1991
1991
1991
1991
1997
1997
1997
1992
1992
1992
1993
1993
1993
1988
1988
1988
1994
1994
1994
1992
1992
1992
1992
1987
1987
1987
1992
1992
1992
1987
1987
1987
1991
1991
1991
1990
1990
1990
1990
1989
1989
1989
1995
1995
1995
1990
1990
1990
1995
1995
1995
1984
1984
1984
1984
1991
1991
1991
1993
1993
1993
1989
1989
1989
1990
1990
1990
1990
1990
1990
1990
1996
1996
1996
1991
1991
1991
1992
1992
1992
1991
1991
1991
1991
1991
1991
1991
1989
1989
1989
1992
1992
1992
1992
1992
1992
1991
1991
1991
1988
1988
1988
1988
1989
1989
1989
1992
1992
1992
1999
1999
1999
1991
1991
1991
1991
1991
1991
1991
1991
1991
1991
1993
1993
1993
1988
1988
1988
1991
1991
1991
1991
1991
1991
1991
1989
1989
1989
1992
1992
1992
1988
1988
1988
1990
1990
1990
1994
1994
1994
1994
1990
1990
1990
1991
1991
1991
1992
1992
1992
1988
1988
1988
1989
1989
1989
1989
1990
1990
1990
1978
1978
1978
1989
1989
1989
1990
1990
1990
1990
1990
1990
1990
1989
1989
1989
1992
1992
1992
1989
1989
1989
1991
1991
1991
1992
1992
1992
1992
1993
1993
1993
1990
1990
1990
1991
1991
1991
1989
1989
1989
1986
1986
1986
1986
1986
1986
1986
1978
1978
1978
1989
1989
1989
1992
1992
1992
1992
1992
1992
1992
1990
1990
1990
1990
1990
1990
1991
1991
1991
1992
1992
1992
1989
1989
1989
1989
1991
1991
1991
1990
1990
1990
1986
1986
1986
1992
1992
1992
1991
1991
1991
1991
1991
1991
1991
1989
1989
1989
1989
1989
1989
1990
1990
1990
1987
1987
1987
1987
1989
1989
1989
1992
1992
1992
1992
1992
1992
1992
1992
1992
1986
1986
1986
1986
1989
1989
1989
1991
1991
1991
1992
1992
1992
1989
1989
1989
1989
1989
1989
1989
1989
1989
1989
1992
1992
1992
1993
1993
1993
1988
1988
1988
1994
1994
1994
1994
1987
1987
1987
1994
1994
1994
1985
1985
1985
1991
1991
1991
1990
1990
1990
1990
1991
1991
1991
1984
1984
1984
1991
1991
1991
1989
1989
1989
1987
1987
1987
1987
1987
1987
1987
1990
1990
1990
1990
1990
1990
1991
1991
1991
1986
1986
1986
1986
1991
1991
1991
1993
1993
1993
1993
1993
1993
1991
1991
1991
1988
1988
1988
1988
1988
1988
1988
1993
1993
1993
1991
1991
1991
1993
1993
1993
1987
1987
1987
1987
1989
1989
1989
1991
1991
1991
1991
1991
1991
1993
1993
1993
1989
1989
1989
1989
1990
1990
1990
1992
1992
1992
1994
1994
1994
1989
1989
1989
1993
1993
1993
1993
1997
1997
1997
1993
1993
1993
1990
1990
1990
1990
1990
1990
1988
1988
1988
1988
1989
1989
1989
1991
1991
1991
1991
1991
1991
1991
1991
1991
1985
1985
1985
1985
1988
1988
1988
1991
1991
1991
1992
1992
1992
1991
1991
1991
1990
1990
1990
1990
1990
1990
1990
1993
1993
1993
1990
1990
1990
1990
1990
1990
1986
1986
1986
1986
1989
1989
1989
1991
1991
1991
1991
1991
1991
1990
1990
1990
1989
1989
1989
1989
1990
1990
1990
1990
1990
1990
1990
1990
1990
1994
1994
1994
1989
1989
1989
1989
1988
1988
1988
1988
1988
1988
1987
1987
1987
1989
1989
1989
1991
1991
1991
1991
1987
1987
1987
1993
1993
1993
1992
1992
1992
1990
1990
1990
1988
1988
1988
1988
1991
1991
1991
1990
1990
1990
1990
1990
1990
1993
1993
1993
1994
1994
1994
1994
1988
1988
1988
1986
1986
1986
1991
1991
1991
1992
1992
1992
1992
1992
1992
1992
1991
1991
1991
1994
1994
1994
1991
1991
1991
1991
1991
1991
1990
1990
1990
1990
1991
1991
1991
1991
1991
1991
1987
1987
1987
1991
1991
1991
1995
1995
1995
1995
1990
1990
1990
1988
1988
1988
1988
1988
1988
1990
1990
1990
1990
1990
1990
1990
1990
1990
1990
1995
1995
1995
1989
1989
1989
1991
1991
1991
1985
1985
1985
1985
1988
1988
1988
1992
1992
1992
1988
1988
1988
1988
1988
1988
1990
1990
1990
1990
1989
1989
1989
1991
1991
1991
1990
1990
1990
1990
1990
1990
1994
1994
1994
1994
1993
1993
1993
1995
1995
1995
1986
1986
1986
1990
1990
1990
1995
1995
1995
1995
1989
1989
1989
1991
1991
1991
1989
1989
1989
1992
1992
1992
1991
1991
1991
1991
1991
1991
1991
1991
1991
1991
1992
1992
1992
1986
1986
1986
1989
1989
1989
1989
1993
1993
1993
1990
1990
1990
1989
1989
1989
1993
1993
1993
1990
1990
1990
1990
1990
1990
1990
1990
1990
1990
1994
1994
1994
1990
1990
1990
1990
1990
1990
1990
1990
1990
1990
1992
1992
1992
1988
1988
1988
1985
1985
1985
1995
1995
1995
1995
1993
1993
1993
1988
1988
1988
1989
1989
1989
1991
1991
1991
1991
1991
1991
1991
1992
1992
1992
1987
1987
1987
1987
1987
1987
1990
1990
1990
1991
1991
1991
1991
1991
1991
1991
1992
1992
1992
1992
1992
1992
1995
1995
1995
1987
1987
1987
1987
1990
1990
1990
1990
1990
1990
1999
1999
1999
1994
1994
1994
1995
1995
1995
1995
1989
1989
1989
1997
1997
1997
1991
1991
1991
1989
1989
1989
1986
1986
1986
1986
1991
1991
1991
1989
1989
1989
1989
1989
1989
1993
1993
1993
1987
1987
1987
1987
1989
1989
1989
1991
1991
1991
1987
1987
1987
1990
1990
1990
1990
1990
1990
1990
1989
1989
1989
1992
1992
1992
1994
1994
1994
1991
1991
1991
1993
1993
1993
1993
1990
1990
1990
1986
1986
1986
1990
1990
1990
1990
1990
