2108
2105
2105
2105
2106
2106
2106
2110
2110
2110
2104
2104
2104
2107
2107
2107
2107
2107
2107
2107
2106
2106
2106
2109
2109
2109
2106
2106
2106
2108
2108
2108
2108
2107
2107
2107
2107
2107
2107
2106
2106
2106
2106
2106
2106
2106
2106
2106
2106
2106
2106
2106
2108
2108
2108
2105
2105
2105
2108
2108
2108
2108
2108
2108
2108
2107
2107
2107
2107
2107
2107
2109
2109
2109
2108
2108
2108
2104
2104
2104
2104
2106
2106
2106
2111
2111
2111
2105
2105
2105
2109
2109
2109
2106
2106
2106
2106
2105
2105
2105
2107
2107
2107
2106
2106
2106
2108
2108
2108
2106
2106
2106
2106
2106
2106
2106
2109
2109
2109
2105
2105
2105
2108
2108
2108
2105
2105
2105
2105
2105
2105
2105
2106
2106
2106
2108
2108
2108
2103
2103
2103
2108
2108
2108
2108
2105
2105
2105
2107
2107
2107
2108
2108
2108
2105
2105
2105
2109
2109
2109
2109
2105
2105
2105
2108
2108
2108
2106
2106
2106
2107
2107
2107
2108
2108
2108
2108
2106
2106
2106
2106
2106
2106
2106
2106
2106
2105
2105
2105
2107
2107
2107
2107
2106
2106
2106
2106
2106
2106
2106
2106
2106
2108
2108
2108
2108
2108
2108
2108
2107
2107
2107
2109
2109
2109
2105
2105
2105
2104
2104
2104
2105
2105
2105
2105
2105
2105
2105
2100
2100
2100
2107
2107
2107
2105
2105
2105
2106
2106
2106
2106
2112
2112
2112
2106
2106
2106
2108
2108
2108
2107
2107
2107
2108
2108
2108
2108
2104
2104
2104
2109
2109
2109
2105
2105
2105
2109
2109
2109
2106
2106
2106
2106
2105
2105
2105
2108
2108
2108
2109
2109
2109
2102
2102
2102
2106
2106
2106
2106
2104
2104
2104
2107
2107
2107
2106
2106
2106
2107
2107
2107
2106
2106
2106
2106
2104
2104
2104
2109
2109
2109
2104
2104
2104
2107
2107
2107
2105
2105
2105
2105
2107
2107
2107
2109
2109
2109
2107
2107
2107
2109
2109
2109
2106
2106
2106
2106
2104
2104
2104
2108
2108
2108
2108
2108
2108
2107
2107
2107
2104
2104
2104
2104
2106
2106
2106
2107
2107
2107
2108
2108
2108
2108
2108
2108
2107
2107
2107
2107
2104
2104
2104
2100
2100
2100
2106
2106
2106
2108
2108
2108
2106
2106
2106
2106
2107
2107
2107
2108
2108
2108
2108
2108
2108
2106
2106
2106
2108
2108
2108
2108
2108
2108
2108
2108
2108
2108
2108
2108
2108
2108
2108
2108
2108
2108
2108
2108
2104
2104
2104
2107
2107
2107
2106
2106
2106
2103
2103
2103
2109
2109
2109
2109
2106
2106
2106
2106
2106
2106
2105
2105
2105
2107
2107
2107
2105
2105
2105
2105
2105
2105
2105
2101
2101
2101
2107
2107
2107
2108
2108
2108
2105
2105
2105
2105
2106
2106
2106
2107
2107
2107
2105
2105
2105
2108
2108
2108
2105
2105
2105
2105
2108
2108
2108
2108
2108
2108
2105
2105
2105
2108
2108
2108
2104
2104
2104
2104
2106
2106
2106
2106
2106
2106
2106
2106
2106
2105
2105
2105
2104
2104
2104
2104
2112
2112
2112
2104
2104
2104
2109
2109
2109
2107
2107
2107
2106
2106
2106
2106
2107
2107
2107
2104
2104
2104
2107
2107
2107
2105
2105
2105
2106
2106
2106
2106
2107
2107
2107
2110
2110
2110
2108
2108
2108
2105
2105
2105
2108
2108
2108
2108
2106
2106
2106
2108
2108
2108
2104
2104
2104
2108
2108
2108
2110
2110
2110
2110
2107
2107
2107
2106
2106
2106
2109
2109
2109
2107
2107
2107
2108
2108
2108
2108
2110
2110
2110
2106
2106
2106
2108
2108
2108
2108
2108
2108
2107
2107
2107
2107
2112
2112
2112
2106
2106
2106
2108
2108
2108
2107
2107
2107
2106
2106
2106
2106
2104
2104
2104
2107
2107
2107
2107
2107
2107
2107
2107
2107
2102
2102
2102
2102
2106
2106
2106
2109
2109
2109
2109
2109
2109
2104
2104
2104
2106
2106
2106
2106
2105
2105
2105
2107
2107
2107
2105
2105
2105
2109
2109
2109
2101
2101
2101
2101
2106
2106
2106
2106
2106
2106
2107
2107
2107
2106
2106
2106
2105
2105
2105
2105
2105
2105
2105
2110
2110
2110
2105
2105
2105
2107
2107
2107
2108
2108
2108
2108
2108
2108
2108
2106
2106
2106
2108
2108
2108
2106
2106
2106
2105
2105
2105
2105
2109
2109
2109
2107
2107
2107
2106
2106
2106
2104
2104
2104
2105
2105
2105
2105
2104
2104
2104
2105
2105
2105
2106
2106
2106
2108
2108
2108
2104
2104
2104
2104
2108
2108
2108
2108
2108
2108
2104
2104
2104
2107
2107
2107
2109
2109
2109
2109
2107
2107
2107
2105
2105
2105
2107
2107
2107
2113
2113
2113
2104
2104
2104
2104
2105
2105
2105
2121
2121
2121
2106
2106
2106
2107
2107
2107
2107
2107
2107
2107
2109
2109
2109
2107
2107
2107
2106
2106
2106
2105
2105
2105
2107
2107
2107
2107
2108
2108
2108
2106
2106
2106
2106
2106
2106
2107
2107
2107
2108
2108
2108
2108
2106
2106
2106
2107
2107
2107
2104
2104
2104
2107
2107
2107
2109
2109
2109
2109
2106
2106
2106
2109
2109
2109
2105
2105
2105
2104
2104
2104
2108
2108
2108
2108
2105
2105
2105
2111
2111
2111
2109
2109
2109
2107
2107
2107
2107
2107
2107
2107
2102
2102
2102
2107
2107
2107
2104
2104
2104
2107
2107
2107
2106
2106
2106
2106
2108
2108
2108
2108
2108
2108
2108
2108
2108
2106
2106
2106
2104
2104
2104
2104
2108
2108
2108
2106
2106
2106
2105
2105
2105
2104
2104
2104
2105
2105
2105
2105
2095
2095
2095
2108
2108
2108
2104
2104
2104
2106
2106
2106
2106
2106
2106
2106
2107
2107
2107
2107
2107
2107
2108
2108
2108
2109
2109
2109
2107
2107
2107
2107
2103
2103
2103
2108
2108
2108
2106
2106
2106
2106
2106
2106
2106
2106
2106
2106
2105
2105
2105
2107
2107
2107
2107
2107
2107
2105
2105
2105
2106
2106
2106
2106
2107
2107
2107
2108
2108
2108
2110
2110
2110
2111
2111
2111
2107
2107
2107
2107
2105
2105
2105
2103
2103
2103
2106
2106
2106
2107
2107
2107
2105
2105
2105
2105
2110
2110
2110
2108
2108
2108
2105
2105
2105
2107
2107
2107
2107
2107
2107
2107
2107
2107
2107
2104
2104
2104
2107
2107
2107
2108
2108
2108
2103
2103
2103
2103
2102
2102
2102
2105
2105
2105
2105
2105
2105
2109
2109
2109
2107
2107
2107
2107
2107
2107
2107
2105
2105
2105
2107
2107
2107
2108
2108
2108
2107
2107
2107
2107
2103
2103
2103
2108
2108
2108
2106
2106
2106
2107
2107
2107
2109
2109
2109
2109
2107
2107
2107
2111
2111
2111
2110
2110
2110
2107
2107
2107
2107
2107
2107
2107
2105
2105
2105
2108
2108
2108
2109
2109
2109
2111
2111
2111
2104
2104
2104
2104
2104
2104
2104
2105
2105
2105
2102
2102
2102
2107
2107
2107
2105
2105
2105
2105
2104
2104
2104
2108
2108
2108
2108
2108
2108
2106
2106
2106
2104
2104
2104
2104
2103
2103
2103
2106
2106
2106
2107
2107
2107
2105
2105
2105
2106
2106
2106
2106
2107
2107
2107
2108
2108
2108
2107
2107
2107
2111
2111
2111
2106
2106
2106
2106
2106
2106
2106
2109
2109
2109
2107
2107
2107
2105
2105
2105
2103
2103
2103
2103
2104
2104
2104
2104
2104
2104
2104
2104
2104
2107
2107
2107
2106
2106
2106
2106
2110
2110
2110
2108
2108
2108
2105
2105
2105
2106
2106
2106
2107
2107
2107
2107
2105
2105
2105
2105
2105
2105
2107
2107
2107
2107
2107
2107
2106
2106
2106
2106
2105
2105
2105
2107
2107
2107
2104
2104
2104
2104
2104
2104
2106
2106
2106
2106
2104
2104
2104
2108
2108
2108
2109
2109
2109
2107
2107
2107
2108
2108
2108
2108
2106
2106
2106
2106
2106
2106
2110
2110
2110
2107
2107
2107
2107
2107
2107
2107
2106
2106
2106
2106
2106
2106
2106
2106
2106
2112
2112
2112
2106
2106
2106
2106
2104
2104
2104
2107
2107
2107
2103
2103
2103
2109
2109
2109
2109
2109
2109
2109
2104
2104
2104
2106
2106
2106
2107
2107
2107
2106
2106
2106
2110
2110
2110
2110
2105
2105
2105
2104
2104
2104
2107
2107
2107
2106
2106
2106
2094
2094
2094
2094
2105
2105
2105
2107
2107
2107
2107
2107
2107
2106
2106
2106
2108
2108
2108
2108
2105
2105
2105
2105
2105
2105
2105
2105
2105
2108
2108
2108
2108
2108
2108
2108
2105
2105
2105
2106
2106
2106
2106
2106
2106
2110
2110
2110
2109
2109
2109
2109
2108
2108
2108
2105
2105
2105
2106
2106
2106
2109
2109
2109
2106
2106
2106
2106
2107
2107
2107
2105
2105
2105
2107
2107
2107
2106
2106
2106
2104
2104
2104
2104
2100
2100
2100
2105
2105
2105
2108
2108
2108
2107
2107
2107
2105
2105
2105
2105
2108
2108
2108
2109
2109
2109
2109
2109
2109
2109
2109
2109
2109
2109
2109
2109
2104
2104
2104
2109
2109
2109
2109
2109
2109
2108
2108
2108
2105
2105
2105
2105
2105
2105
2105
2101
2101
2101
2108
2108
2108
2107
2107
2107
2107
2107
2107
2107
2102
2102
2102
2106
2106
2106
2105
2105
2105
2108
2108
2108
2104
2104
2104
2104
2108
2108
2108
2104
2104
2104
2108
2108
2108
2107
2107
2107
2106
2106
2106
2106
2106
2106
2106
2108
2108
2108
2105
2105
2105
2106
2106
2106
2103
2103
2103
2103
2105
2105
2105
2108
2108
2108
2101
2101
2101
2107
2107
2107
2110
2110
2110
2110
2104
2104
2104
2104
2104
2104
2105
2105
2105
2107
2107
2107
2105
2105
2105
2105
2105
2105
2105
2107
2107
2107
2107
2107
2107
2107
2107
2107
2107
2107
2107
2107
2109
2109
2109
2107
2107
2107
2106
2106
2106
2105
2105
2105
2099
2099
2099
2099
2109
2109
2109
2109
2109
2109
2107
2107
2107
2110
2110
2110
2107
2107
2107
2107
2106
2106
2106
2107
2107
2107
2106
2106
2106
2107
2107
2107
2105
2105
2105
2105
2107
2107
2107
2105
2105
2105
2107
2107
2107
2107
2107
2107
2110
2110
2110
2110
2107
2107
2107
2105
2105
2105
2106
2106
2106
2107
2107
2107
2105
2105
2105
2105
2109
2109
2109
2109
2109
2109
2105
2105
2105
2106
2106
2106
2108
2108
2108
2108
2105
2105
2105
2109
2109
2109
2106
2106
2106
2105
2105
2105
2107
2107
2107
2107
2106
2106
2106
2105
2105
2105
2108
2108
2108
2105
2105
2105
2104
2104
2104
2104
2106
2106
2106
2106
2106
2106
2109
2109
2109
2105
2105
2105
2105
2105
2105
2105
2105
2105
2105
2108
2108
2108
2105
2105
2105
2110
2110
2110
2100
2100
2100
2100
2106
2106
2106
2107
2107
2107
2107
2107
2107
2110
2110
2110
2100
2100
2100
2100
2106
2106
2106
2108
2108
2108
2105
2105
2105
2104
2104
2104
2106
2106
2106
2106
2105
2105
2105
2106
2106
2106
2108
2108
2108
2110
2110
2110
2105
2105
2105
2105
2107
2107
2107
2109
2109
2109
2106
2106
2106
2114
2114
2114
2106
2106
2106
2106
2106
2106
2106
2108
2108
2108
2105
2105
2105
2105
2105
2105
2105
2105
2105
2105
2108
2108
2108
2106
2106
2106
2102
2102
2102
2106
2106
2106
2108
2108
2108
2108
2105
2105
2105
2109
2109
2109
2106
2106
2106
2107
2107
2107
2107
2107
2107
2107
2105
2105
2105
2108
2108
2108
2109
2109
2109
2107
2107
2107
2106
2106
2106
2106
2107
2107
2107
2108
2108
2108
2107
2107
2107
2107
2107
2107
2106
2106
2106
2106
2108
2108
2108
2105
2105
2105
2109
2109
2109
2107
2107
2107
2108
2108
2108
2108
2108
2108
2108
2107
2107
2107
2106
2106
2106
2107
2107
2107
2106
2106
2106
2106
2105
2105
2105
2109
2109
2109
2105
2105
2105
2107
2107
2107
2108
2108
2108
2108
2105
2105
2105
2107
2107
2107
2107
2107
2107
2105
2105
2105
2106
2106
2106
2106
2106
2106
2106
2108
2108
2108
2105
2105
2105
2111
2111
2111
2106
2106
2106
2106
2106
2106
2106
2109
2109
2109
2102
2102
2102
2107
2107
2107
2102
2102
2102
2102
2107
2107
2107
2109
2109
2109
2106
2106
2106
2106
2106
2106
2106
2106
2106
2106
2113
2113
2113
2107
2107
2107
2108
2108
2108
2103
2103
2103
2106
2106
2106
2106
2105
2105
2105
2104
2104
2104
2107
2107
2107
2106
2106
2106
2108
2108
2108
2108
2105
2105
2105
2107
2107
2107
2106
2106
2106
2110
2110
2110
2106
2106
2106
2106
2107
2107
2107
2106
2106
2106
2107
2107
2107
2106
2106
2106
2109
2109
2109
2109
2106
2106
2106
2107
2107
2107
2104
2104
2104
2107
2107
2107
2103
2103
2103
2103
2106
2106
2106
2108
2108
2108
2105
2105
2105
2105
2105
2105
2108
2108
2108
2108
2109
2109
2109
2108
2108
2108
2108
2108
2108
2105
2105
2105
2108
2108
2108
2108
2107
2107
2107
2111
2111
2111
2110
2110
2110
2108
2108
2108
2108
2108
2108
2108
2105
2105
2105
2107
2107
2107
2107
2107
2107
2110
2110
2110
2107
2107
2107
2107
2108
2108
2108
2109
2109
2109
2109
2109
2109
2106
2106
2106
2105
2105
2105
2105
2107
2107
2107
2108
2108
2108
2105
2105
2105
2112
2112
2112
2106
2106
2106
2106
2107
2107
2107
2109
2109
2109
2105
2105
2105
2107
2107
2107
2109
2109
2109
2109
2104
2104
2104
2107
2107
2107
2103
2103
2103
2109
2109
2109
2104
2104
2104
2104
2106
2106
2106
2107
2107
2107
2106
2106
2106
2109
2109
2109
2106
2106
2106
2106
2107
2107
2107
2109
2109
2109
2107
2107
2107
2107
2107
2107
2104
2104
2104
2104
2109
2109
2109
2105
2105
2105
2109
2109
2109
2104
2104
2104
2107
2107
2107
2107
2104
2104
2104
2102
2102
2102
2106
2106
2106
2105
2105
2105
2105
2105
2105
2105
2110
2110
2110
2107
2107
2107
2106
2106
2106
2108
2108
2108
2107
2107
2107
2107
2106
2106
2106
2107
2107
2107
2109
2109
2109
2109
2109
2109
2108
2108
2108
2108
2106
2106
2106
2105
2105
2105
2109
2109
2109
2106
2106
2106
2107
2107
2107
2107
2104
2104
2104
2110
2110
2110
2106
2106
2106
2106
2106
2106
2105
2105
2105
2105
2104
2104
2104
2108
2108
2108
2108
2108
2108
2108
2108
2108
2108
2108
2108
2108
2107
2107
2107
2104
2104
2104
2107
2107
2107
2106
2106
2106
2108
2108
2108
2108
2102
2102
2102
2109
2109
2109
2107
2107
2107
2107
2107
2107
2106
2106
2106
2106
2107
2107
2107
2106
2106
2106
2107
2107
2107
2107
2107
2107
2104
2104
2104
2104
2104
2104
2104
2108
2108
2108
2106
2106
2106
2109
2109
2109
2106
2106
2106
2106
2109
2109
2109
2108
2108
2108
2107
2107
2107
2107
2107
2107
2106
2106
2106
2106
2105
2105
2105
2106
2106
2106
2107
2107
2107
2105
2105
2105
2104
2104
2104
2104
2106
2106
2106
2105
2105
2105
2108
2108
2108
2107
2107
2107
2107
2107
2107
2107
2105
2105
2105
2106
2106
2106
2105
2105
2105
2109
2109
2109
2107
2107
2107
2107
2106
2106
2106
2108
2108
2108
2108
2108
2108
2109
2109
2109
2105
2105
2105
2105
2106
2106
2106
2106
2106
2106
2107
2107
2107
2107
2107
2107
2106
2106
2106
2106
2110
2110
2110
2105
2105
2105
2106
2106
2106
2104
2104
2104
2106
2106
2106
2106
2101
2101
2101
2107
2107
2107
2107
2107
2107
2107
2107
2107
2105
2105
2105
2105
2106
2106
2106
2108
2108
2108
2106
2106
2106
2106
2106
2106
2107
2107
2107
2107
2103
2103
2103
2109
2109
2109
2106
2106
2106
2103
2103
2103
2103
2103
2103
2103
2105
2105
2105
2111
2111
2111
2105
2105
2105
2105
2105
2105
2105
2105
2105
2105
2104
2104
2104
2106
2106
2106
2105
2105
2105
2108
2108
2108
2107
2107
2107
2107
2105
2105
2105
2106
2106
2106
2107
2107
2107
2105
2105
2105
2108
2108
2108
2108
2103
2103
2103
2112
2112
2112
2106
2106
2106
2107
2107
2107
2103
2103
2103
2103
2103
2103
2103
2106
2106
2106
2105
2105
2105
2103
2103
2103
2107
2107
2107
2107
2108
2108
2108
2108
2108
2108
2108
2108
2108
2107
2107
2107
2108
2108
2108
2108
2104
2104
2104
2107
2107
2107
2106
2106
2106
2107
2107
2107
2107
2107
2107
2107
2104
2104
2104
2107
2107
2107
2106
2106
2106
2107
2107
2107
2104
2104
2104
2104
2106
2106
2106
2108
2108
2108
2102
2102
2102
2106
2106
2106
2107
2107
2107
2107
2103
2103
2103
2110
2110
2110
2107
2107
2107
2107
2107
2107
2104
2104
2104
2104
2105
2105
2105
2107
2107
2107
2106
2106
2106
2106
2106
2106
2105
2105
2105
2105
2106
2106
2106
2107
2107
2107
2107
2107
2107
2106
2106
2106
2103
2103
2103
2103
2104
2104
2104
2106
2106
2106
2107
2107
2107
2103
2103
2103
2106
2106
2106
2106
2106
2106
2106
2107
2107
2107
2106
2106
2106
2107
2107
2107
2107
2107
2107
2107
2102
2102
2102
2108
2108
2108
2106
2106
2106
2108
2108
2108
2107
2107
2107
2107
2107
2107
2107
2106
2106
2106
2106
2106
2106
2109
2109
2109
2104
2104
2104
2104
2106
2106
2106
2108
2108
2108
2102
2102
2102
2108
2108
2108
2106
2106
2106
2106
2107
2107
2107
2106
2106
2106
2106
2106
2106
2108
2108
2108
2105
2105
2105
2105
2106
2106
2106
2105
2105
2105
2107
2107
2107
2104
2104
2104
2106
2106
2106
2106
2106
2106
2106
2108
2108
2108
2108
2108
2108
2107
2107
2107
2106
2106
2106
2106
2105
2105
2105
2108
2108
2108
2106
2106
2106
2105
2105
2105
2105
2105
2105
2105
2106
2106
2106
2106
2106
2106
2108
2108
2108
2111
2111
2111
2107
2107
2107
2107
2106
2106
2106
2106
2106
2106
2105
2105
2105
2108
2108
2108
2108
2108
2108
2108
2106
2106
2106
2110
2110
2110
2106
2106
2106
2107
2107
2107
2109
2109
2109
2109
2107
2107
2107
2108
2108
2108
2107
2107
2107
2109
2109
2109
2106
2106
2106
2106
2105
2105
2105
2104
2104
2104
2106
2106
2106
2109
2109
2109
2107
2107
2107
2107
2104
2104
2104
2107
2107
2107
2105
2105
2105
2107
2107
2107
2109
2109
2109
2109
2108
2108
2108
2106
2106
2106
2107
2107
2107
2107
2107
2107
2107
2107
2107
2107
2105
2105
2105
2106
2106
2106
2104
2104
2104
2104
2104
2104
2107
2107
2107
2107
2105
2105
2105
2108
2108
2108
2104
2104
2104
2106
2106
2106
2108
2108
2108
2108
2109
2109
2109
2106
2106
2106
2103
2103
2103
2110
2110
2110
2111
2111
2111
2111
2107
2107
2107
2106
2106
2106
2105
2105
2105
2104
2104
2104
2109
2109
2109
2109
2106
2106
2106
2106
2106
2106
2107
2107
2107
2106
2106
2106
2104
2104
2104
2104
2105
2105
2105
2111
2111
2111
2106
2106
2106
2107
2107
2107
2107
2107
2107
2107
2106
2106
2106
2106
2106
2106
2106
2106
2106
2108
2108
2108
2105
2105
2105
2105
2104
2104
2104
2109
2109
2109
2105
2105
2105
2107
2107
2107
2105
2105
2105
2105
2109
2109
2109
2109
2109
2109
2104
2104
2104
2106
2106
2106
2107
2107
2107
2107
2105
2105
2105
2107
2107
2107
2105
2105
2105
2107
2107
2107
2107
2107
2107
2107
2108
2108
2108
2105
2105
2105
2107
2107
2107
2107
2107
2107
2107
2107
2107
2107
2106
2106
2106
2105
2105
2105
2107
2107
2107
2106
2106
2106
2107
2107
2107
2107
2107
2107
2107
2107
2107
2107
2105
2105
2105
2109
2109
2109
2104
2104
2104
2104
2104
2104
2104
2107
2107
2107
2107
2107
2107
2109
2109
2109
2107
2107
2107
2107
2109
2109
2109
2107
2107
2107
2108
2108
2108
2108
2108
2108
2104
2104
2104
2104
2104
2104
2104
2113
2113
2113
2106
2106
2106
2109
2109
2109
2107
2107
2107
2107
2108
2108
2108
2108
2108
2108
2104
2104
2104
2108
2108
2108
2101
2101
2101
2101
2107
2107
2107
2106
2106
2106
2103
2103
2103
2108
2108
2108
2106
2106
2106
2106
2103
2103
2103
2109
2109
2109
2109
2109
2109
2107
2107
2107
2107
2107
2107
2107
2106
2106
2106
2108
2108
2108
2105
2105
2105
2105
2105
2105
2105
2105
2105
2105
2105
2105
2105
2107
2107
2107
2107
2107
2107
2106
2106
2106
2107
2107
2107
2107
2104
2104
2104
2107
2107
2107
2108
2108
2108
2106
2106
2106
2105
2105
2105
2105
2111
2111
2111
2107
2107
2107
2108
2108
2108
2107
2107
2107
2107
2107
2107
2107
2107
2107
2107
2107
2107
2107
2105
2105
2105
2105
2105
2105
2104
2104
2104
2104
2106
2106
2106
2109
2109
2109
2107
2107
2107
2106
2106
2106
2110
2110
2110
2110
2108
2108
2108
2106
2106
2106
2109
2109
2109
2111
2111
2111
2107
2107
2107
2107
2106
2106
2106
2102
2102
2102
2105
2105
2105
2108
2108
2108
2102
2102
2102
2102
2108
2108
2108
2109
2109
2109
2108
2108
2108
2107
2107
2107
2106
2106
2106
2106
2107
2107
2107
2108
2108
2108
2104
2104
2104
2108
2108
2108
2107
2107
2107
2107
2106
2106
2106
2107
2107
2107
2109
2109
2109
2109
2109
2109
2106
2106
2106
2106
2105
2105
2105
2105
2105
2105
2105
2105
2105
2109
2109
2109
2107
2107
2107
2107
2104
2104
2104
2106
2106
2106
2107
2107
2107
2106
2106
2106
2105
2105
2105
2105
2106
2106
2106
2107
2107
2107
2106
2106
2106
2107
2107
2107
2104
2104
2104
2104
2105
2105
2105
2109
2109
2109
2108
2108
2108
2104
2104
2104
2105
2105
2105
2105
2106
2106
2106
2103
2103
2103
2106
2106
2106
2108
2108
2108
2105
2105
2105
2105
2104
2104
2104
2107
2107
2107
2106
2106
2106
2105
2105
2105
2108
2108
2108
2108
2106
2106
2106
2107
2107
2107
2107
2107
2107
2104
2104
2104
2109
2109
2109
2109
2110
2110
2110
2107
2107
2107
2108
2108
2108
2107
2107
2107
2106
2106
2106
2106
2108
2108
2108
2107
2107
2107
2104
2104
2104
2106
2106
2106
2103
2103
2103
2103
2105
2105
2105
2110
2110
2110
2105
2105
2105
2104
2104
2104
2107
2107
2107
2107
2107
2107
2107
2107
2107
2107
2104
2104
2104
2107
2107
2107
2105
2105
2105
2105
2105
2105
2105
2104
2104
2104
2107
2107
2107
2107
2107
2107
2106
2106
2106
2106
2105
2105
2105
2108
2108
2108
2105
2105
2105
2109
2109
2109
2105
2105
2105
2105
2106
2106
2106
2106
2106
2106
2108
2108
2108
2106
2106
2106
2107
2107
2107
2107
2105
2105
2105
2108
2108
2108
2105
2105
2105
2110
2110
2110
2107
2107
2107
2107
2105
2105
2105
2106
2106
2106
2110
2110
2110
2107
2107
2107
2105
2105
2105
2105
2105
2105
2105
2108
2108
2108
2108
2108
2108
2106
2106
2106
2105
2105
2105
2105
2104
2104
2104
2105
2105
2105
2107
2107
2107
2108
2108
2108
2106
2106
2106
2106
2106
2106
2106
2109
2109
2109
2105
2105
2105
2109
2109
2109
2105
2105
2105
2105
2105
2105
2105
2107
2107
2107
2106
2106
2106
2106
2106
2106
2106
2106
2106
2106
2106
2106
2106
2108
2108
2108
2106
2106
2106
2106
2106
2106
2107
2107
2107
2107
2110
2110
2110
2109
2109
2109
2103
2103
2103
2107
2107
2107
2106
2106
2106
2106
2107
2107
2107
2109
2109
2109
2107
2107
2107
2104
2104
2104
2107
2107
2107
2107
2106
2106
2106
2105
2105
2105
2110
2110
2110
2106
2106
2106
2105
2105
2105
2105
2103
2103
2103
2110
2110
2110
2103
2103
2103
2106
2106
2106
2106
2106
2106
2106
2107
2107
2107
2107
2107
2107
2106
2106
2106
2106
2106
2106
2109
2109
2109
2109
2106
2106
2106
2103
2103
2103
2108
2108
2108
2107
2107
2107
2102
2102
2102
2102
2107
2107
2107
2107
2107
2107
2115
2115
2115
2106
2106
2106
2108
2108
2108
2108
2107
2107
2107
2109
2109
2109
2106
2106
2106
2108
2108
2108
2108
2108
2108
2108
2105
2105
2105
2107
2107
2107
2105
2105
2105
2112
2112
2112
2107
2107
2107
2107
2104
2104
2104
2107
2107
2107
2106
2106
2106
2111
2111
2111
2105
2105
2105
2105
2105
2105
2105
2106
2106
2106
2106
2106
2106
2106
2106
2106
2107
2107
2107
2107
2110
2110
2110
2106
2106
2106
2107
2107
2107
2106
2106
2106
2107
2107
2107
2107
2106
2106
2106
2107
2107
2107
2103
2103
2103
2107
2107
2107
2105
2105
2105
2105
2107
2107
2107
2107
2107
2107
2107
2107
2107
2106
2106
2106
2111
2111
2111
2111
2102
2102
2102
2108
2108
2108
2103
2103
2103
2104
2104
2104
2106
2106
2106
2106
2107
2107
2107
2107
2107
2107
2107
2107
2107
2106
2106
2106
2105
2105
2105
2105
2104
2104
2104
2109
2109
2109
2107
2107
2107
2107
2107
2107
2107
2107
2107
2107
2106
2106
2106
2107
2107
2107
2095
2095
2095
2107
2107
2107
2104
2104
2104
2104
2106
2106
2106
2108
2108
2108
2108
2108
2108
2105
2105
2105
2105
2105
2105
2105
2100
2100
2100
2108
2108
2108
2104
2104
2104
2106
2106
2106
2106
2106
2106
2106
2108
2108
2108
2106
2106
2106
2105
2105
2105
2109
2109
2109
2107
2107
2107
2107
2109
2109
2109
2109
2109
2109
2106
2106
2106
2109
2109
2109
2110
2110
2110
2110
2104
2104
2104
2107
2107
2107
2109
2109
2109
2102
2102
2102
2105
2105
2105
2105
2112
2112
2112
2111
2111
2111
2106
2106
2106
2106
2106
2106
2106
2106
2106
2106
2105
2105
2105
2105
2105
2105
2102
2102
2102
2106
2106
2106
2103
2103
2103
2103
2105
2105
2105
2108
2108
2108
2107
2107
2107
2103
2103
2103
2108
2108
2108
2108
2104
2104
2104
2108
2108
2108
2108
2108
2108
2107
2107
2107
2106
2106
2106
2106
2106
2106
2106
2107
2107
2107
2104
2104
2104
2106
2106
2106
2104
2104
2104
2104
2107
2107
2107
2108
2108
2108
2107
2107
2107
2111
2111
2111
2106
2106
2106
2106
2106
2106
2106
2109
2109
2109
2106
2106
2106
2105
2105
2105
2105
2105
2105
2105
2106
2106
2106
2111
2111
2111
2104
2104
2104
2107
2107
2107
2108
2108
2108
2108
2103
2103
2103
2104
2104
2104
2107
2107
2107
2107
2107
2107
2104
2104
2104
2104
2104
2104
2104
2106
2106
2106
2107
2107
2107
2107
2107
2107
2107
2107
2107
2107
2106
2106
2106
2108
2108
2108
2105
2105
2105
2105
2105
2105
2103
2103
2103
2103
2104
2104
2104
2108
2108
2108
2109
2109
2109
2104
2104
2104
2106
2106
2106
2106
2107
2107
2107
2108
2108
2108
2107
2107
2107
2107
2107
2107
2107
2107
2107
2107
2103
2103
2103
2106
2106
2106
2108
2108
2108
2107
2107
2107
2105
2105
2105
2105
2105
2105
2105
2106
2106
2106
2105
2105
2105
2110
2110
2110
2107
2107
2107
2107
2105
2105
2105
2107
2107
2107
2104
2104
2104
2109
2109
2109
2105
2105
2105
2105
2110
2110
2110
2108
2108
2108
2107
2107
2107
2107
2107
2107
2107
2107
2107
2107
2107
2107
2107
2106
2106
2106
2108
2108
2108
2105
2105
2105
2108
2108
2108
2108
2106
2106
2106
2105
2105
2105
2106
2106
2106
2104
2104
2104
2106
2106
2106
2106
2105
2105
2105
2109
2109
2109
2106
2106
2106
2107
2107
2107
2107
2107
2107
2107
2107
2107
2107
2108
2108
2108
2114
2114
2114
2108
2108
2108
2108
2108
2108
2108
2102
2102
2102
2108
2108
2108
2107
2107
2107
2105
2105
2105
2107
2107
2107
2107
2105
2105
2105
2105
2105
2105
2108
2108
2108
2106
2106
2106
2106
2106
2106
2106
2106
2106
2106
2107
2107
2107
2107
2107
2107
2106
2106
2106
2105
2105
2105
2105
2111
2111
2111
2106
2106
2106
2105
2105
2105
2098
2098
2098
2107
2107
2107
2107
2107
2107
2107
2107
2107
2107
2107
2107
2107
2107
2107
2107
2105
2105
2105
2105
2107
2107
2107
2108
2108
2108
2112
2112
2112
2109
2109
2109
2105
2105
2105
2105
2103
2103
2103
2107
2107
2107
2109
2109
2109
2109
2109
2109
2104
2104
2104
2104
2107
2107
2107
2104
2104
2104
2106
2106
2106
2107
2107
2107
2105
2105
2105
2105
2106
2106
2106
2107
2107
2107
2107
2107
2107
2109
2109
2109
2112
2112
2112
2112
2106
2106
2106
2107
2107
2107
2112
2112
2112
2110
2110
2110
2109
2109
2109
2109
2105
2105
2105
2101
2101
2101
2105
2105
2105
2109
2109
2109
2104
2104
2104
2104
2106
2106
2106
2108
2108
2108
2106
2106
2106
2109
2109
2109
2106
2106
2106
2106
2106
2106
2106
2108
2108
2108
2107
2107
2107
2111
2111
2111
2103
2103
2103
2103
2106
2106
2106
2111
2111
2111
2110
2110
2110
2105
2105
2105
2106
2106
2106
2106
2101
2101
2101
2106
2106
2106
2105
2105
2105
2108
2108
2108
2105
2105
2105
2105
2107
2107
2107
2105
2105
2105
2107
2107
2107
2106
2106
2106
2110
2110
2110
2110
2106
2106
2106
2103
2103
2103
2107
2107
2107
2108
2108
2108
2101
2101
2101
2101
2106
2106
2106
2106
2106
2106
2101
2101
2101
2107
2107
2107
2107
2107
2107
2107
2103
2103
2103
2107
2107
2107
2106
2106
2106
2107
2107
2107
2110
2110
2110
2110
2106
2106
2106
2107
2107
2107
2105
2105
2105
2106
2106
2106
2106
2106
2106
2106
2108
2108
2108
2106
2106
2106
2109
2109
2109
2107
2107
2107
2110
2110
2110
2110
2106
2106
2106
2105
2105
2105
2106
2106
2106
2106
2106
2106
2104
2104
2104
2104
2100
2100
2100
2107
2107
2107
2105
2105
2105
2108
2108
2108
2108
2108
2108
2108
2103
2103
2103
2105
2105
2105
2105
2105
2105
2108
2108
2108
2107
2107
2107
2107
2106
2106
2106
2109
2109
2109
2105
2105
2105
2108
2108
2108
2106
2106
2106
2106
2104
2104
2104
2106
2106
2106
2108
2108
2108
2108
2108
2108
2107
2107
2107
2107
2102
2102
2102
2107
2107
2107
2110
2110
2110
2107
2107
2107
2110
2110
2110
2110
2107
2107
2107
2113
2113
2113
2107
2107
2107
2106
2106
2106
2105
2105
2105
2105
2106
2106
2106
2105
2105
2105
2104
2104
2104
2106
2106
2106
2109
2109
2109
2109
2105
2105
2105
2111
2111
2111
2104
2104
2104
2106
2106
2106
2105
2105
2105
2105
2105
2105
2105
2104
2104
2104
2106
2106
2106
2105
2105
2105
2105
2105
2105
2105
2108
2108
2108
2107
2107
2107
2106
2106
2106
2108
2108
2108
2104
2104
2104
2104
2105
2105
2105
2107
2107
2107
2107
2107
2107
2106
2106
2106
2109
2109
2109
2109
2108
2108
2108
2107
2107
2107
2099
2099
2099
2104
2104
2104
2106
2106
2106
2106
2110
2110
2110
2108
2108
2108
2110
2110
2110
2106
2106
2106
2107
2107
2107
2107
2106
2106
2106
2109
2109
2109
2107
2107
2107
2109
2109
2109
2103
2103
2103
2103
2107
2107
2107
2109
2109
2109
2108
2108
2108
2105
2105
2105
2106
2106
2106
2106
2106
2106
2106
2109
2109
2109
2107
2107
2107
2108
2108
2108
2105
2105
2105
2105
2108
2108
2108
2106
2106
2106
2106
2106
2106
2106
2106
2106
2107
2107
2107
2107
2106
2106
2106
2108
2108
2108
2107
2107
2107
2106
2106
2106
2107
2107
2107
2107
2108
2108
2108
2108
2108
2108
2103
2103
2103
2106
2106
2106
2107
2107
2107
2107
2106
2106
2106
2105
2105
2105
2105
2105
2105
2108
2108
2108
2105
2105
2105
2105
2107
2107
2107
2109
2109
2109
2105
2105
2105
2102
2102
2102
2106
2106
2106
2106
2106
2106
2106
2106
2106
2106
2105
2105
2105
2108
2108
2108
2105
2105
2105
2105
2106
2106
2106
2111
2111
2111
2109
2109
2109
2108
2108
2108
2107
2107
2107
2107
2101
2101
2101
2106
2106
2106
2107
2107
2107
2106
2106
2106
2106
2106
2106
2106
2107
2107
2107
2107
2107
2107
2106
2106
2106
2106
2106
2106
2104
2104
2104
2104
2104
2104
2104
2105
2105
2105
2108
2108
2108
2109
2109
2109
2107
2107
2107
2107
2108
2108
2108
2104
2104
2104
2107
2107
2107
2107
2107
2107
2107
2107
2107
2107
2105
2105
2105
2106
2106
2106
2106
2106
2106
2106
2106
2106
2106
2106
2106
2106
2105
2105
2105
2105
2105
2105
2107
2107
2107
2106
2106
2106
2106
2106
2106
2106
2105
2105
2105
2105
2105
2105
2105
2105
2105
2109
2109
2109
2104
2104
2104
2104
2104
2104
2104
2107
2107
2107
2106
2106
2106
2106
2106
2106
2109
2109
2109
2109
2106
2106
2106
2111
2111
2111
2100
2100
2100
2106
2106
2106
2107
2107
2107
2107
2109
2109
2109
2109
2109
2109
2105
2105
2105
2106
2106
2106
2103
2103
2103
2103
2106
2106
2106
2107
2107
2107
2107
2107
2107
2107
2107
2107
2107
2107
2107
2107
2104
2104
2104
2109
2109
2109
2106
2106
2106
2107
2107
2107
2106
2106
2106
2106
2109
2109
2109
2107
2107
2107
2103
2103
2103
2107
2107
2107
2105
2105
2105
2105
2106
2106
2106
2101
2101
2101
2107
2107
2107
2107
2107
2107
2103
2103
2103
2103
2109
2109
2109
2108
2108
2108
2111
2111
2111
2106
2106
2106
2104
2104
2104
2104
2103
2103
2103
2105
2105
2105
2107
2107
2107
2106
2106
2106
2104
2104
2104
2104
2107
2107
2107
2105
2105
2105
2105
2105
2105
2107
2107
2107
2103
2103
2103
2103
2102
2102
2102
2108
2108
2108
2107
2107
2107
2107
2107
2107
2106
2106
2106
2106
2108
2108
2108
2107
2107
2107
2107
2107
2107
2106
2106
2106
2106
2106
2106
2106
2108
2108
2108
2108
2108
2108
2107
2107
2107
2109
2109
2109
2102
2102
2102
2102
2106
2106
2106
2104
2104
2104
2108
2108
2108
2105
2105
2105
2108
2108
2108
2108
2108
2108
2108
2111
2111
2111
2106
2106
2106
2106
2106
2106
2107
2107
2107
2107
2106
2106
2106
2104
2104
2104
2106
2106
2106
2108
2108
2108
2106
2106
2106
2106
2106
2106
2106
2107
2107
2107
2107
2107
2107
2109
2109
2109
2106
2106
2106
2106
2107
2107
2107
2107
2107
2107
2105
2105
2105
2107
2107
2107
2109
2109
2109
2109
2107
2107
2107
2107
2107
2107
2109
2109
2109
2107
2107
2107
2109
2109
2109
2109
2107
2107
2107
2107
2107
2107
2110
2110
2110
2108
2108
2108
2106
2106
2106
2106
2108
2108
2108
2107
2107
2107
2106
2106
2106
2104
2104
2104
2105
2105
2105
2105
2106
2106
2106
2108
2108
2108
2105
2105
2105
2107
2107
2107
2108
2108
2108
2108
2106
2106
2106
2107
2107
2107
2106
2106
2106
2106
2106
2106
2109
2109
2109
2109
2104
2104
2104
2104
2104
2104
2107
2107
2107
2107
2107
2107
2106
2106
2106
2106
2107
2107
2107
2108
2108
2108
2108
2108
2108
2108
2108
2108
2111
2111
2111
2111
2101
2101
2101
2108
2108
2108
2105
2105
2105
2102
2102
2102
2105
2105
2105
2105
2105
2105
2105
2107
2107
2107
2105
2105
2105
2107
2107
2107
2107
2107
2107
2107
2109
2109
2109
2104
2104
2104
2106
2106
2106
2104
2104
2104
2108
2108
2108
2108
2103
2103
2103
2109
2109
2109
2107
2107
2107
2105
2105
2105
2107
2107
2107
2107
2107
2107
2107
2106
2106
2106
2108
2108
2108
2101
2101
2101
2105
2105
2105
2105
2108
2108
2108
2105
2105
2105
2106
2106
2106
2107
2107
2107
2104
2104
2104
2104
2105
2105
2105
2108
2108
2108
2110
2110
2110
2107
2107
2107
2104
2104
2104
2104
2104
2104
2104
2108
2108
2108
2106
2106
2106
2106
2106
2106
2104
2104
2104
2104
2106
2106
2106
2107
2107
2107
2104
2104
2104
2110
2110
2110
2099
2099
2099
2099
2108
2108
2108
2103
2103
2103
2105
2105
2105
2107
2107
2107
2105
2105
2105
2105
2103
2103
2103
2106
2106
2106
2105
2105
2105
2106
2106
2106
2107
2107
2107
2107
2106
2106
2106
2107
2107
2107
2106
2106
2106
2110
2110
2110
2108
2108
2108
2108
2105
2105
2105
2104
2104
2104
2106
2106
2106
2106
2106
2106
2108
2108
2108
2108
2110
2110
2110
2105
2105
2105
2106
2106
2106
2105
2105
2105
2107
2107
2107
2107
2105
2105
2105
2107
2107
2107
2107
2107
2107
2107
2107
2107
2106
2106
2106
2106
2109
2109
2109
2115
2115
2115
2103
2103
2103
2107
2107
2107
2106
2106
2106
2106
2106
2106
2106
2109
2109
2109
2105
2105
2105
2104
2104
2104
2105
2105
2105
2105
2107
2107
2107
2106
2106
2106
2106
2106
2106
2108
2108
2108
2106
2106
2106
2106
2102
2102
2102
2101
2101
2101
2103
2103
2103
2106
2106
2106
2107
2107
2107
2107
2103
2103
2103
2105
2105
2105
2106
2106
2106
2105
2105
2105
2107
2107
2107
2107
2106
2106
2106
2106
2106
2106
2107
2107
2107
2107
2107
2107
2104
2104
2104
2104
2107
2107
2107
2105
2105
2105
2106
2106
2106
2105
2105
2105
2109
2109
2109
2109
2104
2104
2104
2107
2107
2107
2105
2105
2105
2105
2105
2105
2106
2106
2106
2106
2106
2106
2106
2106
2106
2106
2105
2105
2105
2103
2103
2103
2104
2104
2104
2104
2105
2105
2105
2103
2103
2103
2103
2103
2103
2107
2107
2107
2105
2105
2105
2105
2107
2107
2107
2107
2107
2107
2106
2106
2106
2107
2107
2107
2104
2104
2104
2104
2107
2107
2107
2107
2107
2107
2103
2103
2103
2109
2109
2109
2105
2105
2105
2105
2106
2106
2106
2103
2103
2103
2110
2110
2110
2105
2105
2105
2106
2106
2106
2106
2106
2106
2106
2105
2105
2105
2106
2106
2106
2107
2107
2107
2105
2105
2105
2105
2108
2108
2108
2108
2108
2108
2102
2102
2102
2109
2109
2109
2107
2107
2107
2107
2105
2105
2105
2107
2107
2107
2108
2108
2108
2108
2108
2108
2107
2107
2107
2107
2105
2105
2105
2107
2107
2107
2105
2105
2105
2107
2107
2107
2106
2106
2106
2106
2105
2105
2105
2107
2107
2107
2114
2114
2114
2106
2106
2106
2103
2103
2103
2103
2103
2103
2103
2107
2107
2107
2106
2106
2106
2109
2109
2109
2107
2107
2107
2107
2105
2105
2105
2107
2107
2107
2107
2107
2107
2109
2109
2109
2113
2113
2113
2113
2105
2105
2105
2106
2106
2106
2112
2112
2112
2103
2103
2103
2108
2108
2108
2108
2107
2107
2107
2107
2107
2107
2108
2108
2108
2106
2106
2106
2107
2107
2107
2107
2108
2108
2108
2108
2108
2108
2105
2105
2105
2109
2109
2109
2106
2106
2106
2106
2103
2103
2103
2105
2105
2105
2108
2108
2108
2106
2106
2106
2106
2106
2106
2106
2104
2104
2104
2108
2108
2108
2104
2104
2104
2107
2107
2107
2106
2106
2106
2106
2105
2105
2105
2106
2106
2106
2105
2105
2105
2108
2108
2108
2104
2104
2104
2104
2105
2105
2105
2106
2106
2106
2101
2101
2101
2111
2111
2111
2107
2107
2107
2107
2105
2105
2105
2108
2108
2108
2105
2105
2105
2111
2111
2111
2107
2107
2107
2107
2104
2104
2104
2104
2104
2104
2108
2108
2108
2107
2107
2107
2107
2107
2107
2107
2106
2106
2106
2112
2112
2112
2109
2109
2109
2107
2107
2107
2108
2108
2108
2108
2102
2102
2102
2104
2104
2104
2106
2106
2106
2105
2105
2105
2105
2105
2105
2105
2105
2105
2105
2104
2104
2104
2107
2107
2107
2107
2107
2107
2107
2107
2107
2107
2107
2107
2107
2105
2105
2105
2108
2108
2108
2103
2103
2103
2107
2107
2107
2107
2108
2108
2108
2106
2106
2106
2103
2103
2103
2106
2106
2106
2107
2107
2107
2107
2103
2103
2103
2110
2110
2110
2105
2105
2105
2099
2099
2099
2107
2107
2107
2107
2107
2107
2107
2104
2104
2104
2106
2106
2106
2106
2106
2106
2106
2106
2106
2106
2106
2106
2106
2107
2107
2107
2105
2105
2105
2106
2106
2106
2104
2104
2104
2104
2112
2112
2112
2106
2106
2106
2106
2106
2106
2108
2108
2108
2104
2104
2104
2104
2104
2104
2104
2106
2106
2106
2098
2098
2098
2107
2107
2107
2109
2109
2109
2109
2105
2105
2105
2107
2107
2107
2107
2107
2107
2108
2108
2108
2108
2108
2108
2108
2106
2106
2106
2104
2104
2104
2108
2108
2108
2102
2102
2102
2106
2106
2106
2106
2106
2106
2106
2109
2109
2109
2103
2103
2103
2106
2106
2106
2106
2106
2106
2106
2104
2104
2104
2106
2106
2106
2107
2107
2107
2106
2106
2106
2105
2105
2105
2105
2105
2105
2105
2107
2107
2107
2107
2107
2107
2106
2106
2106
2105
2105
2105
2105
2103
2103
2103
2107
2107
2107
2105
2105
2105
2107
2107
2107
2107
2107
2107
2107
2103
2103
2103
2107
2107
2107
2108
2108
2108
2108
2108
2108
2103
2103
2103
2103
2104
2104
2104
2105
2105
2105
2105
2105
2105
2109
2109
2109
2105
2105
2105
2105
2111
2111
2111
2103
2103
2103
2108
2108
2108
2107
2107
2107
2105
2105
2105
2105
2106
2106
2106
2103
2103
2103
2106
2106
2106
2110
2110
2110
2107
2107
2107
2107
2105
2105
2105
2107
2107
2107
2104
2104
2104
2107
2107
2107
2107
2107
2107
2107
2106
2106
2106
2108
2108
2108
2108
2108
2108
2107
2107
2107
2106
2106
2106
2106
2104
2104
2104
2105
2105
2105
2106
2106
2106
2107
2107
2107
2111
2111
2111
2111
2105
2105
2105
2106
2106
2106
2110
2110
2110
2107
2107
2107
2102
2102
2102
2102
2104
2104
2104
2106
2106
2106
2105
2105
2105
2107
2107
2107
2108
2108
2108
2108
2107
2107
2107
2105
2105
2105
2113
2113
2113
2105
2105
2105
2103
2103
2103
2103
2113
2113
2113
2108
2108
2108
2104
2104
2104
2106
2106
2106
2106
2106
2106
2106
2106
2106
2106
2107
2107
2107
2108
2108
2108
2107
2107
2107
2106
2106
2106
2106
2108
2108
2108
2105
2105
2105
2107
2107
2107
2107
2107
2107
2106
2106
2106
2106
2108
2108
2108
2107
2107
2107
2106
2106
2106
2108
2108
2108
2107
2107
2107
2107
2102
2102
2102
2106
2106
2106
2105
2105
2105
2104
2104
2104
2107
2107
2107
2107
2107
2107
2107
2107
2107
2107
2107
2107
2107
2111
2111
2111
2103
2103
2103
2103
2107
2107
2107
2106
2106
2106
2104
2104
2104
2105
2105
2105
2111
2111
2111
2111
2110
2110
2110
2108
2108
2108
2106
2106
2106
2103
2103
2103
2108
2108
2108
2108
2103
2103
2103
2108
2108
2108
2107
2107
2107
2108
2108
2108
2110
2110
2110
2110
2105
2105
2105
2107
2107
2107
2109
2109
2109
2107
2107
2107
2107
2107
2107
2107
2108
2108
2108
2107
2107
2107
2106
2106
2106
2105
2105
2105
2107
2107
2107
2107
2105
2105
2105
2109
2109
2109
2109
2109
2109
2113
2113
2113
2107
2107
2107
2107
2105
2105
2105
2106
2106
2106
2108
2108
2108
2104
2104
2104
2106
2106
2106
2106
2103
2103
2103
2104
2104
2104
2110
2110
2110
2109
2109
2109
2105
2105
2105
2105
2106
2106
2106
2106
2106
2106
2107
2107
2107
2105
2105
2105
2109
2109
2109
2109
2110
2110
2110
2102
2102
2102
2106
2106
2106
2106
2106
2106
2107
2107
2107
2107
2105
2105
2105
2105
2105
2105
2105
2105
2105
2105
2105
2105
2104
2104
2104
2104
2104
2104
2104
2108
2108
2108
2106
2106
2106
2112
2112
2112
2106
2106
2106
2106
2107
2107
2107
2111
2111
2111
2108
2108
2108
2106
2106
2106
2106
2106
2106
2106
2105
2105
2105
2109
2109
2109
2106
2106
2106
2108
2108
2108
2104
2104
2104
2104
2105
2105
2105
2107
2107
2107
2107
2107
2107
2108
2108
2108
2108
2108
2108
2108
2106
2106
2106
2107
2107
2107
2107
2107
2107
2107
2107
2107
2107
2107
2107
2107
2107
2107
2107
2107
2107
2107
2105
2105
2105
2107
2107
2107
2105
2105
2105
2105
2108
2108
2108
2107
2107
2107
2103
2103
2103
2106
2106
2106
2107
2107
2107
2107
2108
2108
2108
2105
2105
2105
2106
2106
2106
2106
2106
2106
2107
2107
2107
2107
2106
2106
2106
2109
2109
2109
2106
2106
2106
2106
2106
2106
2113
2113
2113
2113
2113
2113
2113
2107
2107
2107
2109
2109
2109
2106
2106
2106
2105
2105
2105
2105
2104
2104
2104
2107
2107
2107
2107
2107
2107
2106
2106
2106
2107
2107
2107
2107
2104
2104
2104
2106
2106
2106
2107
2107
2107
2108
2108
2108
2105
2105
2105
2105
2106
2106
2106
2107
2107
2107
2102
2102
2102
2108
2108
2108
2105
2105
2105
2105
2106
2106
2106
2105
2105
2105
2107
2107
2107
2108
2108
2108
2106
2106
2106
2106
2108
2108
2108
2105
2105
2105
2107
2107
2107
2105
2105
2105
2104
2104
2104
2104
2104
2104
2104
2106
2106
2106
2104
2104
2104
2107
2107
2107
2106
2106
2106
2106
2105
2105
2105
2107
2107
2107
2106
2106
2106
2109
2109
2109
2106
2106
2106
2106
2106
2106
2106
2107
2107
2107
2106
2106
2106
2106
2106
2106
2109
2109
2109
2109
2104
2104
2104
2107
2107
2107
2106
2106
2106
2106
2106
2106
2107
2107
2107
2107
2108
2108
2108
2107
2107
2107
2108
2108
2108
2106
2106
2106
2103
2103
2103
2103
2105
2105
2105
2104
2104
2104
2106
2106
2106
2108
2108
2108
2104
2104
2104
2104
2107
2107
2107
2103
2103
2103
2103
2103
2103
2107
2107
2107
2106
2106
2106
2106
2098
2098
2098
2112
2112
2112
2106
2106
2106
2106
2106
2106
2105
2105
2105
2105
2103
2103
2103
2107
2107
2107
2106
2106
2106
2108
2108
2108
2107
2107
2107
2107
2104
2104
2104
2101
2101
2101
2107
2107
2107
2105
2105
2105
2106
2106
2106
2106
2107
2107
2107
2107
2107
2107
2107
2107
2107
2104
2104
2104
2109
2109
2109
2109
2105
2105
2105
2103
2103
2103
2103
2103
2103
2106
2106
2106
2103
2103
2103
2103
2106
2106
2106
2105
2105
2105
2106
2106
2106
2108
2108
2108
2107
2107
2107
2107
2107
2107
2107
2107
2107
2107
2104
2104
2104
2108
2108
2108
2102
2102
2102
2102
2107
2107
2107
2108
2108
2108
2105
2105
2105
2106
2106
2106
2104
2104
2104
2104
2107
2107
2107
2108
2108
2108
2107
2107
2107
2105
2105
2105
2106
2106
2106
2106
2104
2104
2104
2105
2105
2105
2108
2108
2108
2102
2102
2102
2109
2109
2109
2109
2104
2104
2104
2105
2105
2105
2110
2110
2110
2105
2105
2105
2107
2107
2107
2107
2107
2107
2107
2106
2106
2106
2104
2104
2104
2107
2107
2107
2107
2107
2107
2107
2106
2106
2106
2104
2104
2104
2107
2107
2107
2109
2109
2109
2107
2107
2107
2107
2105
2105
2105
2105
2105
2105
2106
2106
2106
2106
2106
2106
2109
2109
2109
2109
2106
2106
2106
2109
2109
2109
2106
2106
2106
2105
2105
2105
2111
2111
2111
2111
2105
2105
2105
2106
2106
2106
2112
2112
2112
2106
2106
2106
2107
2107
2107
2107
2103
2103
2103
2107
2107
2107
2102
2102
2102
2107
2107
2107
2107
2107
2107
2107
2103
2103
2103
2106
2106
2106
2105
2105
2105
2108
2108
2108
2105
2105
2105
2105
2105
2105
2105
2105
2105
2105
2108
2108
2108
2109
2109
2109
2110
2110
2110
2110
2108
2108
2108
2107
2107
2107
2108
2108
2108
2104
2104
2104
2106
2106
2106
2106
2105
2105
2105
2106
2106
2106
2110
2110
2110
2108
2108
2108
2105
2105
2105
2105
2107
2107
2107
2107
2107
2107
2108
2108
2108
2108
2108
2108
2107
2107
2107
2107
2110
2110
2110
2107
2107
2107
2104
2104
2104
2106
2106
2106
2106
2106
2106
2106
2106
2106
2106
2110
2110
2110
2107
2107
2107
2107
2107
2107
2103
2103
2103
2103
2106
2106
2106
2103
2103
2103
2107
2107
2107
2107
2107
2107
2108
2108
2108
2108
2105
2105
2105
2108
2108
2108
2105
2105
2105
2107
2107
2107
2104
2104
2104
2104
2105
2105
2105
2107
2107
2107
2105
2105
2105
2109
2109
2109
2107
2107
2107
2107
2105
2105
2105
2105
2105
2105
2105
2105
2105
2107
2107
2107
2106
2106
2106
2106
2106
2106
2106
2103
2103
2103
2107
2107
2107
2105
2105
2105
2105
2105
2105
2105
2108
2108
2108
2108
2108
2108
2106
2106
2106
2106
2106
2106
2106
2106
2106
2106
2104
2104
2104
2103
2103
2103
2106
2106
2106
2108
2108
2108
2107
2107
2107
2107
2104
2104
2104
2106
2106
2106
2102
2102
2102
2112
2112
2112
2107
2107
2107
2107
2107
2107
2107
2102
2102
2102
2108
2108
2108
2106
2106
2106
2103
2103
2103
2103
2106
2106
2106
2107
2107
2107
2106
2106
2106
2108
2108
2108
2107
2107
2107
2107
2105
2105
2105
2107
2107
2107
2106
2106
2106
2110
2110
2110
2106
2106
2106
2106
2106
2106
2106
2103
2103
2103
2108
2108
2108
2104
2104
2104
2107
2107
2107
2107
2102
2102
2102
2107
2107
2107
2105
2105
2105
2107
2107
2107
2105
2105
2105
2105
2105
2105
2105
2104
2104
2104
2110
2110
2110
2104
2104
2104
2105
2105
2105
2105
2110
2110
2110
2104
2104
2104
2105
2105
2105
2108
2108
2108
2106
2106
2106
2106
2106
2106
2106
2107
2107
2107
2107
2107
2107
2107
2107
2107
2101
2101
2101
2101
2104
2104
2104
2107
2107
2107
2110
2110
2110
2107
2107
2107
2106
2106
2106
2106
2106
2106
2106
2108
2108
2108
2106
2106
2106
2107
2107
2107
2107
2107
2107
2107
2104
2104
2104
2108
2108
2108
2105
2105
2105
2109
2109
2109
2107
2107
2107
2107
2104
2104
2104
2108
2108
2108
2105
2105
2105
2107
2107
2107
2107
2107
2107
2107
2105
2105
2105
2106
2106
2106
2107
2107
2107
2109
2109
2109
2108
2108
2108
2108
2107
2107
2107
2107
2107
2107
2107
2107
2107
2103
2103
2103
2106
2106
2106
2106
2105
2105
2105
2114
2114
2114
2107
2107
2107
2108
2108
2108
2102
2102
2102
2102
2105
2105
2105
2106
2106
2106
2106
2106
2106
2109
2109
2109
2107
2107
2107
2107
2105
2105
2105
2108
2108
2108
2109
2109
2109
2104
2104
2104
2107
2107
2107
2107
2106
2106
2106
2106
2106
2106
2105
2105
2105
2107
2107
2107
2106
2106
2106
2106
2106
2106
2106
2108
2108
2108
2108
2108
2108
2107
2107
2107
2108
2108
2108
2108
2106
2106
2106
2106
2106
2106
2108
2108
2108
2108
2108
2108
2105
2105
2105
2105
2105
2105
2105
2106
2106
2106
2105
2105
2105
2105
2105
2105
2106
2106
2106
2106
2106
2106
2106
2107
2107
2107
2106
2106
2106
2105
2105
2105
2105
2105
2105
2105
2104
2104
2104
2109
2109
2109
2106
2106
2106
2106
2106
2106
2108
2108
2108
2108
2106
2106
2106
2109
2109
2109
2106
2106
2106
2105
2105
2105
2106
2106
2106
2106
2105
2105
2105
2107
2107
2107
2105
2105
2105
2104
2104
2104
2106
2106
2106
2106
2106
2106
2106
2110
2110
2110
2108
2108
2108
2108
2108
2108
2107
2107
2107
2107
2106
2106
2106
2108
2108
2108
2106
2106
2106
2101
2101
2101
2106
2106
2106
2106
2107
2107
2107
2107
2107
2107
2105
2105
2105
2106
2106
2106
2105
2105
2105
2105
2108
2108
2108
2109
2109
2109
2105
2105
2105
2103
2103
2103
2105
2105
2105
2105
2106
2106
2106
2106
2106
2106
2104
2104
2104
2107
2107
2107
2100
2100
2100
2100
2104
2104
2104
2106
2106
2106
2106
2106
2106
2107
2107
2107
2106
2106
2106
2106
2104
2104
2104
2107
2107
2107
2106
2106
2106
2105
2105
2105
2108
2108
2108
2108
2103
2103
2103
2103
2103
2103
2107
2107
2107
2107
2107
2107
2106
2106
2106
2106
2105
2105
2105
2108
2108
2108
2106
2106
2106
2106
2106
2106
2105
2105
2105
2105
2105
2105
2105
2105
2105
2105
2109
2109
2109
2106
2106
2106
2106
2106
2106
2106
2105
2105
2105
2108
2108
2108
2110
2110
2110
2106
2106
2106
2107
2107
2107
2107
2109
2109
2109
2105
2105
2105
2107
2107
2107
2108
2108
2108
2104
2104
2104
2104
2107
2107
2107
2104
2104
2104
2107
2107
2107
2104
2104
2104
2105
2105
2105
2105
2107
2107
2107
2107
2107
2107
2102
2102
2102
2106
2106
2106
2109
2109
2109
2109
2107
2107
2107
2106
2106
2106
2106
2106
2106
2110
2110
2110
2104
2104
2104
2104
2103
2103
2103
2107
2107
2107
2105
2105
2105
2101
2101
2101
2109
2109
2109
2109
2104
2104
2104
2100
2100
2100
2106
2106
2106
2108
2108
2108
2106
2106
2106
2106
2107
2107
2107
2107
2107
2107
2107
2107
2107
2106
2106
2106
2110
2110
2110
2110
2106
2106
2106
2108
2108
2108
2099
2099
2099
2107
2107
2107
2103
2103
2103
2103
2111
2111
2111
2107
2107
2107
2108
2108
2108
2106
2106
2106
2105
2105
2105
2105
2104
2104
2104
2109
2109
2109
2107
2107
2107
2105
2105
2105
2102
2102
2102
2102
2105
2105
2105
2105
2105
2105
2105
2105
2105
2107
2107
2107
2107
2107
2107
2107
2106
2106
2106
2107
2107
2107
2108
2108
2108
2107
2107
2107
2104
2104
2104
2104
2107
2107
2107
2109
2109
2109
2107
2107
2107
2109
2109
2109
2105
2105
2105
2105
2106
2106
2106
2105
2105
2105
2107
2107
2107
2107
2107
2107
2103
2103
2103
2103
2105
2105
2105
2106
2106
2106
2108
2108
2108
2110
2110
2110
2106
2106
2106
2106
2106
2106
2106
2107
2107
2107
2111
2111
2111
2104
2104
2104
2109
2109
2109
2109
2104
2104
2104
2106
2106
2106
2106
2106
2106
2107
2107
2107
2106
2106
2106
2106
2106
2106
2106
2106
2106
2106
2107
2107
2107
2110
2110
2110
2104
2104
2104
2104
2106
2106
2106
2105
2105
2105
2105
2105
2105
2107
2107
2107
2107
2107
2107
2107
2103
2103
2103
2105
2105
2105
2109
2109
2109
2108
2108
2108
2107
2107
2107
2107
2104
2104
2104
2108
2108
2108
2107
2107
2107
2108
2108
2108
2106
2106
2106
2106
2105
2105
2105
2109
2109
2109
2104
2104
2104
2108
2108
2108
2106
2106
2106
2106
2107
2107
2107
2107
2107
2107
2108
2108
2108
2106
2106
2106
2104
2104
2104
2104
2104
2104
2104
2109
2109
2109
2104
2104
2104
2107
2107
2107
2107
2107
2107
2107
2102
2102
2102
2107
2107
2107
2107
2107
2107
2107
2107
2107
2103
2103
2103
2103
2106
2106
2106
2105
2105
2105
2107
2107
2107
2109
2109
2109
2106
2106
2106
2106
2105
2105
2105
2108
2108
2108
2110
2110
2110
2107
2107
2107
2107
2107
2107
2107
2106
2106
2106
2105
2105
2105
2107
2107
2107
2109
2109
2109
2103
2103
2103
2103
2105
2105
2105
2107
2107
2107
2105
2105
2105
2106
2106
2106
2104
2104
2104
2104
2103
2103
2103
2109
2109
2109
2105
2105
2105
2106
2106
2106
2106
2106
2106
2106
2104
2104
2104
2106
2106
2106
2107
2107
2107
2105
2105
2105
2105
2105
2105
2105
2106
2106
2106
2109
2109
2109
2102
2102
2102
2107
2107
2107
2110
2110
2110
2110
2102
2102
2102
2108
2108
2108
2107
2107
2107
2107
2107
2107
2105
2105
2105
2105
2106
2106
2106
2105
2105
2105
2106
2106
2106
2103
2103
2103
2107
2107
2107
2107
2103
2103
2103
2108
2108
2108
2106
2106
2106
2105
2105
2105
2106
2106
2106
2106
2107
2107
2107
2105
2105
2105
2106
2106
2106
2106
2106
2106
2106
2106
2106
2106
2105
2105
2105
2102
2102
2102
2108
2108
2108
2107
2107
2107
2105
2105
2105
2105
2108
2108
2108
2108
2108
2108
2103
2103
2103
2107
2107
2107
2105
2105
2105
2105
2107
2107
2107
2107
2107
2107
2107
2107
2107
2102
2102
2102
2104
2104
2104
2104
2107
2107
2107
2107
2107
2107
2108
2108
2108
2107
2107
2107
2107
2107
2107
2107
2106
2106
2106
2106
2106
2106
2105
2105
2105
2107
2107
2107
2105
2105
2105
2105
2105
2105
2105
2109
2109
2109
2109
2109
2109
2107
2107
2107
2107
2107
2107
2107
2104
2104
2104
2109
2109
2109
2107
2107
2107
2108
2108
2108
2103
2103
2103
2103
2106
2106
2106
2108
2108
2108
2107
2107
2107
2105
2105
2105
2106
2106
2106
2106
2107
2107
2107
2109
2109
2109
2107
2107
2107
2106
2106
2106
2105
2105
2105
2105
2105
2105
2105
2108
2108
2108
2107
2107
2107
2108
2108
2108
2106
2106
2106
2106
2107
2107
2107
2108
2108
2108
2104
2104
2104
2111
2111
2111
2108
2108
2108
2108
2104
2104
2104
2109
2109
2109
2105
2105
2105
2105
2105
2105
2103
2103
2103
2103
2103
2103
2103
2107
2107
2107
2105
2105
2105
2106
2106
2106
2106
2106
2106
2106
2106
2106
2106
2108
2108
2108
2109
2109
2109
2109
2109
2109
2107
2107
2107
2107
2105
2105
2105
2108
2108
2108
2105
2105
2105
2105
2105
2105
2105
2105
2105
2105
2105
2105
2105
2108
2108
2108
2107
2107
2107
2107
2107
2107
2103
2103
2103
2103
2106
2106
2106
2107
2107
2107
2105
2105
2105
2110
2110
2110
2108
2108
2108
2108
2111
2111
2111
2109
2109
2109
2107
2107
2107
2108
2108
2108
2109
2109
2109
2109
2105
2105
2105
2108
2108
2108
2106
2106
2106
2105
2105
2105
2104
2104
2104
2104
2110
2110
2110
2109
2109
2109
2109
2109
2109
2106
2106
2106
2108
2108
2108
2108
2108
2108
2108
2109
2109
2109
2108
2108
2108
2106
2106
2106
2104
2104
2104
2104
2106
2106
2106
2103
2103
2103
2112
2112
2112
2105
2105
2105
2105
2105
2105
2105
2106
2106
2106
2107
2107
2107
2106
2106
2106
2107
2107
2107
2105
2105
2105
2105
2104
2104
2104
2106
2106
2106
2108
2108
2108
2106
2106
2106
2106
2106
2106
2106
2104
2104
2104
2110
2110
2110
2104
2104
2104
2106
2106
2106
2107
2107
2107
2107
2105
2105
2105
2106
2106
2106
2104
2104
2104
2105
2105
2105
2106
2106
2106
2106
2105
2105
2105
2107
2107
2107
2106
2106
2106
2109
2109
2109
2102
2102
2102
2102
2106
2106
2106
2104
2104
2104
2104
2104
2104
2110
2110
2110
2107
2107
2107
2107
2109
2109
2109
2106
2106
2106
2106
2106
2106
2108
2108
2108
2106
2106
2106
2106
2105
2105
2105
2107
2107
2107
2106
2106
2106
2102
2102
2102
2105
2105
2105
2105
2105
2105
2105
2106
2106
2106
2107
2107
2107
2107
2107
2107
2107
2107
2107
2107
2104
2104
2104
2105
2105
2105
2106
2106
2106
2106
2106
2106
2105
2105
2105
2105
2107
2107
2107
2106
2106
2106
2107
2107
2107
2107
2107
2107
2106
2106
2106
2106
2109
2109
2109
2107
2107
2107
2106
2106
2106
2106
2106
2106
2103
2103
2103
2103
2106
2106
2106
2109
2109
2109
2105
2105
2105
2109
2109
2109
2107
2107
2107
2107
2105
2105
2105
2111
2111
2111
2107
2107
2107
2106
2106
2106
2104
2104
2104
2104
2104
2104
2104
2108
2108
2108
2106
2106
2106
2106
2106
2106
2105
2105
2105
2105
2105
2105
2105
2105
2105
2105
2108
2108
2108
2102
2102
2102
2106
2106
2106
2106
2106
2106
2106
2108
2108
2108
2106
2106
2106
2106
2106
2106
2106
2106
2106
2106
2108
2108
2108
2106
2106
2106
2107
2107
2107
2108
2108
2108
2104
2104
2104
2104
2103
2103
2103
2107
2107
2107
2107
2107
2107
2108
2108
2108
2106
2106
2106
2106
2100
2100
2100
2107
2107
2107
2107
2107
2107
2107
2107
2107
2105
2105
2105
2105
2104
2104
2104
2107
2107
2107
2108
2108
2108
2110
2110
2110
2106
2106
2106
2106
2104
2104
2104
2109
2109
2109
2109
2109
2109
2107
2107
2107
2106
2106
2106
2106
2103
2103
2103
2108
2108
2108
2108
2108
2108
2107
2107
2107
2106
2106
2106
2106
2105
2105
2105
2108
2108
2108
2107
2107
2107
2109
2109
2109
2105
2105
2105
2105
2106
2106
2106
2107
2107
2107
2104
2104
2104
2107
2107
2107
2107
2107
2107
2107
2107
2107
2107
2107
2107
2107
2104
2104
2104
2107
2107
2107
2103
2103
2103
2103
2105
2105
2105
2106
2106
2106
2106
2106
2106
2106
2106
2106
2106
2106
2106
