2072
2071
2071
2071
2070
2070
2070
2070
2071
2071
2071
2071
2071
2071
2070
2070
2070
2072
2072
2072
2070
2070
2070
2070
2069
2069
2069
2072
2072
2072
2069
2069
2069
2070
2070
2070
2070
2070
2070
2070
2069
2069
2069
2071
2071
2071
2072
2072
2072
2069
2069
2069
2074
2074
2074
2074
2068
2068
2068
2070
2070
2070
2071
2071
2071
2061
2061
2061
2071
2071
2071
2071
2072
2072
2072
2069
2069
2069
2070
2070
2070
2076
2076
2076
2070
2070
2070
2070
2072
2072
2072
2072
2072
2072
2071
2071
2071
2073
2073
2073
2071
2071
2071
2071
2071
2071
2071
2071
2071
2071
2073
2073
2073
2072
2072
2072
2077
2077
2077
2077
2071
2071
2071
2073
2073
2073
2070
2070
2070
2074
2074
2074
2069
2069
2069
2069
2069
2069
2069
2073
2073
2073
2073
2073
2073
2073
2073
2073
2071
2071
2071
2071
2070
2070
2070
2074
2074
2074
2069
2069
2069
2070
2070
2070
2073
2073
2073
2073
2072
2072
2072
2072
2072
2072
2070
2070
2070
2071
2071
2071
2070
2070
2070
2070
2071
2071
2071
2071
2071
2071
2066
2066
2066
2070
2070
2070
2072
2072
2072
2072
2070
2070
2070
2071
2071
2071
2071
2071
2071
2070
2070
2070
2071
2071
2071
2071
2069
2069
2069
2071
2071
2071
2071
2071
2071
2072
2072
2072
2071
2071
2071
2071
2070
2070
2070
2069
2069
2069
2069
2069
2069
2072
2072
2072
2071
2071
2071
2071
2071
2071
2071
2075
2075
2075
2072
2072
2072
2073
2073
2073
2070
2070
2070
2070
2073
2073
2073
2068
2068
2068
2072
2072
2072
2068
2068
2068
2070
2070
2070
2070
2071
2071
2071
2072
2072
2072
2071
2071
2071
2072
2072
2072
2069
2069
2069
2069
2070
2070
2070
2073
2073
2073
2071
2071
2071
2069
2069
2069
2074
2074
2074
2074
2071
2071
2071
2074
2074
2074
2070
2070
2070
2075
2075
2075
2072
2072
2072
2072
2071
2071
2071
2074
2074
2074
2072
2072
2072
2076
2076
2076
2067
2067
2067
2067
2072
2072
2072
2074
2074
2074
2072
2072
2072
2070
2070
2070
2071
2071
2071
2071
2070
2070
2070
2073
2073
2073
2068
2068
2068
2069
2069
2069
2076
2076
2076
2076
2070
2070
2070
2072
2072
2072
2072
2072
2072
2070
2070
2070
2076
2076
2076
2076
2071
2071
2071
2074
2074
2074
2071
2071
2071
2072
2072
2072
2071
2071
2071
2071
2066
2066
2066
2073
2073
2073
2071
2071
2071
2070
2070
2070
2071
2071
2071
2071
2068
2068
2068
2070
2070
2070
2072
2072
2072
2073
2073
2073
2071
2071
2071
2071
2071
2071
2071
2073
2073
2073
2068
2068
2068
2073
2073
2073
2068
2068
2068
2068
2074
2074
2074
2071
2071
2071
2070
2070
2070
2066
2066
2066
2071
2071
2071
2071
2071
2071
2071
2073
2073
2073
2071
2071
2071
2071
2071
2071
2070
2070
2070
2070
2070
2070
2070
2071
2071
2071
2070
2070
2070
2072
2072
2072
2068
2068
2068
2068
2069
2069
2069
2073
2073
2073
2072
2072
2072
2072
2072
2072
2073
2073
2073
2073
2070
2070
2070
2074
2074
2074
2071
2071
2071
2071
2071
2071
2070
2070
2070
2070
2070
2070
2070
2073
2073
2073
2074
2074
2074
2071
2071
2071
2072
2072
2072
2072
2072
2072
2072
2072
2072
2072
2072
2072
2072
2073
2073
2073
2072
2072
2072
2072
2080
2080
2080
2074
2074
2074
2072
2072
2072
2070
2070
2070
2070
2070
2070
2070
2071
2071
2071
2075
2075
2075
2073
2073
2073
2067
2067
2067
2072
2072
2072
2072
2070
2070
2070
2070
2070
2070
2071
2071
2071
2070
2070
2070
2066
2066
2066
2066
2071
2071
2071
2071
2071
2071
2073
2073
2073
2072
2072
2072
2068
2068
2068
2068
2070
2070
2070
2071
2071
2071
2072
2072
2072
2068
2068
2068
2073
2073
2073
2073
2072
2072
2072
2071
2071
2071
2070
2070
2070
2073
2073
2073
2069
2069
2069
2069
2071
2071
2071
2071
2071
2071
2069
2069
2069
2071
2071
2071
2070
2070
2070
2070
2071
2071
2071
2072
2072
2072
2072
2072
2072
2069
2069
2069
2071
2071
2071
2071
2070
2070
2070
2070
2070
2070
2069
2069
2069
2070
2070
2070
2072
2072
2072
2072
2074
2074
2074
2072
2072
2072
2071
2071
2071
2071
2071
2071
2071
2071
2071
2071
2071
2071
2071
2072
2072
2072
2071
2071
2071
2074
2074
2074
2075
2075
2075
2075
2069
2069
2069
2075
2075
2075
2071
2071
2071
2073
2073
2073
2071
2071
2071
2071
2071
2071
2071
2070
2070
2070
2076
2076
2076
2070
2070
2070
2071
2071
2071
2071
2072
2072
2072
2072
2072
2072
2070
2070
2070
2071
2071
2071
2073
2073
2073
2073
2070
2070
2070
2071
2071
2071
2072
2072
2072
2073
2073
2073
2071
2071
2071
2071
2069
2069
2069
2071
2071
2071
2073
2073
2073
2071
2071
2071
2074
2074
2074
2074
2071
2071
2071
2069
2069
2069
2070
2070
2070
2070
2070
2070
2072
2072
2072
2072
2073
2073
2073
2070
2070
2070
2069
2069
2069
2072
2072
2072
2072
2072
2072
2072
2069
2069
2069
2071
2071
2071
2067
2067
2067
2071
2071
2071
2072
2072
2072
2072
2067
2067
2067
2073
2073
2073
2076
2076
2076
2072
2072
2072
2071
2071
2071
2071
2070
2070
2070
2072
2072
2072
2069
2069
2069
2074
2074
2074
2069
2069
2069
2069
2074
2074
2074
2074
2074
2074
2069
2069
2069
2072
2072
2072
2071
2071
2071
2071
2066
2066
2066
2072
2072
2072
2071
2071
2071
2073
2073
2073
2072
2072
2072
2072
2071
2071
2071
2072
2072
2072
2069
2069
2069
2070
2070
2070
2071
2071
2071
2071
2069
2069
2069
2072
2072
2072
2079
2079
2079
2064
2064
2064
2071
2071
2071
2071
2070
2070
2070
2073
2073
2073
2070
2070
2070
2070
2070
2070
2076
2076
2076
2076
2070
2070
2070
2071
2071
2071
2068
2068
2068
2071
2071
2071
2070
2070
2070
2070
2070
2070
2070
2073
2073
2073
2072
2072
2072
2069
2069
2069
2072
2072
2072
2072
2069
2069
2069
2071
2071
2071
2071
2071
2071
2071
2071
2071
2072
2072
2072
2072
2070
2070
2070
2072
2072
2072
2074
2074
2074
2071
2071
2071
2071
2071
2071
2071
2069
2069
2069
2070
2070
2070
2072
2072
2072
2070
2070
2070
2070
2070
2070
2070
2070
2070
2070
2073
2073
2073
2068
2068
2068
2071
2071
2071
2070
2070
2070
2070
2068
2068
2068
2069
2069
2069
2071
2071
2071
2067
2067
2067
2068
2068
2068
2068
2070
2070
2070
2071
2071
2071
2071
2071
2071
2073
2073
2073
2076
2076
2076
2076
2069
2069
2069
2069
2069
2069
2071
2071
2071
2073
2073
2073
2071
2071
2071
2071
2071
2071
2071
2074
2074
2074
2070
2070
2070
2071
2071
2071
2071
2071
2071
2071
2072
2072
2072
2071
2071
2071
2070
2070
2070
2070
2070
2070
2072
2072
2072
2072
2068
2068
2068
2071
2071
2071
2069
2069
2069
2070
2070
2070
2072
2072
2072
2072
2072
2072
2072
2072
2072
2072
2070
2070
2070
2071
2071
2071
2072
2072
2072
2072
2070
2070
2070
2066
2066
2066
2075
2075
2075
2071
2071
2071
2069
2069
2069
2069
2069
2069
2069
2071
2071
2071
2072
2072
2072
2070
2070
2070
2074
2074
2074
2074
2068
2068
2068
2068
2068
2068
2071
2071
2071
2074
2074
2074
2068
2068
2068
2068
2071
2071
2071
2070
2070
2070
2072
2072
2072
2070
2070
2070
2068
2068
2068
2068
2072
2072
2072
2072
2072
2072
2068
2068
2068
2070
2070
2070
2070
2070
2070
2070
2072
2072
2072
2074
2074
2074
2069
2069
2069
2070
2070
2070
2071
2071
2071
2071
2069
2069
2069
2073
2073
2073
2070
2070
2070
2069
2069
2069
2071
2071
2071
2071
2069
2069
2069
2073
2073
2073
2070
2070
2070
2071
2071
2071
2071
2071
2071
2071
2068
2068
2068
2071
2071
2071
2072
2072
2072
2075
2075
2075
2069
2069
2069
2069
2069
2069
2069
2067
2067
2067
2069
2069
2069
2070
2070
2070
2073
2073
2073
2073
2071
2071
2071
2071
2071
2071
2071
2071
2071
2071
2071
2071
2072
2072
2072
2072
2070
2070
2070
2073
2073
2073
2069
2069
2069
2072
2072
2072
2072
2072
2072
2072
2071
2071
2071
2071
2071
2071
2069
2069
2069
2073
2073
2073
2070
2070
2070
2070
2071
2071
2071
2072
2072
2072
2072
2072
2072
2074
2074
2074
2070
2070
2070
2070
2069
2069
2069
2070
2070
2070
2070
2070
2070
2072
2072
2072
2071
2071
2071
2071
2072
2072
2072
2071
2071
2071
2069
2069
2069
2071
2071
2071
2071
2071
2071
2071
2073
2073
2073
2074
2074
2074
2070
2070
2070
2071
2071
2071
2069
2069
2069
2069
2071
2071
2071
2073
2073
2073
2069
2069
2069
2071
2071
2071
2068
2068
2068
2068
2069
2069
2069
2070
2070
2070
2066
2066
2066
2071
2071
2071
2071
2071
2071
2071
2070
2070
2070
2070
2070
2070
2073
2073
2073
2069
2069
2069
2071
2071
2071
2071
2063
2063
2063
2076
2076
2076
2071
2071
2071
2070
2070
2070
2070
2070
2070
2070
2070
2070
2070
2072
2072
2072
2068
2068
2068
2071
2071
2071
2071
2071
2071
2071
2071
2071
2071
2071
2071
2071
2071
2071
2071
2073
2073
2073
2070
2070
2070
2070
2069
2069
2069
2071
2071
2071
2072
2072
2072
2073
2073
2073
2073
2073
2073
2073
2071
2071
2071
2073
2073
2073
2069
2069
2069
2068
2068
2068
2071
2071
2071
2071
2068
2068
2068
2073
2073
2073
2071
2071
2071
2067
2067
2067
2072
2072
2072
2072
2074
2074
2074
2070
2070
2070
2071
2071
2071
2070
2070
2070
2072
2072
2072
2072
2072
2072
2072
2071
2071
2071
2074
2074
2074
2070
2070
2070
2072
2072
2072
2072
2070
2070
2070
2071
2071
2071
2073
2073
2073
2067
2067
2067
2073
2073
2073
2073
2071
2071
2071
2072
2072
2072
2071
2071
2071
2070
2070
2070
2075
2075
2075
2075
2072
2072
2072
2072
2072
2072
2068
2068
2068
2072
2072
2072
2072
2072
2072
2072
2071
2071
2071
2072
2072
2072
2071
2071
2071
2072
2072
2072
2072
2072
2072
2072
2069
2069
2069
2074
2074
2074
2070
2070
2070
2071
2071
2071
2072
2072
2072
2072
2070
2070
2070
2071
2071
2071
2070
2070
2070
2069
2069
2069
2071
2071
2071
2071
2068
2068
2068
2071
2071
2071
2071
2071
2071
2071
2071
2071
2072
2072
2072
2072
2073
2073
2073
2074
2074
2074
2071
2071
2071
2071
2071
2071
2071
2071
2071
2071
2071
2071
2071
2070
2070
2070
2073
2073
2073
2072
2072
2072
2069
2069
2069
2069
2066
2066
2066
2072
2072
2072
2071
2071
2071
2070
2070
2070
2069
2069
2069
2069
2068
2068
2068
2073
2073
2073
2073
2073
2073
2072
2072
2072
2073
2073
2073
2073
2071
2071
2071
2072
2072
2072
2069
2069
2069
2078
2078
2078
2072
2072
2072
2072
2071
2071
2071
2071
2071
2071
2073
2073
2073
2071
2071
2071
2072
2072
2072
2072
2073
2073
2073
2071
2071
2071
2073
2073
2073
2071
2071
2071
2073
2073
2073
2073
2071
2071
2071
2070
2070
2070
2073
2073
2073
2072
2072
2072
2071
2071
2071
2071
2068
2068
2068
2071
2071
2071
2071
2071
2071
2071
2071
2071
2069
2069
2069
2069
2071
2071
2071
2071
2071
2071
2074
2074
2074
2070
2070
2070
2071
2071
2071
2071
2067
2067
2067
2071
2071
2071
2072
2072
2072
2070
2070
2070
2071
2071
2071
2071
2070
2070
2070
2073
2073
2073
2071
2071
2071
2073
2073
2073
2071
2071
2071
2071
2071
2071
2071
2073
2073
2073
2070
2070
2070
2071
2071
2071
2072
2072
2072
2072
2070
2070
2070
2071
2071
2071
2070
2070
2070
2072
2072
2072
2071
2071
2071
2071
2070
2070
2070
2075
2075
2075
2070
2070
2070
2072
2072
2072
2071
2071
2071
2071
2072
2072
2072
2072
2072
2072
2075
2075
2075
2072
2072
2072
2071
2071
2071
2071
2067
2067
2067
2074
2074
2074
2068
2068
2068
2072
2072
2072
2067
2067
2067
2067
2071
2071
2071
2071
2071
2071
2071
2071
2071
2069
2069
2069
2074
2074
2074
2074
2071
2071
2071
2073
2073
2073
2069
2069
2069
2072
2072
2072
2071
2071
2071
2071
2073
2073
2073
2072
2072
2072
2072
2072
2072
2070
2070
2070
2073
2073
2073
2073
2057
2057
2057
2071
2071
2071
2072
2072
2072
2070
2070
2070
2072
2072
2072
2072
2071
2071
2071
2073
2073
2073
2072
2072
2072
2070
2070
2070
2069
2069
2069
2069
2072
2072
2072
2072
2072
2072
2071
2071
2071
2071
2071
2071
2069
2069
2069
2069
2070
2070
2070
2072
2072
2072
2075
2075
2075
2072
2072
2072
2071
2071
2071
2071
2070
2070
2070
2072
2072
2072
2072
2072
2072
2073
2073
2073
2072
2072
2072
2072
2061
2061
2061
2071
2071
2071
2072
2072
2072
2071
2071
2071
2070
2070
2070
2070
2069
2069
2069
2075
2075
2075
2071
2071
2071
2074
2074
2074
2070
2070
2070
2070
2071
2071
2071
2073
2073
2073
2071
2071
2071
2073
2073
2073
2073
2073
2073
2073
2067
2067
2067
2073
2073
2073
2073
2073
2073
2069
2069
2069
2073
2073
2073
2073
2071
2071
2071
2072
2072
2072
2073
2073
2073
2070
2070
2070
2072
2072
2072
2072
2070
2070
2070
2070
2070
2070
2069
2069
2069
2071
2071
2071
2072
2072
2072
2072
2070
2070
2070
2074
2074
2074
2070
2070
2070
2073
2073
2073
2070
2070
2070
2070
2070
2070
2070
2071
2071
2071
2070
2070
2070
2073
2073
2073
2072
2072
2072
2072
2073
2073
2073
2071
2071
2071
2070
2070
2070
2071
2071
2071
2073
2073
2073
2073
2070
2070
2070
2071
2071
2071
2071
2071
2071
2072
2072
2072
2072
2072
2072
2072
2070
2070
2070
2074
2074
2074
2070
2070
2070
2067
2067
2067
2072
2072
2072
2072
2073
2073
2073
2072
2072
2072
2070
2070
2070
2074
2074
2074
2070
2070
2070
2070
2072
2072
2072
2074
2074
2074
2071
2071
2071
2070
2070
2070
2071
2071
2071
2071
2070
2070
2070
2072
2072
2072
2072
2072
2072
2070
2070
2070
2071
2071
2071
2071
2070
2070
2070
2072
2072
2072
2068
2068
2068
2071
2071
2071
2068
2068
2068
2068
2072
2072
2072
2074
2074
2074
2070
2070
2070
2070
2070
2070
2071
2071
2071
2071
2068
2068
2068
2071
2071
2071
2072
2072
2072
2072
2072
2072
2073
2073
2073
2073
2070
2070
2070
2072
2072
2072
2070
2070
2070
2071
2071
2071
2074
2074
2074
2074
2070
2070
2070
2067
2067
2067
2071
2071
2071
2069
2069
2069
2073
2073
2073
2073
2069
2069
2069
2071
2071
2071
2070
2070
2070
2068
2068
2068
2070
2070
2070
2070
2070
2070
2070
2071
2071
2071
2072
2072
2072
2078
2078
2078
2069
2069
2069
2069
2071
2071
2071
2073
2073
2073
2070
2070
2070
2072
2072
2072
2070
2070
2070
2070
2070
2070
2070
2074
2074
2074
2071
2071
2071
2071
2071
2071
2072
2072
2072
2072
2067
2067
2067
2072
2072
2072
2071
2071
2071
2071
2071
2071
2068
2068
2068
2068
2070
2070
2070
2077
2077
2077
2070
2070
2070
2070
2070
2070
2073
2073
2073
2073
2073
2073
2073
2069
2069
2069
2069
2069
2069
2069
2069
2069
2072
2072
2072
2072
2069
2069
2069
2073
2073
2073
2072
2072
2072
2070
2070
2070
2070
2070
2070
2070
2071
2071
2071
2069
2069
2069
2073
2073
2073
2069
2069
2069
2071
2071
2071
2071
2071
2071
2071
2071
2071
2071
2069
2069
2069
2071
2071
2071
2070
2070
2070
2070
2071
2071
2071
2072
2072
2072
2071
2071
2071
2071
2071
2071
2075
2075
2075
2075
2070
2070
2070
2073
2073
2073
2073
2073
2073
2072
2072
2072
2071
2071
2071
2071
2072
2072
2072
2073
2073
2073
2071
2071
2071
2071
2071
2071
2074
2074
2074
2074
2069
2069
2069
2073
2073
2073
2071
2071
2071
2070
2070
2070
2072
2072
2072
2072
2075
2075
2075
2072
2072
2072
2071
2071
2071
2072
2072
2072
2070
2070
2070
2070
2070
2070
2070
2071
2071
2071
2074
2074
2074
2068
2068
2068
2071
2071
2071
2071
2070
2070
2070
2072
2072
2072
2072
2072
2072
2071
2071
2071
2067
2067
2067
2067
2070
2070
2070
2070
2070
2070
2073
2073
2073
2068
2068
2068
2072
2072
2072
2072
2070
2070
2070
2074
2074
2074
2075
2075
2075
2069
2069
2069
2071
2071
2071
2071
2068
2068
2068
2074
2074
2074
2073
2073
2073
2074
2074
2074
2074
2074
2074
2074
2068
2068
2068
2073
2073
2073
2069
2069
2069
2073
2073
2073
2072
2072
2072
2072
2072
2072
2072
2070
2070
2070
2072
2072
2072
2072
2072
2072
2070
2070
2070
2070
2076
2076
2076
2071
2071
2071
2070
2070
2070
2072
2072
2072
2071
2071
2071
2071
2072
2072
2072
2072
2072
2072
2070
2070
2070
2077
2077
2077
2070
2070
2070
2070
2072
2072
2072
2069
2069
2069
2073
2073
2073
2072
2072
2072
2071
2071
2071
2071
2070
2070
2070
2072
2072
2072
2071
2071
2071
2071
2071
2071
2071
2071
2071
2071
2070
2070
2070
2074
2074
2074
2073
2073
2073
2069
2069
2069
2083
2083
2083
2083
2071
2071
2071
2071
2071
2071
2071
2071
2071
2072
2072
2072
2071
2071
2071
2071
2066
2066
2066
2071
2071
2071
2072
2072
2072
2071
2071
2071
2067
2067
2067
2067
2072
2072
2072
2071
2071
2071
2071
2071
2071
2070
2070
2070
2072
2072
2072
2072
2069
2069
2069
2073
2073
2073
2070
2070
2070
2071
2071
2071
2073
2073
2073
2073
2068
2068
2068
2073
2073
2073
2067
2067
2067
2071
2071
2071
2070
2070
2070
2070
2072
2072
2072
2066
2066
2066
2072
2072
2072
2072
2072
2072
2071
2071
2071
2071
2069
2069
2069
2074
2074
2074
2070
2070
2070
2072
2072
2072
2069
2069
2069
2069
2067
2067
2067
2073
2073
2073
2072
2072
2072
2070
2070
2070
2071
2071
2071
2071
2071
2071
2071
2075
2075
2075
2072
2072
2072
2071
2071
2071
2072
2072
2072
2072
2071
2071
2071
2074
2074
2074
2070
2070
2070
2071
2071
2071
2070
2070
2070
2070
2074
2074
2074
2072
2072
2072
2071
2071
2071
2072
2072
2072
2065
2065
2065
2065
2072
2072
2072
2075
2075
2075
2071
2071
2071
2071
2071
2071
2072
2072
2072
2072
2069
2069
2069
2074
2074
2074
2071
2071
2071
2075
2075
2075
2073
2073
2073
2073
2068
2068
2068
2071
2071
2071
2072
2072
2072
2071
2071
2071
2069
2069
2069
2069
2071
2071
2071
2073
2073
2073
2072
2072
2072
2070
2070
2070
2068
2068
2068
2068
2070
2070
2070
2072
2072
2072
2070
2070
2070
2071
2071
2071
2072
2072
2072
2072
2073
2073
2073
2072
2072
2072
2071
2071
2071
2073
2073
2073
2069
2069
2069
2069
2070
2070
2070
2071
2071
2071
2070
2070
2070
2072
2072
2072
2072
2072
2072
2072
2069
2069
2069
2072
2072
2072
2073
2073
2073
2071
2071
2071
2071
2071
2071
2071
2070
2070
2070
2070
2070
2070
2073
2073
2073
2070
2070
2070
2069
2069
2069
2069
2071
2071
2071
2072
2072
2072
2071
2071
2071
2069
2069
2069
2071
2071
2071
2071
2072
2072
2072
2069
2069
2069
2066
2066
2066
2070
2070
2070
2072
2072
2072
2072
2071
2071
2071
2073
2073
2073
2074
2074
2074
2073
2073
2073
2070
2070
2070
2070
2072
2072
2072
2071
2071
2071
2071
2071
2071
2071
2071
2071
2068
2068
2068
2068
2070
2070
2070
2070
2070
2070
2072
2072
2072
2067
2067
2067
2073
2073
2073
2073
2070
2070
2070
2071
2071
2071
2071
2071
2071
2068
2068
2068
2071
2071
2071
2071
2074
2074
2074
2071
2071
2071
2071
2071
2071
2072
2072
2072
2073
2073
2073
2073
2072
2072
2072
2071
2071
2071
2070
2070
2070
2073
2073
2073
2071
2071
2071
2071
2070
2070
2070
2072
2072
2072
2072
2072
2072
2072
2072
2072
2072
2072
2072
2072
2070
2070
2070
2072
2072
2072
2071
2071
2071
2071
2071
2071
2072
2072
2072
2072
2072
2072
2072
2073
2073
2073
2070
2070
2070
2071
2071
2071
2073
2073
2073
2073
2071
2071
2071
2071
2071
2071
2073
2073
2073
2071
2071
2071
2070
2070
2070
2070
2072
2072
2072
2072
2072
2072
2071
2071
2071
2071
2071
2071
2073
2073
2073
2073
2070
2070
2070
2076
2076
2076
2072
2072
2072
2070
2070
2070
2069
2069
2069
2069
2071
2071
2071
2071
2071
2071
2070
2070
2070
2072
2072
2072
2072
2072
2072
2072
2070
2070
2070
2070
2070
2070
2071
2071
2071
2071
2071
2071
2070
2070
2070
2070
2072
2072
2072
2068
2068
2068
2073
2073
2073
2071
2071
2071
2071
2071
2071
2071
2073
2073
2073
2072
2072
2072
2067
2067
2067
2071
2071
2071
2069
2069
2069
2069
2068
2068
2068
2069
2069
2069
2074
2074
2074
2070
2070
2070
2074
2074
2074
2074
2070
2070
2070
2072
2072
2072
2070
2070
2070
2071
2071
2071
2073
2073
2073
2073
2071
2071
2071
2073
2073
2073
2072
2072
2072
2071
2071
2071
2071
2071
2071
2071
2071
2071
2071
2070
2070
2070
2072
2072
2072
2067
2067
2067
2073
2073
2073
2073
2072
2072
2072
2074
2074
2074
2072
2072
2072
2072
2072
2072
2069
2069
2069
2069
2071
2071
2071
2072
2072
2072
2071
2071
2071
2072
2072
2072
2070
2070
2070
2070
2070
2070
2070
2074
2074
2074
2072
2072
2072
2071
2071
2071
2070
2070
2070
2070
2071
2071
2071
2076
2076
2076
2070
2070
2070
2073
2073
2073
2071
2071
2071
2071
2069
2069
2069
2072
2072
2072
2069
2069
2069
2074
2074
2074
2071
2071
2071
2071
2074
2074
2074
2073
2073
2073
2072
2072
2072
2072
2072
2072
2069
2069
2069
2069
2071
2071
2071
2071
2071
2071
2070
2070
2070
2071
2071
2071
2072
2072
2072
2072
2071
2071
2071
2070
2070
2070
2073
2073
2073
2073
2073
2073
2067
2067
2067
2067
2073
2073
2073
2071
2071
2071
2071
2071
2071
2072
2072
2072
2069
2069
2069
2069
2070
2070
2070
2073
2073
2073
2071
2071
2071
2072
2072
2072
2071
2071
2071
2071
2072
2072
2072
2072
2072
2072
2071
2071
2071
2074
2074
2074
2069
2069
2069
2069
2071
2071
2071
2071
2071
2071
2070
2070
2070
2069
2069
2069
2070
2070
2070
2070
2068
2068
2068
2071
2071
2071
2072
2072
2072
2071
2071
2071
2072
2072
2072
2072
2070
2070
2070
2074
2074
2074
2070
2070
2070
2070
2070
2070
2072
2072
2072
2072
2068
2068
2068
2073
2073
2073
2071
2071
2071
2072
2072
2072
2070
2070
2070
2070
2068
2068
2068
2077
2077
2077
2069
2069
2069
2073
2073
2073
2069
2069
2069
2069
2074
2074
2074
2070
2070
2070
2071
2071
2071
2071
2071
2071
2071
2071
2071
2071
2069
2069
2069
2072
2072
2072
2072
2072
2072
2068
2068
2068
2072
2072
2072
2072
2071
2071
2071
2072
2072
2072
2073
2073
2073
2071
2071
2071
2067
2067
2067
2067
2071
2071
2071
2073
2073
2073
2071
2071
2071
2069
2069
2069
2071
2071
2071
2071
2073
2073
2073
2072
2072
2072
2072
2072
2072
2072
2072
2072
2072
2072
2072
2072
2068
2068
2068
2073
2073
2073
2070
2070
2070
2069
2069
2069
2072
2072
2072
2072
2070
2070
2070
2071
2071
2071
2071
2071
2071
2072
2072
2072
2071
2071
2071
2071
2071
2071
2071
2073
2073
2073
2069
2069
2069
2072
2072
2072
2069
2069
2069
2069
2068
2068
2068
2074
2074
2074
2070
2070
2070
2072
2072
2072
2074
2074
2074
2074
2070
2070
2070
2075
2075
2075
2072
2072
2072
2071
2071
2071
2072
2072
2072
2072
2069
2069
2069
2071
2071
2071
2068
2068
2068
2067
2067
2067
2071
2071
2071
2071
2071
2071
2071
2075
2075
2075
2071
2071
2071
2072
2072
2072
2069
2069
2069
2069
2067
2067
2067
2067
2067
2067
2070
2070
2070
2072
2072
2072
2070
2070
2070
2070
2069
2069
2069
2073
2073
2073
2069
2069
2069
2072
2072
2072
2072
2072
2072
2072
2070
2070
2070
2071
2071
2071
2072
2072
2072
2071
2071
2071
2070
2070
2070
2070
2072
2072
2072
2069
2069
2069
2074
2074
2074
2071
2071
2071
2072
2072
2072
2072
2072
2072
2072
2072
2072
2072
2075
2075
2075
2070
2070
2070
2073
2073
2073
2073
2068
2068
2068
2072
2072
2072
2069
2069
2069
2074
2074
2074
2070
2070
2070
2070
2069
2069
2069
2071
2071
2071
2070
2070
2070
2072
2072
2072
2072
2072
2072
2072
2070
2070
2070
2074
2074
2074
2070
2070
2070
2074
2074
2074
2070
2070
2070
2070
2067
2067
2067
2073
2073
2073
2072
2072
2072
2070
2070
2070
2069
2069
2069
2069
2066
2066
2066
2071
2071
2071
2072
2072
2072
2069
2069
2069
2073
2073
2073
2073
2069
2069
2069
2072
2072
2072
2068
2068
2068
2068
2068
2068
2074
2074
2074
2074
2070
2070
2070
2072
2072
2072
2072
2072
2072
2074
2074
2074
2071
2071
2071
2071
2069
2069
2069
2071
2071
2071
2070
2070
2070
2072
2072
2072
2068
2068
2068
2068
2072
2072
2072
2075
2075
2075
2070
2070
2070
2072
2072
2072
2071
2071
2071
2071
2071
2071
2071
2074
2074
2074
2070
2070
2070
2069
2069
2069
2072
2072
2072
2072
2073
2073
2073
2071
2071
2071
2072
2072
2072
2070
2070
2070
2072
2072
2072
2072
2069
2069
2069
2071
2071
2071
2077
2077
2077
2070
2070
2070
2071
2071
2071
2071
2070
2070
2070
2073
2073
2073
2069
2069
2069
2071
2071
2071
2070
2070
2070
2070
2073
2073
2073
2071
2071
2071
2073
2073
2073
2072
2072
2072
2066
2066
2066
2066
2070
2070
2070
2068
2068
2068
2069
2069
2069
2069
2069
2069
2071
2071
2071
2071
2069
2069
2069
2071
2071
2071
2069
2069
2069
2070
2070
2070
2070
2070
2070
2070
2067
2067
2067
2071
2071
2071
2072
2072
2072
2073
2073
2073
2072
2072
2072
2072
2070
2070
2070
2071
2071
2071
2072
2072
2072
2069
2069
2069
2077
2077
2077
2077
2070
2070
2070
2068
2068
2068
2069
2069
2069
2071
2071
2071
2073
2073
2073
2073
2071
2071
2071
2072
2072
2072
2070
2070
2070
2072
2072
2072
2071
2071
2071
2071
2071
2071
2071
2072
2072
2072
2072
2072
2072
2071
2071
2071
2072
2072
2072
2072
2068
2068
2068
2073
2073
2073
2070
2070
2070
2071
2071
2071
2071
2071
2071
2071
2072
2072
2072
2073
2073
2073
2069
2069
2069
2072
2072
2072
2071
2071
2071
2071
2070
2070
2070
2069
2069
2069
2073
2073
2073
2070
2070
2070
2072
2072
2072
2072
2071
2071
2071
2072
2072
2072
2072
2072
2072
2070
2070
2070
2071
2071
2071
2071
2069
2069
2069
2072
2072
2072
2068
2068
2068
2070
2070
2070
2068
2068
2068
2068
2070
2070
2070
2072
2072
2072
2070
2070
2070
2073
2073
2073
2072
2072
2072
2072
2071
2071
2071
2071
2071
2071
2070
2070
2070
2071
2071
2071
2071
2071
2071
2071
2071
2071
2071
2070
2070
2070
2071
2071
2071
2072
2072
2072
2073
2073
2073
2073
2074
2074
2074
2071
2071
2071
2073
2073
2073
2072
2072
2072
2070
2070
2070
2070
2072
2072
2072
2071
2071
2071
2073
2073
2073
2071
2071
2071
2071
2071
2071
2071
2069
2069
2069
2074
2074
2074
2070
2070
2070
2069
2069
2069
2074
2074
2074
2074
2070
2070
2070
2075
2075
2075
2070
2070
2070
2072
2072
2072
2072
2072
2072
2072
2074
2074
2074
2070
2070
2070
2072
2072
2072
2070
2070
2070
2067
2067
2067
2067
2070
2070
2070
2071
2071
2071
2073
2073
2073
2072
2072
2072
2071
2071
2071
2071
2071
2071
2071
2073
2073
2073
2072
2072
2072
2074
2074
2074
2071
2071
2071
2071
2066
2066
2066
2074
2074
2074
2071
2071
2071
2071
2071
2071
2069
2069
2069
2069
2069
2069
2069
2074
2074
2074
2070
2070
2070
2074
2074
2074
2068
2068
2068
2068
2070
2070
2070
2072
2072
2072
2071
2071
2071
2072
2072
2072
2072
2072
2072
2072
2069
2069
2069
2072
2072
2072
2071
2071
2071
2072
2072
2072
2070
2070
2070
2070
2069
2069
2069
2072
2072
2072
2072
2072
2072
2068
2068
2068
2069
2069
2069
2069
2073
2073
2073
2071
2071
2071
2070
2070
2070
2070
2070
2070
2070
2070
2070
2070
2072
2072
2072
2073
2073
2073
2070
2070
2070
2071
2071
2071
2071
2071
2071
2071
2072
2072
2072
2070
2070
2070
2069
2069
2069
2069
2069
2069
2062
2062
2062
2062
2072
2072
2072
2072
2072
2072
2071
2071
2071
2070
2070
2070
2072
2072
2072
2072
2069
2069
2069
2073
2073
2073
2069
2069
2069
2069
2069
2069
2071
2071
2071
2071
2073
2073
2073
2072
2072
2072
2071
2071
2071
2072
2072
2072
2068
2068
2068
2068
2071
2071
2071
2074
2074
2074
2073
2073
2073
2069
2069
2069
2077
2077
2077
2077
2074
2074
2074
2069
2069
2069
2075
2075
2075
2070
2070
2070
2071
2071
2071
2071
2068
2068
2068
2072
2072
2072
2070
2070
2070
2070
2070
2070
2072
2072
2072
2072
2072
2072
2072
2072
2072
2072
2071
2071
2071
2072
2072
2072
2069
2069
2069
2069
2071
2071
2071
2071
2071
2071
2074
2074
2074
2072
2072
2072
2072
2072
2072
2072
2075
2075
2075
2073
2073
2073
2073
2073
2073
2071
2071
2071
2071
2071
2071
2071
2069
2069
2069
2071
2071
2071
2070
2070
2070
2070
2070
2070
2070
2070
2070
2070
2071
2071
2071
2072
2072
2072
2064
2064
2064
2075
2075
2075
2072
2072
2072
2072
2073
2073
2073
2074
2074
2074
2069
2069
2069
2068
2068
2068
2070
2070
2070
2070
2069
2069
2069
2073
2073
2073
2072
2072
2072
2071
2071
2071
2068
2068
2068
2068
2071
2071
2071
2071
2071
2071
2069
2069
2069
2070
2070
2070
2072
2072
2072
2072
2072
2072
2072
2072
2072
2072
2072
2072
2072
2070
2070
2070
2073
2073
2073
2073
2070
2070
2070
2071
2071
2071
2071
2071
2071
2069
2069
2069
2071
2071
2071
2071
2070
2070
2070
2068
2068
2068
2068
2068
2068
2074
2074
2074
2069
2069
2069
2069
2071
2071
2071
2073
2073
2073
2072
2072
2072
2073
2073
2073
2071
2071
2071
2071
2070
2070
2070
2075
2075
2075
2069
2069
2069
2069
2069
2069
2072
2072
2072
2072
2069
2069
2069
2070
2070
2070
2072
2072
2072
2071
2071
2071
2073
2073
2073
2073
2069
2069
2069
2072
2072
2072
2071
2071
2071
2074
2074
2074
2071
2071
2071
2071
2072
2072
2072
2071
2071
2071
2075
2075
2075
2071
2071
2071
2071
2071
2071
2071
2067
2067
2067
2073
2073
2073
2070
2070
2070
2074
2074
2074
2067
2067
2067
2067
2071
2071
2071
2078
2078
2078
2072
2072
2072
2071
2071
2071
2074
2074
2074
2074
2071
2071
2071
2073
2073
2073
2071
2071
2071
2072
2072
2072
2072
2072
2072
2072
2070
2070
2070
2071
2071
2071
2068
2068
2068
2075
2075
2075
2070
2070
2070
2070
2073
2073
2073
2072
2072
2072
2070
2070
2070
2073
2073
2073
2070
2070
2070
2070
2071
2071
2071
2071
2071
2071
2072
2072
2072
2069
2069
2069
2073
2073
2073
2073
2073
2073
2073
2072
2072
2072
2070
2070
2070
2069
2069
2069
2072
2072
2072
2072
2071
2071
2071
2072
2072
2072
2071
2071
2071
2070
2070
2070
2070
2070
2070
2070
2072
2072
2072
2071
2071
2071
2070
2070
2070
2071
2071
2071
2073
2073
2073
2073
2072
2072
2072
2071
2071
2071
2071
2071
2071
2071
2071
2071
2071
2071
2071
2071
2072
2072
2072
2073
2073
2073
2069
2069
2069
2072
2072
2072
2074
2074
2074
2074
2070
2070
2070
2072
2072
2072
2074
2074
2074
2066
2066
2066
2069
2069
2069
2069
2073
2073
2073
2071
2071
2071
2072
2072
2072
2072
2072
2072
2070
2070
2070
2070
2070
2070
2070
2073
2073
2073
2074
2074
2074
2070
2070
2070
2072
2072
2072
2072
2071
2071
2071
2070
2070
2070
2070
2070
2070
2070
2070
2070
2073
2073
2073
2073
2069
2069
2069
2070
2070
2070
2072
2072
2072
2071
2071
2071
2069
2069
2069
2069
2071
2071
2071
2072
2072
2072
2071
2071
2071
2069
2069
2069
2072
2072
2072
2072
2071
2071
2071
2073
2073
2073
2071
2071
2071
2070
2070
2070
2071
2071
2071
2071
2071
2071
2071
2071
2071
2071
2072
2072
2072
2069
2069
2069
2071
2071
2071
2071
2069
2069
2069
2069
2069
2069
2069
2069
2069
2075
2075
2075
2072
2072
2072
2072
2069
2069
2069
2073
2073
2073
2071
2071
2071
2072
2072
2072
2071
2071
2071
2071
2069
2069
2069
2072
2072
2072
2067
2067
2067
2070
2070
2070
2071
2071
2071
2071
2070
2070
2070
2070
2070
2070
2068
2068
2068
2070
2070
2070
2074
2074
2074
2074
2070
2070
2070
2071
2071
2071
2071
2071
2071
2074
2074
2074
2070
2070
2070
2070
2073
2073
2073
2072
2072
2072
2072
2072
2072
2068
2068
2068
2071
2071
2071
2071
2069
2069
2069
2070
2070
2070
2069
2069
2069
2073
2073
2073
2069
2069
2069
2069
2070
2070
2070
2070
2070
2070
2071
2071
2071
2072
2072
2072
2071
2071
2071
2071
2071
2071
2071
2072
2072
2072
2070
2070
2070
2071
2071
2071
2072
2072
2072
2072
2071
2071
2071
2072
2072
2072
2070
2070
2070
2069
2069
2069
2071
2071
2071
2071
2067
2067
2067
2074
2074
2074
2071
2071
2071
2070
2070
2070
2070
2070
2070
2070
2073
2073
2073
2072
2072
2072
2071
2071
2071
2070
2070
2070
2070
2070
2070
2070
2069
2069
2069
2071
2071
2071
2072
2072
2072
2069
2069
2069
2070
2070
2070
2070
2069
2069
2069
2072
2072
2072
2071
2071
2071
2071
2071
2071
2071
2071
2071
2071
2071
2071
2071
2072
2072
2072
2071
2071
2071
2071
2071
2071
2069
2069
2069
2069
2070
2070
2070
2074
2074
2074
2072
2072
2072
2073
2073
2073
2071
2071
2071
2071
2070
2070
2070
2071
2071
2071
2069
2069
2069
2072
2072
2072
2070
2070
2070
2070
2069
2069
2069
2072
2072
2072
2071
2071
2071
2073
2073
2073
2070
2070
2070
2070
2069
2069
2069
2074
2074
2074
2070
2070
2070
2070
2070
2070
2072
2072
2072
2072
2068
2068
2068
2074
2074
2074
2070
2070
2070
2070
2070
2070
2075
2075
2075
2075
2072
2072
2072
2074
2074
2074
2071
2071
2071
2071
2071
2071
2069
2069
2069
2069
2069
2069
2069
2071
2071
2071
2072
2072
2072
2069
2069
2069
2070
2070
2070
2070
2071
2071
2071
2073
2073
2073
2071
2071
2071
2073
2073
2073
2070
2070
2070
2070
2074
2074
2074
2070
2070
2070
2071
2071
2071
2071
2071
2071
2072
2072
2072
2072
2069
2069
2069
2072
2072
2072
2072
2072
2072
2070
2070
2070
2070
2070
2070
2070
2072
2072
2072
2070
2070
2070
2069
2069
2069
2070
2070
2070
2070
2070
2070
2070
2072
2072
2072
2071
2071
2071
2070
2070
2070
2073
2073
2073
2072
2072
2072
2072
2070
2070
2070
2073
2073
2073
2073
2073
2073
2074
2074
2074
2071
2071
2071
2071
2071
2071
2071
2070
2070
2070
2074
2074
2074
2071
2071
2071
2067
2067
2067
2067
2071
2071
2071
2072
2072
2072
2069
2069
2069
2069
2069
2069
2069
2069
2069
2069
2072
2072
2072
2072
2072
2072
2071
2071
2071
2071
2071
2071
2071
2071
2071
2071
2070
2070
2070
2072
2072
2072
2069
2069
2069
2070
2070
2070
2073
2073
2073
2073
2070
2070
2070
2070
2070
2070
2071
2071
2071
2075
2075
2075
2072
2072
2072
2072
2070
2070
2070
2070
2070
2070
2070
2070
2070
2072
2072
2072
2069
2069
2069
2069
2070
2070
2070
2070
2070
2070
2070
2070
2070
2072
2072
2072
2071
2071
2071
2071
2071
2071
2071
2070
2070
2070
2069
2069
2069
2071
2071
2071
2069
2069
2069
2069
2070
2070
2070
2073
2073
2073
2068
2068
2068
2070
2070
2070
2070
2070
2070
2070
2067
2067
2067
2072
2072
2072
2070
2070
2070
2072
2072
2072
2065
2065
2065
2065
2071
2071
2071
2071
2071
2071
2069
2069
2069
2071
2071
2071
2072
2072
2072
2072
2071
2071
2071
2072
2072
2072
2069
2069
2069
2071
2071
2071
2070
2070
2070
2070
2073
2073
2073
2071
2071
2071
2068
2068
2068
2071
2071
2071
2070
2070
2070
2070
2067
2067
2067
2071
2071
2071
2071
2071
2071
2070
2070
2070
2069
2069
2069
2069
2072
2072
2072
2070
2070
2070
2070
2070
2070
2072
2072
2072
2073
2073
2073
2073
2071
2071
2071
2067
2067
2067
2069
2069
2069
2074
2074
2074
2070
2070
2070
2070
2070
2070
2070
2071
2071
2071
2071
2071
2071
2071
2071
2071
2070
2070
2070
2070
2071
2071
2071
2074
2074
2074
2073
2073
2073
2072
2072
2072
2072
2072
2072
2072
2071
2071
2071
2070
2070
2070
2072
2072
2072
2069
2069
2069
2069
2069
2069
2069
2072
2072
2072
2072
2072
2072
2072
2072
2072
2071
2071
2071
2073
2073
2073
2073
2070
2070
2070
2072
2072
2072
2071
2071
2071
2071
2071
2071
2070
2070
2070
2070
2070
2070
2070
2076
2076
2076
2070
2070
2070
2071
2071
2071
2069
2069
2069
2069
2068
2068
2068
2072
2072
2072
2071
2071
2071
2071
2071
2071
2069
2069
2069
2069
2070
2070
2070
2071
2071
2071
2071
2071
2071
2071
2071
2071
2071
2071
2071
2071
2071
2071
2071
2071
2071
2071
2071
2071
2071
2072
2072
2072
2070
2070
2070
2070
2069
2069
2069
2071
2071
2071
2072
2072
2072
2068
2068
2068
2068
2068
2068
2068
2068
2068
2068
2073
2073
2073
2073
2073
2073
2072
2072
2072
2072
2072
2072
2072
2069
2069
2069
2072
2072
2072
2070
2070
2070
2072
2072
2072
2071
2071
2071
2071
2071
2071
2071
2072
2072
2072
2068
2068
2068
2068
2068
2068
2071
2071
2071
2071
2070
2070
2070
2070
2070
2070
2072
2072
2072
2075
2075
2075
2070
2070
2070
2070
2068
2068
2068
2059
2059
2059
2071
2071
2071
2072
2072
2072
2069
2069
2069
2069
2074
2074
2074
2070
2070
2070
2070
2070
2070
2068
2068
2068
2069
2069
2069
2069
2071
2071
2071
2072
2072
2072
2069
2069
2069
2069
2069
2069
2070
2070
2070
2070
2069
2069
2069
2073
2073
2073
2065
2065
2065
2073
2073
2073
2071
2071
2071
2071
2069
2069
2069
2070
2070
2070
2071
2071
2071
2075
2075
2075
2068
2068
2068
2068
2069
2069
2069
2070
2070
2070
2071
2071
2071
2071
2071
2071
2070
2070
2070
2070
2071
2071
2071
2072
2072
2072
2070
2070
2070
2068
2068
2068
2069
2069
2069
2069
2070
2070
2070
2073
2073
2073
2068
2068
2068
2070
2070
2070
2073
2073
2073
2073
2070
2070
2070
2072
2072
2072
2072
2072
2072
2073
2073
2073
2071
2071
2071
2071
2071
2071
2071
2072
2072
2072
2071
2071
2071
2071
2071
2071
2067
2067
2067
2067
2068
2068
2068
2069
2069
2069
2072
2072
2072
2069
2069
2069
2066
2066
2066
2066
2071
2071
2071
2070
2070
2070
2071
2071
2071
2071
2071
2071
2070
2070
2070
2070
2072
2072
2072
2072
2072
2072
2071
2071
2071
2070
2070
2070
2073
2073
2073
2073
2071
2071
2071
2073
2073
2073
2071
2071
2071
2070
2070
2070
2071
2071
2071
2071
2069
2069
2069
2072
2072
2072
2070
2070
2070
2069
2069
2069
2067
2067
2067
2067
2070
2070
2070
2070
2070
2070
2069
2069
2069
2070
2070
2070
2073
2073
2073
2073
2071
2071
2071
2074
2074
2074
2071
2071
2071
2071
2071
2071
2071
2071
2071
2071
2069
2069
2069
2070
2070
2070
2069
2069
2069
2070
2070
2070
2070
2070
2070
2070
2065
2065
2065
2071
2071
2071
2069
2069
2069
2068
2068
2068
2070
2070
2070
2070
2071
2071
2071
2071
2071
2071
2068
2068
2068
2076
2076
2076
2070
2070
2070
2070
2071
2071
2071
2071
2071
2071
2071
2071
2071
2071
2071
2071
2069
2069
2069
2069
2067
2067
2067
2068
2068
2068
2071
2071
2071
2069
2069
2069
2070
2070
2070
2070
2069
2069
2069
2072
2072
2072
2070
2070
2070
2070
2070
2070
2069
2069
2069
2069
2067
2067
2067
2072
2072
2072
2073
2073
2073
2069
2069
2069
2071
2071
2071
2071
2071
2071
2071
2073
2073
2073
2071
2071
2071
2077
2077
2077
2070
2070
2070
2070
2069
2069
2069
2071
2071
2071
2070
2070
2070
2067
2067
2067
2071
2071
2071
2071
2071
2071
2071
2073
2073
2073
2071
2071
2071
2069
2069
2069
2073
2073
2073
2073
2068
2068
2068
2075
2075
2075
2069
2069
2069
2070
2070
2070
2071
2071
2071
2071
2071
2071
2071
2070
2070
2070
2069
2069
2069
2071
2071
2071
2072
2072
2072
2072
2070
2070
2070
2073
2073
2073
2068
2068
2068
2069
2069
2069
2070
2070
2070
2070
2071
2071
2071
2070
2070
2070
2070
2070
2070
2070
2070
2070
2069
2069
2069
2069
2071
2071
2071
2073
2073
2073
2070
2070
2070
2070
2070
2070
2069
2069
2069
2069
2071
2071
2071
2072
2072
2072
2069
2069
2069
2071
2071
2071
2073
2073
2073
2073
2070
2070
2070
2069
2069
2069
2071
2071
2071
2072
2072
2072
2069
2069
2069
2069
2071
2071
2071
2072
2072
2072
2072
2072
2072
2069
2069
2069
2073
2073
2073
2073
2070
2070
2070
2072
2072
2072
2070
2070
2070
2070
2070
2070
2072
2072
2072
2072
2071
2071
2071
2072
2072
2072
2070
2070
2070
2071
2071
2071
2069
2069
2069
2069
2073
2073
2073
2073
2073
2073
2070
2070
2070
2072
2072
2072
2068
2068
2068
2068
2070
2070
2070
2075
2075
2075
2069
2069
2069
2070
2070
2070
2071
2071
2071
2071
2070
2070
2070
2072
2072
2072
2066
2066
2066
2070
2070
2070
2072
2072
2072
2072
2072
2072
2072
2072
2072
2072
2069
2069
2069
2069
2069
2069
2070
2070
2070
2070
2069
2069
2069
2071
2071
2071
2070
2070
2070
2072
2072
2072
2073
2073
2073
2073
2070
2070
2070
2069
2069
2069
2070
2070
2070
2071
2071
2071
2068
2068
2068
2068
2072
2072
2072
2076
2076
2076
2073
2073
2073
2069
2069
2069
2068
2068
2068
2068
2069
2069
2069
2071
2071
2071
2071
2071
2071
2072
2072
2072
2071
2071
2071
2071
2067
2067
2067
2070
2070
2070
2071
2071
2071
2069
2069
2069
2071
2071
2071
2071
2072
2072
2072
2075
2075
2075
2071
2071
2071
2069
2069
2069
2075
2075
2075
2075
2070
2070
2070
2072
2072
2072
2071
2071
2071
2072
2072
2072
2074
2074
2074
2074
2072
2072
2072
2068
2068
2068
2073
2073
2073
2073
2073
2073
2071
2071
2071
2071
2068
2068
2068
2072
2072
2072
2067
2067
2067
2072
2072
2072
2069
2069
2069
2069
2069
2069
2069
2067
2067
2067
2069
2069
2069
2072
2072
2072
2069
2069
2069
2069
2069
2069
2069
2072
2072
2072
2070
2070
2070
2073
2073
2073
2072
2072
2072
2072
2069
2069
2069
2069
2069
2069
2069
2069
2069
2072
2072
2072
2074
2074
2074
2074
2071
2071
2071
2070
2070
2070
2069
2069
2069
2070
2070
2070
2069
2069
2069
2069
2072
2072
2072
2073
2073
2073
2066
2066
2066
2073
2073
2073
2072
2072
2072
2072
2069
2069
2069
2071
2071
2071
2071
2071
2071
2070
2070
2070
2071
2071
2071
2071
2070
2070
2070
2074
2074
2074
2070
2070
2070
2069
2069
2069
2068
2068
2068
2068
2071
2071
2071
2067
2067
2067
2070
2070
2070
2073
2073
2073
2073
2073
2073
2073
2070
2070
2070
2065
2065
2065
2071
2071
2071
2074
2074
2074
2075
2075
2075
2075
2069
2069
2069
2071
2071
2071
2073
2073
2073
2071
2071
2071
2070
2070
2070
2070
2073
2073
2073
2071
2071
2071
2074
2074
2074
2071
2071
2071
2070
2070
2070
2070
2069
2069
2069
2071
2071
2071
2073
2073
2073
2078
2078
2078
2068
2068
2068
2068
2067
2067
2067
2071
2071
2071
2068
2068
2068
2069
2069
2069
2072
2072
2072
2072
2071
2071
2071
2073
2073
2073
2070
2070
2070
2071
2071
2071
2071
2071
2071
2071
2071
2071
2071
2073
2073
2073
2071
2071
2071
2069
2069
2069
2070
2070
2070
2070
2072
2072
2072
2072
2072
2072
2075
2075
2075
2069
2069
2069
2069
2069
2069
2069
2071
2071
2071
2072
2072
2072
2072
2072
2072
2069
2069
2069
2070
2070
2070
2070
2074
2074
2074
2073
2073
2073
2069
2069
2069
2072
2072
2072
2069
2069
2069
2069
2068
2068
2068
2076
2076
2076
2077
2077
2077
2073
2073
2073
2071
2071
2071
2071
2070
2070
2070
2071
2071
2071
2073
2073
2073
2070
2070
2070
2072
2072
2072
2072
2073
2073
2073
2072
2072
2072
2074
2074
2074
2068
2068
2068
2072
2072
2072
2072
2069
2069
2069
2071
2071
2071
2075
2075
2075
2069
2069
2069
2069
2069
2069
2069
2075
2075
2075
2071
2071
2071
2072
2072
2072
2072
2072
2072
2072
2072
2072
2072
2069
2069
2069
2074
2074
2074
2070
2070
2070
2072
2072
2072
2077
2077
2077
2077
2072
2072
2072
2074
2074
2074
2070
2070
2070
2072
2072
2072
2072
2072
2072
2072
2067
2067
2067
2072
2072
2072
2071
2071
2071
2072
2072
2072
2071
2071
2071
2071
2072
2072
2072
2074
2074
2074
2071
2071
2071
2070
2070
2070
2070
2070
2070
2070
2072
2072
2072
2073
2073
2073
2071
2071
2071
2075
2075
2075
2073
2073
2073
2073
2070
2070
2070
2071
2071
2071
2072
2072
2072
2072
2072
2072
2072
2072
2072
2072
2071
2071
2071
2066
2066
2066
2073
2073
2073
2071
2071
2071
2071
2071
2071
2071
2071
2071
2071
2071
2071
2071
2072
2072
2072
2070
2070
2070
2070
2070
2070
2070
2072
2072
2072
2073
2073
2073
2075
2075
2075
2068
2068
2068
2070
2070
2070
2070
2070
2070
2070
2074
2074
2074
2072
2072
2072
2071
2071
2071
2071
2071
2071
2071
2069
2069
2069
2072
2072
2072
2070
2070
2070
2073
2073
2073
2066
2066
2066
2066
2070
2070
2070
2069
2069
2069
2071
2071
2071
2069
2069
2069
2071
2071
2071
2071
2068
2068
2068
2073
2073
2073
2071
2071
2071
2073
2073
2073
2073
2073
2073
2073
2068
2068
2068
2074
2074
2074
2070
2070
2070
2072
2072
2072
2071
2071
2071
2071
2069
2069
2069
2072
2072
2072
2071
2071
2071
2074
2074
2074
2069
2069
2069
2069
2074
2074
2074
2080
2080
2080
2070
2070
2070
2071
2071
2071
2070
2070
2070
2070
2069
2069
2069
2073
2073
2073
2070
2070
2070
2068
2068
2068
2077
2077
2077
2077
2066
2066
2066
2070
2070
2070
2072
2072
2072
2069
2069
2069
2073
2073
2073
2073
2069
2069
2069
2073
2073
2073
2069
2069
2069
2070
2070
2070
2071
2071
2071
2071
2072
2072
2072
2071
2071
2071
2071
2071
2071
2073
2073
2073
2070
2070
2070
2070
2068
2068
2068
2074
2074
2074
2072
2072
2072
2073
2073
2073
2073
2073
2073
2073
2070
2070
2070
2072
2072
2072
2070
2070
2070
2071
2071
2071
2071
2071
2071
2071
2070
2070
2070
2072
2072
2072
2069
2069
2069
2072
2072
2072
2075
2075
2075
2075
2069
2069
2069
2071
2071
2071
2069
2069
2069
2072
2072
2072
2070
2070
2070
2070
2072
2072
2072
2073
2073
2073
2074
2074
2074
2071
2071
2071
2072
2072
2072
2072
2072
2072
2072
2073
2073
2073
2068
2068
2068
2069
2069
2069
2073
2073
2073
2073
2071
2071
2071
2073
2073
2073
2069
2069
2069
2074
2074
2074
2071
2071
2071
2071
2072
2072
2072
2071
2071
2071
2072
2072
2072
2072
2072
2072
2072
2072
2072
2072
2068
2068
2068
2075
2075
2075
2070
2070
2070
2071
2071
2071
2071
2071
2071
2071
2067
2067
2067
2068
2068
2068
2072
2072
2072
2071
2071
2071
2069
2069
2069
2069
2071
2071
2071
2072
2072
2072
2072
2072
2072
2071
2071
2071
2070
2070
2070
2070
2070
2070
2070
2073
2073
2073
2067
2067
2067
2070
2070
2070
2070
2070
2070
2070
2071
2071
2071
2072
2072
2072
2070
2070
2070
2070
2070
2070
2071
2071
2071
2071
2065
2065
2065
2071
2071
2071
2071
2071
2071
2071
2071
2071
2070
2070
2070
2070
2071
2071
2071
2071
2071
2071
2071
2071
2071
2069
2069
2069
2074
2074
2074
2074
2073
2073
2073
2074
2074
2074
2069
2069
2069
2069
2069
2069
2070
2070
2070
2070
2069
2069
2069
2076
2076
2076
2071
2071
2071
2070
2070
2070
2070
2070
2070
2070
2071
2071
2071
2070
2070
2070
2074
2074
2074
2071
2071
2071
2072
2072
2072
2072
2070
2070
2070
2074
2074
2074
2071
2071
2071
2071
2071
2071
2071
2071
2071
2071
2072
2072
2072
2071
2071
2071
2069
2069
2069
2069
2069
2069
2073
2073
2073
2073
2067
2067
2067
2072
2072
2072
2071
2071
2071
2073
2073
2073
2068
2068
2068
2068
2071
2071
2071
2063
2063
2063
2070
2070
2070
2072
2072
2072
2072
2072
2072
2072
2069
2069
2069
2072
2072
2072
2071
2071
2071
2068
2068
2068
2072
2072
2072
2072
2070
2070
2070
2071
2071
2071
2072
2072
2072
2070
2070
2070
2069
2069
2069
2069
2071
2071
2071
2070
2070
2070
2070
2070
2070
2068
2068
2068
2070
2070
2070
2070
2070
2070
2070
2071
2071
2071
2072
2072
2072
2075
2075
2075
2073
2073
2073
2073
2071
2071
2071
2072
2072
2072
2067
2067
2067
2072
2072
2072
2076
2076
2076
2076
2069
2069
2069
2065
2065
2065
2072
2072
2072
2072
2072
2072
2072
2072
2072
2072
2068
2068
2068
2072
2072
2072
2067
2067
2067
2071
2071
2071
2070
2070
2070
2070
2074
2074
2074
2074
2074
2074
2074
2074
2074
2069
2069
2069
2070
2070
2070
2070
2070
2070
2070
2072
2072
2072
2070
2070
2070
2071
2071
2071
2071
2071
2071
2071
2072
2072
2072
2074
2074
2074
2070
2070
2070
2070
2070
2070
2071
2071
2071
2071
2065
2065
2065
2071
2071
2071
2069
2069
2069
2071
2071
2071
2074
2074
2074
2074
2071
2071
2071
2074
2074
2074
2071
2071
2071
2071
2071
2071
2073
2073
2073
2073
2071
2071
2071
2071
2071
2071
2072
2072
2072
2072
2072
2072
2071
2071
2071
2071
2068
2068
2068
2071
2071
2071
2069
2069
2069
2071
2071
2071
2071
2071
2071
2071
2071
2071
2071
2072
2072
2072
2070
2070
2070
2074
2074
2074
2071
2071
2071
2071
2068
2068
2068
2073
2073
2073
2070
2070
2070
2071
2071
2071
2070
2070
2070
2070
2068
2068
2068
2071
2071
2071
2071
2071
2071
2071
2071
2071
2069
2069
2069
2069
2068
2068
2068
2072
2072
2072
2072
2072
2072
2068
2068
2068
2069
2069
2069
2069
2070
2070
2070
2075
2075
2075
2067
2067
2067
2071
2071
2071
2070
2070
2070
2070
2069
2069
2069
2073
2073
2073
2072
2072
2072
2071
2071
2071
2071
2071
2071
2071
2071
2071
2071
2071
2071
2071
2073
2073
2073
2071
2071
2071
2072
2072
2072
2072
2071
2071
2071
2072
2072
2072
2070
2070
2070
2068
2068
2068
2068
2068
2068
2068
2070
2070
2070
2070
2070
2070
2071
2071
2071
2073
2073
2073
2070
2070
2070
2070
2072
2072
2072
2073
2073
2073
2077
2077
2077
2069
2069
2069
2072
2072
2072
2072
2068
2068
2068
2072
2072
2072
2070
2070
2070
2072
2072
2072
2072
2072
2072
2072
2070
2070
2070
2071
2071
2071
2071
2071
2071
2072
2072
2072
2070
2070
2070
2070
2071
2071
2071
2072
2072
2072
2070
2070
2070
2082
2082
2082
2071
2071
2071
2071
2073
2073
2073
2074
2074
2074
2073
2073
2073
2073
2073
2073
2070
2070
2070
2070
2072
2072
2072
2070
2070
2070
2072
2072
2072
2073
2073
2073
2069
2069
2069
2069
2075
2075
2075
2072
2072
2072
2070
2070
2070
2072
2072
2072
2069
2069
2069
2069
2071
2071
2071
2068
2068
2068
2069
2069
2069
2070
2070
2070
2070
2070
2070
2070
2070
2070
2070
2069
2069
2069
2072
2072
2072
2072
2072
2072
2073
2073
2073
2073
2071
2071
2071
2074
2074
2074
2068
2068
2068
2070
2070
2070
2072
2072
2072
2072
2069
2069
2069
2069
2069
2069
2068
2068
2068
2072
2072
2072
2072
2072
2072
2072
2071
2071
2071
2072
2072
2072
2070
2070
2070
2070
2070
2070
2072
2072
2072
2072
2070
2070
2070
2072
2072
2072
2071
2071
2071
2070
2070
2070
2070
2070
2070
2070
2068
2068
2068
2074
2074
2074
2072
2072
2072
2073
2073
2073
2070
2070
2070
2070
2072
2072
2072
2075
2075
2075
2071
2071
2071
2070
2070
2070
2072
2072
2072
2072
2069
2069
2069
2072
2072
2072
2073
2073
2073
2069
2069
2069
2072
2072
2072
2072
2069
2069
2069
2068
2068
2068
2071
2071
2071
2074
2074
2074
2072
2072
2072
2072
2072
2072
2072
2074
2074
2074
2071
2071
2071
2065
2065
2065
2069
2069
2069
2069
2069
2069
2069
2072
2072
2072
2070
2070
2070
2071
2071
2071
2072
2072
2072
2072
2069
2069
2069
2073
2073
2073
2071
2071
2071
2069
2069
2069
2071
2071
2071
2071
2069
2069
2069
2072
2072
2072
2072
2072
2072
2072
2072
2072
2071
2071
2071
2071
2071
2071
2071
2072
2072
2072
2075
2075
2075
2072
2072
2072
2072
2072
2072
2072
2071
2071
2071
2071
2071
2071
2069
2069
2069
2070
2070
2070
2070
2070
2070
2070
2068
2068
2068
2071
2071
2071
2068
2068
2068
2073
2073
2073
2072
2072
2072
2072
2069
2069
2069
2071
2071
2071
2070
2070
2070
2071
2071
2071
2071
2071
2071
2071
2071
2071
2071
2070
2070
2070
2071
2071
2071
2073
2073
2073
2070
2070
2070
2070
2074
2074
2074
2072
2072
2072
2071
2071
2071
2072
2072
2072
2069
2069
2069
2069
2072
2072
2072
2074
2074
2074
2070
2070
2070
2069
2069
2069
2073
2073
2073
2073
2072
2072
2072
2072
2072
2072
2066
2066
2066
2071
2071
2071
2070
2070
2070
2070
2072
2072
2072
2071
2071
2071
2073
2073
2073
2071
2071
2071
2070
2070
2070
2070
2071
2071
2071
2070
2070
2070
2069
2069
2069
2063
2063
2063
2069
2069
2069
2069
2071
2071
2071
2071
2071
2071
2069
2069
2069
2071
2071
2071
2069
2069
2069
2069
2073
2073
2073
2068
2068
2068
2072
2072
2072
2068
2068
2068
2069
2069
2069
2069
2070
2070
2070
2069
2069
2069
2070
2070
2070
2074
2074
2074
2074
2074
2074
2074
2070
2070
2070
2072
2072
2072
2068
2068
2068
2070
2070
2070
2071
2071
2071
2071
2072
2072
2072
2073
2073
2073
2072
2072
2072
2073
2073
2073
2070
2070
2070
2070
2072
2072
2072
2070
2070
2070
2067
2067
2067
2072
2072
2072
2068
2068
2068
2068
2068
2068
2068
2073
2073
2073
2071
2071
2071
2074
2074
2074
2073
2073
2073
2073
2074
2074
2074
2072
2072
2072
2071
2071
2071
2071
2071
2071
2066
2066
2066
2066
2069
2069
2069
2073
2073
2073
2074
2074
2074
2072
2072
2072
2071
2071
2071
2071
2070
2070
2070
2076
2076
2076
2072
2072
2072
2071
2071
2071
2071
2071
2071
2071
2071
2071
2071
2072
2072
2072
2071
2071
2071
2072
2072
2072
2070
2070
2070
2070
2069
2069
2069
2070
2070
2070
2068
2068
2068
2069
2069
2069
2069
2069
2069
2069
2069
2069
2069
2070
2070
2070
2072
2072
2072
2070
2070
2070
2071
2071
2071
2071
2072
2072
2072
2075
2075
2075
2071
2071
2071
2073
2073
2073
2071
2071
2071
2071
2068
2068
2068
2070
2070
2070
2068
2068
2068
2069
2069
2069
2065
2065
2065
2065
2071
2071
2071
2072
2072
2072
2072
2072
2072
2070
2070
2070
2073
2073
2073
2073
2069
2069
2069
2079
2079
2079
2071
2071
2071
2071
2071
2071
2072
2072
2072
2072
2069
2069
2069
2072
2072
2072
2077
2077
2077
2072
2072
2072
2066
2066
2066
2066
2070
2070
2070
2073
2073
2073
2072
2072
2072
2071
2071
2071
2073
2073
2073
2073
2071
2071
2071
2072
2072
2072
2069
2069
2069
2073
2073
2073
2070
2070
2070
2070
2068
2068
2068
2074
2074
2074
2073
2073
2073
2069
2069
2069
2072
2072
2072
2072
2073
2073
2073
2073
2073
2073
2072
2072
2072
2069
2069
2069
2071
2071
2071
2071
2066
2066
2066
2071
2071
2071
2069
2069
2069
2070
2070
2070
2072
2072
2072
2072
2071
2071
2071
2072
2072
2072
2067
2067
2067
2072
2072
2072
2068
2068
2068
2068
2070
2070
2070
2071
2071
2071
2071
2071
2071
2070
2070
2070
2069
2069
2069
2069
2071
2071
2071
2060
2060
2060
2073
2073
2073
2074
2074
2074
2070
2070
2070
2070
2070
2070
2070
2076
2076
2076
2072
2072
2072
2073
2073
2073
2070
2070
2070
2070
2070
2070
2070
2069
2069
2069
2071
2071
2071
2070
2070
2070
2071
2071
2071
2071
2068
2068
2068
2069
2069
2069
2071
2071
2071
2074
2074
2074
2074
2074
2074
2074
2070
2070
2070
2072
2072
2072
2066
2066
2066
2071
2071
2071
2072
2072
2072
2072
2070
2070
2070
2070
2070
2070
2073
2073
2073
2070
2070
2070
2072
2072
2072
2072
2068
2068
2068
2072
2072
2072
2074
2074
2074
2075
2075
2075
2070
2070
2070
2070
2076
2076
2076
2071
2071
2071
2071
2071
2071
2071
2071
2071
2070
2070
2070
2070
2069
2069
2069
2073
2073
2073
2069
2069
2069
2072
2072
2072
2071
2071
2071
2071
2073
2073
2073
2072
2072
2072
2071
2071
2071
2069
2069
2069
2069
2069
2069
2069
2068
2068
2068
2072
2072
2072
2073
2073
2073
2069
2069
2069
2073
2073
2073
2073
2071
2071
2071
2072
2072
2072
2070
2070
2070
2073
2073
2073
2073
2073
2073
2073
2069
2069
2069
2071
2071
2071
2069
2069
2069
2072
2072
2072
2066
2066
2066
2066
2073
2073
2073
2072
2072
2072
2072
2072
2072
2070
2070
2070
2070
2070
2070
2070
2073
2073
2073
2074
2074
2074
2070
2070
2070
2069
2069
2069
2069
2069
2069
2069
2069
2069
2069
2071
2071
2071
2071
2071
2071
2073
2073
2073
2068
2068
2068
2068
2069
2069
2069
2071
2071
2071
2072
2072
2072
2077
2077
2077
2071
2071
2071
2071
2070
2070
2070
2069
2069
2069
2071
2071
2071
2071
2071
2071
2070
2070
2070
2070
2067
2067
2067
2070
2070
2070
2071
2071
2071
2076
2076
2076
2072
2072
2072
2072
2071
2071
2071
2073
2073
2073
2072
2072
2072
2071
2071
2071
2069
2069
2069
2069
2071
2071
2071
2072
2072
2072
2071
2071
2071
2072
2072
2072
2069
2069
2069
2069
2070
2070
2070
2067
2067
2067
2071
2071
2071
2071
2071
2071
2073
2073
2073
2073
2070
2070
2070
2070
2070
2070
2071
2071
2071
2071
2071
2071
2072
2072
2072
2072
2070
2070
2070
2071
2071
2071
2069
2069
2069
2069
2069
2069
2072
2072
2072
2072
2070
2070
2070
2070
2070
2070
2075
2075
2075
2071
2071
2071
2070
2070
2070
2070
2070
2070
2070
2072
2072
2072
2071
2071
2071
2072
2072
2072
2076
2076
2076
2076
2071
2071
2071
2072
2072
2072
2069
2069
2069
2076
2076
2076
2070
2070
2070
2070
2065
2065
2065
2070
2070
2070
2072
2072
2072
2072
2072
2072
2073
2073
2073
2073
2069
2069
2069
2072
2072
2072
2072
2072
2072
2072
2072
2072
2071
2071
2071
2071
2072
2072
2072
2069
2069
2069
2071
2071
2071
2070
2070
2070
2072
2072
2072
2072
2069
2069
2069
2071
2071
2071
2075
2075
2075
2071
2071
2071
2071
2071
2071
2071
2070
2070
2070
2073
2073
2073
2070
2070
2070
2073
2073
2073
2072
2072
2072
2072
2075
2075
2075
2071
2071
2071
2069
2069
