2036
2036
2042
2042
2042
2036
2036
2036
2037
2037
2037
2037
2033
2033
2033
2037
2037
2037
2037
2037
2037
2037
2037
2037
2035
2035
2035
2035
2037
2037
2037
2040
2040
2040
2035
2035
2035
2037
2037
2037
2039
2039
2039
2039
2037
2037
2037
2037
2037
2037
2037
2037
2037
2037
2037
2037
2034
2034
2034
2034
2035
2035
2035
2039
2039
2039
2044
2044
2044
2035
2035
2035
2038
2038
2038
2038
2035
2035
2035
2040
2040
2040
2039
2039
2039
2038
2038
2038
2042
2042
2042
2042
2037
2037
2037
2037
2037
2037
2036
2036
2036
2038
2038
2038
2039
2039
2039
2039
2035
2035
2035
2035
2035
2035
2040
2040
2040
2036
2036
2036
2037
2037
2037
2037
2036
2036
2036
2038
2038
2038
2039
2039
2039
2036
2036
2036
2036
2036
2036
2036
2037
2037
2037
2032
2032
2032
2038
2038
2038
2037
2037
2037
2037
2037
2037
2037
2037
2037
2037
2038
2038
2038
2037
2037
2037
2041
2041
2041
2036
2036
2036
2036
2038
2038
2038
2038
2038
2038
2037
2037
2037
2040
2040
2040
2036
2036
2036
2036
2037
2037
2037
2036
2036
2036
2037
2037
2037
2039
2039
2039
2036
2036
2036
2036
2037
2037
2037
2038
2038
2038
2040
2040
2040
2035
2035
2035
2035
2035
2035
2035
2035
2035
2035
2039
2039
2039
2038
2038
2038
2033
2033
2033
2039
2039
2039
2039
2036
2036
2036
2037
2037
2037
2037
2037
2037
2037
2037
2037
2039
2039
2039
2039
2034
2034
2034
2038
2038
2038
2038
2038
2038
2037
2037
2037
2043
2043
2043
2043
2041
2041
2041
2039
2039
2039
2033
2033
2033
2037
2037
2037
2040
2040
2040
2040
2041
2041
2041
2038
2038
2038
2038
2038
2038
2037
2037
2037
2038
2038
2038
2038
2038
2038
2038
2038
2038
2038
2041
2041
2041
2038
2038
2038
2041
2041
2041
2041
2036
2036
2036
2037
2037
2037
2035
2035
2035
2037
2037
2037
2041
2041
2041
2041
2039
2039
2039
2040
2040
2040
2036
2036
2036
2038
2038
2038
2037
2037
2037
2037
2037
2037
2037
2037
2037
2037
2036
2036
2036
2038
2038
2038
2038
2038
2038
2038
2037
2037
2037
2038
2038
2038
2037
2037
2037
2039
2039
2039
2035
2035
2035
2035
2038
2038
2038
2035
2035
2035
2036
2036
2036
2044
2044
2044
2036
2036
2036
2036
2039
2039
2039
2038
2038
2038
2038
2038
2038
2036
2036
2036
2039
2039
2039
2039
2038
2038
2038
2040
2040
2040
2038
2038
2038
2036
2036
2036
2038
2038
2038
2038
2041
2041
2041
2037
2037
2037
2037
2037
2037
2038
2038
2038
2037
2037
2037
2037
2037
2037
2037
2037
2037
2037
2036
2036
2036
2037
2037
2037
2036
2036
2036
2036
2037
2037
2037
2036
2036
2036
2042
2042
2042
2039
2039
2039
2036
2036
2036
2036
2038
2038
2038
2035
2035
2035
2036
2036
2036
2038
2038
2038
2040
2040
2040
2040
2035
2035
2035
2037
2037
2037
2033
2033
2033
2041
2041
2041
2039
2039
2039
2039
2038
2038
2038
2039
2039
2039
2039
2039
2039
2039
2039
2039
2036
2036
2036
2036
2038
2038
2038
2036
2036
2036
2037
2037
2037
2037
2037
2037
2044
2044
2044
2044
2037
2037
2037
2037
2037
2037
2037
2037
2037
2038
2038
2038
2041
2041
2041
2041
2038
2038
2038
2038
2038
2038
2038
2038
2038
2036
2036
2036
2038
2038
2038
2038
2037
2037
2037
2036
2036
2036
2041
2041
2041
2037
2037
2037
2039
2039
2039
2039
2043
2043
2043
2037
2037
2037
2037
2037
2037
2035
2035
2035
2039
2039
2039
2039
2038
2038
2038
2038
2038
2038
2034
2034
2034
2041
2041
2041
2039
2039
2039
2039
2036
2036
2036
2038
2038
2038
2036
2036
2036
2037
2037
2037
2037
2037
2037
2037
2036
2036
2036
2036
2036
2036
2037
2037
2037
2036
2036
2036
2037
2037
2037
2037
2034
2034
2034
2036
2036
2036
2035
2035
2035
2038
2038
2038
2038
2038
2038
2038
2038
2038
2038
2037
2037
2037
2039
2039
2039
2044
2044
2044
2039
2039
2039
2039
2037
2037
2037
2039
2039
2039
2038
2038
2038
2038
2038
2038
2036
2036
2036
2036
2036
2036
2036
2037
2037
2037
2039
2039
2039
2034
2034
2034
2037
2037
2037
2037
2036
2036
2036
2036
2036
2036
2038
2038
2038
2038
2038
2038
2038
2038
2038
2038
2038
2038
2038
2031
2031
2031
2038
2038
2038
2040
2040
2040
2035
2035
2035
2035
2037
2037
2037
2038
2038
2038
2037
2037
2037
2040
2040
2040
2036
2036
2036
2036
2040
2040
2040
2040
2040
2040
2038
2038
2038
2036
2036
2036
2036
2036
2036
2036
2037
2037
2037
2036
2036
2036
2032
2032
2032
2041
2041
2041
2038
2038
2038
2038
2037
2037
2037
2039
2039
2039
2037
2037
2037
2035
2035
2035
2034
2034
2034
2034
2036
2036
2036
2033
2033
2033
2042
2042
2042
2039
2039
2039
2033
2033
2033
2033
2038
2038
2038
2038
2038
2038
2035
2035
2035
2038
2038
2038
2037
2037
2037
2037
2039
2039
2039
2036
2036
2036
2034
2034
2034
2037
2037
2037
2038
2038
2038
2038
2036
2036
2036
2040
2040
2040
2038
2038
2038
2036
2036
2036
2037
2037
2037
2037
2040
2040
2040
2038
2038
2038
2038
2038
2038
2039
2039
2039
2039
2039
2039
2039
2035
2035
2035
2036
2036
2036
2039
2039
2039
2035
2035
2035
2039
2039
2039
2039
2039
2039
2039
2035
2035
2035
2037
2037
2037
2037
2037
2037
2040
2040
2040
2040
2038
2038
2038
2039
2039
2039
2038
2038
2038
2038
2038
2038
2041
2041
2041
2041
2036
2036
2036
2038
2038
2038
2040
2040
2040
2036
2036
2036
2039
2039
2039
2039
2034
2034
2034
2039
2039
2039
2038
2038
2038
2041
2041
2041
2038
2038
2038
2038
2036
2036
2036
2037
2037
2037
2036
2036
2036
2038
2038
2038
2035
2035
2035
2035
2039
2039
2039
2038
2038
2038
2037
2037
2037
2036
2036
2036
2037
2037
2037
2037
2037
2037
2037
2038
2038
2038
2038
2038
2038
2035
2035
2035
2037
2037
2037
2037
2038
2038
2038
2039
2039
2039
2038
2038
2038
2037
2037
2037
2036
2036
2036
2036
2042
2042
2042
2038
2038
2038
2038
2038
2038
2036
2036
2036
2041
2041
2041
2041
2037
2037
2037
2037
2037
2037
2038
2038
2038
2038
2038
2038
2041
2041
2041
2041
2038
2038
2038
2039
2039
2039
2039
2039
2039
2034
2034
2034
2038
2038
2038
2038
2035
2035
2035
2041
2041
2041
2035
2035
2035
2037
2037
2037
2036
2036
2036
2036
2038
2038
2038
2038
2038
2038
2036
2036
2036
2036
2036
2036
2040
2040
2040
2040
2037
2037
2037
2040
2040
2040
2038
2038
2038
2038
2038
2038
2047
2047
2047
2047
2037
2037
2037
2037
2037
2037
2036
2036
2036
2039
2039
2039
2040
2040
2040
2040
2040
2040
2040
2039
2039
2039
2033
2033
2033
2039
2039
2039
2039
2039
2039
2039
2040
2040
2040
2038
2038
2038
2037
2037
2037
2038
2038
2038
2039
2039
2039
2039
2037
2037
2037
2039
2039
2039
2038
2038
2038
2036
2036
2036
2036
2036
2036
2036
2036
2036
2036
2036
2036
2036
2039
2039
2039
2037
2037
2037
2036
2036
2036
2036
2038
2038
2038
2037
2037
2037
2041
2041
2041
2037
2037
2037
2037
2037
2037
2037
2034
2034
2034
2038
2038
2038
2038
2038
2038
2033
2033
2033
2032
2032
2032
2032
2037
2037
2037
2041
2041
2041
2038
2038
2038
2037
2037
2037
2037
2037
2037
2037
2038
2038
2038
2038
2038
2038
2036
2036
2036
2036
2036
2036
2036
2036
2036
2036
2036
2036
2036
2037
2037
2037
2034
2034
2034
2039
2039
2039
2039
2039
2039
2039
2037
2037
2037
2037
2037
2037
2037
2037
2037
2038
2038
2038
2036
2036
2036
2036
2037
2037
2037
2034
2034
2034
2039
2039
2039
2039
2039
2039
2042
2042
2042
2042
2036
2036
2036
2042
2042
2042
2038
2038
2038
2039
2039
2039
2039
2039
2039
2039
2036
2036
2036
2038
2038
2038
2041
2041
2041
2045
2045
2045
2034
2034
2034
2034
2036
2036
2036
2037
2037
2037
2037
2037
2037
2038
2038
2038
2037
2037
2037
2037
2037
2037
2037
2036
2036
2036
2040
2040
2040
2040
2040
2040
2034
2034
2034
2034
2041
2041
2041
2037
2037
2037
2037
2037
2037
2037
2037
2037
2035
2035
2035
2035
2036
2036
2036
2038
2038
2038
2036
2036
2036
2041
2041
2041
2033
2033
2033
2033
2035
2035
2035
2036
2036
2036
2038
2038
2038
2037
2037
2037
2033
2033
2033
2033
2033
2033
2033
2039
2039
2039
2037
2037
2037
2035
2035
2035
2033
2033
2033
2033
2037
2037
2037
2040
2040
2040
2038
2038
2038
2038
2038
2038
2035
2035
2035
2035
2037
2037
2037
2039
2039
2039
2046
2046
2046
2038
2038
2038
2035
2035
2035
2035
2038
2038
2038
2037
2037
2037
2036
2036
2036
2039
2039
2039
2037
2037
2037
2037
2037
2037
2037
2037
2037
2037
2038
2038
2038
2040
2040
2040
2037
2037
2037
2037
2038
2038
2038
2038
2038
2038
2038
2038
2038
2038
2038
2038
2037
2037
2037
2037
2037
2037
2037
2037
2037
2037
2035
2035
2035
2038
2038
2038
2038
2038
2038
2038
2035
2035
2035
2038
2038
2038
2037
2037
2037
2036
2036
2036
2035
2035
2035
2035
2037
2037
2037
2037
2037
2037
2037
2037
2037
2036
2036
2036
2039
2039
2039
2039
2042
2042
2042
2041
2041
2041
2038
2038
2038
2037
2037
2037
2038
2038
2038
2038
2036
2036
2036
2041
2041
2041
2040
2040
2040
2041
2041
2041
2037
2037
2037
2037
2036
2036
2036
2039
2039
2039
2037
2037
2037
2035
2035
2035
2036
2036
2036
2036
2036
2036
2036
2038
2038
2038
2038
2038
2038
2037
2037
2037
2041
2041
2041
2041
2039
2039
2039
2038
2038
2038
2037
2037
2037
2037
2037
2037
2038
2038
2038
2038
2035
2035
2035
2038
2038
2038
2037
2037
2037
2035
2035
2035
2035
2035
2035
2035
2037
2037
2037
2035
2035
2035
2036
2036
2036
2037
2037
2037
2038
2038
2038
2038
2041
2041
2041
2040
2040
2040
2041
2041
2041
2037
2037
2037
2037
2037
2037
2037
2037
2037
2037
2038
2038
2038
2037
2037
2037
2038
2038
2038
2036
2036
2036
2036
2039
2039
2039
2034
2034
2034
2038
2038
2038
2037
2037
2037
2038
2038
2038
2038
2036
2036
2036
2039
2039
2039
2038
2038
2038
2036
2036
2036
2037
2037
2037
2037
2036
2036
2036
2036
2036
2036
2039
2039
2039
2034
2034
2034
2036
2036
2036
2036
2035
2035
2035
2036
2036
2036
2039
2039
2039
2036
2036
2036
2036
2036
2036
2036
2038
2038
2038
2034
2034
2034
2036
2036
2036
2035
2035
2035
2037
2037
2037
2037
2038
2038
2038
2037
2037
2037
2034
2034
2034
2036
2036
2036
2037
2037
2037
2037
2038
2038
2038
2034
2034
2034
2038
2038
2038
2037
2037
2037
2036
2036
2036
2036
2035
2035
2035
2034
2034
2034
2036
2036
2036
2036
2036
2036
2039
2039
2039
2039
2038
2038
2038
2039
2039
2039
2039
2039
2039
2038
2038
2038
2039
2039
2039
2039
2037
2037
2037
2038
2038
2038
2034
2034
2034
2037
2037
2037
2037
2037
2037
2037
2043
2043
2043
2037
2037
2037
2039
2039
2039
2040
2040
2040
2037
2037
2037
2037
2037
2037
2037
2038
2038
2038
2038
2038
2038
2037
2037
2037
2037
2037
2037
2037
2039
2039
2039
2039
2039
2039
2040
2040
2040
2037
2037
2037
2034
2034
2034
2034
2039
2039
2039
2040
2040
2040
2038
2038
2038
2039
2039
2039
2036
2036
2036
2036
2035
2035
2035
2038
2038
2038
2037
2037
2037
2035
2035
2035
2033
2033
2033
2033
2037
2037
2037
2038
2038
2038
2040
2040
2040
2037
2037
2037
2037
2037
2037
2037
2037
2037
2037
2039
2039
2039
2038
2038
2038
2039
2039
2039
2035
2035
2035
2035
2039
2039
2039
2040
2040
2040
2038
2038
2038
2037
2037
2037
2037
2037
2037
2037
2045
2045
2045
2039
2039
2039
2036
2036
2036
2036
2036
2036
2035
2035
2035
2035
2036
2036
2036
2038
2038
2038
2038
2038
2038
2041
2041
2041
2038
2038
2038
2038
2038
2038
2038
2037
2037
2037
2032
2032
2032
2040
2040
2040
2036
2036
2036
2036
2037
2037
2037
2037
2037
2037
2037
2037
2037
2037
2037
2037
2035
2035
2035
2035
2038
2038
2038
2038
2038
2038
2036
2036
2036
2037
2037
2037
2038
2038
2038
2038
2036
2036
2036
2041
2041
2041
2037
2037
2037
2038
2038
2038
2035
2035
2035
2035
2034
2034
2034
2037
2037
2037
2037
2037
2037
2036
2036
2036
2038
2038
2038
2038
2038
2038
2038
2046
2046
2046
2034
2034
2034
2037
2037
2037
2035
2035
2035
2035
2038
2038
2038
2039
2039
2039
2037
2037
2037
2043
2043
2043
2036
2036
2036
2036
2038
2038
2038
2040
2040
2040
2036
2036
2036
2038
2038
2038
2034
2034
2034
2034
2037
2037
2037
2038
2038
2038
2036
2036
2036
2036
2036
2036
2038
2038
2038
2038
2036
2036
2036
2038
2038
2038
2034
2034
2034
2038
2038
2038
2038
2038
2038
2038
2035
2035
2035
2037
2037
2037
2037
2037
2037
2036
2036
2036
2039
2039
2039
2039
2039
2039
2039
2038
2038
2038
2039
2039
2039
2038
2038
2038
2038
2038
2038
2038
2039
2039
2039
2037
2037
2037
2034
2034
2034
2041
2041
2041
2037
2037
2037
2037
2036
2036
2036
2036
2036
2036
2036
2036
2036
2037
2037
2037
2037
2037
2037
2037
2036
2036
2036
2036
2036
2036
2038
2038
2038
2040
2040
2040
2036
2036
2036
2036
2039
2039
2039
2038
2038
2038
2035
2035
2035
2037
2037
2037
2036
2036
2036
2036
2036
2036
2036
2039
2039
2039
2037
2037
2037
2037
2037
2037
2037
2037
2037
2037
2040
2040
2040
2038
2038
2038
2037
2037
2037
2037
2037
2037
2036
2036
2036
2036
2037
2037
2037
2036
2036
2036
2038
2038
2038
2035
2035
2035
2037
2037
2037
2037
2036
2036
2036
2039
2039
2039
2036
2036
2036
2039
2039
2039
2034
2034
2034
2034
2036
2036
2036
2038
2038
2038
2040
2040
2040
2038
2038
2038
2037
2037
2037
2037
2038
2038
2038
2038
2038
2038
2038
2038
2038
2037
2037
2037
2036
2036
2036
2036
2038
2038
2038
2039
2039
2039
2036
2036
2036
2029
2029
2029
2035
2035
2035
2035
2036
2036
2036
2035
2035
2035
2037
2037
2037
2038
2038
2038
2037
2037
2037
2037
2042
2042
2042
2039
2039
2039
2036
2036
2036
2037
2037
2037
2038
2038
2038
2038
2035
2035
2035
2040
2040
2040
2036
2036
2036
2039
2039
2039
2034
2034
2034
2034
2039
2039
2039
2038
2038
2038
2037
2037
2037
2037
2037
2037
2033
2033
2033
2033
2037
2037
2037
2040
2040
2040
2037
2037
2037
2038
2038
2038
2040
2040
2040
2040
2038
2038
2038
2038
2038
2038
2036
2036
2036
2035
2035
2035
2038
2038
2038
2038
2039
2039
2039
2037
2037
2037
2038
2038
2038
2037
2037
2037
2035
2035
2035
2035
2037
2037
2037
2038
2038
2038
2035
2035
2035
2035
2035
2035
2037
2037
2037
2037
2039
2039
2039
2043
2043
2043
2036
2036
2036
2035
2035
2035
2041
2041
2041
2041
2036
2036
2036
2039
2039
2039
2034
2034
2034
2037
2037
2037
2040
2040
2040
2040
2039
2039
2039
2036
2036
2036
2037
2037
2037
2035
2035
2035
2040
2040
2040
2040
2038
2038
2038
2038
2038
2038
2038
2038
2038
2037
2037
2037
2036
2036
2036
2036
2035
2035
2035
2036
2036
2036
2037
2037
2037
2037
2037
2037
2035
2035
2035
2035
2041
2041
2041
2037
2037
2037
2036
2036
2036
2038
2038
2038
2035
2035
2035
2035
2033
2033
2033
2049
2049
2049
2034
2034
2034
2038
2038
2038
2035
2035
2035
2035
2038
2038
2038
2035
2035
2035
2040
2040
2040
2040
2040
2040
2036
2036
2036
2036
2038
2038
2038
2039
2039
2039
2037
2037
2037
2040
2040
2040
2036
2036
2036
2036
2038
2038
2038
2039
2039
2039
2035
2035
2035
2037
2037
2037
2036
2036
2036
2036
2038
2038
2038
2037
2037
2037
2037
2037
2037
2037
2037
2037
2037
2037
2037
2037
2034
2034
2034
2037
2037
2037
2036
2036
2036
2036
2036
2036
2036
2036
2036
2036
2039
2039
2039
2031
2031
2031
2043
2043
2043
2036
2036
2036
2036
2036
2036
2036
2038
2038
2038
2034
2034
2034
2037
2037
2037
2033
2033
2033
2038
2038
2038
2038
2040
2040
2040
2039
2039
2039
2037
2037
2037
2035
2035
2035
2033
2033
2033
2033
2036
2036
2036
2034
2034
2034
2036
2036
2036
2038
2038
2038
2037
2037
2037
2037
2037
2037
2037
2037
2037
2037
2039
2039
2039
2038
2038
2038
2037
2037
2037
2037
2041
2041
2041
2039
2039
2039
2041
2041
2041
2036
2036
2036
2038
2038
2038
2038
2038
2038
2038
2041
2041
2041
2034
2034
2034
2037
2037
2037
2037
2037
2037
2037
2036
2036
2036
2039
2039
2039
2041
2041
2041
2041
2041
2041
2037
2037
2037
2037
2036
2036
2036
2037
2037
2037
2039
2039
2039
2038
2038
2038
2039
2039
2039
2039
2036
2036
2036
2033
2033
2033
2037
2037
2037
2038
2038
2038
2038
2038
2038
2038
2038
2038
2038
2038
2038
2038
2035
2035
2035
2040
2040
2040
2036
2036
2036
2036
2038
2038
2038
2039
2039
2039
2039
2039
2039
2038
2038
2038
2037
2037
2037
2037
2035
2035
2035
2035
2035
2035
2037
2037
2037
2037
2037
2037
2036
2036
2036
2036
2038
2038
2038
2038
2038
2038
2036
2036
2036
2040
2040
2040
2042
2042
2042
2042
2037
2037
2037
2038
2038
2038
2033
2033
2033
2039
2039
2039
2034
2034
2034
2034
2036
2036
2036
2037
2037
2037
2035
2035
2035
2039
2039
2039
2037
2037
2037
2037
2039
2039
2039
2037
2037
2037
2038
2038
2038
2037
2037
2037
2030
2030
2030
2030
2033
2033
2033
2037
2037
2037
2038
2038
2038
2038
2038
2038
2038
2038
2038
2038
2038
2038
2038
2035
2035
2035
2038
2038
2038
2038
2038
2038
2039
2039
2039
2039
2037
2037
2037
2039
2039
2039
2037
2037
2037
2038
2038
2038
2036
2036
2036
2036
2036
2036
2036
2036
2036
2036
2039
2039
2039
2040
2040
2040
2044
2044
2044
2044
2037
2037
2037
2035
2035
2035
2034
2034
2034
2038
2038
2038
2038
2038
2038
2038
2037
2037
2037
2035
2035
2035
2037
2037
2037
2036
2036
2036
2040
2040
2040
2040
2042
2042
2042
2035
2035
2035
2039
2039
2039
2037
2037
2037
2034
2034
2034
2034
2035
2035
2035
2040
2040
2040
2033
2033
2033
2038
2038
2038
2037
2037
2037
2037
2039
2039
2039
2039
2039
2039
2039
2039
2039
2039
2039
2039
2037
2037
2037
2037
2035
2035
2035
2039
2039
2039
2037
2037
2037
2039
2039
2039
2035
2035
2035
2035
2036
2036
2036
2036
2036
2036
2035
2035
2035
2038
2038
2038
2038
2038
2038
2038
2037
2037
2037
2038
2038
2038
2036
2036
2036
2035
2035
2035
2041
2041
2041
2041
2035
2035
2035
2038
2038
2038
2037
2037
2037
2041
2041
2041
2037
2037
2037
2037
2035
2035
2035
2031
2031
2031
2038
2038
2038
2040
2040
2040
2036
2036
2036
2036
2038
2038
2038
2040
2040
2040
2041
2041
2041
2039
2039
2039
2038
2038
2038
2038
2038
2038
2038
2038
2038
2038
2038
2038
2038
2034
2034
2034
2042
2042
2042
2042
2035
2035
2035
2039
2039
2039
2037
2037
2037
2035
2035
2035
2035
2035
2035
2035
2037
2037
2037
2039
2039
2039
2035
2035
2035
2037
2037
2037
2037
2037
2037
2037
2040
2040
2040
2039
2039
2039
2039
2039
2039
2038
2038
2038
2033
2033
2033
2033
2037
2037
2037
2040
2040
2040
2037
2037
2037
2035
2035
2035
2037
2037
2037
2037
2036
2036
2036
2040
2040
2040
2034
2034
2034
2033
2033
2033
2032
2032
2032
2032
2037
2037
2037
2036
2036
2036
2036
2036
2036
2035
2035
2035
2036
2036
2036
2036
2035
2035
2035
2036
2036
2036
2039
2039
2039
2037
2037
2037
2036
2036
2036
2036
2039
2039
2039
2036
2036
2036
2036
2036
2036
2039
2039
2039
2036
2036
2036
2036
2037
2037
2037
2035
2035
2035
2039
2039
2039
2037
2037
2037
2039
2039
2039
2039
2037
2037
2037
2039
2039
2039
2040
2040
2040
2036
2036
2036
2036
2036
2036
2036
2035
2035
2035
2038
2038
2038
2038
2038
2038
2039
2039
2039
2040
2040
2040
2040
2035
2035
2035
2038
2038
2038
2038
2038
2038
2039
2039
2039
2036
2036
2036
2036
2037
2037
2037
2038
2038
2038
2038
2038
2038
2039
2039
2039
2039
2039
2039
2039
2035
2035
2035
2037
2037
2037
2036
2036
2036
2036
2036
2036
2036
2036
2036
2036
2031
2031
2031
2038
2038
2038
2038
2038
2038
2039
2039
2039
2037
2037
2037
2037
2037
2037
2037
2036
2036
2036
2039
2039
2039
2038
2038
2038
2036
2036
2036
2036
2040
2040
2040
2039
2039
2039
2035
2035
2035
2039
2039
2039
2039
2039
2039
2039
2037
2037
2037
2036
2036
2036
2040
2040
2040
2039
2039
2039
2040
2040
2040
2040
2037
2037
2037
2037
2037
2037
2038
2038
2038
2036
2036
2036
2040
2040
2040
2040
2037
2037
2037
2039
2039
2039
2038
2038
2038
2038
2038
2038
2038
2038
2038
2038
2039
2039
2039
2038
2038
2038
2038
2038
2038
2038
2038
2038
2036
2036
2036
2036
2035
2035
2035
2033
2033
2033
2038
2038
2038
2037
2037
2037
2036
2036
2036
2036
2040
2040
2040
2036
2036
2036
2038
2038
2038
2038
2038
2038
2042
2042
2042
2042
2035
2035
2035
2040
2040
2040
2037
2037
2037
2037
2037
2037
2033
2033
2033
2033
2038
2038
2038
2039
2039
2039
2040
2040
2040
2036
2036
2036
2037
2037
2037
2037
2037
2037
2037
2037
2037
2037
2035
2035
2035
2037
2037
2037
2036
2036
2036
2036
2036
2036
2036
2040
2040
2040
2037
2037
2037
2037
2037
2037
2034
2034
2034
2034
2038
2038
2038
2017
2017
2017
2040
2040
2040
2039
2039
2039
2039
2039
2039
2039
2037
2037
2037
2037
2037
2037
2035
2035
2035
2039
2039
2039
2037
2037
2037
2037
2037
2037
2037
2040
2040
2040
2041
2041
2041
2036
2036
2036
2036
2036
2036
2036
2037
2037
2037
2036
2036
2036
2038
2038
2038
2036
2036
2036
2038
2038
2038
2038
2037
2037
2037
2037
2037
2037
2039
2039
2039
2038
2038
2038
2036
2036
2036
2036
2041
2041
2041
2039
2039
2039
2038
2038
2038
2037
2037
2037
2037
2037
2037
2037
2038
2038
2038
2036
2036
2036
2043
2043
2043
2040
2040
2040
2035
2035
2035
2035
2039
2039
2039
2038
2038
2038
2037
2037
2037
2038
2038
2038
2042
2042
2042
2042
2036
2036
2036
2039
2039
2039
2034
2034
2034
2037
2037
2037
2035
2035
2035
2035
2036
2036
2036
2038
2038
2038
2038
2038
2038
2036
2036
2036
2040
2040
2040
2040
2035
2035
2035
2036
2036
2036
2036
2036
2036
2038
2038
2038
2037
2037
2037
2037
2037
2037
2037
2035
2035
2035
2039
2039
2039
2039
2039
2039
2036
2036
2036
2036
2039
2039
2039
2044
2044
2044
2036
2036
2036
2040
2040
2040
2034
2034
2034
2034
2039
2039
2039
2037
2037
2037
2038
2038
2038
2034
2034
2034
2037
2037
2037
2037
2037
2037
2037
2038
2038
2038
2039
2039
2039
2037
2037
2037
2038
2038
2038
2038
2036
2036
2036
2038
2038
2038
2035
2035
2035
2039
2039
2039
2035
2035
2035
2035
2038
2038
2038
2038
2038
2038
2038
2038
2038
2038
2038
2038
2039
2039
2039
2039
2038
2038
2038
2038
2038
2038
2039
2039
2039
2037
2037
2037
2035
2035
2035
2035
2038
2038
2038
2037
2037
2037
2039
2039
2039
2036
2036
2036
2040
2040
2040
2040
2035
2035
2035
2037
2037
2037
2038
2038
2038
2035
2035
2035
2038
2038
2038
2038
2037
2037
2037
2036
2036
2036
2040
2040
2040
2037
2037
2037
2037
2037
2037
2037
2039
2039
2039
2037
2037
2037
2037
2037
2037
2036
2036
2036
2038
2038
2038
2038
2035
2035
2035
2039
2039
2039
2040
2040
2040
2035
2035
2035
2035
2035
2035
2035
2038
2038
2038
2037
2037
2037
2037
2037
2037
2042
2042
2042
2042
2042
2042
2042
2034
2034
2034
2032
2032
2032
2037
2037
2037
2040
2040
2040
2036
2036
2036
2036
2037
2037
2037
2038
2038
2038
2037
2037
2037
2037
2037
2037
2034
2034
2034
2034
2037
2037
2037
2038
2038
2038
2037
2037
2037
2037
2037
2037
2036
2036
2036
2036
2042
2042
2042
2041
2041
2041
2039
2039
2039
2039
2039
2039
2037
2037
2037
2037
2040
2040
2040
2037
2037
2037
2039
2039
2039
2037
2037
2037
2041
2041
2041
2041
2037
2037
2037
2037
2037
2037
2039
2039
2039
2039
2039
2039
2037
2037
2037
2037
2035
2035
2035
2036
2036
2036
2036
2036
2036
2038
2038
2038
2037
2037
2037
2037
2038
2038
2038
2037
2037
2037
2039
2039
2039
2035
2035
2035
2036
2036
2036
2036
2036
2036
2036
2039
2039
2039
2038
2038
2038
2036
2036
2036
2034
2034
2034
2034
2038
2038
2038
2031
2031
2031
2047
2047
2047
2038
2038
2038
2037
2037
2037
2037
2038
2038
2038
2038
2038
2038
2035
2035
2035
2042
2042
2042
2040
2040
2040
2040
2035
2035
2035
2037
2037
2037
2039
2039
2039
2036
2036
2036
2039
2039
2039
2039
2035
2035
2035
2038
2038
2038
2037
2037
2037
2038
2038
2038
2035
2035
2035
2035
2038
2038
2038
2036
2036
2036
2035
2035
2035
2037
2037
2037
2036
2036
2036
2036
2027
2027
2027
2034
2034
2034
2037
2037
2037
2039
2039
2039
2037
2037
2037
2037
2038
2038
2038
2039
2039
2039
2039
2039
2039
2034
2034
2034
2039
2039
2039
2039
2040
2040
2040
2039
2039
2039
2040
2040
2040
2036
2036
2036
2040
2040
2040
2040
2037
2037
2037
2039
2039
2039
2039
2039
2039
2041
2041
2041
2039
2039
2039
2039
2038
2038
2038
2036
2036
2036
2037
2037
2037
2038
2038
2038
2033
2033
2033
2033
2039
2039
2039
2034
2034
2034
2039
2039
2039
2038
2038
2038
2037
2037
2037
2037
2038
2038
2038
2041
2041
2041
2041
2041
2041
2039
2039
2039
2038
2038
2038
2038
2038
2038
2038
2038
2038
2038
2040
2040
2040
2035
2035
2035
2039
2039
2039
2039
2045
2045
2045
2038
2038
2038
2038
2038
2038
2034
2034
2034
2036
2036
2036
2036
2036
2036
2036
2035
2035
2035
2038
2038
2038
2038
2038
2038
2036
2036
2036
2036
2038
2038
2038
2037
2037
2037
2037
2037
2037
2037
2037
2037
2038
2038
2038
2038
2036
2036
2036
2040
2040
2040
2036
2036
2036
2038
2038
2038
2037
2037
2037
2037
2036
2036
2036
2039
2039
2039
2039
2039
2039
2042
2042
2042
2038
2038
2038
2038
2036
2036
2036
2040
2040
2040
2037
2037
2037
2036
2036
2036
2039
2039
2039
2039
2037
2037
2037
2037
2037
2037
2036
2036
2036
2040
2040
2040
2040
2040
2040
2040
2038
2038
2038
2037
2037
2037
2036
2036
2036
2037
2037
2037
2037
2037
2037
2037
2030
2030
2030
2039
2039
2039
2038
2038
2038
2038
2038
2038
2037
2037
2037
2037
2040
2040
2040
2036
2036
2036
2034
2034
2034
2036
2036
2036
2036
2036
2036
2036
2037
2037
2037
2036
2036
2036
2037
2037
2037
2037
2037
2037
2035
2035
2035
2035
2035
2035
2035
2037
2037
2037
2038
2038
2038
2036
2036
2036
2036
2036
2036
2036
2038
2038
2038
2035
2035
2035
2038
2038
2038
2036
2036
2036
2037
2037
2037
2037
2036
2036
2036
2038
2038
2038
2037
2037
2037
2039
2039
2039
2036
2036
2036
2036
2038
2038
2038
2039
2039
2039
2037
2037
2037
2038
2038
2038
2036
2036
2036
2036
2038
2038
2038
2037
2037
2037
2039
2039
2039
2036
2036
2036
2037
2037
2037
2037
2035
2035
2035
2036
2036
2036
2035
2035
2035
2039
2039
2039
2038
2038
2038
2038
2027
2027
2027
2039
2039
2039
2036
2036
2036
2038
2038
2038
2035
2035
2035
2035
2036
2036
2036
2038
2038
2038
2037
2037
2037
2037
2037
2037
2036
2036
2036
2036
2039
2039
2039
2039
2039
2039
2038
2038
2038
2037
2037
2037
2037
2037
2037
2037
2037
2037
2037
2036
2036
2036
2032
2032
2032
2036
2036
2036
2037
2037
2037
2037
2037
2037
2037
2040
2040
2040
2038
2038
2038
2042
2042
2042
2039
2039
2039
2039
2037
2037
2037
2039
2039
2039
2037
2037
2037
2038
2038
2038
2036
2036
2036
2036
2038
2038
2038
2037
2037
2037
2039
2039
2039
2040
2040
2040
2037
2037
2037
2037
2039
2039
2039
2039
2039
2039
2035
2035
2035
2037
2037
2037
2038
2038
2038
2038
2037
2037
2037
2039
2039
2039
2033
2033
2033
2036
2036
2036
2037
2037
2037
2037
2036
2036
2036
2037
2037
2037
2041
2041
2041
2039
2039
2039
2038
2038
2038
2038
2037
2037
2037
2036
2036
2036
2038
2038
2038
2036
2036
2036
2033
2033
2033
2033
2038
2038
2038
2042
2042
2042
2035
2035
2035
2036
2036
2036
2037
2037
2037
2037
2037
2037
2037
2039
2039
2039
2036
2036
2036
2037
2037
2037
2037
2037
2037
2037
2036
2036
2036
2038
2038
2038
2038
2038
2038
2037
2037
2037
2038
2038
2038
2038
2037
2037
2037
2037
2037
2037
2035
2035
2035
2039
2039
2039
2034
2034
2034
2034
2040
2040
2040
2038
2038
2038
2037
2037
2037
2035
2035
2035
2038
2038
2038
2038
2039
2039
2039
2039
2039
2039
2034
2034
2034
2037
2037
2037
2035
2035
2035
2035
2035
2035
2035
2038
2038
2038
2036
2036
2036
2038
2038
2038
2035
2035
2035
2035
2035
2035
2035
2039
2039
2039
2038
2038
2038
2037
2037
2037
2037
2037
2037
2037
2037
2037
2037
2037
2037
2037
2038
2038
2038
2038
2038
2038
2036
2036
2036
2036
2038
2038
2038
2037
2037
2037
2038
2038
2038
2034
2034
2034
2036
2036
2036
2036
2035
2035
2035
2039
2039
2039
2038
2038
2038
2038
2038
2038
2042
2042
2042
2042
2036
2036
2036
2039
2039
2039
2039
2039
2039
2036
2036
2036
2037
2037
2037
2037
2033
2033
2033
2037
2037
2037
2037
2037
2037
2036
2036
2036
2035
2035
2035
2035
2036
2036
2036
2036
2036
2036
2036
2036
2036
2037
2037
2037
2036
2036
2036
2036
2036
2036
2036
2037
2037
2037
2037
2037
2037
2039
2039
2039
2035
2035
2035
2035
2035
2035
2035
2038
2038
2038
2035
2035
2035
2038
2038
2038
2036
2036
2036
2036
2035
2035
2035
2038
2038
2038
2040
2040
2040
2041
2041
2041
2036
2036
2036
2036
2039
2039
2039
2040
2040
2040
2037
2037
2037
2039
2039
2039
2037
2037
2037
2037
2036
2036
2036
2039
2039
2039
2037
2037
2037
2038
2038
2038
2038
2038
2038
2038
2036
2036
2036
2039
2039
2039
2039
2039
2039
2042
2042
2042
2037
2037
2037
2037
2038
2038
2038
2042
2042
2042
2038
2038
2038
2040
2040
2040
2034
2034
2034
2034
2039
2039
2039
2037
2037
2037
2036
2036
2036
2039
2039
2039
2036
2036
2036
2036
2036
2036
2036
2038
2038
2038
2038
2038
2038
2040
2040
2040
2030
2030
2030
2030
2040
2040
2040
2035
2035
2035
2038
2038
2038
2029
2029
2029
2036
2036
2036
2036
2037
2037
2037
2038
2038
2038
2039
2039
2039
2037
2037
2037
2037
2037
2037
2037
2037
2037
2037
2039
2039
2039
2038
2038
2038
2043
2043
2043
2039
2039
2039
2039
2037
2037
2037
2038
2038
2038
2035
2035
2035
2036
2036
2036
2038
2038
2038
2038
2034
2034
2034
2039
2039
2039
2037
2037
2037
2038
2038
2038
2035
2035
2035
2035
2037
2037
2037
2034
2034
2034
2035
2035
2035
2037
2037
2037
2038
2038
2038
2038
2037
2037
2037
2037
2037
2037
2041
2041
2041
2039
2039
2039
2036
2036
2036
2036
2039
2039
2039
2037
2037
2037
2038
2038
2038
2036
2036
2036
2037
2037
2037
2037
2039
2039
2039
2038
2038
2038
2037
2037
2037
2039
2039
2039
2036
2036
2036
2036
2036
2036
2036
2037
2037
2037
2039
2039
2039
2037
2037
2037
2038
2038
2038
2038
2038
2038
2038
2038
2038
2038
2038
2038
2038
2036
2036
2036
2037
2037
2037
2037
2038
2038
2038
2036
2036
2036
2037
2037
2037
2037
2037
2037
2033
2033
2033
2033
2036
2036
2036
2039
2039
2039
2038
2038
2038
2039
2039
2039
2039
2039
2039
2039
2036
2036
2036
2039
2039
2039
2038
2038
2038
2041
2041
2041
2037
2037
2037
2037
2036
2036
2036
2037
2037
2037
2035
2035
2035
2038
2038
2038
2035
2035
2035
2035
2039
2039
2039
2034
2034
2034
2039
2039
2039
2035
2035
2035
2036
2036
2036
2036
2038
2038
2038
2040
2040
2040
2040
2040
2040
2037
2037
2037
2035
2035
2035
2035
2035
2035
2035
2036
2036
2036
2032
2032
2032
2038
2038
2038
2039
2039
2039
2039
2037
2037
2037
2037
2037
2037
2039
2039
2039
2037
2037
2037
2036
2036
2036
2036
2039
2039
2039
2038
2038
2038
2036
2036
2036
2037
2037
2037
2038
2038
2038
2038
2034
2034
2034
2035
2035
2035
2039
2039
2039
2037
2037
2037
2037
2037
2037
2037
2040
2040
2040
2037
2037
2037
2035
2035
2035
2038
2038
2038
2037
2037
2037
2037
2037
2037
2037
2038
2038
2038
2036
2036
2036
2038
2038
2038
2032
2032
2032
2032
2036
2036
2036
2037
2037
2037
2040
2040
2040
2037
2037
2037
2036
2036
2036
2036
2036
2036
2036
2038
2038
2038
2042
2042
2042
2039
2039
2039
2036
2036
2036
2036
2032
2032
2032
2036
2036
2036
2037
2037
2037
2036
2036
2036
2038
2038
2038
2038
2036
2036
2036
2038
2038
2038
2036
2036
2036
2035
2035
2035
2038
2038
2038
2038
2033
2033
2033
2040
2040
2040
2035
2035
2035
2037
2037
2037
2038
2038
2038
2038
2039
2039
2039
2038
2038
2038
2034
2034
2034
2038
2038
2038
2038
2038
2038
2038
2038
2038
2038
2037
2037
2037
2036
2036
2036
2036
2036
2036
2037
2037
2037
2037
2031
2031
2031
2038
2038
2038
2037
2037
2037
2036
2036
2036
2039
2039
2039
2039
2036
2036
2036
2033
2033
2033
2039
2039
2039
2037
2037
2037
2037
2037
2037
2037
2035
2035
2035
2036
2036
2036
2037
2037
2037
2042
2042
2042
2036
2036
2036
2036
2038
2038
2038
2040
2040
2040
2036
2036
2036
2037
2037
2037
2037
2037
2037
2037
2038
2038
2038
2038
2038
2038
2035
2035
2035
2037
2037
2037
2037
2037
2037
2037
2036
2036
2036
2040
2040
2040
2037
2037
2037
2037
2037
2037
2037
2037
2037
2037
2036
2036
2036
2041
2041
2041
2036
2036
2036
2038
2038
2038
2037
2037
2037
2037
2037
2037
2037
2040
2040
2040
2042
2042
2042
2037
2037
2037
2038
2038
2038
2038
2036
2036
2036
2044
2044
2044
2034
2034
2034
2038
2038
2038
2036
2036
2036
2036
2040
2040
2040
2038
2038
2038
2037
2037
2037
2040
2040
2040
2035
2035
2035
2035
2038
2038
2038
2038
2038
2038
2041
2041
2041
2039
2039
2039
2038
2038
2038
2038
2037
2037
2037
2039
2039
2039
2036
2036
2036
2039
2039
2039
2036
2036
2036
2036
2036
2036
2036
2035
2035
2035
2037
2037
2037
2033
2033
2033
2037
2037
2037
2037
2037
2037
2037
2040
2040
2040
2037
2037
2037
2038
2038
2038
2037
2037
2037
2037
2037
2037
2037
2038
2038
2038
2035
2035
2035
2038
2038
2038
2036
2036
2036
2036
2037
2037
2037
2037
2037
2037
2035
2035
2035
2038
2038
2038
2035
2035
2035
2035
2038
2038
2038
2038
2038
2038
2039
2039
2039
2037
2037
2037
2039
2039
2039
2039
2045
2045
2045
2041
2041
2041
2036
2036
2036
2039
2039
2039
2033
2033
2033
2033
2036
2036
2036
2038
2038
2038
2036
2036
2036
2036
2036
2036
2038
2038
2038
2038
2036
2036
2036
2039
2039
2039
2036
2036
2036
2036
2036
2036
2040
2040
2040
2040
2037
2037
2037
2039
2039
2039
2036
2036
2036
2038
2038
2038
2037
2037
2037
2037
2038
2038
2038
2035
2035
2035
2037
2037
2037
2039
2039
2039
2035
2035
2035
2035
2040
2040
2040
2035
2035
2035
2037
2037
2037
2036
2036
2036
2037
2037
2037
2037
2037
2037
2037
2036
2036
2036
2035
2035
2035
2036
2036
2036
2036
2036
2036
2036
2037
2037
2037
2039
2039
2039
2036
2036
2036
2038
2038
2038
2033
2033
2033
2033
2040
2040
2040
2037
2037
2037
2038
2038
2038
2037
2037
2037
2034
2034
2034
2034
2037
2037
2037
2038
2038
2038
2037
2037
2037
2037
2037
2037
2035
2035
2035
2035
2040
2040
2040
2039
2039
2039
2038
2038
2038
2037
2037
2037
2032
2032
2032
2032
2037
2037
2037
2036
2036
2036
2040
2040
2040
2037
2037
2037
2037
2037
2037
2037
2036
2036
2036
2038
2038
2038
2036
2036
2036
2034
2034
2034
2029
2029
2029
2029
2039
2039
2039
2036
2036
2036
2036
2036
2036
2037
2037
2037
2035
2035
2035
2035
2038
2038
2038
2037
2037
2037
2036
2036
2036
2036
2036
2036
2034
2034
2034
2034
2039
2039
2039
2039
2039
2039
2033
2033
2033
2037
2037
2037
2037
2037
2037
2037
2036
2036
2036
2039
2039
2039
2040
2040
2040
2035
2035
2035
2039
2039
2039
2039
2037
2037
2037
2037
2037
2037
2039
2039
2039
2035
2035
2035
2037
2037
2037
2037
2037
2037
2037
2038
2038
2038
2037
2037
2037
2039
2039
2039
2033
2033
2033
2033
2037
2037
2037
2039
2039
2039
2037
2037
2037
2040
2040
2040
2037
2037
2037
2037
2039
2039
2039
2045
2045
2045
2040
2040
2040
2037
2037
2037
2035
2035
2035
2035
2039
2039
2039
2038
2038
2038
2038
2038
2038
2041
2041
2041
2040
2040
2040
2040
2036
2036
2036
2037
2037
2037
2039
2039
2039
2036
2036
2036
2037
2037
2037
2037
2039
2039
2039
2041
2041
2041
2035
2035
2035
2037
2037
2037
2036
2036
2036
2036
2036
2036
2036
2037
2037
2037
2038
2038
2038
2037
2037
2037
2038
2038
2038
2038
2037
2037
2037
2039
2039
2039
2040
2040
2040
2037
2037
2037
2038
2038
2038
2038
2038
2038
2038
2036
2036
2036
2040
2040
2040
2042
2042
2042
2035
2035
2035
2035
2038
2038
2038
2037
2037
2037
2038
2038
2038
2037
2037
2037
2034
2034
2034
2034
2035
2035
2035
2037
2037
2037
2035
2035
2035
2039
2039
2039
2037
2037
2037
2037
2038
2038
2038
2036
2036
2036
2037
2037
2037
2039
2039
2039
2037
2037
2037
2037
2042
2042
2042
2038
2038
2038
2036
2036
2036
2039
2039
2039
2033
2033
2033
2033
2035
2035
2035
2039
2039
2039
2039
2039
2039
2040
2040
2040
2037
2037
2037
2037
2036
2036
2036
2037
2037
2037
2035
2035
2035
2036
2036
2036
2041
2041
2041
2041
2036
2036
2036
2039
2039
2039
2036
2036
2036
2040
2040
2040
2032
2032
2032
2032
2035
2035
2035
2037
2037
2037
2036
2036
2036
2037
2037
2037
2037
2037
2037
2037
2039
2039
2039
2037
2037
2037
2038
2038
2038
2038
2038
2038
2037
2037
2037
2037
2037
2037
2037
2034
2034
2034
2037
2037
2037
2039
2039
2039
2037
2037
2037
2037
2039
2039
2039
2037
2037
2037
2039
2039
2039
2034
2034
2034
2036
2036
2036
2036
2036
2036
2036
2037
2037
2037
2037
2037
2037
2039
2039
2039
2037
2037
2037
2037
2038
2038
2038
2038
2038
2038
2037
2037
2037
2038
2038
2038
2038
2038
2038
2038
2041
2041
2041
2039
2039
2039
2039
2039
2039
2039
2039
2039
2039
2039
2039
2039
2039
2039
2039
2040
2040
2040
2042
2042
2042
2035
2035
2035
2036
2036
2036
2036
2036
2036
2036
2039
2039
2039
2038
2038
2038
2044
2044
2044
2038
2038
2038
2038
2037
2037
2037
2037
2037
2037
2037
2037
2037
2037
2037
2037
2036
2036
2036
2036
2037
2037
2037
2037
2037
2037
2039
2039
2039
2038
2038
2038
2036
2036
2036
2036
2040
2040
2040
2041
2041
2041
2037
2037
2037
2036
2036
2036
2040
2040
2040
2040
2036
2036
2036
2040
2040
2040
2039
2039
2039
2037
2037
2037
2039
2039
2039
2039
2040
2040
2040
2039
2039
2039
2039
2039
2039
2037
2037
2037
2037
2037
2037
2037
2035
2035
2035
2038
2038
2038
2039
2039
2039
2036
2036
2036
2035
2035
2035
2035
2037
2037
2037
2039
2039
2039
2036
2036
2036
2035
2035
2035
2034
2034
2034
2034
2036
2036
2036
2041
2041
2041
2035
2035
2035
2037
2037
2037
2037
2037
2037
2037
2037
2037
2037
2037
2037
2037
2033
2033
2033
2038
2038
2038
2034
2034
2034
2034
2038
2038
2038
2037
2037
2037
2036
2036
2036
2037
2037
2037
2037
2037
2037
2037
2034
2034
2034
2033
2033
2033
2036
2036
2036
2039
2039
2039
2035
2035
2035
2035
2036
2036
2036
2042
2042
2042
2036
2036
2036
2039
2039
2039
2037
2037
2037
2037
2033
2033
2033
2037
2037
2037
2038
2038
2038
2039
2039
2039
2036
2036
2036
2036
2037
2037
2037
2041
2041
2041
2034
2034
2034
2038
2038
2038
2038
2038
2038
2038
2038
2038
2038
2039
2039
2039
2037
2037
2037
2033
2033
2033
2040
2040
2040
2040
2038
2038
2038
2036
2036
2036
2038
2038
2038
2039
2039
2039
2036
2036
2036
2036
2037
2037
2037
2038
2038
2038
2038
2038
2038
2036
2036
2036
2037
2037
2037
2037
2037
2037
2037
2033
2033
2033
2038
2038
2038
2039
2039
2039
2036
2036
2036
2036
2038
2038
2038
2037
2037
2037
2037
2037
2037
2032
2032
2032
2038
2038
2038
2038
2035
2035
2035
2037
2037
2037
2035
2035
2035
2037
2037
2037
2039
2039
2039
2039
2037
2037
2037
2039
2039
2039
2040
2040
2040
2039
2039
2039
2036
2036
2036
2036
2036
2036
2036
2038
2038
2038
2037
2037
2037
2038
2038
2038
2037
2037
2037
2037
2035
2035
2035
2036
2036
2036
2039
2039
2039
2041
2041
2041
2038
2038
2038
2038
2036
2036
2036
2038
2038
2038
2041
2041
2041
2036
2036
2036
2039
2039
2039
2039
2037
2037
2037
2040
2040
2040
2040
2040
2040
2042
2042
2042
2036
2036
2036
2036
2038
2038
2038
2038
2038
2038
2039
2039
2039
2036
2036
2036
2038
2038
2038
2038
2037
2037
2037
2038
2038
2038
2034
2034
2034
2037
2037
2037
2037
2037
2037
2037
2038
2038
2038
2038
2038
2038
2038
2038
2038
2038
2038
2038
2033
2033
2033
2033
2037
2037
2037
2033
2033
2033
2038
2038
2038
2038
2038
2038
2035
2035
2035
2035
2038
2038
2038
2037
2037
2037
2037
2037
2037
2036
2036
2036
2035
2035
2035
2035
2035
2035
2035
2035
2035
2035
2036
2036
2036
2037
2037
2037
2036
2036
2036
2036
2037
2037
2037
2037
2037
2037
2037
2037
2037
2037
2037
2037
2037
2037
2037
2037
2035
2035
2035
2032
2032
2032
2039
2039
2039
2038
2038
2038
2038
2038
2038
2038
2036
2036
2036
2038
2038
2038
2039
2039
2039
2034
2034
2034
2034
2034
2034
2034
2035
2035
2035
2036
2036
2036
2036
2036
2036
2038
2038
2038
2037
2037
2037
2037
2036
2036
2036
2035
2035
2035
2038
2038
2038
2038
2038
2038
2039
2039
2039
2039
2038
2038
2038
2038
2038
2038
2036
2036
2036
2036
2036
2036
2038
2038
2038
2038
2038
2038
2038
2034
2034
2034
2036
2036
2036
2035
2035
2035
2035
2035
2035
2035
2036
2036
2036
2036
2036
2036
2037
2037
2037
2034
2034
2034
2037
2037
2037
2037
2037
2037
2037
2038
2038
2038
2038
2038
2038
2034
2034
2034
2037
2037
2037
2037
2035
2035
2035
2039
2039
2039
2038
2038
2038
2037
2037
2037
2039
2039
2039
2039
2041
2041
2041
2039
2039
2039
2035
2035
2035
2036
2036
2036
2039
2039
2039
2039
2036
2036
2036
2034
2034
2034
2036
2036
2036
2036
2036
2036
2036
2036
2036
2036
2035
2035
2035
2039
2039
2039
2039
2039
2039
2041
2041
2041
2038
2038
2038
2038
2039
2039
2039
2039
2039
2039
2038
2038
2038
2035
2035
2035
2036
2036
2036
2036
2037
2037
2037
2039
2039
2039
2037
2037
2037
2035
2035
2035
2036
2036
2036
2036
2039
2039
2039
2038
2038
2038
2036
2036
2036
2036
2036
2036
2037
2037
2037
2037
2037
2037
2037
2040
2040
2040
2039
2039
2039
2038
2038
2038
2036
2036
2036
2036
2047
2047
2047
2037
2037
2037
2036
2036
2036
2038
2038
2038
2036
2036
2036
2036
2037
2037
2037
2036
2036
2036
2035
2035
2035
2034
2034
2034
2040
2040
2040
2040
2035
2035
2035
2038
2038
2038
2038
2038
2038
2038
2038
2038
2035
2035
2035
2035
2033
2033
2033
2036
2036
2036
2037
2037
2037
2036
2036
2036
2037
2037
2037
2037
2034
2034
2034
2032
2032
2032
2038
2038
2038
2037
2037
2037
2042
2042
2042
2042
2037
2037
2037
2039
2039
2039
2038
2038
2038
2038
2038
2038
2040
2040
2040
2040
2038
2038
2038
2038
2038
2038
2037
2037
2037
2037
2037
2037
2037
2037
2037
2037
2037
2037
2037
2036
2036
2036
2038
2038
2038
2036
2036
2036
2037
2037
2037
2037
2043
2043
2043
2039
2039
2039
2038
2038
2038
2036
2036
2036
2037
2037
2037
2037
2037
2037
2037
2041
2041
2041
2039
2039
2039
2038
2038
2038
2037
2037
2037
2037
2038
2038
2038
2037
2037
2037
2037
2037
2037
2035
2035
2035
2040
2040
2040
2040
2037
2037
2037
2036
2036
2036
2037
2037
2037
2038
2038
2038
2036
2036
2036
2036
2037
2037
2037
2037
2037
2037
2039
2039
2039
2042
2042
2042
2035
2035
2035
2035
2041
2041
2041
2037
2037
2037
2037
2037
2037
2036
2036
2036
2038
2038
2038
2038
2039
2039
2039
2040
2040
2040
2035
2035
2035
2037
2037
2037
2039
2039
2039
2039
2035
2035
2035
2039
2039
2039
2036
2036
2036
2033
2033
2033
2038
2038
2038
2038
2037
2037
2037
2039
2039
2039
2037
2037
2037
2039
2039
2039
2035
2035
2035
2035
2033
2033
2033
2040
2040
2040
2037
2037
2037
2036
2036
2036
2039
2039
2039
2039
2043
2043
2043
2037
2037
2037
2035
2035
2035
2040
2040
2040
2036
2036
2036
2036
2038
2038
2038
2037
2037
2037
2039
2039
2039
2039
2039
2039
2038
2038
2038
2038
2036
2036
2036
2036
2036
2036
2038
2038
2038
2036
2036
2036
2042
2042
2042
2042
2039
2039
2039
2037
2037
2037
2036
2036
2036
2037
2037
2037
2038
2038
2038
2038
2040
2040
2040
2033
2033
2033
2039
2039
2039
2037
2037
2037
2036
2036
2036
2036
2035
2035
2035
2032
2032
2032
2041
2041
2041
2037
2037
2037
2036
2036
2036
2036
2037
2037
2037
2035
2035
2035
2039
2039
2039
2038
2038
2038
2038
2038
2038
2038
2036
2036
2036
2038
2038
2038
2036
2036
2036
2038
2038
2038
2035
2035
2035
2035
2039
2039
2039
2037
2037
2037
2037
2037
2037
2038
2038
2038
2039
2039
2039
2039
2038
2038
2038
2038
2038
2038
2037
2037
2037
2038
2038
2038
2037
2037
2037
2037
2039
2039
2039
2036
2036
2036
2035
2035
2035
2033
2033
2033
2035
2035
2035
2035
2035
2035
2035
2033
2033
2033
2035
2035
2035
2039
2039
2039
2036
2036
2036
2036
2037
2037
2037
2037
2037
2037
2037
2037
2037
2038
2038
2038
2036
2036
2036
2036
2035
2035
2035
2039
2039
2039
2038
2038
2038
2040
2040
2040
2035
2035
2035
2035
2037
2037
2037
2039
2039
2039
2035
2035
2035
2036
2036
2036
2038
2038
2038
2038
2046
2046
2046
2039
2039
2039
2042
2042
2042
2040
2040
2040
2039
2039
2039
2039
2039
2039
2039
2038
2038
2038
2036
2036
2036
2038
2038
2038
2040
2040
2040
2040
2037
2037
2037
2039
2039
2039
2036
2036
2036
2040
2040
2040
2037
2037
2037
2037
2033
2033
2033
2037
2037
2037
2038
2038
2038
2037
2037
2037
2038
2038
2038
2038
2036
2036
2036
2037
2037
2037
2037
2037
2037
2034
2034
2034
2035
2035
2035
2035
2038
2038
2038
2038
2038
2038
2037
2037
2037
2036
2036
2036
2036
2036
2036
2036
2035
2035
2035
2038
2038
2038
2035
2035
2035
2037
2037
2037
2037
2037
2037
2037
2037
2037
2037
2038
2038
2038
2037
2037
2037
2036
2036
2036
2037
2037
2037
2037
2035
2035
2035
2034
2034
2034
2036
2036
2036
2035
2035
2035
2034
2034
2034
2034
2035
2035
2035
2036
2036
2036
2035
2035
2035
2036
2036
2036
2034
2034
2034
2034
2037
2037
2037
2038
2038
2038
2032
2032
2032
2037
2037
2037
2037
2037
2037
2037
2036
2036
2036
2037
2037
2037
2035
2035
2035
2037
2037
2037
2034
2034
2034
2034
2035
2035
2035
2038
2038
2038
2036
2036
2036
2036
2036
2036
2037
2037
2037
2037
2028
2028
2028
2032
2032
2032
2037
2037
2037
2035
2035
2035
2036
2036
2036
2036
2037
2037
2037
2037
2037
2037
2036
2036
2036
2035
2035
2035
2036
2036
2036
2036
2038
2038
2038
2039
2039
2039
2037
2037
2037
2038
2038
2038
2035
2035
2035
2035
2039
2039
2039
2039
2039
2039
2037
2037
2037
2037
2037
2037
2037
2037
2037
2037
2034
2034
2034
2038
2038
2038
2034
2034
2034
2037
2037
2037
2037
2037
2037
2037
2034
2034
2034
2032
2032
2032
2035
2035
2035
2037
2037
2037
2037
2037
2037
2037
2036
2036
2036
2039
2039
2039
2037
2037
2037
2034
2034
2034
2034
2034
2034
2034
2039
2039
2039
2038
2038
2038
2039
2039
2039
2038
2038
2038
2036
2036
2036
2036
2035
2035
2035
2037
2037
2037
2038
2038
2038
2035
2035
2035
2037
2037
2037
2037
2034
2034
2034
2032
2032
2032
2039
2039
2039
2037
2037
2037
2034
2034
2034
2034
2038
2038
2038
2034
2034
2034
2036
2036
2036
2040
2040
2040
2034
2034
2034
2034
2036
2036
2036
2038
2038
2038
2037
2037
2037
2037
2037
2037
2035
2035
2035
2035
2040
2040
2040
2037
2037
2037
2037
2037
2037
2039
2039
2039
2037
2037
2037
2037
2032
2032
2032
2040
2040
2040
2036
2036
2036
2039
2039
2039
2039
2039
2039
2039
2037
2037
2037
2039
2039
2039
2037
2037
2037
2039
2039
2039
2036
2036
2036
2036
2037
2037
2037
2038
2038
2038
2036
2036
2036
2040
2040
2040
2032
2032
2032
2032
2035
2035
2035
2039
2039
2039
2038
2038
2038
2037
2037
2037
2038
2038
2038
2038
2035
2035
2035
2039
2039
2039
2038
2038
2038
2040
2040
2040
2038
2038
2038
2038
2043
2043
2043
2039
2039
2039
2037
2037
2037
2038
2038
2038
2036
2036
2036
2036
2039
2039
2039
2038
2038
2038
2035
2035
2035
2042
2042
2042
2036
2036
2036
2036
2041
2041
2041
2038
2038
2038
2038
2038
2038
2037
2037
2037
2034
2034
2034
2034
2037
2037
2037
2038
2038
2038
2038
2038
2038
2036
2036
2036
2036
2036
2036
2036
2036
2036
2036
2039
2039
2039
2038
2038
2038
2038
2038
2038
2038
2038
2038
2038
2036
2036
2036
2037
2037
2037
2036
2036
2036
2041
2041
2041
2034
2034
2034
2034
2038
2038
2038
2037
2037
2037
2040
2040
2040
2038
2038
2038
2031
2031
2031
2031
2037
2037
2037
2038
2038
2038
2041
2041
2041
2038
2038
2038
2036
2036
2036
2036
2039
2039
2039
2039
2039
2039
2042
2042
2042
2038
2038
2038
2036
2036
2036
2036
2037
2037
2037
2036
2036
2036
2038
2038
2038
2041
2041
2041
2038
2038
2038
2038
2037
2037
2037
2039
2039
2039
2033
2033
2033
2034
2034
2034
2035
2035
2035
2035
2038
2038
2038
2036
2036
2036
2036
2036
2036
2037
2037
2037
2039
2039
2039
2039
2036
2036
2036
2038
2038
2038
2035
2035
2035
2037
2037
2037
2037
2037
2037
2037
2038
2038
2038
2037
2037
2037
2034
2034
2034
2039
2039
2039
2037
2037
2037
2037
2040
2040
2040
2039
2039
2039
2039
2039
2039
2041
2041
2041
2037
2037
2037
2037
2037
2037
2037
2039
2039
2039
2039
2039
2039
2039
2039
2039
2037
2037
2037
2037
2037
2037
2037
2036
2036
2036
2038
2038
2038
2038
2038
2038
2037
2037
2037
2037
2038
2038
2038
2036
2036
2036
2040
2040
2040
2037
2037
2037
2037
2037
2037
2037
2037
2037
2037
2038
2038
2038
2039
2039
2039
2039
2039
2039
2036
2036
2036
2036
2037
2037
2037
2040
2040
2040
2038
2038
2038
2040
2040
2040
2036
2036
2036
2036
2037
2037
2037
2035
2035
2035
2038
2038
2038
2042
2042
2042
2036
2036
2036
2036
2037
2037
2037
2039
2039
2039
2037
2037
2037
2038
2038
2038
2036
2036
2036
2036
2037
2037
2037
2038
2038
2038
2037
2037
2037
2038
2038
2038
2037
2037
2037
2037
2037
2037
2037
2041
2041
2041
2037
2037
2037
2039
2039
2039
2038
2038
2038
2038
2036
2036
2036
2040
2040
2040
2039
2039
2039
2041
2041
2041
2036
2036
2036
2036
2036
2036
2036
2039
2039
2039
2036
2036
2036
2036
2036
2036
2038
2038
2038
2038
2038
2038
2038
2035
2035
2035
2041
2041
2041
2039
2039
2039
2036
2036
2036
2036
2036
2036
2036
2036
2036
2036
2040
2040
2040
2037
2037
2037
2035
2035
2035
2035
2040
2040
2040
2037
2037
2037
2038
2038
2038
2039
2039
2039
2038
2038
2038
2038
2035
2035
2035
2038
2038
2038
2034
2034
2034
2034
2034
2034
2036
2036
2036
2036
2039
2039
2039
2038
2038
2038
2039
2039
2039
2038
2038
2038
2041
2041
2041
2041
2038
2038
2038
2038
2038
2038
2038
2038
2038
2037
2037
2037
2037
2037
2037
2037
2030
2030
2030
2034
2034
2034
2035
2035
2035
2037
2037
2037
2036
2036
2036
2036
2037
2037
2037
2034
2034
2034
2037
2037
2037
2038
2038
2038
2039
2039
2039
2039
2039
2039
2039
2037
2037
2037
2039
2039
2039
2033
2033
2033
2042
2042
2042
2042
2037
2037
2037
2040
2040
2040
2039
2039
2039
2036
2036
2036
2039
2039
2039
2039
2040
2040
2040
2035
2035
2035
2037
2037
2037
2035
2035
2035
2039
2039
2039
2039
2038
2038
2038
2039
2039
2039
2036
2036
2036
2038
2038
2038
2038
2038
2038
2038
2036
2036
2036
2037
2037
2037
2039
2039
2039
2038
2038
2038
2034
2034
2034
2034
2036
2036
2036
2038
2038
2038
2039
2039
2039
2037
2037
2037
2036
2036
2036
2036
2039
2039
2039
2038
2038
2038
2038
2038
2038
2038
2038
2038
2032
2032
2032
2032
2039
2039
2039
2037
2037
2037
2034
2034
2034
2040
2040
2040
2034
2034
2034
2034
2037
2037
2037
2040
2040
2040
2040
2040
2040
2039
2039
2039
2041
2041
2041
2041
2038
2038
2038
2035
2035
2035
2039
2039
2039
2038
2038
2038
2031
2031
2031
2031
2036
2036
2036
2037
2037
2037
2039
2039
2039
2035
2035
2035
2038
2038
2038
2038
2036
2036
2036
2037
2037
2037
2038
2038
2038
2039
2039
2039
2037
2037
2037
2037
2036
2036
2036
2036
2036
2036
2038
2038
2038
2037
2037
2037
2037
2037
2037
2037
2047
2047
2047
2040
2040
2040
2037
2037
2037
2037
2037
2037
2038
2038
2038
2038
2038
2038
2038
2038
2038
2038
2041
2041
2041
2041
2041
2041
2041
2041
2041
2041
2035
2035
2035
2038
2038
2038
2038
2038
2038
2037
2037
2037
2034
2034
2034
2034
2038
2038
2038
2038
2038
2038
2038
2038
2038
2038
2038
2038
2036
2036
2036
2036
2032
2032
2032
2039
2039
2039
2038
2038
2038
2037
2037
2037
2037
2037
2037
2037
2038
2038
2038
2039
2039
2039
2035
2035
2035
2044
2044
2044
2036
2036
2036
2036
2038
2038
2038
2037
2037
2037
2037
2037
2037
2038
2038
2038
2031
2031
2031
2031
2038
2038
2038
2041
2041
2041
2036
2036
2036
2039
2039
2039
2034
2034
2034
2034
2034
2034
2034
2037
2037
2037
2036
2036
2036
2037
2037
2037
2035
2035
2035
2035
2038
2038
2038
2034
2034
2034
2036
2036
2036
2039
2039
2039
2036
2036
2036
2036
2035
2035
2035
2035
2035
2035
2039
2039
2039
2037
2037
2037
2037
2037
2037
2037
2037
2037
2037
2035
2035
2035
2038
2038
2038
2036
2036
2036
2037
2037
2037
2037
2036
2036
2036
2040
2040
2040
2041
2041
2041
2037
2037
2037
2038
2038
2038
2038
2040
2040
2040
2039
2039
2039
2038
2038
2038
2038
2038
2038
2038
2038
2038
2038
2039
2039
2039
2040
2040
2040
2036
2036
2036
2037
2037
2037
2037
2037
2037
2037
2037
2037
2037
2038
2038
2038
2037
2037
2037
2039
2039
2039
2038
2038
2038
2038
2038
2038
2038
2038
2038
2038
2037
2037
2037
2039
2039
2039
2038
2038
2038
2038
2036
2036
2036
2038
2038
2038
2037
2037
2037
2033
2033
2033
2038
2038
2038
2038
2038
2038
2038
2038
2038
2038
2039
2039
2039
2037
2037
2037
2041
2041
2041
2041
2038
2038
2038
2038
2038
2038
2037
2037
2037
2037
2037
2037
2037
2037
2037
2037
2036
2036
2036
2039
2039
2039
2036
2036
2036
2039
2039
2039
2040
2040
2040
2040
2035
2035
2035
2039
2039
2039
2036
2036
2036
2038
2038
2038
2035
2035
2035
2035
2038
2038
2038
2038
2038
2038
2038
2038
2038
2039
2039
2039
2036
2036
2036
2036
2036
2036
2036
2042
2042
2042
2037
2037
2037
2035
2035
2035
2035
2035
2035
2035
2036
2036
2036
2035
2035
2035
2038
2038
2038
2036
2036
2036
2039
2039
2039
2039
2036
2036
2036
2035
2035
2035
2036
2036
2036
2037
2037
2037
2036
2036
2036
2036
2041
2041
2041
2043
2043
2043
2037
2037
2037
2039
2039
2039
2038
2038
2038
2038
2035
2035
2035
2037
2037
2037
2037
2037
2037
2032
2032
2032
2038
2038
2038
2038
2037
2037
2037
2037
2037
2037
2040
2040
2040
2034
2034
2034
2040
2040
2040
2040
2041
2041
2041
2037
2037
2037
2038
2038
2038
2037
2037
2037
2037
2037
2037
2037
2036
2036
2036
2036
2036
2036
2036
2036
2036
2039
2039
2039
2038
2038
2038
2038
2035
2035
2035
2038
2038
2038
2040
2040
2040
2037
2037
2037
2038
2038
2038
2038
2038
2038
2038
2039
2039
2039
2040
2040
2040
2042
2042
2042
2034
2034
2034
2034
2037
2037
2037
2037
2037
2037
2037
2037
2037
2038
2038
2038
2038
2038
2038
2038
2040
2040
2040
2039
2039
2039
2036
2036
2036
2038
2038
2038
2037
2037
2037
2037
2034
2034
2034
2040
2040
2040
2037
2037
2037
2040
2040
2040
2038
2038
2038
2038
2035
2035
2035
2038
2038
2038
2035
2035
2035
2036
2036
2036
2034
2034
2034
2034
2036
2036
2036
2040
2040
2040
2037
2037
2037
2038
2038
2038
2035
2035
2035
2035
2035
2035
2035
2037
2037
2037
2037
2037
2037
2038
2038
2038
2036
2036
2036
2036
2038
2038
2038
2044
2044
2044
2039
2039
2039
2039
2039
2039
2035
2035
2035
2035
2038
2038
2038
2035
2035
2035
2038
2038
2038
2036
2036
2036
2038
2038
2038
2038
2037
2037
2037
2037
2037
2037
2038
2038
2038
2037
2037
2037
2035
2035
2035
2035
2037
2037
2037
2039
2039
2039
2037
2037
2037
2038
2038
2038
2035
2035
2035
2035
2033
2033
2033
2039
2039
2039
2037
2037
2037
2039
2039
2039
2038
2038
2038
2038
2038
2038
2038
2038
2038
2038
2042
2042
2042
2038
2038
2038
2035
2035
2035
2035
2037
2037
2037
2039
2039
2039
2038
2038
2038
2035
2035
2035
2037
2037
2037
2037
2035
2035
2035
2039
2039
2039
2037
2037
2037
2037
2037
2037
2036
2036
2036
2036
2039
2039
2039
2038
2038
2038
2039
2039
2039
2039
2039
2039
2039
2039
2039
2039
2037
2037
2037
2032
