2041
2041
2041
2033
2033
2033
2038
2038
2038
2033
2033
2033
2035
2035
2035
2035
2041
2041
2041
2037
2037
2037
2039
2039
2039
2034
2034
2034
2040
2040
2040
2040
2036
2036
2036
2031
2031
2031
2040
2040
2040
2034
2034
2034
2040
2040
2040
2040
2041
2041
2041
2036
2036
2036
2042
2042
2042
2034
2034
2034
2039
2039
2039
2039
2041
2041
2041
2034
2034
2034
2039
2039
2039
2037
2037
2037
2041
2041
2041
2041
2041
2041
2041
2033
2033
2033
2041
2041
2041
2036
2036
2036
2041
2041
2041
2041
2039
2039
2039
2037
2037
2037
2041
2041
2041
2034
2034
2034
2038
2038
2038
2038
2036
2036
2036
2033
2033
2033
2039
2039
2039
2034
2034
2034
2038
2038
2038
2038
2038
2038
2038
2037
2037
2037
2034
2034
2034
2035
2035
2035
2039
2039
2039
2039
2037
2037
2037
2036
2036
2036
2039
2039
2039
2033
2033
2033
2040
2040
2040
2040
2033
2033
2033
2036
2036
2036
2038
2038
2038
2035
2035
2035
2040
2040
2040
2040
2038
2038
2038
2033
2033
2033
2044
2044
2044
2028
2028
2028
2037
2037
2037
2037
2036
2036
2036
2035
2035
2035
2038
2038
2038
2037
2037
2037
2039
2039
2039
2039
2035
2035
2035
2033
2033
2033
2039
2039
2039
2035
2035
2035
2038
2038
2038
2038
2036
2036
2036
2035
2035
2035
2041
2041
2041
2036
2036
2036
2033
2033
2033
2033
2041
2041
2041
2031
2031
2031
2040
2040
2040
2034
2034
2034
2039
2039
2039
2039
2040
2040
2040
2036
2036
2036
2033
2033
2033
2035
2035
2035
2039
2039
2039
2039
2041
2041
2041
2034
2034
2034
2039
2039
2039
2034
2034
2034
2040
2040
2040
2040
2040
2040
2040
2043
2043
2043
2040
2040
2040
2036
2036
2036
2039
2039
2039
2039
2039
2039
2039
2031
2031
2031
2037
2037
2037
2034
2034
2034
2039
2039
2039
2039
2038
2038
2038
2034
2034
2034
2039
2039
2039
2033
2033
2033
2040
2040
2040
2040
2039
2039
2039
2035
2035
2035
2043
2043
2043
2036
2036
2036
2040
2040
2040
2040
2039
2039
2039
2037
2037
2037
2040
2040
2040
2029
2029
2029
2041
2041
2041
2041
2040
2040
2040
2033
2033
2033
2041
2041
2041
2032
2032
2032
2038
2038
2038
2038
2038
2038
2038
2036
2036
2036
2038
2038
2038
2035
2035
2035
2037
2037
2037
2037
2040
2040
2040
2032
2032
2032
2039
2039
2039
2036
2036
2036
2039
2039
2039
2039
2039
2039
2039
2034
2034
2034
2038
2038
2038
2033
2033
2033
2039
2039
2039
2039
2041
2041
2041
2033
2033
2033
2039
2039
2039
2035
2035
2035
2041
2041
2041
2041
2041
2041
2041
2034
2034
2034
2041
2041
2041
2030
2030
2030
2040
2040
2040
2040
2037
2037
2037
2032
2032
2032
2038
2038
2038
2033
2033
2033
2039
2039
2039
2039
2037
2037
2037
2037
2037
2037
2039
2039
2039
2033
2033
2033
2036
2036
2036
2036
2037
2037
2037
2035
2035
2035
2040
2040
2040
2035
2035
2035
2033
2033
2033
2033
2039
2039
2039
2037
2037
2037
2039
2039
2039
2033
2033
2033
2039
2039
2039
2039
2039
2039
2039
2032
2032
2032
2041
2041
2041
2030
2030
2030
2045
2045
2045
2045
2039
2039
2039
2035
2035
2035
2041
2041
2041
2032
2032
2032
2040
2040
2040
2040
2040
2040
2040
2039
2039
2039
2037
2037
2037
2037
2037
2037
2041
2041
2041
2041
2039
2039
2039
2032
2032
2032
2037
2037
2037
2033
2033
2033
2043
2043
2043
2043
2038
2038
2038
2034
2034
2034
2040
2040
2040
2035
2035
2035
2041
2041
2041
2041
2039
2039
2039
2037
2037
2037
2039
2039
2039
2035
2035
2035
2038
2038
2038
2038
2039
2039
2039
2034
2034
2034
2040
2040
2040
2033
2033
2033
2041
2041
2041
2041
2039
2039
2039
2035
2035
2035
2039
2039
2039
2034
2034
2034
2040
2040
2040
2040
2039
2039
2039
2034
2034
2034
2044
2044
2044
2034
2034
2034
2037
2037
2037
2037
2041
2041
2041
2033
2033
2033
2040
2040
2040
2035
2035
2035
2038
2038
2038
2038
2036
2036
2036
2037
2037
2037
2040
2040
2040
2036
2036
2036
2040
2040
2040
2040
2041
2041
2041
2035
2035
2035
2040
2040
2040
2030
2030
2030
2034
2034
2034
2034
2038
2038
2038
2036
2036
2036
2039
2039
2039
2036
2036
2036
2041
2041
2041
2041
2037
2037
2037
2034
2034
2034
2039
2039
2039
2035
2035
2035
2040
2040
2040
2040
2038
2038
2038
2034
2034
2034
2038
2038
2038
2034
2034
2034
2042
2042
2042
2042
2039
2039
2039
2033
2033
2033
2040
2040
2040
2035
2035
2035
2039
2039
2039
2039
2037
2037
2037
2028
2028
2028
2040
2040
2040
2036
2036
2036
2039
2039
2039
2039
2039
2039
2039
2035
2035
2035
2047
2047
2047
2032
2032
2032
2041
2041
2041
2041
2037
2037
2037
2037
2037
2037
2041
2041
2041
2035
2035
2035
2041
2041
2041
2041
2040
2040
2040
2036
2036
2036
2043
2043
2043
2036
2036
2036
2040
2040
2040
2040
2038
2038
2038
2034
2034
2034
2039
2039
2039
2034
2034
2034
2041
2041
2041
2041
2041
2041
2041
2033
2033
2033
2042
2042
2042
2034
2034
2034
2040
2040
2040
2040
2039
2039
2039
2033
2033
2033
2042
2042
2042
2036
2036
2036
2039
2039
2039
2039
2039
2039
2039
2035
2035
2035
2041
2041
2041
2037
2037
2037
2039
2039
2039
2039
2037
2037
2037
2032
2032
2032
2039
2039
2039
2033
2033
2033
2041
2041
2041
2041
2040
2040
2040
2035
2035
2035
2040
2040
2040
2034
2034
2034
2039
2039
2039
2039
2039
2039
2039
2033
2033
2033
2039
2039
2039
2034
2034
2034
2039
2039
2039
2039
2038
2038
2038
2038
2038
2038
2040
2040
2040
2037
2037
2037
2042
2042
2042
2042
2036
2036
2036
2035
2035
2035
2040
2040
2040
2033
2033
2033
2041
2041
2041
2041
2037
2037
2037
2037
2037
2037
2039
2039
2039
2034
2034
2034
2040
2040
2040
2040
2039
2039
2039
2036
2036
2036
2041
2041
2041
2035
2035
2035
2040
2040
2040
2040
2040
2040
2040
2035
2035
2035
2044
2044
2044
2035
2035
2035
2038
2038
2038
2038
2040
2040
2040
2036
2036
2036
2037
2037
2037
2028
2028
2028
2040
2040
2040
2040
2039
2039
2039
2035
2035
2035
2039
2039
2039
2034
2034
2034
2042
2042
2042
2042
2041
2041
2041
2035
2035
2035
2040
2040
2040
2036
2036
2036
2042
2042
2042
2042
2042
2042
2042
2037
2037
2037
2043
2043
2043
2032
2032
2032
2040
2040
2040
2040
2041
2041
2041
2037
2037
2037
2037
2037
2037
2034
2034
2034
2037
2037
2037
2037
2038
2038
2038
2036
2036
2036
2040
2040
2040
2035
2035
2035
2041
2041
2041
2041
2039
2039
2039
2035
2035
2035
2039
2039
2039
2031
2031
2031
2043
2043
2043
2043
2040
2040
2040
2033
2033
2033
2040
2040
2040
2032
2032
2032
2039
2039
2039
2039
2040
2040
2040
2036
2036
2036
2040
2040
2040
2032
2032
2032
2042
2042
2042
2042
2039
2039
2039
2034
2034
2034
2041
2041
2041
2034
2034
2034
2044
2044
2044
2044
2043
2043
2043
2033
2033
2033
2039
2039
2039
2037
2037
2037
2039
2039
2039
2039
2037
2037
2037
2039
2039
2039
2040
2040
2040
2034
2034
2034
2040
2040
2040
2040
2040
2040
2040
2035
2035
2035
2040
2040
2040
2035
2035
2035
2039
2039
2039
2039
2040
2040
2040
2035
2035
2035
2041
2041
2041
2036
2036
2036
2037
2037
2037
2037
2037
2037
2037
2035
2035
2035
2042
2042
2042
2038
2038
2038
2042
2042
2042
2042
2039
2039
2039
2033
2033
2033
2039
2039
2039
2034
2034
2034
2041
2041
2041
2041
2039
2039
2039
2034
2034
2034
2038
2038
2038
2034
2034
2034
2041
2041
2041
2041
2041
2041
2041
2034
2034
2034
2040
2040
2040
2038
2038
2038
2042
2042
2042
2042
2039
2039
2039
2037
2037
2037
2040
2040
2040
2034
2034
2034
2038
2038
2038
2038
2034
2034
2034
2039
2039
2039
2040
2040
2040
2032
2032
2032
2041
2041
2041
2041
2040
2040
2040
2034
2034
2034
2042
2042
2042
2035
2035
2035
2039
2039
2039
2039
2038
2038
2038
2036
2036
2036
2039
2039
2039
2034
2034
2034
2038
2038
2038
2038
2038
2038
2038
2031
2031
2031
2039
2039
2039
2034
2034
2034
2038
2038
2038
2038
2040
2040
2040
2035
2035
2035
2041
2041
2041
2035
2035
2035
2044
2044
2044
2044
2038
2038
2038
2032
2032
2032
2040
2040
2040
2034
2034
2034
2039
2039
2039
2039
2040
2040
2040
2036
2036
2036
2040
2040
2040
2035
2035
2035
2033
2033
2033
2033
2041
2041
2041
2037
2037
2037
2042
2042
2042
2036
2036
2036
2040
2040
2040
2040
2038
2038
2038
2029
2029
2029
2032
2032
2032
2037
2037
2037
2039
2039
2039
2039
2038
2038
2038
2033
2033
2033
2038
2038
2038
2036
2036
2036
2039
2039
2039
2039
2037
2037
2037
2035
2035
2035
2039
2039
2039
2038
2038
2038
2041
2041
2041
2041
2038
2038
2038
2035
2035
2035
2040
2040
2040
2038
2038
2038
2041
2041
2041
2041
2040
2040
2040
2033
2033
2033
2039
2039
2039
2034
2034
2034
2042
2042
2042
2042
2036
2036
2036
2035
2035
2035
2037
2037
2037
2034
2034
2034
2041
2041
2041
2041
2040
2040
2040
2033
2033
2033
2039
2039
2039
2033
2033
2033
2036
2036
2036
2036
2038
2038
2038
2036
2036
2036
2040
2040
2040
2035
2035
2035
2041
2041
2041
2041
2040
2040
2040
2035
2035
2035
2035
2035
2035
2033
2033
2033
2038
2038
2038
2038
2038
2038
2038
2033
2033
2033
2039
2039
2039
2034
2034
2034
2039
2039
2039
2039
2037
2037
2037
2034
2034
2034
2041
2041
2041
2035
2035
2035
2041
2041
2041
2041
2039
2039
2039
2033
2033
2033
2041
2041
2041
2034
2034
2034
2041
2041
2041
2041
2039
2039
2039
2035
2035
2035
2039
2039
2039
2033
2033
2033
2039
2039
2039
2039
2039
2039
2039
2038
2038
2038
2042
2042
2042
2033
2033
2033
2036
2036
2036
2036
2041
2041
2041
2035
2035
2035
2039
2039
2039
2035
2035
2035
2042
2042
2042
2042
2041
2041
2041
2036
2036
2036
2041
2041
2041
2034
2034
2034
2039
2039
2039
2039
2038
2038
2038
2035
2035
2035
2039
2039
2039
2034
2034
2034
2040
2040
2040
2040
2040
2040
2040
2034
2034
2034
2038
2038
2038
2035
2035
2035
2039
2039
2039
2039
2041
2041
2041
2036
2036
2036
2041
2041
2041
2035
2035
2035
2036
2036
2036
2036
2036
2036
2036
2035
2035
2035
2038
2038
2038
2035
2035
2035
2040
2040
2040
2040
2039
2039
2039
2034
2034
2034
2041
2041
2041
2035
2035
2035
2039
2039
2039
2039
2039
2039
2039
2035
2035
2035
2039
2039
2039
2033
2033
2033
2037
2037
2037
2037
2039
2039
2039
2038
2038
2038
2038
2038
2038
2037
2037
2037
2041
2041
2041
2041
2039
2039
2039
2033
2033
2033
2040
2040
2040
2037
2037
2037
2037
2037
2037
2037
2039
2039
2039
2035
2035
2035
2038
2038
2038
2033
2033
2033
2040
2040
2040
2040
2038
2038
2038
2032
2032
2032
2038
2038
2038
2033
2033
2033
2039
2039
2039
2039
2038
2038
2038
2033
2033
2033
2039
2039
2039
2034
2034
2034
2038
2038
2038
2038
2036
2036
2036
2035
2035
2035
2039
2039
2039
2034
2034
2034
2040
2040
2040
2040
2040
2040
2040
2036
2036
2036
2044
2044
2044
2035
2035
2035
2037
2037
2037
2037
2039
2039
2039
2037
2037
2037
2037
2037
2037
2034
2034
2034
2040
2040
2040
2040
2039
2039
2039
2038
2038
2038
2036
2036
2036
2034
2034
2034
2042
2042
2042
2042
2039
2039
2039
2034
2034
2034
2039
2039
2039
2036
2036
2036
2038
2038
2038
2038
2039
2039
2039
2032
2032
2032
2039
2039
2039
2037
2037
2037
2039
2039
2039
2039
2039
2039
2039
2037
2037
2037
2039
2039
2039
2036
2036
2036
2036
2036
2036
2036
2041
2041
2041
2034
2034
2034
2040
2040
2040
2035
2035
2035
2040
2040
2040
2040
2037
2037
2037
2033
2033
2033
2035
2035
2035
2035
2035
2035
2037
2037
2037
2037
2038
2038
2038
2036
2036
2036
2040
2040
2040
2034
2034
2034
2038
2038
2038
2038
2042
2042
2042
2039
2039
2039
2039
2039
2039
2034
2034
2034
2040
2040
2040
2040
2041
2041
2041
2036
2036
2036
2041
2041
2041
2037
2037
2037
2036
2036
2036
2036
2037
2037
2037
2035
2035
2035
2042
2042
2042
2037
2037
2037
2039
2039
2039
2039
2040
2040
2040
2035
2035
2035
2039
2039
2039
2035
2035
2035
2041
2041
2041
2041
2040
2040
2040
2035
2035
2035
2038
2038
2038
2035
2035
2035
2039
2039
2039
2039
2038
2038
2038
2037
2037
2037
2040
2040
2040
2033
2033
2033
2040
2040
2040
2040
2039
2039
2039
2036
2036
2036
2039
2039
2039
2036
2036
2036
2040
2040
2040
2040
2039
2039
2039
2033
2033
2033
2039
2039
2039
2035
2035
2035
2041
2041
2041
2041
2039
2039
2039
2032
2032
2032
2038
2038
2038
2037
2037
2037
2042
2042
2042
2042
2038
2038
2038
2035
2035
2035
2041
2041
2041
2037
2037
2037
2035
2035
2035
2035
2032
2032
2032
2033
2033
2033
2038
2038
2038
2032
2032
2032
2039
2039
2039
2039
2038
2038
2038
2034
2034
2034
2038
2038
2038
2033
2033
2033
2039
2039
2039
2039
2043
2043
2043
2031
2031
2031
2038
2038
2038
2036
2036
2036
2038
2038
2038
2038
2038
2038
2038
2036
2036
2036
2039
2039
2039
2033
2033
2033
2038
2038
2038
2038
2041
2041
2041
2037
2037
2037
2041
2041
2041
2035
2035
2035
2040
2040
2040
2040
2044
2044
2044
2034
2034
2034
2038
2038
2038
2037
2037
2037
2038
2038
2038
2038
2038
2038
2038
2035
2035
2035
2043
2043
2043
2033
2033
2033
2040
2040
2040
2040
2041
2041
2041
2032
2032
2032
2041
2041
2041
2035
2035
2035
2037
2037
2037
2037
2036
2036
2036
2033
2033
2033
2040
2040
2040
2034
2034
2034
2038
2038
2038
2038
2038
2038
2038
2035
2035
2035
2040
2040
2040
2035
2035
2035
2039
2039
2039
2039
2038
2038
2038
2032
2032
2032
2039
2039
2039
2037
2037
2037
2040
2040
2040
2040
2042
2042
2042
2035
2035
2035
2039
2039
2039
2035
2035
2035
2042
2042
2042
2042
2039
2039
2039
2029
2029
2029
2042
2042
2042
2036
2036
2036
2040
2040
2040
2040
2039
2039
2039
2036
2036
2036
2042
2042
2042
2039
2039
2039
2040
2040
2040
2040
2035
2035
2035
2032
2032
2032
2039
2039
2039
2035
2035
2035
2039
2039
2039
2039
2038
2038
2038
2035
2035
2035
2043
2043
2043
2035
2035
2035
2038
2038
2038
2038
2041
2041
2041
2035
2035
2035
2041
2041
2041
2035
2035
2035
2039
2039
2039
2039
2039
2039
2039
2032
2032
2032
2039
2039
2039
2034
2034
2034
2041
2041
2041
2041
2040
2040
2040
2032
2032
2032
2035
2035
2035
2035
2035
2035
2040
2040
2040
2040
2031
2031
2031
2036
2036
2036
2038
2038
2038
2032
2032
2032
2038
2038
2038
2038
2036
2036
2036
2034
2034
2034
2040
2040
2040
2036
2036
2036
2038
2038
2038
2038
2041
2041
2041
2034
2034
2034
2040
2040
2040
2036
2036
2036
2039
2039
2039
2039
2039
2039
2039
2035
2035
2035
2037
2037
2037
2035
2035
2035
2040
2040
2040
2040
2040
2040
2040
2035
2035
2035
2039
2039
2039
2036
2036
2036
2038
2038
2038
2038
2035
2035
2035
2032
2032
2032
2041
2041
2041
2030
2030
2030
2039
2039
2039
2039
2037
2037
2037
2035
2035
2035
2041
2041
2041
2033
2033
2033
2041
2041
2041
2041
2040
2040
2040
2039
2039
2039
2038
2038
2038
2036
2036
2036
2040
2040
2040
2040
2039
2039
2039
2035
2035
2035
2040
2040
2040
2034
2034
2034
2037
2037
2037
2037
2037
2037
2037
2034
2034
2034
2038
2038
2038
2034
2034
2034
2038
2038
2038
2038
2039
2039
2039
2034
2034
2034
2041
2041
2041
2033
2033
2033
2034
2034
2034
2034
2039
2039
2039
2035
2035
2035
2039
2039
2039
2034
2034
2034
2039
2039
2039
2039
2039
2039
2039
2029
2029
2029
2036
2036
2036
2034
2034
2034
2036
2036
2036
2036
2037
2037
2037
2035
2035
2035
2040
2040
2040
2034
2034
2034
2038
2038
2038
2038
2040
2040
2040
2032
2032
2032
2040
2040
2040
2035
2035
2035
2038
2038
2038
2038
2038
2038
2038
2034
2034
2034
2039
2039
2039
2033
2033
2033
2038
2038
2038
2038
2037
2037
2037
2035
2035
2035
2041
2041
2041
2034
2034
2034
2037
2037
2037
2037
2037
2037
2037
2034
2034
2034
2038
2038
2038
2036
2036
2036
2038
2038
2038
2038
2039
2039
2039
2035
2035
2035
2040
2040
2040
2031
2031
2031
2041
2041
2041
2041
2033
2033
2033
2034
2034
2034
2042
2042
2042
2037
2037
2037
2039
2039
2039
2039
2040
2040
2040
2036
2036
2036
2040
2040
2040
2035
2035
2035
2039
2039
2039
2039
2045
2045
2045
2034
2034
2034
2041
2041
2041
2035
2035
2035
2039
2039
2039
2039
2039
2039
2039
2035
2035
2035
2037
2037
2037
2035
2035
2035
2038
2038
2038
2038
2040
2040
2040
2035
2035
2035
2040
2040
2040
2035
2035
2035
2038
2038
2038
2038
2038
2038
2038
2032
2032
2032
2035
2035
2035
2037
2037
2037
2040
2040
2040
2040
2038
2038
2038
2035
2035
2035
2041
2041
2041
2034
2034
2034
2040
2040
2040
2040
2043
2043
2043
2032
2032
2032
2044
2044
2044
2036
2036
2036
2040
2040
2040
2040
2039
2039
2039
2033
2033
2033
2039
2039
2039
2034
2034
2034
2041
2041
2041
2041
2036
2036
2036
2037
2037
2037
2042
2042
2042
2036
2036
2036
2040
2040
2040
2040
2042
2042
2042
2035
2035
2035
2040
2040
2040
2034
2034
2034
2031
2031
2031
2031
2041
2041
2041
2035
2035
2035
2041
2041
2041
2035
2035
2035
2036
2036
2036
2036
2040
2040
2040
2034
2034
2034
2044
2044
2044
2036
2036
2036
2044
2044
2044
2044
2038
2038
2038
2036
2036
2036
2035
2035
2035
2035
2035
2035
2041
2041
2041
2041
2034
2034
2034
2034
2034
2034
2036
2036
2036
2029
2029
2029
2040
2040
2040
2040
2040
2040
2040
2035
2035
2035
2039
2039
2039
2034
2034
2034
2040
2040
2040
2040
2037
2037
2037
2032
2032
2032
2040
2040
2040
2035
2035
2035
2041
2041
2041
2041
2039
2039
2039
2035
2035
2035
2039
2039
2039
2036
2036
2036
2038
2038
2038
2038
2038
2038
2038
2034
2034
2034
2039
2039
2039
2034
2034
2034
2040
2040
2040
2040
2037
2037
2037
2033
2033
2033
2044
2044
2044
2031
2031
2031
2037
2037
2037
2037
2040
2040
2040
2036
2036
2036
2039
2039
2039
2034
2034
2034
2037
2037
2037
2037
2039
2039
2039
2030
2030
2030
2040
2040
2040
2036
2036
2036
2040
2040
2040
2040
2037
2037
2037
2035
2035
2035
2037
2037
2037
2033
2033
2033
2040
2040
2040
2040
2041
2041
2041
2035
2035
2035
2039
2039
2039
2033
2033
2033
2037
2037
2037
2037
2040
2040
2040
2037
2037
2037
2041
2041
2041
2035
2035
2035
2036
2036
2036
2036
2041
2041
2041
2035
2035
2035
2038
2038
2038
2035
2035
2035
2041
2041
2041
2041
2041
2041
2041
2037
2037
2037
2039
2039
2039
2036
2036
2036
2045
2045
2045
2045
2039
2039
2039
2034
2034
2034
2039
2039
2039
2034
2034
2034
2040
2040
2040
2040
2040
2040
2040
2040
2040
2040
2039
2039
2039
2034
2034
2034
2039
2039
2039
2039
2039
2039
2039
2034
2034
2034
2039
2039
2039
2035
2035
2035
2041
2041
2041
2041
2039
2039
2039
2035
2035
2035
2042
2042
2042
2033
2033
2033
2041
2041
2041
2041
2039
2039
2039
2033
2033
2033
2040
2040
2040
2035
2035
2035
2037
2037
2037
2037
2039
2039
2039
2034
2034
2034
2038
2038
2038
2034
2034
2034
2040
2040
2040
2040
2038
2038
2038
2034
2034
2034
2040
2040
2040
2039
2039
2039
2037
2037
2037
2037
2039
2039
2039
2036
2036
2036
2042
2042
2042
2034
2034
2034
2039
2039
2039
2039
2033
2033
2033
2033
2033
2033
2039
2039
2039
2036
2036
2036
2039
2039
2039
2039
2040
2040
2040
2032
2032
2032
2040
2040
2040
2037
2037
2037
2040
2040
2040
2040
2041
2041
2041
2036
2036
2036
2037
2037
2037
2036
2036
2036
2039
2039
2039
2039
2039
2039
2039
2033
2033
2033
2040
2040
2040
2033
2033
2033
2045
2045
2045
2045
2041
2041
2041
2035
2035
2035
2040
2040
2040
2035
2035
2035
2039
2039
2039
2039
2037
2037
2037
2031
2031
2031
2043
2043
2043
2034
2034
2034
2042
2042
2042
2042
2040
2040
2040
2036
2036
2036
2040
2040
2040
2033
2033
2033
2037
2037
2037
2037
2038
2038
2038
2038
2038
2038
2037
2037
2037
2034
2034
2034
2036
2036
2036
2036
2036
2036
2036
2034
2034
2034
2042
2042
2042
2035
2035
2035
2041
2041
2041
2041
2041
2041
2041
2035
2035
2035
2037
2037
2037
2035
2035
2035
2041
2041
2041
2041
2040
2040
2040
2036
2036
2036
2038
2038
2038
2037
2037
2037
2041
2041
2041
2041
2038
2038
2038
2035
2035
2035
2041
2041
2041
2034
2034
2034
2040
2040
2040
2040
2039
2039
2039
2036
2036
2036
2034
2034
2034
2039
2039
2039
2039
2039
2039
2039
2038
2038
2038
2036
2036
2036
2039
2039
2039
2034
2034
2034
2040
2040
2040
2040
2039
2039
2039
2035
2035
2035
2039
2039
2039
2038
2038
2038
2038
2038
2038
2038
2039
2039
2039
2034
2034
2034
2036
2036
2036
2035
2035
2035
2042
2042
2042
2042
2039
2039
2039
2035
2035
2035
2039
2039
2039
2034
2034
2034
2039
2039
2039
2039
2041
2041
2041
2036
2036
2036
2035
2035
2035
2032
2032
2032
2044
2044
2044
2044
2039
2039
2039
2032
2032
2032
2039
2039
2039
2035
2035
2035
2038
2038
2038
2038
2039
2039
2039
2036
2036
2036
2044
2044
2044
2037
2037
2037
2039
2039
2039
2039
2041
2041
2041
2033
2033
2033
2041
2041
2041
2034
2034
2034
2039
2039
2039
2039
2040
2040
2040
2028
2028
2028
2036
2036
2036
2038
2038
2038
2040
2040
2040
2040
2039
2039
2039
2034
2034
2034
2039
2039
2039
2036
2036
2036
2041
2041
2041
2041
2040
2040
2040
2034
2034
2034
2039
2039
2039
2036
2036
2036
2037
2037
2037
2037
2037
2037
2037
2035
2035
2035
2037
2037
2037
2031
2031
2031
2039
2039
2039
2039
2040
2040
2040
2034
2034
2034
2039
2039
2039
2035
2035
2035
2039
2039
2039
2039
2039
2039
2039
2036
2036
2036
2040
2040
2040
2033
2033
2033
2043
2043
2043
2043
2039
2039
2039
2034
2034
2034
2039
2039
2039
2035
2035
2035
2037
2037
2037
2037
2039
2039
2039
2027
2027
2027
2037
2037
2037
2033
2033
2033
2038
2038
2038
2038
2036
2036
2036
2033
2033
2033
2037
2037
2037
2038
2038
2038
2041
2041
2041
2041
2042
2042
2042
2028
2028
2028
2041
2041
2041
2033
2033
2033
2040
2040
2040
2040
2040
2040
2040
2035
2035
2035
2039
2039
2039
2034
2034
2034
2037
2037
2037
2037
2039
2039
2039
2033
2033
2033
2036
2036
2036
2034
2034
2034
2041
2041
2041
2041
2036
2036
2036
2034
2034
2034
2041
2041
2041
2034
2034
2034
2041
2041
2041
2041
2039
2039
2039
2036
2036
2036
2038
2038
2038
2032
2032
2032
2038
2038
2038
2038
2039
2039
2039
2035
2035
2035
2037
2037
2037
2033
2033
2033
2043
2043
2043
2043
2038
2038
2038
2034
2034
2034
2037
2037
2037
2034
2034
2034
2038
2038
2038
2038
2037
2037
2037
2033
2033
2033
2044
2044
2044
2035
2035
2035
2040
2040
2040
2040
2039
2039
2039
2034
2034
2034
2038
2038
2038
2034
2034
2034
2040
2040
2040
2040
2038
2038
2038
2038
2038
2038
2040
2040
2040
2032
2032
2032
2040
2040
2040
2040
2039
2039
2039
2035
2035
2035
2040
2040
2040
2035
2035
2035
2039
2039
2039
2039
2038
2038
2038
2035
2035
2035
2041
2041
2041
2034
2034
2034
2039
2039
2039
2039
2038
2038
2038
2035
2035
2035
2033
2033
2033
2038
2038
2038
2040
2040
2040
2040
2040
2040
2040
2035
2035
2035
2041
2041
2041
2034
2034
2034
2039
2039
2039
2039
2039
2039
2039
2035
2035
2035
2044
2044
2044
2029
2029
2029
2041
2041
2041
2041
2040
2040
2040
2034
2034
2034
2039
2039
2039
2035
2035
2035
2037
2037
2037
2037
2033
2033
2033
2037
2037
2037
2042
2042
2042
2036
2036
2036
2039
2039
2039
2039
2039
2039
2039
2034
2034
2034
2041
2041
2041
2034
2034
2034
2041
2041
2041
2041
2039
2039
2039
2030
2030
2030
2039
2039
2039
2037
2037
2037
2039
2039
2039
2039
2038
2038
2038
2035
2035
2035
2039
2039
2039
2035
2035
2035
2042
2042
2042
2042
2037
2037
2037
2033
2033
2033
2040
2040
2040
2035
2035
2035
2039
2039
2039
2039
2042
2042
2042
2036
2036
2036
2037
2037
2037
2032
2032
2032
2041
2041
2041
2041
2038
2038
2038
2036
2036
2036
2041
2041
2041
2033
2033
2033
2040
2040
2040
2040
2040
2040
2040
2035
2035
2035
2038
2038
2038
2030
2030
2030
2039
2039
2039
2039
2037
2037
2037
2034
2034
2034
2039
2039
2039
2035
2035
2035
2037
2037
2037
2037
2039
2039
2039
2038
2038
2038
2040
2040
2040
2034
2034
2034
2039
2039
2039
2039
2039
2039
2039
2036
2036
2036
2040
2040
2040
2036
2036
2036
2041
2041
2041
2041
2039
2039
2039
2037
2037
2037
2038
2038
2038
2036
2036
2036
2038
2038
2038
2038
2040
2040
2040
2032
2032
2032
2041
2041
2041
2035
2035
2035
2040
2040
2040
2040
2038
2038
2038
2034
2034
2034
2039
2039
2039
2034
2034
2034
2040
2040
2040
2040
2038
2038
2038
2034
2034
2034
2038
2038
2038
2037
2037
2037
2042
2042
2042
2042
2037
2037
2037
2033
2033
2033
2038
2038
2038
2035
2035
2035
2040
2040
2040
2040
2040
2040
2040
2034
2034
2034
2046
2046
2046
2033
2033
2033
2035
2035
2035
2035
2039
2039
2039
2034
2034
2034
2038
2038
2038
2035
2035
2035
2038
2038
2038
2038
2038
2038
2038
2038
2038
2038
2042
2042
2042
2034
2034
2034
2039
2039
2039
2039
2041
2041
2041
2033
2033
2033
2039
2039
2039
2033
2033
2033
2039
2039
2039
2039
2038
2038
2038
2035
2035
2035
2039
2039
2039
2035
2035
2035
2040
2040
2040
2040
2040
2040
2040
2035
2035
2035
2038
2038
2038
2033
2033
2033
2037
2037
2037
2037
2038
2038
2038
2033
2033
2033
2040
2040
2040
2035
2035
2035
2040
2040
2040
2040
2039
2039
2039
2032
2032
2032
2038
2038
2038
2032
2032
2032
2039
2039
2039
2039
2039
2039
2039
2035
2035
2035
2040
2040
2040
2034
2034
2034
2039
2039
2039
2039
2038
2038
2038
2034
2034
2034
2044
2044
2044
2032
2032
2032
2045
2045
2045
2045
2043
2043
2043
2036
2036
2036
2040
2040
2040
2033
2033
2033
2042
2042
2042
2042
2040
2040
2040
2029
2029
2029
2038
2038
2038
2032
2032
2032
2035
2035
2035
2035
2040
2040
2040
2037
2037
2037
2041
2041
2041
2039
2039
2039
2039
2039
2039
2039
2039
2039
2039
2038
2038
2038
2040
2040
2040
2035
2035
2035
2042
2042
2042
2042
2040
2040
2040
2037
2037
2037
2037
2037
2037
2037
2037
2037
2038
2038
2038
2038
2037
2037
2037
2036
2036
2036
2038
2038
2038
2036
2036
2036
2050
2050
2050
2050
2039
2039
2039
2034
2034
2034
2040
2040
2040
2033
2033
2033
2039
2039
2039
2039
2040
2040
2040
2035
2035
2035
2038
2038
2038
2035
2035
2035
2037
2037
2037
2037
2037
2037
2037
2034
2034
2034
2038
2038
2038
2034
2034
2034
2040
2040
2040
2040
2037
2037
2037
2034
2034
2034
2039
2039
2039
2033
2033
2033
2040
2040
2040
2040
2038
2038
2038
2034
2034
2034
2039
2039
2039
2037
2037
2037
2036
2036
2036
2036
2040
2040
2040
2033
2033
2033
2040
2040
2040
2037
2037
2037
2038
2038
2038
2038
2039
2039
2039
2035
2035
2035
2034
2034
2034
2029
2029
2029
2036
2036
2036
2036
2039
2039
2039
2035
2035
2035
2037
2037
2037
2033
2033
2033
2039
2039
2039
2039
2040
2040
2040
2032
2032
2032
2041
2041
2041
2033
2033
2033
2040
2040
2040
2040
2041
2041
2041
2033
2033
2033
2038
2038
2038
2036
2036
2036
2039
2039
2039
2039
2037
2037
2037
2032
2032
2032
2039
2039
2039
2037
2037
2037
2042
2042
2042
2042
2043
2043
2043
2035
2035
2035
2039
2039
2039
2035
2035
2035
2039
2039
2039
2039
2039
2039
2039
2034
2034
2034
2040
2040
2040
2037
2037
2037
2039
2039
2039
2039
2041
2041
2041
2033
2033
2033
2040
2040
2040
2037
2037
2037
2038
2038
2038
2038
2040
2040
2040
2034
2034
2034
2037
2037
2037
2035
2035
2035
2042
2042
2042
2042
2039
2039
2039
2035
2035
2035
2041
2041
2041
2036
2036
2036
2043
2043
2043
2043
2040
2040
2040
2032
2032
2032
2040
2040
2040
2037
2037
2037
2041
2041
2041
2041
2038
2038
2038
2042
2042
2042
2039
2039
2039
2037
2037
2037
2039
2039
2039
2039
2039
2039
2039
2032
2032
2032
2037
2037
2037
2033
2033
2033
2041
2041
2041
2041
2037
2037
2037
2034
2034
2034
2042
2042
2042
2034
2034
2034
2040
2040
2040
2040
2040
2040
2040
2033
2033
2033
2040
2040
2040
2035
2035
2035
2041
2041
2041
2041
2043
2043
2043
2032
2032
2032
2039
2039
2039
2033
2033
2033
2040
2040
2040
2040
2038
2038
2038
2035
2035
2035
2040
2040
2040
2035
2035
2035
2040
2040
2040
2040
2036
2036
2036
2035
2035
2035
2044
2044
2044
2035
2035
2035
2041
2041
2041
2041
2041
2041
2041
2035
2035
2035
2041
2041
2041
2034
2034
2034
2042
2042
2042
2042
2039
2039
2039
2036
2036
2036
2041
2041
2041
2033
2033
2033
2038
2038
2038
2038
2039
2039
2039
2035
2035
2035
2039
2039
2039
2028
2028
2028
2038
2038
2038
2038
2036
2036
2036
2032
2032
2032
2040
2040
2040
2033
2033
2033
2031
2031
2031
2031
2040
2040
2040
2033
2033
2033
2042
2042
2042
2032
2032
2032
2038
2038
2038
2038
2038
2038
2038
2033
2033
2033
2040
2040
2040
2038
2038
2038
2039
2039
2039
2039
2041
2041
2041
2034
2034
2034
2042
2042
2042
2035
2035
2035
2039
2039
2039
2039
2039
2039
2039
2034
2034
2034
2038
2038
2038
2038
2038
2038
2039
2039
2039
2039
2038
2038
2038
2033
2033
2033
2039
2039
2039
2035
2035
2035
2038
2038
2038
2038
2042
2042
2042
2033
2033
2033
2040
2040
2040
2030
2030
2030
2040
2040
2040
2040
2041
2041
2041
2033
2033
2033
2039
2039
2039
2034
2034
2034
2040
2040
2040
2040
2038
2038
2038
2033
2033
2033
2037
2037
2037
2035
2035
2035
2040
2040
2040
2040
2041
2041
2041
2035
2035
2035
2039
2039
2039
2035
2035
2035
2039
2039
2039
2039
2042
2042
2042
2034
2034
2034
2036
2036
2036
2036
2036
2036
2034
2034
2034
2034
2040
2040
2040
2037
2037
2037
2040
2040
2040
2033
2033
2033
2039
2039
2039
2039
2038
2038
2038
2036
2036
2036
2039
2039
2039
2039
2039
2039
2039
2039
2039
2039
2042
2042
2042
2031
2031
2031
2038
2038
2038
2035
2035
2035
2039
2039
2039
2039
2038
2038
2038
2037
2037
2037
2041
2041
2041
2037
2037
2037
2041
2041
2041
2041
2040
2040
2040
2035
2035
2035
2042
2042
2042
2029
2029
2029
2039
2039
2039
2039
2034
2034
2034
2037
2037
2037
2039
2039
2039
2034
2034
2034
2038
2038
2038
2038
2037
2037
2037
2034
2034
2034
2039
2039
2039
2033
2033
2033
2037
2037
2037
2037
2040
2040
2040
2036
2036
2036
2042
2042
2042
2037
2037
2037
2039
2039
2039
2039
2039
2039
2039
2033
2033
2033
2040
2040
2040
2033
2033
2033
2040
2040
2040
2040
2042
2042
2042
2035
2035
2035
2039
2039
2039
2034
2034
2034
2039
2039
2039
2039
2041
2041
2041
2035
2035
2035
2040
2040
2040
2036
2036
2036
2037
2037
2037
2037
2039
2039
2039
2034
2034
2034
2039
2039
2039
2035
2035
2035
2043
2043
2043
2043
2039
2039
2039
2032
2032
2032
2039
2039
2039
2034
2034
2034
2043
2043
2043
2043
2039
2039
2039
2032
2032
2032
2039
2039
2039
2034
2034
2034
2038
2038
2038
2038
2039
2039
2039
2035
2035
2035
2040
2040
2040
2031
2031
2031
2041
2041
2041
2041
2036
2036
2036
2033
2033
2033
2038
2038
2038
2034
2034
2034
2043
2043
2043
2043
2040
2040
2040
2036
2036
2036
2043
2043
2043
2036
2036
2036
2039
2039
2039
2039
2039
2039
2039
2034
2034
2034
2040
2040
2040
2034
2034
2034
2040
2040
2040
2040
2038
2038
2038
2035
2035
2035
2037
2037
2037
2037
2037
2037
2042
2042
2042
2042
2040
2040
2040
2033
2033
2033
2038
2038
2038
2033
2033
2033
2040
2040
2040
2040
2036
2036
2036
2037
2037
2037
2043
2043
2043
2035
2035
2035
2039
2039
2039
2039
2038
2038
2038
2035
2035
2035
2041
2041
2041
2035
2035
2035
2039
2039
2039
2039
2042
2042
2042
2037
2037
2037
2039
2039
2039
2035
2035
2035
2038
2038
2038
2038
2038
2038
2038
2035
2035
2035
2040
2040
2040
2037
2037
2037
2039
2039
2039
2039
2037
2037
2037
2037
2037
2037
2042
2042
2042
2036
2036
2036
2037
2037
2037
2037
2037
2037
2037
2033
2033
2033
2040
2040
2040
2036
2036
2036
2039
2039
2039
2039
2037
2037
2037
2034
2034
2034
2039
2039
2039
2036
2036
2036
2038
2038
2038
2038
2038
2038
2038
2030
2030
2030
2039
2039
2039
2039
2039
2039
2042
2042
2042
2042
2037
2037
2037
2034
2034
2034
2041
2041
2041
2033
2033
2033
2039
2039
2039
2039
2039
2039
2039
2035
2035
2035
2038
2038
2038
2035
2035
2035
2041
2041
2041
2041
2037
2037
2037
2036
2036
2036
2040
2040
2040
2034
2034
2034
2039
2039
2039
2039
2040
2040
2040
2031
2031
2031
2045
2045
2045
2035
2035
2035
2039
2039
2039
2039
2039
2039
2039
2034
2034
2034
2042
2042
2042
2031
2031
2031
2038
2038
2038
2038
2031
2031
2031
2033
2033
2033
2038
2038
2038
2034
2034
2034
2038
2038
2038
2038
2039
2039
2039
2039
2039
2039
2039
2039
2039
2037
2037
2037
2039
2039
2039
2039
2036
2036
2036
2037
2037
2037
2042
2042
2042
2034
2034
2034
2038
2038
2038
2038
2036
2036
2036
2031
2031
2031
2041
2041
2041
2034
2034
2034
2040
2040
2040
2040
2040
2040
2040
2034
2034
2034
2039
2039
2039
2032
2032
2032
2041
2041
2041
2041
2036
2036
2036
2034
2034
2034
2039
2039
2039
2035
2035
2035
2037
2037
2037
2037
2039
2039
2039
2036
2036
2036
2039
2039
2039
2035
2035
2035
2036
2036
2036
2036
2042
2042
2042
2035
2035
2035
2038
2038
2038
2038
2038
2038
2042
2042
2042
2042
2041
2041
2041
2032
2032
2032
2038
2038
2038
2037
2037
2037
2039
2039
2039
2039
2039
2039
2039
2036
2036
2036
2040
2040
2040
2036
2036
2036
2039
2039
2039
2039
2039
2039
2039
2034
2034
2034
2038
2038
2038
2036
2036
2036
2040
2040
2040
2040
2040
2040
2040
2036
2036
2036
2036
2036
2036
2035
2035
2035
2044
2044
2044
2044
2039
2039
2039
2035
2035
2035
2039
2039
2039
2038
2038
2038
2042
2042
2042
2042
2041
2041
2041
2027
2027
2027
2039
2039
2039
2035
2035
2035
2037
2037
2037
2037
2039
2039
2039
2034
2034
2034
2040
2040
2040
2035
2035
2035
2040
2040
2040
2040
2036
2036
2036
2034
2034
2034
2037
2037
2037
2033
2033
2033
2039
2039
2039
2039
2037
2037
2037
2037
2037
2037
2039
2039
2039
2034
2034
2034
2039
2039
2039
2039
2039
2039
2039
2036
2036
2036
2040
2040
2040
2032
2032
2032
2037
2037
2037
2037
2041
2041
2041
2037
2037
2037
2038
2038
2038
2033
2033
2033
2043
2043
2043
2043
2037
2037
2037
2033
2033
2033
2036
2036
2036
2034
2034
2034
2038
2038
2038
2038
2038
2038
2038
2033
2033
2033
2040
2040
2040
2027
2027
2027
2040
2040
2040
2040
2038
2038
2038
2034
2034
2034
2040
2040
2040
2036
2036
2036
2040
2040
2040
2040
2037
2037
2037
2034
2034
2034
2037
2037
2037
2034
2034
2034
2041
2041
2041
2041
2035
2035
2035
2035
2035
2035
2038
2038
2038
2035
2035
2035
2041
2041
2041
2041
2041
2041
2041
2027
2027
2027
2042
2042
2042
2039
2039
2039
2038
2038
2038
2038
2039
2039
2039
2033
2033
2033
2040
2040
2040
2034
2034
2034
2039
2039
2039
2039
2043
2043
2043
2037
2037
2037
2040
2040
2040
2034
2034
2034
2041
2041
2041
2041
2039
2039
2039
2036
2036
2036
2039
2039
2039
2035
2035
2035
2039
2039
2039
2039
2034
2034
2034
2036
2036
2036
2038
2038
2038
2035
2035
2035
2039
2039
2039
2039
2040
2040
2040
2032
2032
2032
2038
2038
2038
2041
2041
2041
2037
2037
2037
2037
2038
2038
2038
2034
2034
2034
2040
2040
2040
2036
2036
2036
2041
2041
2041
2041
2040
2040
2040
2036
2036
2036
2040
2040
2040
2037
2037
2037
2037
2037
2037
2037
2036
2036
2036
2035
2035
2035
2039
2039
2039
2036
2036
2036
2040
2040
2040
2040
2038
2038
2038
2035
2035
2035
2039
2039
2039
2036
2036
2036
2041
2041
2041
2041
2039
2039
2039
2034
2034
2034
2041
2041
2041
2037
2037
2037
2040
2040
2040
2040
2037
2037
2037
2034
2034
2034
2039
2039
2039
2034
2034
2034
2031
2031
2031
2031
2038
2038
2038
2032
2032
2032
2039
2039
2039
2033
2033
2033
2040
2040
2040
2040
2038
2038
2038
2035
2035
2035
2041
2041
2041
2025
2025
2025
2037
2037
2037
2037
2040
2040
2040
2034
2034
2034
2041
2041
2041
2035
2035
2035
2042
2042
2042
2042
2041
2041
2041
2031
2031
2031
2044
2044
2044
2033
2033
2033
2036
2036
2036
2036
2038
2038
2038
2035
2035
2035
2038
2038
2038
2036
2036
2036
2039
2039
2039
2039
2039
2039
2039
2036
2036
2036
2037
2037
2037
2030
2030
2030
2041
2041
2041
2041
2038
2038
2038
2036
2036
2036
2041
2041
2041
2034
2034
2034
2041
2041
2041
2041
2036
2036
2036
2032
2032
2032
2040
2040
2040
2031
2031
2031
2037
2037
2037
2037
2040
2040
2040
2033
2033
2033
2037
2037
2037
2034
2034
2034
2042
2042
2042
2042
2041
2041
2041
2036
2036
2036
2041
2041
2041
2033
2033
2033
2040
2040
2040
2040
2040
2040
2040
2034
2034
2034
2039
2039
2039
2031
2031
2031
2040
2040
2040
2040
2037
2037
2037
2034
2034
2034
2042
2042
2042
2035
2035
2035
2041
2041
2041
2041
2040
2040
2040
2034
2034
2034
2039
2039
2039
2036
2036
2036
2039
2039
2039
2039
2042
2042
2042
2037
2037
2037
2042
2042
2042
2042
2042
2042
2040
2040
2040
2040
2039
2039
2039
2037
2037
2037
2039
2039
2039
2034
2034
2034
2041
2041
2041
2041
2039
2039
2039
2037
2037
2037
2025
2025
2025
2034
2034
2034
2038
2038
2038
2038
2041
2041
2041
2033
2033
2033
2038
2038
2038
2034
2034
2034
2041
2041
2041
2041
2038
2038
2038
2035
2035
2035
2040
2040
2040
2035
2035
2035
2039
2039
2039
2039
2038
2038
2038
2032
2032
2032
2037
2037
2037
2043
2043
2043
2038
2038
2038
2038
2041
2041
2041
2032
2032
2032
2037
2037
2037
2035
2035
2035
2040
2040
2040
2040
2039
2039
2039
2033
2033
2033
2043
2043
2043
2038
2038
2038
2039
2039
2039
2039
2038
2038
2038
2034
2034
2034
2039
2039
2039
2028
2028
2028
2041
2041
2041
2041
2040
2040
2040
2033
2033
2033
2039
2039
2039
2034
2034
2034
2041
2041
2041
2041
2039
2039
2039
2034
2034
2034
2037
2037
2037
2035
2035
2035
2038
2038
2038
2038
2038
2038
2038
2036
2036
2036
2034
2034
2034
2031
2031
2031
2039
2039
2039
2039
2041
2041
2041
2036
2036
2036
2040
2040
2040
2034
2034
2034
2037
2037
2037
2037
2040
2040
2040
2039
2039
2039
2041
2041
2041
2031
2031
2031
2039
2039
2039
2039
2039
2039
2039
2035
2035
2035
2039
2039
2039
2034
2034
2034
2040
2040
2040
2040
2040
2040
2040
2034
2034
2034
2040
2040
2040
2034
2034
2034
2042
2042
2042
2042
2041
2041
2041
2034
2034
2034
2038
2038
2038
2034
2034
2034
2041
2041
2041
2041
2044
2044
2044
2035
2035
2035
2037
2037
2037
2033
2033
2033
2040
2040
2040
2040
2038
2038
2038
2038
2038
2038
2043
2043
2043
2036
2036
2036
2040
2040
2040
2040
2042
2042
2042
2031
2031
2031
2041
2041
2041
2034
2034
2034
2038
2038
2038
2038
2040
2040
2040
2035
2035
2035
2041
2041
2041
2034
2034
2034
2044
2044
2044
2044
2041
2041
2041
2035
2035
2035
2039
2039
2039
2033
2033
2033
2040
2040
2040
2040
2037
2037
2037
2035
2035
2035
2040
2040
2040
2033
2033
2033
2040
2040
2040
2040
2038
2038
2038
2037
2037
2037
2040
2040
2040
2036
2036
2036
2040
2040
2040
2040
2041
2041
2041
2035
2035
2035
2041
2041
2041
2033
2033
2033
2037
2037
2037
2037
2039
2039
2039
2033
2033
2033
2039
2039
2039
2036
2036
2036
2039
2039
2039
2039
2040
2040
2040
2039
2039
2039
2041
2041
2041
2031
2031
2031
2043
2043
2043
2043
2040
2040
2040
2037
2037
2037
2040
2040
2040
2037
2037
2037
2039
2039
2039
2039
2039
2039
2039
2035
2035
2035
2038
2038
2038
2034
2034
2034
2039
2039
2039
2039
2042
2042
2042
2037
2037
2037
2039
2039
2039
2041
2041
2041
2039
2039
2039
2039
2039
2039
2039
2038
2038
2038
2040
2040
2040
2037
2037
2037
2041
2041
2041
2041
2039
2039
2039
2036
2036
2036
2040
2040
2040
2031
2031
2031
2040
2040
2040
2040
2041
2041
2041
2034
2034
2034
2040
2040
2040
2031
2031
2031
2040
2040
2040
2040
2037
2037
2037
2035
2035
2035
2041
2041
2041
2034
2034
2034
2039
2039
2039
2039
2035
2035
2035
2038
2038
2038
2036
2036
2036
2040
2040
2040
2041
2041
2041
2041
2040
2040
2040
2033
2033
2033
2040
2040
2040
2038
2038
2038
2041
2041
2041
2041
2042
2042
2042
2036
2036
2036
2041
2041
2041
2031
2031
2031
2038
2038
2038
2038
2039
2039
2039
2034
2034
2034
2039
2039
2039
2035
2035
2035
2040
2040
2040
2040
2039
2039
2039
2033
2033
2033
2043
2043
2043
2035
2035
2035
2040
2040
2040
2040
2041
2041
2041
2034
2034
2034
2039
2039
2039
2039
2039
2039
2040
2040
2040
2040
2043
2043
2043
2034
2034
2034
2041
2041
2041
2034
2034
2034
2040
2040
2040
2040
2037
2037
2037
2035
2035
2035
2043
2043
2043
2035
2035
2035
2038
2038
2038
2038
2039
2039
2039
2035
2035
2035
2037
2037
2037
2033
2033
2033
2039
2039
2039
2039
2040
2040
2040
2033
2033
2033
2041
2041
2041
2032
2032
2032
2041
2041
2041
2041
2039
2039
2039
2034
2034
2034
2039
2039
2039
2036
2036
2036
2039
2039
2039
2039
2039
2039
2039
2036
2036
2036
2038
2038
2038
2036
2036
2036
2038
2038
2038
2038
2037
2037
2037
2033
2033
2033
2042
2042
2042
2036
2036
2036
2039
2039
2039
2039
2040
2040
2040
2035
2035
2035
2040
2040
2040
2031
2031
2031
2038
2038
2038
2038
2040
2040
2040
2035
2035
2035
2040
2040
2040
2036
2036
2036
2039
2039
2039
2039
2040
2040
2040
2032
2032
2032
2038
2038
2038
2034
2034
2034
2038
2038
2038
2038
2036
2036
2036
2033
2033
2033
2039
2039
2039
2035
2035
2035
2041
2041
2041
2041
2040
2040
2040
2036
2036
2036
2039
2039
2039
2035
2035
2035
2038
2038
2038
2038
2039
2039
2039
2030
2030
2030
2039
2039
2039
2035
2035
2035
2043
2043
2043
2043
2041
2041
2041
2037
2037
2037
2042
2042
2042
2034
2034
2034
2040
2040
2040
2040
2039
2039
2039
2033
2033
2033
2040
2040
2040
2033
2033
2033
2038
2038
2038
2038
2039
2039
2039
2035
2035
2035
2041
2041
2041
2035
2035
2035
2039
2039
2039
2039
2039
2039
2039
2035
2035
2035
2043
2043
2043
2035
2035
2035
2040
2040
2040
2040
2039
2039
2039
2033
2033
2033
2039
2039
2039
2034
2034
2034
2045
2045
2045
2045
2037
2037
2037
2033
2033
2033
2042
2042
2042
2036
2036
2036
2039
2039
2039
2039
2038
2038
2038
2034
2034
2034
2041
2041
2041
2036
2036
2036
2039
2039
2039
2039
2040
2040
2040
2033
2033
2033
2039
2039
2039
2036
2036
2036
2036
2036
2036
2036
2039
2039
2039
2035
2035
2035
2039
2039
2039
2034
2034
2034
2041
2041
2041
2041
2037
2037
2037
2035
2035
2035
2041
2041
2041
2036
2036
2036
2038
2038
2038
2038
2038
2038
2038
2035
2035
2035
2040
2040
2040
2035
2035
2035
2041
2041
2041
2041
2040
2040
2040
2035
2035
2035
2040
2040
2040
2033
2033
2033
2037
2037
2037
2037
2040
2040
2040
2034
2034
2034
2039
2039
2039
2035
2035
2035
2039
2039
2039
2039
2037
2037
2037
2033
2033
2033
2040
2040
2040
2034
2034
2034
2044
2044
2044
2044
2035
2035
2035
2036
2036
2036
2037
2037
2037
2035
2035
2035
2042
2042
2042
2042
2038
2038
2038
2032
2032
2032
2039
2039
2039
2036
2036
2036
2040
2040
2040
2040
2040
2040
2040
2033
2033
2033
2038
2038
2038
2034
2034
2034
2043
2043
2043
2043
2040
2040
2040
2036
2036
2036
2041
2041
2041
2035
2035
2035
2035
2035
2035
2035
2038
2038
2038
2033
2033
2033
2038
2038
2038
2036
2036
2036
2040
2040
2040
2040
2041
2041
2041
2034
2034
2034
2041
2041
2041
2036
2036
2036
2041
2041
2041
2041
2039
2039
2039
2034
2034
2034
2040
2040
2040
2032
2032
2032
2043
2043
2043
2043
2038
2038
2038
2034
2034
2034
2037
2037
2037
2034
2034
2034
2040
2040
2040
2040
2041
2041
2041
2034
2034
2034
2041
2041
2041
2035
2035
2035
2037
2037
2037
2037
2037
2037
2037
2035
2035
2035
2038
2038
2038
2034
2034
2034
2037
2037
2037
2037
2039
2039
2039
2036
2036
2036
2039
2039
2039
2033
2033
2033
2042
2042
2042
2042
2040
2040
2040
2033
2033
2033
2039
2039
2039
2035
2035
2035
2040
2040
2040
2040
2039
2039
2039
2036
2036
2036
2041
2041
2041
2034
2034
2034
2039
2039
2039
2039
2037
2037
2037
2034
2034
2034
2039
2039
2039
2034
2034
2034
2040
2040
2040
2040
2039
2039
2039
2035
2035
2035
2042
2042
2042
2036
2036
2036
2039
2039
2039
2039
2039
2039
2039
2035
2035
2035
2042
2042
2042
2036
2036
2036
2039
2039
2039
2039
2037
2037
2037
2036
2036
2036
2038
2038
2038
2035
2035
2035
2043
2043
2043
2043
2037
2037
2037
2035
2035
2035
2037
2037
2037
2035
2035
2035
2040
2040
2040
2040
2038
2038
2038
2034
2034
2034
2040
2040
2040
2033
2033
2033
2037
2037
2037
2037
2038
2038
2038
2035
2035
2035
2039
2039
2039
2032
2032
2032
2038
2038
2038
2038
2041
2041
2041
2035
2035
2035
2038
2038
2038
2035
2035
2035
2037
2037
2037
2037
2040
2040
2040
2034
2034
2034
2040
2040
2040
2044
2044
2044
2038
2038
2038
2038
2042
2042
2042
2036
2036
2036
2037
2037
2037
2035
2035
2035
2042
2042
2042
2042
2040
2040
2040
2037
2037
2037
2038
2038
2038
2032
2032
2032
2040
2040
2040
2040
2039
2039
2039
2038
2038
2038
2039
2039
2039
2034
2034
2034
2038
2038
2038
2038
2039
2039
2039
2033
2033
2033
2040
2040
2040
2032
2032
2032
2040
2040
2040
2040
2035
2035
2035
2034
2034
2034
2041
2041
2041
2033
2033
2033
2039
2039
2039
2039
2039
2039
2039
2036
2036
2036
2038
2038
2038
2034
2034
2034
2041
2041
2041
2041
2039
2039
2039
2032
2032
2032
2042
2042
2042
2036
2036
2036
2040
2040
2040
2040
2039
2039
2039
2035
2035
2035
2038
2038
2038
2034
2034
2034
2039
2039
2039
2039
2040
2040
2040
2037
2037
2037
2037
2037
2037
2034
2034
2034
2041
2041
2041
2041
2045
2045
2045
2039
2039
2039
2039
2039
2039
2033
2033
2033
2040
2040
2040
2040
2038
2038
2038
2034
2034
2034
2040
2040
2040
2034
2034
2034
2039
2039
2039
2039
2041
2041
2041
2036
2036
2036
2039
2039
2039
2038
2038
2038
2040
2040
2040
2040
2038
2038
2038
2036
2036
2036
2039
2039
2039
2034
2034
2034
2036
2036
2036
2036
2032
2032
2032
2034
2034
2034
2035
2035
2035
2034
2034
2034
2040
2040
2040
2040
2038
2038
2038
2038
2038
2038
2037
2037
2037
2033
2033
2033
2039
2039
2039
2039
2039
2039
2039
2039
2039
2039
2040
2040
2040
2026
2026
2026
2040
2040
2040
2040
2040
2040
2040
2036
2036
2036
2041
2041
2041
2035
2035
2035
2042
2042
2042
2042
2041
2041
2041
2035
2035
2035
2039
2039
2039
2032
2032
2032
2042
2042
2042
2042
2042
2042
2042
2034
2034
2034
2039
2039
2039
2036
2036
2036
2039
2039
2039
2039
2040
2040
2040
2036
2036
2036
2039
2039
2039
2031
2031
2031
2039
2039
2039
2039
2039
2039
2039
2033
2033
2033
2040
2040
2040
2035
2035
2035
2041
2041
2041
2041
2040
2040
2040
2033
2033
2033
2040
2040
2040
2035
2035
2035
2036
2036
2036
2036
2039
2039
2039
2035
2035
2035
2045
2045
2045
2034
2034
2034
2040
2040
2040
2040
2041
2041
2041
2034
2034
2034
2034
2034
2034
2034
2034
2034
2042
2042
2042
2042
2038
2038
2038
2032
2032
2032
2039
2039
2039
2029
2029
2029
2039
2039
2039
2039
2042
2042
2042
2036
2036
2036
2042
2042
2042
2033
2033
2033
2039
2039
2039
2039
2038
2038
2038
2034
2034
2034
2039
2039
2039
2035
2035
2035
2039
2039
2039
2039
2040
2040
2040
2035
2035
2035
2033
2033
2033
2035
2035
2035
2041
2041
2041
2041
2041
2041
2041
2034
2034
2034
2039
2039
2039
2034
2034
2034
2039
2039
2039
2039
2037
2037
2037
2034
2034
2034
2039
2039
2039
2034
2034
2034
2039
2039
2039
2039
2039
2039
2039
2034
2034
2034
2039
2039
2039
2036
2036
2036
2039
2039
2039
2039
2038
2038
2038
2034
2034
2034
2043
2043
2043
2032
2032
2032
2036
2036
2036
2036
2040
2040
2040
2035
2035
2035
2039
2039
2039
2038
2038
2038
2042
2042
2042
2042
2041
2041
2041
2036
2036
2036
2038
2038
2038
2038
2038
2038
2039
2039
2039
2039
2039
2039
2039
2034
2034
2034
2042
2042
2042
2034
2034
2034
2043
2043
2043
2043
2042
2042
2042
2034
2034
2034
2039
2039
2039
2033
2033
2033
2039
2039
2039
2039
2041
2041
2041
2034
2034
2034
2039
2039
2039
2034
2034
2034
2041
2041
2041
2041
2039
2039
2039
2035
2035
2035
2043
2043
2043
2034
2034
2034
2038
2038
2038
2038
2039
2039
2039
2037
2037
2037
2039
2039
2039
2035
2035
2035
2042
2042
2042
2042
2038
2038
2038
2035
2035
2035
2041
2041
2041
2036
2036
2036
2039
2039
2039
2039
2037
2037
2037
2033
2033
2033
2041
2041
2041
2035
2035
2035
2039
2039
2039
2039
2039
2039
2039
2033
2033
2033
2041
2041
2041
2035
2035
2035
2037
2037
2037
2037
2041
2041
2041
2040
2040
2040
2039
2039
2039
2035
2035
2035
2040
2040
2040
2040
2041
2041
2041
2034
2034
2034
2039
2039
2039
2035
2035
2035
2040
2040
2040
2040
2034
2034
2034
2033
2033
2033
2037
2037
2037
2034
2034
2034
2038
2038
2038
2038
2041
2041
2041
2035
2035
2035
2039
2039
2039
2034
2034
2034
2041
2041
2041
2041
2037
2037
2037
2037
2037
2037
2037
2037
2037
2029
2029
2029
2040
2040
2040
2040
2039
2039
2039
2033
2033
2033
2040
2040
2040
2036
2036
2036
2042
2042
2042
2042
2039
2039
2039
2035
2035
2035
2039
2039
2039
2038
2038
2038
2043
2043
2043
2043
2039
2039
2039
2034
2034
2034
2042
2042
2042
2034
2034
2034
2040
2040
2040
2040
2043
2043
2043
2033
2033
2033
2035
2035
2035
2032
2032
2032
2042
2042
2042
2042
2039
2039
2039
2036
2036
2036
2038
2038
2038
2035
2035
2035
2039
2039
2039
2039
2038
2038
2038
2034
2034
2034
2040
2040
2040
2030
2030
2030
2041
2041
2041
2041
2039
2039
2039
2035
2035
2035
2045
2045
2045
2037
2037
2037
2039
2039
2039
2039
2037
2037
2037
2035
2035
2035
2038
2038
2038
2037
2037
2037
2040
2040
2040
2040
2042
2042
2042
2035
2035
2035
2040
2040
2040
2032
2032
2032
2041
2041
2041
2041
2039
2039
2039
2034
2034
2034
2040
2040
2040
2037
2037
2037
2040
2040
2040
2040
2038
2038
2038
2033
2033
2033
2040
2040
2040
2037
2037
2037
2039
2039
2039
2039
2041
2041
2041
2034
2034
2034
2039
2039
2039
2035
2035
2035
2039
2039
2039
2039
2036
2036
2036
2033
2033
2033
2039
2039
2039
2035
2035
2035
2040
2040
2040
2040
2039
2039
2039
2033
2033
2033
2041
2041
2041
2036
2036
2036
2038
2038
2038
2038
2039
2039
2039
2033
2033
2033
2038
2038
2038
2036
2036
2036
2040
2040
2040
2040
2038
2038
2038
2035
2035
2035
2038
2038
2038
2035
2035
2035
2040
2040
2040
2040
2037
2037
2037
2032
2032
2032
2034
2034
2034
2034
2034
2034
2040
2040
2040
2040
2041
2041
2041
2034
2034
2034
2040
2040
2040
2031
2031
2031
2040
2040
2040
2040
2044
2044
2044
2037
2037
2037
2037
2037
2037
2035
2035
2035
2041
2041
2041
2041
2037
2037
2037
2035
2035
2035
2042
2042
2042
2033
2033
2033
2034
2034
2034
2034
2039
2039
2039
2037
2037
2037
2039
2039
2039
2036
2036
2036
2048
2048
2048
2048
2035
2035
2035
2032
2032
2032
2038
2038
2038
2035
2035
2035
2040
2040
2040
2040
2041
2041
2041
2036
2036
2036
2035
2035
2035
2033
2033
2033
2040
2040
2040
2040
2039
2039
2039
2035
2035
2035
2041
2041
2041
2035
2035
2035
2039
2039
2039
2039
2040
2040
2040
2034
2034
2034
2039
2039
2039
2030
2030
2030
2037
2037
2037
2037
2038
2038
2038
2034
2034
2034
2036
2036
2036
2035
2035
2035
2040
2040
2040
2040
2044
2044
2044
2037
2037
2037
2041
2041
2041
2034
2034
2034
2043
2043
2043
2043
2041
2041
2041
2033
2033
2033
2041
2041
2041
2036
2036
2036
2039
2039
2039
2039
2039
2039
2039
2036
2036
2036
2039
2039
2039
2034
2034
2034
2040
2040
2040
2040
2037
2037
2037
2034
2034
2034
2038
2038
2038
2033
2033
2033
2040
2040
2040
2040
2038
2038
2038
2034
2034
2034
2041
2041
2041
2038
2038
2038
2043
2043
2043
2043
2035
2035
2035
2033
2033
2033
2039
2039
2039
2035
2035
2035
2040
2040
2040
2040
2040
2040
2040
2033
2033
2033
2039
2039
2039
2035
2035
2035
2038
2038
2038
2038
2041
2041
2041
2041
2041
2041
2041
2041
2041
2035
2035
2035
2040
2040
2040
2040
2036
2036
2036
2034
2034
2034
2039
2039
2039
2035
2035
2035
2041
2041
2041
2041
2039
2039
2039
2039
2039
2039
2039
2039
2039
2036
2036
2036
2040
2040
2040
2040
2040
2040
2040
2033
2033
2033
2039
2039
2039
2037
2037
2037
2040
2040
2040
2040
2041
2041
2041
2036
2036
2036
2036
2036
2036
2035
2035
2035
2038
2038
2038
2038
2039
2039
2039
2036
2036
2036
2039
2039
2039
2033
2033
2033
2041
2041
2041
2041
2039
2039
2039
2034
2034
2034
2038
2038
2038
2037
2037
2037
2039
2039
2039
2039
2038
2038
2038
2032
2032
2032
2042
2042
2042
2036
2036
2036
2039
2039
2039
2039
2039
2039
2039
2032
2032
2032
2041
2041
2041
2035
2035
2035
2040
2040
2040
2040
2039
2039
2039
2033
2033
2033
2040
2040
2040
2034
2034
2034
2040
2040
2040
2040
2037
2037
2037
2034
2034
2034
2040
2040
2040
2034
2034
2034
2040
2040
2040
2040
2038
2038
2038
2035
2035
2035
2041
2041
2041
2033
2033
2033
2037
2037
2037
2037
2038
2038
2038
2033
2033
2033
2041
2041
2041
2032
2032
2032
2040
2040
2040
2040
2036
2036
2036
2033
2033
2033
2040
2040
2040
2036
2036
2036
2040
2040
2040
2040
2040
2040
2040
2036
2036
2036
2039
2039
2039
2036
2036
2036
2040
2040
2040
2040
2037
2037
2037
2037
2037
2037
2042
2042
2042
2035
2035
2035
2040
2040
2040
2040
2036
2036
2036
2037
2037
2037
2041
2041
2041
2035
2035
2035
2040
2040
2040
2040
2037
2037
2037
2030
2030
2030
2039
2039
2039
2033
2033
2033
2036
2036
2036
2036
2039
2039
2039
2033
2033
2033
2039
2039
2039
2034
2034
2034
2039
2039
2039
2039
2035
2035
2035
2033
2033
2033
2038
2038
2038
2036
2036
2036
2042
2042
2042
2042
2038
2038
2038
2037
2037
2037
2037
2037
2037
2035
2035
2035
2038
2038
2038
2038
2037
2037
2037
2034
2034
2034
2041
2041
2041
2036
2036
2036
2037
2037
2037
2037
2038
2038
2038
2035
2035
2035
2041
2041
2041
2035
2035
2035
2041
2041
2041
2041
2039
2039
2039
2033
2033
2033
2038
2038
2038
2025
2025
2025
2037
2037
2037
2037
2038
2038
2038
2035
2035
2035
2040
2040
2040
2035
2035
2035
2040
2040
2040
2040
2038
2038
2038
2035
2035
2035
2037
2037
2037
2034
2034
2034
2037
2037
2037
2037
2038
2038
2038
2035
2035
2035
2041
2041
2041
2036
2036
2036
2039
2039
2039
2039
2038
2038
2038
2035
2035
2035
2040
2040
2040
2032
2032
2032
2041
2041
2041
2041
2045
2045
2045
2032
2032
2032
2041
2041
2041
2033
2033
2033
2040
2040
2040
2040
2040
2040
2040
2035
2035
2035
2039
2039
2039
2034
2034
2034
2039
2039
2039
2039
2034
2034
2034
2033
2033
2033
2041
2041
2041
2036
2036
2036
2040
2040
2040
2040
2042
2042
2042
2034
2034
2034
2034
2034
2034
2036
2036
2036
2041
2041
2041
2041
2041
2041
2041
2033
2033
2033
2039
2039
2039
2031
2031
2031
2036
2036
2036
2036
2041
2041
2041
2034
2034
2034
2040
2040
2040
2033
2033
2033
2039
2039
2039
2039
2039
2039
2039
2037
2037
2037
2037
2037
2037
2037
2037
2037
2038
2038
2038
2038
2040
2040
2040
2034
2034
2034
2039
2039
2039
2036
2036
2036
2041
2041
2041
2041
2041
2041
2041
2035
2035
2035
2034
2034
2034
2035
2035
2035
2039
2039
2039
2039
2039
2039
2039
2035
2035
2035
2038
2038
2038
2036
2036
2036
2038
2038
2038
2038
2040
2040
2040
2034
2034
2034
2039
2039
2039
2038
2038
2038
2041
2041
2041
2041
2039
2039
2039
2036
2036
2036
2040
2040
2040
2038
2038
2038
2040
2040
2040
2040
2039
2039
2039
2034
2034
2034
2038
2038
2038
2035
2035
2035
2040
2040
2040
2040
2040
2040
2040
2030
2030
2030
2039
2039
2039
2031
2031
2031
2040
2040
2040
2040
2041
2041
2041
2044
2044
2044
2038
2038
2038
2038
2038
2038
2040
2040
2040
2040
2038
2038
2038
2033
2033
2033
2040
2040
2040
2034
2034
2034
2039
2039
2039
2039
2040
2040
2040
2035
2035
2035
2040
2040
2040
2033
2033
2033
2037
2037
2037
2037
2039
2039
2039
2034
2034
2034
2044
2044
2044
2033
2033
2033
2044
2044
2044
2044
