1928
1928
1928
1930
1930
1930
1927
1927
1927
1931
1931
1931
1929
1929
1929
1929
1931
1931
1931
1930
1930
1930
1929
1929
1929
1928
1928
1928
1933
1933
1933
1933
1927
1927
1927
1931
1931
1931
1931
1931
1931
1937
1937
1937
1930
1930
1930
1930
1930
1930
1930
1930
1930
1930
1928
1928
1928
1933
1933
1933
1929
1929
1929
1929
1929
1929
1929
1932
1932
1932
1929
1929
1929
1932
1932
1932
1931
1931
1931
1931
1931
1931
1931
1929
1929
1929
1928
1928
1928
1934
1934
1934
1933
1933
1933
1933
1930
1930
1930
1928
1928
1928
1930
1930
1930
1930
1930
1930
1932
1932
1932
1932
1928
1928
1928
1930
1930
1930
1930
1930
1930
1934
1934
1934
1929
1929
1929
1929
1930
1930
1930
1934
1934
1934
1929
1929
1929
1935
1935
1935
1935
1935
1935
1935
1930
1930
1930
1930
1930
1930
1930
1930
1930
1936
1936
1936
1928
1928
1928
1928
1930
1930
1930
1930
1930
1930
1927
1927
1927
1934
1934
1934
1931
1931
1931
1931
1928
1928
1928
1927
1927
1927
1930
1930
1930
1931
1931
1931
1933
1933
1933
1933
1926
1926
1926
1937
1937
1937
1928
1928
1928
1933
1933
1933
1932
1932
1932
1932
1926
1926
1926
1932
1932
1932
1931
1931
1931
1934
1934
1934
1928
1928
1928
1928
1929
1929
1929
1932
1932
1932
1929
1929
1929
1931
1931
1931
1929
1929
1929
1929
1930
1930
1930
1931
1931
1931
1926
1926
1926
1933
1933
1933
1931
1931
1931
1931
1931
1931
1931
1933
1933
1933
1929
1929
1929
1937
1937
1937
1931
1931
1931
1931
1929
1929
1929
1931
1931
1931
1932
1932
1932
1933
1933
1933
1932
1932
1932
1932
1928
1928
1928
1930
1930
1930
1931
1931
1931
1932
1932
1932
1931
1931
1931
1931
1929
1929
1929
1931
1931
1931
1927
1927
1927
1932
1932
1932
1931
1931
1931
1931
1928
1928
1928
1929
1929
1929
1931
1931
1931
1932
1932
1932
1927
1927
1927
1927
1928
1928
1928
1932
1932
1932
1930
1930
1930
1934
1934
1934
1932
1932
1932
1932
1930
1930
1930
1932
1932
1932
1930
1930
1930
1933
1933
1933
1933
1933
1933
1933
1930
1930
1930
1925
1925
1925
1931
1931
1931
1930
1930
1930
1928
1928
1928
1928
1927
1927
1927
1931
1931
1931
1925
1925
1925
1929
1929
1929
1930
1930
1930
1930
1929
1929
1929
1938
1938
1938
1930
1930
1930
1932
1932
1932
1933
1933
1933
1933
1921
1921
1921
1928
1928
1928
1927
1927
1927
1932
1932
1932
1931
1931
1931
1931
1928
1928
1928
1929
1929
1929
1931
1931
1931
1932
1932
1932
1927
1927
1927
1927
1932
1932
1932
1934
1934
1934
1929
1929
1929
1934
1934
1934
1931
1931
1931
1931
1930
1930
1930
1933
1933
1933
1929
1929
1929
1932
1932
1932
1931
1931
1931
1931
1931
1931
1931
1931
1931
1931
1929
1929
1929
1932
1932
1932
1929
1929
1929
1929
1931
1931
1931
1931
1931
1931
1929
1929
1929
1932
1932
1932
1931
1931
1931
1931
1931
1931
1931
1931
1931
1931
1930
1930
1930
1934
1934
1934
1936
1936
1936
1936
1928
1928
1928
1932
1932
1932
1927
1927
1927
1937
1937
1937
1933
1933
1933
1933
1930
1930
1930
1931
1931
1931
1931
1931
1931
1931
1931
1931
1929
1929
1929
1929
1930
1930
1930
1934
1934
1934
1929
1929
1929
1934
1934
1934
1931
1931
1931
1931
1927
1927
1927
1926
1926
1926
1927
1927
1927
1933
1933
1933
1931
1931
1931
1931
1931
1931
1931
1932
1932
1932
1929
1929
1929
1930
1930
1930
1935
1935
1935
1935
1929
1929
1929
1933
1933
1933
1932
1932
1932
1929
1929
1929
1931
1931
1931
1931
1928
1928
1928
1931
1931
1931
1922
1922
1922
1933
1933
1933
1932
1932
1932
1932
1929
1929
1929
1923
1923
1923
1930
1930
1930
1933
1933
1933
1931
1931
1931
1931
1933
1933
1933
1931
1931
1931
1931
1931
1931
1933
1933
1933
1933
1933
1933
1933
1927
1927
1927
1932
1932
1932
1930
1930
1930
1931
1931
1931
1933
1933
1933
1933
1923
1923
1923
1932
1932
1932
1929
1929
1929
1933
1933
1933
1931
1931
1931
1931
1929
1929
1929
1931
1931
1931
1932
1932
1932
1933
1933
1933
1930
1930
1930
1930
1928
1928
1928
1931
1931
1931
1929
1929
1929
1935
1935
1935
1932
1932
1932
1932
1927
1927
1927
1931
1931
1931
1929
1929
1929
1931
1931
1931
1933
1933
1933
1933
1930
1930
1930
1932
1932
1932
1929
1929
1929
1934
1934
1934
1933
1933
1933
1933
1928
1928
1928
1929
1929
1929
1927
1927
1927
1932
1932
1932
1931
1931
1931
1931
1928
1928
1928
1929
1929
1929
1930
1930
1930
1933
1933
1933
1934
1934
1934
1934
1928
1928
1928
1930
1930
1930
1932
1932
1932
1938
1938
1938
1930
1930
1930
1930
1930
1930
1930
1930
1930
1930
1931
1931
1931
1932
1932
1932
1931
1931
1931
1931
1927
1927
1927
1929
1929
1929
1927
1927
1927
1932
1932
1932
1933
1933
1933
1933
1930
1930
1930
1933
1933
1933
1928
1928
1928
1931
1931
1931
1930
1930
1930
1930
1928
1928
1928
1928
1928
1928
1927
1927
1927
1933
1933
1933
1936
1936
1936
1936
1931
1931
1931
1934
1934
1934
1931
1931
1931
1929
1929
1929
1929
1929
1929
1929
1927
1927
1927
1929
1929
1929
1926
1926
1926
1933
1933
1933
1933
1933
1933
1933
1930
1930
1930
1927
1927
1927
1931
1931
1931
1932
1932
1932
1932
1932
1932
1932
1930
1930
1930
1930
1930
1930
1928
1928
1928
1934
1934
1934
1933
1933
1933
1933
1931
1931
1931
1937
1937
1937
1930
1930
1930
1932
1932
1932
1934
1934
1934
1934
1928
1928
1928
1931
1931
1931
1929
1929
1929
1934
1934
1934
1928
1928
1928
1928
1930
1930
1930
1930
1930
1930
1929
1929
1929
1935
1935
1935
1931
1931
1931
1931
1929
1929
1929
1929
1929
1929
1921
1921
1921
1933
1933
1933
1931
1931
1931
1931
1930
1930
1930
1931
1931
1931
1928
1928
1928
1931
1931
1931
1930
1930
1930
1930
1929
1929
1929
1933
1933
1933
1932
1932
1932
1932
1932
1932
1928
1928
1928
1928
1927
1927
1927
1931
1931
1931
1931
1931
1931
1932
1932
1932
1932
1932
1932
1932
1929
1929
1929
1929
1929
1929
1929
1929
1929
1933
1933
1933
1932
1932
1932
1932
1930
1930
1930
1932
1932
1932
1929
1929
1929
1938
1938
1938
1931
1931
1931
1931
1927
1927
1927
1930
1930
1930
1931
1931
1931
1933
1933
1933
1932
1932
1932
1932
1930
1930
1930
1936
1936
1936
1929
1929
1929
1934
1934
1934
1931
1931
1931
1931
1931
1931
1931
1932
1932
1932
1928
1928
1928
1931
1931
1931
1933
1933
1933
1933
1929
1929
1929
1931
1931
1931
1930
1930
1930
1929
1929
1929
1933
1933
1933
1933
1926
1926
1926
1931
1931
1931
1930
1930
1930
1932
1932
1932
1931
1931
1931
1931
1930
1930
1930
1931
1931
1931
1931
1931
1931
1932
1932
1932
1936
1936
1936
1936
1930
1930
1930
1933
1933
1933
1931
1931
1931
1933
1933
1933
1930
1930
1930
1930
1926
1926
1926
1929
1929
1929
1933
1933
1933
1931
1931
1931
1930
1930
1930
1930
1929
1929
1929
1931
1931
1931
1933
1933
1933
1935
1935
1935
1933
1933
1933
1933
1927
1927
1927
1929
1929
1929
1928
1928
1928
1933
1933
1933
1932
1932
1932
1932
1925
1925
1925
1930
1930
1930
1930
1930
1930
1935
1935
1935
1932
1932
1932
1932
1928
1928
1928
1932
1932
1932
1930
1930
1930
1936
1936
1936
1930
1930
1930
1930
1928
1928
1928
1929
1929
1929
1928
1928
1928
1932
1932
1932
1932
1932
1932
1932
1929
1929
1929
1934
1934
1934
1929
1929
1929
1932
1932
1932
1933
1933
1933
1933
1921
1921
1921
1930
1930
1930
1928
1928
1928
1934
1934
1934
1931
1931
1931
1931
1928
1928
1928
1932
1932
1932
1931
1931
1931
1936
1936
1936
1932
1932
1932
1932
1927
1927
1927
1931
1931
1931
1929
1929
1929
1934
1934
1934
1932
1932
1932
1932
1929
1929
1929
1933
1933
1933
1929
1929
1929
1931
1931
1931
1927
1927
1927
1927
1930
1930
1930
1929
1929
1929
1928
1928
1928
1928
1928
1928
1928
1928
1928
1928
1929
1929
1929
1933
1933
1933
1929
1929
1929
1930
1930
1930
1931
1931
1931
1931
1929
1929
1929
1928
1928
1928
1932
1932
1932
1931
1931
1931
1923
1923
1923
1923
1928
1928
1928
1928
1928
1928
1932
1932
1932
1935
1935
1935
1931
1931
1931
1931
1929
1929
1929
1931
1931
1931
1928
1928
1928
1933
1933
1933
1929
1929
1929
1929
1931
1931
1931
1928
1928
1928
1931
1931
1931
1929
1929
1929
1933
1933
1933
1933
1930
1930
1930
1930
1930
1930
1927
1927
1927
1932
1932
1932
1932
1932
1932
1932
1928
1928
1928
1928
1928
1928
1929
1929
1929
1932
1932
1932
1929
1929
1929
1929
1929
1929
1929
1932
1932
1932
1930
1930
1930
1932
1932
1932
1931
1931
1931
1931
1930
1930
1930
1933
1933
1933
1930
1930
1930
1932
1932
1932
1933
1933
1933
1933
1933
1933
1933
1929
1929
1929
1929
1929
1929
1931
1931
1931
1933
1933
1933
1933
1928
1928
1928
1930
1930
1930
1928
1928
1928
1930
1930
1930
1929
1929
1929
1929
1926
1926
1926
1931
1931
1931
1928
1928
1928
1932
1932
1932
1930
1930
1930
1930
1929
1929
1929
1931
1931
1931
1929
1929
1929
1932
1932
1932
1928
1928
1928
1928
1932
1932
1932
1931
1931
1931
1930
1930
1930
1930
1930
1930
1929
1929
1929
1929
1930
1930
1930
1934
1934
1934
1932
1932
1932
1927
1927
1927
1933
1933
1933
1933
1928
1928
1928
1934
1934
1934
1933
1933
1933
1933
1933
1933
1931
1931
1931
1931
1929
1929
1929
1934
1934
1934
1930
1930
1930
1932
1932
1932
1932
1932
1932
1932
1931
1931
1931
1930
1930
1930
1932
1932
1932
1932
1932
1932
1933
1933
1933
1933
1931
1931
1931
1930
1930
1930
1929
1929
1929
1932
1932
1932
1932
1932
1932
1932
1930
1930
1930
1929
1929
1929
1930
1930
1930
1932
1932
1932
1932
1932
1932
1932
1930
1930
1930
1931
1931
1931
1931
1931
1931
1933
1933
1933
1932
1932
1932
1932
1932
1932
1932
1929
1929
1929
1930
1930
1930
1934
1934
1934
1932
1932
1932
1932
1929
1929
1929
1928
1928
1928
1932
1932
1932
1931
1931
1931
1930
1930
1930
1930
1926
1926
1926
1930
1930
1930
1925
1925
1925
1933
1933
1933
1930
1930
1930
1930
1931
1931
1931
1931
1931
1931
1929
1929
1929
1933
1933
1933
1932
1932
1932
1932
1927
1927
1927
1930
1930
1930
1928
1928
1928
1931
1931
1931
1934
1934
1934
1934
1931
1931
1931
1932
1932
1932
1928
1928
1928
1932
1932
1932
1931
1931
1931
1931
1927
1927
1927
1943
1943
1943
1929
1929
1929
1936
1936
1936
1933
1933
1933
1933
1928
1928
1928
1931
1931
1931
1928
1928
1928
1932
1932
1932
1931
1931
1931
1931
1928
1928
1928
1933
1933
1933
1930
1930
1930
1932
1932
1932
1928
1928
1928
1928
1929
1929
1929
1930
1930
1930
1930
1930
1930
1931
1931
1931
1932
1932
1932
1932
1929
1929
1929
1931
1931
1931
1932
1932
1932
1935
1935
1935
1931
1931
1931
1931
1930
1930
1930
1931
1931
1931
1930
1930
1930
1930
1930
1930
1932
1932
1932
1932
1929
1929
1929
1928
1928
1928
1929
1929
1929
1930
1930
1930
1932
1932
1932
1932
1926
1926
1926
1930
1930
1930
1927
1927
1927
1932
1932
1932
1932
1932
1932
1932
1927
1927
1927
1929
1929
1929
1930
1930
1930
1928
1928
1928
1931
1931
1931
1931
1929
1929
1929
1931
1931
1931
1930
1930
1930
1932
1932
1932
1931
1931
1931
1931
1930
1930
1930
1932
1932
1932
1930
1930
1930
1933
1933
1933
1933
1933
1933
1933
1926
1926
1926
1930
1930
1930
1933
1933
1933
1928
1928
1928
1932
1932
1932
1932
1930
1930
1930
1929
1929
1929
1929
1929
1929
1934
1934
1934
1928
1928
1928
1928
1928
1928
1928
1926
1926
1926
1928
1928
1928
1931
1931
1931
1931
1931
1931
1931
1927
1927
1927
1931
1931
1931
1932
1932
1932
1934
1934
1934
1933
1933
1933
1933
1929
1929
1929
1927
1927
1927
1927
1927
1927
1936
1936
1936
1932
1932
1932
1932
1931
1931
1931
1932
1932
1932
1928
1928
1928
1933
1933
1933
1931
1931
1931
1931
1921
1921
1921
1931
1931
1931
1933
1933
1933
1931
1931
1931
1932
1932
1932
1932
1929
1929
1929
1930
1930
1930
1930
1930
1930
1933
1933
1933
1931
1931
1931
1931
1927
1927
1927
1931
1931
1931
1929
1929
1929
1933
1933
1933
1931
1931
1931
1931
1927
1927
1927
1929
1929
1929
1925
1925
1925
1931
1931
1931
1932
1932
1932
1932
1929
1929
1929
1931
1931
1931
1930
1930
1930
1930
1930
1930
1931
1931
1931
1931
1928
1928
1928
1930
1930
1930
1929
1929
1929
1932
1932
1932
1932
1932
1932
1932
1929
1929
1929
1930
1930
1930
1930
1930
1930
1931
1931
1931
1932
1932
1932
1932
1928
1928
1928
1931
1931
1931
1928
1928
1928
1933
1933
1933
1928
1928
1928
1928
1928
1928
1928
1929
1929
1929
1927
1927
1927
1929
1929
1929
1931
1931
1931
1931
1931
1931
1931
1930
1930
1930
1931
1931
1931
1931
1931
1931
1930
1930
1930
1930
1930
1930
1930
1933
1933
1933
1932
1932
1932
1933
1933
1933
1931
1931
1931
1931
1928
1928
1928
1929
1929
1929
1926
1926
1926
1933
1933
1933
1931
1931
1931
1931
1928
1928
1928
1934
1934
1934
1930
1930
1930
1936
1936
1936
1929
1929
1929
1929
1931
1931
1931
1933
1933
1933
1930
1930
1930
1931
1931
1931
1930
1930
1930
1930
1929
1929
1929
1931
1931
1931
1930
1930
1930
1933
1933
1933
1930
1930
1930
1930
1929
1929
1929
1929
1929
1929
1941
1941
1941
1933
1933
1933
1930
1930
1930
1930
1930
1930
1930
1931
1931
1931
1928
1928
1928
1936
1936
1936
1933
1933
1933
1933
1930
1930
1930
1935
1935
1935
1927
1927
1927
1931
1931
1931
1931
1931
1931
1931
1927
1927
1927
1930
1930
1930
1929
1929
1929
1929
1929
1929
1930
1930
1930
1930
1930
1930
1930
1927
1927
1927
1931
1931
1931
1934
1934
1934
1930
1930
1930
1930
1934
1934
1934
1928
1928
1928
1929
1929
1929
1931
1931
1931
1931
1931
1931
1931
1927
1927
1927
1931
1931
1931
1932
1932
1932
1933
1933
1933
1931
1931
1931
1931
1930
1930
1930
1929
1929
1929
1930
1930
1930
1933
1933
1933
1933
1933
1933
1933
1929
1929
1929
1927
1927
1927
1930
1930
1930
1932
1932
1932
1932
1932
1932
1932
1930
1930
1930
1930
1930
1930
1929
1929
1929
1932
1932
1932
1931
1931
1931
1931
1928
1928
1928
1932
1932
1932
1930
1930
1930
1930
1930
1930
1929
1929
1929
1929
1928
1928
1928
1931
1931
1931
1927
1927
1927
1933
1933
1933
1934
1934
1934
1934
1928
1928
1928
1930
1930
1930
1930
1930
1930
1935
1935
1935
1925
1925
1925
1925
1927
1927
1927
1933
1933
1933
1933
1933
1933
1934
1934
1934
1932
1932
1932
1932
1927
1927
1927
1929
1929
1929
1929
1929
1929
1932
1932
1932
1930
1930
1930
1930
1928
1928
1928
1930
1930
1930
1928
1928
1928
1934
1934
1934
1931
1931
1931
1931
1930
1930
1930
1931
1931
1931
1931
1931
1931
1931
1931
1931
1932
1932
1932
1932
1931
1931
1931
1933
1933
1933
1928
1928
1928
1931
1931
1931
1930
1930
1930
1930
1928
1928
1928
1931
1931
1931
1928
1928
1928
1933
1933
1933
1929
1929
1929
1929
1928
1928
1928
1931
1931
1931
1931
1931
1931
1933
1933
1933
1930
1930
1930
1930
1930
1930
1930
1930
1930
1930
1930
1930
1930
1933
1933
1933
1924
1924
1924
1924
1927
1927
1927
1928
1928
1928
1932
1932
1932
1936
1936
1936
1932
1932
1932
1932
1927
1927
1927
1931
1931
1931
1930
1930
1930
1933
1933
1933
1930
1930
1930
1930
1928
1928
1928
1925
1925
1925
1930
1930
1930
1934
1934
1934
1930
1930
1930
1930
1928
1928
1928
1930
1930
1930
1933
1933
1933
1931
1931
1931
1931
1931
1931
1931
1928
1928
1928
1933
1933
1933
1928
1928
1928
1932
1932
1932
1929
1929
1929
1929
1927
1927
1927
1932
1932
1932
1929
1929
1929
1936
1936
1936
1930
1930
1930
1930
1928
1928
1928
1929
1929
1929
1928
1928
1928
1932
1932
1932
1932
1932
1932
1932
1930
1930
1930
1933
1933
1933
1929
1929
1929
1933
1933
1933
1929
1929
1929
1929
1929
1929
1929
1928
1928
1928
1931
1931
1931
1928
1928
1928
1931
1931
1931
1931
1930
1930
1930
1931
1931
1931
1928
1928
1928
1928
1928
1928
1932
1932
1932
1932
1927
1927
1927
1932
1932
1932
1928
1928
1928
1933
1933
1933
1930
1930
1930
1930
1931
1931
1931
1932
1932
1932
1934
1934
1934
1932
1932
1932
1931
1931
1931
1931
1927
1927
1927
1930
1930
1930
1929
1929
1929
1930
1930
1930
1930
1930
1930
1930
1932
1932
1932
1928
1928
1928
1928
1928
1928
1936
1936
1936
1930
1930
1930
1930
1925
1925
1925
1929
1929
1929
1930
1930
1930
1932
1932
1932
1931
1931
1931
1931
1931
1931
1931
1931
1931
1931
1929
1929
1929
1932
1932
1932
1929
1929
1929
1929
1929
1929
1929
1930
1930
1930
1930
1930
1930
1932
1932
1932
1930
1930
1930
1930
1928
1928
1928
1930
1930
1930
1930
1930
1930
1932
1932
1932
1929
1929
1929
1929
1931
1931
1931
1929
1929
1929
1929
1929
1929
1932
1932
1932
1931
1931
1931
1931
1929
1929
1929
1929
1929
1929
1932
1932
1932
1930
1930
1930
1931
1931
1931
1931
1928
1928
1928
1931
1931
1931
1931
1931
1931
1932
1932
1932
1935
1935
1935
1935
1925
1925
1925
1926
1926
1926
1931
1931
1931
1934
1934
1934
1932
1932
1932
1932
1928
1928
1928
1933
1933
1933
1929
1929
1929
1932
1932
1932
1932
1932
1932
1932
1928
1928
1928
1931
1931
1931
1931
1931
1931
1930
1930
1930
1926
1926
1926
1926
1931
1931
1931
1929
1929
1929
1931
1931
1931
1927
1927
1927
1933
1933
1933
1933
1927
1927
1927
1932
1932
1932
1933
1933
1933
1931
1931
1931
1930
1930
1930
1930
1929
1929
1929
1927
1927
1927
1930
1930
1930
1933
1933
1933
1930
1930
1930
1930
1926
1926
1926
1931
1931
1931
1930
1930
1930
1933
1933
1933
1930
1930
1930
1930
1927
1927
1927
1930
1930
1930
1926
1926
1926
1931
1931
1931
1930
1930
1930
1930
1927
1927
1927
1927
1927
1927
1932
1932
1932
1936
1936
1936
1931
1931
1931
1931
1930
1930
1930
1932
1932
1932
1929
1929
1929
1930
1930
1930
1930
1930
1930
1930
1930
1930
1930
1929
1929
1929
1928
1928
1928
1930
1930
1930
1934
1934
1934
1934
1932
1932
1932
1931
1931
1931
1930
1930
1930
1931
1931
1931
1931
1931
1931
1931
1926
1926
1926
1930
1930
1930
1930
1930
1930
1932
1932
1932
1931
1931
1931
1931
1927
1927
1927
1930
1930
1930
1929
1929
1929
1933
1933
1933
1935
1935
1935
1935
1930
1930
1930
1932
1932
1932
1929
1929
1929
1934
1934
1934
1932
1932
1932
1932
1929
1929
1929
1930
1930
1930
1931
1931
1931
1932
1932
1932
1932
1932
1932
1932
1929
1929
1929
1933
1933
1933
1927
1927
1927
1932
1932
1932
1927
1927
1927
1927
1927
1927
1927
1931
1931
1931
1930
1930
1930
1934
1934
1934
1929
1929
1929
1929
1929
1929
1929
1932
1932
1932
1926
1926
1926
1930
1930
1930
1930
1930
1930
1930
1928
1928
1928
1930
1930
1930
1930
1930
1930
1930
1930
1930
1932
1932
1932
1932
1930
1930
1930
1932
1932
1932
1928
1928
1928
1933
1933
1933
1930
1930
1930
1930
1930
1930
1930
1931
1931
1931
1934
1934
1934
1932
1932
1932
1935
1935
1935
1935
1929
1929
1929
1932
1932
1932
1931
1931
1931
1935
1935
1935
1931
1931
1931
1931
1927
1927
1927
1931
1931
1931
1927
1927
1927
1931
1931
1931
1930
1930
1930
1930
1929
1929
1929
1932
1932
1932
1927
1927
1927
1933
1933
1933
1937
1937
1937
1937
1929
1929
1929
1932
1932
1932
1928
1928
1928
1934
1934
1934
1930
1930
1930
1930
1928
1928
1928
1929
1929
1929
1935
1935
1935
1931
1931
1931
1929
1929
1929
1929
1928
1928
1928
1930
1930
1930
1927
1927
1927
1930
1930
1930
1929
1929
1929
1929
1929
1929
1929
1932
1932
1932
1931
1931
1931
1934
1934
1934
1930
1930
1930
1930
1929
1929
1929
1931
1931
1931
1930
1930
1930
1931
1931
1931
1932
1932
1932
1932
1928
1928
1928
1925
1925
1925
1931
1931
1931
1933
1933
1933
1929
1929
1929
1929
1928
1928
1928
1931
1931
1931
1928
1928
1928
1933
1933
1933
1929
1929
1929
1929
1929
1929
1929
1931
1931
1931
1933
1933
1933
1931
1931
1931
1930
1930
1930
1930
1929
1929
1929
1928
1928
1928
1930
1930
1930
1931
1931
1931
1936
1936
1936
1936
1929
1929
1929
1929
1929
1929
1929
1929
1929
1931
1931
1931
1929
1929
1929
1929
1927
1927
1927
1931
1931
1931
1930
1930
1930
1932
1932
1932
1931
1931
1931
1931
1929
1929
1929
1932
1932
1932
1930
1930
1930
1928
1928
1928
1929
1929
1929
1929
1928
1928
1928
1934
1934
1934
1929
1929
1929
1931
1931
1931
1931
1931
1931
1931
1927
1927
1927
1932
1932
1932
1931
1931
1931
1932
1932
1932
1933
1933
1933
1933
1929
1929
1929
1931
1931
1931
1928
1928
1928
1933
1933
1933
1931
1931
1931
1931
1930
1930
1930
1929
1929
1929
1929
1929
1929
1933
1933
1933
1933
1933
1933
1933
1927
1927
1927
1932
1932
1932
1929
1929
1929
1931
1931
1931
1931
1931
1931
1931
1928
1928
1928
1930
1930
1930
1929
1929
1929
1930
1930
1930
1931
1931
1931
1931
1928
1928
1928
1931
1931
1931
1928
1928
1928
1932
1932
1932
1929
1929
1929
1929
1930
1930
1930
1932
1932
1932
1930
1930
1930
1934
1934
1934
1929
1929
1929
1929
1933
1933
1933
1932
1932
1932
1932
1932
1932
1934
1934
1934
1930
1930
1930
1930
1929
1929
1929
1930
1930
1930
1931
1931
1931
1935
1935
1935
1930
1930
1930
1930
1930
1930
1930
1932
1932
1932
1929
1929
1929
1934
1934
1934
1930
1930
1930
1930
1930
1930
1930
1930
1930
1930
1927
1927
1927
1935
1935
1935
1931
1931
1931
1931
1926
1926
1926
1931
1931
1931
1931
1931
1931
1930
1930
1930
1930
1930
1930
1930
1930
1930
1930
1933
1933
1933
1931
1931
1931
1932
1932
1932
1931
1931
1931
1931
1928
1928
1928
1931
1931
1931
1931
1931
1931
1932
1932
1932
1933
1933
1933
1933
1931
1931
1931
1932
1932
1932
1927
1927
1927
1934
1934
1934
1930
1930
1930
1930
1928
1928
1928
1929
1929
1929
1929
1929
1929
1930
1930
1930
1932
1932
1932
1932
1927
1927
1927
1929
1929
1929
1927
1927
1927
1933
1933
1933
1931
1931
1931
1931
1931
1931
1931
1930
1930
1930
1931
1931
1931
1934
1934
1934
1936
1936
1936
1936
1934
1934
1934
1929
1929
1929
1930
1930
1930
1929
1929
1929
1930
1930
1930
1930
1924
1924
1924
1932
1932
1932
1932
1932
1932
1932
1932
1932
1933
1933
1933
1933
1928
1928
1928
1931
1931
1931
1929
1929
1929
1931
1931
1931
1937
1937
1937
1937
1929
1929
1929
1932
1932
1932
1931
1931
1931
1932
1932
1932
1932
1932
1932
1932
1927
1927
1927
1931
1931
1931
1930
1930
1930
1933
1933
1933
1933
1933
1933
1933
1929
1929
1929
1930
1930
1930
1929
1929
1929
1936
1936
1936
1934
1934
1934
1934
1929
1929
1929
1931
1931
1931
1934
1934
1934
1941
1941
1941
1932
1932
1932
1932
1929
1929
1929
1929
1929
1929
1930
1930
1930
1934
1934
1934
1929
1929
1929
1929
1930
1930
1930
1927
1927
1927
1932
1932
1932
1933
1933
1933
1931
1931
1931
1931
1928
1928
1928
1932
1932
1932
1931
1931
1931
1937
1937
1937
1931
1931
1931
1931
1927
1927
1927
1930
1930
1930
1936
1936
1936
1933
1933
1933
1930
1930
1930
1930
1929
1929
1929
1928
1928
1928
1929
1929
1929
1932
1932
1932
1931
1931
1931
1931
1931
1931
1931
1932
1932
1932
1931
1931
1931
1931
1931
1931
1932
1932
1932
1932
1929
1929
1929
1933
1933
1933
1931
1931
1931
1931
1931
1931
1932
1932
1932
1932
1929
1929
1929
1929
1929
1929
1927
1927
1927
1931
1931
1931
1933
1933
1933
1933
1928
1928
1928
1929
1929
1929
1930
1930
1930
1933
1933
1933
1923
1923
1923
1923
1932
1932
1932
1931
1931
1931
1929
1929
1929
1933
1933
1933
1929
1929
1929
1929
1930
1930
1930
1928
1928
1928
1930
1930
1930
1934
1934
1934
1941
1941
1941
1941
1931
1931
1931
1929
1929
1929
1930
1930
1930
1935
1935
1935
1934
1934
1934
1934
1927
1927
1927
1930
1930
1930
1928
1928
1928
1933
1933
1933
1930
1930
1930
1930
1930
1930
1930
1932
1932
1932
1933
1933
1933
1933
1933
1933
1931
1931
1931
1931
1928
1928
1928
1930
1930
1930
1928
1928
1928
1935
1935
1935
1932
1932
1932
1932
1930
1930
1930
1930
1930
1930
1928
1928
1928
1931
1931
1931
1932
1932
1932
1932
1927
1927
1927
1933
1933
1933
1931
1931
1931
1930
1930
1930
1928
1928
1928
1928
1927
1927
1927
1929
1929
1929
1930
1930
1930
1930
1930
1930
1932
1932
1932
1932
1930
1930
1930
1927
1927
1927
1931
1931
1931
1933
1933
1933
1931
1931
1931
1931
1930
1930
1930
1933
1933
1933
1931
1931
1931
1933
1933
1933
1931
1931
1931
1931
1928
1928
1928
1931
1931
1931
1932
1932
1932
1933
1933
1933
1930
1930
1930
1930
1928
1928
1928
1928
1928
1928
1930
1930
1930
1931
1931
1931
1929
1929
1929
1929
1927
1927
1927
1930
1930
1930
1931
1931
1931
1926
1926
1926
1928
1928
1928
1928
1932
1932
1932
1932
1932
1932
1932
1932
1932
1930
1930
1930
1931
1931
1931
1931
1929
1929
1929
1930
1930
1930
1929
1929
1929
1932
1932
1932
1934
1934
1934
1934
1926
1926
1926
1932
1932
1932
1931
1931
1931
1932
1932
1932
1929
1929
1929
1929
1930
1930
1930
1932
1932
1932
1930
1930
1930
1931
1931
1931
1929
1929
1929
1929
1934
1934
1934
1931
1931
1931
1930
1930
1930
1932
1932
1932
1923
1923
1923
1923
1927
1927
1927
1933
1933
1933
1930
1930
1930
1933
1933
1933
1928
1928
1928
1928
1930
1930
1930
1930
1930
1930
1926
1926
1926
1930
1930
1930
1927
1927
1927
1927
1930
1930
1930
1937
1937
1937
1930
1930
1930
1933
1933
1933
1931
1931
1931
1931
1929
1929
1929
1931
1931
1931
1931
1931
1931
1931
1931
1931
1928
1928
1928
1928
1926
1926
1926
1930
1930
1930
1925
1925
1925
1929
1929
1929
1929
1929
1929
1929
1927
1927
1927
1932
1932
1932
1927
1927
1927
1929
1929
1929
1928
1928
1928
1928
1928
1928
1928
1932
1932
1932
1927
1927
1927
1936
1936
1936
1932
1932
1932
1932
1929
1929
1929
1931
1931
1931
1931
1931
1931
1934
1934
1934
1931
1931
1931
1931
1930
1930
1930
1933
1933
1933
1931
1931
1931
1929
1929
1929
1932
1932
1932
1932
1934
1934
1934
1930
1930
1930
1928
1928
1928
1932
1932
1932
1931
1931
1931
1931
1930
1930
1930
1932
1932
1932
1926
1926
1926
1933
1933
1933
1935
1935
1935
1935
1929
1929
1929
1925
1925
1925
1930
1930
1930
1930
1930
1930
1930
1930
1930
1930
1928
1928
1928
1932
1932
1932
1927
1927
1927
1933
1933
1933
1931
1931
1931
1931
1929
1929
1929
1930
1930
1930
1932
1932
1932
1932
1932
1932
1924
1924
1924
1924
1930
1930
1930
1930
1930
1930
1931
1931
1931
1933
1933
1933
1930
1930
1930
1930
1925
1925
1925
1929
1929
1929
1925
1925
1925
1931
1931
1931
1932
1932
1932
1932
1928
1928
1928
1929
1929
1929
1931
1931
1931
1934
1934
1934
1930
1930
1930
1930
1925
1925
1925
1935
1935
1935
1932
1932
1932
1931
1931
1931
1929
1929
1929
1929
1927
1927
1927
1929
1929
1929
1929
1929
1929
1932
1932
1932
1930
1930
1930
1930
1929
1929
1929
1933
1933
1933
1929
1929
1929
1937
1937
1937
1934
1934
1934
1934
1926
1926
1926
1929
1929
1929
1930
1930
1930
1932
1932
1932
1933
1933
1933
1933
1930
1930
1930
1930
1930
1930
1929
1929
1929
1933
1933
1933
1935
1935
1935
1935
1930
1930
1930
1930
1930
1930
1932
1932
1932
1934
1934
1934
1929
1929
1929
1929
1927
1927
1927
1929
1929
1929
1932
1932
1932
1935
1935
1935
1930
1930
1930
1930
1930
1930
1930
1934
1934
1934
1928
1928
1928
1933
1933
1933
1929
1929
1929
1929
1929
1929
1929
1933
1933
1933
1929
1929
1929
1934
1934
1934
1931
1931
1931
1931
1922
1922
1922
1931
1931
1931
1930
1930
1930
1933
1933
1933
1932
1932
1932
1932
1929
1929
1929
1930
1930
1930
1933
1933
1933
1933
1933
1933
1927
1927
1927
1927
1929
1929
1929
1931
1931
1931
1930
1930
1930
1929
1929
1929
1929
1929
1929
1929
1927
1927
1927
1931
1931
1931
1927
1927
1927
1928
1928
1928
1932
1932
1932
1932
1928
1928
1928
1930
1930
1930
1929
1929
1929
1934
1934
1934
1933
1933
1933
1933
1929
1929
1929
1931
1931
1931
1930
1930
1930
1934
1934
1934
1932
1932
1932
1932
1928
1928
1928
1931
1931
1931
1931
1931
1931
1931
1931
1931
1930
1930
1930
1930
1931
1931
1931
1928
1928
1928
1929
1929
1929
1934
1934
1934
1931
1931
1931
1931
1930
1930
1930
1927
1927
1927
1931
1931
1931
1932
1932
1932
1931
1931
1931
1931
1926
1926
1926
1933
1933
1933
1930
1930
1930
1932
1932
1932
1919
1919
1919
1919
1929
1929
1929
1932
1932
1932
1926
1926
1926
1933
1933
1933
1934
1934
1934
1934
1926
1926
1926
1932
1932
1932
1930
1930
1930
1930
1930
1930
1934
1934
1934
1934
1929
1929
1929
1930
1930
1930
1930
1930
1930
1931
1931
1931
1929
1929
1929
1929
1927
1927
1927
1932
1932
1932
1927
1927
1927
1929
1929
1929
1933
1933
1933
1933
1931
1931
1931
1929
1929
1929
1931
1931
1931
1933
1933
1933
1931
1931
1931
1931
1926
1926
1926
1932
1932
1932
1933
1933
1933
1932
1932
1932
1933
1933
1933
1933
1928
1928
1928
1930
1930
1930
1931
1931
1931
1934
1934
1934
1933
1933
1933
1933
1929
1929
1929
1930
1930
1930
1929
1929
1929
1932
1932
1932
1931
1931
1931
1931
1925
1925
1925
1929
1929
1929
1931
1931
1931
1933
1933
1933
1932
1932
1932
1932
1929
1929
1929
1930
1930
1930
1930
1930
1930
1932
1932
1932
1929
1929
1929
1929
1929
1929
1929
1932
1932
1932
1930
1930
1930
1930
1930
1930
1931
1931
1931
1931
1931
1931
1931
1930
1930
1930
1928
1928
1928
1934
1934
1934
1929
1929
1929
1929
1928
1928
1928
1929
1929
1929
1932
1932
1932
1933
1933
1933
1933
1933
1933
1933
1929
1929
1929
1930
1930
1930
1929
1929
1929
1933
1933
1933
1932
1932
1932
1932
1925
1925
1925
1929
1929
1929
1929
1929
1929
1931
1931
1931
1930
1930
1930
1930
1928
1928
1928
1932
1932
1932
1931
1931
1931
1931
1931
1931
1933
1933
1933
1933
1929
1929
1929
1928
1928
1928
1932
1932
1932
1928
1928
1928
1933
1933
1933
1933
1929
1929
1929
1929
1929
1929
1929
1929
1929
1932
1932
1932
1930
1930
1930
1930
1929
1929
1929
1931
1931
1931
1928
1928
1928
1932
1932
1932
1931
1931
1931
1931
1928
1928
1928
1934
1934
1934
1929
1929
1929
1931
1931
1931
1930
1930
1930
1930
1928
1928
1928
1934
1934
1934
1932
1932
1932
1935
1935
1935
1929
1929
1929
1929
1934
1934
1934
1934
1934
1934
1930
1930
1930
1932
1932
1932
1933
1933
1933
1933
1930
1930
1930
1932
1932
1932
1929
1929
1929
1932
1932
1932
1928
1928
1928
1928
1930
1930
1930
1930
1930
1930
1930
1930
1930
1932
1932
1932
1930
1930
1930
1930
1926
1926
1926
1929
1929
1929
1929
1929
1929
1929
1929
1929
1928
1928
1928
1928
1928
1928
1928
1931
1931
1931
1930
1930
1930
1932
1932
1932
1929
1929
1929
1929
1928
1928
1928
1930
1930
1930
1931
1931
1931
1930
1930
1930
1929
1929
1929
1929
1929
1929
1929
1930
1930
1930
1928
1928
1928
1931
1931
1931
1925
1925
1925
1925
1928
1928
1928
1934
1934
1934
1926
1926
1926
1933
1933
1933
1931
1931
1931
1931
1928
1928
1928
1931
1931
1931
1932
1932
1932
1933
1933
1933
1932
1932
1932
1932
1924
1924
1924
1930
1930
1930
1930
1930
1930
1932
1932
1932
1930
1930
1930
1930
1928
1928
1928
1930
1930
1930
1930
1930
1930
1928
1928
1928
1934
1934
1934
1934
1931
1931
1931
1930
1930
1930
1931
1931
1931
1934
1934
1934
1932
1932
1932
1932
1929
1929
1929
1931
1931
1931
1927
1927
1927
1934
1934
1934
1933
1933
1933
1933
1928
1928
1928
1932
1932
1932
1929
1929
1929
1928
1928
1928
1929
1929
1929
1929
1928
1928
1928
1933
1933
1933
1930
1930
1930
1930
1930
1930
1930
1930
1930
1930
1929
1929
1929
1931
1931
1931
1928
1928
1928
1933
1933
1933
1928
1928
1928
1928
1924
1924
1924
1929
1929
1929
1929
1929
1929
1929
1929
1929
1932
1932
1932
1932
1928
1928
1928
1928
1928
1928
1929
1929
1929
1934
1934
1934
1930
1930
1930
1930
1929
1929
1929
1930
1930
1930
1930
1930
1930
1932
1932
1932
1925
1925
1925
1925
1928
1928
1928
1932
1932
1932
1932
1932
1932
1931
1931
1931
1930
1930
1930
1930
1928
1928
1928
1931
1931
1931
1933
1933
1933
1932
1932
1932
1929
1929
1929
1929
1930
1930
1930
1929
1929
1929
1930
1930
1930
1932
1932
1932
1931
1931
1931
1931
1924
1924
1924
1930
1930
1930
1930
1930
1930
1933
1933
1933
1929
1929
1929
1929
1930
1930
1930
1928
1928
1928
1931
1931
1931
1936
1936
1936
1929
1929
1929
1929
1932
1932
1932
1928
1928
1928
1930
1930
1930
1932
1932
1932
1932
1932
1932
1932
1930
1930
1930
1929
1929
1929
1929
1929
1929
1931
1931
1931
1931
1931
1931
1931
1931
1931
1931
1933
1933
1933
1929
1929
1929
1932
1932
1932
1931
1931
1931
1931
1928
1928
1928
1929
1929
1929
1930
1930
1930
1935
1935
1935
1935
1935
1935
1935
1932
1932
1932
1931
1931
1931
1928
1928
1928
1932
1932
1932
1932
1932
1932
1932
1929
1929
1929
1928
1928
1928
1929
1929
1929
1931
1931
1931
1930
1930
1930
1930
1927
1927
1927
1930
1930
1930
1931
1931
1931
1932
1932
1932
1934
1934
1934
1934
1928
1928
1928
1932
1932
1932
1931
1931
1931
1935
1935
1935
1931
1931
1931
1931
1928
1928
1928
1932
1932
1932
1931
1931
1931
1934
1934
1934
1932
1932
1932
1932
1933
1933
1933
1932
1932
1932
1930
1930
1930
1932
1932
1932
1932
1932
1932
1932
1929
1929
1929
1930
1930
1930
1926
1926
1926
1933
1933
1933
1932
1932
1932
1932
1929
1929
1929
1929
1929
1929
1929
1929
1929
1931
1931
1931
1930
1930
1930
1930
1926
1926
1926
1929
1929
1929
1929
1929
1929
1932
1932
1932
1930
1930
1930
1930
1927
1927
1927
1931
1931
1931
1930
1930
1930
1931
1931
1931
1932
1932
1932
1932
1931
1931
1931
1934
1934
1934
1929
1929
1929
1933
1933
1933
1931
1931
1931
1931
1931
1931
1931
1932
1932
1932
1932
1932
1932
1933
1933
1933
1929
1929
1929
1929
1928
1928
1928
1930
1930
1930
1932
1932
1932
1932
1932
1932
1931
1931
1931
1931
1931
1931
1931
1932
1932
1932
1929
1929
1929
1933
1933
1933
1931
1931
1931
1931
1933
1933
1933
1929
1929
1929
1930
1930
1930
1932
1932
1932
1932
1932
1932
1932
1931
1931
1931
1933
1933
1933
1931
1931
1931
1934
1934
1934
1930
1930
1930
1930
1930
1930
1930
1932
1932
1932
1930
1930
1930
1932
1932
1932
1931
1931
1931
1931
1931
1931
1931
1930
1930
1930
1931
1931
1931
1932
1932
1932
1932
1932
1932
1932
1929
1929
1929
1931
1931
1931
1930
1930
1930
1933
1933
1933
1931
1931
1931
1931
1927
1927
1927
1929
1929
1929
1932
1932
1932
1932
1932
1932
1932
1932
1932
1932
1931
1931
1931
1932
1932
1932
1928
1928
1928
1930
1930
1930
1933
1933
1933
1933
1928
1928
1928
1932
1932
1932
1932
1932
1932
1932
1932
1932
1931
1931
1931
1931
1926
1926
1926
1927
1927
1927
1931
1931
1931
1934
1934
1934
1932
1932
1932
1932
1931
1931
1931
1932
1932
1932
1929
1929
1929
1934
1934
1934
1929
1929
1929
1929
1925
1925
1925
1933
1933
1933
1929
1929
1929
1934
1934
1934
1934
1934
1934
1934
1927
1927
1927
1931
1931
1931
1931
1931
1931
1933
1933
1933
1932
1932
1932
1932
1929
1929
1929
1932
1932
1932
1929
1929
1929
1933
1933
1933
1932
1932
1932
1932
1929
1929
1929
1930
1930
1930
1928
1928
1928
1933
1933
1933
1927
1927
1927
1927
1929
1929
1929
1932
1932
1932
1931
1931
1931
1929
1929
1929
1933
1933
1933
1933
1927
1927
1927
1931
1931
1931
1929
1929
1929
1930
1930
1930
1930
1930
1930
1930
1930
1930
1930
1926
1926
1926
1930
1930
1930
1932
1932
1932
1934
1934
1934
1934
1931
1931
1931
1930
1930
1930
1929
1929
1929
1932
1932
1932
1932
1932
1932
1932
1927
1927
1927
1932
1932
1932
1931
1931
1931
1933
1933
1933
1932
1932
1932
1932
1929
1929
1929
1930
1930
1930
1929
1929
1929
1933
1933
1933
1934
1934
1934
1934
1930
1930
1930
1928
1928
1928
1930
1930
1930
1932
1932
1932
1930
1930
1930
1930
1929
1929
1929
1930
1930
1930
1930
1930
1930
1931
1931
1931
1929
1929
1929
1929
1930
1930
1930
1929
1929
1929
1929
1929
1929
1927
1927
1927
1926
1926
1926
1926
1928
1928
1928
1931
1931
1931
1928
1928
1928
1928
1928
1928
1928
1928
1928
1928
1928
1928
1928
1929
1929
1929
1928
1928
1928
1928
1928
1928
1929
1929
1929
1929
1930
1930
1930
1929
1929
1929
1925
1925
1925
1930
1930
1930
1934
1934
1934
1934
1930
1930
1930
1932
1932
1932
1932
1932
1932
1935
1935
1935
1931
1931
1931
1931
1933
1933
1933
1934
1934
1934
1931
1931
1931
1932
1932
1932
1930
1930
1930
1930
1927
1927
1927
1934
1934
1934
1930
1930
1930
1933
1933
1933
1931
1931
1931
1931
1929
1929
1929
1930
1930
1930
1929
1929
1929
1931
1931
1931
1932
1932
1932
1932
1930
1930
1930
1930
1930
1930
1927
1927
1927
1935
1935
1935
1931
1931
1931
1931
1928
1928
1928
1931
1931
1931
1929
1929
1929
1934
1934
1934
1923
1923
1923
1923
1927
1927
1927
1930
1930
1930
1929
1929
1929
1935
1935
1935
1932
1932
1932
1932
1928
1928
1928
1928
1928
1928
1931
1931
1931
1934
1934
1934
1933
1933
1933
1933
1928
1928
1928
1929
1929
1929
1929
1929
1929
1933
1933
1933
1928
1928
1928
1928
1929
1929
1929
1931
1931
1931
1929
1929
1929
1931
1931
1931
1931
1931
1931
1931
1930
1930
1930
1933
1933
1933
1926
1926
1926
1933
1933
1933
1931
1931
1931
1931
1930
1930
1930
1931
1931
1931
1929
1929
1929
1933
1933
1933
1927
1927
1927
1927
1929
1929
1929
1931
1931
1931
1929
1929
1929
1925
1925
1925
1932
1932
1932
1932
1930
1930
1930
1932
1932
1932
1930
1930
1930
1933
1933
1933
1930
1930
1930
1930
1929
1929
1929
1930
1930
1930
1932
1932
1932
1936
1936
1936
1931
1931
1931
1931
1930
1930
1930
1929
1929
1929
1931
1931
1931
1937
1937
1937
1932
1932
1932
1932
1927
1927
1927
1931
1931
1931
1932
1932
1932
1932
1932
1932
1931
1931
1931
1931
1928
1928
1928
1929
1929
1929
1930
1930
1930
1933
1933
1933
1936
1936
1936
1936
1927
1927
1927
1934
1934
1934
1931
1931
1931
1936
1936
1936
1932
1932
1932
1932
1926
1926
1926
1931
1931
1931
1929
1929
1929
1932
1932
1932
1932
1932
1932
1932
1930
1930
1930
1927
1927
1927
1929
1929
1929
1932
1932
1932
1932
1932
1932
1932
1929
1929
1929
1932
1932
1932
1931
1931
1931
1934
1934
1934
1932
1932
1932
1932
1929
1929
1929
1930
1930
1930
1932
1932
1932
1935
1935
1935
1931
1931
1931
1931
1932
1932
1932
1929
1929
1929
1932
1932
1932
1933
1933
1933
1927
1927
1927
1927
1929
1929
1929
1932
1932
1932
1930
1930
1930
1933
1933
1933
1929
1929
1929
1929
1932
1932
1932
1932
1932
1932
1934
1934
1934
1932
1932
1932
1928
1928
1928
1928
1927
1927
1927
1932
1932
1932
1931
1931
1931
1931
1931
1931
1932
1932
1932
1932
1927
1927
1927
1931
1931
1931
1932
1932
1932
1931
1931
1931
1931
1931
1931
1931
1931
1931
1931
1931
1931
1931
1933
1933
1933
1934
1934
1934
1932
1932
1932
1932
1929
1929
1929
1929
1929
1929
1930
1930
1930
1932
1932
1932
1930
1930
1930
1930
1931
1931
1931
1931
1931
1931
1931
1931
1931
1927
1927
1927
1927
1927
1927
1927
1929
1929
1929
1932
1932
1932
1927
1927
1927
1931
1931
1931
1931
1931
1931
1931
1928
1928
1928
1931
1931
1931
1928
1928
1928
1932
1932
1932
1930
1930
1930
1930
1932
1932
1932
1929
1929
1929
1929
1929
1929
1933
1933
1933
1935
1935
1935
1935
1928
1928
1928
1930
1930
1930
1930
1930
1930
1933
1933
1933
1931
1931
1931
1931
1926
1926
1926
1927
1927
1927
1932
1932
1932
1931
1931
1931
1931
1931
1931
1931
1931
1931
1931
1930
1930
1930
1931
1931
1931
1935
1935
1935
1933
1933
1933
1933
1930
1930
1930
1932
1932
1932
1928
1928
1928
1931
1931
1931
1930
1930
1930
1930
1928
1928
1928
1934
1934
1934
1928
1928
1928
1932
1932
1932
1934
1934
1934
1934
1931
1931
1931
1932
1932
1932
1930
1930
1930
1931
1931
1931
1933
1933
1933
1933
1930
1930
1930
1929
1929
1929
1931
1931
1931
1932
1932
1932
1933
1933
1933
1933
1927
1927
1927
1932
1932
1932
1930
1930
1930
1933
1933
1933
1930
1930
1930
1930
1926
1926
1926
1929
1929
1929
1925
1925
1925
1932
1932
1932
1931
1931
1931
1931
1930
1930
1930
1931
1931
1931
1927
1927
1927
1933
1933
1933
1930
1930
1930
1930
1931
1931
1931
1934
1934
1934
1930
1930
1930
1931
1931
1931
1932
1932
1932
1932
1929
1929
1929
1929
1929
1929
1929
1929
1929
1932
1932
1932
1932
1932
1932
1932
1930
1930
1930
1931
1931
1931
1932
1932
1932
1933
1933
1933
1929
1929
1929
1929
1929
1929
1929
1933
1933
1933
1929
1929
1929
1930
1930
1930
1929
1929
1929
1929
1927
1927
1927
1933
1933
1933
1930
1930
1930
1935
1935
1935
1932
1932
1932
1932
1930
1930
1930
1931
1931
1931
1933
1933
1933
1935
1935
1935
1929
1929
1929
1929
1930
1930
1930
1931
1931
1931
1931
1931
1931
1933
1933
1933
1931
1931
1931
1931
1930
1930
1930
1930
1930
1930
1929
1929
1929
1932
1932
1932
1930
1930
1930
1930
1927
1927
1927
1931
1931
1931
1924
1924
1924
1933
1933
1933
1934
1934
1934
1934
1927
1927
1927
1929
1929
1929
1929
1929
1929
1931
1931
1931
1933
1933
1933
1933
1931
1931
1931
1931
1931
1931
1930
1930
1930
1936
1936
1936
1930
1930
1930
1930
1929
1929
1929
1929
1929
1929
1931
1931
1931
1933
1933
1933
1932
1932
1932
1932
1928
1928
1928
1931
1931
1931
1932
1932
1932
1937
1937
1937
1927
1927
1927
1927
1931
1931
1931
1931
1931
1931
1930
1930
1930
1929
1929
1929
1928
1928
1928
1928
1927
1927
1927
1929
1929
1929
1932
1932
1932
1930
1930
1930
1927
1927
1927
1927
1928
1928
1928
1927
1927
1927
1929
1929
1929
1928
1928
1928
1930
1930
1930
1930
1930
1930
1930
1930
1930
1930
1931
1931
1931
1931
1931
1931
1929
1929
1929
1929
1927
1927
1927
1929
1929
1929
1932
1932
1932
1933
1933
1933
1926
1926
1926
1926
1929
1929
1929
1933
1933
1933
1936
1936
1936
1932
1932
1932
1930
1930
1930
1930
1929
1929
1929
1930
1930
1930
1929
1929
1929
1927
1927
1927
1931
1931
1931
1931
1929
1929
1929
1927
1927
1927
1935
1935
1935
1930
1930
1930
1927
1927
1927
1927
1929
1929
1929
1932
1932
1932
1925
1925
1925
1930
1930
1930
1933
1933
1933
1933
1929
1929
1929
1929
1929
1929
1928
1928
1928
1933
1933
1933
1933
1933
1933
1933
1928
1928
1928
1929
1929
1929
1931
1931
1931
1932
1932
1932
1930
1930
1930
1930
1927
1927
1927
1928
1928
1928
1937
1937
1937
1930
1930
1930
1931
1931
1931
1931
1927
1927
1927
1928
1928
1928
1930
1930
1930
1932
1932
1932
1931
1931
1931
1931
1930
1930
1930
1930
1930
1930
1934
1934
1934
1933
1933
1933
1927
1927
1927
1927
1927
1927
1927
1932
1932
1932
1928
1928
1928
1930
1930
1930
1929
1929
1929
1929
1928
1928
1928
1930
1930
1930
1928
1928
1928
1930
1930
1930
1932
1932
1932
1932
1926
1926
1926
1927
1927
1927
1929
1929
1929
1932
1932
1932
1930
1930
1930
1930
1927
1927
1927
1932
1932
1932
1929
1929
1929
1931
1931
1931
1930
1930
1930
1930
1929
1929
1929
1928
1928
1928
1931
1931
1931
1930
1930
1930
1930
1930
1930
1930
1930
1930
1930
1930
1930
1930
1922
1922
1922
1933
1933
1933
1931
1931
1931
1931
1930
1930
1930
1934
1934
1934
1929
1929
1929
1934
1934
1934
1931
1931
1931
1931
1930
1930
1930
1932
1932
1932
1928
1928
1928
1933
1933
1933
1932
1932
1932
1932
1928
1928
1928
1932
1932
1932
1928
1928
1928
1933
1933
1933
1932
1932
1932
1932
1929
1929
1929
1931
1931
1931
1930
1930
1930
1933
1933
1933
1935
1935
1935
1935
1928
1928
1928
1930
1930
1930
1927
1927
1927
1936
1936
1936
1929
1929
1929
1929
1931
1931
1931
1929
1929
1929
1927
1927
1927
1932
1932
1932
1931
1931
1931
1931
1928
1928
1928
1931
1931
1931
1930
1930
1930
1934
1934
1934
1934
1934
1934
1934
1928
1928
1928
1930
1930
1930
1930
1930
1930
1931
1931
1931
1929
1929
1929
1929
1928
1928
1928
1933
1933
1933
1927
1927
1927
1934
1934
1934
1932
1932
1932
1932
1927
1927
1927
1931
1931
1931
1928
1928
1928
1933
1933
1933
1929
1929
1929
1929
1930
1930
1930
1930
1930
1930
1930
1930
1930
1931
1931
1931
1933
1933
1933
1933
1930
1930
1930
1931
1931
1931
1931
1931
1931
1932
1932
1932
1929
1929
1929
1929
1928
1928
1928
1928
1928
1928
1929
1929
1929
1932
1932
1932
1929
1929
1929
1929
1927
1927
1927
1932
1932
1932
1931
1931
1931
1930
1930
1930
1930
1930
1930
1930
1928
1928
1928
1931
1931
1931
1932
1932
1932
1932
1932
1932
1930
1930
1930
1930
1926
1926
1926
1931
1931
1931
1931
1931
1931
1931
1931
1931
1930
1930
1930
1930
1929
1929
1929
1929
1929
1929
1931
1931
1931
1931
1931
1931
1934
1934
1934
1934
1926
1926
1926
1930
1930
1930
1929
1929
1929
1933
1933
1933
1932
1932
1932
1932
1930
1930
1930
1934
1934
1934
1931
1931
1931
1933
1933
1933
1934
1934
1934
1934
1933
1933
1933
1929
1929
1929
1933
1933
1933
1936
1936
1936
1931
1931
1931
1931
1927
1927
1927
1934
1934
1934
1932
1932
1932
1934
1934
1934
1930
1930
1930
1930
1928
1928
1928
1931
1931
1931
1932
1932
1932
1931
1931
1931
1929
1929
1929
1929
1932
1932
1932
1931
1931
1931
1929
1929
1929
1933
1933
1933
1930
1930
1930
1930
1930
1930
1930
1930
1930
1930
1927
1927
1927
1934
1934
1934
1931
1931
1931
1931
1930
1930
1930
1929
1929
1929
1932
1932
1932
1933
1933
1933
1930
1930
1930
1930
1929
1929
1929
1930
1930
1930
1929
1929
1929
1932
1932
1932
1931
1931
1931
1931
1932
1932
1932
1930
1930
1930
1927
1927
1927
1932
1932
1932
1932
1932
1932
1932
1928
1928
1928
1929
1929
1929
1931
1931
1931
1934
1934
1934
1933
1933
1933
1933
1927
1927
1927
1933
1933
1933
1929
1929
1929
1932
1932
1932
1930
1930
1930
1930
1925
1925
1925
1931
1931
1931
1931
1931
1931
1932
1932
1932
1932
1932
1932
1932
1928
1928
1928
1933
1933
1933
1931
1931
1931
1930
1930
1930
1930
1930
1930
1930
1928
1928
1928
1934
1934
1934
1929
1929
1929
1930
1930
1930
1933
1933
1933
1933
1931
1931
1931
1930
1930
1930
1930
1930
1930
1933
1933
1933
1929
1929
1929
1929
1929
1929
1929
1931
1931
1931
1929
1929
1929
1930
1930
1930
1930
1930
1930
1930
1928
1928
1928
1935
1935
1935
1927
1927
1927
1932
1932
1932
1932
1932
1932
1932
1933
1933
1933
1933
1933
1933
1929
1929
1929
1933
1933
1933
1927
1927
1927
1927
1929
1929
1929
1929
1929
1929
1927
1927
1927
1933
1933
1933
1932
1932
1932
1932
1927
1927
1927
1928
1928
1928
1930
1930
1930
1933
1933
1933
1930
1930
1930
1930
1928
1928
1928
1930
1930
1930
1927
1927
1927
1931
1931
1931
1931
1931
1931
1931
1930
1930
1930
1930
1930
1930
1933
1933
1933
1933
1933
1933
1933
1933
1933
1933
1930
1930
1930
1926
1926
1926
1929
1929
1929
1933
1933
1933
1926
1926
1926
1926
1929
1929
1929
1930
1930
1930
1928
1928
1928
1933
1933
1933
1932
1932
1932
1932
1929
1929
1929
1930
1930
1930
1923
1923
1923
1932
1932
1932
1930
1930
1930
1930
1931
1931
1931
1929
1929
1929
1928
1928
1928
1931
1931
1931
1930
1930
1930
1930
1926
1926
1926
1932
1932
1932
1931
1931
1931
1933
1933
1933
1930
1930
1930
1930
1931
1931
1931
1931
1931
1931
1928
1928
1928
1933
1933
1933
1931
1931
1931
1931
1929
1929
1929
1928
1928
1928
1931
1931
1931
1934
1934
1934
1932
1932
1932
1932
1927
1927
1927
1931
1931
1931
1931
1931
1931
1929
1929
1929
1931
1931
1931
1931
1928
1928
1928
1931
1931
1931
1923
1923
1923
1929
1929
1929
1936
1936
1936
1936
1930
1930
1930
1927
1927
1927
1931
1931
1931
1932
1932
1932
1936
1936
1936
1936
1929
1929
1929
1930
1930
1930
1931
1931
1931
1931
1931
1931
1933
1933
1933
1933
1923
1923
1923
1931
1931
1931
1935
1935
1935
1935
1935
1935
1932
1932
1932
1932
1930
1930
1930
1932
1932
1932
1930
1930
1930
1933
1933
1933
1929
1929
1929
1929
1931
1931
1931
1933
1933
1933
1930
1930
1930
1934
1934
1934
1935
1935
1935
1935
1932
1932
1932
1931
1931
1931
1930
1930
1930
1932
1932
1932
1931
1931
1931
1931
1928
1928
1928
1931
1931
1931
1929
1929
1929
1935
1935
1935
1926
1926
1926
1926
1928
1928
1928
1933
1933
1933
1929
1929
1929
1932
1932
1932
1932
1932
1932
1932
1930
1930
1930
1932
1932
1932
1929
1929
1929
1932
1932
1932
1932
1932
1932
1932
1930
1930
1930
1931
1931
1931
1931
1931
1931
1933
1933
1933
1932
1932
1932
1932
1924
1924
1924
1932
1932
1932
1931
1931
1931
1932
1932
1932
1932
1932
1932
1932
1930
1930
1930
1931
1931
1931
1932
1932
1932
1932
1932
1932
1929
1929
1929
1929
1925
1925
1925
1931
1931
1931
1927
1927
1927
1932
1932
1932
1930
1930
1930
1930
1931
1931
1931
1932
1932
1932
1930
1930
1930
1932
1932
1932
1932
1932
1932
1932
1933
1933
1933
1933
1933
1933
1927
1927
1927
1932
1932
1932
1931
1931
1931
1931
1927
1927
1927
1930
1930
1930
1928
1928
1928
1930
1930
1930
1930
1930
1930
1930
1928
1928
1928
1934
1934
1934
1929
1929
1929
1930
1930
1930
1934
1934
1934
1934
1930
1930
1930
1930
1930
1930
1930
1930
1930
1927
1927
1927
1930
1930
1930
1930
1930
1930
1930
1929
1929
1929
1931
1931
1931
1931
1931
1931
1930
1930
1930
1930
1927
1927
1927
1929
1929
1929
1929
1929
1929
1935
1935
1935
1933
1933
1933
1933
1925
1925
1925
1928
1928
1928
1931
1931
1931
1929
1929
1929
1931
1931
1931
1931
1927
1927
1927
1930
1930
1930
1925
1925
1925
1932
1932
1932
1936
1936
1936
1936
1929
1929
1929
1933
1933
1933
1930
1930
1930
1932
1932
1932
1930
1930
1930
1930
1928
1928
1928
1932
1932
1932
1930
1930
1930
1933
1933
1933
1932
1932
1932
1932
1930
1930
1930
1933
1933
1933
1934
1934
1934
1933
1933
1933
1929
1929
1929
1929
1928
1928
1928
1931
1931
1931
1929
1929
1929
1931
1931
1931
1933
1933
1933
1933
1929
1929
1929
1932
1932
1932
1929
1929
1929
1932
1932
1932
1931
1931
1931
1931
1928
1928
1928
1929
1929
1929
1925
1925
1925
1934
1934
1934
1932
1932
1932
1932
1928
1928
1928
1927
1927
1927
1931
1931
1931
1935
1935
1935
1928
1928
1928
1928
1928
1928
1928
1929
1929
1929
1928
1928
1928
1932
1932
1932
1931
1931
1931
1931
1928
1928
1928
1930
1930
1930
1932
1932
1932
1937
1937
1937
1932
1932
1932
1932
1930
1930
1930
1932
1932
1932
1931
1931
1931
1937
1937
1937
1928
1928
1928
1928
1928
1928
1928
1935
1935
1935
1932
1932
1932
1933
1933
1933
1931
1931
1931
1931
1931
1931
1931
1930
1930
1930
1931
1931
1931
1932
1932
1932
1931
1931
1931
1931
1928
1928
1928
1931
1931
1931
1929
1929
1929
1932
1932
1932
1935
1935
1935
1935
1929
1929
1929
1931
1931
1931
1928
1928
1928
1933
1933
1933
1932
1932
1932
1932
1927
1927
1927
1931
1931
1931
1929
1929
1929
1933
1933
1933
1928
1928
1928
1928
1929
1929
1929
1931
1931
1931
1933
1933
1933
1933
1933
1933
1927
1927
1927
1927
1928
1928
1928
1931
1931
1931
1934
1934
1934
1932
1932
1932
1933
1933
1933
1933
1926
1926
1926
1930
1930
1930
1928
1928
1928
1933
1933
1933
1930
1930
1930
1930
1929
1929
1929
1932
1932
1932
1929
1929
1929
1932
1932
1932
1934
1934
1934
1934
1930
1930
1930
1928
1928
1928
1930
1930
1930
1929
1929
1929
1932
1932
1932
1932
1925
1925
1925
1931
1931
1931
1930
1930
1930
1931
1931
1931
1933
1933
1933
1933
1928
1928
1928
1929
1929
1929
1931
1931
1931
1934
1934
1934
1930
1930
1930
1930
1931
1931
1931
1932
1932
1932
1929
1929
1929
1932
1932
1932
1928
1928
1928
1928
1931
1931
1931
1930
1930
1930
1928
1928
1928
1930
1930
1930
1932
1932
1932
1932
1929
1929
1929
1934
1934
1934
1931
1931
1931
1933
1933
1933
1933
1933
1933
1933
1932
1932
1932
1932
1932
1932
1930
1930
1930
1932
1932
1932
1930
1930
1930
1930
1930
1930
1930
1932
1932
1932
1931
1931
1931
1936
1936
1936
1933
1933
1933
1933
1930
1930
1930
1933
1933
1933
1931
1931
1931
1933
1933
1933
1931
1931
1931
1931
1935
1935
1935
1924
1924
1924
1930
1930
1930
1932
1932
1932
1928
1928
1928
1928
1933
1933
1933
1930
1930
1930
1931
1931
1931
1935
1935
1935
1931
1931
1931
1931
1928
1928
1928
1931
1931
1931
1929
1929
1929
1934
1934
1934
1930
1930
1930
1930
1929
1929
1929
1935
1935
1935
1931
1931
1931
1934
1934
1934
1930
1930
1930
1930
1929
1929
1929
1933
1933
1933
1928
1928
1928
1929
1929
1929
1933
1933
1933
1933
1931
1931
1931
1932
1932
1932
1931
1931
1931
1931
1931
1931
1930
1930
1930
1930
1929
1929
1929
1933
1933
1933
1932
1932
1932
1930
1930
1930
1924
1924
1924
1924
1929
1929
1929
1935
1935
1935
1929
1929
1929
1931
1931
1931
1930
1930
1930
1930
1930
1930
1930
1931
1931
1931
1929
1929
1929
1937
1937
1937
1933
1933
1933
1933
1928
1928
1928
1931
1931
1931
1932
1932
1932
1933
1933
1933
1931
1931
1931
1931
1931
1931
1931
1930
1930
1930
1929
1929
1929
1932
1932
1932
1927
1927
1927
1927
1927
1927
1927
1927
1927
1927
1929
1929
1929
1935
1935
1935
1930
1930
1930
1930
1927
1927
1927
1930
1930
1930
1929
1929
1929
1931
1931
1931
1931
1931
1931
1931
1927
1927
1927
1934
1934
1934
1932
1932
1932
1933
1933
1933
1931
1931
1931
1931
1929
1929
1929
1931
1931
1931
1930
1930
1930
1929
1929
1929
1930
1930
1930
1930
1930
1930
1930
1931
1931
1931
1925
1925
1925
1933
1933
1933
1934
1934
1934
1934
1928
1928
1928
1934
1934
1934
1930
1930
1930
1933
1933
1933
1931
1931
1931
1931
1933
1933
1933
1928
1928
1928
1934
1934
1934
1933
1933
1933
1929
1929
1929
1929
1927
1927
1927
1929
1929
1929
1929
1929
1929
1931
1931
1931
1932
1932
1932
1932
1928
1928
1928
1930
1930
1930
1930
1930
1930
1931
1931
1931
1928
1928
1928
1928
1924
1924
1924
1934
1934
1934
1930
1930
1930
1934
1934
1934
1933
1933
1933
1933
1934
1934
1934
1931
1931
1931
1930
1930
1930
1930
1930
1930
1929
1929
1929
1929
1928
1928
1928
1930
1930
1930
1927
1927
1927
1934
1934
1934
1932
1932
1932
1932
1927
1927
1927
1931
1931
1931
1928
1928
1928
1934
1934
1934
1929
1929
1929
1929
1931
1931
1931
1930
1930
1930
1927
1927
1927
1931
1931
1931
1931
1931
1931
1931
1928
1928
1928
1931
1931
1931
1930
1930
1930
1931
1931
1931
1931
1931
1931
1931
1928
1928
1928
1928
1928
1928
1930
1930
1930
1934
1934
1934
1933
1933
1933
1933
1930
1930
1930
1930
1930
1930
1929
1929
1929
1935
1935
1935
1930
1930
1930
1930
1929
1929
1929
1931
1931
1931
1930
1930
1930
1939
1939
1939
1931
1931
1931
1931
1929
1929
1929
1931
1931
1931
1926
1926
1926
1933
1933
1933
1930
1930
1930
1930
1930
1930
1930
1932
1932
1932
1930
1930
1930
1930
1930
1930
1931
1931
1931
1931
1928
1928
1928
1930
1930
1930
1934
1934
1934
1932
1932
1932
1932
1932
1932
1932
1928
1928
1928
1933
1933
1933
1931
1931
1931
1933
1933
1933
1931
1931
1931
1931
1930
1930
1930
1927
1927
1927
1929
1929
1929
1937
1937
1937
1931
1931
1931
1931
1929
1929
1929
1932
1932
1932
1930
1930
1930
1934
1934
1934
1928
1928
1928
1928
1930
1930
1930
1928
1928
1928
1931
1931
1931
1931
1931
1931
1927
1927
1927
1927
1929
1929
1929
1934
1934
1934
1927
1927
1927
1932
1932
1932
1935
1935
1935
1935
1932
1932
1932
1930
1930
1930
1927
1927
1927
1935
1935
1935
1932
1932
1932
1932
1930
1930
1930
1928
1928
1928
1926
1926
1926
1932
1932
1932
1930
1930
1930
1930
1928
1928
1928
1930
1930
1930
1928
1928
1928
1933
1933
1933
1934
1934
1934
1934
1927
1927
1927
1931
1931
1931
1929
1929
1929
1936
1936
1936
1931
1931
1931
1931
1930
1930
1930
1929
1929
1929
1929
1929
1929
1933
1933
1933
1933
1933
1933
1933
1930
1930
1930
1929
1929
1929
1929
1929
1929
1932
1932
1932
1932
1932
1932
1932
1928
1928
1928
1930
1930
1930
1931
1931
1931
1933
1933
1933
1930
1930
1930
1930
1925
1925
1925
1929
1929
1929
1930
1930
1930
1934
1934
1934
1931
1931
1931
1931
