2165
2165
2157
2157
2157
2162
2162
2162
2162
2161
2161
2161
2158
2158
2158
2160
2160
2160
2160
2160
2160
2163
2163
2163
2163
2158
2158
2158
2158
2158
2158
2162
2162
2162
2158
2158
2158
2160
2160
2160
2160
2165
2165
2165
2154
2154
2154
2164
2164
2164
2159
2159
2159
2164
2164
2164
2164
2162
2162
2162
2161
2161
2161
2166
2166
2166
2163
2163
2163
2157
2157
2157
2157
2163
2163
2163
2161
2161
2161
2164
2164
2164
2153
2153
2153
2163
2163
2163
2163
2164
2164
2164
2160
2160
2160
2162
2162
2162
2159
2159
2159
2166
2166
2166
2166
2161
2161
2161
2159
2159
2159
2164
2164
2164
2161
2161
2161
2161
2161
2161
2161
2161
2161
2161
2164
2164
2164
2164
2164
2164
2159
2159
2159
2163
2163
2163
2163
2160
2160
2160
2161
2161
2161
2164
2164
2164
2159
2159
2159
2162
2162
2162
2162
2162
2162
2162
2160
2160
2160
2163
2163
2163
2158
2158
2158
2165
2165
2165
2165
2161
2161
2161
2161
2161
2161
2162
2162
2162
2159
2159
2159
2164
2164
2164
2164
2158
2158
2158
2164
2164
2164
2167
2167
2167
2159
2159
2159
2164
2164
2164
2164
2161
2161
2161
2161
2161
2161
2169
2169
2169
2155
2155
2155
2162
2162
2162
2162
2161
2161
2161
2160
2160
2160
2161
2161
2161
2160
2160
2160
2161
2161
2161
2161
2160
2160
2160
2157
2157
2157
2164
2164
2164
2157
2157
2157
2160
2160
2160
2160
2164
2164
2164
2159
2159
2159
2163
2163
2163
2161
2161
2161
2162
2162
2162
2162
2160
2160
2160
2159
2159
2159
2160
2160
2160
2159
2159
2159
2163
2163
2163
2163
2162
2162
2162
2160
2160
2160
2163
2163
2163
2160
2160
2160
2163
2163
2163
2163
2162
2162
2162
2157
2157
2157
2163
2163
2163
2160
2160
2160
2162
2162
2162
2162
2163
2163
2163
2155
2155
2155
2170
2170
2170
2160
2160
2160
2162
2162
2162
2162
2161
2161
2161
2161
2161
2161
2163
2163
2163
2159
2159
2159
2164
2164
2164
2164
2156
2156
2156
2159
2159
2159
2161
2161
2161
2158
2158
2158
2165
2165
2165
2165
2162
2162
2162
2159
2159
2159
2165
2165
2165
2157
2157
2157
2163
2163
2163
2163
2161
2161
2161
2161
2161
2161
2165
2165
2165
2159
2159
2159
2162
2162
2162
2162
2157
2157
2157
2157
2157
2157
2161
2161
2161
2158
2158
2158
2160
2160
2160
2160
2159
2159
2159
2154
2154
2154
2164
2164
2164
2158
2158
2158
2160
2160
2160
2160
2162
2162
2162
2161
2161
2161
2163
2163
2163
2158
2158
2158
2166
2166
2166
2166
2161
2161
2161
2159
2159
2159
2165
2165
2165
2158
2158
2158
2159
2159
2159
2159
2162
2162
2162
2159
2159
2159
2163
2163
2163
2157
2157
2157
2162
2162
2162
2162
2160
2160
2160
2157
2157
2157
2163
2163
2163
2159
2159
2159
2162
2162
2162
2162
2160
2160
2160
2156
2156
2156
2162
2162
2162
2159
2159
2159
2160
2160
2160
2160
2163
2163
2163
2160
2160
2160
2162
2162
2162
2162
2162
2162
2160
2160
2160
2160
2156
2156
2156
2160
2160
2160
2170
2170
2170
2157
2157
2157
2163
2163
2163
2163
2159
2159
2159
2161
2161
2161
2164
2164
2164
2155
2155
2155
2157
2157
2157
2157
2160
2160
2160
2161
2161
2161
2163
2163
2163
2160
2160
2160
2167
2167
2167
2167
2163
2163
2163
2159
2159
2159
2165
2165
2165
2159
2159
2159
2161
2161
2161
2161
2162
2162
2162
2159
2159
2159
2163
2163
2163
2160
2160
2160
2163
2163
2163
2163
2163
2163
2163
2160
2160
2160
2166
2166
2166
2160
2160
2160
2162
2162
2162
2162
2159
2159
2159
2159
2159
2159
2166
2166
2166
2160
2160
2160
2164
2164
2164
2164
2157
2157
2157
2155
2155
2155
2160
2160
2160
2158
2158
2158
2161
2161
2161
2161
2165
2165
2165
2160
2160
2160
2162
2162
2162
2169
2169
2169
2151
2151
2151
2151
2163
2163
2163
2162
2162
2162
2161
2161
2161
2158
2158
2158
2166
2166
2166
2166
2163
2163
2163
2157
2157
2157
2163
2163
2163
2158
2158
2158
2163
2163
2163
2163
2163
2163
2163
2161
2161
2161
2161
2161
2161
2159
2159
2159
2162
2162
2162
2162
2162
2162
2162
2160
2160
2160
2161
2161
2161
2160
2160
2160
2163
2163
2163
2163
2161
2161
2161
2157
2157
2157
2167
2167
2167
2159
2159
2159
2164
2164
2164
2164
2157
2157
2157
2157
2157
2157
2166
2166
2166
2159
2159
2159
2162
2162
2162
2162
2161
2161
2161
2160
2160
2160
2164
2164
2164
2164
2164
2164
2166
2166
2166
2166
2163
2163
2163
2159
2159
2159
2164
2164
2164
2156
2156
2156
2158
2158
2158
2158
2161
2161
2161
2157
2157
2157
2163
2163
2163
2158
2158
2158
2160
2160
2160
2160
2161
2161
2161
2160
2160
2160
2162
2162
2162
2156
2156
2156
2162
2162
2162
2162
2163
2163
2163
2160
2160
2160
2164
2164
2164
2162
2162
2162
2162
2162
2162
2162
2168
2168
2168
2160
2160
2160
2157
2157
2157
2159
2159
2159
2162
2162
2162
2162
2163
2163
2163
2163
2163
2163
2163
2163
2163
2158
2158
2158
2161
2161
2161
2161
2163
2163
2163
2156
2156
2156
2162
2162
2162
2155
2155
2155
2163
2163
2163
2163
2162
2162
2162
2159
2159
2159
2162
2162
2162
2157
2157
2157
2162
2162
2162
2162
2163
2163
2163
2161
2161
2161
2163
2163
2163
2157
2157
2157
2163
2163
2163
2163
2164
2164
2164
2159
2159
2159
2164
2164
2164
2160
2160
2160
2165
2165
2165
2165
2161
2161
2161
2159
2159
2159
2165
2165
2165
2157
2157
2157
2163
2163
2163
2163
2156
2156
2156
2159
2159
2159
2162
2162
2162
2159
2159
2159
2162
2162
2162
2162
2157
2157
2157
2154
2154
2154
2162
2162
2162
2160
2160
2160
2158
2158
2158
2158
2164
2164
2164
2160
2160
2160
2163
2163
2163
2159
2159
2159
2161
2161
2161
2161
2162
2162
2162
2159
2159
2159
2165
2165
2165
2157
2157
2157
2162
2162
2162
2162
2161
2161
2161
2158
2158
2158
2162
2162
2162
2158
2158
2158
2160
2160
2160
2160
2163
2163
2163
2161
2161
2161
2163
2163
2163
2158
2158
2158
2163
2163
2163
2163
2161
2161
2161
2160
2160
2160
2166
2166
2166
2159
2159
2159
2162
2162
2162
2162
2162
2162
2162
2162
2162
2162
2164
2164
2164
2161
2161
2161
2166
2166
2166
2166
2163
2163
2163
2158
2158
2158
2157
2157
2157
2158
2158
2158
2161
2161
2161
2161
2163
2163
2163
2158
2158
2158
2165
2165
2165
2156
2156
2156
2167
2167
2167
2167
2162
2162
2162
2157
2157
2157
2168
2168
2168
2155
2155
2155
2166
2166
2166
2166
2163
2163
2163
2159
2159
2159
2162
2162
2162
2160
2160
2160
2163
2163
2163
2163
2160
2160
2160
2159
2159
2159
2163
2163
2163
2161
2161
2161
2162
2162
2162
2162
2160
2160
2160
2161
2161
2161
2165
2165
2165
2161
2161
2161
2162
2162
2162
2162
2163
2163
2163
2161
2161
2161
2163
2163
2163
2162
2162
2162
2162
2162
2162
2162
2163
2163
2163
2157
2157
2157
2162
2162
2162
2161
2161
2161
2165
2165
2165
2165
2165
2165
2165
2155
2155
2155
2164
2164
2164
2157
2157
2157
2161
2161
2161
2161
2162
2162
2162
2158
2158
2158
2161
2161
2161
2161
2161
2161
2166
2166
2166
2166
2162
2162
2162
2162
2162
2162
2165
2165
2165
2157
2157
2157
2166
2166
2166
2166
2160
2160
2160
2158
2158
2158
2162
2162
2162
2159
2159
2159
2162
2162
2162
2162
2162
2162
2162
2157
2157
2157
2165
2165
2165
2159
2159
2159
2162
2162
2162
2162
2162
2162
2162
2159
2159
2159
2163
2163
2163
2162
2162
2162
2165
2165
2165
2165
2161
2161
2161
2159
2159
2159
2163
2163
2163
2160
2160
2160
2163
2163
2163
2163
2166
2166
2166
2161
2161
2161
2161
2161
2161
2157
2157
2157
2165
2165
2165
2165
2162
2162
2162
2160
2160
2160
2162
2162
2162
2159
2159
2159
2154
2154
2154
2154
2163
2163
2163
2161
2161
2161
2162
2162
2162
2160
2160
2160
2164
2164
2164
2164
2162
2162
2162
2159
2159
2159
2159
2159
2159
2160
2160
2160
2161
2161
2161
2161
2162
2162
2162
2159
2159
2159
2166
2166
2166
2159
2159
2159
2162
2162
2162
2162
2162
2162
2162
2159
2159
2159
2162
2162
2162
2159
2159
2159
2165
2165
2165
2165
2161
2161
2161
2158
2158
2158
2164
2164
2164
2158
2158
2158
2162
2162
2162
2162
2161
2161
2161
2156
2156
2156
2157
2157
2157
2158
2158
2158
2163
2163
2163
2163
2160
2160
2160
2159
2159
2159
2162
2162
2162
2158
2158
2158
2164
2164
2164
2164
2161
2161
2161
2159
2159
2159
2163
2163
2163
2156
2156
2156
2165
2165
2165
2165
2163
2163
2163
2160
2160
2160
2164
2164
2164
2157
2157
2157
2164
2164
2164
2164
2164
2164
2164
2161
2161
2161
2164
2164
2164
2159
2159
2159
2160
2160
2160
2160
2164
2164
2164
2159
2159
2159
2168
2168
2168
2160
2160
2160
2165
2165
2165
2165
2162
2162
2162
2161
2161
2161
2163
2163
2163
2158
2158
2158
2162
2162
2162
2162
2163
2163
2163
2161
2161
2161
2162
2162
2162
2159
2159
2159
2163
2163
2163
2163
2161
2161
2161
2161
2161
2161
2162
2162
2162
2158
2158
2158
2162
2162
2162
2162
2164
2164
2164
2158
2158
2158
2158
2158
2158
2162
2162
2162
2163
2163
2163
2163
2161
2161
2161
2151
2151
2151
2172
2172
2172
2168
2168
2168
2160
2160
2160
2160
2161
2161
2161
2157
2157
2157
2164
2164
2164
2159
2159
2159
2167
2167
2167
2167
2159
2159
2159
2158
2158
2158
2165
2165
2165
2158
2158
2158
2163
2163
2163
2163
2162
2162
2162
2160
2160
2160
2163
2163
2163
2157
2157
2157
2161
2161
2161
2161
2165
2165
2165
2161
2161
2161
2163
2163
2163
2160
2160
2160
2160
2160
2160
2160
2163
2163
2163
2159
2159
2159
2161
2161
2161
2156
2156
2156
2163
2163
2163
2163
2156
2156
2156
2160
2160
2160
2163
2163
2163
2161
2161
2161
2162
2162
2162
2162
2163
2163
2163
2159
2159
2159
2159
2159
2159
2157
2157
2157
2161
2161
2161
2161
2163
2163
2163
2154
2154
2154
2162
2162
2162
2159
2159
2159
2158
2158
2158
2158
2165
2165
2165
2159
2159
2159
2162
2162
2162
2156
2156
2156
2162
2162
2162
2162
2163
2163
2163
2160
2160
2160
2163
2163
2163
2159
2159
2159
2162
2162
2162
2162
2162
2162
2162
2157
2157
2157
2163
2163
2163
2159
2159
2159
2159
2159
2159
2159
2164
2164
2164
2161
2161
2161
2164
2164
2164
2161
2161
2161
2161
2161
2161
2161
2167
2167
2167
2160
2160
2160
2164
2164
2164
2156
2156
2156
2160
2160
2160
2160
2164
2164
2164
2166
2166
2166
2162
2162
2162
2155
2155
2155
2162
2162
2162
2162
2160
2160
2160
2162
2162
2162
2162
2162
2162
2157
2157
2157
2163
2163
2163
2163
2161
2161
2161
2161
2161
2161
2165
2165
2165
2155
2155
2155
2161
2161
2161
2161
2162
2162
2162
2158
2158
2158
2164
2164
2164
2160
2160
2160
2163
2163
2163
2163
2161
2161
2161
2156
2156
2156
2163
2163
2163
2162
2162
2162
2157
2157
2157
2157
2158
2158
2158
2160
2160
2160
2163
2163
2163
2161
2161
2161
2163
2163
2163
2163
2167
2167
2167
2157
2157
2157
2166
2166
2166
2156
2156
2156
2163
2163
2163
2163
2163
2163
2163
2157
2157
2157
2161
2161
2161
2162
2162
2162
2159
2159
2159
2159
2164
2164
2164
2159
2159
2159
2163
2163
2163
2160
2160
2160
2163
2163
2163
2163
2163
2163
2163
2158
2158
2158
2163
2163
2163
2159
2159
2159
2165
2165
2165
2165
2166
2166
2166
2160
2160
2160
2162
2162
2162
2158
2158
2158
2160
2160
2160
2160
2162
2162
2162
2160
2160
2160
2162
2162
2162
2159
2159
2159
2162
2162
2162
2162
2163
2163
2163
2157
2157
2157
2163
2163
2163
2161
2161
2161
2162
2162
2162
2162
2163
2163
2163
2159
2159
2159
2161
2161
2161
2159
2159
2159
2163
2163
2163
2163
2162
2162
2162
2161
2161
2161
2165
2165
2165
2160
2160
2160
2161
2161
2161
2161
2168
2168
2168
2159
2159
2159
2162
2162
2162
2160
2160
2160
2162
2162
2162
2162
2161
2161
2161
2157
2157
2157
2165
2165
2165
2157
2157
2157
2164
2164
2164
2164
2163
2163
2163
2158
2158
2158
2162
2162
2162
2157
2157
2157
2161
2161
2161
2161
2162
2162
2162
2159
2159
2159
2163
2163
2163
2157
2157
2157
2163
2163
2163
2163
2163
2163
2163
2159
2159
2159
2163
2163
2163
2159
2159
2159
2161
2161
2161
2161
2161
2161
2161
2169
2169
2169
2172
2172
2172
2157
2157
2157
2163
2163
2163
2163
2159
2159
2159
2154
2154
2154
2167
2167
2167
2159
2159
2159
2161
2161
2161
2161
2160
2160
2160
2160
2160
2160
2161
2161
2161
2161
2161
2161
2168
2168
2168
2168
2163
2163
2163
2158
2158
2158
2161
2161
2161
2162
2162
2162
2165
2165
2165
2165
2162
2162
2162
2159
2159
2159
2163
2163
2163
2159
2159
2159
2168
2168
2168
2168
2162
2162
2162
2160
2160
2160
2164
2164
2164
2155
2155
2155
2165
2165
2165
2165
2161
2161
2161
2159
2159
2159
2160
2160
2160
2159
2159
2159
2161
2161
2161
2161
2163
2163
2163
2159
2159
2159
2162
2162
2162
2159
2159
2159
2162
2162
2162
2162
2161
2161
2161
2158
2158
2158
2164
2164
2164
2158
2158
2158
2162
2162
2162
2162
2164
2164
2164
2158
2158
2158
2160
2160
2160
2158
2158
2158
2160
2160
2160
2160
2161
2161
2161
2163
2163
2163
2166
2166
2166
2159
2159
2159
2163
2163
2163
2163
2161
2161
2161
2160
2160
2160
2165
2165
2165
2162
2162
2162
2162
2162
2162
2162
2161
2161
2161
2161
2161
2161
2165
2165
2165
2163
2163
2163
2168
2168
2168
2168
2165
2165
2165
2160
2160
2160
2162
2162
2162
2159
2159
2159
2162
2162
2162
2162
2163
2163
2163
2156
2156
2156
2160
2160
2160
2161
2161
2161
2164
2164
2164
2164
2165
2165
2165
2162
2162
2162
2162
2162
2162
2161
2161
2161
2163
2163
2163
2163
2161
2161
2161
2158
2158
2158
2162
2162
2162
2158
2158
2158
2161
2161
2161
2161
2163
2163
2163
2161
2161
2161
2163
2163
2163
2161
2161
2161
2161
2161
2161
2161
2165
2165
2165
2158
2158
2158
2164
2164
2164
2162
2162
2162
2163
2163
2163
2163
2161
2161
2161
2152
2152
2152
2164
2164
2164
2156
2156
2156
2162
2162
2162
2162
2160
2160
2160
2160
2160
2160
2162
2162
2162
2158
2158
2158
2163
2163
2163
2163
2164
2164
2164
2158
2158
2158
2166
2166
2166
2157
2157
2157
2149
2149
2149
2149
2166
2166
2166
2159
2159
2159
2162
2162
2162
2159
2159
2159
2163
2163
2163
2163
2163
2163
2163
2158
2158
2158
2165
2165
2165
2157
2157
2157
2163
2163
2163
2163
2162
2162
2162
2163
2163
2163
2162
2162
2162
2160
2160
2160
2164
2164
2164
2164
2163
2163
2163
2159
2159
2159
2163
2163
2163
2162
2162
2162
2165
2165
2165
2165
2156
2156
2156
2159
2159
2159
2159
2159
2159
2160
2160
2160
2163
2163
2163
2163
2159
2159
2159
2162
2162
2162
2161
2161
2161
2160
2160
2160
2163
2163
2163
2163
2164
2164
2164
2159
2159
2159
2165
2165
2165
2158
2158
2158
2160
2160
2160
2160
2163
2163
2163
2159
2159
2159
2163
2163
2163
2163
2163
2163
2164
2164
2164
2164
2161
2161
2161
2157
2157
2157
2159
2159
2159
2159
2159
2159
2163
2163
2163
2163
2161
2161
2161
2158
2158
2158
2163
2163
2163
2158
2158
2158
2164
2164
2164
2164
2163
2163
2163
2158
2158
2158
2161
2161
2161
2159
2159
2159
2165
2165
2165
2165
2169
2169
2169
2156
2156
2156
2164
2164
2164
2158
2158
2158
2160
2160
2160
2160
2161
2161
2161
2155
2155
2155
2159
2159
2159
2156
2156
2156
2162
2162
2162
2162
2161
2161
2161
2159
2159
2159
2167
2167
2167
2155
2155
2155
2162
2162
2162
2162
2160
2160
2160
2159
2159
2159
2161
2161
2161
2161
2161
2161
2161
2161
2161
2161
2162
2162
2162
2157
2157
2157
2162
2162
2162
2160
2160
2160
2164
2164
2164
2164
2163
2163
2163
2160
2160
2160
2161
2161
2161
2162
2162
2162
2164
2164
2164
2164
2164
2164
2164
2159
2159
2159
2161
2161
2161
2164
2164
2164
2161
2161
2161
2161
2162
2162
2162
2159
2159
2159
2160
2160
2160
2157
2157
2157
2165
2165
2165
2165
2162
2162
2162
2156
2156
2156
2165
2165
2165
2158
2158
2158
2165
2165
2165
2165
2163
2163
2163
2161
2161
2161
2159
2159
2159
2158
2158
2158
2165
2165
2165
2165
2159
2159
2159
2158
2158
2158
2161
2161
2161
2159
2159
2159
2163
2163
2163
2163
2163
2163
2163
2160
2160
2160
2164
2164
2164
2159
2159
2159
2164
2164
2164
2164
2160
2160
2160
2157
2157
2157
2162
2162
2162
2157
2157
2157
2166
2166
2166
2166
2159
2159
2159
2152
2152
2152
2159
2159
2159
2154
2154
2154
2161
2161
2161
2161
2163
2163
2163
2155
2155
2155
2162
2162
2162
2153
2153
2153
2158
2158
2158
2158
2162
2162
2162
2162
2162
2162
2159
2159
2159
2159
2159
2159
2162
2162
2162
2162
2165
2165
2165
2161
2161
2161
2161
2161
2161
2158
2158
2158
2160
2160
2160
2160
2161
2161
2161
2160
2160
2160
2163
2163
2163
2160
2160
2160
2162
2162
2162
2162
2162
2162
2162
2158
2158
2158
2163
2163
2163
2159
2159
2159
2162
2162
2162
2162
2162
2162
2162
2161
2161
2161
2163
2163
2163
2160
2160
2160
2164
2164
2164
2164
2161
2161
2161
2156
2156
2156
2162
2162
2162
2159
2159
2159
2162
2162
2162
2162
2160
2160
2160
2157
2157
2157
2161
2161
2161
2151
2151
2151
2162
2162
2162
2162
2162
2162
2162
2159
2159
2159
2161
2161
2161
2161
2161
2161
2157
2157
2157
2157
2163
2163
2163
2161
2161
2161
2160
2160
2160
2160
2160
2160
2163
2163
2163
2163
2162
2162
2162
2159
2159
2159
2163
2163
2163
2160
2160
2160
2166
2166
2166
2166
2158
2158
2158
2157
2157
2157
2163
2163
2163
2161
2161
2161
2163
2163
2163
2163
2162
2162
2162
2159
2159
2159
2162
2162
2162
2161
2161
2161
2162
2162
2162
2162
2163
2163
2163
2165
2165
2165
2165
2165
2165
2161
2161
2161
2161
2161
2161
2161
2162
2162
2162
2157
2157
2157
2161
2161
2161
2155
2155
2155
2165
2165
2165
2165
2163
2163
2163
2158
2158
2158
2164
2164
2164
2162
2162
2162
2164
2164
2164
2164
2162
2162
2162
2158
2158
2158
2165
2165
2165
2157
2157
2157
2162
2162
2162
2162
2160
2160
2160
2158
2158
2158
2161
2161
2161
2160
2160
2160
2166
2166
2166
2166
2164
2164
2164
2160
2160
2160
2163
2163
2163
2159
2159
2159
2160
2160
2160
2160
2162
2162
2162
2163
2163
2163
2162
2162
2162
2159
2159
2159
2163
2163
2163
2163
2166
2166
2166
2155
2155
2155
2163
2163
2163
2162
2162
2162
2159
2159
2159
2159
2163
2163
2163
2161
2161
2161
2164
2164
2164
2161
2161
2161
2167
2167
2167
2167
2163
2163
2163
2159
2159
2159
2160
2160
2160
2157
2157
2157
2160
2160
2160
2160
2163
2163
2163
2159
2159
2159
2167
2167
2167
2158
2158
2158
2161
2161
2161
2161
2164
2164
2164
2161
2161
2161
2163
2163
2163
2159
2159
2159
2164
2164
2164
2164
2160
2160
2160
2157
2157
2157
2164
2164
2164
2158
2158
2158
2160
2160
2160
2160
2159
2159
2159
2161
2161
2161
2162
2162
2162
2157
2157
2157
2162
2162
2162
2162
2155
2155
2155
2159
2159
2159
2161
2161
2161
2158
2158
2158
2163
2163
2163
2163
2163
2163
2163
2157
2157
2157
2164
2164
2164
2160
2160
2160
2157
2157
2157
2157
2163
2163
2163
2161
2161
2161
2160
2160
2160
2161
2161
2161
2163
2163
2163
2163
2162
2162
2162
2158
2158
2158
2165
2165
2165
2154
2154
2154
2164
2164
2164
2164
2163
2163
2163
2158
2158
2158
2166
2166
2166
2157
2157
2157
2162
2162
2162
2162
2162
2162
2162
2156
2156
2156
2164
2164
2164
2159
2159
2159
2159
2159
2159
2159
2164
2164
2164
2160
2160
2160
2163
2163
2163
2160
2160
2160
2165
2165
2165
2165
2161
2161
2161
2159
2159
2159
2164
2164
2164
2169
2169
2169
2161
2161
2161
2161
2159
2159
2159
2162
2162
2162
2164
2164
2164
2163
2163
2163
2163
2163
2163
2163
2161
2161
2161
2159
2159
2159
2162
2162
2162
2160
2160
2160
2164
2164
2164
2164
2163
2163
2163
2159
2159
2159
2163
2163
2163
2162
2162
2162
2163
2163
2163
2163
2162
2162
2162
2157
2157
2157
2160
2160
2160
2159
2159
2159
2162
2162
2162
2162
2162
2162
2162
2161
2161
2161
2164
2164
2164
2158
2158
2158
2163
2163
2163
2163
2161
2161
2161
2154
2154
2154
2164
2164
2164
2159
2159
2159
2164
2164
2164
2164
2161
2161
2161
2159
2159
2159
2165
2165
2165
2161
2161
2161
2161
2161
2161
2161
2161
2161
2161
2159
2159
2159
2162
2162
2162
2158
2158
2158
2161
2161
2161
2161
2162
2162
2162
2160
2160
2160
2160
2160
2160
2160
2160
2160
2160
2160
2160
2160
2172
2172
2172
2159
2159
2159
2164
2164
2164
2159
2159
2159
2163
2163
2163
2163
2162
2162
2162
2158
2158
2158
2163
2163
2163
2159
2159
2159
2163
2163
2163
2163
2162
2162
2162
2161
2161
2161
2163
2163
2163
2154
2154
2154
2161
2161
2161
2161
2161
2161
2161
2159
2159
2159
2169
2169
2169
2155
2155
2155
2164
2164
2164
2164
2160
2160
2160
2159
2159
2159
2164
2164
2164
2159
2159
2159
2163
2163
2163
2163
2162
2162
2162
2158
2158
2158
2161
2161
2161
2161
2161
2161
2161
2161
2161
2161
2162
2162
2162
2160
2160
2160
2160
2160
2160
2159
2159
2159
2165
2165
2165
2165
2163
2163
2163
2160
2160
2160
2165
2165
2165
2159
2159
2159
2162
2162
2162
2162
2160
2160
2160
2159
2159
2159
2161
2161
2161
2159
2159
2159
2160
2160
2160
2160
2166
2166
2166
2160
2160
2160
2163
2163
2163
2155
2155
2155
2163
2163
2163
2163
2162
2162
2162
2157
2157
2157
2163
2163
2163
2161
2161
2161
2161
2161
2161
2161
2164
2164
2164
2157
2157
2157
2164
2164
2164
2158
2158
2158
2165
2165
2165
2165
2163
2163
2163
2155
2155
2155
2163
2163
2163
2160
2160
2160
2161
2161
2161
2161
2162
2162
2162
2159
2159
2159
2162
2162
2162
2160
2160
2160
2162
2162
2162
2162
2165
2165
2165
2159
2159
2159
2163
2163
2163
2157
2157
2157
2163
2163
2163
2163
2163
2163
2163
2160
2160
2160
2171
2171
2171
2159
2159
2159
2162
2162
2162
2162
2161
2161
2161
2159
2159
2159
2163
2163
2163
2159
2159
2159
2170
2170
2170
2170
2159
2159
2159
2159
2159
2159
2161
2161
2161
2158
2158
2158
2162
2162
2162
2162
2161
2161
2161
2159
2159
2159
2164
2164
2164
2161
2161
2161
2165
2165
2165
2165
2163
2163
2163
2159
2159
2159
2164
2164
2164
2158
2158
2158
2162
2162
2162
2162
2161
2161
2161
2158
2158
2158
2163
2163
2163
2158
2158
2158
2159
2159
2159
2159
2165
2165
2165
2155
2155
2155
2164
2164
2164
2159
2159
2159
2164
2164
2164
2164
2163
2163
2163
2160
2160
2160
2162
2162
2162
2160
2160
2160
2166
2166
2166
2166
2164
2164
2164
2157
2157
2157
2158
2158
2158
2158
2158
2158
2163
2163
2163
2163
2162
2162
2162
2159
2159
2159
2163
2163
2163
2160
2160
2160
2167
2167
2167
2167
2163
2163
2163
2156
2156
2156
2162
2162
2162
2157
2157
2157
2163
2163
2163
2163
2166
2166
2166
2157
2157
2157
2163
2163
2163
2157
2157
2157
2163
2163
2163
2163
2160
2160
2160
2159
2159
2159
2164
2164
2164
2160
2160
2160
2159
2159
2159
2159
2162
2162
2162
2157
2157
2157
2161
2161
2161
2160
2160
2160
2161
2161
2161
2161
2163
2163
2163
2159
2159
2159
2162
2162
2162
2157
2157
2157
2163
2163
2163
2163
2161
2161
2161
2160
2160
2160
2164
2164
2164
2158
2158
2158
2162
2162
2162
2162
2163
2163
2163
2161
2161
2161
2160
2160
2160
2160
2160
2160
2162
2162
2162
2162
2162
2162
2162
2158
2158
2158
2164
2164
2164
2159
2159
2159
2164
2164
2164
2164
2165
2165
2165
2161
2161
2161
2156
2156
2156
2157
2157
2157
2160
2160
2160
2160
2165
2165
2165
2161
2161
2161
2165
2165
2165
2154
2154
2154
2165
2165
2165
2165
2161
2161
2161
2159
2159
2159
2161
2161
2161
2161
2161
2161
2157
2157
2157
2157
2163
2163
2163
2156
2156
2156
2163
2163
2163
2159
2159
2159
2162
2162
2162
2162
2166
2166
2166
2158
2158
2158
2165
2165
2165
2160
2160
2160
2163
2163
2163
2163
2161
2161
2161
2159
2159
2159
2161
2161
2161
2158
2158
2158
2163
2163
2163
2163
2161
2161
2161
2162
2162
2162
2158
2158
2158
2161
2161
2161
2168
2168
2168
2168
2161
2161
2161
2160
2160
2160
2162
2162
2162
2161
2161
2161
2166
2166
2166
2166
2162
2162
2162
2159
2159
2159
2162
2162
2162
2159
2159
2159
2164
2164
2164
2164
2161
2161
2161
2159
2159
2159
2164
2164
2164
2156
2156
2156
2162
2162
2162
2162
2162
2162
2162
2158
2158
2158
2164
2164
2164
2159
2159
2159
2164
2164
2164
2164
2160
2160
2160
2161
2161
2161
2162
2162
2162
2159
2159
2159
2163
2163
2163
2163
2166
2166
2166
2161
2161
2161
2159
2159
2159
2158
2158
2158
2161
2161
2161
2161
2162
2162
2162
2162
2162
2162
2161
2161
2161
2159
2159
2159
2164
2164
2164
2164
2163
2163
2163
2157
2157
2157
2165
2165
2165
2162
2162
2162
2165
2165
2165
2165
2161
2161
2161
2157
2157
2157
2162
2162
2162
2160
2160
2160
2159
2159
2159
2159
2163
2163
2163
2161
2161
2161
2162
2162
2162
2160
2160
2160
2165
2165
2165
2165
2164
2164
2164
2159
2159
2159
2162
2162
2162
2164
2164
2164
2163
2163
2163
2163
2164
2164
2164
2155
2155
2155
2161
2161
2161
2157
2157
2157
2163
2163
2163
2163
2163
2163
2163
2155
2155
2155
2160
2160
2160
2158
2158
2158
2158
2158
2158
2158
2163
2163
2163
2157
2157
2157
2163
2163
2163
2161
2161
2161
2162
2162
2162
2162
2160
2160
2160
2160
2160
2160
2162
2162
2162
2161
2161
2161
2162
2162
2162
2162
2161
2161
2161
2159
2159
2159
2161
2161
2161
2159
2159
2159
2161
2161
2161
2161
2163
2163
2163
2159
2159
2159
2156
2156
2156
2159
2159
2159
2164
2164
2164
2164
2166
2166
2166
2160
2160
2160
2160
2160
2160
2155
2155
2155
2159
2159
2159
2159
2161
2161
2161
2159
2159
2159
2165
2165
2165
2157
2157
2157
2156
2156
2156
2156
2163
2163
2163
2159
2159
2159
2164
2164
2164
2156
2156
2156
2167
2167
2167
2167
2163
2163
2163
2157
2157
2157
2159
2159
2159
2160
2160
2160
2165
2165
2165
2165
2162
2162
2162
2161
2161
2161
2163
2163
2163
2159
2159
2159
2162
2162
2162
2162
2159
2159
2159
2161
2161
2161
2162
2162
2162
2158
2158
2158
2161
2161
2161
2161
2164
2164
2164
2159
2159
2159
2165
2165
2165
2156
2156
2156
2161
2161
2161
2161
2163
2163
2163
2161
2161
2161
2165
2165
2165
2159
2159
2159
2166
2166
2166
2166
2161
2161
2161
2160
2160
2160
2162
2162
2162
2161
2161
2161
2164
2164
2164
2164
2163
2163
2163
2160
2160
2160
2163
2163
2163
2159
2159
2159
2160
2160
2160
2160
2163
2163
2163
2160
2160
2160
2163
2163
2163
2162
2162
2162
2164
2164
2164
2164
2169
2169
2169
2159
2159
2159
2158
2158
2158
2159
2159
2159
2162
2162
2162
2162
2161
2161
2161
2160
2160
2160
2164
2164
2164
2158
2158
2158
2158
2158
2158
2158
2162
2162
2162
2155
2155
2155
2165
2165
2165
2159
2159
2159
2161
2161
2161
2161
2168
2168
2168
2160
2160
2160
2165
2165
2165
2159
2159
2159
2161
2161
2161
2161
2164
2164
2164
2162
2162
2162
2163
2163
2163
2156
2156
2156
2162
2162
2162
2162
2162
2162
2162
2158
2158
2158
2165
2165
2165
2159
2159
2159
2164
2164
2164
2164
2165
2165
2165
2156
2156
2156
2160
2160
2160
2158
2158
2158
2160
2160
2160
2160
2162
2162
2162
2159
2159
2159
2160
2160
2160
2170
2170
2170
2164
2164
2164
2164
2163
2163
2163
2157
2157
2157
2162
2162
2162
2157
2157
2157
2163
2163
2163
2163
2162
2162
2162
2159
2159
2159
2163
2163
2163
2158
2158
2158
2163
2163
2163
2163
2163
2163
2163
2161
2161
2161
2157
2157
2157
2160
2160
2160
2163
2163
2163
2163
2162
2162
2162
2155
2155
2155
2163
2163
2163
2161
2161
2161
2163
2163
2163
2163
2165
2165
2165
2158
2158
2158
2162
2162
2162
2159
2159
2159
2163
2163
2163
2163
2161
2161
2161
2164
2164
2164
2164
2164
2164
2159
2159
2159
2166
2166
2166
2166
2164
2164
2164
2158
2158
2158
2162
2162
2162
2161
2161
2161
2163
2163
2163
2163
2163
2163
2163
2158
2158
2158
2162
2162
2162
2160
2160
2160
2165
2165
2165
2165
2161
2161
2161
2158
2158
2158
2161
2161
2161
2158
2158
2158
2163
2163
2163
2163
2159
2159
2159
2159
2159
2159
2161
2161
2161
2161
2161
2161
2164
2164
2164
2164
2163
2163
2163
2158
2158
2158
2161
2161
2161
2159
2159
2159
2162
2162
2162
2162
2166
2166
2166
2165
2165
2165
2161
2161
2161
2160
2160
2160
2161
2161
2161
2161
2159
2159
2159
2161
2161
2161
2166
2166
2166
2159
2159
2159
2165
2165
2165
2165
2167
2167
2167
2159
2159
2159
2163
2163
2163
2159
2159
2159
2162
2162
2162
2162
2159
2159
2159
2159
2159
2159
2163
2163
2163
2159
2159
2159
2163
2163
2163
2163
2165
2165
2165
2158
2158
2158
2163
2163
2163
2160
2160
2160
2161
2161
2161
2161
2167
2167
2167
2156
2156
2156
2161
2161
2161
2162
2162
2162
2162
2162
2162
2162
2162
2162
2162
2158
2158
2158
2161
2161
2161
2165
2165
2165
2162
2162
2162
2162
2161
2161
2161
2161
2161
2161
2159
2159
2159
2160
2160
2160
2164
2164
2164
2164
2162
2162
2162
2160
2160
2160
2165
2165
2165
2160
2160
2160
2162
2162
2162
2162
2162
2162
2162
2156
2156
2156
2163
2163
2163
2159
2159
2159
2164
2164
2164
2164
2155
2155
2155
2161
2161
2161
2164
2164
2164
2160
2160
2160
2165
2165
2165
2165
2162
2162
2162
2157
2157
2157
2163
2163
2163
2161
2161
2161
2161
2161
2161
2161
2171
2171
2171
2158
2158
2158
2164
2164
2164
2158
2158
2158
2162
2162
2162
2162
2163
2163
2163
2161
2161
2161
2165
2165
2165
2161
2161
2161
2165
2165
2165
2165
2163
2163
2163
2160
2160
2160
2163
2163
2163
2159
2159
2159
2160
2160
2160
2160
2162
2162
2162
2158
2158
2158
2163
2163
2163
2161
2161
2161
2162
2162
2162
2162
2164
2164
2164
2175
2175
2175
2167
2167
2167
2162
2162
2162
2168
2168
2168
2168
2161
2161
2161
2161
2161
2161
2160
2160
2160
2154
2154
2154
2161
2161
2161
2161
2163
2163
2163
2163
2163
2163
2163
2163
2163
2160
2160
2160
2161
2161
2161
2161
2163
2163
2163
2161
2161
2161
2162
2162
2162
2159
2159
2159
2163
2163
2163
2163
2160
2160
2160
2158
2158
2158
2162
2162
2162
2160
2160
2160
2162
2162
2162
2162
2161
2161
2161
2157
2157
2157
2162
2162
2162
2161
2161
2161
2163
2163
2163
2163
2160
2160
2160
2158
2158
2158
2161
2161
2161
2164
2164
2164
2161
2161
2161
2161
2162
2162
2162
2158
2158
2158
2161
2161
2161
2157
2157
2157
2161
2161
2161
2161
2162
2162
2162
2159
2159
2159
2155
2155
2155
2158
2158
2158
2166
2166
2166
2166
2161
2161
2161
2160
2160
2160
2163
2163
2163
2158
2158
2158
2156
2156
2156
2156
2161
2161
2161
2157
2157
2157
2167
2167
2167
2159
2159
2159
2159
2159
2159
2159
2161
2161
2161
2159
2159
2159
2162
2162
2162
2160
2160
2160
2162
2162
2162
2162
2162
2162
2162
2153
2153
2153
2159
2159
2159
2156
2156
2156
2166
2166
2166
2166
2163
2163
2163
2159
2159
2159
2161
2161
2161
2156
2156
2156
2162
2162
2162
2162
2161
2161
2161
2161
2161
2161
2160
2160
2160
2156
2156
2156
2163
2163
2163
2163
2161
2161
2161
2155
2155
2155
2164
2164
2164
2159
2159
2159
2162
2162
2162
2162
2159
2159
2159
2159
2159
2159
2164
2164
2164
2151
2151
2151
2162
2162
2162
2162
2160
2160
2160
2157
2157
2157
2163
2163
2163
2160
2160
2160
2163
2163
2163
2163
2160
2160
2160
2159
2159
2159
2161
2161
2161
2162
2162
2162
2159
2159
2159
2159
2161
2161
2161
2158
2158
2158
2163
2163
2163
2160
2160
2160
2163
2163
2163
2163
2161
2161
2161
2161
2161
2161
2165
2165
2165
2161
2161
2161
2165
2165
2165
2165
2162
2162
2162
2159
2159
2159
2161
2161
2161
2161
2161
2161
2162
2162
2162
2162
2163
2163
2163
2161
2161
2161
2163
2163
2163
2158
2158
2158
2163
2163
2163
2163
2166
2166
2166
2161
2161
2161
2163
2163
2163
2156
2156
2156
2155
2155
2155
2155
2159
2159
2159
2155
2155
2155
2162
2162
2162
2159
2159
2159
2160
2160
2160
2160
2162
2162
2162
2157
2157
2157
2162
2162
2162
2161
2161
2161
2160
2160
2160
2160
2162
2162
2162
2159
2159
2159
2165
2165
2165
2159
2159
2159
2163
2163
2163
2163
2161
2161
2161
2156
2156
2156
2159
2159
2159
2171
2171
2171
2155
2155
2155
2155
2161
2161
2161
2159
2159
2159
2159
2159
2159
2159
2159
2159
2160
2160
2160
2160
2161
2161
2161
2158
2158
2158
2163
2163
2163
2158
2158
2158
2164
2164
2164
2164
2163
2163
2163
2155
2155
2155
2160
2160
2160
2156
2156
2156
2163
2163
2163
2163
2158
2158
2158
2163
2163
2163
2164
2164
2164
2160
2160
2160
2164
2164
2164
2164
2162
2162
2162
2161
2161
2161
2162
2162
2162
2161
2161
2161
2153
2153
2153
2153
2159
2159
2159
2159
2159
2159
2162
2162
2162
2160
2160
2160
2163
2163
2163
2163
2158
2158
2158
2160
2160
2160
2163
2163
2163
2157
2157
2157
2162
2162
2162
2162
2159
2159
2159
2168
2168
2168
2166
2166
2166
2166
2166
2166
2159
2159
2159
2159
2162
2162
2162
2159
2159
2159
2162
2162
2162
2157
2157
2157
2160
2160
2160
2160
2163
2163
2163
2160
2160
2160
2160
2160
2160
2157
2157
2157
2163
2163
2163
2163
2162
2162
2162
2161
2161
2161
2162
2162
2162
2159
2159
2159
2163
2163
2163
2163
2157
2157
2157
2161
2161
2161
2162
2162
2162
2165
2165
2165
2157
2157
2157
2157
2164
2164
2164
2160
2160
2160
2163
2163
2163
2156
2156
2156
2160
2160
2160
2160
2161
2161
2161
2159
2159
2159
2161
2161
2161
2159
2159
2159
2163
2163
2163
2163
2160
2160
2160
2158
2158
2158
2157
2157
2157
2158
2158
2158
2163
2163
2163
2163
2163
2163
2163
2164
2164
2164
2158
2158
2158
2160
2160
2160
2160
2160
2160
2160
2162
2162
2162
2160
2160
2160
2163
2163
2163
2157
2157
2157
2163
2163
2163
2163
2163
2163
2163
2166
2166
2166
2164
2164
2164
2158
2158
2158
2166
2166
2166
2166
2162
2162
2162
2158
2158
2158
2160
2160
2160
2160
2160
2160
2159
2159
2159
2159
2169
2169
2169
2159
2159
2159
2162
2162
2162
2158
2158
2158
2161
2161
2161
2161
2161
2161
2161
2157
2157
2157
2163
2163
2163
2160
2160
2160
2161
2161
2161
2161
2163
2163
2163
2158
2158
2158
2161
2161
2161
2160
2160
2160
2165
2165
2165
2165
2155
2155
2155
2159
2159
2159
2162
2162
2162
2160
2160
2160
2167
2167
2167
2167
2161
2161
2161
2158
2158
2158
2164
2164
2164
2161
2161
2161
2162
2162
2162
2162
2163
2163
2163
2155
2155
2155
2163
2163
2163
2159
2159
2159
2165
2165
2165
2165
2163
2163
2163
2159
2159
2159
2163
2163
2163
2164
2164
2164
2162
2162
2162
2162
2160
2160
2160
2157
2157
2157
2165
2165
2165
2161
2161
2161
2164
2164
2164
2164
2164
2164
2164
2158
2158
2158
2163
2163
2163
2160
2160
2160
2161
2161
2161
2161
2162
2162
2162
2160
2160
2160
2163
2163
2163
2158
2158
2158
2164
2164
2164
2164
2163
2163
2163
2158
2158
2158
2155
2155
2155
2159
2159
2159
2160
2160
2160
2160
2163
2163
2163
2159
2159
2159
2160
2160
2160
2159
2159
2159
2164
2164
2164
2164
2160
2160
2160
2159
2159
2159
2164
2164
2164
2160
2160
2160
2162
2162
2162
2162
2160
2160
2160
2158
2158
2158
2163
2163
2163
2161
2161
2161
2161
2161
2161
2161
2158
2158
2158
2159
2159
2159
2163
2163
2163
2159
2159
2159
2164
2164
2164
2164
2164
2164
2164
2161
2161
2161
2162
2162
2162
2160
2160
2160
2162
2162
2162
2162
2162
2162
2162
2160
2160
2160
2162
2162
2162
2157
2157
2157
2163
2163
2163
2163
2161
2161
2161
2159
2159
2159
2161
2161
2161
2159
2159
2159
2163
2163
2163
2163
2161
2161
2161
2159
2159
2159
2160
2160
2160
2157
2157
2157
2166
2166
2166
2166
2161
2161
2161
2156
2156
2156
2162
2162
2162
2159
2159
2159
2169
2169
2169
2169
2160
2160
2160
2159
2159
2159
2162
2162
2162
2159
2159
2159
2165
2165
2165
2165
2164
2164
2164
2162
2162
2162
2164
2164
2164
2157
2157
2157
2164
2164
2164
2164
2161
2161
2161
2157
2157
2157
2163
2163
2163
2155
2155
2155
2159
2159
2159
2159
2159
2159
2159
2160
2160
2160
2160
2160
2160
2160
2160
2160
2162
2162
2162
2162
2161
2161
2161
2160
2160
2160
2162
2162
2162
2158
2158
2158
2162
2162
2162
2162
2161
2161
2161
2156
2156
2156
2159
2159
2159
2156
2156
2156
2168
2168
2168
2168
2162
2162
2162
2157
2157
2157
2163
2163
2163
2160
2160
2160
2161
2161
2161
2161
2161
2161
2161
2158
2158
2158
2163
2163
2163
2158
2158
2158
2164
2164
2164
2164
2163
2163
2163
2161
2161
2161
2161
2161
2161
2156
2156
2156
2163
2163
2163
2163
2162
2162
2162
2157
2157
2157
2163
2163
2163
2161
2161
2161
2163
2163
2163
2163
2163
2163
2163
2159
2159
2159
2160
2160
2160
2156
2156
2156
2163
2163
2163
2163
2162
2162
2162
2161
2161
2161
2162
2162
2162
2157
2157
2157
2163
2163
2163
2163
2163
2163
2163
2159
2159
2159
2160
2160
2160
2163
2163
2163
2161
2161
2161
2161
2160
2160
2160
2159
2159
2159
2164
2164
2164
2163
2163
2163
2160
2160
2160
2160
2162
2162
2162
2162
2162
2162
2162
2162
2162
2160
2160
2160
2165
2165
2165
2165
2162
2162
2162
2159
2159
2159
2162
2162
2162
2162
2162
2162
2164
2164
2164
2164
2159
2159
2159
2159
2159
2159
2159
2159
2159
2158
2158
2158
2170
2170
2170
2170
2164
2164
2164
2159
2159
2159
2163
2163
2163
2162
2162
2162
2161
2161
2161
2161
2163
2163
2163
2162
2162
2162
2167
2167
2167
2158
2158
2158
2163
2163
2163
2163
2165
2165
2165
2160
2160
2160
2168
2168
2168
2159
2159
2159
2162
2162
2162
2162
2167
2167
2167
2158
2158
2158
2163
2163
2163
2160
2160
2160
2164
2164
2164
2164
2160
2160
2160
2158
2158
2158
2164
2164
2164
2161
2161
2161
2162
2162
2162
2162
2162
2162
2162
2156
2156
2156
2162
2162
2162
2157
2157
2157
2160
2160
2160
2160
2162
2162
2162
2157
2157
2157
2162
2162
2162
2159
2159
2159
2162
2162
2162
2162
2164
2164
2164
2160
2160
2160
2162
2162
2162
2154
2154
2154
2165
2165
2165
2165
2163
2163
2163
2161
2161
2161
2162
2162
2162
2157
2157
2157
2164
2164
2164
2164
2159
2159
2159
2161
2161
2161
2163
2163
2163
2159
2159
2159
2162
2162
2162
2162
2162
2162
2162
2160
2160
2160
2166
2166
2166
2158
2158
2158
2161
2161
2161
2161
2163
2163
2163
2161
2161
2161
2164
2164
2164
2161
2161
2161
2163
2163
2163
2163
2161
2161
2161
2156
2156
2156
2160
2160
2160
2160
2160
2160
2166
2166
2166
2166
2164
2164
2164
2160
2160
2160
2162
2162
2162
2158
2158
2158
2167
2167
2167
2167
2161
2161
2161
2160
2160
2160
2161
2161
2161
2156
2156
2156
2163
2163
2163
2163
2160
2160
2160
2159
2159
2159
2162
2162
2162
2157
2157
2157
2164
2164
2164
2164
2162
2162
2162
2159
2159
2159
2164
2164
2164
2161
2161
2161
2163
2163
2163
2163
2163
2163
2163
2162
2162
2162
2167
2167
2167
2160
2160
2160
2160
2160
2160
2160
2161
2161
2161
2161
2161
2161
2162
2162
2162
2157
2157
2157
2163
2163
2163
2163
2162
2162
2162
2166
2166
2166
2162
2162
2162
2160
2160
2160
2163
2163
2163
2163
2159
2159
2159
2164
2164
2164
2160
2160
2160
2162
2162
2162
2165
2165
2165
2165
2164
2164
2164
2160
2160
2160
2163
2163
2163
2159
2159
2159
2162
2162
2162
2162
2161
2161
2161
2159
2159
2159
2162
2162
2162
2162
2162
2162
2159
2159
2159
2159
2162
2162
2162
2169
2169
2169
2158
2158
2158
2165
2165
2165
2165
2165
2165
2165
2161
2161
2161
2158
2158
2158
2160
2160
2160
2161
2161
2161
2165
2165
2165
2165
2161
2161
2161
2160
2160
2160
2165
2165
2165
2160
2160
2160
2163
2163
2163
2163
2161
2161
2161
2158
2158
2158
2166
2166
2166
2160
2160
2160
2163
2163
2163
2163
2165
2165
2165
2160
2160
2160
2161
2161
2161
2162
2162
2162
2160
2160
2160
2160
2162
2162
2162
2162
2162
2162
2162
2162
2162
2160
2160
2160
2165
2165
2165
2165
2164
2164
2164
2159
2159
2159
2163
2163
2163
2158
2158
2158
2159
2159
2159
2159
2160
2160
2160
2163
2163
2163
2166
2166
2166
2157
2157
2157
2163
2163
2163
2163
2158
2158
2158
2158
2158
2158
2162
2162
2162
2156
2156
2156
2163
2163
2163
2163
2161
2161
2161
2161
2161
2161
2164
2164
2164
2159
2159
2159
2163
2163
2163
2163
2162
2162
2162
2159
2159
2159
2162
2162
2162
2160
2160
2160
2162
2162
2162
2162
2165
2165
2165
2159
2159
2159
2166
2166
2166
2163
2163
2163
2166
2166
2166
2166
2165
2165
2165
2155
2155
2155
2165
2165
2165
2160
2160
2160
2160
2160
2160
2160
2160
2160
2160
2158
2158
2158
2163
2163
2163
2158
2158
2158
2163
2163
2163
2163
2161
2161
2161
2155
2155
2155
2167
2167
2167
2157
2157
2157
2169
2169
2169
2169
2159
2159
2159
2161
2161
2161
2161
2161
2161
2159
2159
2159
2158
2158
2158
2158
2161
2161
2161
2159
2159
2159
2163
2163
2163
2158
2158
2158
2162
2162
2162
2162
2165
2165
2165
2158
2158
2158
2164
2164
2164
2160
2160
2160
2163
2163
2163
2163
2163
2163
2163
2160
2160
2160
2163
2163
2163
2158
2158
2158
2166
2166
2166
2166
2162
2162
2162
2158
2158
2158
2163
2163
2163
2160
2160
2160
2162
2162
2162
2162
2164
2164
2164
2156
2156
2156
2162
2162
2162
2157
2157
2157
2164
2164
2164
2164
2160
2160
2160
2159
2159
2159
2158
2158
2158
2156
2156
2156
2170
2170
2170
2170
2161
2161
2161
2159
2159
2159
2162
2162
2162
2159
2159
2159
2164
2164
2164
2164
2162
2162
2162
2161
2161
2161
2163
2163
2163
2160
2160
2160
2161
2161
2161
2161
2168
2168
2168
2155
2155
2155
2162
2162
2162
2154
2154
2154
2165
2165
2165
2165
2164
2164
2164
2159
2159
2159
2161
2161
2161
2160
2160
2160
2162
2162
2162
2162
2162
2162
2162
2160
2160
2160
2163
2163
2163
2154
2154
2154
2162
2162
2162
2162
2163
2163
2163
2160
2160
2160
2167
2167
2167
2158
2158
2158
2161
2161
2161
2161
2162
2162
2162
2159
2159
2159
2162
2162
2162
2158
2158
2158
2161
2161
2161
2161
2160
2160
2160
2157
2157
2157
2162
2162
2162
2159
2159
2159
2164
2164
2164
2164
2163
2163
2163
2159
2159
2159
2162
2162
2162
2158
2158
2158
2163
2163
2163
2163
2160
2160
2160
2158
2158
2158
2162
2162
2162
2162
2162
2162
2156
2156
2156
2156
2159
2159
2159
2159
2159
2159
2164
2164
2164
2161
2161
2161
2157
2157
2157
2157
2158
2158
2158
2159
2159
2159
2164
2164
2164
2160
2160
2160
2162
2162
2162
2162
2161
2161
2161
2160
2160
2160
2165
2165
2165
2164
2164
2164
2165
2165
2165
2165
2163
2163
2163
2159
2159
2159
2161
2161
2161
2160
2160
2160
2163
2163
2163
2163
2163
2163
2163
2161
2161
2161
2159
2159
2159
2161
2161
2161
2166
2166
2166
2166
2166
2166
2166
2158
2158
2158
2160
2160
2160
2161
2161
2161
2161
2161
2161
2161
2162
2162
2162
2159
2159
2159
2161
2161
2161
2160
2160
2160
2161
2161
2161
2161
2164
2164
2164
2161
2161
2161
2162
2162
2162
2158
2158
2158
2165
2165
2165
2165
2163
2163
2163
2161
2161
2161
2161
2161
2161
2158
2158
2158
2161
2161
2161
2161
2162
2162
2162
2160
2160
2160
2164
2164
2164
2156
2156
2156
2169
2169
2169
2169
2162
2162
2162
2159
2159
2159
2162
2162
2162
2156
2156
2156
2163
2163
2163
2163
2162
2162
2162
2160
2160
2160
2162
2162
2162
2159
2159
2159
2162
2162
2162
2162
2168
2168
2168
2159
2159
2159
2164
2164
2164
2161
2161
2161
2162
2162
2162
2162
2161
2161
2161
2160
2160
2160
2167
2167
2167
2159
2159
2159
2160
2160
2160
2160
2164
2164
2164
2156
2156
2156
2164
2164
2164
2157
2157
2157
2160
2160
2160
2160
2163
2163
2163
2158
2158
2158
2164
2164
2164
2160
2160
2160
2161
2161
2161
2161
2159
2159
2159
2152
2152
2152
2153
2153
2153
2161
2161
2161
2165
2165
2165
2165
2161
2161
2161
2160
2160
2160
2163
2163
2163
2160
2160
2160
2165
2165
2165
2165
2166
2166
2166
2159
2159
2159
2162
2162
2162
2159
2159
2159
2162
2162
2162
2162
2156
2156
2156
2159
2159
2159
2164
2164
2164
2159
2159
2159
2163
2163
2163
2163
2164
2164
2164
2159
2159
2159
2161
2161
2161
2157
2157
2157
2164
2164
2164
2164
2162
2162
2162
2159
2159
2159
2161
2161
2161
2160
2160
2160
2159
2159
2159
2159
2163
2163
2163
2160
2160
2160
2161
2161
2161
2159
2159
2159
2161
2161
2161
2161
2161
2161
2161
2159
2159
2159
2158
2158
2158
2161
2161
2161
2169
2169
2169
2169
2162
2162
2162
2160
2160
2160
2160
2160
2160
2158
2158
2158
2162
2162
2162
2162
2163
2163
2163
2158
2158
2158
2162
2162
2162
2159
2159
2159
2163
2163
2163
2163
2160
2160
2160
2158
2158
2158
2159
2159
2159
2160
2160
2160
2165
2165
2165
2165
2165
2165
2165
2160
2160
2160
2164
2164
2164
2155
2155
2155
2160
2160
2160
2160
2163
2163
2163
2157
2157
2157
2161
2161
2161
2158
2158
2158
2159
2159
2159
2159
2161
2161
2161
2165
2165
2165
2161
2161
2161
2162
2162
2162
2162
2162
2162
2162
2163
2163
2163
2160
2160
2160
2161
2161
2161
2156
2156
2156
2163
2163
2163
2163
2162
2162
2162
2158
2158
2158
2163
2163
2163
2160
2160
2160
2164
2164
2164
2164
2169
2169
2169
2157
2157
2157
2159
2159
2159
2157
2157
2157
2161
2161
2161
2161
2159
2159
2159
2160
2160
2160
2165
2165
2165
2159
2159
2159
2163
2163
2163
2163
2164
2164
2164
2157
2157
2157
2162
2162
2162
2161
2161
2161
2162
2162
2162
2162
2159
2159
2159
2161
2161
2161
2159
2159
2159
2160
2160
2160
2163
2163
2163
2163
2164
2164
2164
2162
2162
2162
2162
2162
2162
2159
2159
2159
2163
2163
2163
2163
2161
2161
2161
2158
2158
2158
2163
2163
2163
2158
2158
2158
2164
2164
2164
2164
2158
2158
2158
2158
2158
2158
2161
2161
2161
2159
2159
2159
2163
2163
2163
2163
2163
2163
2163
2159
2159
2159
2160
2160
2160
2157
2157
2157
2158
2158
2158
2158
2162
2162
2162
2161
2161
2161
2162
2162
2162
2156
2156
2156
2161
2161
2161
2161
2161
2161
2161
2159
2159
2159
2162
2162
2162
2159
2159
2159
2162
2162
2162
2162
2161
2161
2161
2163
2163
2163
2164
2164
2164
2161
2161
2161
2164
2164
2164
2164
2164
2164
2164
2159
2159
2159
2163
2163
2163
2158
2158
2158
2163
2163
2163
2163
2163
2163
2163
2159
2159
2159
2161
2161
2161
2159
2159
2159
2161
2161
2161
2161
2161
2161
2161
2159
2159
2159
2159
2159
2159
2161
2161
2161
2161
2161
2161
2161
2162
2162
2162
2159
2159
2159
2163
2163
2163
2159
2159
2159
2165
2165
2165
2165
2163
2163
2163
2158
2158
2158
2160
2160
2160
2155
2155
2155
2162
2162
2162
2162
2161
2161
2161
2163
2163
2163
2160
2160
2160
2172
2172
2172
2160
2160
2160
2160
2164
2164
2164
2159
2159
2159
2163
2163
2163
2156
2156
2156
2162
2162
2162
2162
2162
2162
2162
2159
2159
2159
2158
2158
2158
2161
2161
2161
2162
2162
2162
2162
2162
2162
2162
2161
2161
2161
2165
2165
2165
2159
2159
2159
2162
2162
2162
2162
2167
2167
2167
2165
2165
2165
2170
2170
2170
2158
2158
2158
2161
2161
2161
2161
2161
2161
2161
2156
2156
2156
2164
2164
2164
2158
2158
2158
2165
2165
2165
2165
2161
2161
2161
2158
2158
2158
2162
2162
2162
2160
2160
2160
2162
2162
2162
2162
2167
2167
2167
2157
2157
2157
2162
2162
2162
2162
2162
2162
2158
2158
2158
2158
2165
2165
2165
2159
2159
2159
2164
2164
2164
2161
2161
2161
2161
2161
2161
2161
2165
2165
2165
2158
2158
2158
2162
2162
2162
2161
2161
2161
2164
2164
2164
2164
2164
2164
2164
2155
2155
2155
2161
2161
2161
2158
2158
2158
2161
2161
2161
2161
2163
2163
2163
2159
2159
2159
2162
2162
2162
2162
2162
2162
2161
2161
2161
2161
2163
2163
2163
2159
2159
2159
2162
2162
2162
2160
2160
2160
2163
2163
2163
2163
2161
2161
2161
2166
2166
2166
2160
2160
2160
2157
2157
2157
2160
2160
2160
2160
2160
2160
2160
2162
2162
2162
2159
2159
2159
2160
2160
2160
2162
2162
2162
2162
2163
2163
2163
2156
2156
2156
2161
2161
2161
2160
2160
2160
2164
2164
2164
2164
2170
2170
2170
2156
2156
2156
2161
2161
2161
2155
2155
2155
2165
2165
2165
2165
2164
2164
2164
2156
2156
2156
2162
2162
2162
2157
2157
2157
2163
2163
2163
2163
2162
2162
2162
2158
2158
2158
2163
2163
2163
2158
2158
2158
2160
2160
2160
2160
2161
2161
2161
2163
2163
2163
2163
2163
2163
2158
2158
2158
2159
2159
2159
2159
2159
2159
2159
2159
2159
2159
2161
2161
2161
2159
2159
2159
2161
2161
2161
2161
2163
2163
2163
2159
2159
2159
2158
2158
2158
2162
2162
2162
2164
2164
2164
2164
2167
2167
2167
2156
2156
2156
2161
2161
2161
2161
2161
2161
2161
2161
2161
2161
2163
2163
2163
2161
2161
2161
2164
2164
2164
2159
2159
2159
2161
2161
2161
2161
2162
2162
2162
2156
2156
2156
2162
2162
2162
2159
2159
2159
2161
2161
2161
2161
2163
2163
2163
2163
2163
2163
2160
2160
2160
2155
2155
2155
2161
2161
2161
2161
2160
2160
2160
2162
2162
2162
2164
2164
2164
2159
2159
2159
2164
2164
2164
2164
2159
2159
2159
2161
2161
2161
2163
2163
2163
2158
2158
2158
2160
2160
2160
2160
2161
2161
2161
2159
2159
2159
2166
2166
2166
2160
2160
2160
2163
2163
2163
2163
2162
2162
2162
2160
2160
2160
2162
2162
2162
2157
2157
2157
2164
2164
2164
2164
2161
2161
2161
2159
2159
2159
2163
2163
2163
2160
2160
2160
2164
2164
2164
2164
2162
2162
2162
2162
2162
2162
2163
2163
2163
2159
2159
2159
2156
2156
2156
2156
2163
2163
2163
2160
2160
2160
2163
2163
2163
2159
2159
2159
2161
2161
2161
2161
2163
2163
2163
2159
2159
2159
2163
2163
2163
2158
2158
2158
2161
2161
2161
2161
2164
2164
2164
2158
2158
2158
2161
2161
2161
2158
2158
2158
2162
2162
2162
2162
2158
2158
2158
2160
2160
2160
2165
2165
2165
2159
2159
2159
2163
2163
2163
2163
2162
2162
2162
2158
2158
2158
2162
2162
2162
2159
2159
2159
2158
2158
2158
2158
2160
2160
2160
2159
2159
2159
2163
2163
2163
2156
2156
2156
2163
2163
2163
2163
2161
2161
2161
2159
2159
2159
2161
2161
2161
2157
2157
2157
2157
2157
2157
2157
2162
2162
2162
2159
2159
2159
2163
2163
2163
2161
2161
2161
2159
2159
2159
2159
2162
2162
2162
2159
2159
2159
2161
2161
2161
2160
2160
2160
2164
2164
2164
2164
2165
2165
2165
2161
2161
2161
2164
2164
2164
2162
2162
2162
2167
2167
2167
2167
2161
2161
2161
2159
2159
2159
2161
2161
2161
2161
2161
2161
2164
2164
2164
2164
2163
2163
2163
2159
2159
2159
2162
2162
2162
2158
2158
2158
2164
2164
2164
2164
2165
2165
2165
2155
2155
2155
2169
2169
2169
2168
2168
2168
2171
2171
2171
2171
2164
2164
2164
2159
2159
2159
2160
2160
2160
2160
2160
2160
2163
2163
2163
2163
2163
2163
2163
2158
2158
2158
2163
2163
2163
2159
2159
2159
2161
2161
2161
2161
2158
2158
2158
2165
2165
2165
2166
2166
2166
2156
2156
2156
2164
2164
2164
2164
2159
2159
2159
2160
2160
2160
2164
2164
2164
2157
2157
2157
2164
2164
2164
2164
2161
2161
2161
2159
2159
2159
2163
2163
2163
2158
2158
2158
2164
2164
2164
2164
2170
2170
2170
2163
2163
2163
2162
2162
2162
2162
2162
2162
2164
2164
2164
2164
2161
2161
2161
2158
2158
2158
2164
2164
2164
2160
2160
2160
2160
2160
2160
2160
2162
2162
2162
2159
2159
2159
2164
2164
2164
2161
2161
2161
2163
2163
2163
2163
2169
2169
2169
2156
2156
2156
2164
2164
2164
2158
2158
2158
2160
2160
2160
2160
2160
2160
2160
2162
2162
2162
2165
2165
2165
2159
2159
2159
2161
2161
2161
2161
2163
2163
2163
2159
2159
2159
2164
2164
2164
2159
2159
2159
2163
2163
2163
2163
2158
2158
2158
2158
2158
2158
2166
2166
2166
2156
2156
2156
2162
2162
2162
2162
2161
2161
2161
2158
2158
2158
2160
2160
2160
2159
2159
2159
2164
2164
2164
2164
2160
2160
2160
2157
2157
2157
2162
2162
2162
2159
2159
2159
2168
2168
2168
2168
2158
2158
2158
2157
2157
2157
2164
2164
2164
2155
2155
2155
2157
2157
2157
2157
2164
2164
2164
2157
2157
2157
2161
2161
2161
2158
2158
2158
2163
2163
2163
2163
2164
2164
2164
2159
2159
2159
2164
2164
2164
2162
2162
2162
2163
2163
2163
2163
2161
2161
2161
2165
2165
2165
2164
2164
2164
2157
2157
2157
2163
2163
2163
2163
2163
2163
2163
2158
2158
2158
2165
2165
2165
2156
2156
2156
2163
2163
2163
2163
2162
2162
2162
2161
2161
2161
2168
2168
2168
2159
2159
2159
2164
2164
2164
2164
2163
2163
2163
2160
2160
2160
2158
2158
2158
2154
2154
2154
2162
2162
2162
2162
2161
2161
2161
2160
2160
2160
2157
2157
2157
2159
2159
2159
2164
2164
2164
2164
2168
2168
2168
2161
2161
2161
2163
2163
2163
2160
2160
2160
2164
2164
2164
2164
2166
2166
2166
2156
2156
2156
2161
2161
2161
2162
2162
2162
2158
2158
2158
2158
2162
2162
2162
2155
2155
2155
2163
2163
2163
2159
2159
2159
2161
2161
2161
2161
2160
2160
2160
2157
2157
2157
2163
2163
2163
2162
2162
2162
2161
2161
2161
2161
2163
2163
2163
2160
2160
2160
2165
2165
2165
2156
2156
2156
2162
2162
2162
2162
2162
2162
2162
2169
2169
2169
2165
2165
2165
2160
2160
2160
2162
2162
2162
2162
2164
2164
2164
2158
2158
2158
2162
2162
2162
2161
2161
2161
2162
2162
2162
2162
2164
2164
2164
2157
2157
2157
2165
2165
2165
2156
2156
2156
2174
2174
2174
2174
2163
2163
2163
2159
2159
2159
2161
2161
2161
2162
2162
2162
2163
2163
2163
2163
2161
2161
2161
2161
2161
2161
2167
2167
2167
2156
2156
2156
2162
2162
2162
2162
2169
2169
2169
2158
2158
2158
2164
2164
2164
2160
2160
2160
2161
2161
2161
2161
2163
2163
2163
2160
2160
2160
2163
2163
2163
2160
2160
2160
2168
2168
2168
2168
2163
2163
2163
2163
2163
2163
2163
2163
2163
2161
2161
2161
2165
2165
2165
2165
2164
2164
2164
2159
2159
2159
2164
2164
2164
2157
2157
2157
2164
2164
2164
2164
2163
2163
2163
2159
2159
2159
2158
2158
2158
2155
2155
2155
2160
2160
2160
2160
2164
2164
2164
2159
2159
2159
2166
2166
2166
2166
2166
2166
2164
2164
2164
2164
2162
2162
2162
2160
2160
2160
2160
2160
2160
2159
2159
2159
2164
2164
2164
2164
2163
2163
2163
2162
2162
2162
2158
2158
2158
2155
2155
2155
2160
2160
2160
2160
2161
2161
2161
2157
2157
2157
2161
2161
2161
2164
2164
2164
2164
2164
2164
2164
2162
2162
2162
2160
2160
2160
2162
2162
2162
2159
2159
2159
2164
2164
2164
2164
2161
2161
2161
2162
2162
2162
2172
2172
2172
2155
2155
2155
2160
2160
2160
2160
2158
2158
2158
2159
2159
2159
2163
2163
2163
2155
2155
2155
2161
2161
2161
2161
2162
2162
2162
2159
2159
2159
2162
2162
2162
2161
2161
2161
2165
2165
2165
2165
2165
2165
2165
2159
2159
2159
2162
2162
2162
2157
2157
2157
2164
2164
2164
2164
2161
2161
2161
2159
2159
2159
2164
2164
2164
2159
2159
2159
2164
2164
2164
2164
2161
2161
2161
2158
2158
2158
2161
2161
2161
2160
2160
2160
2163
2163
2163
2163
2162
2162
2162
2159
2159
2159
2162
2162
2162
2158
2158
2158
2163
2163
2163
2163
2162
2162
2162
2161
2161
2161
2165
2165
2165
2158
2158
2158
2161
2161
2161
2161
2163
2163
2163
2160
2160
2160
2162
2162
2162
2161
2161
2161
2163
2163
2163
2163
2165
2165
2165
2161
2161
2161
2162
2162
2162
2160
2160
2160
2156
2156
2156
2156
2160
2160
2160
2162
2162
2162
2164
2164
2164
2158
2158
2158
2162
2162
2162
2162
2162
2162
2162
2161
2161
2161
2162
2162
2162
2160
2160
2160
2170
2170
2170
2170
2163
2163
2163
2163
2163
2163
2161
2161
2161
2156
2156
2156
2162
2162
2162
2162
2165
2165
2165
2157
2157
2157
2162
2162
2162
2160
2160
2160
2165
2165
2165
2165
2161
2161
2161
2160
2160
2160
2161
2161
2161
2155
2155
2155
2163
2163
2163
2163
2163
2163
2163
2157
2157
2157
2159
2159
2159
2159
2159
2159
2162
2162
2162
2162
2164
2164
2164
2159
2159
2159
2159
2159
2159
2161
2161
2161
2163
2163
2163
2163
2163
2163
2163
2162
2162
2162
2160
2160
2160
2158
2158
2158
2162
2162
2162
2162
2161
2161
2161
2164
2164
2164
2163
2163
2163
2159
2159
2159
2163
2163
2163
2163
2161
2161
2161
2160
2160
2160
2162
2162
2162
2161
2161
2161
2164
2164
2164
2164
2162
2162
2162
2157
2157
2157
2162
2162
2162
2160
2160
2160
2161
2161
2161
2161
2163
2163
2163
2158
2158
2158
2163
2163
2163
2160
2160
2160
2162
2162
2162
2162
2169
2169
2169
2159
2159
2159
2165
2165
2165
2162
2162
2162
2164
2164
2164
2164
2162
2162
2162
2160
2160
2160
2165
