2173
2173
2171
2171
2171
2171
2172
2172
2172
2168
2168
2168
2174
2174
2174
2169
2169
2169
2172
2172
2172
2172
2172
2172
2172
2169
2169
2169
2175
2175
2175
2168
2168
2168
2172
2172
2172
2172
2174
2174
2174
2170
2170
2170
2169
2169
2169
2170
2170
2170
2173
2173
2173
2173
2177
2177
2177
2168
2168
2168
2182
2182
2182
2169
2169
2169
2173
2173
2173
2173
2171
2171
2171
2168
2168
2168
2177
2177
2177
2166
2166
2166
2171
2169
2169
2172
2172
2172
2172
2172
2172
2172
2169
2169
2169
2172
2172
2172
2166
2166
2166
2176
2176
2176
2176
2171
2171
2171
2169
2169
2169
2174
2174
2174
2169
2169
2169
2174
2174
2174
2174
2171
2171
2171
2172
2172
2172
2173
2173
2173
2169
2169
2169
2174
2174
2174
2174
2174
2174
2174
2173
2173
2173
2173
2173
2173
2169
2169
2169
2172
2172
2172
2172
2170
2170
2170
2167
2167
2167
2171
2171
2171
2168
2168
2168
2170
2170
2170
2170
2176
2176
2176
2170
2170
2170
2174
2174
2174
2161
2161
2161
2176
2176
2176
2176
2172
2172
2172
2174
2174
2174
2173
2173
2173
2174
2174
2174
2173
2173
2173
2173
2174
2174
2174
2169
2169
2169
2175
2175
2175
2170
2170
2170
2173
2173
2173
2173
2171
2171
2171
2169
2169
2169
2178
2178
2178
2169
2169
2169
2174
2174
2174
2174
2174
2174
2174
2166
2166
2166
2173
2173
2173
2168
2168
2168
2172
2172
2172
2172
2174
2174
2174
2167
2167
2167
2172
2172
2172
2162
2162
2162
2175
2175
2175
2175
2174
2174
2174
2166
2166
2166
2172
2172
2172
2171
2171
2171
2173
2173
2173
2173
2171
2171
2171
2164
2164
2164
2172
2172
2172
2168
2168
2168
2173
2173
2173
2173
2170
2170
2170
2166
2166
2166
2173
2173
2173
2175
2175
2175
2172
2172
2172
2172
2171
2171
2171
2169
2169
2169
2179
2179
2179
2170
2170
2170
2174
2174
2174
2174
2174
2174
2174
2171
2171
2171
2174
2174
2174
2169
2169
2169
2173
2173
2173
2173
2169
2169
2169
2169
2169
2169
2174
2174
2174
2169
2169
2169
2175
2175
2175
2175
2170
2170
2170
2172
2172
2172
2173
2173
2173
2169
2169
2169
2173
2173
2173
2173
2171
2171
2171
2168
2168
2168
2174
2174
2174
2169
2169
2169
2172
2172
2172
2172
2171
2171
2171
2170
2170
2170
2168
2168
2168
2169
2169
2169
2173
2173
2173
2173
2176
2176
2176
2169
2169
2169
2174
2174
2174
2169
2169
2169
2181
2181
2181
2181
2173
2173
2173
2169
2169
2169
2172
2172
2172
2169
2169
2169
2172
2172
2172
2172
2172
2172
2172
2169
2169
2169
2174
2174
2174
2174
2174
2174
2174
2174
2174
2174
2173
2173
2173
2167
2167
2167
2173
2173
2173
2168
2168
2168
2173
2173
2173
2173
2175
2175
2175
2169
2169
2169
2182
2182
2182
2169
2169
2169
2172
2172
2172
2172
2171
2171
2171
2169
2169
2169
2173
2173
2173
2169
2169
2169
2172
2172
2172
2172
2172
2172
2172
2166
2166
2166
2171
2171
2171
2170
2170
2170
2173
2173
2173
2173
2173
2173
2173
2170
2170
2170
2175
2175
2175
2170
2170
2170
2177
2177
2177
2177
2178
2178
2178
2165
2165
2165
2173
2173
2173
2171
2171
2171
2173
2173
2173
2173
2169
2169
2169
2170
2170
2170
2174
2174
2174
2170
2170
2170
2176
2176
2176
2176
2175
2175
2175
2171
2171
2171
2167
2167
2167
2166
2166
2166
2174
2174
2174
2174
2171
2171
2171
2167
2167
2167
2166
2166
2166
2170
2170
2170
2178
2178
2178
2178
2172
2172
2172
2170
2170
2170
2172
2172
2172
2167
2167
2167
2173
2173
2173
2173
2174
2174
2174
2167
2167
2167
2176
2176
2176
2168
2168
2168
2171
2171
2171
2171
2170
2170
2170
2172
2172
2172
2172
2172
2172
2171
2171
2171
2172
2172
2172
2172
2168
2168
2168
2166
2166
2166
2170
2170
2170
2172
2172
2172
2177
2177
2177
2177
2173
2173
2173
2169
2169
2169
2176
2176
2176
2167
2167
2167
2171
2171
2171
2171
2176
2176
2176
2169
2169
2169
2173
2173
2173
2168
2168
2168
2174
2174
2174
2174
2173
2173
2173
2167
2167
2167
2174
2174
2174
2167
2167
2167
2175
2175
2175
2175
2174
2174
2174
2171
2171
2171
2166
2166
2166
2176
2176
2176
2173
2173
2173
2173
2171
2171
2171
2175
2175
2175
2173
2173
2173
2169
2169
2169
2171
2171
2171
2171
2172
2172
2172
2169
2169
2169
2171
2171
2171
2168
2168
2168
2173
2173
2173
2173
2174
2174
2174
2168
2168
2168
2177
2177
2177
2173
2173
2173
2171
2171
2171
2171
2174
2174
2174
2172
2172
2172
2171
2171
2171
2169
2169
2169
2173
2173
2173
2173
2173
2173
2173
2171
2171
2171
2174
2174
2174
2165
2165
2165
2173
2173
2173
2173
2173
2173
2173
2168
2168
2168
2172
2172
2172
2166
2166
2166
2173
2173
2173
2173
2172
2172
2172
2160
2160
2160
2172
2172
2172
2168
2168
2168
2172
2172
2172
2172
2171
2171
2171
2170
2170
2170
2173
2173
2173
2169
2169
2169
2174
2174
2174
2174
2173
2173
2173
2169
2169
2169
2170
2170
2170
2168
2168
2168
2173
2173
2173
2173
2173
2173
2173
2170
2170
2170
2174
2174
2174
2165
2165
2165
2178
2178
2178
2178
2173
2173
2173
2166
2166
2166
2173
2173
2173
2169
2169
2169
2172
2172
2172
2172
2165
2165
2165
2174
2174
2174
2173
2173
2173
2166
2166
2166
2173
2173
2173
2173
2171
2171
2171
2164
2164
2164
2173
2173
2173
2167
2167
2167
2173
2173
2173
2173
2173
2173
2173
2169
2169
2169
2175
2175
2175
2168
2168
2168
2171
2171
2171
2171
2170
2170
2170
2168
2168
2168
2171
2171
2171
2168
2168
2168
2179
2179
2179
2179
2173
2173
2173
2171
2171
2171
2170
2170
2170
2175
2175
2175
2174
2174
2174
2174
2171
2171
2171
2170
2170
2170
2174
2174
2174
2173
2173
2173
2170
2170
2170
