33544
33544
33350
33350
33350
33436
33436
33436
33436
33479
33479
33479
33436
33436
33436
33350
33350
33350
33436
33436
33436
33501
33501
33501
33501
33458
33458
33458
33436
33436
33436
33544
33544
33544
33415
33415
33415
33436
33436
33436
33436
33522
33522
33522
33372
33372
33372
33544
33544
33544
33501
33501
33501
33565
33565
33565
33565
33479
33479
33479
33393
33393
33393
33415
33415
33415
33393
33393
33393
33501
33501
33501
33501
33436
33436
33436
33350
33350
33350
33458
33458
33458
33436
33436
33436
33544
33544
33544
33544
33479
33479
33479
33415
33415
33415
33479
33479
33479
33544
33544
33544
33587
33587
33587
33587
33501
33501
33501
33522
33522
33522
33501
33501
33501
33415
33415
33415
33415
33415
33415
33415
33393
33393
33393
33372
33372
33372
33479
33479
33479
33393
33393
33393
33608
33608
33608
33608
33436
33436
33436
33458
33458
33458
33501
33501
33501
33436
33436
33436
33501
33501
33501
33501
33501
33501
33501
33436
33436
33436
33479
33479
33479
33415
33415
33415
33458
33458
33458
33458
33479
33479
33479
33393
33393
33393
33479
33479
33479
33393
33393
33393
33522
33522
33522
33522
33501
33501
33501
33501
33501
33501
33587
33587
33587
33436
33436
33436
33544
33544
33544
33544
33522
33522
33522
33544
33544
33544
33479
33479
33479
33522
33522
33522
33522
33522
33522
33522
33501
33501
33501
33436
33436
33436
33565
33565
33565
33479
33479
33479
33458
33458
33458
33458
33501
33501
33501
33436
33436
33436
33544
33544
33544
33393
33393
33393
33522
33522
33522
33522
33458
33458
33458
33436
33436
33436
33544
33544
33544
33415
33415
33415
33436
33436
33436
33436
33479
33479
33479
33436
33436
33436
33565
33565
33565
33372
33372
33372
33565
33565
33565
33565
33501
33501
33501
33372
33372
33372
33436
33436
33436
33436
33436
33436
33587
33587
33587
33587
33501
33501
33501
33436
33436
33436
33565
33565
33565
33436
33436
33436
33501
33501
33501
33501
33544
33544
33544
33372
33372
33372
33479
33479
33479
33415
33415
33415
33544
33544
33544
33544
33501
33501
33501
33393
33393
33393
33501
33501
33501
33458
33458
33458
33458
33458
33458
33458
33436
33436
33436
33436
33436
33436
33565
33565
33565
33715
33715
33715
33501
33501
33501
33501
33522
33522
33522
33501
33501
33501
33415
33415
33415
33458
33458
33458
33501
33501
33501
33501
33458
33458
33458
33393
33393
33393
33565
33565
33565
33415
33415
33415
33522
33522
33522
33522
33501
33501
33501
33415
33415
33415
33522
33522
33522
33458
33458
33458
33436
33436
33436
33436
33479
33479
33479
33350
33350
33350
33479
33479
33479
33393
33393
33393
33587
33587
33587
33587
33565
33565
33565
33436
33436
33436
33501
33501
33501
33501
33501
33501
33522
33522
33522
33522
33522
33522
33522
33436
33436
33436
33501
33501
33501
33393
33393
33393
33501
33501
33501
33501
33458
33458
33458
33436
33436
33436
33479
33479
33479
33415
33415
33415
33565
33565
33565
33565
33544
33544
33544
33436
33436
33436
33479
33479
33479
33372
33372
33372
33544
33544
33544
33544
33458
33458
33458
33393
33393
33393
33565
33565
33565
33350
33350
33350
33436
33436
33436
33436
33608
33608
33608
33415
33415
33415
33522
33522
33522
33393
33393
33393
33479
33479
33479
33479
33458
33458
33458
33393
33393
33393
33307
33307
33307
33350
33350
33350
33501
33501
33501
33501
33501
33501
33501
33715
33715
33715
33501
33501
33501
33501
33501
33501
33544
33544
33544
33544
33458
33458
33458
33479
33479
33479
33479
33479
33479
33458
33458
33458
33501
33501
33501
33501
33479
33479
33479
33415
33415
33415
33458
33458
33458
33458
33458
33458
33501
33501
33501
33501
33501
33501
33501
33436
33436
33436
33608
33608
33608
33458
33458
33458
33565
33565
33565
33565
33544
33544
33544
33393
33393
33393
33522
33522
33522
33350
33350
33350
33522
33522
33522
33522
33501
33501
33501
33501
33501
33501
33479
33479
33479
33436
33436
33436
33479
33479
33479
33479
33608
33608
33608
33350
33350
33350
33501
33501
33501
33350
33350
33350
33587
33587
33587
33587
33458
33458
33458
33436
33436
33436
33501
33501
33501
33479
33479
33479
33436
33436
33436
33436
33501
33501
33501
33436
33436
33436
33522
33522
33522
33436
33436
33436
33565
33565
33565
33565
33479
33479
33479
33393
33393
33393
33479
33479
33479
33436
33436
33436
33415
33415
33415
33415
33544
33544
33544
33458
33458
33458
33479
33479
33479
33393
33393
33393
33522
33522
33522
33522
33436
33436
33436
33307
33307
33307
33479
33479
33479
33415
33415
33415
33415
33415
33415
33415
33458
33458
33458
33393
33393
33393
33608
33608
33608
33393
33393
33393
33522
33522
33522
33522
33501
33501
33501
33436
33436
33436
33522
33522
33522
33436
33436
33436
33458
33458
33458
33458
33501
33501
33501
33372
33372
33372
33436
33436
33436
33458
33458
33458
33544
33544
33544
33544
33608
33608
33608
33415
33415
33415
33522
33522
33522
33372
33372
33372
33522
33522
33522
33522
33479
33479
33479
33436
33436
33436
33415
33415
33415
33436
33436
33436
33501
33501
33501
33501
33501
33501
33501
33350
33350
33350
33501
33501
33501
33458
33458
33458
33458
33458
33458
33458
33479
33479
33479
33307
33307
33307
33501
33501
33501
33393
33393
33393
33737
33737
33737
33737
33501
33501
33501
33436
33436
33436
33544
33544
33544
33415
33415
33415
33458
33458
33458
33458
33522
33522
33522
33415
33415
33415
33565
33565
33565
33501
33501
33501
33436
33436
33436
33436
33436
33436
33436
33458
33458
33458
33544
33544
33544
33479
33479
33479
33501
33501
33501
33501
33479
33479
33479
33372
33372
33372
33501
33501
33501
33458
33458
33458
33544
33544
33544
33544
33436
33436
33436
33479
33479
33479
33501
33501
33501
33479
33479
33479
33565
33565
33565
33565
33522
33522
33522
33415
33415
33415
33522
33522
33522
33393
33393
33393
33522
33522
33522
33522
33522
33522
33522
33393
33393
33393
33479
33479
33479
33522
33522
33522
33522
33522
33522
33522
33501
33501
33501
33436
33436
33436
33522
33522
33522
33372
33372
33372
33565
33565
33565
33565
33479
33479
33479
33350
33350
33350
33565
33565
33565
33393
33393
33393
33436
33436
33436
33436
33350
33350
33350
33501
33501
33501
33479
33479
33479
33415
33415
33415
33415
33415
33415
33415
33479
33479
33479
33436
33436
33436
33436
33436
33436
33458
33458
33458
33501
33501
33501
33501
33522
33522
33522
33458
33458
33458
33544
33544
33544
33415
33415
33415
33522
33522
33522
33522
33458
33458
33458
33329
33329
33329
33458
33458
33458
33415
33415
33415
33458
33458
33458
33458
33522
33522
33522
33415
33415
33415
33436
33436
33436
33307
33307
33307
33522
33522
33522
33522
33479
33479
33479
33458
33458
33458
33501
33501
33501
33458
33458
33458
33415
33415
33415
33415
33501
33501
33501
33436
33436
33436
33393
33393
33393
33436
33436
33436
33522
33522
33522
33522
33501
33501
33501
33329
33329
33329
33587
33587
33587
33415
33415
33415
33393
33393
33393
33393
33479
33479
33479
33458
33458
33458
33458
33458
33458
33393
33393
33393
33415
33415
33415
33415
33372
33372
33372
33458
33458
33458
33522
33522
33522
33307
33307
33307
33501
33501
33501
33501
33522
33522
33522
33393
33393
33393
33393
33393
33393
33393
33393
33393
33458
33458
33458
33458
33522
33522
33522
33372
33372
33372
33479
33479
33479
33415
33415
33415
33458
33458
33458
33458
33458
33458
33458
33372
33372
33372
33479
33479
33479
33458
33458
33458
33544
33544
33544
33544
33479
33479
33479
33458
33458
33458
33501
33501
33501
33415
33415
33415
33372
33372
33372
33372
33522
33522
33522
33458
33458
33458
33501
33501
33501
33372
33372
33372
33479
33479
33479
33479
33458
33458
33458
33393
33393
33393
33501
33501
33501
33501
33501
33501
33544
33544
33544
33544
33522
33522
33522
33501
33501
33501
33501
33501
33501
33393
33393
33393
33630
33630
33630
33630
33415
33415
33415
33436
33436
33436
33522
33522
33522
33393
33393
33393
33479
33479
33479
33479
33501
33501
33501
33393
33393
33393
33501
33501
33501
33436
33436
33436
33458
33458
33458
33458
33479
33479
33479
33458
33458
33458
33458
33458
33458
33458
33458
33458
33415
33415
33415
33415
33436
33436
33436
33587
33587
33587
33544
33544
33544
33436
33436
33436
33458
33458
33458
33458
33544
33544
33544
33307
33307
33307
33479
33479
33479
33479
33479
33479
33458
33458
33458
33458
33372
33372
33372
33458
33458
33458
33458
33458
33458
33307
33307
33307
33565
33565
33565
33565
33544
33544
33544
33436
33436
33436
33415
33415
33415
33436
33436
33436
33479
33479
33479
33479
33501
33501
33501
33479
33479
33479
33501
33501
33501
33415
33415
33415
33415
33415
33415
33415
33436
33436
33436
33393
33393
33393
33522
33522
33522
33415
33415
33415
33501
33501
33501
33501
33458
33458
33458
33372
33372
33372
33501
33501
33501
33393
33393
33393
33565
33565
33565
33565
33651
33651
33651
33436
33436
33436
33501
33501
33501
33372
33372
33372
33501
33501
33501
33501
33479
33479
33479
33458
33458
33458
33458
33458
33458
33458
33458
33458
33565
33565
33565
33565
33479
33479
33479
33544
33544
33544
33501
33501
33501
33436
33436
33436
33458
33458
33458
33458
33436
33436
33436
33393
33393
33393
33544
33544
33544
33501
33501
33501
33522
33522
33522
33522
33372
33372
33372
33350
33350
33350
33501
33501
33501
33415
33415
33415
33393
33393
33393
33393
33587
33587
33587
33458
33458
33458
33501
33501
33501
33393
33393
33393
33479
33479
33479
33479
33479
33479
33479
33458
33458
33458
33608
33608
33608
33415
33415
33415
33544
33544
33544
33544
33522
33522
33522
33479
33479
33479
33565
33565
33565
33501
33501
33501
33415
33415
33415
33415
33458
33458
33458
33436
33436
33436
33479
33479
33479
33393
33393
33393
33522
33522
33522
33522
33479
33479
33479
33436
33436
33436
33479
33479
33479
33479
33479
33479
33501
33501
33501
33501
33458
33458
33458
33415
33415
33415
33479
33479
33479
33436
33436
33436
33565
33565
33565
33565
33479
33479
33479
33436
33436
33436
33501
33501
33501
33458
33458
33458
33715
33715
33715
33715
33458
33458
33458
33501
33501
33501
33522
33522
33522
33436
33436
33436
33415
33415
33415
33415
33501
33501
33501
33479
33479
33479
33501
33501
33501
33307
33307
33307
33479
33479
33479
33479
33479
33479
33479
33415
33415
33415
33501
33501
33501
33458
33458
33458
33544
33544
33544
33544
33458
33458
33458
33415
33415
33415
33501
33501
33501
33436
33436
33436
33544
33544
33544
33544
33415
33415
33415
33329
33329
33329
33501
33501
33501
33479
33479
33479
33458
33458
33458
33458
33393
33393
33393
33436
33436
33436
33565
33565
33565
33436
33436
33436
33522
33522
33522
33522
33458
33458
33458
33458
33458
33458
33479
33479
33479
33415
33415
33415
33501
33501
33501
33501
33436
33436
33436
33393
33393
33393
33587
33587
33587
33436
33436
33436
33522
33522
33522
33522
33501
33501
33501
33350
33350
33350
33458
33458
33458
33415
33415
33415
33436
33436
33436
33436
33522
33522
33522
33436
33436
33436
33522
33522
33522
33436
33436
33436
33436
33436
33436
33436
33350
33350
33350
33415
33415
33415
33544
33544
33544
33479
33479
33479
33522
33522
33522
33522
33544
33544
33544
33479
33479
33479
33479
33479
33479
33458
33458
33458
33436
33436
33436
33436
33479
33479
33479
33458
33458
33458
33544
33544
33544
33372
33372
33372
33565
33565
33565
33565
33458
33458
33458
33458
33458
33458
33501
33501
33501
33415
33415
33415
33458
33458
33458
33458
33544
33544
33544
33458
33458
33458
33522
33522
33522
33393
33393
33393
33479
33479
33479
33479
33479
33479
33479
33479
33479
33479
33436
33436
33436
33458
33458
33458
33522
33522
33522
33522
33501
33501
33501
33436
33436
33436
33501
33501
33501
33393
33393
33393
33608
33608
33608
33608
33565
33565
33565
33436
33436
33436
33458
33458
33458
33436
33436
33436
33501
33501
33501
33501
33479
33479
33479
33393
33393
33393
33479
33479
33479
33458
33458
33458
33587
33587
33587
33587
33436
33436
33436
33436
33436
33436
33479
33479
33479
33329
33329
33329
33436
33436
33436
33436
33415
33415
33415
33436
33436
33436
33565
33565
33565
33393
33393
33393
33436
33436
33436
33436
33458
33458
33458
33436
33436
33436
33479
33479
33479
33436
33436
33436
33565
33565
33565
33565
33544
33544
33544
33415
33415
33415
33501
33501
33501
33436
33436
33436
33479
33479
33479
33479
33501
33501
33501
33458
33458
33458
33415
33415
33415
33436
33436
33436
33393
33393
33393
33393
33458
33458
33458
33479
33479
33479
33501
33501
33501
33393
33393
33393
33522
33522
33522
33522
33479
33479
33479
33415
33415
33415
33479
33479
33479
33565
33565
33565
33458
33458
33458
33458
33501
33501
33501
33436
33436
33436
33350
33350
33350
33458
33458
33458
33565
33565
33565
33565
33458
33458
33458
33415
33415
33415
33544
33544
33544
33436
33436
33436
33715
33715
33715
33715
33501
33501
33501
33436
33436
33436
33587
33587
33587
33350
33350
33350
33436
33436
33436
33436
33587
33587
33587
33350
33350
33350
33544
33544
33544
33415
33415
33415
33458
33458
33458
33458
33608
33608
33608
33436
33436
33436
33393
33393
33393
33522
33522
33522
33479
33479
33479
33479
33479
33479
33479
33415
33415
33415
33436
33436
33436
33415
33415
33415
33522
33522
33522
33522
33522
33522
33522
33307
33307
33307
33522
33522
33522
33329
33329
33329
33479
33479
33479
33479
33587
33587
33587
33415
33415
33415
33522
33522
33522
33372
33372
33372
33544
33544
33544
33544
33522
33522
33522
33415
33415
33415
33522
33522
33522
33458
33458
33458
33587
33587
33587
33587
33436
33436
33436
33415
33415
33415
33587
33587
33587
33350
33350
33350
33501
33501
33501
33501
33479
33479
33479
33458
33458
33458
33522
33522
33522
33436
33436
33436
33501
33501
33501
33501
33372
33372
33372
33372
33372
33372
33501
33501
33501
33479
33479
33479
33479
33479
33479
33479
33587
33587
33587
33436
33436
33436
33479
33479
33479
33350
33350
33350
33522
33522
33522
33522
33544
33544
33544
33307
33307
33307
33501
33501
33501
33393
33393
33393
33544
33544
33544
33544
33565
33565
33565
33415
33415
33415
33565
33565
33565
33393
33393
33393
33522
33522
33522
33522
33501
33501
33501
33393
33393
33393
33479
33479
33479
33436
33436
33436
33565
33565
33565
33565
33501
33501
33501
33436
33436
33436
33522
33522
33522
33372
33372
33372
33544
33544
33544
33544
33587
33587
33587
33393
33393
33393
33479
33479
33479
33393
33393
33393
33501
33501
33501
33501
33436
33436
33436
33415
33415
33415
33522
33522
33522
33372
33372
33372
33501
33501
33501
33501
33608
33608
33608
33415
33415
33415
33522
33522
33522
33329
33329
33329
33522
33522
33522
33522
33479
33479
33479
33436
33436
33436
33436
33436
33436
33415
33415
33415
33544
33544
33544
33544
33479
33479
33479
33436
33436
33436
33544
33544
33544
33479
33479
33479
33501
33501
33501
33501
33265
33265
33265
33415
33415
33415
33479
33479
33479
33458
33458
33458
33458
33458
33458
33458
33479
33479
33479
33372
33372
33372
33522
33522
33522
33415
33415
33415
33458
33458
33458
33458
33565
33565
33565
33479
33479
33479
33522
33522
33522
33372
33372
33372
33458
33458
33458
33458
33501
33501
33501
33393
33393
33393
33544
33544
33544
33350
33350
33350
33587
33587
33587
33587
33501
33501
33501
33393
33393
33393
33501
33501
33501
33436
33436
33436
33565
33565
33565
33565
33565
33565
33565
33436
33436
33436
33436
33436
33436
33501
33501
33501
33501
33501
33501
33501
33458
33458
33458
33479
33479
33479
33458
33458
33458
33522
33522
33522
33501
33501
33501
33501
33522
33522
33522
33458
33458
33458
33522
33522
33522
33436
33436
33436
33501
33501
33501
33501
33522
33522
33522
33393
33393
33393
33544
33544
33544
33350
33350
33350
33458
33458
33458
33458
33522
33522
33522
33393
33393
33393
33565
33565
33565
33436
33436
33436
33522
33522
33522
33522
33458
33458
33458
33458
33458
33458
33522
33522
33522
33393
33393
33393
33565
33565
33565
33565
33501
33501
33501
33522
33522
33522
33522
33522
33522
33393
33393
33393
33436
33436
33436
33436
33436
33436
33436
33458
33458
33458
33544
33544
33544
33286
33286
33286
33415
33415
33415
33415
33458
33458
33458
33415
33415
33415
33522
33522
33522
33393
33393
33393
33522
33522
33522
33522
33479
33479
33479
33436
33436
33436
33415
33415
33415
33393
33393
33393
33501
33501
33501
33501
33501
33501
33501
33458
33458
33458
33565
33565
33565
33415
33415
33415
33565
33565
33565
33565
33479
33479
33479
33458
33458
33458
33501
33501
33501
33243
33243
33243
33501
33501
33501
33501
33544
33544
33544
33372
33372
33372
33522
33522
33522
33393
33393
33393
33522
33522
33522
33522
33565
33565
33565
33522
33522
33522
33458
33458
33458
33307
33307
33307
33522
33522
33522
33522
33458
33458
33458
33415
33415
33415
33544
33544
33544
33436
33436
33436
33393
33393
33393
33393
33479
33479
33479
33415
33415
33415
33501
33501
33501
33265
33265
33265
33479
33479
33479
33479
33415
33415
33415
33415
33415
33415
33479
33479
33479
33393
33393
33393
33501
33501
33501
33501
33436
33436
33436
33415
33415
33415
33501
33501
33501
33479
33479
33479
33544
33544
33544
33544
33458
33458
33458
33307
33307
33307
33522
33522
33522
33458
33458
33458
33587
33587
33587
33587
33458
33458
33458
33436
33436
33436
33479
33479
33479
33329
33329
33329
33458
33458
33458
33458
33565
33565
33565
33479
33479
33479
33544
33544
33544
33479
33479
33479
33415
33415
33415
33415
33501
33501
33501
33436
33436
33436
33436
33436
33436
33372
33372
33372
33501
33501
33501
33501
33458
33458
33458
33479
33479
33479
33565
33565
33565
33436
33436
33436
33522
33522
33522
33522
33501
33501
33501
33479
33479
33479
33458
33458
33458
33458
33458
33458
33479
33479
33479
33479
33436
33436
33436
33350
33350
33350
33458
33458
33458
33458
33458
33458
33522
33522
33522
33522
33479
33479
33479
33393
33393
33393
33565
33565
33565
33458
33458
33458
33479
33479
33479
33479
33436
33436
33436
33372
33372
33372
33458
33458
33458
33458
33458
33458
33522
33522
33522
33522
33565
33565
33565
33436
33436
33436
33436
33436
33436
33372
33372
33372
33479
33479
33479
33479
33479
33479
33479
33393
33393
33393
33522
33522
33522
33479
33479
33479
33501
33501
33501
33501
33522
33522
33522
33393
33393
33393
33522
33522
33522
33501
33501
33501
33479
33479
33479
33479
33458
33458
33458
33393
33393
33393
33608
33608
33608
33393
33393
33393
33501
33501
33501
33501
33501
33501
33501
33544
33544
33544
33522
33522
33522
33436
33436
33436
33458
33458
33458
33458
33393
33393
33393
33522
33522
33522
33544
33544
33544
33479
33479
33479
33458
33458
33458
33458
33544
33544
33544
33372
33372
33372
33436
33436
33436
33372
33372
33372
33522
33522
33522
33522
33544
33544
33544
33436
33436
33436
33522
33522
33522
33350
33350
33350
33458
33458
33458
33458
33479
33479
33479
33393
33393
33393
33544
33544
33544
33393
33393
33393
33544
33544
33544
33544
33458
33458
33458
33565
33565
33565
33501
33501
33501
33415
33415
33415
33522
33522
33522
33522
33544
33544
33544
33436
33436
33436
33522
33522
33522
33372
33372
33372
33522
33522
33522
33522
33501
33501
33501
33436
33436
33436
33458
33458
33458
33372
33372
33372
33544
33544
33544
33544
33565
33565
33565
33501
33501
33501
33501
33501
33501
33436
33436
33436
33501
33501
33501
33501
33222
33222
33222
33350
33350
33350
33587
33587
33587
33436
33436
33436
33479
33479
33479
33479
33522
33522
33522
33458
33458
33458
33501
33501
33501
33479
33479
33479
33458
33458
33458
33458
33544
33544
33544
33393
33393
33393
33458
33458
33458
33415
33415
33415
33501
33501
33501
33501
33501
33501
33501
33479
33479
33479
33393
33393
33393
33393
33393
33393
33544
33544
33544
33544
33458
33458
33458
33436
33436
33436
33544
33544
33544
33372
33372
33372
33501
33501
33501
33501
33544
33544
33544
33458
33458
33458
33522
33522
33522
33436
33436
33436
33436
33436
33436
33436
33436
33436
33436
33458
33458
33458
33501
33501
33501
33436
33436
33436
33565
33565
33565
33565
33544
33544
33544
33436
33436
33436
33501
33501
33501
33393
33393
33393
33458
33458
33458
33458
33458
33458
33458
33372
33372
33372
33479
33479
33479
33415
33415
33415
33522
33522
33522
33522
33587
33587
33587
33630
33630
33630
33522
33522
33522
33436
33436
33436
33458
33458
33458
33458
33479
33479
33479
33393
33393
33393
33565
33565
33565
33458
33458
33458
33458
33458
33458
33458
33479
33479
33479
33372
33372
33372
33458
33458
33458
33415
33415
33415
33479
33479
33479
33479
33544
33544
33544
33415
33415
33415
33415
33415
33415
33350
33350
33350
33501
33501
33501
33501
33458
33458
33458
33415
33415
33415
33479
33479
33479
33415
33415
33415
33458
33458
33458
33458
33565
33565
33565
33522
33522
33522
33501
33501
33501
33458
33458
33458
33522
33522
33522
33522
33393
33393
33393
33436
33436
33436
33522
33522
33522
33350
33350
33350
33458
33458
33458
33458
33458
33458
33458
33393
33393
33393
33737
33737
33737
33458
33458
33458
33501
33501
33501
33501
33501
33501
33501
33372
33372
33372
33501
33501
33501
33415
33415
33415
33544
33544
33544
33544
33522
33522
33522
33329
33329
33329
33522
33522
33522
33458
33458
33458
33501
33501
33501
33501
33458
33458
33458
33436
33436
33436
33479
33479
33479
33630
33630
33630
33501
33501
33501
33501
33544
33544
33544
33200
33200
33200
33522
33522
33522
33501
33501
33501
33522
33522
33522
33522
33522
33522
33522
33415
33415
33415
33479
33479
33479
33479
33479
33479
33544
33544
33544
33544
33479
33479
33479
33372
33372
33372
33501
33501
33501
33415
33415
33415
33544
33544
33544
33544
33565
33565
33565
33372
33372
33372
33544
33544
33544
33350
33350
33350
33458
33458
33458
33458
33436
33436
33436
33350
33350
33350
33436
33436
33436
33501
33501
33501
33501
33501
33501
33501
33458
33458
33458
33436
33436
33436
33350
33350
33350
33372
33372
33372
33479
33479
33479
33479
33501
33501
33501
33436
33436
33436
33501
33501
33501
33436
33436
33436
33436
33436
33436
33436
33479
33479
33479
33565
33565
33565
33479
33479
33479
33436
33436
33436
33544
33544
33544
33544
33415
33415
33415
33415
33415
33415
33501
33501
33501
33415
33415
33415
33479
33479
33479
33479
33522
33522
33522
33415
33415
33415
33501
33501
33501
33501
33501
33501
33458
33458
33458
33458
33522
33522
33522
33436
33436
33436
33458
33458
33458
33565
33565
33565
33522
33522
33522
33522
33501
33501
33501
33479
33479
33479
33522
33522
33522
33436
33436
33436
33479
33479
33479
33479
33501
33501
33501
33436
33436
33436
33479
33479
33479
33415
33415
33415
33587
33587
33587
33587
33630
33630
33630
33415
33415
33415
33479
33479
33479
33350
33350
33350
33565
33565
33565
33565
33501
33501
33501
33415
33415
33415
33630
33630
33630
33393
33393
33393
33479
33479
33479
33479
33479
33479
33479
33329
33329
33329
33479
33479
33479
33436
33436
33436
33415
33415
33415
33415
33458
33458
33458
33479
33479
33479
33544
33544
33544
33458
33458
33458
33565
33565
33565
33565
33544
33544
33544
33372
33372
33372
33501
33501
33501
33415
33415
33415
33544
33544
33544
33544
33501
33501
33501
33436
33436
33436
33501
33501
33501
33415
33415
33415
33479
33479
33479
33479
33479
33479
33479
33458
33458
33458
33651
33651
33651
33479
33479
33479
33479
33479
33479
33479
33479
33479
33479
33372
33372
33372
33479
33479
33479
33436
33436
33436
33415
33415
33415
33415
33630
33630
33630
33479
33479
33479
33479
33479
33479
33307
33307
33307
33436
33436
33436
33436
33479
33479
33479
33436
33436
33436
33565
33565
33565
33565
33565
33565
33479
33479
33479
33479
33479
33479
33479
33329
33329
33329
33458
33458
33458
33458
33458
33458
33501
33501
33501
33501
33458
33458
33458
33436
33436
33436
33501
33501
33501
33479
33479
33479
33501
33501
33501
33501
33501
33501
33501
33350
33350
33350
33479
33479
33479
33436
33436
33436
33393
33393
33393
33393
33565
33565
33565
33458
33458
33458
33501
33501
33501
33436
33436
33436
33501
33501
33501
33501
33479
33479
33479
33436
33436
33436
33393
33393
33393
33458
33458
33458
33501
33501
33501
33501
33501
33501
33501
33458
33458
33458
33501
33501
33501
33436
33436
33436
33415
33415
33415
33415
33501
33501
33501
33458
33458
33458
33479
33479
33479
33415
33415
33415
33458
33458
33458
33458
33458
33458
33458
33372
33372
33372
33458
33458
33458
33479
33479
33479
33565
33565
33565
33565
33565
33565
33565
33436
33436
33436
33479
33479
33479
33393
33393
33393
33522
33522
33522
33522
33544
33544
33544
33415
33415
33415
33522
33522
33522
33436
33436
33436
33501
33501
33501
33501
33501
33501
33501
33479
33479
33479
33436
33436
33436
33415
33415
33415
33393
33393
33393
33393
33393
33393
33393
33415
33415
33415
33544
33544
33544
33458
33458
33458
33565
33565
33565
33565
33479
33479
33479
33436
33436
33436
33479
33479
33479
33393
33393
33393
33479
33479
33479
33479
33436
33436
33436
33372
33372
33372
33522
33522
33522
33393
33393
33393
33544
33544
33544
33544
33479
33479
33479
33436
33436
33436
33479
33479
33479
33436
33436
33436
33522
33522
33522
33522
33501
33501
33501
33479
33479
33479
33436
33436
33436
33393
33393
33393
33608
33608
33608
33608
33393
33393
33393
33393
33393
33393
33479
33479
33479
33372
33372
33372
33565
33565
33565
33565
33501
33501
33501
33436
33436
33436
33479
33479
33479
33350
33350
33350
33501
33501
33501
33501
33479
33479
33479
33393
33393
33393
33501
33501
33501
33415
33415
33415
33522
33522
33522
33522
33544
33544
33544
33393
33393
33393
33522
33522
33522
33393
33393
33393
33479
33479
33479
33479
33501
33501
33501
33479
33479
33479
33501
33501
33501
33415
33415
33415
33436
33436
33436
33436
33307
33307
33307
33436
33436
33436
33458
33458
33458
33458
33458
33458
33522
33522
33522
33522
33436
33436
33436
33393
33393
33393
33522
33522
33522
33458
33458
33458
33479
33479
33479
33479
33479
33479
33479
33415
33415
33415
33501
33501
33501
33415
33415
33415
33436
33436
33436
33436
33587
33587
33587
33415
33415
33415
33479
33479
33479
33372
33372
33372
33479
33479
33479
33479
33479
33479
33479
33458
33458
33458
33565
33565
33565
33436
33436
33436
33501
33501
33501
33501
33458
33458
33458
33458
33458
33458
33479
33479
33479
33501
33501
33501
33393
33393
33393
33393
33393
33393
33393
33479
33479
33479
33501
33501
33501
33415
33415
33415
33436
33436
33436
33436
33522
33522
33522
33372
33372
33372
33458
33458
33458
33415
33415
33415
33501
33501
33501
33501
33458
33458
33458
33436
33436
33436
33501
33501
33501
33479
33479
33479
33608
33608
33608
33608
33501
33501
33501
33393
33393
33393
33522
33522
33522
33393
33393
33393
33479
33479
33479
33479
33522
33522
33522
33372
33372
33372
33501
33501
33501
33479
33479
33479
33436
33436
33436
33436
33479
33479
33479
33393
33393
33393
33479
33479
33479
33458
33458
33458
33501
33501
33501
33501
33458
33458
33458
33415
33415
33415
33415
33415
33415
33415
33415
33415
33565
33565
33565
33565
33501
33501
33501
33436
33436
33436
33587
33587
33587
33393
33393
33393
33565
33565
33565
33565
33587
33587
33587
33436
33436
33436
33436
33436
33436
33501
33501
33501
33479
33479
33479
33479
33436
33436
33436
33372
33372
33372
33479
33479
33479
33458
33458
33458
33436
33436
33436
33436
33479
33479
33479
33393
33393
33393
33479
33479
33479
33458
33458
33458
33458
33458
33458
33458
33458
33458
33458
33544
33544
33544
33565
33565
33565
33415
33415
33415
33501
33501
33501
33501
33565
33565
33565
33415
33415
33415
33479
33479
33479
33329
33329
33329
33415
33415
33415
33415
33501
33501
33501
33436
33436
33436
33501
33501
33501
33436
33436
33436
33458
33458
33458
33458
33458
33458
33458
33436
33436
33436
33587
33587
33587
33372
33372
33372
33415
33415
33415
33415
33479
33479
33479
33222
33222
33222
33544
33544
33544
33501
33501
33501
33501
33501
33501
33501
33501
33501
33501
33501
33501
33501
33522
33522
33522
33436
33436
33436
33479
33479
33479
33479
33458
33458
33458
33415
33415
33415
33458
33458
33458
33436
33436
33436
33479
33479
33479
33479
33501
33501
33501
33393
33393
33393
33501
33501
33501
33436
33436
33436
33522
33522
33522
33522
33501
33501
33501
33329
33329
33329
33479
33479
33479
33436
33436
33436
33565
33565
33565
33565
33501
33501
33501
33479
33479
33479
33479
33479
33479
33415
33415
33415
33565
33565
33565
33565
33436
33436
33436
33436
33436
33436
33479
33479
33479
33415
33415
33415
33501
33501
33501
33501
33501
33501
33501
33501
33501
33501
33458
33458
33458
33458
33458
33458
33458
33458
33458
33458
33415
33415
33415
33458
33458
33458
33565
33565
33565
33458
33458
33458
33501
33501
33501
33501
33479
33479
33479
33587
33587
33587
33544
33544
33544
33436
33436
33436
33522
33522
33522
33522
33501
33501
33501
33393
33393
33393
33501
33501
33501
33436
33436
33436
33544
33544
33544
33544
33458
33458
33458
33458
33458
33458
33522
33522
33522
33479
33479
33479
33501
33501
33501
33501
33393
33393
33393
33458
33458
33458
33544
33544
33544
33436
33436
33436
33436
33436
33436
33436
33458
33458
33458
33479
33479
33479
33458
33458
33458
33436
33436
33436
33501
33501
33501
33501
33522
33522
33522
33265
33265
33265
33501
33501
33501
33415
33415
33415
33501
33501
33501
33501
33415
33415
33415
33501
33501
33501
33479
33479
33479
33479
33479
33479
33522
33522
33522
33522
33587
33587
33587
33415
33415
33415
33608
33608
33608
33350
33350
33350
33479
33479
33479
33479
33479
33479
33479
33393
33393
33393
33458
33458
33458
33436
33436
33436
33479
33479
33479
33479
33565
33565
33565
33243
33243
33243
33522
33522
33522
33479
33479
33479
33458
33458
33458
33458
33522
33522
33522
33393
33393
33393
33522
33522
33522
33458
33458
33458
33522
33522
33522
33522
33458
33458
33458
33393
33393
33393
33501
33501
33501
33415
33415
33415
33587
33587
33587
33587
33501
33501
33501
33415
33415
33415
33608
33608
33608
33393
33393
33393
33479
33479
33479
33479
33501
33501
33501
33458
33458
33458
33458
33458
33458
33415
33415
33415
33544
33544
33544
33544
33522
33522
33522
33522
33522
33522
33479
33479
33479
33350
33350
33350
33458
33458
33458
33458
33436
33436
33436
33479
33479
33479
33479
33479
33479
33458
33458
33458
33522
33522
33522
33522
33501
33501
33501
33479
33479
33479
33522
33522
33522
33436
33436
33436
33565
33565
33565
33565
33436
33436
33436
33415
33415
33415
33501
33501
33501
33501
33501
33501
33458
33458
33458
33458
33458
33458
33458
33608
33608
33608
33479
33479
33479
33415
33415
33415
33458
33458
33458
33458
33479
33479
33479
33393
33393
33393
33479
33479
33479
33436
33436
33436
33522
33522
33522
33522
33544
33544
33544
33436
33436
33436
33479
33479
33479
33458
33458
33458
33479
33479
33479
33479
33501
33501
33501
33415
33415
33415
33436
33436
33436
33458
33458
33458
33544
33544
33544
33544
33479
33479
33479
33458
33458
33458
33522
33522
33522
33372
33372
33372
33458
33458
33458
33458
33458
33458
33458
33372
33372
33372
33522
33522
33522
33436
33436
33436
33479
33479
33479
33479
33479
33479
33479
33415
33415
33415
33479
33479
33479
33522
33522
33522
33522
33522
33522
33522
33544
33544
33544
33436
33436
33436
33479
33479
33479
33479
33479
33479
33479
33479
33479
33479
33522
33522
33522
33479
33479
33479
33350
33350
33350
33436
33436
33436
33587
33587
33587
33587
33436
33436
33436
33329
33329
33329
33479
33479
33479
33458
33458
33458
33436
33436
33436
33436
33458
33458
33458
33286
33286
33286
33587
33587
33587
33458
33458
33458
33544
33544
33544
33544
33436
33436
33436
33522
33522
33522
33479
33479
33479
33544
33544
33544
33415
33415
33415
33415
33458
33458
33458
33436
33436
33436
33565
33565
33565
33415
33415
33415
33522
33522
33522
33522
33501
33501
33501
33415
33415
33415
33329
33329
33329
33479
33479
33479
33501
33501
33501
33501
33458
33458
33458
33544
33544
33544
33479
33479
33479
33372
33372
33372
33501
33501
33501
33501
33501
33501
33501
33350
33350
33350
33544
33544
33544
33329
33329
33329
33522
33522
33522
33522
33544
33544
33544
33415
33415
33415
33501
33501
33501
33372
33372
33372
33544
33544
33544
33544
33565
33565
33565
33479
33479
33479
33393
33393
33393
33393
33393
33393
33522
33522
33522
33522
33522
33522
33522
33415
33415
33415
33436
33436
33436
33436
33436
33436
33522
33522
33522
33522
33501
33501
33501
33436
33436
33436
33479
33479
33479
33415
33415
33415
33522
33522
33522
33522
33522
33522
33522
33458
33458
33458
33501
33501
33501
33501
33501
33501
33501
33501
33501
33501
33522
33522
33522
33415
33415
33415
33393
33393
33393
33350
33350
33350
33565
33565
33565
33565
33565
33565
33565
33436
33436
33436
33565
33565
33565
33415
33415
33415
33544
33544
33544
33544
33501
33501
33501
33651
33651
33651
33501
33501
33501
33415
33415
33415
33522
33522
33522
33522
33458
33458
33458
33286
33286
33286
33458
33458
33458
33436
33436
33436
33522
33522
33522
33522
33587
33587
33587
33458
33458
33458
33522
33522
33522
33393
33393
33393
33479
33479
33479
33479
33522
33522
33522
33458
33458
33458
33393
33393
33393
33436
33436
33436
33479
33479
33479
33479
33436
33436
33436
33372
33372
33372
33544
33544
33544
33501
33501
33501
33522
33522
33522
33522
33458
33458
33458
33415
33415
33415
33522
33522
33522
33415
33415
33415
33479
33479
33479
33479
33501
33501
33501
33458
33458
33458
33501
33501
33501
33458
33458
33458
33522
33522
33522
33522
33479
33479
33479
33630
33630
33630
33436
33436
33436
33329
33329
33329
33479
33479
33479
33479
33458
33458
33458
33415
33415
33415
33565
33565
33565
33458
33458
33458
33436
33436
33436
33436
33393
33393
33393
33479
33479
33479
33501
33501
33501
33436
33436
33436
33522
33522
33522
33522
33501
33501
33501
33479
33479
33479
33415
33415
33415
33458
33458
33458
33501
33501
33501
33501
33565
33565
33565
33393
33393
33393
33522
33522
33522
33458
33458
33458
33501
33501
33501
33501
33501
33501
33501
33436
33436
33436
33565
33565
33565
33350
33350
33350
33522
33522
33522
33522
33479
33479
33479
33479
33479
33479
33479
33479
33479
33393
33393
33393
33544
33544
33544
33544
33479
33479
33479
33501
33501
33501
33501
33501
33501
33458
33458
33458
33415
33415
33415
33415
33458
33458
33458
33436
33436
33436
33479
33479
33479
33630
33630
33630
33501
33501
33501
33501
33544
33544
33544
33372
33372
33372
33436
33436
33436
33436
33436
33436
33501
33501
33501
33501
33522
33522
33522
33436
33436
33436
33501
33501
33501
33415
33415
33415
33501
33501
33501
33501
33458
33458
33458
33372
33372
33372
33587
33587
33587
33415
33415
33415
33565
33565
33565
33565
33565
33565
33565
33458
33458
33458
33522
33522
33522
33522
33522
33522
33479
33479
33479
33479
33393
33393
33393
33436
33436
33436
33501
33501
33501
33372
33372
33372
33544
33544
33544
33544
33479
33479
33479
33436
33436
33436
33372
33372
33372
33415
33415
33415
33501
33501
33501
33501
33479
33479
33479
33350
33350
33350
33501
33501
33501
33436
33436
33436
33522
33522
33522
33522
33522
33522
33522
33415
33415
33415
33436
33436
33436
33415
33415
33415
33522
33522
33522
33522
33522
33522
33522
33501
33501
33501
33479
33479
33479
33415
33415
33415
33458
33458
33458
33458
33436
33436
33436
33436
33436
33436
33479
33479
33479
33350
33350
33350
33501
33501
33501
33501
33501
33501
33501
33372
33372
33372
33501
33501
33501
33436
33436
33436
33436
33436
33436
33436
33501
33501
33501
33544
33544
33544
33479
33479
33479
33372
33372
33372
33501
33501
33501
33501
33522
33522
33522
33372
33372
33372
33544
33544
33544
33350
33350
33350
33479
33479
33479
33479
33458
33458
33458
33479
33479
33479
33522
33522
33522
33436
33436
33436
33522
33522
33522
33522
33415
33415
33415
33393
33393
33393
33522
33522
33522
33436
33436
33436
33501
33501
33501
33501
33479
33479
33479
33501
33501
33501
33479
33479
33479
33436
33436
33436
33415
33415
33415
33415
33501
33501
33501
33372
33372
33372
33415
33415
33415
33393
33393
33393
33522
33522
33522
33522
33479
33479
33479
33436
33436
33436
33458
33458
33458
33501
33501
33501
33501
33501
33501
33501
33458
33458
33458
33458
33458
33458
33350
33350
33350
33436
33436
33436
33501
33501
33501
33501
33544
33544
33544
33372
33372
33372
33501
33501
33501
33479
33479
33479
33479
33479
33479
33479
33501
33501
33501
33393
33393
33393
33501
33501
33501
33372
33372
33372
33501
33501
33501
33501
33393
33393
33393
33415
33415
33415
33458
33458
33458
33329
33329
33329
33651
33651
33651
33651
33565
33565
33565
33458
33458
33458
33501
33501
33501
33307
33307
33307
33501
33501
33501
33501
33458
33458
33458
33415
33415
33415
33501
33501
33501
33458
33458
33458
33479
33479
33479
33479
33501
33501
33501
33436
33436
33436
33458
33458
33458
33436
33436
33436
33522
33522
33522
33522
33501
33501
33501
33415
33415
33415
33479
33479
33479
33329
33329
33329
33501
33501
33501
33501
33479
33479
33479
33372
33372
33372
33522
33522
33522
33350
33350
33350
33393
33393
33393
33393
33436
33436
33436
33393
33393
33393
33522
33522
33522
33479
33479
33479
33479
33479
33479
33479
33479
33479
33479
33458
33458
33458
33544
33544
33544
33415
33415
33415
33479
33479
33479
33479
33479
33479
33479
33307
33307
33307
33501
33501
33501
33415
33415
33415
33350
33350
33350
33350
33479
33479
33479
33436
33436
33436
33522
33522
33522
33265
33265
33265
33522
33522
33522
33522
33522
33522
33522
33393
33393
33393
33458
33458
33458
33415
33415
33415
33458
33458
33458
33458
33501
33501
33501
33458
33458
33458
33436
33436
33436
33393
33393
33393
33565
33565
33565
33565
33501
33501
33501
33415
33415
33415
33522
33522
33522
33415
33415
33415
33630
33630
33630
33630
33458
33458
33458
33393
33393
33393
33436
33436
33436
33372
33372
33372
33544
33544
33544
33544
33587
33587
33587
33415
33415
33415
33522
33522
33522
33372
33372
33372
33479
33479
33479
33479
33479
33479
33479
33415
33415
33415
33458
33458
33458
33479
33479
33479
33501
33501
33501
33501
33479
33479
33479
33458
33458
33458
33501
33501
33501
33458
33458
33458
33544
33544
33544
33544
33522
33522
33522
33458
33458
33458
33544
33544
33544
33350
33350
33350
33522
33522
33522
33522
33415
33415
33415
33436
33436
33436
33522
33522
33522
33350
33350
33350
33544
33544
33544
33544
33565
33565
33565
33329
33329
33329
33479
33479
33479
33479
33479
33479
33522
33522
33522
33522
33479
33479
33479
33458
33458
33458
33393
33393
33393
33436
33436
33436
33672
33672
33672
33672
33436
33436
33436
33329
33329
33329
33522
33522
33522
33436
33436
33436
33415
33415
33415
33415
33458
33458
33458
33458
33458
33458
33501
33501
33501
33350
33350
33350
33479
33479
33479
33479
33436
33436
33436
33436
33436
33436
33522
33522
33522
33329
33329
33329
33501
33501
33501
33501
33501
33501
33501
33501
33501
33501
33372
33372
33372
33415
33415
33415
33501
33501
33501
33501
33479
33479
33479
33458
33458
33458
33522
33522
33522
33415
33415
33415
33479
33479
33479
33479
33479
33479
33479
33415
33415
33415
33544
33544
33544
33415
33415
33415
33694
33694
33694
33694
33522
33522
33522
33350
33350
33350
33501
33501
33501
33565
33565
33565
33372
33372
33372
33372
33544
33544
33544
33415
33415
33415
33479
33479
33479
33458
33458
33458
33479
33479
33479
33479
33479
33479
33479
33329
33329
33329
33393
33393
33393
33479
33479
33479
33544
33544
33544
33544
33544
33544
33544
33415
33415
33415
33501
33501
33501
33415
33415
33415
33672
33672
33672
33672
33501
33501
33501
33393
33393
33393
33479
33479
33479
33436
33436
33436
33608
33608
33608
33608
33458
33458
33458
33565
33565
33565
33522
33522
33522
33479
33479
33479
33350
33350
33350
33350
33436
33436
33436
33436
33436
33436
33479
33479
33479
33415
33415
33415
33501
33501
33501
33501
33458
33458
33458
33436
33436
33436
33587
33587
33587
33415
33415
33415
33522
33522
33522
33522
33565
33565
33565
33372
33372
33372
33501
33501
33501
33479
33479
33479
33587
33587
33587
33587
33522
33522
33522
33458
33458
33458
33479
33479
33479
33350
33350
33350
33522
33522
33522
33522
33479
33479
33479
33522
33522
33522
33501
33501
33501
33522
33522
33522
33522
33522
33522
33522
33479
33479
33479
33458
33458
33458
33458
33458
33458
33372
33372
33372
33501
33501
33501
33501
33458
33458
33458
33501
33501
33501
33372
33372
33372
33479
33479
33479
33587
33587
33587
33587
33458
33458
33458
33393
33393
33393
33522
33522
33522
33458
33458
33458
33672
33672
33672
33672
33501
33501
33501
33458
33458
33458
33436
33436
33436
33436
33436
33436
33522
33522
33522
33522
33436
33436
33436
33458
33458
33458
33479
33479
33479
33393
33393
33393
33587
33587
33587
33587
33522
33522
33522
33436
33436
33436
33479
33479
33479
33350
33350
33350
33479
33479
33479
33479
33436
33436
33436
33479
33479
33479
33479
33479
33479
33436
33436
33436
33458
33458
33458
33458
33522
33522
33522
33372
33372
33372
33544
33544
33544
33479
33479
33479
33608
33608
33608
33608
33458
33458
33458
33458
33458
33458
33544
33544
33544
33436
33436
33436
33565
33565
33565
33565
33458
33458
33458
33522
33522
33522
33501
33501
33501
33415
33415
33415
33522
33522
33522
33522
33479
33479
33479
33436
33436
33436
33522
33522
33522
33372
33372
33372
33522
33522
33522
33522
33501
33501
33501
33436
33436
33436
33501
33501
33501
33436
33436
33436
33544
33544
33544
33544
33544
33544
33544
33350
33350
33350
33501
33501
33501
33436
33436
33436
33415
33415
33415
33415
33393
33393
33393
33415
33415
33415
33501
33501
33501
33458
33458
33458
33458
33458
33458
33458
33436
33436
33436
33415
33415
33415
33501
33501
33501
33458
33458
33458
33544
33544
33544
33544
33565
33565
33565
33436
33436
33436
33458
33458
33458
33544
33544
33544
33522
33522
33522
33522
33479
33479
33479
33458
33458
33458
33501
33501
33501
33415
33415
33415
33501
33501
33501
33501
33479
33479
33479
33436
33436
33436
33479
33479
33479
33393
33393
33393
33350
33350
33350
33350
33544
33544
33544
33436
33436
33436
33458
33458
33458
33372
33372
33372
33479
33479
33479
33479
33458
33458
33458
33458
33458
33458
33479
33479
33479
33436
33436
33436
33501
33501
33501
33501
33587
33587
33587
33479
33479
33479
33587
33587
33587
33393
33393
33393
33501
33501
33501
33501
33479
33479
33479
33458
33458
33458
33458
33458
33458
33393
33393
33393
33436
33436
33436
33436
33522
33522
33522
33350
33350
33350
33501
33501
33501
33436
33436
33436
33630
33630
33630
33630
33672
33672
33672
33415
33415
33415
33522
33522
33522
33436
33436
33436
33522
33522
33522
33522
33501
33501
33501
33415
33415
33415
33501
33501
33501
33393
33393
33393
33436
33436
33436
33436
33372
33372
33372
33393
33393
33393
33479
33479
33479
33479
33479
33479
33479
33479
33479
33479
33479
33479
33479
33372
33372
33372
33458
33458
33458
33415
33415
33415
33501
33501
33501
33501
33479
33479
33479
33393
33393
33393
33458
33458
33458
33415
33415
33415
33501
33501
33501
33501
33479
33479
33479
33436
33436
33436
33501
33501
33501
33393
33393
33393
33479
33479
33479
33479
33458
33458
33458
33393
33393
33393
33479
33479
33479
33436
33436
33436
33522
33522
33522
33522
33479
33479
33479
33286
33286
33286
33415
33415
33415
33372
33372
33372
33501
33501
33501
33501
33522
33522
33522
33501
33501
33501
33415
33415
33415
33372
33372
33372
33587
33587
33587
33587
33479
33479
33479
33436
33436
33436
33479
33479
33479
33415
33415
33415
33415
33415
33415
33415
33436
33436
33436
33436
33436
33436
33501
33501
33501
33436
33436
33436
33501
33501
33501
33501
33522
33522
33522
33393
33393
33393
33458
33458
33458
33458
33458
33458
33501
33501
33501
33501
33479
33479
33479
33415
33415
33415
33436
33436
33436
33372
33372
33372
33630
33630
33630
33630
33544
33544
33544
33436
33436
33436
33522
33522
33522
33350
33350
33350
33458
33458
33458
33458
33479
33479
33479
33415
33415
33415
33501
33501
33501
33501
33501
33501
33436
33436
33436
33436
33436
33436
33436
33436
33436
33436
33501
33501
33501
33393
33393
33393
33479
33479
33479
33479
33458
33458
33458
33415
33415
33415
33458
33458
33458
33458
33458
33458
33479
33479
33479
33479
33501
33501
33501
33307
33307
33307
33522
33522
33522
33458
33458
33458
33737
33737
33737
33737
33608
33608
33608
33458
33458
33458
33522
33522
33522
33479
33479
33479
33501
33501
33501
33501
33458
33458
33458
33458
33458
33458
33479
33479
33479
33436
33436
33436
33544
33544
33544
33544
33501
33501
33501
33372
33372
33372
33587
33587
33587
33393
33393
33393
33415
33415
33415
33415
33501
33501
33501
33350
33350
33350
33522
33522
33522
33458
33458
33458
33479
33479
33479
33479
33501
33501
33501
33458
33458
33458
33458
33458
33458
33415
33415
33415
33565
33565
33565
33565
33436
33436
33436
33393
33393
33393
33479
33479
33479
33522
33522
33522
33479
33479
33479
33479
33544
33544
33544
33415
33415
33415
33501
33501
33501
33458
33458
33458
33501
33501
33501
33501
33522
33522
33522
33307
33307
33307
33501
33501
33501
33393
33393
33393
33522
33522
33522
33522
33415
33415
33415
33458
33458
33458
33544
33544
33544
33458
33458
33458
33415
33415
33415
33415
33436
33436
33436
33415
33415
33415
33436
33436
33436
33436
33436
33436
33522
33522
33522
33522
33522
33522
33522
33479
33479
33479
33458
33458
33458
33501
33501
33501
33415
33415
33415
33415
33479
33479
33479
33415
33415
33415
33479
33479
33479
33479
33479
33479
33479
33479
33479
33479
33479
33479
33479
33436
33436
33436
33393
33393
33393
33436
33436
33436
33415
33415
33415
33415
33501
33501
33501
33458
33458
33458
33522
33522
33522
33415
33415
33415
33587
33587
33587
33587
33415
33415
33415
33458
33458
33458
33544
33544
33544
33415
33415
33415
33458
33458
33458
33458
33522
33522
33522
33436
33436
33436
33522
33522
33522
33415
33415
33415
33501
33501
33501
33501
33565
33565
33565
33436
33436
33436
33544
33544
33544
33393
33393
33393
33522
33522
33522
33522
33479
33479
33479
33372
33372
33372
33608
33608
33608
33436
33436
33436
33672
33672
33672
33672
33522
33522
33522
33372
33372
33372
33458
33458
33458
33436
33436
33436
33479
33479
33479
33479
33393
33393
33393
33436
33436
33436
33458
33458
33458
33458
33458
33458
33522
33522
33522
33522
33479
33479
33479
33458
33458
33458
33501
33501
33501
33415
33415
33415
33544
33544
33544
33544
33522
33522
33522
33436
33436
33436
33501
33501
33501
33372
33372
33372
33501
33501
33501
33501
33522
33522
33522
33415
33415
33415
33415
33415
33415
33436
33436
33436
33522
33522
33522
33522
33415
33415
33415
33372
33372
33372
33522
33522
33522
33393
33393
33393
33522
33522
33522
33522
33651
33651
33651
33415
33415
33415
33501
33501
33501
33479
33479
33479
33522
33522
33522
33522
33544
33544
33544
33479
33479
33479
33608
33608
33608
33501
33501
33501
33479
33479
33479
33479
33458
33458
33458
33286
33286
33286
33544
33544
33544
33479
33479
33479
33672
33672
33672
33672
33501
33501
33501
33415
33415
33415
33436
33436
33436
33415
33415
33415
33479
33479
33479
33479
33479
33479
33479
33544
33544
33544
33458
33458
33458
33372
33372
33372
33436
33436
33436
33436
33522
33522
33522
33436
33436
33436
33458
33458
33458
33458
33458
33458
33501
33501
33501
33501
33501
33501
33501
33458
33458
33458
33522
33522
33522
33458
33458
33458
33501
33501
33501
33501
33479
33479
33479
33415
33415
33415
33565
33565
33565
33436
33436
33436
33565
33565
33565
33565
33565
33565
33565
33436
33436
33436
33501
33501
33501
33157
33157
33157
33501
33501
33501
33501
33522
33522
33522
33415
33415
33415
33372
33372
33372
33393
33393
33393
33501
33501
33501
33501
33479
33479
33479
33522
33522
33522
33565
33565
33565
33415
33415
33415
33372
33372
33372
33372
33522
33522
33522
33372
33372
33372
33479
33479
33479
33544
33544
33544
33501
33501
33501
33501
33393
33393
33393
33436
33436
33436
33522
33522
33522
33372
33372
33372
33544
33544
33544
33544
33522
33522
33522
33372
33372
33372
33522
33522
33522
33415
33415
33415
33501
33501
33501
33501
33522
33522
33522
33436
33436
33436
33544
33544
33544
33415
33415
33415
33479
33479
33479
33479
33479
33479
33479
33436
33436
33436
33479
33479
33479
33458
33458
33458
33458
33458
33458
33458
33501
33501
33501
33393
33393
33393
33458
33458
33458
33479
33479
33479
33479
33479
33479
33479
33479
33479
33479
33436
33436
33436
33565
33565
33565
33415
33415
33415
33544
33544
33544
33544
33479
33479
33479
33393
33393
33393
33565
33565
33565
33458
33458
33458
33479
33479
33479
33479
33501
33501
33501
33415
33415
33415
33522
33522
33522
33415
33415
33415
33544
33544
33544
33544
33501
33501
33501
33393
33393
33393
33608
33608
33608
33372
33372
33372
33544
33544
33544
33544
33544
33544
33544
33329
33329
33329
33501
33501
33501
33415
33415
33415
33501
33501
33501
33501
33479
33479
33479
33479
33479
33479
33458
33458
33458
33393
33393
33393
33522
33522
33522
33522
33522
33522
33522
33372
33372
33372
33501
33501
33501
33458
33458
33458
33608
33608
33608
33608
33522
33522
33522
33350
33350
33350
33522
33522
33522
33393
33393
33393
33501
33501
33501
33501
33458
33458
33458
33458
33458
33458
33479
33479
33479
33479
33479
33479
33458
33458
33458
33458
33458
33458
33458
33372
33372
33372
33479
33479
33479
33436
33436
33436
33479
33479
33479
33479
33565
33565
33565
33458
33458
33458
33565
33565
33565
33522
33522
33522
33544
33544
33544
33544
33479
33479
33479
33393
33393
33393
33522
33522
33522
33393
33393
33393
33415
33415
33415
33415
33458
33458
33458
33479
33479
33479
33479
33479
33479
33372
33372
33372
33436
33436
33436
33436
33393
33393
33393
33458
33458
33458
33565
33565
33565
33501
33501
33501
33522
33522
33522
33522
33436
33436
33436
33415
33415
33415
33522
33522
33522
33415
33415
33415
33522
33522
33522
33522
33458
33458
33458
33393
33393
33393
33565
33565
33565
33501
33501
33501
33522
33522
33522
33522
33522
33522
33522
33436
33436
33436
33458
33458
33458
33458
33458
33458
33501
33501
33501
33501
33501
33501
33501
33458
33458
33458
33501
33501
33501
33479
33479
33479
33436
33436
33436
33436
33501
33501
33501
33458
33458
33458
33501
33501
33501
33393
33393
33393
33522
33522
33522
33522
33544
33544
33544
33393
33393
33393
33608
33608
33608
33436
33436
33436
33544
33544
33544
33544
33544
33544
33544
33479
33479
33479
33544
33544
33544
33436
33436
33436
33715
33715
33715
33715
33458
33458
33458
33608
33608
33608
33565
33565
33565
33436
33436
33436
33458
33458
33458
33458
33393
33393
33393
33479
33479
33479
33501
33501
33501
33393
33393
33393
33458
33458
33458
33458
33522
33522
33522
33415
33415
33415
33501
33501
33501
33501
33501
33501
33479
33479
33479
33479
33458
33458
33458
33522
33522
33522
33587
33587
33587
33479
33479
33479
33436
33436
33436
33436
33479
33479
33479
33501
33501
33501
33501
33501
33501
33436
33436
33436
33436
33436
33436
33436
33393
33393
33393
33393
33393
33393
33458
33458
33458
33393
33393
33393
33522
33522
33522
33522
33565
33565
33565
33436
33436
33436
33501
33501
33501
33501
33501
33501
33522
33522
33522
33522
33458
33458
33458
33393
33393
33393
33565
33565
33565
33458
33458
33458
33501
33501
33501
33501
33479
33479
33479
33265
33265
33265
33479
33479
33479
33415
33415
33415
33479
33479
33479
33479
33479
33479
33479
33307
33307
33307
33501
33501
33501
33501
33501
33501
33479
33479
33479
33479
33544
33544
33544
33415
33415
33415
33479
33479
33479
33501
33501
33501
33479
33479
33479
33479
33608
33608
33608
33436
33436
33436
33565
33565
33565
33393
33393
33393
33436
33436
33436
33436
33544
33544
33544
33436
33436
33436
33479
33479
33479
33479
33479
33479
33479
33479
33479
33479
33415
33415
33415
33393
33393
33393
33501
33501
33501
33436
33436
33436
33587
33587
33587
33587
33501
33501
33501
33350
33350
33350
33501
33501
33501
33415
33415
33415
33479
33479
33479
33479
33522
33522
33522
33372
33372
33372
33501
33501
33501
33350
33350
33350
33458
33458
33458
33458
33501
33501
33501
33415
33415
33415
33587
33587
33587
33393
33393
33393
33565
33565
33565
33565
33544
33544
33544
33415
33415
33415
33565
33565
33565
33329
33329
33329
33501
33501
33501
33501
33479
33479
33479
33415
33415
33415
33458
33458
33458
33393
33393
33393
33436
33436
33436
33436
33436
33436
33436
33479
33479
33479
33501
33501
33501
33350
33350
33350
33608
33608
33608
33608
33436
33436
33436
33415
33415
33415
33694
33694
33694
33329
33329
33329
33501
33501
33501
33501
33479
33479
33479
33479
33479
33479
33479
33479
33479
33372
33372
33372
33544
33544
33544
33544
33522
33522
33522
33415
33415
33415
33501
33501
33501
33479
33479
33479
33350
33350
33350
33350
33479
33479
33479
33372
33372
33372
33458
33458
33458
33458
33458
33458
33608
33608
33608
33608
33522
33522
33522
33372
33372
33372
33501
33501
33501
33458
33458
33458
33415
33415
33415
33415
33501
33501
33501
33415
33415
33415
33415
33415
33415
33458
33458
33458
33479
33479
33479
33479
33479
33479
33479
33458
33458
33458
33522
33522
33522
33393
33393
33393
33522
33522
33522
33522
33436
33436
33436
33436
33436
33436
33501
33501
33501
33350
33350
33350
33501
33501
33501
33501
33458
33458
33458
33372
33372
33372
33544
33544
33544
33415
33415
33415
33458
33458
33458
33458
33479
33479
33479
33436
33436
33436
33544
33544
33544
33436
33436
33436
33501
33501
33501
33501
33415
33415
33415
33458
33458
33458
33587
33587
33587
33329
33329
33329
33458
33458
33458
33458
33479
33479
33479
33436
33436
33436
33458
33458
33458
33436
33436
33436
33458
33458
33458
33458
33479
33479
33479
33544
33544
33544
33458
33458
33458
33393
33393
33393
33544
33544
33544
33544
33501
33501
33501
33415
33415
33415
33544
33544
33544
33350
33350
33350
33501
33501
33501
33501
33458
33458
33458
33372
33372
33372
33565
33565
33565
33436
33436
33436
33479
33479
33479
33479
33522
33522
33522
33415
33415
33415
33372
33372
33372
33329
33329
33329
33479
33479
33479
33479
33522
33522
33522
33694
33694
33694
33544
33544
33544
33436
33436
33436
33436
33436
33436
33436
33501
33501
33501
33393
33393
33393
33479
33479
33479
33372
33372
33372
33436
33436
33436
33436
33458
33458
33458
33415
33415
33415
33436
33436
33436
33458
33458
33458
33544
33544
33544
33544
33501
33501
33501
33479
33479
33479
33329
33329
33329
33458
33458
33458
33479
33479
33479
33479
33436
33436
33436
33393
33393
33393
33565
33565
33565
33458
33458
33458
33501
33501
33501
33501
33479
33479
33479
33307
33307
33307
33544
33544
33544
33393
33393
33393
33479
33479
33479
33479
33458
33458
33458
33458
33458
33458
33501
33501
33501
33350
33350
33350
33479
33479
33479
33479
33415
33415
33415
33436
33436
33436
33479
33479
33479
33415
33415
33415
33522
33522
33522
33522
33479
33479
33479
33393
33393
33393
33587
33587
33587
33436
33436
33436
33522
33522
33522
33522
33544
33544
33544
33372
33372
33372
33458
33458
33458
33415
33415
33415
33522
33522
33522
33522
33479
33479
33479
33436
33436
33436
33544
33544
33544
33393
33393
33393
33501
33501
33501
33501
33479
33479
33479
33393
33393
33393
33522
33522
33522
33544
33544
33544
33479
33479
33479
33479
33501
33501
33501
33436
33436
33436
33436
33436
33436
33393
33393
33393
33522
33522
33522
33522
33501
33501
33501
33393
33393
33393
33630
33630
33630
33458
33458
33458
33501
33501
33501
33501
33479
33479
33479
33286
33286
33286
33479
33479
33479
33415
33415
33415
33479
33479
33479
33479
33265
33265
33265
33415
33415
33415
33501
33501
33501
33522
33522
33522
33587
33587
33587
33587
33522
33522
33522
33436
33436
33436
33544
33544
33544
33436
33436
33436
33522
33522
33522
33522
33458
33458
33458
33458
33458
33458
33501
33501
33501
33372
33372
33372
33458
33458
33458
33458
33458
33458
33458
33458
33458
33458
33544
33544
33544
33436
33436
33436
33479
33479
33479
33479
33479
33479
33479
33565
33565
33565
33522
33522
33522
33436
33436
33436
33436
33436
33436
33436
33544
33544
33544
33436
33436
33436
33522
33522
33522
33286
33286
33286
33436
33436
33436
33436
33479
33479
33479
33436
33436
33436
33479
33479
33479
33393
33393
33393
33479
33479
33479
33479
33501
33501
33501
33329
33329
33329
33544
33544
33544
33393
33393
33393
33479
33479
33479
33479
33501
33501
33501
33479
33479
33479
33501
33501
33501
33372
33372
33372
33522
33522
33522
33522
33501
33501
33501
33479
33479
33479
33458
33458
33458
33329
33329
33329
33501
33501
33501
33501
33458
33458
33458
33372
33372
33372
33479
33479
33479
33393
33393
33393
33479
33479
33479
33479
33436
33436
33436
33243
33243
33243
33501
33501
33501
33479
33479
33479
33436
33436
33436
33436
33479
33479
33479
33372
33372
33372
33522
33522
33522
33458
33458
33458
33522
33522
33522
33522
33479
33479
33479
33458
33458
33458
33522
33522
33522
33393
33393
33393
33501
33501
33501
33501
33544
33544
33544
33415
33415
33415
33501
33501
33501
33350
33350
33350
33501
33501
33501
33501
33501
33501
33501
33372
33372
33372
33501
33501
33501
33479
33479
33479
33372
33372
33372
33372
33501
33501
33501
33350
33350
33350
33501
33501
33501
33436
33436
33436
33565
33565
33565
33565
33565
33565
33565
33415
33415
33415
33501
33501
33501
33350
33350
33350
33479
33479
33479
33479
33479
33479
33479
33415
33415
33415
33436
33436
33436
33436
33436
33436
33479
33479
33479
33479
33458
33458
33458
33415
33415
33415
33501
33501
33501
33436
33436
33436
33307
33307
33307
33307
33436
33436
33436
33415
33415
33415
33501
33501
33501
33458
33458
33458
33479
33479
33479
33479
33501
33501
33501
33458
33458
33458
33544
33544
33544
33372
33372
33372
33565
33565
33565
33565
33522
33522
33522
33415
33415
33415
33479
33479
33479
33522
33522
33522
33501
33501
33501
33501
33415
33415
33415
33479
33479
33479
33479
33479
33479
33458
33458
33458
33458
33458
33458
33458
33458
33458
33458
33415
33415
33415
33522
33522
33522
33415
33415
33415
33501
33501
33501
33501
33415
33415
33415
33458
33458
33458
33715
33715
33715
33393
33393
33393
33565
33565
33565
33565
33501
33501
33501
33458
33458
33458
33522
33522
33522
33479
33479
33479
33458
33458
33458
33458
33479
33479
33479
33436
33436
33436
33436
33436
33436
33393
33393
33393
33458
33458
33458
33458
33522
33522
33522
33393
33393
33393
33501
33501
33501
33436
33436
33436
33522
33522
33522
33522
33436
33436
33436
33393
33393
33393
33522
33522
33522
33436
33436
33436
33522
33522
33522
33522
33608
33608
33608
33393
33393
33393
33479
33479
33479
33415
33415
33415
33522
33522
33522
33522
33436
33436
33436
33415
33415
33415
33479
33479
33479
33393
33393
33393
33565
33565
33565
33565
33501
33501
33501
33415
33415
33415
33479
33479
33479
33329
33329
33329
33501
33501
33501
33501
33436
33436
33436
33436
33436
33436
33501
33501
33501
33458
33458
33458
33501
33501
33501
33501
33501
33501
33501
33522
33522
33522
33458
33458
33458
33415
33415
33415
33415
33415
33415
33415
33458
33458
33458
33458
33458
33458
33479
33479
33479
33436
33436
33436
33522
33522
33522
33522
33479
33479
33479
33458
33458
33458
33544
33544
33544
33415
33415
33415
33479
33479
33479
33479
33479
33479
33479
33436
33436
33436
33436
33436
33436
33436
33436
33436
33522
33522
33522
33522
33436
33436
33436
33372
33372
33372
33501
33501
33501
33393
33393
33393
33544
33544
33544
33544
33479
33479
33479
33393
33393
33393
33608
33608
33608
33307
33307
33307
33479
33479
33479
33479
33544
33544
33544
33479
33479
33479
33501
33501
33501
33415
33415
33415
33565
33565
33565
33565
33501
33501
33501
33415
33415
33415
33479
33479
33479
33479
33479
33479
33522
33522
33522
33522
33501
33501
33501
33415
33415
33415
33479
33479
33479
33350
33350
33350
33501
33501
33501
33501
33715
33715
33715
33458
33458
33458
33479
33479
33479
33672
33672
33672
33587
33587
33587
33587
33479
33479
33479
33372
33372
33372
33415
33415
33415
33458
33458
33458
33522
33522
33522
33522
33522
33522
33522
33458
33458
33458
33479
33479
33479
33415
33415
33415
33522
33522
33522
33522
33458
33458
33458
33265
33265
33265
33436
33436
33436
33436
33436
33436
33479
33479
33479
33479
33479
33479
33479
33458
33458
33458
33479
33479
33479
33415
33415
33415
33436
33436
33436
33436
33479
33479
33479
33415
33415
33415
33436
33436
33436
33436
33436
33436
33522
33522
33522
33522
33479
33479
33479
33479
33479
33479
33458
33458
33458
33372
33372
33372
33479
33479
33479
33479
33436
33436
33436
33415
33415
33415
33501
33501
33501
33329
33329
33329
33458
33458
33458
33458
33522
33522
33522
33393
33393
33393
33501
33501
33501
33436
33436
33436
33544
33544
33544
33544
33522
33522
33522
33501
33501
33501
33522
33522
33522
33458
33458
33458
33522
33522
33522
33522
33587
33587
33587
33415
33415
33415
33544
33544
33544
33436
33436
33436
33350
33350
33350
33350
33544
33544
33544
33436
33436
33436
33501
33501
33501
33458
33458
33458
33522
33522
33522
33522
33565
33565
33565
33458
33458
33458
33501
33501
33501
33415
33415
33415
33458
33458
33458
33458
33544
33544
33544
33222
33222
33222
33608
33608
33608
33458
33458
33458
33522
33522
33522
33522
33458
33458
33458
33501
33501
33501
33522
33522
33522
33458
33458
33458
33372
33372
33372
33372
33458
33458
33458
33393
33393
33393
33436
33436
33436
33458
33458
33458
33458
33458
33458
33458
33436
33436
33436
33393
33393
33393
33479
33479
33479
33415
33415
33415
33544
33544
33544
33544
33522
33522
33522
33393
33393
33393
33458
33458
33458
33436
33436
33436
33544
33544
33544
33544
33479
33479
33479
33415
33415
33415
33522
33522
33522
33436
33436
33436
33544
33544
33544
33544
33436
33436
33436
33393
33393
33393
33458
33458
33458
33522
33522
33522
33415
33415
33415
33415
33522
33522
33522
33436
33436
33436
33393
33393
33393
33458
33458
33458
33501
33501
33501
33501
33522
33522
33522
33372
33372
33372
33522
33522
33522
33415
33415
33415
33415
33415
33415
33415
33436
33436
33436
33501
33501
33501
33458
33458
33458
33479
33479
33479
33372
33372
33372
33372
33522
33522
33522
33436
33436
33436
33501
33501
33501
33415
33415
33415
33501
33501
33501
33501
33501
33501
33501
33393
33393
33393
33372
