2163
2167
2167
2167
2166
2166
2166
2161
2161
2161
2161
2161
2161
2161
2162
2162
2162
2161
2161
2161
2160
2160
2160
2163
2163
2163
2164
2164
2164
2164
2164
2164
2164
2166
2166
2166
2167
2167
2167
2165
2165
2165
2163
2163
2163
2163
2162
2162
2162
2162
2162
2162
2159
2159
2159
2162
2162
2162
2167
2167
2167
2167
2162
2162
2162
2156
2156
2156
2168
2168
2168
2164
2164
2164
2163
2163
2163
2163
2164
2164
2164
2165
2165
2157
2162
2162
2162
2164
2164
2164
2163
2163
2163
2162
2162
2162
2162
2165
2165
2165
2164
2164
2164
2163
2163
2163
2162
2162
2162
2164
2164
2164
2164
2163
2163
2163
2161
2161
2161
2162
2162
2162
2160
2160
2160
2163
2163
2163
2163
2160
2160
2160
2162
2162
2162
2162
2162
2162
2161
2161
2161
2161
2161
2161
2161
2163
2163
2163
2163
2163
2163
2165
2165
2165
2162
2162
2162
2164
2164
2164
2164
2162
2162
2162
2166
2166
2166
2162
2162
2162
2163
2163
2163
2166
2166
2166
2166
2165
2165
2165
2163
2163
2163
2162
2162
2162
2161
2161
2161
2165
2165
2165
2165
2163
2163
2163
2162
2162
2162
2163
2163
2163
2162
2162
2162
2165
2165
2165
2165
2163
2163
2163
2162
2162
2162
2162
2162
2162
2162
2162
2162
2164
2164
2164
2164
2160
2160
2160
2161
2161
2161
2168
2168
2168
2162
2162
2162
2162
2162
2162
2162
2164
2164
2164
2166
2166
2166
2161
2161
2161
2165
2165
2165
2164
2164
2164
2164
2161
2161
2161
2164
2164
2164
2165
2165
2165
2162
2162
2162
2162
2162
2162
2162
2160
2160
2160
2160
2160
2160
2165
2165
2165
2164
2164
2164
2168
2168
2168
2168
2162
2162
2162
2160
2160
2160
2160
2160
2160
2161
2161
2161
2164
2164
2164
2164
2158
2158
2158
2162
2162
2162
2162
2162
2162
2166
2166
2166
2160
2160
2160
2160
2159
2159
2159
2160
2160
2160
2164
2164
2164
2163
2163
2163
2162
2162
2162
2162
2162
2162
2162
2168
2168
2168
2164
2164
2164
2164
2164
2164
2163
2163
2163
2163
2167
2167
2167
2161
2161
2161
2164
2164
2164
2162
2162
2162
2164
2164
2164
2164
2161
2161
2161
2164
2164
2164
2163
2163
2163
2163
2163
2163
2163
2163
2163
2163
2157
2157
2157
2162
2162
2162
2162
2162
2162
2157
2157
2157
2163
2163
2163
2163
2166
2166
2166
2160
2160
2160
2162
2162
2162
2164
2164
2164
2162
2162
2162
2162
2160
2160
2160
2157
2157
2157
2165
2165
2165
2161
2161
2161
2165
2165
2165
2165
2161
2161
2161
2154
2154
2154
2162
2162
2162
2162
2162
2162
2164
2164
2164
2164
2169
2169
2169
2162
2162
2162
2163
2163
2163
2162
2162
2162
2163
2163
2163
2163
2160
2160
2160
2163
2163
2163
2163
2163
2163
2161
2161
2161
2163
2163
2163
2163
2162
2162
2162
2165
2165
2165
2166
2166
2166
2163
2163
2163
2163
2163
2163
2163
2163
2163
2163
2162
2162
2162
2162
2162
2162
2162
2162
2162
2166
2166
2166
2166
2162
2162
2162
2163
2163
2163
2162
2162
2162
2164
2164
2164
2163
2163
2163
2163
2163
2163
2163
2162
2162
2162
2161
2161
2161
2164
2164
2164
2163
2163
2163
2163
2163
2163
2163
2163
2163
2163
2162
2162
2162
2164
2164
2164
2161
2161
2161
2161
2163
2163
2163
2164
2164
2164
2163
2163
2163
2161
2161
2161
2162
2162
2162
2162
2161
2161
2161
2162
2162
2162
2163
2163
2163
2165
2165
2165
2168
2168
2168
2168
2159
2159
2159
2162
2162
2162
2162
2162
2162
2162
2162
2162
2160
2160
2160
2160
2161
2161
2161
2162
2162
2162
2165
2165
2165
2162
2162
2162
2165
2165
2165
2165
2160
2160
2160
2156
2156
2156
2162
2162
2162
2162
2162
2162
2160
2160
2160
2160
2163
2163
2163
2162
2162
2162
2163
2163
2163
2163
2163
2163
2160
2160
2160
2160
2164
2164
2164
2163
2163
2163
2162
2162
2162
2165
2165
2165
2159
2159
2159
2159
2162
2162
2162
2164
2164
2164
2163
2163
2163
2163
2163
2163
2163
2163
2163
2163
2160
2160
2160
2162
2162
2162
2163
2163
2163
2164
2164
2164
2161
2161
2161
2161
2161
2161
2161
2162
2162
2162
2165
2165
2165
2162
2162
2162
2161
2161
2161
2161
2167
2167
2167
2162
2162
2162
2163
2163
2163
2167
2167
2167
2162
2162
2162
2162
2165
2165
2165
2163
2163
2163
2164
2164
2164
2163
2163
2163
2165
2165
2165
2165
2162
2162
2162
2163
2163
2163
2165
2165
2165
2159
2159
2159
2159
2159
2159
2159
2165
2165
2165
2165
2165
2165
2163
2163
2163
2172
2172
2172
2166
2166
2166
2166
2158
2158
2158
2162
2162
2162
2162
2162
2162
2157
2157
2157
2158
2158
2158
2158
2165
2165
2165
2166
2166
2166
2165
2165
2165
2159
2159
2159
2163
2163
2163
2163
2165
2165
2165
2163
2163
2163
2164
2164
2164
2162
2162
2162
2162
2162
2162
2162
2162
2162
2162
2162
2162
2162
2165
2165
2165
2163
2163
2163
2164
2164
2164
2164
2166
2166
2166
2165
2165
2165
2164
2164
2164
2162
2162
2162
2162
2162
2162
2162
2163
2163
2163
2160
2160
2160
2163
2163
2163
2163
2163
2163
2162
2162
2162
2162
2165
2165
2165
2161
2161
2161
2162
2162
2162
2164
2164
2164
2163
2163
2163
2163
2163
2163
2163
2159
2159
2159
2165
2165
2165
2161
2161
2161
2162
2162
2162
2162
2163
2163
2163
2161
2161
2161
2159
2159
2159
2162
2162
2162
2160
2160
2160
2160
2161
2161
2161
2158
2158
2158
2160
2160
2160
2168
2168
2168
2161
2161
2161
2161
2164
2164
2164
2162
2162
2162
2162
2162
2162
2163
2163
2163
2162
2162
2162
2162
2162
2162
2162
2168
2168
2168
2167
2167
2167
2161
2161
2161
2161
2161
2161
2161
2161
2161
2161
2163
2163
2163
2166
2166
2166
2162
2162
2162
2163
2163
2163
2163
2164
2164
2164
2168
2168
2168
2160
