2091
2085
2085
2085
2087
2087
2087
2078
2078
2078
2088
2088
2088
2088
2085
2085
2085
2083
2083
2083
2088
2088
2088
2080
2080
2080
2093
2093
2093
2093
2088
2088
2088
2084
2084
2084
2081
2081
2081
2082
2082
2082
2084
2084
2084
2084
2089
2089
2089
2080
2080
2080
2088
2088
2088
2085
2085
2085
2090
2090
2090
2090
2086
2086
2086
2078
2078
2078
2091
2091
2091
2085
2085
2085
2088
2088
2088
2088
2092
2092
2092
2081
2081
2094
2081
2081
2081
2084
2084
2084
2081
2081
2081
2089
2089
2089
2089
2087
2087
2087
2083
2083
2083
2085
2085
2085
2083
2083
2083
2088
2088
2088
2088
2089
2089
2089
2084
2084
2084
2087
2087
2087
2079
2079
2079
2087
2087
2087
2087
2089
2089
2089
2086
2086
2086
2088
2088
2088
2080
2080
2080
2076
2076
2076
2076
2087
2087
2087
2086
2086
2086
2086
2086
2086
2081
2081
2081
2087
2087
2087
2087
2084
2084
2084
2082
2082
2082
2088
2088
2088
2085
2085
2085
2087
2087
2087
2087
2088
2088
2088
2089
2089
2089
2089
2089
2089
2087
2087
2087
2087
2087
2087
2087
2086
2086
2086
2082
2082
2082
2093
2093
2093
2088
2088
2088
2088
2088
2088
2088
2086
2086
2086
2088
2088
2088
2088
2088
2088
2090
2090
2090
2087
2087
2087
2087
2083
2083
2083
2083
2083
2083
2089
2089
2089
2085
2085
2085
2082
2082
2082
2082
2088
2088
2088
2089
2089
2089
2087
2087
2087
2083
2083
2083
2090
2090
2090
2090
2088
2088
2088
2087
2087
2087
2088
2088
2088
2082
2082
2082
2090
2090
2090
2090
2088
2088
2088
2086
2086
2086
2087
2087
2087
2079
2079
2079
2089
2089
2089
2089
2087
2087
2087
2076
2076
2076
2084
2084
2084
2083
2083
2083
2087
2087
2087
2087
2089
2089
2089
2085
2085
2085
2092
2092
2092
2080
2080
2080
2086
2086
2086
2086
2084
2084
2084
2083
2083
2083
2089
2089
2089
2084
2084
2084
2092
2092
2092
2092
2087
2087
2087
2084
2084
2084
2085
2085
2085
2085
2085
2085
2085
2085
2085
2085
2086
2086
2086
2089
2089
2089
2089
2089
2089
2087
2087
2087
2096
2096
2096
2096
2088
2088
2088
2083
2083
2083
2088
2088
2088
2082
2082
2082
2089
2089
2089
2089
2087
2087
2087
2085
2085
2085
2086
2086
2086
2086
2086
2086
2088
2088
2088
2088
2087
2087
2087
2083
2083
2083
2081
2081
2081
2079
2079
2079
2088
2088
2088
2088
2082
2082
2082
2081
2081
2081
2088
2088
2088
2084
2084
2084
2086
2086
2086
2086
2092
2092
2092
2087
2087
2087
2087
2087
2087
2083
2083
2083
2087
2087
2087
2087
2088
2088
2088
2084
2084
2084
2096
2096
2096
2084
2084
2084
2087
2087
2087
2087
2094
2094
2094
2081
2081
2081
2087
2087
2087
2088
2088
2088
2087
2087
2087
2087
2088
2088
2088
2077
2077
2077
2087
2087
2087
2082
2082
2082
2086
2086
2086
2086
2087
2087
2087
2082
2082
2082
2089
2089
2089
2082
2082
2082
2089
2089
2089
2089
2085
2085
2085
2086
2086
2086
2089
2089
2089
2082
2082
2082
2089
2089
2089
2089
2086
2086
2086
2073
2073
2073
2087
2087
2087
2084
2084
2084
2086
2086
2086
2086
2085
2085
2085
2088
2088
2088
2087
2087
2087
2084
2084
2084
2085
2085
2085
2085
2088
2088
2088
2081
2081
2081
2088
2088
2088
2086
2086
2086
2090
2090
2090
2090
2086
2086
2086
2086
2086
2086
2087
2087
2087
2082
2082
2082
2087
2087
2087
2087
2085
2085
2085
2083
2083
2083
2088
2088
2088
2080
2080
2080
2090
2090
2090
2090
2087
2087
2087
2075
2075
2075
2084
2084
2084
2083
2083
2083
2088
2088
2088
2088
2096
2096
2096
2081
2081
2081
2086
2086
2086
2083
2083
2083
2090
2090
2090
2090
2090
2090
2090
2085
2085
2085
2085
2085
2085
2083
2083
2083
2086
2086
2086
2086
2087
2087
2087
2084
2084
2084
2078
2078
2078
2086
2086
2086
2088
2088
2088
2088
2090
2090
2090
2081
2081
2081
2081
2081
2081
2083
2083
2083
2088
2088
2088
2088
2088
2088
2088
2080
2080
2080
2089
2089
2089
2082
2082
2082
2085
2085
2085
2085
2087
2087
2087
2085
2085
2085
2087
2087
2087
2078
2078
2078
2080
2080
2080
2080
2088
2088
2088
2086
2086
2086
2088
2088
2088
2083
2083
2083
2092
2092
2092
2092
2085
2085
2085
2081
2081
2081
2080
2080
2080
2084
2084
2084
2088
2088
2088
2088
2088
2088
2088
2077
2077
2077
2087
2087
2087
2083
2083
2083
2088
2088
2088
2088
2087
2087
2087
2085
2085
2085
2087
2087
2087
2083
2083
2083
2087
2087
2087
2087
2086
2086
2086
2081
2081
2081
2090
2090
2090
2083
2083
2083
2086
2086
2086
2086
2090
2090
2090
2085
2085
2085
2097
2097
2097
2085
2085
2085
2087
2087
2087
2087
2087
2087
2087
2084
2084
2084
2088
2088
2088
2085
2085
2085
2088
2088
2088
2088
2089
2089
2089
2089
2089
2089
2087
2087
2087
2084
2084
2084
2089
2089
2089
2089
2088
2088
2088
2083
2083
2083
2083
2083
2083
2081
2081
2081
2087
2087
2087
2087
2086
2086
2086
2082
2082
2082
2087
2087
2087
2083
2083
2083
2091
2091
2091
2091
2088
2088
2088
2083
2083
2083
2087
2087
2087
2083
2083
2083
2089
2089
2089
2089
2087
2087
2087
2081
2081
2081
2089
2089
2089
2086
2086
2086
2085
2085
2085
2085
2084
2084
2084
2086
2086
2086
2091
2091
2091
2085
2085
2085
2097
2097
2097
2097
2081
2081
2081
2081
2081
2081
2093
2093
2093
2084
2084
2084
2087
2087
2087
2087
2090
2090
2090
2075
2075
2075
2090
2090
2090
2085
2085
2085
2086
2086
2086
2086
2088
2088
2088
2085
2085
2085
2090
2090
2090
2084
2084
2084
2088
2088
2088
2088
2085
2085
2085
2084
2084
2084
2090
2090
2090
2091
2091
2091
2088
2088
2088
2088
2083
2083
2083
2084
2084
2084
2086
