2193
2193
2194
2194
2194
2194
2192
2192
2192
2191
2191
2191
2193
2193
2193
2186
2186
2186
2192
2192
2192
2192
2192
2192
2192
2189
2189
2189
2191
2191
2191
2187
2187
2187
2193
2193
2193
2193
2191
2191
2191
2189
2189
2189
2194
2194
2194
2189
2189
2189
2193
2193
2193
2193
2194
2194
2194
2192
2192
2192
2190
2190
2190
2186
2186
2186
2193
2193
2193
2193
2192
2192
2192
2190
2190
2190
2193
2193
2193
2200
2200
2200
2191
2191
2193
2193
2193
2193
2193
2193
2192
2192
2192
2189
2189
2189
2192
2192
2192
2188
2188
2188
2192
2192
2192
2192
2191
2191
2191
2191
2191
2191
2192
2192
2192
2191
2191
2191
2192
2192
2192
2192
2187
2187
2187
2197
2197
2197
2194
2194
2194
2188
2188
2188
2194
2194
2194
2194
2190
2190
2190
2191
2191
2191
2193
2193
2193
2190
2190
2190
2193
2193
2193
2193
2191
2191
2191
2188
2188
2188
2192
2192
2192
2188
2188
2188
2193
2193
2193
2193
2191
2191
2191
2190
2190
2190
2188
2188
2188
2188
2188
2188
2192
2192
2192
2192
2195
2195
2195
2189
2189
2189
2191
2191
2191
2189
2189
2189
2192
2192
2192
2192
2191
2191
2191
2193
2193
2193
2190
2190
2190
2194
2194
2194
2191
2191
2191
2191
2193
2193
2193
2189
2189
2189
2190
2190
2190
2191
2191
2191
2191
2191
2191
2191
2188
2188
2188
2190
2190
2190
2184
2184
2184
2188
2188
2188
2194
2194
2194
2194
2186
2186
2186
2188
2188
2188
2190
2190
2190
2184
2184
2184
2194
2194
2194
2194
2189
2189
2189
2190
2190
2190
2200
2200
2200
2189
2189
2189
2189
2189
2189
2189
2196
2196
2196
2188
2188
2188
2190
2190
2190
2189
2189
2189
2191
2191
2191
2191
2189
2189
2189
2186
2186
2186
2192
2192
2192
2187
2187
2187
2188
2188
2188
2188
2190
2190
2190
2186
2186
2186
2192
2192
2192
2184
2184
2184
2193
2193
2193
2193
2190
2190
2190
2189
2189
2189
2194
2194
2194
2188
2188
2188
2194
2194
2194
2194
2190
2190
2190
2190
2190
2190
2194
2194
2194
2186
2186
2186
2191
2191
2191
2191
2192
2192
2192
2190
2190
2190
2192
2192
2192
2191
2191
2191
2191
2191
2191
2191
2189
2189
2189
2185
2185
2185
2194
2194
2194
2188
2188
2188
2190
2190
2190
2190
2190
2190
2190
2190
2190
2190
2198
2198
2198
2191
2191
2191
2189
2189
2189
2189
2194
2194
2194
2194
2194
2194
2194
2194
2194
2186
2186
2186
2194
2194
2194
2194
2191
2191
2191
2188
2188
2188
2192
2192
2192
2186
2186
2186
2190
2190
2190
2190
2192
2192
2192
2186
2186
2186
2193
2193
2193
2187
2187
2187
2195
2195
2195
2195
2192
2192
2192
2189
2189
2189
2194
2194
2194
2190
2190
2190
2194
2194
2194
2194
2194
2194
2194
2191
2191
2191
2193
2193
2193
2199
2199
2199
2193
2193
2193
2193
2192
2192
2192
2190
2190
2190
2189
2189
2189
2182
2182
2182
2194
2194
2194
2194
2192
2192
2192
2188
2188
2188
2193
2193
2193
2198
2198
2198
2189
2189
2189
2189
2193
2193
2193
2189
2189
2189
2194
2194
2194
2190
2190
2190
2195
2195
2195
2195
2191
2191
2191
2190
2190
2190
2191
2191
2191
2185
2185
2185
2191
2191
2191
2191
2193
2193
2193
2189
2189
2189
2192
2192
2192
2190
2190
2190
2193
2193
2193
2193
2193
2193
2193
2188
2188
2188
2191
2191
2191
2191
2191
2191
2199
2199
2199
2199
2189
2189
2189
2189
2189
2189
2187
2187
2187
2188
2188
2188
2193
2193
2193
2193
2193
2193
2193
2189
2189
2189
2190
2190
2190
2189
2189
2189
2191
2191
2191
2191
2190
2190
2190
2190
2190
2190
2193
2193
2193
2187
2187
2187
2188
2188
2188
2188
2187
2187
2187
2191
2191
2191
2194
2194
2194
2188
2188
2188
2194
2194
2194
2194
2198
2198
2198
2186
2186
2186
2182
2182
2182
2189
2189
2189
2191
2191
2191
2191
2195
2195
2195
2188
2188
2188
2192
2192
2192
2191
2191
2191
2193
2193
2193
2193
2188
2188
2188
2189
2189
2189
2193
2193
2193
2189
2189
2189
2191
2191
2191
2191
2191
2191
2191
2189
2189
2189
2191
2191
2191
2186
2186
2186
2190
2190
2190
2190
2190
2190
2190
2190
2190
2190
2190
2190
2190
2183
2183
2183
2196
2196
2196
2196
2194
2194
2194
2186
2186
2186
2193
2193
2193
2190
2190
2190
2192
2192
2192
2192
2190
2190
2190
2187
2187
2187
2192
2192
2192
2189
2189
2189
2197
2197
2197
2197
2193
2193
2193
2188
2188
2188
2186
2186
2186
2189
2189
2189
2191
2191
2191
2191
2194
2194
2194
2188
2188
2188
2191
2191
2191
2190
2190
2190
2191
2191
2191
2191
2193
2193
2193
2189
2189
2189
2192
2192
2192
2190
2190
2190
2188
2188
2188
2188
2192
2192
2192
2189
2189
2189
2199
2199
2199
2185
2185
2185
2188
2188
2188
2188
2185
2185
2185
2190
2190
2190
2193
2193
2193
2189
2189
2189
2194
2194
2194
2194
2189
2189
2189
2192
2192
2192
2191
2191
2191
2185
2185
2185
2190
2190
2190
2190
2192
2192
2192
2189
2189
2189
2190
2190
2190
2182
2182
2182
2190
2190
2190
2190
2190
2190
2190
2188
2188
2188
2193
2193
2193
2190
2190
2190
2193
2193
2193
2193
2193
2193
2193
2183
2183
2183
2192
2192
2192
2186
2186
2186
2194
2194
2194
2194
2193
2193
2193
2176
2176
2176
2192
2192
2192
2193
2193
2193
2190
2190
2190
2190
2192
2192
2192
2191
2191
2191
2190
2190
2190
2187
2187
2187
2189
2189
2189
2189
2193
2193
2193
2190
2190
2190
2196
2196
2196
2187
2187
2187
2194
2194
2194
2194
2191
2191
2191
2190
2190
2190
2196
2196
2196
2186
2186
2186
2190
2190
2190
2190
2190
2190
2190
2192
2192
2192
2189
2189
2189
2191
2191
2191
2192
2192
2192
2192
2191
2191
2191
2195
2195
2195
2195
2195
2195
2189
2189
2189
2190
2190
