2039
2039
2039
2042
2042
2042
2042
2042
2042
2040
2040
2040
2042
2042
2042
2042
2042
2042
2042
2040
2040
2040
2044
2044
2044
2033
2033
2033
2047
2047
2047
2047
2041
2041
2041
2038
2038
2038
2042
2042
2042
2042
2042
2042
2043
2043
2043
2043
2042
2042
2042
2041
2041
2041
2044
2044
2044
2045
2045
2045
2040
2040
2040
2040
2043
2043
2043
2037
2037
2037
2042
2042
2042
2043
2043
2043
2044
2044
2044
2044
2043
2043
2043
2040
2044
2044
2044
2039
2039
2039
2042
2042
2042
2037
2037
2037
2042
2042
2042
2042
2043
2043
2043
2039
2039
2039
2042
2042
2042
2039
2039
2039
2048
2048
2048
2048
2042
2042
2042
2039
2039
2039
2045
2045
2045
2038
2038
2038
2044
2044
2044
2044
2044
2044
2044
2036
2036
2036
2043
2043
2043
2039
2039
2039
2044
2044
2044
2044
2043
2043
2043
2038
2038
2038
2045
2045
2045
2036
2036
2036
2046
2046
2046
2046
2037
2037
2037
2041
2041
2041
2043
2043
2043
2040
2040
2040
2045
2045
2045
2045
2039
2039
2039
2039
2039
2039
2043
2043
2043
2042
2042
2042
2037
2037
2037
2037
2037
2037
2037
2039
2039
2039
2045
2045
2045
2040
2040
2040
2048
2048
2048
2048
2046
2046
2046
2037
2037
2037
2045
2045
2045
2040
2040
2040
2043
2043
2043
2043
2044
2044
2044
2040
2040
2040
2041
2041
2041
2037
2037
2037
2043
2043
2043
2043
2044
2044
2044
2039
2039
2039
2044
2044
2044
2040
2040
2040
2041
2041
2041
2041
2044
2044
2044
2035
2035
2035
2045
2045
2045
2038
2038
2038
2045
2045
2045
2045
2042
2042
2042
2041
2041
2041
2044
2044
2044
2037
2037
2037
2046
2046
2046
2046
2040
2040
2040
2041
2041
2041
2040
2040
2040
2038
2038
2038
2046
2046
2046
2046
2046
2046
2046
2041
2041
2041
2044
2044
2044
2041
2041
2041
2041
2041
2041
2041
2044
2044
2044
2040
2040
2040
2043
2043
2043
2036
2036
2036
2047
2047
2047
2047
2041
2041
2041
2042
2042
2042
2040
2040
2040
2042
2042
2042
2039
2039
2039
2039
2042
2042
2042
2042
2042
2042
2045
2045
2045
2038
2038
2038
2045
2045
2045
2045
2044
2044
2044
2040
2040
2040
2042
2042
2042
2034
2034
2034
2044
2044
2044
2044
2042
2042
2042
2037
2037
2037
2043
2043
2043
2038
2038
2038
2043
2043
2043
2043
2042
2042
2042
2044
2044
2044
2044
2044
2044
2036
2036
2036
2046
2046
2046
2046
2041
2041
2041
2040
2040
2040
2050
2050
2050
2040
2040
2040
2043
2043
2043
2043
2044
2044
2044
2042
2042
2042
2044
2044
2044
2037
2037
2037
2044
2044
2044
2044
2043
2043
2043
2039
2039
2039
2043
2043
2043
2037
2037
2037
2041
2041
2041
2041
2042
2042
2042
2042
2042
2042
2041
2041
2041
2035
2035
2035
2043
2043
2043
2043
2044
2044
2044
2037
2037
2037
2042
2042
2042
2039
2039
2039
2042
2042
2042
2042
2042
2042
2042
2039
2039
2039
2045
2045
2045
2039
2039
2039
2044
2044
2044
2044
2041
2041
2041
2040
2040
2040
2041
2041
2041
2046
2046
2046
2045
2045
2045
2045
2046
2046
2046
2041
2041
2041
2051
2051
2051
2038
2038
2038
2041
2041
2041
2041
2048
2048
2048
2039
2039
2039
2046
2046
2046
2042
2042
2042
2039
2039
2039
2039
2040
2040
2040
2039
2039
2039
2045
2045
2045
2038
2038
2038
2043
2043
2043
2043
2044
2044
2044
2041
2041
2041
2043
2043
2043
2039
2039
2039
2046
2046
2046
2046
2047
2047
2047
2040
2040
2040
2045
2045
2045
2039
2039
2039
2043
2043
2043
2043
2039
2039
2039
2037
2037
2037
2042
2042
2042
2039
2039
2039
2036
2036
2036
2036
2043
2043
2043
2039
2039
2039
2042
2042
2042
2037
2037
2037
2041
2041
2041
2041
2040
2040
2040
2039
2039
2039
2043
2043
2043
2040
2040
2040
2046
2046
2046
2046
2043
2043
2043
2041
2041
2041
2044
2044
2044
2040
2040
2040
2042
2042
2042
2042
2043
2043
2043
2039
2039
2039
2044
2044
2044
2038
2038
2038
2046
2046
2046
2046
2041
2041
2041
2039
2039
2039
2048
2048
2048
2038
2038
2038
2041
2041
2041
2041
2039
2039
2039
2040
2040
2040
2042
2042
2042
2039
2039
2039
2045
2045
2045
2045
2044
2044
2044
2042
2042
2042
2044
2044
2044
2042
2042
2042
2044
2044
2044
2044
2042
2042
2042
2042
2042
2042
2043
2043
2043
2035
2035
2035
2044
2044
2044
2044
2036
2036
2036
2041
2041
2041
2042
2042
2042
2041
2041
2041
2041
2041
2041
2041
2044
2044
2044
2034
2034
2034
2045
2045
2045
2036
2036
2036
2042
2042
2042
2042
2043
2043
2043
2041
2041
2041
2043
2043
2043
2042
2042
2042
2047
2047
2047
2047
2045
2045
2045
2037
2037
2037
2042
2042
2042
2044
2044
2044
2045
2045
2045
2045
2042
2042
2042
2040
2040
2040
2045
2045
2045
2032
2032
2032
2041
2041
2041
2041
2042
2042
2042
2040
2040
2040
2043
2043
2043
2042
2042
2042
2043
2043
2043
2043
2043
2043
2043
2039
2039
2039
2043
2043
2043
2040
2040
2040
2046
2046
2046
2046
2044
2044
2044
2037
2037
2037
2044
2044
2044
2035
2035
2035
2039
2039
2039
2039
2040
2040
2040
2038
2038
2038
2046
2046
2046
2039
2039
2039
2042
2042
2042
2042
2042
2042
2042
2046
2046
2046
2044
2044
2044
2039
2039
2039
2043
2043
2043
2043
2044
2044
2044
2038
2038
2038
2045
2045
2045
2039
2039
2039
2044
2044
2044
2044
2042
2042
2042
2042
2042
2042
2047
2047
2047
2040
2040
2040
2048
2048
2048
2048
2043
2043
2043
2048
2048
2048
2047
2047
2047
2034
2034
2034
2039
2039
2039
2039
2044
2044
2044
2035
2035
2035
2040
2040
2040
2038
2038
2038
2042
2042
2042
2042
2040
2040
2040
2042
2042
2042
2046
2046
2046
2041
2041
2041
2041
2041
2041
2041
2044
2044
2044
2039
