%!PS-Adobe-3.0 EPSF-3.0
%%Title: curvas.eps
%%Creator: Matplotlib v3.5.1, https://matplotlib.org/
%%CreationDate: Wed Jul  6 19:36:49 2022
%%Orientation: portrait
%%BoundingBox: 1 88 611 704
%%HiResBoundingBox: 1.893750 88.865625 610.106250 703.134375
%%EndComments
%%BeginProlog
/mpldict 11 dict def
mpldict begin
/_d { bind def } bind def
/m { moveto } _d
/l { lineto } _d
/r { rlineto } _d
/c { curveto } _d
/cl { closepath } _d
/ce { closepath eofill } _d
/box {
      m
      1 index 0 r
      0 exch r
      neg 0 r
      cl
    } _d
/clipbox {
      box
      clip
      newpath
    } _d
/sc { setcachedevice } _d
%!PS-Adobe-3.0 Resource-Font
%%Creator: Converted from TrueType to Type 3 by Matplotlib.
10 dict begin
/FontName /DejaVuSans def
/PaintType 0 def
/FontMatrix [0.00048828125 0 0 0.00048828125 0 0] def
/FontBBox [-2090 -948 3673 2524] def
/FontType 3 def
/Encoding [/minus /space /zero /one /two /nine /A /B /D /E /F /I /S /a /c /e /i /n /o /p /r /s /t /oacute] def
/CharStrings 25 dict dup begin
/.notdef 0 def
/minus{1716 0 217 557 1499 727 sc
217 727 m
1499 727 l
1499 557 l
217 557 l
217 727 l

ce} _d
/space{651 0 0 0 0 0 sc
ce} _d
/zero{1303 0 135 -29 1167 1520 sc
651 1360 m
547 1360 469 1309 416 1206 c
364 1104 338 950 338 745 c
338 540 364 387 416 284 c
469 182 547 131 651 131 c
756 131 834 182 886 284 c
939 387 965 540 965 745 c
965 950 939 1104 886 1206 c
834 1309 756 1360 651 1360 c

651 1520 m
818 1520 946 1454 1034 1321 c
1123 1189 1167 997 1167 745 c
1167 494 1123 302 1034 169 c
946 37 818 -29 651 -29 c
484 -29 356 37 267 169 c
179 302 135 494 135 745 c
135 997 179 1189 267 1321 c
356 1454 484 1520 651 1520 c

ce} _d
/one{1303 0 225 0 1114 1493 sc
254 170 m
584 170 l
584 1309 l
225 1237 l
225 1421 l
582 1493 l
784 1493 l
784 170 l
1114 170 l
1114 0 l
254 0 l
254 170 l

ce} _d
/two{1303 0 150 0 1098 1520 sc
393 170 m
1098 170 l
1098 0 l
150 0 l
150 170 l
227 249 331 356 463 489 c
596 623 679 709 713 748 c
778 821 823 882 848 932 c
874 983 887 1032 887 1081 c
887 1160 859 1225 803 1275 c
748 1325 675 1350 586 1350 c
523 1350 456 1339 385 1317 c
315 1295 240 1262 160 1217 c
160 1421 l
241 1454 317 1478 388 1495 c
459 1512 523 1520 582 1520 c
737 1520 860 1481 952 1404 c
1044 1327 1090 1223 1090 1094 c
1090 1033 1078 974 1055 919 c
1032 864 991 800 930 725 c
913 706 860 650 771 557 c
682 465 556 336 393 170 c

ce} _d
/nine{1303 0 129 -29 1159 1520 sc
225 31 m
225 215 l
276 191 327 173 379 160 c
431 147 482 141 532 141 c
665 141 767 186 837 275 c
908 365 948 501 958 684 c
919 627 870 583 811 552 c
752 521 686 506 614 506 c
465 506 346 551 259 641 c
172 732 129 855 129 1012 c
129 1165 174 1288 265 1381 c
356 1474 476 1520 627 1520 c
800 1520 931 1454 1022 1321 c
1113 1189 1159 997 1159 745 c
1159 510 1103 322 991 181 c
880 41 730 -29 541 -29 c
490 -29 439 -24 387 -14 c
335 -4 281 11 225 31 c

627 664 m
718 664 789 695 842 757 c
895 819 922 904 922 1012 c
922 1119 895 1204 842 1266 c
789 1329 718 1360 627 1360 c
536 1360 464 1329 411 1266 c
358 1204 332 1119 332 1012 c
332 904 358 819 411 757 c
464 695 536 664 627 664 c

ce} _d
/A{1401 0 16 0 1384 1493 sc
700 1294 m
426 551 l
975 551 l
700 1294 l

586 1493 m
815 1493 l
1384 0 l
1174 0 l
1038 383 l
365 383 l
229 0 l
16 0 l
586 1493 l

ce} _d
/B{1405 0 201 0 1260 1493 sc
403 713 m
403 166 l
727 166 l
836 166 916 188 968 233 c
1021 278 1047 347 1047 440 c
1047 533 1021 602 968 646 c
916 691 836 713 727 713 c
403 713 l

403 1327 m
403 877 l
702 877 l
801 877 874 895 922 932 c
971 969 995 1026 995 1102 c
995 1177 971 1234 922 1271 c
874 1308 801 1327 702 1327 c
403 1327 l

201 1493 m
717 1493 l
871 1493 990 1461 1073 1397 c
1156 1333 1198 1242 1198 1124 c
1198 1033 1177 960 1134 906 c
1091 852 1029 818 946 805 c
1045 784 1122 739 1177 671 c
1232 604 1260 519 1260 418 c
1260 285 1215 182 1124 109 c
1033 36 904 0 737 0 c
201 0 l
201 1493 l

ce} _d
/D{1577 0 201 0 1456 1493 sc
403 1327 m
403 166 l
647 166 l
853 166 1004 213 1099 306 c
1195 399 1243 547 1243 748 c
1243 948 1195 1094 1099 1187 c
1004 1280 853 1327 647 1327 c
403 1327 l

201 1493 m
616 1493 l
905 1493 1118 1433 1253 1312 c
1388 1192 1456 1004 1456 748 c
1456 491 1388 302 1252 181 c
1116 60 904 0 616 0 c
201 0 l
201 1493 l

ce} _d
/E{1294 0 201 0 1163 1493 sc
201 1493 m
1145 1493 l
1145 1323 l
403 1323 l
403 881 l
1114 881 l
1114 711 l
403 711 l
403 170 l
1163 170 l
1163 0 l
201 0 l
201 1493 l

ce} _d
/F{1178 0 201 0 1059 1493 sc
201 1493 m
1059 1493 l
1059 1323 l
403 1323 l
403 883 l
995 883 l
995 713 l
403 713 l
403 0 l
201 0 l
201 1493 l

ce} _d
/I{604 0 201 0 403 1493 sc
201 1493 m
403 1493 l
403 0 l
201 0 l
201 1493 l

ce} _d
/S{1300 0 135 -29 1186 1520 sc
1096 1444 m
1096 1247 l
1019 1284 947 1311 879 1329 c
811 1347 745 1356 682 1356 c
572 1356 487 1335 427 1292 c
368 1249 338 1189 338 1110 c
338 1044 358 994 397 960 c
437 927 512 900 623 879 c
745 854 l
896 825 1007 775 1078 702 c
1150 630 1186 533 1186 412 c
1186 267 1137 158 1040 83 c
943 8 801 -29 614 -29 c
543 -29 468 -21 388 -5 c
309 11 226 35 141 66 c
141 274 l
223 228 303 193 382 170 c
461 147 538 135 614 135 c
729 135 818 158 881 203 c
944 248 975 313 975 397 c
975 470 952 528 907 569 c
862 610 789 641 686 662 c
563 686 l
412 716 303 763 236 827 c
169 891 135 980 135 1094 c
135 1226 181 1330 274 1406 c
367 1482 496 1520 659 1520 c
729 1520 800 1514 873 1501 c
946 1488 1020 1469 1096 1444 c

ce} _d
/a{1255 0 123 -29 1069 1147 sc
702 563 m
553 563 450 546 393 512 c
336 478 307 420 307 338 c
307 273 328 221 371 182 c
414 144 473 125 547 125 c
649 125 731 161 792 233 c
854 306 885 402 885 522 c
885 563 l
702 563 l

1069 639 m
1069 0 l
885 0 l
885 170 l
843 102 791 52 728 19 c
665 -13 589 -29 498 -29 c
383 -29 292 3 224 67 c
157 132 123 218 123 326 c
123 452 165 547 249 611 c
334 675 460 707 627 707 c
885 707 l
885 725 l
885 810 857 875 801 921 c
746 968 668 991 567 991 c
503 991 441 983 380 968 c
319 953 261 930 205 899 c
205 1069 l
272 1095 338 1114 401 1127 c
464 1140 526 1147 586 1147 c
748 1147 869 1105 949 1021 c
1029 937 1069 810 1069 639 c

ce} _d
/c{1126 0 113 -29 999 1147 sc
999 1077 m
999 905 l
947 934 895 955 842 969 c
790 984 737 991 684 991 c
565 991 472 953 406 877 c
340 802 307 696 307 559 c
307 422 340 316 406 240 c
472 165 565 127 684 127 c
737 127 790 134 842 148 c
895 163 947 184 999 213 c
999 43 l
948 19 894 1 839 -11 c
784 -23 726 -29 664 -29 c
495 -29 361 24 262 130 c
163 236 113 379 113 559 c
113 742 163 885 263 990 c
364 1095 501 1147 676 1147 c
733 1147 788 1141 842 1129 c
896 1118 948 1100 999 1077 c

ce} _d
/e{1260 0 113 -29 1151 1147 sc
1151 606 m
1151 516 l
305 516 l
313 389 351 293 419 226 c
488 160 583 127 705 127 c
776 127 844 136 910 153 c
977 170 1043 196 1108 231 c
1108 57 l
1042 29 974 8 905 -7 c
836 -22 765 -29 694 -29 c
515 -29 374 23 269 127 c
165 231 113 372 113 549 c
113 732 162 878 261 985 c
360 1093 494 1147 662 1147 c
813 1147 932 1098 1019 1001 c
1107 904 1151 773 1151 606 c

967 660 m
966 761 937 841 882 901 c
827 961 755 991 664 991 c
561 991 479 962 417 904 c
356 846 320 764 311 659 c
967 660 l

ce} _d
/i{569 0 193 0 377 1556 sc
193 1120 m
377 1120 l
377 0 l
193 0 l
193 1120 l

193 1556 m
377 1556 l
377 1323 l
193 1323 l
193 1556 l

ce} _d
/n{1298 0 186 0 1124 1147 sc
1124 676 m
1124 0 l
940 0 l
940 670 l
940 776 919 855 878 908 c
837 961 775 987 692 987 c
593 987 514 955 457 892 c
400 829 371 742 371 633 c
371 0 l
186 0 l
186 1120 l
371 1120 l
371 946 l
415 1013 467 1064 526 1097 c
586 1130 655 1147 733 1147 c
862 1147 959 1107 1025 1027 c
1091 948 1124 831 1124 676 c

ce} _d
/o{1253 0 113 -29 1141 1147 sc
627 991 m
528 991 450 952 393 875 c
336 798 307 693 307 559 c
307 425 335 319 392 242 c
449 165 528 127 627 127 c
725 127 803 166 860 243 c
917 320 946 426 946 559 c
946 692 917 797 860 874 c
803 952 725 991 627 991 c

627 1147 m
787 1147 913 1095 1004 991 c
1095 887 1141 743 1141 559 c
1141 376 1095 232 1004 127 c
913 23 787 -29 627 -29 c
466 -29 340 23 249 127 c
158 232 113 376 113 559 c
113 743 158 887 249 991 c
340 1095 466 1147 627 1147 c

ce} _d
/p{1300 0 186 -426 1188 1147 sc
371 168 m
371 -426 l
186 -426 l
186 1120 l
371 1120 l
371 950 l
410 1017 458 1066 517 1098 c
576 1131 647 1147 729 1147 c
865 1147 975 1093 1060 985 c
1145 877 1188 735 1188 559 c
1188 383 1145 241 1060 133 c
975 25 865 -29 729 -29 c
647 -29 576 -13 517 19 c
458 52 410 101 371 168 c

997 559 m
997 694 969 800 913 877 c
858 954 781 993 684 993 c
587 993 510 954 454 877 c
399 800 371 694 371 559 c
371 424 399 317 454 240 c
510 163 587 125 684 125 c
781 125 858 163 913 240 c
969 317 997 424 997 559 c

ce} _d
/r{842 0 186 0 842 1147 sc
842 948 m
821 960 799 969 774 974 c
750 980 723 983 694 983 c
590 983 510 949 454 881 c
399 814 371 717 371 590 c
371 0 l
186 0 l
186 1120 l
371 1120 l
371 946 l
410 1014 460 1064 522 1097 c
584 1130 659 1147 748 1147 c
761 1147 775 1146 790 1144 c
805 1143 822 1140 841 1137 c
842 948 l

ce} _d
/s{1067 0 111 -29 967 1147 sc
907 1087 m
907 913 l
855 940 801 960 745 973 c
689 986 631 993 571 993 c
480 993 411 979 365 951 c
320 923 297 881 297 825 c
297 782 313 749 346 724 c
379 700 444 677 543 655 c
606 641 l
737 613 829 573 884 522 c
939 471 967 400 967 309 c
967 205 926 123 843 62 c
761 1 648 -29 504 -29 c
444 -29 381 -23 316 -11 c
251 0 183 18 111 41 c
111 231 l
179 196 246 169 312 151 c
378 134 443 125 508 125 c
595 125 661 140 708 169 c
755 199 778 241 778 295 c
778 345 761 383 727 410 c
694 437 620 462 506 487 c
442 502 l
328 526 246 563 195 612 c
144 662 119 730 119 817 c
119 922 156 1004 231 1061 c
306 1118 412 1147 549 1147 c
617 1147 681 1142 741 1132 c
801 1122 856 1107 907 1087 c

ce} _d
/t{803 0 55 0 754 1438 sc
375 1438 m
375 1120 l
754 1120 l
754 977 l
375 977 l
375 369 l
375 278 387 219 412 193 c
437 167 488 154 565 154 c
754 154 l
754 0 l
565 0 l
423 0 325 26 271 79 c
217 132 190 229 190 369 c
190 977 l
55 977 l
55 1120 l
190 1120 l
190 1438 l
375 1438 l

ce} _d
/oacute{1253 0 113 -29 1141 1638 sc
627 991 m
528 991 450 952 393 875 c
336 798 307 693 307 559 c
307 425 335 319 392 242 c
449 165 528 127 627 127 c
725 127 803 166 860 243 c
917 320 946 426 946 559 c
946 692 917 797 860 874 c
803 952 725 991 627 991 c

627 1147 m
787 1147 913 1095 1004 991 c
1095 887 1141 743 1141 559 c
1141 376 1095 232 1004 127 c
913 23 787 -29 627 -29 c
466 -29 340 23 249 127 c
158 232 113 376 113 559 c
113 743 158 887 249 991 c
340 1095 466 1147 627 1147 c

766 1638 m
965 1638 l
639 1262 l
486 1262 l
766 1638 l

ce} _d
end readonly def

/BuildGlyph {
 exch begin
 CharStrings exch
 2 copy known not {pop /.notdef} if
 true 3 1 roll get exec
 end
} _d

/BuildChar {
 1 index /Encoding get exch get
 1 index /BuildGlyph get exec
} _d

FontName currentdict end definefont pop
end
%%EndProlog
mpldict begin
1.894 88.866 translate
608.212 614.269 0 0 clipbox
gsave
0 0 m
608.2125 0 l
608.2125 614.26875 l
0 614.26875 l
cl
1.000 setgray
fill
grestore
gsave
43.0125 339.94375 m
296.648864 339.94375 l
296.648864 591.94375 l
43.0125 591.94375 l
cl
1.000 setgray
fill
grestore
0.800 setlinewidth
1 setlinejoin
0 setlinecap
[] 0 setdash
0.000 setgray
gsave
/o {
gsave
newpath
translate
0.8 setlinewidth
1 setlinejoin

0 setlinecap

0 0 m
0 -3.5 l

gsave
0.000 setgray
fill
grestore
stroke
grestore
} bind def
54.5414 339.944 o
grestore
/DejaVuSans 10.000 selectfont
gsave

41.822676 325.350000 translate
0.000000 rotate
0.000000 0 m /one glyphshow
6.362305 0 m /nine glyphshow
12.724609 0 m /zero glyphshow
19.086914 0 m /zero glyphshow
grestore
gsave
/o {
gsave
newpath
translate
0.8 setlinewidth
1 setlinejoin

0 setlinecap

0 0 m
0 -3.5 l

gsave
0.000 setgray
fill
grestore
stroke
grestore
} bind def
116.86 339.944 o
grestore
gsave

104.141192 325.350000 translate
0.000000 rotate
0.000000 0 m /two glyphshow
6.362305 0 m /zero glyphshow
12.724609 0 m /zero glyphshow
19.086914 0 m /zero glyphshow
grestore
gsave
/o {
gsave
newpath
translate
0.8 setlinewidth
1 setlinejoin

0 setlinecap

0 0 m
0 -3.5 l

gsave
0.000 setgray
fill
grestore
stroke
grestore
} bind def
179.178 339.944 o
grestore
gsave

166.459709 325.350000 translate
0.000000 rotate
0.000000 0 m /two glyphshow
6.362305 0 m /one glyphshow
12.724609 0 m /zero glyphshow
19.086914 0 m /zero glyphshow
grestore
gsave
/o {
gsave
newpath
translate
0.8 setlinewidth
1 setlinejoin

0 setlinecap

0 0 m
0 -3.5 l

gsave
0.000 setgray
fill
grestore
stroke
grestore
} bind def
241.497 339.944 o
grestore
gsave

228.778226 325.350000 translate
0.000000 rotate
0.000000 0 m /two glyphshow
6.362305 0 m /two glyphshow
12.724609 0 m /zero glyphshow
19.086914 0 m /zero glyphshow
grestore
gsave

152.682244 311.678125 translate
0.000000 rotate
0.000000 0 m /S glyphshow
6.347656 0 m /e glyphshow
12.500000 0 m /n glyphshow
18.837891 0 m /s glyphshow
24.047852 0 m /o glyphshow
30.166016 0 m /r glyphshow
grestore
gsave
/o {
gsave
newpath
translate
0.8 setlinewidth
1 setlinejoin

0 setlinecap

-0 0 m
-3.5 0 l

gsave
0.000 setgray
fill
grestore
stroke
grestore
} bind def
43.0125 379.815 o
grestore
gsave

21.278125 376.017900 translate
0.000000 rotate
0.000000 0 m /minus glyphshow
8.378906 0 m /two glyphshow
grestore
gsave
/o {
gsave
newpath
translate
0.8 setlinewidth
1 setlinejoin

0 setlinecap

-0 0 m
-3.5 0 l

gsave
0.000 setgray
fill
grestore
stroke
grestore
} bind def
43.0125 426.872 o
grestore
gsave

21.278125 423.074798 translate
0.000000 rotate
0.000000 0 m /minus glyphshow
8.378906 0 m /one glyphshow
grestore
gsave
/o {
gsave
newpath
translate
0.8 setlinewidth
1 setlinejoin

0 setlinecap

-0 0 m
-3.5 0 l

gsave
0.000 setgray
fill
grestore
stroke
grestore
} bind def
43.0125 473.929 o
grestore
gsave

29.653125 470.131697 translate
0.000000 rotate
0.000000 0 m /zero glyphshow
grestore
gsave
/o {
gsave
newpath
translate
0.8 setlinewidth
1 setlinejoin

0 setlinecap

-0 0 m
-3.5 0 l

gsave
0.000 setgray
fill
grestore
stroke
grestore
} bind def
43.0125 520.985 o
grestore
gsave

29.653125 517.188595 translate
0.000000 rotate
0.000000 0 m /one glyphshow
grestore
gsave
/o {
gsave
newpath
translate
0.8 setlinewidth
1 setlinejoin

0 setlinecap

-0 0 m
-3.5 0 l

gsave
0.000 setgray
fill
grestore
stroke
grestore
} bind def
43.0125 568.042 o
grestore
gsave

29.653125 564.245494 translate
0.000000 rotate
0.000000 0 m /two glyphshow
grestore
gsave

15.200000 430.623438 translate
90.000000 rotate
0.000000 0 m /I glyphshow
2.949219 0 m /n glyphshow
9.287109 0 m /t glyphshow
13.208008 0 m /e glyphshow
19.360352 0 m /r glyphshow
23.471680 0 m /p glyphshow
29.819336 0 m /r glyphshow
33.680664 0 m /e glyphshow
39.833008 0 m /t glyphshow
43.753906 0 m /a glyphshow
49.881836 0 m /c glyphshow
55.379883 0 m /i glyphshow
58.158203 0 m /oacute glyphshow
64.276367 0 m /n glyphshow
grestore
1.000 setlinewidth
0.122 0.467 0.706 setrgbcolor
gsave
253.636 252 43.013 339.944 clipbox
/o {
gsave
newpath
translate
1.0 setlinewidth
1 setlinejoin

0 setlinecap

-3 -3 m
3 3 l
-3 3 m
3 -3 l

gsave
0.122 0.467 0.706 setrgbcolor
fill
grestore
stroke
grestore
} bind def
277.349 573.219 o
grestore
1.000 0.498 0.055 setrgbcolor
gsave
253.636 252 43.013 339.944 clipbox
/o {
gsave
newpath
translate
1.0 setlinewidth
1 setlinejoin

0 setlinecap

-3 -3 m
3 3 l
-3 3 m
3 -3 l

gsave
1.000 0.498 0.055 setrgbcolor
fill
grestore
stroke
grestore
} bind def
276.937 572.748 o
grestore
0.173 0.627 0.173 setrgbcolor
gsave
253.636 252 43.013 339.944 clipbox
/o {
gsave
newpath
translate
1.0 setlinewidth
1 setlinejoin

0 setlinecap

-3 -3 m
3 3 l
-3 3 m
3 -3 l

gsave
0.173 0.627 0.173 setrgbcolor
fill
grestore
stroke
grestore
} bind def
225.245 520.562 o
grestore
0.839 0.153 0.157 setrgbcolor
gsave
253.636 252 43.013 339.944 clipbox
/o {
gsave
newpath
translate
1.0 setlinewidth
1 setlinejoin

0 setlinecap

-3 -3 m
3 3 l
-3 3 m
3 -3 l

gsave
0.839 0.153 0.157 setrgbcolor
fill
grestore
stroke
grestore
} bind def
225.367 520.562 o
grestore
0.580 0.404 0.741 setrgbcolor
gsave
253.636 252 43.013 339.944 clipbox
/o {
gsave
newpath
translate
1.0 setlinewidth
1 setlinejoin

0 setlinecap

-3 -3 m
3 3 l
-3 3 m
3 -3 l

gsave
0.580 0.404 0.741 setrgbcolor
fill
grestore
stroke
grestore
} bind def
78.9833 375.109 o
grestore
0.549 0.337 0.294 setrgbcolor
gsave
253.636 252 43.013 339.944 clipbox
/o {
gsave
newpath
translate
1.0 setlinewidth
1 setlinejoin

0 setlinecap

-3 -3 m
3 3 l
-3 3 m
3 -3 l

gsave
0.549 0.337 0.294 setrgbcolor
fill
grestore
stroke
grestore
} bind def
78.5306 374.639 o
grestore
0.890 0.467 0.761 setrgbcolor
gsave
253.636 252 43.013 339.944 clipbox
/o {
gsave
newpath
translate
1.0 setlinewidth
1 setlinejoin

0 setlinecap

-3 -3 m
3 3 l
-3 3 m
3 -3 l

gsave
0.890 0.467 0.761 setrgbcolor
fill
grestore
stroke
grestore
} bind def
130.067 427.154 o
grestore
0.498 setgray
gsave
253.636 252 43.013 339.944 clipbox
/o {
gsave
newpath
translate
1.0 setlinewidth
1 setlinejoin

0 setlinecap

-3 -3 m
3 3 l
-3 3 m
3 -3 l

gsave
0.498 setgray
fill
grestore
stroke
grestore
} bind def
130.337 427.436 o
grestore
1.500 setlinewidth
2 setlinecap
0.737 0.741 0.133 setrgbcolor
gsave
253.636 252 43.013 339.944 clipbox
54.541426 351.398295 m
59.24711 356.07362 l
63.952793 360.748945 l
68.658477 365.424269 l
73.364161 370.099594 l
78.069845 374.774919 l
82.775529 379.450244 l
87.481213 384.125568 l
92.186897 388.800893 l
96.892581 393.476218 l
101.598265 398.151542 l
106.303949 402.826867 l
111.009633 407.502192 l
115.715317 412.177516 l
120.421001 416.852841 l
125.126685 421.528166 l
129.832368 426.20349 l
134.538052 430.878815 l
139.243736 435.55414 l
143.94942 440.229464 l
148.655104 444.904789 l
153.360788 449.580114 l
158.066472 454.255438 l
162.772156 458.930763 l
167.47784 463.606088 l
172.183524 468.281412 l
176.889208 472.956737 l
181.594892 477.632062 l
186.300576 482.307386 l
191.006259 486.982711 l
195.711943 491.658036 l
200.417627 496.33336 l
205.123311 501.008685 l
209.828995 505.68401 l
214.534679 510.359334 l
219.240363 515.034659 l
223.946047 519.709984 l
228.651731 524.385308 l
233.357415 529.060633 l
238.063099 533.735958 l
242.768783 538.411282 l
247.474467 543.086607 l
252.180151 547.761932 l
256.885834 552.437256 l
261.591518 557.112581 l
266.297202 561.787906 l
271.002886 566.463231 l
275.70857 571.138555 l
280.414254 575.81388 l
285.119938 580.489205 l
stroke
grestore
0.800 setlinewidth
0 setlinejoin
0.000 setgray
gsave
43.0125 339.94375 m
43.0125 591.94375 l
stroke
grestore
gsave
296.648864 339.94375 m
296.648864 591.94375 l
stroke
grestore
gsave
43.0125 339.94375 m
296.648864 339.94375 l
stroke
grestore
gsave
43.0125 591.94375 m
296.648864 591.94375 l
stroke
grestore
/DejaVuSans 12.000 selectfont
gsave

150.432244 597.943750 translate
0.000000 rotate
0.000000 0 m /F glyphshow
5.777344 0 m /a glyphshow
13.130859 0 m /s glyphshow
19.382812 0 m /e glyphshow
26.765625 0 m /space glyphshow
30.580078 0 m /A glyphshow
grestore
gsave
347.376136 339.94375 m
601.0125 339.94375 l
601.0125 591.94375 l
347.376136 591.94375 l
cl
1.000 setgray
fill
grestore
1 setlinejoin
0 setlinecap
gsave
/o {
gsave
newpath
translate
0.8 setlinewidth
1 setlinejoin

0 setlinecap

0 0 m
0 -3.5 l

gsave
0.000 setgray
fill
grestore
stroke
grestore
} bind def
358.905 339.944 o
grestore
/DejaVuSans 10.000 selectfont
gsave

346.186312 325.350000 translate
0.000000 rotate
0.000000 0 m /one glyphshow
6.362305 0 m /nine glyphshow
12.724609 0 m /zero glyphshow
19.086914 0 m /zero glyphshow
grestore
gsave
/o {
gsave
newpath
translate
0.8 setlinewidth
1 setlinejoin

0 setlinecap

0 0 m
0 -3.5 l

gsave
0.000 setgray
fill
grestore
stroke
grestore
} bind def
421.224 339.944 o
grestore
gsave

408.504829 325.350000 translate
0.000000 rotate
0.000000 0 m /two glyphshow
6.362305 0 m /zero glyphshow
12.724609 0 m /zero glyphshow
19.086914 0 m /zero glyphshow
grestore
gsave
/o {
gsave
newpath
translate
0.8 setlinewidth
1 setlinejoin

0 setlinecap

0 0 m
0 -3.5 l

gsave
0.000 setgray
fill
grestore
stroke
grestore
} bind def
483.542 339.944 o
grestore
gsave

470.823346 325.350000 translate
0.000000 rotate
0.000000 0 m /two glyphshow
6.362305 0 m /one glyphshow
12.724609 0 m /zero glyphshow
19.086914 0 m /zero glyphshow
grestore
gsave
/o {
gsave
newpath
translate
0.8 setlinewidth
1 setlinejoin

0 setlinecap

0 0 m
0 -3.5 l

gsave
0.000 setgray
fill
grestore
stroke
grestore
} bind def
545.861 339.944 o
grestore
gsave

533.141863 325.350000 translate
0.000000 rotate
0.000000 0 m /two glyphshow
6.362305 0 m /two glyphshow
12.724609 0 m /zero glyphshow
19.086914 0 m /zero glyphshow
grestore
gsave

457.045881 311.678125 translate
0.000000 rotate
0.000000 0 m /S glyphshow
6.347656 0 m /e glyphshow
12.500000 0 m /n glyphshow
18.837891 0 m /s glyphshow
24.047852 0 m /o glyphshow
30.166016 0 m /r glyphshow
grestore
gsave
/o {
gsave
newpath
translate
0.8 setlinewidth
1 setlinejoin

0 setlinecap

-0 0 m
-3.5 0 l

gsave
0.000 setgray
fill
grestore
stroke
grestore
} bind def
347.376 370.686 o
grestore
gsave

325.641761 366.889199 translate
0.000000 rotate
0.000000 0 m /minus glyphshow
8.378906 0 m /two glyphshow
grestore
gsave
/o {
gsave
newpath
translate
0.8 setlinewidth
1 setlinejoin

0 setlinecap

-0 0 m
-3.5 0 l

gsave
0.000 setgray
fill
grestore
stroke
grestore
} bind def
347.376 417.276 o
grestore
gsave

325.641761 413.479392 translate
0.000000 rotate
0.000000 0 m /minus glyphshow
8.378906 0 m /one glyphshow
grestore
gsave
/o {
gsave
newpath
translate
0.8 setlinewidth
1 setlinejoin

0 setlinecap

-0 0 m
-3.5 0 l

gsave
0.000 setgray
fill
grestore
stroke
grestore
} bind def
347.376 463.866 o
grestore
gsave

334.016761 460.069585 translate
0.000000 rotate
0.000000 0 m /zero glyphshow
grestore
gsave
/o {
gsave
newpath
translate
0.8 setlinewidth
1 setlinejoin

0 setlinecap

-0 0 m
-3.5 0 l

gsave
0.000 setgray
fill
grestore
stroke
grestore
} bind def
347.376 510.457 o
grestore
gsave

334.016761 506.659778 translate
0.000000 rotate
0.000000 0 m /one glyphshow
grestore
gsave
/o {
gsave
newpath
translate
0.8 setlinewidth
1 setlinejoin

0 setlinecap

-0 0 m
-3.5 0 l

gsave
0.000 setgray
fill
grestore
stroke
grestore
} bind def
347.376 557.047 o
grestore
gsave

334.016761 553.249971 translate
0.000000 rotate
0.000000 0 m /two glyphshow
grestore
gsave

319.563636 430.623438 translate
90.000000 rotate
0.000000 0 m /I glyphshow
2.949219 0 m /n glyphshow
9.287109 0 m /t glyphshow
13.208008 0 m /e glyphshow
19.360352 0 m /r glyphshow
23.471680 0 m /p glyphshow
29.819336 0 m /r glyphshow
33.680664 0 m /e glyphshow
39.833008 0 m /t glyphshow
43.753906 0 m /a glyphshow
49.881836 0 m /c glyphshow
55.379883 0 m /i glyphshow
58.158203 0 m /oacute glyphshow
64.276367 0 m /n glyphshow
grestore
1.000 setlinewidth
0.122 0.467 0.706 setrgbcolor
gsave
253.636 252 347.376 339.944 clipbox
/o {
gsave
newpath
translate
1.0 setlinewidth
1 setlinejoin

0 setlinecap

-3 -3 m
3 3 l
-3 3 m
3 -3 l

gsave
0.122 0.467 0.706 setrgbcolor
fill
grestore
stroke
grestore
} bind def
570.512 561.822 o
grestore
1.000 0.498 0.055 setrgbcolor
gsave
253.636 252 347.376 339.944 clipbox
/o {
gsave
newpath
translate
1.0 setlinewidth
1 setlinejoin

0 setlinecap

-3 -3 m
3 3 l
-3 3 m
3 -3 l

gsave
1.000 0.498 0.055 setrgbcolor
fill
grestore
stroke
grestore
} bind def
570.134 561.822 o
grestore
0.173 0.627 0.173 setrgbcolor
gsave
253.636 252 347.376 339.944 clipbox
/o {
gsave
newpath
translate
1.0 setlinewidth
1 setlinejoin

0 setlinecap

-3 -3 m
3 3 l
-3 3 m
3 -3 l

gsave
0.173 0.627 0.173 setrgbcolor
fill
grestore
stroke
grestore
} bind def
519.516 510.561 o
grestore
0.839 0.153 0.157 setrgbcolor
gsave
253.636 252 347.376 339.944 clipbox
/o {
gsave
newpath
translate
1.0 setlinewidth
1 setlinejoin

0 setlinecap

-3 -3 m
3 3 l
-3 3 m
3 -3 l

gsave
0.839 0.153 0.157 setrgbcolor
fill
grestore
stroke
grestore
} bind def
519.456 510.561 o
grestore
0.580 0.404 0.741 setrgbcolor
gsave
253.636 252 347.376 339.944 clipbox
/o {
gsave
newpath
translate
1.0 setlinewidth
1 setlinejoin

0 setlinecap

-3 -3 m
3 3 l
-3 3 m
3 -3 l

gsave
0.580 0.404 0.741 setrgbcolor
fill
grestore
stroke
grestore
} bind def
373.675 365.678 o
grestore
0.549 0.337 0.294 setrgbcolor
gsave
253.636 252 347.376 339.944 clipbox
/o {
gsave
newpath
translate
1.0 setlinewidth
1 setlinejoin

0 setlinecap

-3 -3 m
3 3 l
-3 3 m
3 -3 l

gsave
0.549 0.337 0.294 setrgbcolor
fill
grestore
stroke
grestore
} bind def
374.353 366.144 o
grestore
0.890 0.467 0.761 setrgbcolor
gsave
253.636 252 347.376 339.944 clipbox
/o {
gsave
newpath
translate
1.0 setlinewidth
1 setlinejoin

0 setlinecap

-3 -3 m
3 3 l
-3 3 m
3 -3 l

gsave
0.890 0.467 0.761 setrgbcolor
fill
grestore
stroke
grestore
} bind def
424.659 417.195 o
grestore
0.498 setgray
gsave
253.636 252 347.376 339.944 clipbox
/o {
gsave
newpath
translate
1.0 setlinewidth
1 setlinejoin

0 setlinecap

-3 -3 m
3 3 l
-3 3 m
3 -3 l

gsave
0.498 setgray
fill
grestore
stroke
grestore
} bind def
424.401 417.148 o
grestore
1.500 setlinewidth
2 setlinecap
0.737 0.741 0.133 setrgbcolor
gsave
253.636 252 347.376 339.944 clipbox
358.905062 351.398295 m
363.610746 356.07362 l
368.31643 360.748945 l
373.022114 365.424269 l
377.727798 370.099594 l
382.433482 374.774919 l
387.139166 379.450244 l
391.844849 384.125568 l
396.550533 388.800893 l
401.256217 393.476218 l
405.961901 398.151542 l
410.667585 402.826867 l
415.373269 407.502192 l
420.078953 412.177516 l
424.784637 416.852841 l
429.490321 421.528166 l
434.196005 426.20349 l
438.901689 430.878815 l
443.607373 435.55414 l
448.313057 440.229464 l
453.018741 444.904789 l
457.724424 449.580114 l
462.430108 454.255438 l
467.135792 458.930763 l
471.841476 463.606088 l
476.54716 468.281412 l
481.252844 472.956737 l
485.958528 477.632062 l
490.664212 482.307386 l
495.369896 486.982711 l
500.07558 491.658036 l
504.781264 496.33336 l
509.486948 501.008685 l
514.192632 505.68401 l
518.898315 510.359334 l
523.603999 515.034659 l
528.309683 519.709984 l
533.015367 524.385308 l
537.721051 529.060633 l
542.426735 533.735958 l
547.132419 538.411282 l
551.838103 543.086607 l
556.543787 547.761932 l
561.249471 552.437256 l
565.955155 557.112581 l
570.660839 561.787906 l
575.366523 566.463231 l
580.072207 571.138555 l
584.77789 575.81388 l
589.483574 580.489205 l
stroke
grestore
0.800 setlinewidth
0 setlinejoin
0.000 setgray
gsave
347.376136 339.94375 m
347.376136 591.94375 l
stroke
grestore
gsave
601.0125 339.94375 m
601.0125 591.94375 l
stroke
grestore
gsave
347.376136 339.94375 m
601.0125 339.94375 l
stroke
grestore
gsave
347.376136 591.94375 m
601.0125 591.94375 l
stroke
grestore
/DejaVuSans 12.000 selectfont
gsave

454.780256 597.943750 translate
0.000000 rotate
0.000000 0 m /F glyphshow
5.777344 0 m /a glyphshow
13.130859 0 m /s glyphshow
19.382812 0 m /e glyphshow
26.765625 0 m /space glyphshow
30.580078 0 m /B glyphshow
grestore
gsave
43.0125 37.54375 m
296.648864 37.54375 l
296.648864 289.54375 l
43.0125 289.54375 l
cl
1.000 setgray
fill
grestore
1 setlinejoin
0 setlinecap
gsave
/o {
gsave
newpath
translate
0.8 setlinewidth
1 setlinejoin

0 setlinecap

0 0 m
0 -3.5 l

gsave
0.000 setgray
fill
grestore
stroke
grestore
} bind def
54.5414 37.5438 o
grestore
/DejaVuSans 10.000 selectfont
gsave

41.822676 22.950000 translate
0.000000 rotate
0.000000 0 m /one glyphshow
6.362305 0 m /nine glyphshow
12.724609 0 m /zero glyphshow
19.086914 0 m /zero glyphshow
grestore
gsave
/o {
gsave
newpath
translate
0.8 setlinewidth
1 setlinejoin

0 setlinecap

0 0 m
0 -3.5 l

gsave
0.000 setgray
fill
grestore
stroke
grestore
} bind def
116.86 37.5438 o
grestore
gsave

104.141192 22.950000 translate
0.000000 rotate
0.000000 0 m /two glyphshow
6.362305 0 m /zero glyphshow
12.724609 0 m /zero glyphshow
19.086914 0 m /zero glyphshow
grestore
gsave
/o {
gsave
newpath
translate
0.8 setlinewidth
1 setlinejoin

0 setlinecap

0 0 m
0 -3.5 l

gsave
0.000 setgray
fill
grestore
stroke
grestore
} bind def
179.178 37.5438 o
grestore
gsave

166.459709 22.950000 translate
0.000000 rotate
0.000000 0 m /two glyphshow
6.362305 0 m /one glyphshow
12.724609 0 m /zero glyphshow
19.086914 0 m /zero glyphshow
grestore
gsave
/o {
gsave
newpath
translate
0.8 setlinewidth
1 setlinejoin

0 setlinecap

0 0 m
0 -3.5 l

gsave
0.000 setgray
fill
grestore
stroke
grestore
} bind def
241.497 37.5438 o
grestore
gsave

228.778226 22.950000 translate
0.000000 rotate
0.000000 0 m /two glyphshow
6.362305 0 m /two glyphshow
12.724609 0 m /zero glyphshow
19.086914 0 m /zero glyphshow
grestore
gsave

152.682244 9.278125 translate
0.000000 rotate
0.000000 0 m /S glyphshow
6.347656 0 m /e glyphshow
12.500000 0 m /n glyphshow
18.837891 0 m /s glyphshow
24.047852 0 m /o glyphshow
30.166016 0 m /r glyphshow
grestore
gsave
/o {
gsave
newpath
translate
0.8 setlinewidth
1 setlinejoin

0 setlinecap

-0 0 m
-3.5 0 l

gsave
0.000 setgray
fill
grestore
stroke
grestore
} bind def
43.0125 73.197 o
grestore
gsave

21.278125 69.400163 translate
0.000000 rotate
0.000000 0 m /minus glyphshow
8.378906 0 m /two glyphshow
grestore
gsave
/o {
gsave
newpath
translate
0.8 setlinewidth
1 setlinejoin

0 setlinecap

-0 0 m
-3.5 0 l

gsave
0.000 setgray
fill
grestore
stroke
grestore
} bind def
43.0125 119.825 o
grestore
gsave

21.278125 116.028480 translate
0.000000 rotate
0.000000 0 m /minus glyphshow
8.378906 0 m /one glyphshow
grestore
gsave
/o {
gsave
newpath
translate
0.8 setlinewidth
1 setlinejoin

0 setlinecap

-0 0 m
-3.5 0 l

gsave
0.000 setgray
fill
grestore
stroke
grestore
} bind def
43.0125 166.454 o
grestore
gsave

29.653125 162.656798 translate
0.000000 rotate
0.000000 0 m /zero glyphshow
grestore
gsave
/o {
gsave
newpath
translate
0.8 setlinewidth
1 setlinejoin

0 setlinecap

-0 0 m
-3.5 0 l

gsave
0.000 setgray
fill
grestore
stroke
grestore
} bind def
43.0125 213.082 o
grestore
gsave

29.653125 209.285116 translate
0.000000 rotate
0.000000 0 m /one glyphshow
grestore
gsave
/o {
gsave
newpath
translate
0.8 setlinewidth
1 setlinejoin

0 setlinecap

-0 0 m
-3.5 0 l

gsave
0.000 setgray
fill
grestore
stroke
grestore
} bind def
43.0125 259.71 o
grestore
gsave

29.653125 255.913433 translate
0.000000 rotate
0.000000 0 m /two glyphshow
grestore
gsave

15.200000 128.223437 translate
90.000000 rotate
0.000000 0 m /I glyphshow
2.949219 0 m /n glyphshow
9.287109 0 m /t glyphshow
13.208008 0 m /e glyphshow
19.360352 0 m /r glyphshow
23.471680 0 m /p glyphshow
29.819336 0 m /r glyphshow
33.680664 0 m /e glyphshow
39.833008 0 m /t glyphshow
43.753906 0 m /a glyphshow
49.881836 0 m /c glyphshow
55.379883 0 m /i glyphshow
58.158203 0 m /oacute glyphshow
64.276367 0 m /n glyphshow
grestore
1.000 setlinewidth
0.122 0.467 0.706 setrgbcolor
gsave
253.636 252 43.013 37.544 clipbox
/o {
gsave
newpath
translate
1.0 setlinewidth
1 setlinejoin

0 setlinecap

-3 -3 m
3 3 l
-3 3 m
3 -3 l

gsave
0.122 0.467 0.706 setrgbcolor
fill
grestore
stroke
grestore
} bind def
272.333 265.539 o
grestore
1.000 0.498 0.055 setrgbcolor
gsave
253.636 252 43.013 37.544 clipbox
/o {
gsave
newpath
translate
1.0 setlinewidth
1 setlinejoin

0 setlinecap

-3 -3 m
3 3 l
-3 3 m
3 -3 l

gsave
1.000 0.498 0.055 setrgbcolor
fill
grestore
stroke
grestore
} bind def
272.22 265.539 o
grestore
0.173 0.627 0.173 setrgbcolor
gsave
253.636 252 43.013 37.544 clipbox
/o {
gsave
newpath
translate
1.0 setlinewidth
1 setlinejoin

0 setlinecap

-3 -3 m
3 3 l
-3 3 m
3 -3 l

gsave
0.173 0.627 0.173 setrgbcolor
fill
grestore
stroke
grestore
} bind def
220.089 213.42 o
grestore
0.839 0.153 0.157 setrgbcolor
gsave
253.636 252 43.013 37.544 clipbox
/o {
gsave
newpath
translate
1.0 setlinewidth
1 setlinejoin

0 setlinecap

-3 -3 m
3 3 l
-3 3 m
3 -3 l

gsave
0.839 0.153 0.157 setrgbcolor
fill
grestore
stroke
grestore
} bind def
220.834 213.886 o
grestore
0.580 0.404 0.741 setrgbcolor
gsave
253.636 252 43.013 37.544 clipbox
/o {
gsave
newpath
translate
1.0 setlinewidth
1 setlinejoin

0 setlinecap

-3 -3 m
3 3 l
-3 3 m
3 -3 l

gsave
0.580 0.404 0.741 setrgbcolor
fill
grestore
stroke
grestore
} bind def
73.5402 67.3685 o
grestore
0.549 0.337 0.294 setrgbcolor
gsave
253.636 252 43.013 37.544 clipbox
/o {
gsave
newpath
translate
1.0 setlinewidth
1 setlinejoin

0 setlinecap

-3 -3 m
3 3 l
-3 3 m
3 -3 l

gsave
0.549 0.337 0.294 setrgbcolor
fill
grestore
stroke
grestore
} bind def
73.777 67.3685 o
grestore
0.890 0.467 0.761 setrgbcolor
gsave
253.636 252 43.013 37.544 clipbox
/o {
gsave
newpath
translate
1.0 setlinewidth
1 setlinejoin

0 setlinecap

-3 -3 m
3 3 l
-3 3 m
3 -3 l

gsave
0.890 0.467 0.761 setrgbcolor
fill
grestore
stroke
grestore
} bind def
124.607 119.184 o
grestore
0.498 setgray
gsave
253.636 252 43.013 37.544 clipbox
/o {
gsave
newpath
translate
1.0 setlinewidth
1 setlinejoin

0 setlinecap

-3 -3 m
3 3 l
-3 3 m
3 -3 l

gsave
0.498 setgray
fill
grestore
stroke
grestore
} bind def
124.553 119.324 o
grestore
1.500 setlinewidth
2 setlinecap
0.737 0.741 0.133 setrgbcolor
gsave
253.636 252 43.013 37.544 clipbox
54.541426 48.998295 m
59.24711 53.67362 l
63.952793 58.348945 l
68.658477 63.024269 l
73.364161 67.699594 l
78.069845 72.374919 l
82.775529 77.050244 l
87.481213 81.725568 l
92.186897 86.400893 l
96.892581 91.076218 l
101.598265 95.751542 l
106.303949 100.426867 l
111.009633 105.102192 l
115.715317 109.777516 l
120.421001 114.452841 l
125.126685 119.128166 l
129.832368 123.80349 l
134.538052 128.478815 l
139.243736 133.15414 l
143.94942 137.829464 l
148.655104 142.504789 l
153.360788 147.180114 l
158.066472 151.855438 l
162.772156 156.530763 l
167.47784 161.206088 l
172.183524 165.881412 l
176.889208 170.556737 l
181.594892 175.232062 l
186.300576 179.907386 l
191.006259 184.582711 l
195.711943 189.258036 l
200.417627 193.93336 l
205.123311 198.608685 l
209.828995 203.28401 l
214.534679 207.959334 l
219.240363 212.634659 l
223.946047 217.309984 l
228.651731 221.985308 l
233.357415 226.660633 l
238.063099 231.335958 l
242.768783 236.011282 l
247.474467 240.686607 l
252.180151 245.361932 l
256.885834 250.037256 l
261.591518 254.712581 l
266.297202 259.387906 l
271.002886 264.063231 l
275.70857 268.738555 l
280.414254 273.41388 l
285.119938 278.089205 l
stroke
grestore
0.800 setlinewidth
0 setlinejoin
0.000 setgray
gsave
43.0125 37.54375 m
43.0125 289.54375 l
stroke
grestore
gsave
296.648864 37.54375 m
296.648864 289.54375 l
stroke
grestore
gsave
43.0125 37.54375 m
296.648864 37.54375 l
stroke
grestore
gsave
43.0125 289.54375 m
296.648864 289.54375 l
stroke
grestore
/DejaVuSans 12.000 selectfont
gsave

149.916619 295.543750 translate
0.000000 rotate
0.000000 0 m /F glyphshow
5.777344 0 m /a glyphshow
13.130859 0 m /s glyphshow
19.382812 0 m /e glyphshow
26.765625 0 m /space glyphshow
30.580078 0 m /D glyphshow
grestore
gsave
347.376136 37.54375 m
601.0125 37.54375 l
601.0125 289.54375 l
347.376136 289.54375 l
cl
1.000 setgray
fill
grestore
1 setlinejoin
0 setlinecap
gsave
/o {
gsave
newpath
translate
0.8 setlinewidth
1 setlinejoin

0 setlinecap

0 0 m
0 -3.5 l

gsave
0.000 setgray
fill
grestore
stroke
grestore
} bind def
358.905 37.5438 o
grestore
/DejaVuSans 10.000 selectfont
gsave

346.186312 22.950000 translate
0.000000 rotate
0.000000 0 m /one glyphshow
6.362305 0 m /nine glyphshow
12.724609 0 m /zero glyphshow
19.086914 0 m /zero glyphshow
grestore
gsave
/o {
gsave
newpath
translate
0.8 setlinewidth
1 setlinejoin

0 setlinecap

0 0 m
0 -3.5 l

gsave
0.000 setgray
fill
grestore
stroke
grestore
} bind def
421.224 37.5438 o
grestore
gsave

408.504829 22.950000 translate
0.000000 rotate
0.000000 0 m /two glyphshow
6.362305 0 m /zero glyphshow
12.724609 0 m /zero glyphshow
19.086914 0 m /zero glyphshow
grestore
gsave
/o {
gsave
newpath
translate
0.8 setlinewidth
1 setlinejoin

0 setlinecap

0 0 m
0 -3.5 l

gsave
0.000 setgray
fill
grestore
stroke
grestore
} bind def
483.542 37.5438 o
grestore
gsave

470.823346 22.950000 translate
0.000000 rotate
0.000000 0 m /two glyphshow
6.362305 0 m /one glyphshow
12.724609 0 m /zero glyphshow
19.086914 0 m /zero glyphshow
grestore
gsave
/o {
gsave
newpath
translate
0.8 setlinewidth
1 setlinejoin

0 setlinecap

0 0 m
0 -3.5 l

gsave
0.000 setgray
fill
grestore
stroke
grestore
} bind def
545.861 37.5438 o
grestore
gsave

533.141863 22.950000 translate
0.000000 rotate
0.000000 0 m /two glyphshow
6.362305 0 m /two glyphshow
12.724609 0 m /zero glyphshow
19.086914 0 m /zero glyphshow
grestore
gsave

457.045881 9.278125 translate
0.000000 rotate
0.000000 0 m /S glyphshow
6.347656 0 m /e glyphshow
12.500000 0 m /n glyphshow
18.837891 0 m /s glyphshow
24.047852 0 m /o glyphshow
30.166016 0 m /r glyphshow
grestore
gsave
/o {
gsave
newpath
translate
0.8 setlinewidth
1 setlinejoin

0 setlinecap

-0 0 m
-3.5 0 l

gsave
0.000 setgray
fill
grestore
stroke
grestore
} bind def
347.376 65.0373 o
grestore
gsave

325.641761 61.240376 translate
0.000000 rotate
0.000000 0 m /minus glyphshow
8.378906 0 m /two glyphshow
grestore
gsave
/o {
gsave
newpath
translate
0.8 setlinewidth
1 setlinejoin

0 setlinecap

-0 0 m
-3.5 0 l

gsave
0.000 setgray
fill
grestore
stroke
grestore
} bind def
347.376 111.384 o
grestore
gsave

325.641761 107.587033 translate
0.000000 rotate
0.000000 0 m /minus glyphshow
8.378906 0 m /one glyphshow
grestore
gsave
/o {
gsave
newpath
translate
0.8 setlinewidth
1 setlinejoin

0 setlinecap

-0 0 m
-3.5 0 l

gsave
0.000 setgray
fill
grestore
stroke
grestore
} bind def
347.376 157.731 o
grestore
gsave

334.016761 153.933690 translate
0.000000 rotate
0.000000 0 m /zero glyphshow
grestore
gsave
/o {
gsave
newpath
translate
0.8 setlinewidth
1 setlinejoin

0 setlinecap

-0 0 m
-3.5 0 l

gsave
0.000 setgray
fill
grestore
stroke
grestore
} bind def
347.376 204.077 o
grestore
gsave

334.016761 200.280347 translate
0.000000 rotate
0.000000 0 m /one glyphshow
grestore
gsave
/o {
gsave
newpath
translate
0.8 setlinewidth
1 setlinejoin

0 setlinecap

-0 0 m
-3.5 0 l

gsave
0.000 setgray
fill
grestore
stroke
grestore
} bind def
347.376 250.424 o
grestore
gsave

334.016761 246.627004 translate
0.000000 rotate
0.000000 0 m /two glyphshow
grestore
gsave

319.563636 128.223437 translate
90.000000 rotate
0.000000 0 m /I glyphshow
2.949219 0 m /n glyphshow
9.287109 0 m /t glyphshow
13.208008 0 m /e glyphshow
19.360352 0 m /r glyphshow
23.471680 0 m /p glyphshow
29.819336 0 m /r glyphshow
33.680664 0 m /e glyphshow
39.833008 0 m /t glyphshow
43.753906 0 m /a glyphshow
49.881836 0 m /c glyphshow
55.379883 0 m /i glyphshow
58.158203 0 m /oacute glyphshow
64.276367 0 m /n glyphshow
grestore
1.000 setlinewidth
0.122 0.467 0.706 setrgbcolor
gsave
253.636 252 347.376 37.544 clipbox
/o {
gsave
newpath
translate
1.0 setlinewidth
1 setlinejoin

0 setlinecap

-3 -3 m
3 3 l
-3 3 m
3 -3 l

gsave
0.122 0.467 0.706 setrgbcolor
fill
grestore
stroke
grestore
} bind def
564.731 254.016 o
grestore
1.000 0.498 0.055 setrgbcolor
gsave
253.636 252 347.376 37.544 clipbox
/o {
gsave
newpath
translate
1.0 setlinewidth
1 setlinejoin

0 setlinecap

-3 -3 m
3 3 l
-3 3 m
3 -3 l

gsave
1.000 0.498 0.055 setrgbcolor
fill
grestore
stroke
grestore
} bind def
564.788 254.016 o
grestore
0.173 0.627 0.173 setrgbcolor
gsave
253.636 252 347.376 37.544 clipbox
/o {
gsave
newpath
translate
1.0 setlinewidth
1 setlinejoin

0 setlinecap

-3 -3 m
3 3 l
-3 3 m
3 -3 l

gsave
0.173 0.627 0.173 setrgbcolor
fill
grestore
stroke
grestore
} bind def
515.128 203.753 o
grestore
0.839 0.153 0.157 setrgbcolor
gsave
253.636 252 347.376 37.544 clipbox
/o {
gsave
newpath
translate
1.0 setlinewidth
1 setlinejoin

0 setlinecap

-3 -3 m
3 3 l
-3 3 m
3 -3 l

gsave
0.839 0.153 0.157 setrgbcolor
fill
grestore
stroke
grestore
} bind def
515.021 203.753 o
grestore
0.580 0.404 0.741 setrgbcolor
gsave
253.636 252 347.376 37.544 clipbox
/o {
gsave
newpath
translate
1.0 setlinewidth
1 setlinejoin

0 setlinecap

-3 -3 m
3 3 l
-3 3 m
3 -3 l

gsave
0.580 0.404 0.741 setrgbcolor
fill
grestore
stroke
grestore
} bind def
372.128 62.1406 o
grestore
0.549 0.337 0.294 setrgbcolor
gsave
253.636 252 347.376 37.544 clipbox
/o {
gsave
newpath
translate
1.0 setlinewidth
1 setlinejoin

0 setlinecap

-3 -3 m
3 3 l
-3 3 m
3 -3 l

gsave
0.549 0.337 0.294 setrgbcolor
fill
grestore
stroke
grestore
} bind def
371.156 60.7502 o
grestore
0.890 0.467 0.761 setrgbcolor
gsave
253.636 252 347.376 37.544 clipbox
/o {
gsave
newpath
translate
1.0 setlinewidth
1 setlinejoin

0 setlinecap

-3 -3 m
3 3 l
-3 3 m
3 -3 l

gsave
0.890 0.467 0.761 setrgbcolor
fill
grestore
stroke
grestore
} bind def
421.952 111.708 o
grestore
0.498 setgray
gsave
253.636 252 347.376 37.544 clipbox
/o {
gsave
newpath
translate
1.0 setlinewidth
1 setlinejoin

0 setlinecap

-3 -3 m
3 3 l
-3 3 m
3 -3 l

gsave
0.498 setgray
fill
grestore
stroke
grestore
} bind def
421.72 111.708 o
grestore
1.500 setlinewidth
2 setlinecap
0.737 0.741 0.133 setrgbcolor
gsave
253.636 252 347.376 37.544 clipbox
358.905062 48.998295 m
363.610746 53.67362 l
368.31643 58.348945 l
373.022114 63.024269 l
377.727798 67.699594 l
382.433482 72.374919 l
387.139166 77.050244 l
391.844849 81.725568 l
396.550533 86.400893 l
401.256217 91.076218 l
405.961901 95.751542 l
410.667585 100.426867 l
415.373269 105.102192 l
420.078953 109.777516 l
424.784637 114.452841 l
429.490321 119.128166 l
434.196005 123.80349 l
438.901689 128.478815 l
443.607373 133.15414 l
448.313057 137.829464 l
453.018741 142.504789 l
457.724424 147.180114 l
462.430108 151.855438 l
467.135792 156.530763 l
471.841476 161.206088 l
476.54716 165.881412 l
481.252844 170.556737 l
485.958528 175.232062 l
490.664212 179.907386 l
495.369896 184.582711 l
500.07558 189.258036 l
504.781264 193.93336 l
509.486948 198.608685 l
514.192632 203.28401 l
518.898315 207.959334 l
523.603999 212.634659 l
528.309683 217.309984 l
533.015367 221.985308 l
537.721051 226.660633 l
542.426735 231.335958 l
547.132419 236.011282 l
551.838103 240.686607 l
556.543787 245.361932 l
561.249471 250.037256 l
565.955155 254.712581 l
570.660839 259.387906 l
575.366523 264.063231 l
580.072207 268.738555 l
584.77789 273.41388 l
589.483574 278.089205 l
stroke
grestore
0.800 setlinewidth
0 setlinejoin
0.000 setgray
gsave
347.376136 37.54375 m
347.376136 289.54375 l
stroke
grestore
gsave
601.0125 37.54375 m
601.0125 289.54375 l
stroke
grestore
gsave
347.376136 37.54375 m
601.0125 37.54375 l
stroke
grestore
gsave
347.376136 289.54375 m
601.0125 289.54375 l
stroke
grestore
/DejaVuSans 12.000 selectfont
gsave

455.108381 295.543750 translate
0.000000 rotate
0.000000 0 m /F glyphshow
5.777344 0 m /a glyphshow
13.130859 0 m /s glyphshow
19.382812 0 m /e glyphshow
26.765625 0 m /space glyphshow
30.580078 0 m /E glyphshow
grestore

end
showpage
