2055
2055
2059
2059
2059
2065
2065
2065
2065
2067
2067
2067
2067
2067
2067
2068
2068
2068
2066
2066
2066
2064
2064
2064
2064
2070
2070
2070
2065
2065
2065
2065
2065
2065
2068
2068
2068
2075
2075
2075
2075
2065
2065
2065
2068
2068
2068
2066
2066
2066
2063
2063
2063
2066
2066
2066
2066
2068
2068
2068
2063
2063
2063
2067
2067
2067
2068
2068
2068
2067
2067
2067
2067
2064
2064
2064
2068
2068
2068
2063
2063
2063
2066
2062
2062
2072
2072
2072
2064
2064
2064
2064
2064
2064
2064
2066
2066
2066
2067
2067
2067
2069
2069
2069
2065
2065
2065
2065
2063
2063
2063
2064
2064
2064
2065
2065
2065
2069
2069
2069
2065
2065
2065
2065
2063
2063
2063
2067
2067
2067
2065
2065
2065
2067
2067
2067
2064
2064
2064
2064
2064
2064
2064
2060
2060
2060
2063
2063
2063
2066
2066
2066
2065
2065
2065
2065
2066
2066
2066
2066
2066
2066
2066
2066
2066
2067
2067
2067
2064
2064
2064
2064
2064
2064
2064
2067
2067
2067
2064
2064
2064
2066
2066
2066
2065
2065
2065
2065
2066
2066
2066
2066
2066
2066
2072
2072
2072
2065
2065
2065
2058
2058
2058
2058
2065
2065
2065
2063
2063
2063
2060
2060
2060
2068
2068
2068
2063
2063
2063
2063
2066
2066
2066
2065
2065
2065
2067
2067
2067
2067
2067
2067
2065
2065
2065
2065
2062
2062
2062
2063
2063
2063
2063
2063
2063
2064
2064
2064
2064
2064
2064
2064
2063
2063
2063
2066
2066
2066
2065
2065
2065
2067
2067
2067
2063
2063
2063
2063
2066
2066
2066
2066
2066
2066
2064
2064
2064
2065
2065
2065
2071
2071
2071
2071
2066
2066
2066
2064
2064
2064
2063
2063
2063
2064
2064
2064
2067
2067
2067
2067
2065
2065
2065
2066
2066
2066
2068
2068
2068
2066
2066
2066
2059
2059
2059
2059
2066
2066
2066
2065
2065
2065
2066
2066
2066
2066
2066
2066
2065
2065
2065
2065
2065
2065
2065
2065
2065
2065
2063
2063
2063
2063
2063
2063
2064
2064
2064
2064
2062
2062
2062
2063
2063
2063
2067
2067
2067
2066
2066
2066
2066
2066
2066
2066
2063
2063
2063
2069
2069
2069
2064
2064
2064
2054
2054
2054
2065
2065
2065
2065
2061
2061
2061
2065
2065
2065
2066
2066
2066
2068
2068
2068
2064
2064
2064
2064
2068
2068
2068
2065
2065
2065
2067
2067
2067
2066
2066
2066
2062
2062
2062
2062
2064
2064
2064
2069
2069
2069
2061
2061
2061
2070
2070
2070
2062
2062
2062
2062
2065
2065
2065
2067
2067
2067
2065
2065
2065
2068
2068
2068
2066
2066
2066
2066
2069
2069
2069
2069
2069
2069
2063
2063
2063
2065
2065
2065
2067
2067
2067
2067
2065
2065
2065
2066
2066
2066
2058
2058
2058
2065
2065
2065
2065
2065
2065
2065
2059
2059
2059
2067
2067
2067
2065
2065
2065
2065
2065
2065
2068
2068
2068
2068
2066
2066
2066
2065
2065
2065
2065
2065
2065
2069
2069
2069
2068
2068
2068
2068
2066
2066
2066
2066
2066
2066
2064
2064
2064
2070
2070
2070
2065
2065
2065
2065
2064
2064
2064
2065
2065
2065
2063
2063
2063
2068
2068
2068
2066
2066
2066
2066
2066
2066
2066
2067
2067
2067
2066
2066
2066
2064
2064
2064
2063
2063
2063
2063
2065
2065
2065
2070
2070
2070
2064
2064
2064
2066
2066
2066
2064
2064
2064
2064
2066
2066
2066
2066
2066
2066
2068
2068
2068
2064
2064
2064
2062
2062
2062
2062
2065
2065
2065
2064
2064
2064
2061
2061
2061
2067
2067
2067
2065
2065
2065
2065
2064
2064
2064
2069
2069
2069
2065
2065
2065
2067
2067
2067
2066
2066
2066
2066
2066
2066
2066
2069
2069
2069
2065
2065
2065
2061
2061
2061
2067
2067
2067
2067
2064
2064
2064
2065
2065
2065
2065
2065
2065
2070
2070
2070
2065
2065
2065
2065
2061
2061
2061
2061
2061
2061
2068
2068
2068
2062
2062
2062
2065
2065
2065
2065
2063
2063
2063
2067
2067
2067
2065
2065
2065
2066
2066
2066
2065
2065
2065
2065
2063
2063
2063
2065
2065
2065
2064
2064
2064
2064
2064
2064
2064
2064
2064
2064
2064
2064
2064
2065
2065
2065
2065
2065
2065
2070
2070
2070
2065
2065
2065
2065
2062
2062
2062
2063
2063
2063
2064
2064
2064
2067
2067
2067
2063
2063
2063
2063
2059
2059
2059
2066
2066
2066
2065
2065
2065
2065
2065
2065
2064
2064
2064
2064
2065
2065
2065
2068
2068
2068
2061
2061
2061
2062
2062
2062
2066
2066
2066
2066
2061
2061
2061
2065
2065
2065
2064
2064
2064
2063
2063
2063
2066
2066
2066
2066
2063
2063
2063
2067
2067
2067
2066
2066
2066
2068
2068
2068
2066
2066
2066
2066
2068
2068
2068
2067
2067
2067
2066
2066
2066
2068
2068
2068
2065
2065
2065
2065
2068
2068
2068
2068
2068
2068
2063
2063
2063
2067
2067
2067
2065
2065
2065
2065
2064
2064
2064
2066
2066
2066
2062
2062
2062
2067
2067
2067
2062
2062
2062
2062
2063
2063
2063
2066
2066
2066
2065
2065
2065
2070
2070
2070
2064
2064
2064
2064
2060
2060
2060
2069
2069
2069
2064
2064
2064
2062
2062
2062
2064
2064
2064
2064
2064
2064
2064
2065
2065
2065
2066
2066
2066
2070
2070
2070
2061
2061
2061
2061
2061
2061
2061
2067
2067
2067
2070
2070
2070
2065
2065
2065
2067
2067
2067
2067
2067
2067
2067
2075
2075
2075
2064
2064
2064
2067
2067
2067
2062
2062
2062
2062
2064
2064
2064
2066
2066
2066
2065
2065
2065
2060
2060
2060
2066
2066
2066
2066
2063
2063
2063
2066
2066
2066
2065
2065
2065
2064
2064
2064
2065
2065
2065
2065
2065
2065
2065
2067
2067
2067
2065
2065
2065
2066
2066
2066
2071
2071
2071
2071
2061
2061
2061
2070
2070
2070
2065
2065
2065
2065
2065
2065
2068
2068
2068
2068
2066
2066
2066
2064
2064
2064
2062
2062
2062
2059
2059
2059
