31804
31804
31869
31869
31869
31761
31761
31761
31826
31826
31826
31826
31826
31826
31826
31761
31761
31761
31869
31869
31869
31761
31761
31761
31826
31826
31826
31826
31890
31890
31890
31783
31783
31783
31804
31804
31804
31740
31740
31740
31869
31869
31869
31869
31719
31719
31719
31783
31783
31783
31847
31847
31847
31826
31826
31826
31804
31804
31804
31804
31826
31826
31826
31719
31719
31719
31826
31826
31826
31890
31890
31890
31890
31890
31890
31890
31804
31804
31804
31740
31740
31740
31847
31847
31847
31804
31804
31804
31847
31847
31847
31847
31826
31826
31826
31783
31783
31783
31847
31847
31847
31804
31804
31804
31804
31804
31804
31804
31804
31804
31804
31826
31826
31826
31890
31890
31890
31804
31804
31804
31804
31804
31804
31804
31740
31740
31740
31783
31783
31783
31847
31847
31847
31847
31847
31847
31847
31847
31847
31847
31912
31912
31912
31804
31804
31804
31740
31740
31740
31783
31783
31783
31804
31804
31804
31804
31826
31826
31826
31804
31804
31804
31869
31869
31869
31761
31761
31761
31826
31826
31826
31826
31676
31676
31676
31740
31740
31740
31890
31890
31890
31740
31740
31740
31847
31847
31847
31847
31804
31804
31804
31783
31783
31783
31869
31869
31869
31740
31740
31740
31869
31869
31869
31869
31912
31912
31912
31761
31761
31761
31826
31826
31826
31804
31804
31804
31847
31847
31847
31847
31847
31847
31847
31761
31761
31761
31976
31976
31976
31761
31761
31761
31847
31847
31847
31847
31826
31826
31826
31783
31783
31783
31847
31847
31847
31676
31676
31676
31869
31869
31869
31869
31826
31826
31826
31869
31869
31869
31869
31869
31869
31697
31697
31697
31804
31804
31804
31804
31826
31826
31826
31740
31740
31740
31847
31847
31847
31890
31890
31890
31804
31804
31804
31804
31847
31847
31847
31697
31697
31697
31804
31804
31804
31740
31740
31740
31804
31804
31804
31804
31869
31869
31869
31783
31783
31783
31847
31847
31847
31761
31761
31761
31719
31719
31719
31719
31804
31804
31804
31783
31783
31783
31804
31804
31804
31804
31804
31804
31804
31804
31804
31804
31804
31804
31804
31783
31783
31783
31869
31869
31869
31740
31740
31740
31826
31826
31826
31826
31761
31761
31761
31826
31826
31826
31804
31804
31804
31761
31761
31761
31826
31826
31826
31826
31869
31869
31869
31783
31783
31783
31804
31804
31804
31719
31719
31719
31847
31847
31847
31847
31826
31826
31826
31826
31826
31826
31847
31847
31847
31740
31740
31740
31933
31933
31933
31933
31847
31847
31847
31740
31740
31740
31826
31826
31826
31740
31740
31740
31847
31847
31847
31847
31804
31804
31804
31783
31783
31783
31869
31869
31869
31826
31826
31826
31804
31804
31804
31804
31847
31847
31847
31826
31826
31826
31826
31826
31826
31761
31761
31761
31740
31740
31740
31740
31847
31847
31847
31783
31783
31783
31869
31869
31869
31761
31761
31761
31847
31847
31847
31847
31804
31804
31804
31761
31761
31761
31955
31955
31955
31761
31761
31761
31869
31869
31869
31869
31869
31869
31869
31740
31740
31740
31890
31890
31890
31761
31761
31761
31869
31869
31869
31869
31826
31826
31826
31761
31761
31761
31847
31847
31847
31761
31761
31761
31847
31847
31847
31847
31761
31761
31761
31697
31697
31697
31869
31869
31869
31761
31761
31761
31783
31783
31783
31783
31761
31761
31761
31783
31783
31783
31869
31869
31869
31783
31783
31783
31826
31826
31826
31826
31912
31912
31912
31761
31761
31761
31847
31847
31847
31740
31740
31740
31847
31847
31847
31847
31869
31869
31869
31697
31697
31697
31847
31847
31847
31740
31740
31740
31890
31890
31890
31890
31998
31998
31998
31804
31804
31804
31847
31847
31847
31740
31740
31740
31826
31826
31826
31826
31826
31826
31826
31783
31783
31783
31890
31890
31890
31804
31804
31804
31869
31869
31869
31869
31847
31847
31847
31890
31890
31890
31804
31804
31804
31804
31804
31804
31890
31890
31890
31890
31890
31890
31890
31740
31740
31740
31869
31869
31869
31804
31804
31804
31847
31847
31847
31847
31890
31890
31890
31804
31804
31804
31847
31847
31847
31783
31783
31783
31847
31847
31847
31847
31761
31761
31761
31761
31761
31761
31826
31826
31826
31804
31804
31804
31826
31826
31826
31826
31826
31826
31826
31740
31740
31740
31826
31826
31826
31740
31740
31740
31869
31869
31869
31869
31847
31847
31847
31761
31761
31761
31847
31847
31847
31783
31783
31783
31869
31869
31869
31869
31847
31847
31847
31719
31719
31719
31804
31804
31804
31719
31719
31719
31847
31847
31847
31847
31912
31912
31912
31697
31697
31697
31912
31912
31912
31804
31804
31804
31869
31869
31869
31869
31847
31847
31847
31826
31826
31826
31826
31826
31826
31719
31719
31719
31783
31783
31783
31783
31890
31890
31890
31740
31740
31740
31955
31955
31955
31761
31761
31761
31804
31804
31804
31804
31847
31847
31847
31783
31783
31783
31869
31869
31869
31847
31847
31847
31847
31847
31847
31847
31804
31804
31804
31761
31761
31761
31740
31740
31740
31804
31804
31804
31890
31890
31890
31890
31804
31804
31804
31761
31761
31761
31869
31869
31869
31826
31826
31826
31869
31869
31869
31869
31847
31847
31847
31740
31740
31740
31847
31847
31847
31719
31719
31719
31890
31890
31890
31890
31826
31826
31826
31783
31783
31783
31847
31847
31847
31740
31740
31740
31826
31826
31826
31826
31719
31719
31719
31804
31804
31804
31783
31783
31783
31847
31847
31847
31826
31826
31826
31826
31847
31847
31847
31804
31804
31804
31783
31783
31783
31847
31847
31847
31804
31804
31804
31804
31869
31869
31869
31740
31740
31740
31804
31804
31804
31826
31826
31826
31847
31847
31847
31847
31783
31783
31783
31761
31761
31761
31761
31761
31761
31740
31740
31740
31804
31804
31804
31804
31869
31869
31869
31783
31783
31783
31847
31847
31847
31804
31804
31804
31826
31826
31826
31826
31761
31761
31761
31804
31804
31804
31826
31826
31826
31804
31804
31804
31804
31804
31804
31804
31847
31847
31847
31783
31783
31783
31847
31847
31847
31783
31783
31783
31826
31826
31826
31826
31826
31826
31826
31955
31955
31955
31847
31847
31847
31783
31783
31783
31847
31847
31847
31847
31826
31826
31826
31761
31761
31761
31826
31826
31826
31740
31740
31740
31826
31826
31826
31826
31826
31826
31826
31761
31761
31761
31761
31761
31761
31740
31740
31740
31804
31804
31804
31804
31826
31826
31826
31676
31676
31676
31890
31890
31890
31826
31826
31826
31847
31847
31847
31847
31869
31869
31869
31761
31761
31761
31847
31847
31847
31761
31761
31761
31847
31847
31847
31847
31847
31847
31847
31783
31783
31783
31826
31826
31826
31804
31804
31804
31890
31890
31890
31890
31826
31826
31826
31761
31761
31761
31869
31869
31869
31804
31804
31804
31804
31804
31804
31804
31912
31912
31912
31804
31804
31804
31740
31740
31740
31740
31740
31740
31826
31826
31826
31826
31912
31912
31912
31804
31804
31804
31826
31826
31826
31740
31740
31740
31826
31826
31826
31826
31804
31804
31804
31847
31847
31847
31847
31847
31847
31998
31998
31998
31890
31890
31890
31890
31804
31804
31804
31761
31761
31761
32019
32019
32019
31740
31740
31740
31869
31869
31869
31869
31847
31847
31847
31826
31826
31826
31804
31804
31804
31697
31697
31697
31869
31869
31869
31869
31890
31890
31890
31697
31697
31697
31933
31933
31933
31676
31676
31676
31847
31847
31847
31847
31890
31890
31890
31783
31783
31783
31761
31761
31761
31847
31847
31847
31804
31804
31804
31804
31804
31804
31804
31697
31697
31697
31826
31826
31826
31804
31804
31804
31761
31761
31761
31761
31847
31847
31847
31847
31847
31847
31761
31761
31761
31761
31761
31761
31761
31761
31761
31761
31761
31761
31761
31783
31783
31783
31761
31761
31761
31847
31847
31847
31761
31761
31761
31761
31869
31869
31869
31761
31761
31761
32019
32019
32019
31783
31783
31783
31847
31847
31847
31847
31761
31761
31761
31783
31783
31783
31847
31847
31847
31761
31761
31761
31847
31847
31847
31847
31847
31847
31847
31761
31761
31761
31826
31826
31826
31740
31740
31740
31804
31804
31804
31804
31826
31826
31826
31761
31761
31761
31826
31826
31826
31783
31783
31783
31804
31804
31804
31804
31847
31847
31847
31804
31804
31804
31826
31826
31826
31783
31783
31783
31826
31826
31826
31826
31847
31847
31847
31761
31761
31761
31912
31912
31912
31761
31761
31761
31761
31761
31761
31761
32019
32019
32019
31761
31761
31761
31804
31804
31804
31697
31697
31697
31804
31804
31804
31804
31912
31912
31912
31804
31804
31804
31826
31826
31826
31804
31804
31804
31826
31826
31826
31826
31783
31783
31783
31719
31719
31719
31847
31847
31847
31804
31804
31804
31847
31847
31847
31847
31912
31912
31912
31783
31783
31783
31869
31869
31869
31761
31761
31761
31847
31847
31847
31847
31826
31826
31826
31783
31783
31783
31912
31912
31912
31783
31783
31783
31869
31869
31869
31869
31847
31847
31847
31740
31740
31740
31847
31847
31847
31783
31783
31783
31826
31826
31826
31826
31890
31890
31890
31804
31804
31804
31847
31847
31847
31804
31804
31804
31869
31869
31869
31869
31826
31826
31826
31783
31783
31783
31869
31869
31869
31761
31761
31761
31826
31826
31826
31826
31869
31869
31869
31740
31740
31740
31847
31847
31847
31783
31783
31783
31804
31804
31804
31804
31826
31826
31826
31783
31783
31783
31804
31804
31804
31804
31804
31804
31783
31783
31783
31783
31761
31761
31761
31804
31804
31804
31869
31869
31869
31761
31761
31761
31826
31826
31826
31826
31826
31826
31826
31740
31740
31740
31890
31890
31890
31697
31697
31697
31804
31804
31804
31804
31890
31890
31890
31761
31761
31761
31740
31740
31740
31719
31719
31719
31847
31847
31847
31847
31847
31847
31847
31783
31783
31783
31869
31869
31869
31826
31826
31826
31847
31847
31847
31847
31740
31740
31740
31804
31804
31804
31847
31847
31847
31869
31869
31869
31783
31783
31783
31783
31847
31847
31847
31826
31826
31826
31933
31933
31933
31719
31719
31719
31890
31890
31890
31890
31890
31890
31890
31740
31740
31740
31890
31890
31890
31804
31804
31804
31890
31890
31890
31890
31826
31826
31826
31826
31826
31826
31998
31998
31998
31697
31697
31697
31869
31869
31869
31869
31804
31804
31804
31719
31719
31719
31847
31847
31847
31719
31719
31719
31976
31976
31976
31976
31826
31826
31826
31761
31761
31761
31847
31847
31847
31740
31740
31740
31890
31890
31890
31890
31804
31804
31804
31740
31740
31740
31912
31912
31912
31761
31761
31761
31761
31761
31761
31761
31847
31847
31847
31761
31761
31761
31847
31847
31847
31804
31804
31804
31740
31740
31740
31740
31804
31804
31804
31783
31783
31783
31804
31804
31804
31761
31761
31761
31890
31890
31890
31890
31826
31826
31826
31761
31761
31761
31890
31890
31890
31783
31783
31783
31869
31869
31869
31869
31826
31826
31826
31761
31761
31761
31869
31869
31869
31761
31761
31761
31804
31804
31804
31804
31804
31804
31804
31761
31761
31761
31847
31847
31847
31697
31697
31697
31847
31847
31847
31847
31912
31912
31912
31719
31719
31719
31826
31826
31826
31783
31783
31783
31890
31890
31890
31890
31890
31890
31890
31783
31783
31783
31783
31783
31783
31783
31783
31783
31869
31869
31869
31869
31912
31912
31912
31804
31804
31804
31869
31869
31869
31804
31804
31804
31890
31890
31890
31890
31847
31847
31847
31783
31783
31783
31826
31826
31826
31783
31783
31783
31804
31804
31804
31804
31826
31826
31826
31740
31740
31740
31847
31847
31847
31676
31676
31676
31804
31804
31804
31804
31826
31826
31826
31761
31761
31761
31826
31826
31826
31761
31761
31761
31804
31804
31804
31804
31869
31869
31869
31783
31783
31783
31826
31826
31826
31783
31783
31783
31890
31890
31890
31890
31761
31761
31761
31804
31804
31804
31826
31826
31826
31783
31783
31783
31847
31847
31847
31847
31804
31804
31804
31761
31761
31761
31869
31869
31869
31804
31804
31804
31804
31804
31804
31804
31761
31761
31761
31933
31933
31933
31804
31804
31804
31761
31761
31761
31847
31847
31847
31847
31869
31869
31869
31826
31826
31826
31912
31912
31912
31719
31719
31719
31890
31890
31890
31890
31783
31783
31783
31847
31847
31847
31761
31761
31761
31783
31783
31783
31976
31976
31976
31976
31847
31847
31847
31847
31847
31847
31933
31933
31933
31697
31697
31697
31869
31869
31869
31869
31869
31869
31869
31719
31719
31719
31869
31869
31869
31719
31719
31719
31826
31826
31826
31826
31869
31869
31869
31869
31869
31869
31826
31826
31826
31783
31783
31783
31847
31847
31847
31847
31719
31719
31719
31804
31804
31804
31804
31804
31804
31697
31697
31697
31804
31804
31804
31804
31804
31804
31804
31761
31761
31761
31783
31783
31783
31804
31804
31804
31847
31847
31847
31847
31847
31847
31847
31783
31783
31783
31847
31847
31847
31761
31761
31761
31869
31869
31869
31869
31847
31847
31847
31761
31761
31761
31826
31826
31826
31761
31761
31761
31869
31869
31869
31869
31804
31804
31804
31761
31761
31761
31826
31826
31826
31804
31804
31804
31804
31804
31804
31804
31783
31783
31783
31783
31783
31783
31826
31826
31826
31676
31676
31676
31869
31869
31869
31869
31869
31869
31869
31804
31804
31804
31869
31869
31869
31804
31804
31804
31804
31804
31804
31804
31890
31890
31890
31976
31976
31976
31847
31847
31847
31783
31783
31783
31912
31912
31912
31912
31826
31826
31826
31761
31761
31761
31869
31869
31869
31804
31804
31804
31847
31847
31847
31847
31783
31783
31783
31761
31761
31761
31804
31804
31804
31761
31761
31761
31826
31826
31826
31826
31847
31847
31847
31740
31740
31740
31826
31826
31826
31783
31783
31783
31804
31804
31804
31804
31761
31761
31761
31740
31740
31740
31847
31847
31847
31783
31783
31783
31826
31826
31826
31826
31847
31847
31847
31740
31740
31740
31869
31869
31869
31783
31783
31783
31933
31933
31933
31933
31869
31869
31869
31761
31761
31761
31847
31847
31847
31719
31719
31719
31869
31869
31869
31869
31869
31869
31869
31783
31783
31783
31890
31890
31890
31804
31804
31804
31869
31869
31869
31869
31869
31869
31869
31697
31697
31697
31783
31783
31783
31826
31826
31826
31869
31869
31869
31869
31826
31826
31826
31719
31719
31719
31804
31804
31804
31826
31826
31826
31847
31847
31847
31847
31783
31783
31783
31783
31783
31783
31826
31826
31826
31783
31783
31783
31847
31847
31847
31847
31783
31783
31783
31804
31804
31804
31847
31847
31847
31761
31761
31761
31976
31976
31976
31976
31869
31869
31869
31804
31804
31804
31869
31869
31869
31804
31804
31804
31869
31869
31869
31869
31783
31783
31783
31783
31783
31783
31890
31890
31890
31783
31783
31783
31869
31869
31869
31869
31826
31826
31826
31697
31697
31697
31847
31847
31847
31783
31783
31783
31783
31783
31783
31783
31783
31783
31783
31826
31826
31826
31869
31869
31869
31826
31826
31826
31869
31869
31869
31869
31804
31804
31804
31783
31783
31783
31826
31826
31826
31761
31761
31761
31847
31847
31847
31847
31826
31826
31826
31740
31740
31740
31869
31869
31869
31697
31697
31697
31847
31847
31847
31847
31826
31826
31826
31740
31740
31740
31761
31761
31761
31804
31804
31804
31783
31783
31783
31783
31804
31804
31804
31783
31783
31783
31847
31847
31847
31826
31826
31826
31869
31869
31869
31869
31826
31826
31826
31804
31804
31804
31847
31847
31847
31740
31740
31740
31890
31890
31890
31890
31847
31847
31847
31804
31804
31804
31847
31847
31847
31761
31761
31761
31804
31804
31804
31804
31826
31826
31826
31740
31740
31740
31804
31804
31804
31847
31847
31847
31933
31933
31933
31933
31826
31826
31826
31912
31912
31912
31869
31869
31869
31761
31761
31761
31869
31869
31869
31869
31804
31804
31804
31783
31783
31783
31912
31912
31912
31761
31761
31761
31826
31826
31826
31826
31826
31826
31826
31697
31697
31697
31869
31869
31869
31783
31783
31783
31933
31933
31933
31933
31912
31912
31912
31826
31826
31826
31826
31826
31826
31783
31783
31783
31869
31869
31869
31869
31804
31804
31804
31740
31740
31740
31804
31804
31804
31783
31783
31783
31804
31804
31804
31804
31804
31804
31804
31697
31697
31697
31847
31847
31847
31783
31783
31783
31869
31869
31869
31869
31804
31804
31804
31783
31783
31783
31847
31847
31847
31740
31740
31740
31826
31826
31826
31826
31826
31826
31826
31783
31783
31783
31847
31847
31847
31783
31783
31783
31740
31740
31740
31740
31826
31826
31826
31869
31869
31869
31869
31869
31869
31761
31761
31761
31826
31826
31826
31826
31847
31847
31847
31804
31804
31804
31847
31847
31847
31740
31740
31740
31869
31869
31869
31869
31783
31783
31783
31847
31847
31847
31783
31783
31783
31826
31826
31826
31719
31719
31719
31719
31697
31697
31697
31826
31826
31826
31890
31890
31890
31761
31761
31761
31869
31869
31869
31869
31826
31826
31826
31697
31697
31697
31869
31869
31869
31719
31719
31719
31933
31933
31933
31933
31804
31804
31804
31719
31719
31719
31847
31847
31847
31761
31761
31761
31783
31783
31783
31783
31783
31783
31783
31761
31761
31761
31826
31826
31826
31740
31740
31740
31826
31826
31826
31826
31847
31847
31847
31761
31761
31761
31847
31847
31847
31719
31719
31719
31804
31804
31804
31804
31783
31783
31783
31719
31719
31719
31847
31847
31847
31847
31847
31847
31804
31804
31804
31804
31804
31804
31804
31761
31761
31761
31890
31890
31890
31719
31719
31719
31847
31847
31847
31847
31847
31847
31847
31740
31740
31740
31847
31847
31847
31761
31761
31761
31890
31890
31890
31890
31826
31826
31826
31847
31847
31847
31847
31847
31847
31826
31826
31826
31869
31869
31869
31869
31826
31826
31826
31783
31783
31783
31804
31804
31804
31804
31804
31804
31826
31826
31826
31826
31804
31804
31804
31826
31826
31826
31847
31847
31847
31804
31804
31804
31761
31761
31761
31761
31847
31847
31847
31761
31761
31761
31869
31869
31869
31912
31912
31912
31847
31847
31847
31847
31847
31847
31847
31783
31783
31783
31826
31826
31826
31783
31783
31783
31783
31783
31783
31783
31890
31890
31890
31740
31740
31740
31890
31890
31890
31761
31761
31761
32041
32041
32041
32041
31847
31847
31847
31761
31761
31761
31826
31826
31826
31869
31869
31869
31826
31826
31826
31826
31869
31869
31869
31740
31740
31740
31804
31804
31804
31783
31783
31783
31847
31847
31847
31847
31783
31783
31783
31761
31761
31761
31847
31847
31847
31761
31761
31761
31847
31847
31847
31847
31869
31869
31869
31783
31783
31783
31826
31826
31826
31783
31783
31783
31869
31869
31869
31869
31783
31783
31783
31826
31826
31826
31890
31890
31890
31869
31869
31869
31761
31761
31761
31761
31804
31804
31804
31740
31740
31740
31847
31847
31847
31719
31719
31719
31869
31869
31869
31869
31804
31804
31804
31740
31740
31740
31890
31890
31890
31719
31719
31719
31890
31890
31890
31890
31912
31912
31912
31804
31804
31804
31826
31826
31826
31740
31740
31740
31740
31740
31740
31740
31847
31847
31847
31783
31783
31783
31890
31890
31890
31697
31697
31697
31890
31890
31890
31890
31783
31783
31783
31826
31826
31826
31826
31826
31826
31804
31804
31804
31826
31826
31826
31826
31826
31826
31826
31761
31761
31761
31847
31847
31847
31783
31783
31783
31933
31933
31933
31933
31826
31826
31826
31783
31783
31783
31890
31890
31890
31804
31804
31804
31869
31869
31869
31869
31890
31890
31890
31804
31804
31804
31826
31826
31826
31740
31740
31740
31804
31804
31804
31804
31933
31933
31933
31847
31847
31847
31847
31847
31847
31761
31761
31761
31847
31847
31847
31847
31804
31804
31804
31783
31783
31783
31847
31847
31847
31761
31761
31761
31847
31847
31847
31847
31804
31804
31804
31761
31761
31761
31826
31826
31826
31761
31761
31761
31847
31847
31847
31847
31783
31783
31783
31804
31804
31804
31847
31847
31847
31826
31826
31826
31869
31869
31869
31869
31804
31804
31804
31804
31804
31804
31847
31847
31847
31804
31804
31804
31847
31847
31847
31847
31847
31847
31847
31783
31783
31783
31826
31826
31826
31761
31761
31761
31804
31804
31804
31804
31719
31719
31719
31740
31740
31740
31869
31869
31869
31955
31955
31955
31804
31804
31804
31804
31761
31761
31761
31761
31761
31761
31826
31826
31826
31783
31783
31783
31847
31847
31847
31847
31804
31804
31804
31847
31847
31847
31826
31826
31826
31740
31740
31740
31783
31783
31783
31783
31912
31912
31912
31804
31804
31804
31804
31804
31804
31783
31783
31783
31869
31869
31869
31869
31761
31761
31761
31890
31890
31890
31719
31719
31719
31869
31869
31869
31804
31804
31804
31804
31826
31826
31826
31804
31804
31804
31847
31847
31847
31761
31761
31761
31955
31955
31955
31955
31761
31761
31761
31719
31719
31719
31890
31890
31890
31697
31697
31697
31912
31912
31912
31912
31826
31826
31826
31761
31761
31761
31890
31890
31890
31719
31719
31719
31761
31761
31761
31761
31826
31826
31826
31783
31783
31783
31869
31869
31869
31719
31719
31719
31912
31912
31912
31912
31804
31804
31804
31783
31783
31783
31719
31719
31719
31826
31826
31826
31826
31826
31826
31826
31847
31847
31847
31697
31697
31697
31869
31869
31869
31783
31783
31783
31933
31933
31933
31933
31826
31826
31826
31783
31783
31783
31804
31804
31804
31890
31890
31890
31783
31783
31783
31783
31847
31847
31847
31783
31783
31783
31826
31826
31826
31804
31804
31804
31869
31869
31869
31869
31826
31826
31826
31804
31804
31804
31826
31826
31826
31761
31761
31761
31847
31847
31847
31847
31912
31912
31912
31804
31804
31804
31826
31826
31826
31783
31783
31783
31869
31869
31869
31869
31847
31847
31847
31761
31761
31761
31847
31847
31847
31804
31804
31804
31847
31847
31847
31847
31847
31847
31847
31804
31804
31804
31847
31847
31847
31719
31719
31719
31869
31869
31869
31869
31804
31804
31804
31761
31761
31761
31826
31826
31826
31740
31740
31740
31890
31890
31890
31890
31869
31869
31869
31568
31568
31568
31869
31869
31869
31783
31783
31783
31761
31761
31761
31761
31783
31783
31783
31783
31783
31783
31783
31783
31783
31719
31719
31719
31869
31869
31869
31869
31847
31847
31847
31761
31761
31761
31955
31955
31955
31761
31761
31761
31998
31998
31998
31998
31847
31847
31847
31826
31826
31826
31826
31826
31826
31783
31783
31783
31826
31826
31826
31826
31761
31761
31761
31890
31890
31890
31783
31783
31783
31869
31869
31869
31804
31804
31804
31804
31804
31804
31804
31783
31783
31783
31697
31697
31697
31783
31783
31783
31826
31826
31826
31826
31847
31847
31847
31740
31740
31740
31869
31869
31869
31740
31740
31740
31847
31847
31847
31847
31869
31869
31869
31826
31826
31826
31869
31869
31869
31719
31719
31719
31869
31869
31869
31869
31847
31847
31847
31783
31783
31783
31826
31826
31826
31761
31761
31761
32084
32084
32084
32084
31783
31783
31783
31761
31761
31761
31847
31847
31847
31676
31676
31676
31847
31847
31847
31847
31783
31783
31783
31804
31804
31804
31847
31847
31847
31740
31740
31740
31847
31847
31847
31847
31869
31869
31869
31869
31869
31869
31804
31804
31804
31804
31804
31804
31890
31890
31890
31890
31719
31719
31719
31761
31761
31761
31826
31826
31826
31761
31761
31761
31847
31847
31847
31847
31826
31826
31826
31804
31804
31804
31847
31847
31847
31783
31783
31783
31847
31847
31847
31847
31826
31826
31826
31869
31869
31869
31847
31847
31847
31804
31804
31804
31847
31847
31847
31847
31761
31761
31761
31804
31804
31804
31869
31869
31869
31740
31740
31740
31847
31847
31847
31847
31826
31826
31826
31783
31783
31783
31804
31804
31804
31804
31804
31804
31869
31869
31869
31869
31783
31783
31783
31847
31847
31847
31804
31804
31804
31697
31697
31697
31847
31847
31847
31847
31783
31783
31783
31761
31761
31761
31826
31826
31826
31804
31804
31804
31869
31869
31869
31869
31869
31869
31869
31719
31719
31719
31847
31847
31847
31783
31783
31783
31740
31740
31740
31740
31804
31804
31804
31676
31676
31676
31869
31869
31869
31826
31826
31826
31847
31847
31847
31847
31869
31869
31869
31740
31740
31740
31912
31912
31912
31804
31804
31804
31869
31869
31869
31869
31912
31912
31912
31633
31633
31633
31955
31955
31955
31740
31740
31740
31804
31804
31804
31804
31890
31890
31890
31740
31740
31740
31869
31869
31869
31740
31740
31740
31847
31847
31847
31847
31869
31869
31869
31719
31719
31719
31826
31826
31826
31761
31761
31761
31783
31783
31783
31783
31869
31869
31869
31719
31719
31719
31847
31847
31847
31783
31783
31783
31826
31826
31826
31826
31804
31804
31804
31826
31826
31826
31955
31955
31955
31826
31826
31826
31783
31783
31783
31783
31804
31804
31804
31912
31912
31912
31826
31826
31826
31804
31804
31804
31804
31804
31804
31804
31804
31804
31804
31783
31783
31783
31847
31847
31847
31847
31847
31847
31761
31761
31761
31761
31804
31804
31804
31761
31761
31761
31890
31890
31890
31804
31804
31804
31869
31869
31869
31869
31761
31761
31761
31761
31761
31761
31847
31847
31847
31761
31761
31761
31869
31869
31869
31869
31783
31783
31783
31804
31804
31804
31847
31847
31847
31783
31783
31783
31890
31890
31890
31890
31847
31847
31847
31783
31783
31783
31826
31826
31826
31761
31761
31761
31783
31783
31783
31783
31804
31804
31804
31761
31761
31761
31890
31890
31890
31697
31697
31697
31804
31804
31804
31804
31847
31847
31847
31783
31783
31783
31826
31826
31826
31761
31761
31761
31869
31869
31869
31869
31783
31783
31783
31847
31847
31847
31826
31826
31826
31761
31761
31761
31761
31761
31761
31761
31955
31955
31955
31740
31740
31740
31804
31804
31804
31633
31633
31633
31847
31847
31847
31847
31826
31826
31826
31761
31761
31761
31804
31804
31804
31740
31740
31740
31869
31869
31869
31869
31890
31890
31890
31719
31719
31719
31826
31826
31826
31761
31761
31761
31826
31826
31826
31826
31826
31826
31826
31719
31719
31719
31847
31847
31847
31804
31804
31804
31847
31847
31847
31847
31869
31869
31869
31761
31761
31761
31804
31804
31804
31783
31783
31783
31869
31869
31869
31869
31783
31783
31783
31912
31912
31912
31869
31869
31869
31804
31804
31804
31804
31804
31804
31804
31869
31869
31869
31761
31761
31761
31869
31869
31869
31740
31740
31740
31783
31783
31783
31783
31869
31869
31869
31719
31719
31719
31933
31933
31933
31826
31826
31826
31869
31869
31869
31869
31826
31826
31826
31804
31804
31804
31869
31869
31869
31804
31804
31804
31804
31804
31804
31804
31804
31804
31804
31826
31826
31826
31847
31847
31847
31847
31847
31847
31826
31826
31826
31826
31847
31847
31847
31783
31783
31783
31826
31826
31826
31783
31783
31783
31719
31719
31719
31719
31869
31869
31869
31804
31804
31804
31761
31761
31761
31869
31869
31869
31783
31783
31783
31783
31826
31826
31826
31740
31740
31740
31761
31761
31761
31826
31826
31826
31804
31804
31804
31804
31847
31847
31847
31761
31761
31761
31847
31847
31847
31719
31719
31719
31847
31847
31847
31847
31783
31783
31783
31804
31804
31804
31890
31890
31890
31676
31676
31676
31869
31869
31869
31869
31826
31826
31826
31804
31804
31804
31869
31869
31869
31804
31804
31804
31847
31847
31847
31847
31804
31804
31804
31761
31761
31761
31869
31869
31869
31761
31761
31761
31869
31869
31869
31869
31890
31890
31890
31804
31804
31804
31804
31804
31804
31740
31740
31740
31826
31826
31826
31826
31804
31804
31804
31761
31761
31761
31826
31826
31826
31761
31761
31761
31847
31847
31847
31847
31804
31804
31804
31761
31761
31761
31847
31847
31847
31933
31933
31933
31869
31869
31869
31869
31826
31826
31826
31719
31719
31719
31847
31847
31847
31783
31783
31783
31826
31826
31826
31826
31847
31847
31847
31933
31933
31933
31869
31869
31869
31761
31761
31761
31783
31783
31783
31783
31826
31826
31826
31804
31804
31804
31912
31912
31912
31740
31740
31740
31826
31826
31826
31826
31804
31804
31804
31783
31783
31783
32019
32019
32019
31761
31761
31761
31869
31869
31869
31869
31826
31826
31826
31783
31783
31783
31869
31869
31869
31761
31761
31761
31804
31804
31804
31804
31761
31761
31761
31847
31847
31847
31783
31783
31783
31761
31761
31761
31826
31826
31826
31826
31804
31804
31804
31847
31847
31847
31869
31869
31869
31783
31783
31783
31869
31869
31869
31869
31826
31826
31826
31783
31783
31783
31869
31869
31869
31740
31740
31740
31804
31804
31804
31804
31912
31912
31912
31783
31783
31783
31890
31890
31890
31740
31740
31740
31869
31869
31869
31869
31826
31826
31826
31804
31804
31804
31826
31826
31826
31761
31761
31761
31912
31912
31912
31912
31804
31804
31804
31719
31719
31719
31912
31912
31912
31869
31869
31869
31890
31890
31890
31890
31826
31826
31826
31761
31761
31761
31697
31697
31697
31761
31761
31761
31847
31847
31847
31847
31869
31869
31869
31955
31955
31955
31847
31847
31847
31826
31826
31826
31676
31676
31676
31676
31804
31804
31804
31740
31740
31740
31869
31869
31869
31826
31826
31826
31783
31783
31783
31783
31804
31804
31804
31804
31804
31804
31890
31890
31890
31783
31783
31783
31804
31804
31804
31804
31890
31890
31890
31826
31826
31826
31869
31869
31869
31826
31826
31826
31804
31804
31804
31804
31804
31804
31804
31783
31783
31783
31847
31847
31847
31783
31783
31783
31869
31869
31869
31869
31826
31826
31826
31783
31783
31783
31890
31890
31890
31783
31783
31783
31783
31783
31783
31783
31869
31869
31869
31826
31826
31826
31847
31847
31847
31783
31783
31783
31869
31869
31869
31869
31847
31847
31847
31761
31761
31761
31869
31869
31869
31783
31783
31783
31826
31826
31826
31826
31847
31847
31847
31697
31697
31697
31826
31826
31826
31804
31804
31804
31804
31804
31804
31804
31804
31804
31804
31826
31826
31826
31826
31826
31826
31826
31826
31826
31847
31847
31847
31847
31826
31826
31826
31761
31761
31761
31869
31869
31869
31761
31761
31761
31847
31847
31847
31847
31826
31826
31826
31804
31804
31804
31847
31847
31847
31804
31804
31804
31890
31890
31890
31890
31933
31933
31933
31676
31676
31676
31869
31869
31869
31783
31783
31783
31869
31869
31869
31869
31890
31890
31890
31783
31783
31783
31719
31719
31719
31761
31761
31761
31869
31869
31869
31869
31826
31826
31826
31847
31847
31847
31761
31761
31761
31761
31761
31761
31869
31869
31869
31869
31847
31847
31847
31804
31804
31804
31804
31804
31804
31761
31761
31761
31826
31826
31826
31826
31826
31826
31826
31783
31783
31783
31783
31783
31783
31804
31804
31804
31697
31697
31697
31697
31826
31826
31826
31869
31869
31869
31740
31740
31740
31783
31783
31783
31804
31804
31804
31804
31890
31890
31890
31740
31740
31740
31804
31804
31804
31783
31783
31783
31869
31869
31869
31869
31804
31804
31804
31761
31761
31761
31912
31912
31912
31761
31761
31761
31783
31783
31783
31783
31783
31783
31783
31804
31804
31804
31826
31826
31826
31740
31740
31740
31847
31847
31847
31847
31826
31826
31826
31740
31740
31740
31933
31933
31933
31761
31761
31761
31890
31890
31890
31890
31869
31869
31869
31740
31740
31740
31847
31847
31847
31783
31783
31783
31890
31890
31890
31890
31804
31804
31804
31804
31804
31804
31847
31847
31847
31847
31847
31847
31804
31804
31804
31804
31847
31847
31847
31761
31761
31761
31847
31847
31847
31804
31804
31804
31804
31804
31804
31804
31847
31847
31847
31761
31761
31761
31826
31826
31826
31761
31761
31761
31890
31890
31890
31890
31847
31847
31847
31740
31740
31740
31826
31826
31826
31804
31804
31804
31826
31826
31826
31826
31847
31847
31847
31740
31740
31740
31847
31847
31847
31783
31783
31783
31847
31847
31847
31847
31869
31869
31869
31826
31826
31826
31847
31847
31847
31761
31761
31761
31826
31826
31826
31826
31826
31826
31826
31783
31783
31783
31826
31826
31826
31740
31740
31740
31847
31847
31847
31847
31847
31847
31847
31783
31783
31783
31847
31847
31847
31804
31804
31804
31869
31869
31869
31869
31783
31783
31783
31761
31761
31761
31697
31697
31697
31826
31826
31826
31912
31912
31912
31912
31912
31912
31912
31783
31783
31783
31912
31912
31912
31783
31783
31783
31890
31890
31890
31890
31869
31869
31869
31761
31761
31761
31847
31847
31847
31761
31761
31761
31804
31804
31804
31804
31826
31826
31826
31761
31761
31761
31847
31847
31847
31826
31826
31826
31826
31826
31826
31826
31869
31869
31869
31697
31697
31697
31826
31826
31826
31697
31697
31697
31847
31847
31847
31847
31869
31869
31869
31869
31826
31826
31826
31783
31783
31783
31847
31847
31847
31740
31740
31740
31826
31826
31826
31826
31890
31890
31890
31761
31761
31761
31761
31761
31761
31783
31783
31783
31869
31869
31869
31869
31804
31804
31804
31761
31761
31761
31783
31783
31783
31804
31804
31804
31847
31847
31847
31847
31847
31847
31847
31761
31761
31761
31847
31847
31847
31761
31761
31761
31804
31804
31804
31804
31869
31869
31869
31783
31783
31783
31826
31826
31826
31783
31783
31783
31955
31955
31955
31955
31847
31847
31847
31761
31761
31761
31890
31890
31890
31761
31761
31761
31826
31826
31826
31826
31847
31847
31847
31804
31804
31804
31804
31804
31804
31783
31847
31847
31804
31804
31804
31783
31783
31783
31783
31847
31847
31847
31804
31804
31804
31804
31804
31804
31847
31847
31847
31826
31826
31826
31826
31890
31890
31890
31804
31804
31804
31783
31783
31783
31804
31804
31804
31847
31847
31847
31847
31847
31847
31847
31740
31740
31740
31826
31826
31826
31783
31783
31783
31826
31826
31826
31826
31976
31976
31976
31783
31783
31783
31869
31869
31869
31804
31804
31804
31847
31847
31847
31847
31890
31890
31890
31783
31783
31783
31912
31912
31912
31740
31740
31740
31847
31847
31847
31847
31804
31804
31804
31719
31719
31719
31890
31890
31890
31740
31740
31740
31890
31890
31890
31890
31804
31804
31804
31783
31783
31869
31783
31783
31783
31912
31912
31912
31761
31761
31761
31847
31847
31847
31847
31804
31804
31804
31761
31761
31761
31890
31890
31890
31761
31761
31761
31890
31890
31890
31890
31761
31761
31761
31826
31826
31826
31847
31847
31847
31740
31740
31740
31847
31847
31847
31847
31847
31847
31847
31740
31740
31740
31890
31890
31890
31783
31783
31783
31847
31847
31847
31847
31847
31847
31847
31804
31804
31804
31869
31869
31869
31761
31761
31761
31869
31869
31869
31869
31869
31869
31869
31783
31783
31783
31890
31890
31890
31804
31804
31804
31847
31847
31847
31847
31783
31783
31783
31783
31783
31783
31847
31847
31847
31804
31804
31804
31761
31761
31761
31847
31847
31847
31847
31783
31783
31783
31761
31761
31761
31869
31869
31869
31826
31826
31826
31847
31847
31847
31847
31933
31933
31933
31740
31740
31740
31804
31804
31804
31804
31804
31804
31869
31869
31869
31869
31847
31847
31847
31826
31826
31826
31847
31847
31847
31804
31804
31804
31869
31869
31869
31869
31826
31826
31826
31826
31826
31826
31804
31804
31804
31783
31783
31783
31826
31826
31826
31826
31783
31783
31783
31740
31740
31740
31847
31847
31847
31804
31804
31804
31826
31826
31826
31826
31890
31890
31890
31783
31783
31783
31847
31847
31847
31955
31955
31955
31847
31847
31847
31847
31912
31912
31912
31804
31804
31804
31761
31761
31761
31761
31826
31826
31740
31740
31740
31869
31869
31869
31869
31826
31826
31826
31804
31804
31804
31847
31847
31847
31740
31740
31740
31847
31847
31847
31847
31826
31826
31826
31761
31761
31761
31869
31869
31869
31847
31847
31847
31847
31847
31847
31847
31804
31804
31804
31740
31740
31740
31869
31869
31869
31761
31761
31761
31804
31804
31804
31804
31847
31847
31847
31783
31783
31783
31826
31826
31826
31740
31740
31740
31869
31869
31869
31869
31826
31826
31826
31761
31761
31761
31826
31826
31826
31804
31804
31804
31826
31826
31826
31826
31869
31869
31869
31654
31654
31654
31847
31847
31847
31761
31761
31761
31869
31869
31869
31869
31697
31697
31697
31869
31869
31804
31804
31783
31783
31783
31804
31804
31804
31804
31804
31804
31890
31890
31890
31890
31804
31804
31804
31804
31804
31804
31804
31804
31804
31804
31804
31804
31869
31869
31869
31869
31826
31826
31826
31740
31740
31740
31869
31869
31869
31847
31847
31847
31847
31847
31847
31847
31869
31869
31869
31804
31804
31804
31804
31804
31804
31761
31761
31761
31869
31869
31869
31869
31826
31826
31826
31826
31826
31826
31869
31869
31869
31761
31761
31761
31890
31890
31890
31890
31826
31826
31826
31804
31804
31804
31847
31847
31847
31761
31761
31761
31847
31847
31847
31847
31783
31783
31783
31783
31783
31783
31955
31955
31955
31719
31719
31719
31826
31826
31826
31998
31998
31998
31998
31912
31912
31912
31783
31783
31783
31869
31869
31869
31697
31697
31697
31826
31826
31826
31826
31783
31783
31783
31761
31761
31761
31890
31890
31890
31761
31761
31761
31525
31525
31525
31525
31826
31826
31826
31654
31654
31654
31826
31826
31826
31783
31783
31783
31804
31804
31804
31804
31761
31761
31761
31804
31804
31804
31804
31804
31804
31783
31783
31783
31869
31869
31869
31869
31847
31847
31847
31890
31890
31890
31933
31933
31933
31761
31761
31761
31869
31869
31869
31869
31847
31847
31847
31783
31783
31783
31890
31890
31890
31826
31826
31826
31890
31890
31890
31890
31998
31998
31998
31719
31719
31719
31955
31955
31955
31740
31804
31804
31783
31783
31783
31869
31869
31869
31869
31826
31826
31826
31719
31719
31719
31826
31826
31826
31761
31761
31761
31890
31890
31890
31890
31890
31890
31890
31826
31826
31826
31847
31847
31847
31740
31740
31740
31783
31783
31783
31783
31826
31826
31826
31804
31804
31804
32084
32084
32084
31761
31761
31761
31826
31826
31826
31826
31826
31826
31826
31890
31890
31890
31826
31826
31826
31804
31804
31804
31826
31826
31826
31826
31826
31826
31826
31761
31761
31761
31783
31783
31783
31697
31697
31697
31847
31847
31847
31847
31804
31804
31804
31740
31740
31740
31869
31869
31869
31783
31783
31783
31847
31847
31847
31847
31826
31826
31826
31826
31761
31761
31783
31783
31783
31847
31847
31847
31783
31783
31783
31847
31847
31847
31847
31804
31804
31804
31869
31869
31869
31912
31912
31912
31783
31783
31783
31826
31826
31826
31826
31869
31869
31869
31761
31761
31761
31847
31847
31847
31761
31761
31761
31847
31847
31847
31847
31869
31869
31869
31740
31740
31740
31912
31912
31912
31761
31761
31761
31847
31847
31847
31847
31869
31869
31869
31783
31783
31783
31804
31804
31804
31847
31847
31847
31783
31783
31783
31783
31826
31826
31826
31761
31761
31761
31826
31826
31826
31740
31740
31740
31890
31890
31890
31890
31912
31912
31912
31740
31740
31740
31804
31804
31804
31761
31761
31761
31890
31890
31890
31890
31890
31890
31890
31804
31804
31804
31869
31869
31869
31826
31826
31826
31740
31740
31740
31804
31804
31804
31804
31847
31847
31847
31826
31826
31826
31826
31826
31826
31955
31955
31955
31890
31890
31890
31890
31783
31783
31783
31761
31761
31761
31719
31719
31719
31740
31740
31740
31826
31826
31826
31826
31783
31783
31783
31740
31740
31740
31847
31847
31847
31761
31761
31761
31869
31869
31869
31869
31826
31826
31826
31740
31740
31740
31847
31847
31847
31847
31847
31847
31847
31847
31847
31847
31869
31869
31869
31761
31761
31761
31783
31783
31783
31847
31847
31847
31761
31761
31761
31761
31826
31826
31826
31847
31847
31847
31783
31783
31783
31847
31847
31847
31761
31761
31761
31761
31826
31826
31826
31783
31783
31783
31847
31847
31847
31804
31804
31804
31847
31847
31847
31847
31826
31826
31826
31783
31783
31783
31869
31869
31869
31740
31740
31740
31804
31804
31804
31804
31826
31826
31826
31761
31761
31761
31826
31826
31826
31826
31826
31826
31826
31826
31826
31826
31890
31890
31890
31761
31761
31761
31826
31826
31826
31847
31847
31847
31783
31783
31783
31783
31869
31869
31869
31847
31847
31847
31826
31826
31826
31740
31740
31740
31826
31826
31826
31826
31933
31933
31933
31719
31719
31719
31847
31847
31847
31804
31804
31804
31847
31847
31847
31847
31847
31847
31847
31761
31761
31761
31955
31955
31955
31783
31783
31783
31804
31804
31804
31804
31847
31847
31847
31826
31826
31826
31847
31847
31847
31783
31783
31783
31826
31826
31826
31826
31890
31890
31890
31826
31826
31826
31826
31826
31826
31847
31847
31847
31826
31826
31826
31826
31783
31783
31783
31761
31761
31761
31804
31804
31804
31826
31826
31826
31826
31826
31826
31826
31847
31847
31847
31826
31826
31826
31847
31847
31847
31783
31783
31783
31869
31869
31869
31869
31826
31826
31826
31826
31826
31826
31890
31890
31890
31826
31826
31826
31826
31826
31826
31826
31826
31826
31826
31998
31998
31998
31869
31869
31869
31783
31783
31783
31826
31826
31826
31826
31804
31804
31804
31826
31826
31826
31869
31869
31869
31869
31869
31869
31869
31869
31869
31869
31804
31804
31804
31783
31783
31783
31847
31847
31847
31783
31783
31783
31869
31869
31869
31869
31783
31783
31783
31633
31633
31633
31826
31826
31826
31783
31783
31783
31740
31740
31740
31740
31933
31933
31933
31719
31719
31719
31869
31869
31869
31740
31740
31740
31826
31826
31826
31826
31869
31869
31869
31697
31697
31697
31783
31783
31783
31761
31761
31761
31847
31847
31847
31847
31847
31847
31847
31826
31826
31826
31890
31890
31890
31783
31783
31783
31804
31804
31804
31804
31912
31912
31912
31719
31719
31719
31976
31976
31976
31783
31783
31783
31826
31826
31826
31826
31847
31847
31847
31761
31761
31761
31740
31740
31740
31783
31783
31783
31955
31955
31955
31955
31804
31804
31804
31826
31826
31826
31804
31804
31804
31697
31697
31697
31826
31826
31826
31826
31826
31826
31826
31761
31761
31761
31697
31697
31697
31804
31804
31804
31847
31847
31847
31847
31783
31783
31783
31826
31826
31826
31804
31804
31804
31676
31676
31676
31740
31740
31740
31740
31869
31869
31869
31719
31719
31719
31912
31912
31912
31676
31676
31676
31890
31890
31890
31890
31804
31804
31804
31740
31740
31740
31847
31847
31847
31783
31783
31783
31826
31826
31826
31826
31761
31761
31761
31740
31740
31740
31826
31826
31826
31761
31761
31761
31804
31804
31804
31804
31740
31740
31740
31783
31783
31783
31847
31847
31847
31761
31761
31761
31869
31869
31869
31869
31804
31804
31804
31740
31740
31740
31740
31740
31740
31761
31761
31761
31847
31847
31847
31847
31804
31804
31804
31847
31847
31847
31804
31804
31804
31761
31761
31761
31890
31890
31890
31890
31869
31869
31869
31804
31804
31804
31826
31826
31826
31890
31890
31890
31826
31826
31826
31826
31826
31826
31826
31804
31804
31804
31890
31890
31890
31761
31761
31761
31869
31869
31869
31869
31890
31890
31890
31804
31804
31804
31847
31847
31847
31719
31719
31719
31869
31869
31869
31869
31826
31826
31826
31804
31804
31804
31826
31826
31826
31783
31783
31783
31869
31869
31869
31869
31804
31804
31804
31783
31783
31783
31847
31847
31847
31761
31761
31761
31955
31955
31955
31955
31847
31847
31847
31697
31697
31697
31847
31847
31847
31783
31783
31783
31847
31847
31847
31847
31847
31847
31847
31783
31783
31783
31955
31955
31955
31761
31761
31761
31890
31890
31890
31890
31804
31804
31804
31804
31804
31804
31890
31890
31890
31783
31783
31783
31976
31976
31976
31976
31869
31869
31869
31783
31783
31783
31847
31847
31847
31869
31869
31869
31826
31826
31826
31826
31890
31890
31890
31783
31783
31783
31740
31740
31740
31826
31826
31826
31826
31826
31826
31826
31890
31890
31890
31826
31826
31826
31847
31847
31847
31783
31783
31783
31847
31847
31847
31847
31869
31869
31869
31761
31761
31761
31847
31847
31847
31761
31761
31761
31869
31869
31869
31869
31804
31804
31804
31719
31719
31719
31847
31847
31847
31783
31783
31783
31804
31804
31804
31804
31890
31890
31890
31761
31761
31761
31847
31847
31847
31804
31804
31804
31847
31847
31847
31847
31869
31869
31869
31826
31826
31826
31826
31826
31826
31804
31804
31804
31890
31890
31890
31890
31804
31804
31804
31804
31804
31804
31912
31912
31912
31761
31761
31761
31847
31847
31847
31847
31783
31783
31783
31740
31740
31740
31869
31869
31869
31847
31847
31847
31847
31847
31847
31847
31933
31933
31933
31719
31719
31719
31933
31933
31933
31761
31761
31761
31847
31847
31847
31847
31826
31826
31826
31783
31783
31783
31804
31804
31804
31869
31869
31869
31826
31826
31826
31826
31912
31912
31912
31804
31804
31804
31847
31847
31847
31761
31761
31761
31783
31783
31783
31783
31869
31869
31869
31761
31761
31761
31826
31826
31826
31761
31761
31761
31783
31783
31783
31783
31847
31847
31847
31804
31804
31804
31890
31890
31890
31740
31740
31740
31912
31912
31912
31912
31847
31847
31847
31783
31783
31783
31826
31826
31826
31719
31719
31719
31869
31869
31869
31869
31676
31676
31676
31783
31783
31783
31847
31847
31847
31783
31783
31783
31933
31933
31933
31933
31869
31869
31869
31697
31697
31697
31826
31826
31826
31740
31740
31740
31869
31869
31869
31869
31783
31783
31783
31783
31783
31783
31804
31804
31804
31847
31847
31847
31783
31783
31783
31783
31890
31890
31890
31719
31719
31719
31869
31869
31869
31783
31783
31783
31847
31847
31847
31847
31847
31847
31847
31761
31761
31761
31847
31847
31847
31740
31740
31740
31890
31890
31890
31890
31869
31869
31869
31804
31804
31804
31890
31890
31890
31804
31804
31804
31847
31847
31847
31847
31826
31826
31826
31783
31783
31783
31847
31847
31847
31761
31761
31761
31826
31826
31826
31826
31890
31890
31890
31761
31761
31761
31847
31847
31847
31761
31761
31761
31847
31847
31847
31847
31847
31847
31847
31783
31783
31783
31869
31869
31869
31783
31783
31783
31804
31804
31804
31804
31847
31847
31847
31804
31804
31804
31847
31847
31847
31697
31697
31697
31847
31847
31847
31847
31847
31847
31847
31783
31783
31783
31847
31847
31847
31826
31826
31826
31804
31804
31804
31804
31826
31826
31826
31697
31697
31697
31804
31804
31804
31783
31783
31783
31869
31869
31869
31869
31976
31976
31976
31740
31740
31740
31847
31847
31847
31740
31740
31740
31890
31890
31890
31890
31847
31847
31847
31783
31783
31783
31890
31890
31890
31826
31826
31826
31826
31826
31826
31826
31890
31890
31890
31783
31783
31783
31826
31826
31826
31804
31804
31804
31826
31826
31826
31826
31826
31826
31826
31783
31783
31783
31890
31890
31890
31761
31761
31761
31761
31761
31761
31761
31869
31869
31869
31740
31740
31740
31890
31890
31890
31783
31783
31783
31869
31869
31869
31869
31826
31826
31826
31761
31761
31761
31804
31804
31804
31783
31783
31783
31804
31804
31804
31804
31804
31804
31804
31740
31740
31740
31761
31761
31761
31740
31740
31740
31890
31890
31890
31890
31804
31804
31804
31890
31890
31890
31804
31804
31804
31804
31804
31804
31890
31890
31890
31890
31783
31783
31783
31761
31761
31761
31869
31869
31869
31804
31804
31804
31847
31847
31847
31847
31869
31869
31869
31740
31740
31740
31933
31933
31933
31719
31719
31719
31912
31912
31912
31912
31847
31847
31847
31912
31912
31912
31869
31869
31869
31719
31719
31719
31826
31826
31826
31826
31783
31783
31783
31826
31826
31826
31783
31783
31783
31804
31804
31804
31804
31804
31804
31804
31826
31826
31826
31761
31761
31761
31890
31890
31890
31804
31804
31804
31847
31847
31847
31847
31847
31847
31847
31654
31654
31654
31847
31847
31847
31761
31761
31761
31933
31933
31933
31933
31826
31826
31826
31804
31804
31804
31869
31869
31869
31761
31761
31761
31912
31912
31912
31912
31804
31804
31804
31740
31740
31740
31804
31804
31804
31761
31761
31761
31955
31955
31955
31955
31869
31869
31869
31804
31804
31804
31847
31847
31847
31719
31719
31719
31869
31869
31869
31869
31847
31847
31847
31783
31783
31783
31998
31998
31998
31783
31783
31783
31783
31783
31783
31783
31783
31783
31783
31804
31804
31804
31869
31869
31869
31761
31761
31761
31783
31783
31783
31783
31804
31804
31804
31761
31761
31761
31847
31847
31847
31847
31847
31847
31826
31826
31826
31826
31804
31804
31804
31761
31761
31761
31912
31912
31912
31761
31761
31761
31783
31783
31783
31783
31847
31847
31847
31783
31783
31783
31869
31869
31869
31740
31740
31740
31847
31847
31847
31847
31826
31826
31826
31761
31761
31761
31804
31804
31804
31719
31719
31719
31826
31826
31826
31826
31783
31783
31783
31740
31740
31740
31847
31847
31847
31761
31761
31761
31783
31783
31783
31783
31783
31783
31783
31761
31761
31761
31847
31847
31847
31804
31804
31804
31890
31890
31890
31890
31890
31890
31890
31783
31783
31783
31804
31804
31804
31783
31783
31783
31826
31826
31826
31826
31869
31869
31869
31676
31676
31676
31826
31826
31826
31804
31804
31804
31869
31869
31869
31869
31804
31804
31804
31761
31761
31761
31847
31847
31847
31761
31761
31761
31847
31847
31847
31847
31890
31890
31890
31719
31719
31719
31826
31826
31826
31761
31761
31761
31804
31804
31804
31804
31826
31826
31826
31654
31654
31654
31890
31890
31890
31804
31804
31804
31847
31847
31847
31847
31826
31826
31826
31847
31847
31847
31826
31826
31826
31826
31826
31826
31826
31826
31826
31826
31783
31783
31783
31761
31761
31761
31869
31869
31869
31719
31719
31719
31847
31847
31847
31847
31869
31869
31869
31740
31740
31740
31912
31912
31912
31697
31697
31697
31890
31890
31890
31890
31890
31890
31890
31719
31719
31719
31847
31847
31847
31740
31740
31740
31890
31890
31890
31890
31847
31847
31847
31740
31740
31740
31826
31826
31826
31740
31740
31740
31847
31847
31847
31847
31890
31890
31890
31697
31697
31697
31869
31869
31869
31890
31890
31890
31847
31847
31847
31847
31783
31783
31783
31783
31783
31783
31761
31761
31761
31826
31826
31826
31869
31869
31869
31869
31847
31847
31847
31761
31761
31761
31847
31847
31847
31740
31740
31740
31804
31804
31804
31804
32062
32062
32062
31783
31783
31783
31847
31847
31847
31826
31826
31826
31912
31912
31912
31912
31826
31826
31826
31783
31783
31783
31890
31890
31890
31804
31804
31804
31869
31869
31869
31869
31826
31826
31826
31740
31740
31740
31847
31847
31847
31761
31761
31761
31847
31847
31847
31847
31804
31804
31804
31740
31740
31740
31869
31869
31869
31783
31783
31783
31826
31826
31826
31826
31826
31826
31826
31804
31804
31804
31804
31804
31804
31783
31783
31783
31804
31804
31804
31804
31783
31783
31783
31847
31847
31847
31933
31933
31933
31761
31761
31761
31869
31869
31869
31869
31761
31761
31761
31804
31804
31804
31826
31826
31826
31761
31761
31761
31847
31847
31847
31847
31804
31804
31804
31783
31783
31783
31826
31826
31826
31783
31783
31783
31912
31912
31912
31912
31847
31847
31847
31783
31783
31783
31890
31890
31890
31676
31676
31676
31847
31847
31847
31847
31761
31761
31761
31740
31740
31740
31847
31847
31847
31804
31804
31804
31826
31826
31826
31826
31826
31826
31826
31912
31912
31912
31847
31847
31847
31761
31761
31761
31804
31804
31804
31804
31783
31783
31783
31783
31783
31783
31869
31869
31869
31847
31847
31847
31804
31804
31804
31804
31869
31869
31869
31761
31761
31761
31933
31933
31933
31783
31783
31783
31847
31847
31847
31847
31890
31890
31890
31740
31740
31740
31804
31804
31804
31740
31740
31740
31890
31890
31890
31890
31719
31719
31719
31761
31761
31761
31847
31847
31847
31740
31740
31740
31847
31847
31847
31847
31847
31847
31847
31783
31783
31783
31826
31826
31826
31740
31740
31740
31890
31890
31890
31890
31890
31890
31890
31804
31804
31804
31826
31826
31826
31740
31740
31740
31912
31912
31912
31912
31826
31826
31826
31783
31783
31783
31847
31847
31847
31719
31719
31719
31890
31890
31890
31890
31826
31826
31826
31719
31719
31719
31890
31890
31890
31761
31761
31761
31847
31847
31847
31847
31740
31740
31740
31804
31804
31804
31826
31826
31826
31719
31719
31719
31761
31761
31761
31761
31847
31847
31847
31761
31761
31761
31804
31804
31804
31783
31783
31783
31890
31890
31890
31890
31847
31847
31847
31804
31804
31804
31869
31869
31869
31804
31804
31804
31804
31804
31804
31804
31869
31869
31869
31761
31761
31761
31847
31847
31847
31869
31869
31869
31869
31869
31869
31869
31826
31826
31826
31761
31761
31761
31804
31804
31804
31740
31740
31740
31826
31826
31826
31826
31847
31847
31847
31847
31847
31847
31847
31847
31847
31761
31761
31761
31847
31847
31847
31847
31783
31783
31783
31783
31783
31783
31804
31804
31804
31783
31783
31783
31869
31869
31869
31869
31847
31847
31847
31761
31761
31761
31912
31912
31912
31826
31826
31826
31869
31869
31869
31869
31783
31783
31783
31804
31804
31804
31869
31869
31869
31783
31783
31783
31847
31847
31847
31847
31740
31740
31740
31783
31783
31783
31890
31890
31890
31783
31783
31783
31847
31847
31847
31847
31804
31804
31804
31761
31761
31761
31847
31847
31847
31761
31761
31761
31847
31847
31847
31847
31826
31826
31826
31719
31719
31719
31847
31847
31847
31740
31740
31740
31869
31869
31869
31869
31869
31869
31869
31783
31783
31783
31761
31761
31761
31847
31847
31847
31847
31847
31847
31847
31847
31847
31847
31719
31719
31719
31933
31933
31933
31826
31826
31826
31826
31826
31826
31826
31890
31890
31890
31783
31783
31783
31847
31847
31847
31826
31826
31826
31826
31826
31826
31826
31847
31847
31847
31719
31719
31719
31847
31847
31847
31740
31740
31740
31804
31804
31804
31804
31847
31847
31847
31783
31783
31783
31847
31847
31847
31740
31740
31740
31890
31890
31890
31890
31847
31847
31847
31826
31826
31826
31933
31933
31933
31783
31783
31783
31826
31826
31826
31826
31783
31783
31783
31761
31761
31761
31783
31783
31783
31740
31740
31740
31976
31976
31976
31976
31890
31890
31890
31740
31740
31740
31847
31847
31847
31633
31633
31633
31912
31912
31912
31912
31804
31804
31804
31740
31740
31740
31847
31847
31847
31761
31761
31761
31847
31847
31847
31847
31826
31826
31826
31740
31740
31740
31826
31826
31826
31719
31719
31719
31890
31890
31890
31890
31826
31826
31826
31740
31740
31740
31783
31783
31783
31804
31804
31804
31847
31847
31847
31847
31869
31869
31869
31804
31804
31804
31890
31890
31890
31783
31783
31783
32062
32062
32062
32062
31826
31826
31826
31761
31761
31761
31847
31847
31847
31654
31654
31654
31804
31804
31804
31804
31826
31826
31826
31783
31783
31783
31976
31976
31976
31804
31804
31804
31804
31804
31804
31804
31826
31826
31826
31847
31847
31847
31847
31847
31847
31826
31826
31826
31804
31804
31804
31804
31719
31719
31719
31912
31912
31912
31847
31847
31847
31804
31804
31804
31869
31869
31869
31869
31847
31847
31847
31740
31740
31740
31869
31869
31869
31761
31761
31761
31869
31869
31869
31869
31826
31826
31826
31783
31783
31783
31847
31847
31847
31761
31761
31761
31783
31783
31783
31783
31890
31890
31890
31740
31740
31740
31890
31890
31890
31847
31847
31847
31869
31869
31869
31869
31890
31890
31890
31847
31847
31847
31826
31826
31826
31783
31783
31783
31804
31804
31804
31804
31869
31869
31869
31697
31697
31697
31847
31847
31847
31804
31804
31804
31847
31847
31847
31847
31912
31912
31912
31761
31761
31761
31783
31783
31783
31804
31804
31804
31847
31847
31847
31847
31912
31912
31912
31633
31633
31633
31890
31890
31890
31719
31719
31719
31783
31783
31783
31783
31912
31912
31912
31719
31719
31719
31826
31826
31826
31847
31847
31847
31847
31847
31847
31847
31761
31761
31761
31869
31869
31869
31783
31783
31783
31869
31869
31869
31826
31826
31826
31826
31826
31826
31826
31847
31847
31847
31869
31869
31869
31740
31740
31740
31890
31890
31890
31890
31804
31804
31804
31783
31783
31783
31847
31847
31847
31783
31783
31783
31804
31804
31804
31804
31783
31783
31783
31847
31847
31847
31804
31804
31804
31783
31783
31783
31955
31955
31955
31955
31826
31826
31826
31783
31783
31783
31869
31869
31869
31804
31804
31804
31804
31804
31804
31804
31890
31890
31890
31761
31761
31761
31783
31783
31783
31761
31761
31761
31890
31890
31890
31890
31804
31804
31804
31869
31869
31869
31783
31783
31783
31740
31740
31740
31890
31890
31890
31890
31890
31890
31890
31783
31783
31783
31890
31890
31890
31804
31804
31804
31847
31847
31847
31847
31804
31804
31804
31783
31783
31783
31869
31869
31869
31826
31826
31826
31826
31826
31826
31826
31847
31847
31847
31783
31783
31783
31847
31847
31847
31740
31740
31740
31783
31783
31783
31783
31804
31804
31804
31740
31740
31740
31890
31890
31890
31783
31783
31783
31847
31847
31847
31847
31847
31847
31847
31783
31783
31783
31847
31847
31847
31783
31783
31783
31783
31783
31783
31783
31912
31912
31912
31783
31783
31783
31890
31890
31890
31740
31740
31740
31826
31826
31826
31826
31826
31826
31826
31826
31826
31826
32019
32019
32019
31804
31804
31804
31826
31826
31826
31826
31847
31847
31847
31761
31761
31761
31826
31826
31826
31783
31783
31783
31912
31912
31912
31912
31783
31783
31783
31740
31740
31740
31847
31847
31847
31697
31697
31697
31890
31890
31890
31890
31847
31847
31847
31783
31783
31783
31804
31804
31804
31761
31761
31761
31826
31826
31826
31826
31804
31804
31804
31869
31869
31869
31869
31869
31869
31740
31740
31740
31804
31804
31804
31804
31847
31847
31847
31761
31761
31761
31804
31804
31804
31761
31761
31761
31783
31783
31783
31783
31826
31826
31826
31783
31783
31783
31783
31783
31783
31869
31869
31869
31826
31826
31826
31826
31826
31826
31826
31740
31740
31740
31826
31826
31826
31826
31826
31826
31847
31847
31847
31847
31847
31847
31847
31783
31783
31783
31804
31804
31804
31761
31761
31761
31847
31847
31847
31847
31869
31869
31869
31869
31869
31869
31804
31804
31804
31547
31547
31547
31933
31933
31933
31933
31869
31869
31869
31804
31804
31804
31847
31847
31847
31719
31719
31719
31869
31869
31869
31869
31804
31804
31804
31804
31804
31804
31912
31912
31912
31740
31740
31740
31826
31826
31826
31826
31783
31783
31783
31740
31740
31740
31847
31847
31847
31740
31740
31740
31869
31869
31869
31869
31869
31869
31869
31804
31804
31804
31804
31804
31804
31804
31804
31804
31847
31847
31847
31847
31869
31869
31869
31719
31719
31719
31890
31890
31890
31804
31804
31804
31826
31826
31826
31826
32041
32041
32041
31804
31804
31804
31826
31826
31826
31804
31804
31804
31890
31890
31890
31890
31761
31761
31761
31804
31804
31804
31847
31847
31847
31826
31826
31826
31847
31847
31847
31847
31826
31826
31826
31783
31783
31783
31783
31783
31783
31890
31890
31890
31847
31847
31847
31847
31826
31826
31826
31783
31783
31783
31804
31804
31804
31740
31740
31740
31804
31804
31804
31804
31804
31804
31804
31826
31826
31826
31804
31804
31804
31847
31847
31847
31847
31847
31847
31847
31912
31912
31912
31761
31761
31761
31804
31804
31804
31697
31697
31697
31847
31847
31847
31847
31804
31804
31804
31804
31804
31804
31869
31869
31869
31761
31761
31761
31890
31890
31890
31890
31804
31804
31804
31847
31847
31847
31826
31826
31826
31761
31761
31761
31804
31804
31804
31804
31804
31804
31804
31783
31783
31783
31826
31826
31826
31761
31761
31761
31890
31890
31890
31890
31826
31826
31826
31826
31826
31826
31826
31826
31826
31761
31761
31761
31804
31804
31804
31804
31761
31761
31761
31740
31740
31740
31847
31847
31847
31826
31826
31826
31847
31847
31847
31847
31783
31783
31783
31783
31783
31783
31826
31826
31826
31783
31783
31783
31826
31826
31826
31826
31869
31869
31869
31761
31761
31761
31826
31826
31826
31761
31761
31761
31890
31890
31890
31890
31804
31804
31804
31890
31890
31890
31783
31783
31783
31783
31783
31783
31826
31826
31826
31826
31826
31826
31826
31804
31804
31804
31783
31783
31783
31826
31826
31826
31697
31697
31697
31697
31804
31804
31804
31783
31783
31783
31761
31761
31761
31869
31869
31869
31783
31783
31783
31783
31804
31804
31804
31761
31761
31761
31826
31826
31826
31804
31804
31804
31804
31804
31804
31804
31826
31826
31826
31633
31633
31633
31869
31869
31869
31697
31697
31697
31869
31869
31869
31869
31847
31847
31847
31804
31804
31804
31826
31826
31826
31826
31826
31826
31804
31804
31804
31804
31804
31804
31804
31740
31740
31740
31933
31933
31933
31783
31783
31783
31804
31804
31804
31804
31804
31804
31804
31740
31740
31740
31869
31869
31869
31761
31761
31761
31826
31826
31826
31826
31847
31847
31847
31761
31761
31761
31804
31804
31804
31783
31783
31783
31869
31869
31869
31869
31826
31826
31826
31761
31761
31761
31847
31847
31847
31740
31740
31740
31847
31847
31847
31847
31847
31847
31847
31611
31611
31611
31869
31869
31869
31804
31804
31804
31826
31826
31826
31826
31890
31890
31890
31804
31804
31804
31847
31847
31847
31740
31740
31740
31826
31826
31826
31826
31847
31847
31847
31697
31697
31697
31869
31869
31869
31761
31761
31761
31890
31890
31890
31890
31783
31783
31783
31783
31783
31783
31761
31761
31761
31890
31890
31890
31847
31847
31847
31847
31890
31890
31890
31761
31761
31761
31847
31847
31847
31869
31869
31869
31869
31869
31869
31869
31761
31761
31761
31761
31761
31761
31804
31804
31804
31783
31783
31783
31869
31869
31869
31869
31869
31869
31869
31761
31761
31761
31847
31847
31847
31869
31869
31869
31761
31761
31761
31761
31804
31804
31804
31804
31804
31804
31912
31912
31912
31761
31761
31761
31955
31955
31955
31955
31826
31826
31826
31783
31783
31783
31869
31869
31869
31912
31912
31912
31869
31869
31869
31869
31826
31826
31826
31761
31761
31761
31804
31804
31804
31804
31804
31804
31826
31826
31826
31826
31869
31869
31869
31783
31783
31783
31912
31912
31912
31783
31783
31783
31869
31869
31869
31869
31847
31847
31847
31783
31783
31783
31804
31804
31804
31783
31783
31783
31847
31847
31847
31847
31804
31804
31804
31783
31783
31783
31804
31804
31804
31804
31804
31804
31847
31847
31847
31847
31804
31804
31804
31761
31761
31761
31869
31869
31869
31783
31783
31783
31847
31847
31847
31847
31804
31804
31804
31804
31804
31804
31783
31783
31783
31783
31783
31783
31847
31847
31847
31847
31847
31847
31847
31783
31783
31783
31869
31869
31869
31783
31783
31783
31869
31869
31869
31869
31804
31804
31804
31719
31719
31719
31890
31890
31890
31826
31826
31826
31804
31804
31804
31804
31912
31912
31912
31804
31804
31804
31783
31783
31783
31847
31847
31847
31804
31804
31804
31804
31847
31847
31847
31697
31697
31697
31912
31912
31912
31740
31740
31740
31912
31912
31912
31912
31890
31890
31890
31804
31804
31804
31869
31869
31869
31804
31804
31804
31847
31847
31847
31847
31826
31826
31826
31740
31740
31740
31826
31826
31826
31783
31783
31783
31783
31783
31783
31783
31847
31847
31847
31826
31826
31826
31890
31890
31890
31783
31783
31783
31847
31847
31847
31847
31804
31804
31804
31783
31783
31783
31826
31826
31826
31826
31826
31826
31826
31826
31826
31826
31890
31890
31890
31697
31697
31697
31869
31869
31869
31804
31804
31804
31890
31890
31890
31890
31783
31783
31783
31804
31804
31804
31847
31847
31847
31847
31847
31847
31804
31804
31804
31804
31826
31826
31826
31783
31783
31783
31847
31847
31847
31761
31761
31761
31847
31847
31847
31847
31804
31804
31804
31826
31826
31826
31826
31826
31826
31783
31783
31783
31847
31847
31847
31847
31847
31847
31847
31783
