2001
2001
2001
2001
2005
2005
2005
2002
2002
2002
2005
2005
2005
2003
2003
2003
2003
2003
2003
2003
2007
2007
2007
2007
2007
2007
2002
2002
2002
2003
2003
2003
2004
2004
2004
2004
2007
2007
2007
2003
2003
2003
1999
1999
1999
2000
2000
2000
2002
2002
2002
2002
1998
1998
1998
2003
2003
2003
2002
2002
2002
2001
2001
2001
2007
2007
2007
2007
2002
2002
2002
2005
2005
2005
1999
1999
1999
2001
2001
2001
2004
2004
2004
2001
2001
2001
2001
2000
2000
2000
2002
2002
2002
1995
1995
1995
2000
2000
2000
2000
2000
2000
2000
2000
2000
2000
2000
2000
2000
2003
2003
2003
2002
2002
2002
2002
2002
2002
2002
2001
2001
2001
2004
2004
2004
2004
2004
2004
2005
2005
2005
2003
2003
2003
2003
2009
2009
2009
2002
2002
2002
2004
2004
2004
2006
2006
2006
2003
2003
2003
2003
2000
2000
2000
2002
2002
2002
2001
2001
2001
2000
2000
2000
2001
2001
2001
2001
2003
2003
2003
2003
2003
2003
2003
2003
2003
2002
2002
2002
2001
2001
2001
2001
2004
2004
2004
2002
2002
2002
2003
2003
2003
2005
2005
2005
2004
2004
2004
2004
2000
2000
2000
2003
2003
2003
1997
1997
1997
2000
2000
2000
2003
2003
2003
2003
2000
2000
2000
2003
2003
2003
1997
1997
1997
2002
2002
2002
1997
1997
1997
1997
1998
1998
1998
2002
2002
2002
2004
2004
2004
2000
2000
2000
2002
2002
2002
2002
2002
2002
2002
2001
2001
2001
2004
2004
2004
2000
2000
2000
1999
1999
1999
1999
2003
2003
2003
2003
2003
2003
2003
2003
2003
2002
2002
2002
2003
2003
2003
2003
2002
2002
2002
2005
2005
2005
2002
2002
2002
2000
2000
2000
2003
2003
2003
2003
2005
2005
2005
1999
1999
1999
2002
2002
2002
2004
2004
2004
2001
2001
2001
2001
2002
2002
2002
2002
2002
2002
2000
2000
2000
2002
2002
2002
2001
2001
2001
2001
2002
2002
2002
2004
2004
2004
2001
2001
2001
2000
2000
2000
2001
2001
2001
2001
2006
2006
2006
2001
2001
2001
2002
2002
2002
2005
2005
2005
2002
2002
2002
2002
1998
1998
1998
1999
1999
1999
2002
2002
2002
2002
2002
2002
2002
2002
2002
2002
2007
2007
2007
2000
2000
2000
2003
2003
2003
2002
2002
2002
2005
2005
2005
2005
2001
2001
2001
2003
2003
2003
2001
2001
2001
2001
2001
2001
2000
2000
2000
2000
2000
2000
2000
2002
2002
2002
2001
2001
2001
1998
1998
1998
2002
2002
2002
2002
1998
1998
1998
2001
2001
2001
1999
1999
1999
2001
2001
2001
2002
2002
2002
2002
2001
2001
2001
2000
2000
2000
2002
2002
2002
2002
2002
2002
1996
1996
1996
1996
2004
2004
2004
2002
2002
2002
2000
2000
2000
2004
2004
2004
2002
2002
2002
2002
1998
1998
1998
2001
2001
2001
2000
2000
2000
2001
2001
2001
2001
2001
2001
2001
2002
2002
2002
2005
2005
2005
2003
2003
2003
2002
2002
2002
2001
2001
2001
2001
2000
2000
2000
2002
2002
2002
2005
2005
2005
2002
2002
2002
2001
2001
2001
2001
2005
2005
2005
2001
2001
2001
2002
2002
2002
2003
2003
2003
2002
2002
2002
2002
2002
2002
2002
2001
2001
2001
2000
2000
2000
2000
2000
2000
2003
2003
2003
2003
1999
1999
1999
2007
2007
2007
2001
2001
2001
2001
2001
2001
2002
2002
2002
2002
1995
1995
1995
2002
2002
2002
2003
2003
2003
2002
2002
2002
2001
2001
2001
2001
2002
2002
2002
2001
2001
2001
1997
1997
1997
2001
2001
2001
1998
1998
1998
1998
2005
2005
2005
2006
2006
2006
1998
1998
1998
2001
2001
2001
2009
2009
2009
2009
2002
2002
2002
2002
2002
2002
2001
2001
2001
1998
1998
1998
2001
2001
2001
2001
2001
2001
2001
2003
2003
2003
2003
2003
2003
2002
2002
2002
2004
2004
2004
2004
2001
2001
2001
2001
2001
2001
1998
1998
1998
2001
2001
2001
2002
2002
2002
2002
2001
2001
2001
2000
2000
2000
2002
2002
2002
1999
1999
1999
2001
2001
2001
2001
2003
2003
2003
2000
2000
2000
2002
2002
2002
2008
2008
2008
2001
2001
2001
2001
2002
2002
2002
2003
2003
2003
1999
1999
1999
2003
2003
2003
2001
2001
2001
2001
2002
2002
2002
2002
2002
2002
2001
2001
2001
2002
2002
2002
2002
2002
2002
2002
2001
2001
2001
2000
2000
2000
2003
2003
2003
2002
2002
2002
2002
2002
2002
2002
2001
2001
2001
2003
2003
2003
2002
2002
2002
2001
2001
2001
2001
2001
2001
2001
1998
1998
1998
2003
2003
2003
2002
2002
2002
2001
2001
2001
2002
2002
2002
2002
2002
2002
2002
2005
2005
2005
2003
2003
2003
2000
2000
2000
2002
2002
2002
2002
2002
2002
2002
2002
2002
2002
2001
2001
2001
1999
1999
1999
2000
2000
2000
2000
2001
2001
2001
2002
2002
2002
1994
1994
1994
2005
2005
2005
2001
2001
2001
2001
2000
2000
2000
2002
2002
2002
2001
2001
2001
2000
2000
2000
2006
2006
2006
2006
2004
2004
2004
2005
2005
2005
2003
2003
2003
1996
1996
1996
2002
2002
2002
2002
2007
2007
2007
2003
2003
2003
2001
2001
2001
2001
2001
2001
2002
2002
2002
2002
2006
2006
2006
2000
2000
2000
2005
2005
2005
2001
2001
2001
2005
2005
2005
2005
1999
1999
1999
2005
2005
2005
2002
2002
2002
2003
2003
2003
2003
2003
2003
2003
1996
1996
1996
2001
2001
2001
2004
2004
2004
2000
2000
2000
2002
2002
2002
2002
1998
1998
1998
2001
2001
2001
2001
2001
2001
2002
2002
2002
2000
2000
2000
2000
1999
1999
1999
2001
2001
2001
2001
2001
2001
2000
2000
2000
2002
2002
2002
2002
2000
2000
2000
2002
2002
2002
2002
2002
2002
2004
2004
2004
2002
2002
2002
2002
1999
1999
1999
2004
2004
2004
2003
2003
2003
2003
2003
2003
2001
2001
2001
2001
2001
2001
2001
2001
2001
2001
1995
1995
1995
2002
2002
2002
2003
2003
2003
2003
2000
