2075
2075
2075
2075
2075
2078
2078
2078
2078
2079
2079
2079
2077
2077
2077
2079
2079
2079
2080
2080
2080
2078
2078
2078
2078
2073
2073
2073
2079
2079
2079
2077
2077
2077
2083
2083
2083
2077
2077
2077
2077
2079
2079
2079
2080
2080
2080
2076
2076
2076
2074
2074
2074
2074
2074
2074
2074
2075
2075
2075
2079
2079
2079
2080
2080
2080
2077
2077
2077
2080
2080
2080
2080
2077
2077
2077
2080
2080
2080
2077
2077
2077
2078
2078
2078
2077
2077
2077
2077
2077
2077
2077
2085
2085
2085
2075
2075
2075
2080
2080
2080
2075
2075
2075
2075
2077
2077
2077
2081
2081
2081
2075
2075
2075
2079
2079
2079
2078
2078
2078
2078
2075
2075
2075
2081
2081
2081
2074
2074
2074
2079
2079
2079
2079
2079
2079
2079
2078
2078
2078
2079
2079
2079
2076
2076
2076
2076
2076
2076
2079
2079
2079
2079
2074
2074
2074
2079
2079
2079
2077
2077
2077
2077
2077
2077
2079
2079
2079
2079
2079
2079
2079
2081
2081
2081
2078
2078
2078
2081
2081
2081
2078
2078
2078
2078
2080
2080
2080
2075
2075
2075
2078
2078
2078
2076
2076
2076
2078
2078
2078
2078
2078
2078
2078
2075
2075
2075
2077
2077
2077
2079
2079
2079
2079
2079
2079
2079
2083
2083
2083
2075
2075
2075
2078
2078
2078
2077
2077
2077
2076
2076
2076
2076
2077
2077
2077
2078
2078
2078
2080
2080
2080
2084
2084
2084
2075
2075
2075
2075
2077
2077
2077
2078
2078
2078
2079
2079
2079
2079
2079
2079
2079
2079
2079
2079
2078
2078
2078
2077
2077
2077
2080
2080
2080
2078
2078
2078
2078
2078
2078
2078
2078
2078
2078
2077
2077
2077
2078
2078
2078
2080
2080
2080
2074
2074
2074
2074
2085
2085
2085
2079
2079
2079
2076
2076
2076
2078
2078
2078
2075
2075
2075
2075
2076
2076
2076
2078
2078
2078
2081
2081
2081
2078
2078
2078
2080
2080
2080
2080
2074
2074
2074
2088
2088
2088
2080
2080
2080
2077
2077
2077
2078
2078
2078
2078
2076
2076
2076
2078
2078
2078
2083
2083
2083
2079
2079
2079
2079
2079
2079
2079
2079
2079
2079
2079
2079
2079
2078
2078
2078
2080
2080
2080
2077
2077
2077
2077
2075
2075
2075
2079
2079
2079
2078
2078
2078
2081
2081
2081
2078
2078
2078
2078
2080
2080
2080
2078
2078
2078
2080
2080
2080
2074
2074
2074
2079
2079
2079
2079
2076
2076
2076
2078
2078
2078
2078
2078
2078
2088
2088
2088
2080
2080
2080
2080
2070
2070
2070
2085
2085
2085
2076
2076
2076
2080
2080
2080
2078
2078
2078
2078
2078
2078
2078
2078
2078
2078
2076
2076
2076
2079
2079
2079
2077
2077
2077
2077
2077
2077
2077
2079
2079
2079
2079
2079
2079
2077
2077
2077
2080
2080
2080
2080
2079
2079
2079
2081
2081
2081
2078
2078
2078
2080
2080
2080
2080
2080
2080
2080
2076
2076
2076
2079
2079
2079
2079
2079
2079
2079
2079
2079
2079
2079
2079
2079
2076
2076
2076
2080
2080
2080
2088
2088
2088
2078
2078
2078
2078
2078
2078
2078
2075
2075
2075
2078
2078
2078
2079
2079
2079
2075
2075
2075
2079
2079
2079
2079
2078
2078
2078
2079
2079
2079
2076
2076
2076
2081
2081
2081
2079
2079
2079
2079
2076
2076
2076
2080
2080
2080
2078
2078
2078
2078
2078
2078
2078
2078
2078
2078
2080
2080
2080
2080
2080
2080
2078
2078
2078
2081
2081
2081
2081
2081
2081
2081
2079
2079
2079
2081
2081
2081
2075
2075
2075
2082
2082
2082
2075
2075
2075
2075
2074
2074
2074
2081
2081
2081
2077
2077
2077
2079
2079
2079
2070
2070
2070
2070
2074
2074
2074
2078
2078
2078
2078
2078
2078
2077
2077
2077
2077
2077
2077
2077
2078
2078
2078
2074
2074
2074
2077
2077
2077
2079
2079
2079
2079
2079
2079
2079
2078
2078
2078
2079
2079
2079
2084
2084
2084
2078
2078
2078
2076
2076
2076
2076
2080
2080
2080
2080
2080
2080
2079
2079
2079
2081
2081
2081
2076
2076
2076
2076
2081
2081
2081
2080
2080
2080
2075
2075
2075
2083
2083
2083
2075
2075
2075
2075
2072
2072
2072
2080
2080
2080
2077
2077
2077
2078
2078
2078
2080
2080
2080
2080
2075
2075
2075
2079
2079
2079
2078
2078
2078
2078
2078
2078
2083
2083
2083
2083
2080
2080
2080
2080
2080
2080
2077
2077
2077
2082
2082
2082
2077
2077
2077
2077
2076
2076
2076
2081
2081
2081
2078
2078
2078
2082
2082
2082
2078
2078
2078
2078
2078
2078
2078
2076
2076
2076
2077
2077
2077
2081
2081
2081
2078
2078
2078
2078
2078
2078
2078
2081
2081
2081
2076
2076
2076
2082
2082
2082
2078
2078
2078
2078
2078
2078
2078
2077
2077
2077
2076
2076
2076
2080
2080
2080
2075
2075
2075
2075
2080
2080
2080
2078
2078
2078
2075
2075
2075
2079
2079
2079
2078
2078
2078
2078
2080
2080
2080
2077
2077
2077
2079
2079
2079
2079
2079
2079
2076
2076
2076
2076
2072
2072
2072
2076
2076
2076
2079
2079
2079
2079
2079
2079
2075
2075
2075
2075
2076
2076
2076
2077
2077
2077
2078
2078
2078
2079
2079
2079
2074
2074
2074
2074
2076
2076
2076
2078
2078
2078
2080
2080
2080
2077
2077
2077
2076
2076
2076
2076
2080
2080
2080
2077
2077
2077
2078
2078
2078
2074
2074
2074
2082
2082
2082
2082
2077
2077
2077
2078
2078
2078
2076
2076
2076
2078
2078
2078
2078
2078
2078
2078
2076
2076
2076
2081
2081
2081
2077
2077
2077
2076
2076
2076
2080
2080
2080
2080
2077
2077
2077
2080
2080
2080
2073
2073
2073
2078
2078
2078
2082
2082
2082
2082
2076
2076
2076
2078
2078
2078
2078
2078
2078
2083
2083
2083
2080
2080
2080
2080
2075
2075
2075
2078
2078
2078
2079
2079
2079
2079
2079
2079
2081
2081
2081
2081
2078
2078
2078
2073
2073
2073
2078
2078
2078
2077
2077
2077
2078
2078
2078
2078
2078
2078
2078
2077
2077
2077
2077
2077
2077
2077
2077
2077
2078
2078
2078
2078
2076
2076
2076
2078
2078
2078
2080
2080
2080
2078
2078
2078
2078
2078
2078
2078
2074
2074
2074
2080
2080
2080
2076
2076
2076
2080
2080
2080
2082
2082
2082
2082
2077
2077
2077
2079
2079
2079
2075
2075
2075
2080
2080
2080
2077
2077
2077
2077
2079
2079
2079
2081
2081
2081
2080
2080
2080
2075
2075
2075
2077
2077
2077
2077
2075
2075
2075
2077
2077
2077
2079
2079
2079
2074
2074
2074
2079
2079
2079
2079
2076
2076
2076
2080
2080
2080
2074
2074
2074
2079
2079
2079
2081
2081
2081
2081
2078
2078
2078
2078
2078
2078
2078
2078
2078
2079
2079
2079
2078
2078
2078
2078
2077
2077
2077
2074
2074
2074
2078
2078
2078
2080
2080
2080
2079
2079
2079
2079
2077
2077
2077
2077
2077
2077
2073
2073
2073
2084
2084
2084
2075
2075
2075
2075
2078
2078
2078
2079
2079
2079
2076
2076
2076
2080
2080
2080
2078
2078
2078
2078
2078
2078
2078
2077
2077
2077
2078
2078
2078
2079
2079
2079
2077
2077
2077
2077
2078
2078
2078
2080
2080
2080
2073
2073
2073
2078
2078
2078
2077
2077
2077
2077
2077
2077
2077
2080
2080
2080
2079
2079
2079
2077
2077
2077
2077
2077
2077
2077
2074
2074
2074
2082
2082
2082
2078
2078
2078
2074
2074
2074
2081
2081
2081
2081
2083
2083
2083
2076
2076
2076
2084
2084
2084
2078
2078
2078
2079
2079
2079
2079
2078
2078
2078
2079
2079
2079
2079
2079
2079
2081
2081
2081
2075
2075
2075
2075
2077
2077
2077
2080
2080
2080
2076
2076
2076
2079
2079
2079
2080
2080
2080
2080
2077
2077
2077
2079
2079
2079
2077
2077
2077
2067
2067
2067
2077
2077
2077
2077
2078
2078
2078
2077
2077
2077
2084
2084
2084
2078
2078
2078
2078
2078
2078
2078
2079
2079
2079
2081
2081
2081
2076
2076
2076
2075
2075
2075
2081
2081
2081
2081
2075
2075
2075
2084
2084
2084
2078
2078
2078
2079
2079
2079
2084
2084
2084
2084
2077
2077
2077
2079
2079
2079
2076
2076
2076
2077
2077
2077
2079
2079
2079
2079
2069
2069
2069
2083
2083
2083
2076
2076
2076
2077
2077
2077
2077
2077
2077
2077
2074
2074
2074
2081
2081
2081
2075
2075
2075
2082
2082
2082
2078
2078
2078
2078
2083
2083
2083
2076
2076
2076
2077
2077
2077
2079
2079
2079
2079
2079
2079
2079
2078
2078
2078
2075
2075
2075
2077
2077
2077
2079
2079
2079
2077
2077
2077
2077
2081
2081
2081
2078
2078
2078
2077
2077
2077
2080
2080
2080
2076
2076
2076
2076
2077
2077
2077
2078
2078
2078
2077
2077
2077
2078
2078
2078
2077
2077
2077
2077
2078
2078
2078
2081
2081
2081
2077
2077
2077
2078
2078
2078
2078
2078
2078
2078
2074
2074
2074
2080
2080
2080
2079
2079
2079
2075
2075
2075
2075
2075
2075
2075
2073
2073
2073
2081
2081
2081
2078
2078
2078
2078
2078
2078
2077
2077
2077
2077
2083
2083
2083
2082
2082
2082
2077
2077
2077
2080
2080
2080
2081
2081
2081
2081
2074
2074
2074
2080
2080
2080
2076
2076
2076
2079
2079
2079
2083
2083
2083
2083
2078
2078
2078
2079
2079
2079
2077
2077
2077
2078
2078
2078
2084
2084
2084
2084
2076
2076
2076
2078
2078
2078
2077
2077
2077
2080
2080
2080
2079
2079
2079
2079
2078
2078
2078
2080
2080
2080
2084
2084
2084
2077
2077
2077
2077
2077
2077
2077
2079
2079
2079
2078
2078
2078
2072
2072
2072
2076
2076
2076
2080
2080
2080
2080
2079
2079
2079
2079
2079
2079
2076
2076
2076
2078
2078
2078
2079
2079
2079
2079
2077
2077
2077
2076
2076
2076
2077
2077
2077
2082
2082
2082
2076
2076
2076
2076
2078
2078
2078
2077
2077
2077
2077
2077
2077
2072
2072
2072
2084
2084
2084
2084
2076
2076
2076
2079
2079
2079
2079
2079
2079
2080
2080
2080
2079
2079
2079
2079
2079
2079
2079
2078
2078
2078
2079
2079
2079
2078
2078
2078
2077
2077
2077
2077
2077
2077
2077
2076
2076
2076
2080
2080
2080
2075
2075
2075
2080
2080
2080
2080
2082
2082
2082
2080
2080
2080
2078
2078
2078
2080
2080
2080
2077
2077
2077
2077
2077
2077
2077
2078
2078
2078
2074
2074
2074
2081
2081
2081
2079
2079
2079
2079
2076
2076
2076
2079
2079
2079
2077
2077
2077
2077
2077
2077
2082
2082
2082
2082
2078
2078
2078
2080
2080
2080
2079
2079
2079
2080
2080
2080
2079
2079
2079
2079
2080
2080
2080
2079
2079
2079
2079
2079
2079
2078
2078
2078
2079
2079
2079
2079
2074
2074
2074
2076
2076
2076
2076
2076
2076
2075
2075
2075
2085
2085
2085
2085
2076
2076
2076
2081
2081
2081
2074
2074
2074
2079
2079
2079
2080
2080
2080
2080
2081
2081
2081
2076
2076
2076
2078
2078
2078
2081
2081
2081
2077
2077
2077
2077
2077
2077
2077
2077
2077
2077
2074
2074
2074
2079
2079
2079
2076
2076
2076
2076
2079
2079
2079
2078
2078
2078
2080
2080
2080
2076
2076
2076
2078
2078
2078
2078
2077
2077
2077
2079
2079
2079
2078
2078
2078
2073
2073
2073
2077
2077
2077
2077
2078
2078
2078
2082
2082
2082
2075
2075
2075
2076
2076
2076
2080
2080
2080
2080
2078
2078
2078
2081
2081
2081
2078
2078
2078
2080
2080
2080
2077
2077
2077
2077
2072
2072
2072
2076
2076
2076
2080
2080
2080
2077
2077
2077
2078
2078
2078
2078
2076
2076
2076
2079
2079
2079
2075
2075
2075
2081
2081
2081
2076
2076
2076
2076
2077
2077
2077
2080
2080
2080
2079
2079
2079
2079
2079
2079
2078
2078
2078
2078
2075
2075
2075
2076
2076
2076
2077
2077
2077
2079
2079
2079
2077
2077
2077
2077
2077
2077
2077
2080
2080
2080
2074
2074
2074
2079
2079
2079
2078
2078
2078
2078
2077
2077
2077
2079
2079
2079
2077
2077
2077
2079
2079
2079
2080
2080
2080
2080
2075
2075
2075
2078
2078
2078
2079
2079
2079
2074
2074
2074
2080
2080
2080
2080
2075
2075
2075
2081
2081
2081
2076
2076
2076
2079
2079
2079
2075
2075
2075
2075
2074
2074
2074
2080
2080
2080
2078
2078
2078
2078
2078
2078
2082
2082
2082
2082
2080
2080
2080
2078
2078
2078
2078
2078
2078
2080
2080
2080
2082
2082
2082
2082
2079
2079
2079
2076
2076
2076
2079
2079
2079
2077
2077
2077
2079
2079
2079
2079
2078
2078
2078
2079
2079
2079
2079
2079
2079
2080
2080
2080
2079
2079
2079
2079
2074
2074
2074
2080
2080
2080
2075
2075
2075
2080
2080
2080
2081
2081
2081
2081
2080
2080
2080
2074
2074
2074
2090
2090
2090
2075
2075
2075
2080
2080
2080
2080
2078
2078
2078
2079
2079
2079
2074
2074
2074
2078
2078
2078
2078
2078
2078
2078
2077
2077
2077
2080
2080
2080
2075
2075
2075
2074
2074
2074
2075
2075
2075
2075
2080
2080
2080
2081
2081
2081
2079
2079
2079
2080
2080
2080
2076
2076
2076
2076
2075
2075
2075
2079
2079
2079
2078
2078
2078
2079
2079
2079
2076
2076
2076
2076
2081
2081
2081
2078
2078
2078
2077
2077
2077
2080
2080
2080
2078
2078
2078
2078
2079
2079
2079
2080
2080
2080
2076
2076
2076
2082
2082
2082
2073
2073
2073
2073
2078
2078
2078
2079
2079
2079
2078
2078
2078
2083
2083
2083
2077
2077
2077
2077
2079
2079
2079
2078
2078
2078
2077
2077
2077
2080
2080
2080
2078
2078
2078
2078
2073
2073
2073
2078
2078
2078
2078
2078
2078
2077
2077
2077
2080
2080
2080
2080
2077
2077
2077
2078
2078
2078
2080
2080
2080
2078
2078
2078
2078
2078
2078
2078
2076
2076
2076
2078
2078
2078
2075
2075
2075
2080
2080
2080
2079
2079
2079
2079
2081
2081
2081
2079
2079
2079
2082
2082
2082
2078
2078
2078
2077
2077
2077
2077
2079
2079
2079
2078
2078
2078
2077
2077
2077
2075
2075
2075
2079
2079
2079
2079
2078
2078
2078
2077
2077
2077
2078
2078
2078
2072
2072
2072
2080
2080
2080
2080
2082
2082
2082
2077
2077
2077
2077
2077
2077
2079
2079
2079
2072
2072
2072
2072
2078
2078
2078
2079
2079
2079
2078
2078
2078
2079
2079
2079
2075
2075
2075
2075
2078
2078
2078
2082
2082
2082
2078
2078
2078
2080
2080
2080
2077
2077
2077
2077
2073
2073
2073
2077
2077
2077
2074
2074
2074
2078
2078
2078
2081
2081
2081
2081
2077
2077
2077
2081
2081
2081
2076
2076
2076
2080
2080
2080
2079
2079
2079
2079
2076
2076
2076
2079
2079
2079
2074
2074
2074
2081
2081
2081
2077
2077
2077
2077
2078
2078
2078
2078
2078
2078
2083
2083
2083
2078
2078
2078
2078
2078
2078
2078
2075
2075
2075
2080
2080
2080
2075
2075
2075
2079
2079
2079
2076
2076
2076
2076
2079
2079
2079
2076
2076
2076
2079
2079
2079
2078
2078
2078
2077
2077
2077
2077
2087
2087
2087
2077
2077
2077
2081
2081
2081
2079
2079
2079
2074
2074
2074
2074
2075
2075
2075
2081
2081
2081
2073
2073
2073
2085
2085
2085
2082
2082
2082
2082
2077
2077
2077
2078
2078
2078
2080
2080
2080
2079
2079
2079
2076
2076
2076
2076
2079
2079
2079
2079
2079
2079
2075
2075
2075
2080
2080
2080
2078
2078
2078
2078
2076
2076
2076
2081
2081
2081
2076
2076
2076
2079
2079
2079
2081
2081
2081
2081
2078
2078
2078
2081
2081
2081
2078
2078
2078
2079
2079
2079
2077
2077
2077
2077
2078
2078
2078
2079
2079
2079
2079
2079
2079
2079
2079
2079
2079
2079
2079
2079
2074
2074
2074
2078
2078
2078
2074
2074
2074
2073
2073
2073
2083
2083
2083
2083
2080
2080
2080
2078
2078
2078
2078
2078
2078
2076
2076
2076
2079
2079
2079
2079
2075
2075
2075
2076
2076
2076
2081
2081
2081
2078
2078
2078
2080
2080
2080
2080
2080
2080
2080
2079
2079
2079
2080
2080
2080
2079
2079
2079
2077
2077
2077
2077
2075
2075
2075
2081
2081
2081
2078
2078
2078
2081
2081
2081
2080
2080
2080
2080
2074
2074
2074
2078
2078
2078
2078
2078
2078
2081
2081
2081
2076
2076
2076
2076
2081
2081
2081
2080
2080
2080
2077
2077
2077
2082
2082
2082
2076
2076
2076
2076
2077
2077
2077
2080
2080
2080
2078
2078
2078
2079
2079
2079
2079
2079
2079
2079
2077
2077
2077
2080
2080
2080
2073
2073
2073
2079
2079
2079
2078
2078
2078
2078
2076
2076
2076
2080
2080
2080
2075
2075
2075
2079
2079
2079
2078
2078
2078
2078
2077
2077
2077
2079
2079
2079
2078
2078
2078
2078
2078
2078
2082
2082
2082
2082
2077
2077
2077
2079
2079
2079
2075
2075
2075
2077
2077
2077
2080
2080
2080
2080
2074
2074
2074
2081
2081
2081
2082
2082
2082
2067
2067
2067
2079
2079
2079
2079
2076
2076
2076
2078
2078
2078
2081
2081
2081
2079
2079
2079
2070
2070
2070
2070
2079
2079
2079
2078
2078
2078
2080
2080
2080
2078
2078
2078
2081
2081
2081
2081
2075
2075
2075
2078
2078
2078
2078
2078
2078
2079
2079
2079
2076
2076
2076
2076
2077
2077
2077
2082
2082
2082
2080
2080
2080
2078
2078
2078
2081
2081
2081
2081
2078
2078
2078
2072
2072
2072
2078
2078
2078
2079
2079
2079
2079
2079
2079
2079
2078
2078
2078
2079
2079
2079
2073
2073
2073
2080
2080
2080
2086
2086
2086
2086
2076
2076
2076
2079
2079
2079
2069
2069
2069
2075
2075
2075
2084
2084
2084
2084
2080
2080
2080
2079
2079
2079
2073
2073
2073
2080
2080
2080
2077
2077
2077
2077
2075
2075
2075
2079
2079
2079
2079
2079
2079
2078
2078
2078
2077
2077
2077
2077
2075
2075
2075
2079
2079
2079
2076
2076
2076
2080
2080
2080
2077
2077
2077
2077
2075
2075
2075
2080
2080
2080
2075
2075
2075
2080
2080
2080
2080
2080
2080
2080
2076
2076
2076
2081
2081
2081
2078
2078
2078
2077
2077
2077
2075
2075
2075
2075
2076
2076
2076
2079
2079
2079
2079
2079
2079
2078
2078
2078
2075
2075
2075
2075
2076
2076
2076
2080
2080
2080
2076
2076
2076
2079
2079
2079
2077
2077
2077
2077
2076
2076
2076
2079
2079
2079
2076
2076
2076
2082
2082
2082
2078
2078
2078
2078
2075
2075
2075
2079
2079
2079
2077
2077
2077
2079
2079
2079
2080
2080
2080
2080
2078
2078
2078
2079
2079
2079
2075
2075
2075
2080
2080
2080
2080
2080
2080
2080
2078
2078
2078
2080
2080
2080
2075
2075
2075
2081
2081
2081
2079
2079
2079
2079
2075
2075
2075
2083
2083
2083
2076
2076
2076
2080
2080
2080
2074
2074
2074
2074
2075
2075
2075
2080
2080
2080
2081
2081
2081
2076
2076
2076
2077
2077
2077
2077
2078
2078
2078
2081
2081
2081
2077
2077
2077
2083
2083
2083
2076
2076
2076
2076
2079
2079
2079
2079
2079
2079
2076
2076
2076
2079
2079
2079
2075
2075
2075
2075
2076
2076
2076
2078
2078
2078
2074
2074
2074
2081
2081
2081
2079
2079
2079
2079
2075
2075
2075
2080
2080
2080
2077
2077
2077
2079
2079
2079
2083
2083
2083
2083
2076
2076
2076
2073
2073
2073
2079
2079
2079
2075
2075
2075
2081
2081
2081
2081
2077
2077
2077
2078
2078
2078
2078
2078
2078
2081
2081
2081
2076
2076
2076
2076
2079
2079
2079
2079
2079
2079
2077
2077
2077
2080
2080
2080
2078
2078
2078
2078
2077
2077
2077
2081
2081
2081
2078
2078
2078
2081
2081
2081
2078
2078
2078
2078
2078
2078
2078
2079
2079
2079
2077
2077
2077
2080
2080
2080
2074
2074
2074
2074
2079
2079
2079
2079
2079
2079
2079
2079
2079
2077
2077
2077
2079
2079
2079
2079
2071
2071
2071
2076
2076
2076
2080
2080
2080
2079
2079
2079
2078
2078
2078
2078
2081
2081
2081
2081
2081
2081
2074
2074
2074
2084
2084
2084
2077
2077
2077
2077
2075
2075
2075
2077
2077
2077
2079
2079
2079
2078
2078
2078
2074
2074
2074
2074
2075
2075
2075
2078
2078
2078
2079
2079
2079
2079
2079
2079
2082
2082
2082
2082
2076
2076
2076
2071
2071
2071
2080
2080
2080
2079
2079
2079
2080
2080
2080
2080
2075
2075
2075
2079
2079
2079
2077
2077
2077
2077
2077
2077
2080
2080
2080
2080
2078
2078
2078
2078
2078
2078
2080
2080
2080
2080
2080
2080
2078
2078
2078
2078
2075
2075
2075
2080
2080
2080
2073
2073
2073
2079
2079
2079
2079
2079
2079
2079
2076
2076
2076
2079
2079
2079
2089
2089
2089
2080
2080
2080
2075
2075
2075
2075
2076
2076
2076
2080
2080
2080
2087
2087
2087
2079
2079
2079
2078
2078
2078
2078
2078
2078
2078
2082
2082
2082
2078
2078
2078
2076
2076
2076
2075
2075
2075
2075
2079
2079
2079
2081
2081
2081
2076
2076
2076
2074
2074
2074
2078
2078
2078
2078
2075
2075
2075
2085
2085
2085
2078
2078
2078
2077
2077
2077
2079
2079
2079
2079
2074
2074
2074
2078
2078
2078
2080
2080
2080
2087
2087
2087
2080
2080
2080
2080
2080
2080
2080
2077
2077
2077
2076
2076
2076
2076
2076
2076
2079
2079
2079
2079
2079
2079
2079
2080
2080
2080
2078
2078
2078
2068
2068
2068
2082
2082
2082
2082
2073
2073
2073
2076
2076
2076
2077
2077
2077
2081
2081
2081
2076
2076
2076
2076
2085
2085
2085
2075
2075
2075
2081
2081
2081
2079
2079
2079
2079
2079
2079
2079
2078
2078
2078
2076
2076
2076
2081
2081
2081
2078
2078
2078
2082
2082
2082
2082
2076
2076
2076
2077
2077
2077
2078
2078
2078
2080
2080
2080
2084
2084
2084
2084
2078
2078
2078
2084
2084
2084
2078
2078
2078
2079
2079
2079
2080
2080
2080
2080
2082
2082
2082
2075
2075
2075
2078
2078
2078
2076
2076
2076
2078
2078
2078
2078
2078
2078
2078
2075
2075
2075
2080
2080
2080
2079
2079
2079
2080
2080
2080
2080
2079
2079
2079
2079
2079
2079
2075
2075
2075
2079
2079
2079
2078
2078
2078
2078
2078
2078
2078
2078
2078
2078
2075
2075
2075
2077
2077
2077
2076
2076
2076
2076
2077
2077
2077
2079
2079
2079
2080
2080
2080
2082
2082
2082
2074
2074
2074
2074
2075
2075
2075
2080
2080
2080
2076
2076
2076
2078
2078
2078
2077
2077
2077
2077
2079
2079
2079
2080
2080
2080
2077
2077
2077
2077
2077
2077
2077
2077
2077
2077
2075
2075
2075
2081
2081
2081
2079
2079
2079
2077
2077
2077
2080
2080
2080
2080
2078
2078
2078
2080
2080
2080
2077
2077
2077
2079
2079
2079
2078
2078
2078
2078
2077
2077
2077
2077
2077
2077
2078
2078
2078
2080
2080
2080
2081
2081
2081
2081
2075
2075
2075
2072
2072
2072
2076
2076
2076
2080
2080
2080
2078
2078
2078
2078
2077
2077
2077
2084
2084
2084
2078
2078
2078
2081
2081
2081
2072
2072
2072
2072
2078
2078
2078
2079
2079
2079
2078
2078
2078
2080
2080
2080
2074
2074
2074
2074
2081
2081
2081
2079
2079
2079
2082
2082
2082
2081
2081
2081
2076
2076
2076
2076
2077
2077
2077
2078
2078
2078
2079
2079
2079
2074
2074
2074
2078
2078
2078
2078
2078
2078
2078
2080
2080
2080
2072
2072
2072
2077
2077
2077
2076
2076
2076
2076
2078
2078
2078
2078
2078
2078
2076
2076
2076
2082
2082
2082
2079
2079
2079
2079
2077
2077
2077
2081
2081
2081
2072
2072
2072
2083
2083
2083
2078
2078
2078
2078
2078
2078
2078
2081
2081
2081
2071
2071
2071
2078
2078
2078
2078
2078
2078
2078
2076
2076
2076
2078
2078
2078
2078
2078
2078
2078
2078
2078
2078
2078
2078
2078
2078
2078
2078
2076
2076
2076
2077
2077
2077
2081
2081
2081
2071
2071
2071
2071
2075
2075
2075
2080
2080
2080
2078
2078
2078
2076
2076
2076
2079
2079
2079
2079
2077
2077
2077
2080
2080
2080
2080
2080
2080
2080
2080
2080
2077
2077
2077
2077
2075
2075
2075
2079
2079
2079
2077
2077
2077
2083
2083
2083
2077
2077
2077
2077
2076
2076
2076
2077
2077
2077
2075
2075
2075
2079
2079
2079
2071
2071
2071
2071
2079
2079
2079
2081
2081
2081
2076
2076
2076
2078
2078
2078
2076
2076
2076
2076
2078
2078
2078
2076
2076
2076
2079
2079
2079
2081
2081
2081
2077
2077
2077
2077
2080
2080
2080
2075
2075
2075
2080
2080
2080
2078
2078
2078
2078
2078
2078
2078
2078
2078
2078
2080
2080
2080
2072
2072
2072
2080
2080
2080
2076
2076
2076
2076
2077
2077
2077
2080
2080
2080
2079
2079
2079
2078
2078
2078
2076
2076
2076
2076
2074
2074
2074
2081
2081
2081
2074
2074
2074
2083
2083
2083
2076
2076
2076
2076
2077
2077
2077
2078
2078
2078
2069
2069
2069
2081
2081
2081
2078
2078
2078
2078
2080
2080
2080
2081
2081
2081
2081
2081
2081
2082
2082
2082
2077
2077
2077
2077
2076
2076
2076
2080
2080
2080
2074
2074
2074
2082
2082
2082
2075
2075
2075
2075
2075
2075
2075
2078
2078
2078
2077
2077
2077
2075
2075
2075
2081
2081
2081
2081
2075
2075
2075
2077
2077
2077
2078
2078
2078
2082
2082
2082
2077
2077
2077
2077
2076
2076
2076
2075
2075
2075
2079
2079
2079
2079
2079
2079
2077
2077
2077
2077
2075
2075
2075
2082
2082
2082
2074
2074
2074
2079
2079
2079
2074
2074
2074
2074
2069
2069
2069
2080
2080
2080
2078
2078
2078
2081
2081
2081
2076
2076
2076
2076
2078
2078
2078
2081
2081
2081
2078
2078
2078
2082
2082
2082
2075
2075
2075
2075
2079
2079
2079
2077
2077
2077
2077
2077
2077
2083
2083
2083
2074
2074
2074
2074
2077
2077
2077
2082
2082
2082
2078
2078
2078
2079
2079
2079
2076
2076
2076
2076
2079
2079
2079
2080
2080
2080
2080
2080
2080
2080
2080
2080
2078
2078
2078
2078
2079
2079
2079
2080
2080
2080
2073
2073
2073
2081
2081
2081
2078
2078
2078
2078
2078
2078
2078
2082
2082
2082
2078
2078
2078
2078
2078
2078
2079
2079
2079
2079
2079
2079
2079
2080
2080
2080
2075
2075
2075
2079
2079
2079
2075
2075
2075
2075
2075
2075
2075
2080
2080
2080
2075
2075
2075
2078
2078
2078
2077
2077
2077
2077
2078
2078
2078
2075
2075
2075
2080
2080
2080
2078
2078
2078
2081
2081
2081
2081
2076
2076
2076
2077
2077
2077
2077
2077
2077
2082
2082
2082
2077
2077
2077
2077
2079
2079
2079
2079
2079
2079
2078
2078
2078
2079
2079
2079
2076
2076
2076
2076
2078
2078
2078
2081
2081
2081
2078
2078
2078
2081
2081
2081
2073
2073
2073
2073
2082
2082
2082
2078
2078
2078
2076
2076
2076
2085
2085
2085
2075
2075
2075
2075
2078
2078
2078
2083
2083
2083
2077
2077
2077
2081
2081
2081
2073
2073
2073
2073
2078
2078
2078
2083
2083
2083
2075
2075
2075
2080
2080
2080
2080
2080
2080
2080
2075
2075
2075
2081
2081
2081
2079
2079
2079
2078
2078
2078
2080
2080
2080
2080
2077
2077
2077
2079
2079
2079
2077
2077
2077
2079
2079
2079
2076
2076
2076
2076
2078
2078
2078
2077
2077
2077
2075
2075
2075
2080
2080
2080
2077
2077
2077
2077
2077
2077
2077
2083
2083
2083
2077
2077
2077
2081
2081
2081
2077
2077
2077
2077
2078
2078
2078
2080
2080
2080
2075
2075
2075
2082
2082
2082
2075
2075
2075
2075
2079
2079
2079
2080
2080
2080
2075
2075
2075
2079
2079
2079
2076
2076
2076
2076
2074
2074
2074
2083
2083
2083
2073
2073
2073
2081
2081
2081
2072
2072
2072
2072
2077
2077
2077
2080
2080
2080
2078
2078
2078
2081
2081
2081
2075
2075
2075
2075
2079
2079
2079
2079
2079
2079
2077
2077
2077
2083
2083
2083
2079
2079
2079
2079
2075
2075
2075
2080
2080
2080
2078
2078
2078
2078
2078
2078
2076
2076
2076
2076
2077
2077
2077
2076
2076
2076
2080
2080
2080
2077
2077
2077
2076
2076
2076
2076
2077
2077
2077
2079
2079
2079
2078
2078
2078
2082
2082
2082
2077
2077
2077
2077
2080
2080
2080
2077
2077
2077
2077
2077
2077
2082
2082
2082
2080
2080
2080
2080
2073
2073
2073
2079
2079
2079
2071
2071
2071
2080
2080
2080
2074
2074
2074
2074
2087
2087
2087
2078
2078
2078
2077
2077
2077
2080
2080
2080
2074
2074
2074
2074
2076
2076
2076
2077
2077
2077
2080
2080
2080
2080
2080
2080
2077
2077
2077
2077
2081
2081
2081
2076
2076
2076
2077
2077
2077
2081
2081
2081
2075
2075
2075
2075
2076
2076
2076
2079
2079
2079
2078
2078
2078
2080
2080
2080
2074
2074
2074
2074
2078
2078
2078
2080
2080
2080
2081
2081
2081
2078
2078
2078
2082
2082
2082
2082
2074
2074
2074
2077
2077
2077
2084
2084
2084
2078
2078
2078
2077
2077
2077
2077
2077
2077
2077
2078
2078
2078
2080
2080
2080
2080
2080
2080
2074
2074
2074
2074
2077
2077
2077
2079
2079
2079
2079
2079
2079
2078
2078
2078
2075
2075
2075
2075
2077
2077
2077
2078
2078
2078
2078
2078
2078
2079
2079
2079
2076
2076
2076
2076
2079
2079
2079
2080
2080
2080
2074
2074
2074
2083
2083
2083
2075
2075
2075
2075
2076
2076
2076
2079
2079
2079
2079
2079
2079
2077
2077
2077
2076
2076
2076
2076
2073
2073
2073
2081
2081
2081
2077
2077
2077
2079
2079
2079
2076
2076
2076
2076
2077
2077
2077
2080
2080
2080
2080
2080
2080
2077
2077
2077
2080
2080
2080
2080
2078
2078
2078
2078
2078
2078
2079
2079
2079
2080
2080
2080
2076
2076
2076
2076
2076
2076
2076
2081
2081
2081
2076
2076
2076
2076
2076
2076
2079
2079
2079
2079
2081
2081
2081
2080
2080
2080
2078
2078
2078
2078
2078
2078
2081
2081
2081
2081
2074
2074
2074
2079
2079
2079
2076
2076
2076
2081
2081
2081
2076
2076
2076
2076
2086
2086
2086
2078
2078
2078
2079
2079
2079
2079
2079
2079
2092
2092
2092
2092
2081
2081
2081
2076
2076
2076
2079
2079
2079
2079
2079
2079
2072
2072
2072
2072
2080
2080
2080
2083
2083
2083
2074
2074
2074
2078
2078
2078
2078
2078
2078
2078
2077
2077
2077
2073
2073
2073
2077
2077
2077
2077
2077
2077
2075
2075
2075
2075
2080
2080
2080
2082
2082
2082
2074
2074
2074
2078
2078
2078
2079
2079
2079
2079
2080
2080
2080
2085
2085
2085
2080
2080
2080
2079
2079
2079
2077
2077
2077
2077
2078
2078
2078
2085
2085
2085
2078
2078
2078
2076
2076
2076
2078
2078
2078
2078
2077
2077
2077
2077
2077
2077
2077
2077
2077
2077
2077
2077
2074
2074
2074
2074
2074
2074
2074
2081
2081
2081
2075
2075
2075
2080
2080
2080
2078
2078
2078
2078
2076
2076
2076
2078
2078
2078
2079
2079
2079
2079
2079
2079
2074
2074
2074
2074
2078
2078
2078
2081
2081
2081
2077
2077
2077
2080
2080
2080
2078
2078
2078
2078
2078
2078
2078
2080
2080
2080
2075
2075
2075
2078
2078
2078
2078
2078
2078
2078
2076
2076
2076
2081
2081
2081
2074
2074
2074
2080
2080
2080
2077
2077
2077
2077
2077
2077
2077
2079
2079
2079
2075
2075
2075
2077
2077
2077
2077
2077
2077
2077
2076
2076
2076
2079
2079
2079
2077
2077
2077
2079
2079
2079
2078
2078
2078
2078
2078
2078
2078
2076
2076
2076
2081
2081
2081
2076
2076
2076
2077
2077
2077
2077
2077
2077
2077
2078
2078
2078
2077
2077
2077
2077
2077
2077
2079
2079
2079
2079
2076
2076
2076
2079
2079
2079
2077
2077
2077
2083
2083
2083
2077
2077
2077
2077
2082
2082
2082
2079
2079
2079
2077
2077
2077
2082
2082
2082
2072
2072
2072
2072
2080
2080
2080
2077
2077
2077
2076
2076
2076
2076
2076
2076
2075
2075
2075
2075
2076
2076
2076
2077
2077
2077
2079
2079
2079
2083
2083
2083
2076
2076
2076
2076
2077
2077
2077
2079
2079
2079
2077
2077
2077
2080
2080
2080
2077
2077
2077
2077
2078
2078
2078
2078
2078
2078
2075
2075
2075
2080
2080
2080
2077
2077
2077
2077
2076
2076
2076
2080
2080
2080
2075
2075
2075
2080
2080
2080
2074
2074
2074
2074
2081
2081
2081
2081
2081
2081
2082
2082
2082
2077
2077
2077
2076
2076
2076
2076
2077
2077
2077
2078
2078
2078
2078
2078
2078
2078
2078
2078
2078
2078
2078
2078
2075
2075
2075
2078
2078
2078
2077
2077
2077
2078
2078
2078
2075
2075
2075
2075
2079
2079
2079
2075
2075
2075
2077
2077
2077
2078
2078
2078
2077
2077
2077
2077
2079
2079
2079
2077
2077
2077
2077
2077
2077
2080
2080
2080
2075
2075
2075
2075
2075
2075
2075
2079
2079
2079
2078
2078
2078
2074
2074
2074
2076
2076
2076
2076
2074
2074
2074
2081
2081
2081
2076
2076
2076
2078
2078
2078
2075
2075
2075
2075
2080
2080
2080
2077
2077
2077
2078
2078
2078
2084
2084
2084
2073
2073
2073
2073
2075
2075
2075
2081
2081
2081
2072
2072
2072
2082
2082
2082
2073
2073
2073
2073
2078
2078
2078
2080
2080
2080
2078
2078
2078
2079
2079
2079
2078
2078
2078
2078
2078
2078
2078
2080
2080
2080
2081
2081
2081
2080
2080
2080
2076
2076
2076
2076
2077
2077
2077
2078
2078
2078
2076
2076
2076
2079
2079
2079
2075
2075
2075
2075
2077
2077
2077
2076
2076
2076
2083
2083
2083
2082
2082
2082
2076
2076
2076
2076
2073
2073
2073
2081
2081
2081
2078
2078
2078
2075
2075
2075
2077
2077
2077
2077
2076
2076
2076
2078
2078
2078
2077
2077
2077
2076
2076
2076
2078
2078
2078
2078
2077
2077
2077
2080
2080
2080
2080
2080
2080
2081
2081
2081
2076
2076
2076
2076
2078
2078
2078
2080
2080
2080
2075
2075
2075
2077
2077
2077
2077
2077
2077
2077
2075
2075
2075
2079
2079
2079
2072
2072
2072
2081
2081
2081
2076
2076
2076
2076
2077
2077
2077
2083
2083
2083
2074
2074
2074
2080
2080
2080
2074
2074
2074
2074
2076
2076
2076
2084
2084
2084
2077
2077
2077
2080
2080
2080
2079
2079
2079
2079
2076
2076
2076
2079
2079
2079
2076
2076
2076
2079
2079
2079
2076
2076
2076
2076
2077
2077
2077
2079
2079
2079
2078
2078
2078
2081
2081
2081
2076
2076
2076
2076
2077
2077
2077
2081
2081
2081
2077
2077
2077
2082
2082
2082
2068
2068
2068
2068
2076
2076
2076
2081
2081
2081
2075
2075
2075
2081
2081
2081
2077
2077
2077
2077
2080
2080
2080
2077
2077
2077
2077
2077
2077
2079
2079
2079
2074
2074
2074
2074
2076
2076
2076
2080
2080
2080
2075
2075
2075
2082
2082
2082
2074
2074
2074
2074
2079
2079
2079
2077
2077
2077
2078
2078
2078
2077
2077
2077
2080
2080
2080
2080
2084
2084
2084
2079
2079
2079
2078
2078
2078
2077
2077
2077
2075
2075
2075
2075
2072
2072
2072
2080
2080
2080
2080
2080
2080
2080
2080
2080
2078
2078
2078
2078
2079
2079
2079
2080
2080
2080
2078
2078
2078
2076
2076
2076
2077
2077
2077
2077
2079
2079
2079
2079
2079
2079
2076
2076
2076
2081
2081
2081
2076
2076
2076
2076
2079
2079
2079
2075
2075
2075
2075
2075
2075
2079
2079
2079
2072
2072
2072
2072
2078
2078
2078
2079
2079
2079
2078
2078
2078
2081
2081
2081
2073
2073
2073
2073
2080
2080
2080
2077
2077
2077
2079
2079
2079
2089
2089
2089
2076
2076
2076
2076
2075
2075
2075
2081
2081
2081
2079
2079
2079
2078
2078
2078
2075
2075
2075
2075
2082
2082
2082
2077
2077
2077
2080
2080
2080
2090
2090
2090
2087
2087
2087
2087
2081
2081
2081
2077
2077
2077
2079
2079
2079
2079
2079
2079
2075
2075
2075
2075
2076
2076
2076
2079
2079
2079
2078
2078
2078
2081
2081
2081
2075
2075
2075
2075
2075
2075
2075
2079
2079
2079
2077
2077
2077
2077
2077
2077
2075
2075
2075
2075
2080
2080
2080
2076
2076
2076
2078
2078
2078
2078
2078
2078
2076
2076
2076
2076
2074
2074
2074
2081
2081
2081
2079
2079
2079
2077
2077
2077
2077
2077
2077
2077
2077
2077
2077
2081
2081
2081
2070
2070
2070
2078
2078
2078
2080
2080
2080
2080
2077
2077
2077
2080
2080
2080
2079
2079
2079
2081
2081
2081
2078
2078
2078
2078
2075
2075
2075
2080
2080
2080
2073
2073
2073
2078
2078
2078
2077
2077
2077
2077
2080
2080
2080
2078
2078
2078
2084
2084
2084
2079
2079
2079
2077
2077
2077
2077
2076
2076
2076
2079
2079
2079
2080
2080
2080
2078
2078
2078
2079
2079
2079
2079
2078
2078
2078
2078
2078
2078
2075
2075
2075
2082
2082
2082
2076
2076
2076
2076
2076
2076
2076
2078
2078
2078
2072
2072
2072
2080
2080
2080
2077
2077
2077
2077
2078
2078
2078
2079
2079
2079
2077
2077
2077
2081
2081
2081
2076
2076
2076
2076
2077
2077
2077
2076
2076
2076
2080
2080
2080
2079
2079
2079
2076
2076
2076
2076
2077
2077
2077
2077
2077
2077
2081
2081
2081
2080
2080
2080
2077
2077
2077
2077
2077
2077
2077
2079
2079
2079
2075
2075
2075
2080
2080
2080
2075
2075
2075
2075
2076
2076
2076
2079
2079
2079
2073
2073
2073
2081
2081
2081
2076
2076
2076
2076
2079
2079
2079
2079
2079
2079
2077
2077
2077
2075
2075
2075
2081
2081
2081
2081
2075
2075
2075
2079
2079
2079
2078
2078
2078
2081
2081
2081
2073
2073
2073
2073
2075
2075
2075
2079
2079
2079
2077
2077
2077
2079
2079
2079
2077
2077
2077
2077
2079
2079
2079
2080
2080
2080
2077
2077
2077
2080
2080
2080
2075
2075
2075
2075
2077
2077
2077
2071
2071
2071
2077
2077
2077
2078
2078
2078
2074
2074
2074
2074
2078
2078
2078
2078
2078
2078
2073
2073
2073
2082
2082
2082
2077
2077
2077
2077
2077
2077
2077
2084
2084
2084
2077
2077
2077
2079
2079
2079
2072
2072
2072
2072
2076
2076
2076
2079
2079
2079
2077
2077
2077
2080
2080
2080
2074
2074
2074
2074
2080
2080
2080
2076
2076
2076
2079
2079
2079
2080
2080
2080
2076
2076
2076
2076
2080
2080
2080
2076
2076
2076
2076
2076
2076
2081
2081
2081
2075
2075
2075
2075
2077
2077
2077
2076
2076
2076
2077
2077
2077
2082
2082
2082
2075
2075
2075
2075
2079
2079
2079
2076
2076
2076
2079
2079
2079
2080
2080
2080
2075
2075
2075
2075
2071
2071
2071
2076
2076
2076
2078
2078
2078
2080
2080
2080
2076
2076
2076
2076
2078
2078
2078
2075
2075
2075
2079
2079
2079
2078
2078
2078
2074
2074
2074
2074
2074
2074
2074
2078
2078
2078
2080
2080
2080
2080
2080
2080
2081
2081
2081
2081
2076
2076
2076
2082
2082
2082
2078
2078
2078
2080
2080
2080
2079
2079
2079
2079
2076
2076
2076
2077
2077
2077
2077
2077
2077
2080
2080
2080
2077
2077
2077
2077
2075
2075
2075
2079
2079
2079
2077
2077
2077
2081
2081
2081
2081
2081
2081
2081
2076
2076
2076
2077
2077
2077
2094
2094
2094
2075
2075
2075
2078
2078
2078
2078
2086
2086
2086
2081
2081
2081
2079
2079
2079
2074
2074
2074
2074
2074
2074
2074
2080
2080
2080
2079
2079
2079
2077
2077
2077
2078
2078
2078
2078
2078
2078
2078
2078
2078
2078
2077
2077
2077
2078
2078
2078
2081
2081
2081
2076
2076
2076
2076
2078
2078
2078
2084
2084
2084
2077
2077
2077
2079
2079
2079
2077
2077
2077
2077
2081
2081
2081
2079
2079
2079
2076
2076
2076
2079
2079
2079
2076
2076
2076
2076
2077
2077
2077
2078
2078
2078
2080
2080
2080
2077
2077
2077
2076
2076
2076
2076
2078
2078
2078
2081
2081
2081
2081
2081
2081
2080
2080
2080
2077
2077
2077
2077
2077
2077
2077
2077
2077
2077
2075
2075
2075
2077
2077
2077
2077
2077
2077
2077
2080
2080
2080
2075
2075
2075
2076
2076
2076
2075
2075
2075
2079
2079
2079
2079
2077
2077
2077
2078
2078
2078
2078
2078
2078
2081
2081
2081
2074
2074
2074
2074
2074
2074
2074
2080
2080
2080
2078
2078
2078
2078
2078
2078
2077
2077
2077
2077
2077
2077
2077
2081
2081
2081
2076
2076
2076
2079
2079
2079
2076
2076
2076
2076
2074
2074
2074
2081
2081
2081
2075
2075
2075
2077
2077
2077
2076
2076
2076
2076
2076
2076
2076
2079
2079
2079
2078
2078
2078
2080
2080
2080
2079
2079
2079
2079
2075
2075
2075
2077
2077
2077
2079
2079
2079
2081
2081
2081
2074
2074
2074
2074
2078
2078
2078
2076
2076
2076
2080
2080
2080
2080
2080
2080
2074
2074
2074
2074
2073
2073
2073
2075
2075
2075
2078
2078
2078
2080
2080
2080
2075
2075
2075
2075
2078
2078
2078
2077
2077
2077
2080
2080
2080
2077
2077
2077
2082
2082
2082
2082
2078
2078
2078
2082
2082
2082
2081
2081
2081
2080
2080
2080
2070
2070
2070
2070
2076
2076
2076
2074
2074
2074
2079
2079
2079
2079
2079
2079
2073
2073
2073
2073
2077
2077
2077
2081
2081
2081
2079
2079
2079
2081
2081
2081
2070
2070
2070
2070
2077
2077
2077
2079
2079
2079
2079
2079
2079
2079
2079
2079
2079
2079
2079
2079
2079
2079
2079
2080
2080
2080
2079
2079
2079
2082
2082
2082
2078
2078
2078
2078
2075
2075
2075
2079
2079
2079
2076
2076
2076
2082
2082
2082
2073
2073
2073
2073
2077
2077
2077
2077
2077
2077
2078
2078
2078
2080
2080
2080
2075
2075
2075
2075
2071
2071
2071
2080
2080
2080
2077
2077
2077
2080
2080
2080
2076
2076
2076
2076
2077
2077
2077
2079
2079
2079
2074
2074
2074
2081
2081
2081
2079
2079
2079
2079
2073
2073
2073
2077
2077
2077
2079
2079
2079
2082
2082
2082
2075
2075
2075
2075
2082
2082
2082
2080
2080
2080
2079
2079
2079
2081
2081
2081
2076
2076
2076
2076
2078
2078
2078
2078
2078
2078
2080
2080
2080
2074
2074
2074
2078
2078
2078
2078
2073
2073
2073
2079
2079
2079
2078
2078
2078
2076
2076
2076
2076
2076
2076
2076
2075
2075
2075
2077
2077
2077
2080
2080
2080
2080
2080
2080
2075
2075
2075
2075
2077
2077
2077
2078
2078
2078
2081
2081
2081
2081
2081
2081
2071
2071
2071
2071
2077
2077
2077
2080
2080
2080
2076
2076
2076
2078
2078
2078
2078
2078
2078
2078
2079
2079
2079
2081
2081
2081
2077
2077
2077
2082
2082
2082
2075
2075
2075
2075
2082
2082
2082
2075
2075
2075
2079
2079
2079
2080
2080
2080
2079
2079
2079
2079
2076
2076
2076
2078
2078
2078
2075
2075
2075
2085
2085
2085
2072
2072
2072
2072
2077
2077
2077
2080
2080
2080
2079
2079
2079
2079
2079
2079
2076
2076
2076
2076
2072
2072
2072
2078
2078
2078
2075
2075
2075
2078
2078
2078
2077
2077
2077
2077
2077
2077
2077
2078
2078
2078
2078
2078
2078
2081
2081
2081
2076
2076
2076
2076
2079
2079
2079
2080
2080
2080
2079
2079
2079
2081
2081
2081
2076
2076
2076
2076
2078
2078
2078
2075
2075
2075
2079
2079
2079
2083
2083
2083
2074
2074
2074
2074
2075
2075
2075
2081
2081
2081
2080
2080
2080
2080
2080
2080
2077
2077
2077
2077
2078
2078
2078
2082
2082
2082
2078
2078
2078
2078
2078
2078
2076
2076
2076
2076
2079
2079
2079
2074
2074
2074
2082
2082
2082
2080
2080
2080
2073
2073
2073
2073
2079
2079
2079
2080
2080
2080
2076
2076
2076
2080
2080
2080
2075
2075
2075
2075
2075
2075
2075
2077
2077
2077
2080
2080
2080
2082
2082
2082
2074
2074
2074
2074
2076
2076
2076
2078
2078
2078
2077
2077
2077
2079
2079
2079
2075
2075
2075
2075
2078
2078
2078
2080
2080
2080
2079
2079
2079
2079
2079
2079
2077
2077
2077
2077
2075
2075
2075
2080
2080
2080
2080
2080
2080
2079
2079
2079
2071
2071
2071
2071
2076
2076
2076
2075
2075
2075
2077
2077
2077
2083
2083
2083
2075
2075
2075
2075
2077
2077
2077
2079
2079
2079
2076
2076
2076
2081
2081
2081
2073
2073
2073
2073
2071
2071
2071
2078
2078
2078
2077
2077
2077
2081
2081
2081
2077
2077
2077
2077
2074
2074
2074
2080
2080
2080
2077
2077
2077
2078
2078
2078
2078
2078
2078
2078
2079
2079
2079
2077
2077
2077
2078
2078
2078
2077
2077
2077
2074
2074
2074
2074
2079
2079
2079
2079
2079
2079
2078
2078
2078
2079
2079
2079
2073
2073
2073
2073
2072
2072
2072
2078
2078
2078
2078
2078
2078
2080
2080
2080
2077
2077
2077
2077
2076
2076
2076
2079
2079
2079
2078
2078
2078
2077
2077
2077
2075
2075
2075
2075
2070
2070
2070
2079
2079
2079
2078
2078
2078
2079
2079
2079
2076
2076
2076
2076
2076
2076
2076
2077
2077
2077
2076
2076
2076
2083
2083
2083
2076
2076
2076
2076
2077
2077
2077
2078
2078
2078
2077
2077
2077
2081
2081
2081
2073
2073
2073
2073
2076
2076
2076
2080
2080
2080
2076
2076
2076
2079
2079
2079
2076
2076
2076
2076
2075
2075
2075
2076
2076
2076
2075
2075
2075
2081
2081
2081
2077
2077
2077
2077
2074
2074
2074
2081
2081
2081
2079
2079
2079
2083
2083
2083
2076
2076
2076
2076
2076
2076
2076
2077
2077
2077
2072
2072
2072
2086
2086
2086
2074
2074
2074
2074
2079
2079
2079
2078
2078
2078
2078
2078
2078
2079
2079
2079
2078
2078
2078
2078
2088
2088
2088
2080
2080
2080
2076
2076
2076
2079
2079
2079
2074
2074
2074
2074
2074
2074
2074
2080
2080
2080
2077
2077
2077
2079
2079
2079
2078
2078
2078
2078
2076
2076
2076
2081
2081
2081
2081
2081
2081
2077
2077
2077
2076
2076
2076
2076
2074
2074
2074
2076
2076
2076
2080
2080
2080
2080
2080
2080
2072
2072
2072
2072
2075
2075
2075
2082
2082
2082
2078
2078
2078
2078
2078
2078
2074
2074
2074
2074
2077
2077
2077
2077
2077
2077
2077
2077
2077
2080
2080
2080
2075
2075
2075
2075
2072
2072
2072
2078
2078
2078
2074
2074
2074
2080
2080
2080
2079
2079
2079
2079
2079
2079
2079
2077
2077
2077
2077
2077
2077
2077
2077
2077
2081
2081
2081
2081
2079
2079
2079
2078
2078
2078
2077
2077
2077
2081
2081
2081
2077
2077
2077
2077
2077
2077
2077
2077
2077
2077
2078
2078
2078
2078
2078
2078
2074
2074
2074
2074
2075
2075
2075
2078
2078
2078
2078
2078
2078
2078
2078
2078
2076
2076
2076
2076
2078
2078
2078
2072
2072
2072
2079
2079
2079
2088
2088
2088
2076
2076
2076
2076
2076
2076
2076
2078
2078
2078
2079
2079
2079
2075
2075
2075
2076
2076
2076
2076
2075
2075
2075
2080
2080
2080
2076
2076
2076
2075
2075
2075
2076
2076
2076
2076
2078
2078
2078
2080
2080
2080
2079
2079
2079
2081
2081
2081
2067
2067
2067
2067
2071
2071
2071
2080
2080
2080
2077
2077
2077
2080
2080
2080
2075
2075
2075
2075
2078
2078
2078
2075
2075
2075
2073
2073
2073
2081
2081
2081
2074
2074
2074
2074
2077
2077
2077
2076
2076
2076
2076
2076
2076
2077
2077
2077
2074
2074
2074
2074
2072
2072
2072
2081
2081
2081
2077
2077
2077
2079
2079
2079
2077
2077
2077
2077
2076
2076
2076
2078
2078
2078
2073
2073
2073
2079
2079
2079
2078
2078
2078
2078
2074
2074
2074
2078
2078
2078
2076
2076
2076
2079
2079
2079
2076
2076
2076
2076
2077
2077
2077
2076
2076
2076
2077
2077
2077
2077
2077
2077
2076
2076
2076
2076
2078
2078
2078
2080
2080
2080
2079
2079
2079
2080
2080
2080
2075
2075
2075
2075
2078
2078
2078
2081
2081
2081
2079
2079
2079
2080
2080
2080
2077
2077
2077
2077
2074
2074
2074
2078
2078
2078
2077
2077
2077
2081
2081
2081
2076
2076
2076
2076
2078
2078
2078
2076
2076
2076
2081
2081
2081
2076
2076
2076
2081
2081
2081
2081
2074
2074
2074
2076
2076
2076
2081
2081
2081
2084
2084
2084
2072
2072
2072
2072
2075
2075
2075
2080
2080
2080
2080
2080
2080
2080
2080
2080
2076
2076
2076
2076
2083
2083
2083
2079
2079
2079
2079
2079
2079
2079
2079
2079
2077
2077
2077
2077
2073
2073
2073
2079
2079
2079
2078
2078
2078
2079
2079
2079
2076
2076
2076
2076
2078
2078
2078
2081
2081
2081
2078
2078
2078
2081
2081
2081
2079
2079
2079
2079
2076
2076
2076
2083
2083
2083
2076
2076
2076
2081
2081
2081
2079
2079
2079
2079
2077
2077
2077
2077
2077
2077
2079
2079
2079
2080
2080
2080
2074
2074
2074
2074
2078
2078
2078
2076
2076
2076
2077
2077
2077
2083
2083
2083
2079
2079
2079
2079
2076
2076
2076
2084
2084
2084
2081
2081
2081
2081
2081
2081
2077
2077
2077
2077
2075
2075
2075
2075
2075
2075
2070
2070
2070
2082
2082
2082
2076
2076
2076
2076
2076
2076
2076
2079
2079
2079
2076
2076
2076
2080
2080
2080
2073
2073
2073
2073
2077
2077
2077
2082
2082
2082
2078
2078
2078
2082
2082
2082
2077
2077
2077
2077
2077
2077
2077
2079
2079
2079
2077
2077
2077
2079
2079
2079
2076
2076
2076
2076
2075
2075
2075
2079
2079
2079
2079
2079
2079
2078
2078
2078
2075
2075
2075
2075
2075
2075
2075
2075
2075
2075
2076
2076
2076
2082
2082
2082
2072
2072
2072
2072
2077
2077
2077
2079
2079
2079
2077
2077
2077
2080
2080
2080
2073
2073
2073
2073
2078
2078
2078
2079
2079
2079
2079
2079
2079
2079
2079
2079
2076
2076
2076
2076
2074
2074
2074
2079
2079
2079
2077
2077
2077
2079
2079
2079
2074
2074
2074
2074
2075
2075
2075
2082
2082
2082
2078
2078
2078
2082
2082
2082
2076
2076
2076
2076
2077
2077
2077
2081
2081
2081
2077
2077
2077
2077
2077
2077
2080
2080
2080
2080
2079
2079
2079
2078
2078
2078
2076
2076
2076
2078
2078
2078
2074
2074
2074
2074
2078
2078
2078
2078
2078
2078
2078
2078
2078
2080
2080
2080
2077
2077
2077
2077
2076
2076
2076
2079
2079
2079
2080
2080
2080
2080
2080
2080
2076
2076
2076
2076
2075
2075
2075
2078
2078
2078
2080
2080
2080
2080
2080
2080
2076
2076
2076
2076
2077
2077
2077
2080
2080
2080
2082
2082
2082
2076
2076
2076
2077
2077
2077
2077
2077
2077
2077
2080
2080
2080
2077
2077
2077
2081
2081
2081
2079
2079
2079
2079
2078
2078
2078
2080
2080
2080
2075
2075
2075
2078
2078
2078
2075
2075
2075
2075
2076
2076
2076
2076
2076
2076
2080
2080
2080
2081
2081
2081
2077
2077
2077
2077
2076
2076
2076
2079
2079
2079
2079
2079
2079
2082
2082
2082
2079
2079
2079
2079
2077
2077
2077
2079
2079
2079
2080
2080
2080
2079
2079
2079
2072
2072
2072
2072
2078
2078
2078
2079
2079
2079
2080
2080
2080
2080
2080
2080
2076
2076
2076
2076
2077
2077
2077
2069
2069
2069
2079
2079
2079
2079
2079
2079
2076
2076
2076
2076
2074
2074
2074
2077
2077
2077
2081
2081
2081
2079
2079
2079
2078
2078
2078
2078
2077
2077
2077
2079
2079
2079
2074
2074
2074
2080
2080
2080
2078
2078
2078
2078
2077
2077
2077
2081
2081
2081
2077
2077
2077
2081
2081
2081
2082
2082
2082
2082
2078
2078
2078
2076
2076
2076
2079
2079
2079
2080
2080
2080
2074
2074
2074
2074
2076
2076
2076
2079
2079
2079
2077
2077
2077
2080
2080
2080
2074
2074
2074
2074
2080
2080
2080
2079
2079
2079
2077
2077
2077
2081
2081
2081
2074
2074
2074
2074
2078
2078
2078
2079
2079
2079
2074
2074
2074
2076
2076
2076
2077
2077
2077
2077
2080
2080
2080
2080
2080
2080
2076
2076
2076
2078
2078
2078
2075
2075
2075
2075
2072
2072
2072
2077
2077
2077
2077
2077
2077
2076
2076
2076
2075
2075
2075
2075
2072
2072
2072
2079
2079
2079
2078
2078
2078
2078
2078
2078
2076
2076
2076
2076
2074
2074
2074
2080
2080
2080
2080
2080
2080
2077
2077
2077
2075
2075
2075
2075
2077
2077
2077
2077
2077
2077
2081
2081
2081
2076
2076
2076
2076
2076
2076
2076
2076
2076
2076
2077
2077
2077
2082
2082
2082
2082
2082
2082
2074
2074
2074
2074
2077
2077
2077
2077
2077
2077
2076
2076
2076
2080
2080
2080
2077
2077
2077
2077
2078
2078
2078
2077
2077
2077
2079
2079
2079
2080
2080
2080
2078
2078
2078
2078
2072
2072
2072
2080
2080
2080
2070
2070
2070
2081
2081
2081
2075
2075
2075
2075
2076
2076
2076
2077
2077
2077
2077
2077
2077
2077
2077
2077
2079
2079
2079
2079
2077
2077
2077
2082
2082
2082
2079
2079
2079
2079
2079
2079
2075
2075
2075
2075
2076
2076
2076
2077
2077
2077
2077
2077
2077
2078
2078
2078
2076
2076
2076
2076
2077
2077
2077
2079
2079
2079
2078
2078
2078
2083
2083
2083
2071
2071
2071
2071
2078
2078
2078
2079
2079
2079
2079
2079
2079
2079
2079
2079
2076
2076
2076
2076
2078
2078
2078
2081
2081
2081
2078
2078
2078
2080
2080
2080
2073
2073
2073
2073
2075
2075
2075
2078
2078
2078
2078
2078
2078
2081
2081
2081
2079
2079
2079
2079
2077
2077
2077
2080
2080
2080
2076
2076
2076
2075
2075
2075
2079
2079
2079
2079
2074
2074
2074
2085
2085
2085
2077
2077
2077
2082
2082
2082
2081
2081
2081
2081
2077
2077
2077
2081
2081
2081
2073
2073
2073
2087
2087
2087
2075
2075
2075
2075
2078
2078
2078
2078
2078
2078
2079
2079
2079
2078
2078
2078
2078
2078
2078
2078
2078
2078
2078
2077
2077
2077
2073
2073
2073
2078
2078
2078
2072
2072
2072
2072
2075
2075
2075
2081
2081
2081
2083
2083
2083
2081
2081
2081
2078
2078
2078
2078
2076
2076
2076
2077
2077
2077
2081
2081
2081
2078
2078
2078
2076
2076
2076
2076
2076
2076
2076
2078
2078
2078
2073
2073
2073
2078
2078
2078
2076
2076
2076
2076
2078
2078
2078
2081
2081
2081
2072
2072
2072
2080
2080
2080
2076
2076
2076
2076
2077
2077
2077
2079
2079
2079
2076
2076
2076
2079
2079
2079
2078
2078
2078
2078
2078
2078
2078
2078
2078
2078
2079
2079
2079
2077
2077
2077
2077
2077
2077
2077
2079
2079
2079
2079
2079
2079
2079
2079
2079
2077
2077
2077
2074
2074
2074
2074
2071
2071
2071
2081
2081
2081
2079
2079
2079
2080
2080
2080
2079
2079
2079
2079
2079
2079
2079
2076
2076
2076
2068
2068
2068
2079
2079
2079
2073
2073
2073
2073
2079
2079
2079
2077
2077
2077
2077
2077
2077
2078
2078
2078
2073
2073
2073
2073
2074
2074
2074
2076
2076
2076
2076
2076
2076
2077
2077
2077
2076
2076
2076
2076
2073
2073
2073
2077
2077
2077
2077
2077
2077
2079
2079
2079
2079
2079
2079
2079
2079
2079
2079
2080
2080
2080
2077
2077
2077
2080
2080
2080
2074
2074
2074
2074
2079
2079
2079
2076
2076
2076
2074
2074
2074
2084
2084
2084
2075
2075
2075
2075
2078
2078
2078
2081
2081
2081
2078
2078
2078
2085
2085
2085
2078
2078
2078
2078
2077
2077
2077
2080
2080
2080
2076
2076
2076
2079
2079
2079
2077
2077
2077
2077
2079
2079
2079
2079
2079
2079
2079
2079
2079
2081
2081
2081
2077
2077
2077
2077
2077
2077
2077
2075
2075
2075
2080
2080
2080
2078
2078
2078
2076
2076
2076
2076
2076
2076
2076
2082
2082
2082
2077
2077
2077
2082
2082
2082
2073
2073
2073
2073
2078
2078
2078
2079
2079
2079
2083
2083
2083
2079
2079
2079
2074
2074
2074
2074
2079
2079
2079
2079
2079
2079
2078
2078
2078
2081
2081
2081
2079
2079
2079
2079
2078
2078
2078
2077
2077
2077
2076
2076
2076
2078
2078
2078
2082
2082
2082
2082
2080
2080
2080
2078
2078
2078
2077
2077
2077
2076
2076
2076
2079
2079
2079
2079
2080
2080
2080
2084
2084
2084
2076
2076
2076
2081
2081
2081
2080
2080
2080
2080
2078
2078
2078
2080
2080
2080
2077
2077
2077
2079
2079
2079
2074
2074
2074
2074
2076
2076
2076
2079
2079
2079
2078
2078
2078
2079
2079
2079
2075
2075
2075
2075
2077
2077
2077
2077
2077
2077
2081
2081
2081
2081
2081
2081
2074
2074
2074
2074
2074
2074
2074
2084
2084
2084
2077
2077
2077
2083
2083
2083
2076
2076
2076
2076
2079
2079
2079
2074
2074
2074
2076
2076
2076
2081
2081
2081
2074
2074
2074
2074
2080
2080
2080
2078
2078
2078
2079
2079
2079
2078
2078
2078
2083
2083
2083
2083
2077
2077
2077
2076
2076
2076
2076
2076
2076
2081
2081
2081
2079
2079
2079
2079
2078
2078
2078
2077
2077
2077
2081
2081
2081
2080
2080
2080
2074
2074
2074
2074
2079
2079
2079
2077
2077
2077
2077
2077
2077
2079
2079
2079
2077
2077
2077
2077
2078
2078
2078
2077
2077
2077
2085
2085
2085
2082
2082
2082
2074
2074
2074
2074
2077
2077
2077
2076
2076
2076
2082
2082
2082
2081
2081
2081
2074
2074
2074
2074
2076
2076
2076
2078
2078
2078
2081
2081
2081
2079
2079
2079
2074
2074
2074
2074
2079
2079
2079
2078
2078
2078
2082
2082
2082
2080
2080
2080
2077
2077
2077
2077
2074
2074
2074
2080
2080
2080
2080
2080
2080
2078
2078
2078
2076
2076
2076
2076
2076
2076
2076
2077
2077
2077
2077
2077
2077
2083
2083
2083
2071
2071
2071
2071
2077
2077
2077
2078
2078
2078
2081
2081
2081
2078
2078
2078
2075
2075
2075
2075
2077
2077
2077
2076
2076
2076
2076
2076
2076
2079
2079
2079
2079
2079
2079
2079
2078
2078
2078
2072
2072
2072
2076
2076
2076
2080
2080
2080
2076
2076
2076
2076
2076
2076
2076
2082
2082
2082
2080
2080
2080
2077
2077
2077
2082
2082
2082
2082
2077
2077
2077
2081
2081
2081
2078
2078
2078
2076
2076
2076
2072
2072
2072
2072
2078
2078
2078
2077
2077
2077
2078
2078
2078
2078
2078
2078
2075
2075
2075
2075
2078
2078
2078
2078
2078
2078
2076
2076
2076
2079
2079
2079
2072
2072
2072
2072
2080
2080
2080
2077
2077
2077
2080
2080
2080
2079
2079
2079
2076
2076
2076
2076
2077
2077
2077
2085
2085
2085
2075
2075
2075
2081
2081
2081
2082
2082
2082
2082
2072
2072
2072
2081
2081
2081
2077
2077
2077
2080
2080
2080
2073
2073
2073
2073
2074
2074
2074
2080
2080
2080
2076
2076
2076
2077
2077
2077
2080
2080
2080
2080
2077
2077
2077
2076
2076
2076
2078
2078
2078
2079
2079
2079
2074
2074
2074
2074
2079
2079
2079
2079
2079
2079
2077
2077
2077
2079
2079
2079
2076
2076
2076
2076
2071
2071
2071
2080
2080
2080
2079
2079
2079
2082
2082
2082
2078
2078
2078
2078
2079
2079
2079
2079
2079
2079
2078
2078
2078
2072
2072
2072
2072
2072
2072
2072
2072
2072
2072
2079
2079
2079
2077
2077
2077
2080
2080
2080
2074
2074
2074
2074
2076
2076
2076
2078
2078
2078
2078
2078
2078
2080
2080
2080
2075
2075
2075
2075
2078
2078
2078
2083
2083
2083
2075
2075
2075
2085
2085
2085
2078
2078
2078
2078
2076
2076
2076
2077
2077
2077
2075
2075
2075
2084
2084
2084
2081
2081
2081
2081
2076
2076
2076
2078
2078
2078
2077
2077
2077
2079
2079
2079
2080
2080
2080
2080
2077
2077
2077
2077
2077
2077
2075
2075
2075
2078
2078
2078
2078
2078
2078
2078
2076
2076
2076
2079
2079
2079
2073
2073
2073
2079
2079
2079
2077
2077
2077
2077
2074
2074
2074
2079
2079
2079
2077
2077
2077
2079
2079
2079
2076
2076
2076
2076
2076
2076
2076
2078
2078
2078
2081
2081
2081
2079
2079
2079
2077
2077
2077
2077
2079
2079
2079
2080
2080
2080
2076
2076
2076
2078
2078
2078
2078
2078
2078
2078
2077
2077
2077
2078
2078
2078
2075
