2009
2000
2000
2000
2012
2012
2012
2008
2008
2008
2013
2013
2013
2013
2015
2015
2015
2012
2012
2012
2012
2012
2012
2006
2006
2006
2011
2011
2011
2011
2013
2013
2013
2008
2008
2008
2011
2011
2011
2013
2013
2013
2013
2013
2013
2013
2010
2010
2010
2006
2006
2006
2014
2014
2014
2010
2010
2010
2008
2008
2008
2008
2006
2006
2006
2005
2005
2005
2005
2005
2005
2007
2007
2007
2012
2012
2012
2012
2014
2014
2014
2007
2007
2012
2012
2008
2008
2008
2013
2013
2013
2002
2002
2002
2012
2012
2012
2012
2012
2012
2012
2008
2008
2008
2012
2012
2012
2008
2008
2008
2015
2015
2015
2015
2013
2013
2013
2005
2005
2005
2013
2013
2013
2009
2009
2009
2011
2011
2011
2011
2008
2008
2008
2009
2009
2009
2015
2015
2015
2010
2010
2010
2009
2009
2009
2009
2014
2014
2014
2010
2010
2010
2008
2008
2008
2003
2003
2003
2011
2011
2011
2011
2012
2012
2012
2009
2009
2009
2010
2010
2010
2007
2007
2007
2013
2013
2013
2013
2012
2012
2012
2007
2007
2007
2013
2013
2013
2009
2009
2009
2014
2014
2014
2014
2009
2009
2009
2008
2008
2008
2012
2012
2012
2013
2013
2013
2010
2010
2010
2010
2009
2009
2009
2012
2012
2012
2010
2010
2010
2006
2006
2006
2012
2012
2012
2012
2010
2010
2010
2009
2009
2009
2010
2010
2010
2009
2009
2009
2012
2012
2012
2012
2007
2007
2007
2006
2006
2006
2013
2013
2013
2010
2010
2010
2012
2012
2012
2012
2009
2009
2009
2008
2008
2008
2012
2012
2012
2008
2008
2008
2010
2010
2010
2010
2011
2011
2011
2011
2011
2011
2012
2012
2012
2007
2007
2007
2012
2012
2012
2012
2013
2013
2013
2008
2008
2008
2013
2013
2013
2010
2010
2010
2008
2008
2008
2008
2011
2011
2011
2009
2009
2009
2012
2012
2012
2004
2004
2004
2013
2013
2013
2013
2011
2011
2011
2008
2008
2008
2004
2004
2004
2008
2008
2008
2013
2013
2013
2013
2013
2013
2013
2008
2008
2008
2012
2012
2012
2010
2010
2010
2014
2014
2014
2014
2011
2011
2011
2010
2010
2010
2013
2013
2013
2016
2016
2016
2019
2019
2019
2019
2011
2011
2011
2008
2008
2008
2012
2012
2012
2011
2011
2011
2012
2012
2012
2012
2010
2010
2010
2010
2010
2010
2014
2014
2014
2008
2008
2008
2015
2015
2015
2015
2013
2013
2013
2004
2004
2004
2014
2014
2014
2009
2009
2009
2009
2009
2009
2009
2017
2017
2017
2011
2011
2011
2009
2009
2009
2013
2013
2013
2016
2016
2016
2016
2014
2014
2014
2009
2009
2009
2009
2009
2009
2009
2009
2009
2011
2011
2011
2011
2013
2013
2013
2014
2014
2014
2011
2011
2011
2009
2009
2009
2012
2012
2012
2012
2012
2012
2012
2007
2007
2007
2013
2013
2013
2010
2010
2010
2009
2009
2009
2009
2012
2012
2012
2013
2013
2013
2011
2011
2011
2001
2001
2001
2011
2011
2011
2011
2008
2008
2008
2008
2008
2008
2009
2009
2009
2010
2010
2010
2012
2012
2012
2012
2012
2012
2012
2006
2006
2006
2011
2011
2011
2009
2009
2009
2013
2013
2013
2013
2015
2015
2015
2008
2008
2008
2013
2013
2013
2010
2010
2010
2012
2012
2012
2012
2012
2012
2012
2010
2010
2010
2009
2009
2009
2008
2008
2008
2009
2009
2009
2009
2007
2007
2007
2009
2009
2009
2007
2007
2007
2009
2009
2009
2010
2010
2010
2010
2021
2021
2021
2009
2009
2009
2012
2012
2012
2007
2007
2007
2013
2013
2013
2013
2010
2010
2010
2008
2008
2008
2014
2014
2014
2009
2009
2009
2012
2012
2012
2012
2009
2009
2009
2012
2012
2012
2013
2013
2013
2013
2013
2013
2023
2023
2023
2023
2014
2014
2014
2011
2011
2011
2013
2013
2013
2014
2014
2014
2014
2014
2014
2014
2011
2011
2011
2009
2009
2009
2024
2024
2024
2010
2010
2010
2011
2011
2011
2011
2012
2012
2012
2006
2006
2006
2013
2013
2013
2008
2008
2008
2014
2014
2014
2014
2014
2014
2014
2012
2012
2012
2009
2009
2009
2011
2011
2011
2009
2009
2009
2009
2010
2010
2010
2008
2008
2008
2013
2013
2013
2011
2011
2011
2007
2007
2007
2007
2014
2014
2014
2009
2009
2009
2012
2012
2012
2008
2008
2008
2011
2011
2011
2011
2013
2013
2013
2001
2001
2001
2013
2013
2013
2011
2011
2011
2011
2011
2011
2011
2007
2007
2007
2007
2007
2007
2011
2011
2011
2011
2011
2011
2011
2011
2011
2011
2012
2012
2012
2005
2005
2005
2015
2015
2015
2007
2007
2007
2011
2011
2011
2011
2012
2012
2012
2003
2003
2003
2012
2012
2012
2011
2011
2011
2013
2013
2013
2013
2011
2011
2011
2010
2010
2010
2012
2012
2012
2008
2008
2008
2012
2012
2012
2012
2011
2011
2011
2010
2010
2010
2011
2011
2011
2010
2010
2010
2012
2012
2012
2012
2013
2013
2013
2009
2009
2009
2010
2010
2010
2008
2008
2008
2014
2014
2014
2014
2014
2014
2014
2009
2009
2009
2010
2010
2010
2005
2005
2005
2013
2013
2013
2013
2011
2011
2011
2010
2010
2010
2012
2012
2012
2008
2008
2008
2011
2011
2011
2011
2014
2014
2014
2010
2010
2010
2016
2016
2016
2009
2009
2009
2011
2011
2011
2011
2011
2011
2011
2014
2014
2014
2011
2011
2011
2006
2006
2006
2014
2014
2014
2014
2008
2008
2008
2013
2013
2013
2013
2013
2013
2011
2011
2011
2010
2010
2010
2010
2010
2010
2010
2007
2007
2007
2010
2010
2010
2007
2007
2007
2013
2013
2013
2013
2010
2010
2010
2009
2009
2009
2012
2012
2012
2008
2008
2008
2009
2009
2009
2009
2015
2015
2015
2009
2009
2009
2012
2012
2012
2009
2009
2009
2012
2012
2012
2012
2013
2013
2013
2009
2009
2009
2020
2020
2020
2009
2009
2009
2017
2017
2017
2017
2014
2014
2014
2013
2013
2013
2014
2014
2014
2009
2009
2009
2012
2012
2012
2012
2006
2006
2006
2007
2007
2007
