2181
2181
2181
2182
2182
2182
2182
2179
2179
2179
2183
2183
2183
2180
2180
2180
2178
2178
2178
2180
2180
2180
2180
2179
2179
2179
2183
2183
2183
2182
2182
2182
2181
2181
2181
2179
2179
2179
2179
2179
2179
2179
2180
2180
2180
2182
2182
2182
2180
2180
2180
2181
2181
2181
2181
2182
2182
2182
2181
2181
2181
2179
2179
2179
2183
2183
2183
2182
2182
2182
2182
2181
2181
2181
2182
2182
2182
2179
2179
2179
2182
2182
2182
2182
2182
2182
2182
2182
2182
2182
2178
2178
2178
2173
2173
2173
2181
2181
2181
2177
2177
2177
2180
2180
2180
2180
2175
2175
2175
2180
2180
2180
2175
2175
2175
2180
2180
2180
2181
2181
2181
2181
2177
2177
2177
2177
2177
2177
2181
2181
2181
2184
2184
2184
2180
2180
2180
2180
2178
2178
2178
2182
2182
2182
2179
2179
2179
2181
2181
2181
2178
2178
2178
2178
2174
2174
2174
2178
2178
2178
2179
2179
2179
2182
2182
2182
2183
2183
2183
2183
2179
2179
2179
2180
2180
2180
2183
2183
2183
2181
2181
2181
2181
2181
2181
2181
2181
2181
2181
2182
2182
2182
2182
2182
2182
2181
2181
2181
2181
2181
2181
2181
2190
2190
2190
2174
2174
2174
2179
2179
2179
2177
2177
2177
2181
2181
2181
2181
2181
2181
2181
2182
2182
2182
2185
2185
2185
2182
2182
2182
2184
2184
2184
2184
2179
2179
2179
2180
2180
2180
2181
2181
2181
2185
2185
2185
2181
2181
2181
2181
2177
2177
2177
2181
2181
2181
2181
2181
2181
2182
2182
2182
2185
2185
2185
2185
2180
2180
2180
2183
2183
2183
2180
2180
2180
2181
2181
2181
2180
2180
2180
2180
2180
2180
2180
2183
2183
2183
2180
2180
2180
2181
2181
2181
2180
2180
2180
2180
2177
2177
2177
2182
2182
2182
2179
2179
2179
2182
2182
2182
2180
2180
2180
2180
2178
2178
2178
2189
2189
2189
2181
2181
2181
2178
2178
2178
2180
2180
2180
2180
2181
2181
2181
2183
2183
2183
2173
2173
2173
2182
2182
2182
2179
2179
2179
2179
2177
2177
2177
2179
2179
2179
2183
2183
2183
2179
2179
2179
2182
2182
2182
2182
2178
2178
2178
2180
2180
2180
2178
2178
2178
2179
2179
2179
2179
2179
2179
2179
2181
2181
2181
2182
2182
2182
2181
2181
2181
2180
2180
2180
2182
2182
2182
2182
2180
2180
2180
2181
2181
2181
2180
2180
2180
2180
2180
2180
2181
2181
2181
2181
2178
2178
2178
2182
2182
2182
2177
2177
2177
2182
2182
2182
2180
2180
2180
2180
2180
2180
2180
2184
2184
2184
2180
2180
2180
2179
2179
2179
2181
2181
2181
2181
2181
2181
2181
2181
2181
2181
2182
2182
2182
2182
2182
2182
2178
2178
2178
2178
2179
2179
2179
2182
2182
2182
2178
2178
2178
2181
2181
2181
2179
2179
2179
2179
2181
2181
2181
2181
2181
2181
2180
2180
2180
2179
2179
2179
2185
2185
2185
2185
2181
2181
2181
2181
2181
2181
2180
2180
2180
2183
2183
2183
2182
2182
2182
2182
2181
2181
2181
2180
2180
2180
2179
2179
2179
2182
2182
2182
2184
2184
2184
2184
2184
2184
2184
2183
2183
2183
2183
2183
2183
2180
2180
2180
2179
2179
2179
2179
2182
2182
2182
2175
2175
2175
2179
2179
2179
2179
2179
2179
2182
2182
2182
2182
2182
2182
2182
2183
2183
2183
2176
2176
2176
2180
2180
2180
2178
2178
2178
2178
2181
2181
2181
2183
2183
2183
2179
2179
2179
2185
2185
2185
2181
2181
2181
2181
2184
2184
2184
2182
2182
2182
2179
2179
2179
2182
2182
2182
2180
2180
2180
2180
2181
2181
2181
2180
2180
2180
2181
2181
2181
2180
2180
2180
2179
2179
2179
2179
2182
2182
2182
2180
2180
2180
2181
2181
2181
2182
2182
2182
2179
2179
2179
2179
2184
2184
2184
2181
2181
2181
2182
2182
2182
2181
2181
2181
2182
2182
2182
2182
2181
2181
2181
2182
2182
2182
2180
2180
2180
2180
2180
2180
2179
2179
2179
2179
2181
2181
2181
2180
2180
2180
2184
2184
2184
2181
2181
2181
2177
2177
2177
2177
2182
2182
2182
2181
2181
2181
2181
2181
2181
2184
2184
2184
2182
2182
2182
2182
2180
2180
2180
2181
2181
2181
2180
2180
2180
2181
2181
2181
2175
2175
2175
2175
2179
2179
2179
2182
2182
2182
2181
2181
2181
2182
2182
2182
2178
2178
2178
2178
2179
2179
2179
2178
2178
2178
2181
2181
2181
2179
2179
2179
2178
2178
2178
2178
2173
2173
2173
2178
2178
2178
2177
2177
2177
2185
2185
2185
2180
2180
2180
2180
2180
2180
2180
2184
2184
2184
2182
2182
2182
2179
2179
2179
2181
2181
2181
2181
2182
2182
2182
2180
2180
2180
2184
2184
2184
2179
2179
2179
2185
2185
2185
2185
2180
2180
2180
2183
2183
2183
2181
2181
2181
2179
2179
2179
2185
2185
2185
2185
2180
2180
2180
2181
2181
2181
2181
2181
2181
2180
2180
2180
2183
2183
2183
2183
2176
2176
2176
2180
2180
2180
2183
2183
2183
2182
2182
2182
2183
2183
2183
2183
2181
2181
2181
2181
2181
2181
2180
2180
2180
2178
2178
2178
2183
2183
2183
2183
2180
2180
2180
2179
2179
2179
2180
2180
2180
2181
2181
2181
2185
2185
2185
2185
2181
2181
2181
2181
2181
2181
2182
2182
2182
2183
2183
2183
2186
2186
2186
2186
2180
2180
2180
2183
2183
2183
2179
2179
2179
2183
2183
2183
2189
2189
2189
2189
2180
2180
2180
2181
2181
2181
2183
2183
2183
2183
2183
2183
2183
2183
2183
2183
2180
2180
2180
2183
2183
2183
2181
2181
2181
2180
2180
2180
2174
2174
2174
2174
2179
2179
2179
2181
2181
2181
2180
2180
2180
2177
2177
2177
2180
2180
2180
2180
2182
2182
2182
2182
2182
2182
2180
2180
2180
2181
2181
2181
2186
2186
2186
2186
2179
2179
2179
2181
2181
2181
2180
2180
2180
2183
2183
2183
2173
2173
2173
2173
2181
2181
2181
2179
2179
2179
2182
2182
2182
2185
2185
2185
2181
2181
