2059
2071
2071
2071
2071
2066
2066
2066
2063
2063
2063
2066
2066
2066
2061
2061
2061
2068
2068
2068
2068
2066
2066
2066
2062
2062
2062
2068
2068
2068
2060
2060
2060
2064
2064
2064
2064
2066
2066
2066
2071
2071
2071
2066
2066
2066
2071
2071
2071
2064
2064
2064
2064
2065
2065
2065
2061
2061
2061
2067
2067
2067
2062
2062
2062
2066
2066
2066
2066
2065
2065
2065
2061
2061
2061
2068
2068
2068
2061
2061
2061
2065
2065
2065
2065
2066
2066
2066
2062
2062
2062
2059
2059
2059
2063
2063
2063
2064
2064
2064
2064
2065
2065
2065
2064
2064
2064
2067
2067
2067
2058
2058
2058
2067
2067
2067
2067
2065
2065
2065
2062
2062
2062
2068
2068
2068
2066
2066
2066
2064
2064
2064
2064
2063
2063
2063
2060
2060
2060
2073
2073
2073
2062
2062
2062
2066
2066
2066
2066
2066
2066
2066
2061
2061
2061
2066
2066
2066
2061
2061
2061
2064
2064
2064
2064
2065
2065
2065
2064
2064
2064
2066
2066
2066
2062
2062
2062
2065
2065
2065
2065
2065
2065
2065
2064
2064
2064
2068
2068
2068
2062
2062
2062
2065
2065
2065
2065
2068
2068
2068
2063
2063
2063
2066
2066
2066
2063
2063
2063
2069
2069
2069
2069
2067
2067
2067
2060
2060
2060
2069
2069
2069
2058
2058
2058
2066
2066
2066
2066
2065
2065
2065
2061
2061
2061
2063
2063
2063
2062
2062
2062
2065
2065
2065
2065
2062
2062
2062
2062
2062
2062
2061
2061
2061
2061
2061
2061
2062
2062
2062
2062
2067
2067
2067
2062
2062
2062
2067
2067
2067
2061
2061
2061
2064
2064
2064
2064
2065
2065
2065
2058
2058
2058
2067
2067
2067
2061
2061
2061
2067
2067
2067
2067
2069
2069
2069
2061
2061
2061
2066
2066
2066
2063
2063
2063
2065
2065
2065
2065
2066
2066
2066
2062
2062
2062
2063
2063
2063
2059
2059
2059
2067
2067
2067
2067
2066
2066
2066
2061
2061
2061
2070
2070
2070
2061
2061
2061
2067
2067
2067
2067
2067
2067
2067
2062
2062
2062
2064
2064
2064
2063
2063
2063
2065
2065
2065
2065
2067
2067
2067
2061
2061
2061
2064
2064
2064
2061
2061
2061
2064
2064
2064
2064
2065
2065
2065
2063
2063
2063
2065
2065
2065
2063
2063
2063
2067
2067
2067
2067
2065
2065
2065
2058
2058
2058
2066
2066
2066
2061
2061
2061
2065
2065
2065
2065
2066
2066
2066
2063
2063
2063
2068
2068
2068
2061
2061
2061
2066
2066
2066
2066
2069
2069
2069
2062
2062
2062
2063
2063
2063
2061
2061
2061
2062
2062
2062
2062
2066
2066
2066
2062
2062
2062
2066
2066
2066
2064
2064
2064
2065
2065
2065
2065
2066
2066
2066
2063
2063
2063
2071
2071
2071
2063
2063
2063
2066
2066
2066
2066
2063
2063
2063
2062
2062
2062
2069
2069
2069
2060
2060
2060
2068
2068
2068
2068
2066
2066
2066
2061
2061
2061
2064
2064
2064
2061
2061
2061
2065
2065
2065
2065
2065
2065
2065
2059
2059
2059
2068
2068
2068
2059
2059
2059
2065
2065
2065
2065
2063
2063
2063
2062
2062
2062
2067
2067
2067
2064
2064
2064
2065
2065
2065
2065
2070
2070
2070
2061
2061
2061
2070
2070
2070
2062
2062
2062
2060
2060
2060
2060
2063
2063
2063
2064
2064
2064
2064
2064
2064
2061
2061
2061
2066
2066
2066
2066
2068
2068
2068
2064
2064
2064
2065
2065
2065
2061
2061
2061
2065
2065
2065
2065
2067
2067
2067
2062
2062
2062
2068
2068
2068
2061
2061
2061
2066
2066
2066
2066
2068
2068
2068
2062
2062
2062
2065
2065
2065
2062
2062
2062
2068
2068
2068
2068
2066
2066
2066
2066
2066
2066
2065
2065
2065
2060
2060
2060
2063
2063
2063
2063
2071
2071
2071
2062
2062
2062
2066
2066
2066
2062
2062
2062
2064
2064
2064
2064
2066
2066
2066
2062
2062
2062
2065
2065
2065
2064
2064
2064
2068
2068
2068
2068
2065
2065
2065
2059
2059
2059
2067
2067
2067
2062
2062
2062
2066
2066
2066
2066
2063
2063
2063
2064
2064
2064
2065
2065
2065
2065
2065
2065
2064
2064
2064
2064
2067
2067
2067
2061
2061
2061
2064
2064
2064
2058
2058
2058
2067
2067
2067
2067
2066
2066
2066
2062
2062
2062
2066
2066
2066
2057
2057
2057
2075
2075
2075
2075
2065
2065
2065
2057
2057
2057
2065
2065
2065
2060
2060
2060
2072
2072
2072
2072
2061
2061
2061
2061
2061
2061
2066
2066
2066
2059
2059
2059
2066
2066
2066
2066
2064
2064
2064
2061
2061
2061
2068
2068
2068
2061
2061
2061
2067
2061
2061
2061
2065
2065
2065
2065
2065
2065
2065
2062
2062
2062
2065
2065
2065
2062
2062
2062
2066
2066
2066
2066
2067
2067
2067
2063
2063
2063
2063
2063
2063
2061
2061
2061
2068
2068
2068
2068
2067
2067
2067
2062
2062
2062
2065
2065
2065
2060
2060
2060
2068
2068
2068
2068
2064
2064
2064
2065
2065
2065
2065
2065
2065
2060
2060
2060
2065
2065
2065
2065
2068
2068
2068
2059
2059
2059
2066
2066
2066
2060
2060
2060
2066
2066
2066
2066
2064
2064
2064
2059
2059
2059
2065
2065
2065
2063
2063
2063
2063
2063
2063
2063
2063
2063
2063
2058
2058
2058
2062
2062
2062
2067
2067
2067
2060
2060
2060
2066
2066
2066
2066
2066
2066
2066
2060
2060
2060
2064
2064
2064
2058
2058
2058
2064
2064
2064
2064
2067
2067
2067
2058
2058
2058
2066
2066
2066
2059
2059
2059
2068
2068
2068
2068
2066
2066
2066
2062
2062
2062
2066
2066
2066
2065
2065
2065
2069
2069
2069
2069
2065
2065
2065
2060
2060
2060
2072
2072
2072
2060
2060
2060
2065
2065
2065
2065
2068
2068
2068
2059
2059
2059
2060
2060
2060
2060
2060
2060
2062
2062
2062
2062
2063
2063
2063
2060
2060
2060
2066
2066
2066
2062
2062
2062
2067
2067
2067
2067
2066
2065
2065
2067
2067
2067
2060
2060
2060
2068
2068
2068
2058
2058
2058
2068
2068
2068
2068
2065
2065
2065
2062
2062
2062
2066
2066
2066
2061
2061
2061
2069
2069
2069
2069
2065
2065
2065
2059
2059
2059
2066
2066
2066
2061
2061
2061
2066
2066
2066
2066
2062
2062
2062
2059
2059
2059
2067
2067
2067
2061
2061
2061
2066
2066
2066
2066
2065
2065
2065
2065
2065
2065
2063
2063
2063
2061
2061
2061
2066
2066
2066
2066
2065
2065
2065
2060
2060
2060
2068
2068
2068
2062
2062
2062
2066
2066
2066
2066
2062
2062
2062
2062
2062
2062
2063
2063
2063
2060
2060
2060
2060
2060
2060
2067
2067
2067
2067
2065
2065
2065
2053
2053
2053
2067
2067
2067
2061
2061
2061
2064
2064
2064
2064
2064
2064
2064
2062
2062
2062
2066
2066
2066
2062
2062
2062
2066
2066
2066
2066
2062
2062
2062
2061
2061
2061
2064
2064
2064
2062
2062
2062
2064
2064
2064
2064
2065
2065
2065
2061
2061
2061
2065
2065
2065
2060
2060
2060
2068
2068
2068
2068
2064
2064
2064
2059
2059
2059
2067
2067
2067
2057
2057
2057
2063
2063
2063
2063
2066
2066
2066
2064
2064
2064
2064
2064
2064
2059
2059
2059
2066
2066
2066
2066
2066
2066
2066
2062
2062
2062
2069
2061
2061
2074
2074
2074
2058
2058
2058
2067
2067
2067
2067
2056
2056
2056
2061
2061
2061
2066
2066
2066
2061
2061
2061
2065
2065
2065
2065
2066
2066
2066
2061
2061
2061
2070
2070
2070
2059
2059
2059
2066
2066
2066
2066
2064
2064
2064
2064
2064
2064
2065
2065
2065
2061
2061
2061
2068
2068
2068
2068
2065
2065
2065
2062
2062
2062
2067
2067
2067
2059
2059
2059
2066
2066
2066
2066
2069
2069
2069
2062
2062
2062
2068
2068
2068
2061
2061
2061
2068
2068
2068
2068
2065
2065
2065
2062
2062
2062
2063
2063
2063
2061
2061
2061
2070
2070
2070
2070
2067
2066
2066
2066
2066
2066
2066
2061
2061
2061
2062
2062
2062
2061
2061
2061
2066
2066
2066
2066
2064
2064
2064
2061
2061
2061
2064
2064
2064
2061
2061
2061
2067
2067
2067
2067
2066
2066
2066
2067
2067
2067
2067
2067
2067
2066
2066
2066
2072
2072
2072
2072
2067
2067
2067
2061
2061
2061
2066
2066
2066
2062
2062
2062
2067
2067
2067
2067
2068
2068
2068
2062
2062
2062
2063
2063
2063
2062
2062
2062
2064
2064
2064
2064
2065
2065
2065
2058
2058
2058
2065
2065
2065
2061
2061
2061
2067
2067
2067
2067
2065
2065
2065
2065
2065
2065
2065
2065
2065
2057
2057
2064
2064
2060
2060
2060
2065
2065
2065
2065
2065
2065
2065
2060
2060
2060
2067
2067
2067
2061
2061
2061
2069
2069
2069
2069
2066
2066
2066
2062
2062
2062
2066
2066
2066
2060
2060
2060
2066
2066
2066
2066
2061
2061
2061
2060
2060
2060
2063
2063
2063
2058
2058
2058
2064
2064
2064
2064
2067
2067
2067
2059
2059
2059
2064
2064
2064
2058
2058
2058
2065
2065
2065
2065
2066
2066
2066
2060
2060
2060
2065
2065
2065
2067
2067
2067
2065
2065
2065
2065
2066
2066
2066
2061
2061
2061
2065
2065
2065
2060
2060
2060
2066
2066
2066
2066
2063
2063
2063
2060
2060
2066
2062
2062
2062
2067
2067
2067
2065
2065
2065
2066
2066
2066
2066
2069
2069
2069
2063
2063
2063
2067
2067
2067
2059
2059
2059
2064
2064
2064
2064
2064
2064
2064
2061
2061
2061
2068
2068
2068
2059
2059
2059
2064
2064
2064
2064
2066
2066
2066
2063
2063
2063
2066
2066
2066
2059
2059
2059
2069
2069
2069
2069
2065
2065
2065
2060
2060
2060
2066
2066
2066
2055
2055
2055
2071
2071
2071
2071
2067
2067
2067
2061
2061
2061
2068
2068
2068
2061
2061
2061
2066
2066
2066
2066
2066
2066
2066
2061
2061
2061
2066
2066
2066
2060
2060
2060
2062
2062
2062
2062
2065
2065
2065
2068
2068
2068
2059
2059
2059
2067
2067
2067
2060
2060
2060
2065
2065
2065
2065
2065
2065
2065
2059
2059
2059
2062
2062
2062
2060
2060
2060
2067
2067
2067
2067
2067
2067
2067
2061
2061
2061
2065
2065
2065
2057
2057
2057
2067
2067
2067
2067
2067
2067
2067
2064
2064
2064
2064
2064
2064
2060
2060
2060
2064
2064
2064
2064
2066
2066
2066
2063
2063
2063
2065
2065
2065
2062
2062
2062
2068
2068
2068
2068
2066
2066
2066
2061
2061
2061
2066
2066
2066
2063
2063
2063
2064
2064
2064
2064
2064
2064
2064
2062
2062
2062
2067
2067
2067
2063
2063
2071
2063
2063
2063
2066
2066
2066
2066
2065
2065
2065
2062
2062
2062
2066
2066
2066
2061
2061
2061
2063
2063
2063
2063
2065
2065
2065
2063
2063
2063
2065
2065
2065
2058
2058
2058
2066
2066
2066
2066
2066
2066
2066
2061
2061
2061
2068
2068
2068
2062
2062
2062
2065
2065
2065
2065
2065
2065
2065
2060
2060
2060
2069
2069
2069
2060
2060
2060
2067
2067
2067
2067
2063
2063
2063
2063
2063
2063
2067
2067
2067
2067
2067
2067
2066
2066
2066
2066
2064
2064
2064
2060
2060
2060
2068
2068
2068
2063
2063
2063
2063
2063
2063
2063
2060
2060
2060
2060
2060
2060
2064
2064
2064
2061
2061
2061
2065
2065
2065
2065
2065
2065
2065
2059
2059
2059
2067
2067
2067
2061
2061
2061
2060
2060
2060
2060
2065
2065
2065
2062
2062
2062
2064
2064
2064
2062
2062
2062
2060
2060
2060
2060
2061
2061
2061
2061
2061
2061
2067
2067
2067
2061
2061
2061
2066
2066
2066
2066
2068
2068
2068
2062
2062
2062
2066
2066
2066
2061
2061
2061
2062
2062
2062
2062
2067
2067
2067
2058
2058
2058
2064
2064
2064
2062
2062
2062
2067
2067
2067
2067
2065
2065
2065
2061
2061
2061
2067
2067
2067
2063
2063
2063
2065
2065
2065
2065
2064
2064
2064
2062
2062
2062
2062
2062
2062
2062
2062
2062
2065
2065
2065
2065
2066
2066
2066
2063
2063
2063
2066
2066
2066
2062
2062
2062
2063
2063
2063
2063
2067
2067
2067
2069
2069
2069
2066
2066
2066
2064
2064
2064
2065
2065
2065
2065
2064
2064
2064
2061
2061
2061
2067
2067
2067
2058
2058
2058
2067
2067
2067
2067
2067
2067
2067
2063
2063
2063
2066
2066
2066
2059
2059
2059
2064
2064
2064
2064
2063
2063
2063
2062
2062
2062
2066
2066
2066
2061
2061
2061
2065
2065
2065
2065
2066
2066
2066
2058
2058
2058
2067
2067
2067
2057
2057
2057
2067
2067
2067
2067
2066
2066
2066
2063
2063
2063
2067
2067
2067
2064
2064
2064
2065
2065
2065
2065
2067
2067
2067
2060
2060
2060
2063
2063
2063
2063
2063
2063
2067
2067
2067
2067
2066
2066
2066
2065
2065
2065
2064
2064
2064
2063
2063
2063
2065
2065
2065
2065
2064
2064
2064
2059
2059
2059
2069
2069
2069
2067
2067
2067
2067
2067
2067
2067
2063
2063
2063
2063
2063
2063
2065
2065
2065
2061
2061
2061
2065
2065
2065
2065
2066
2066
2066
2061
2061
2061
2068
2068
2068
2065
2065
2065
2066
2066
2066
2066
2066
2066
2066
2063
2063
2063
2067
2067
2067
2061
2061
2061
2066
2066
2066
2066
2067
2067
2067
2060
2060
2060
2067
2067
2067
2060
2060
2060
2066
2066
2066
2066
2063
2063
2063
2058
2058
2058
2064
2064
2064
2060
2060
2060
2068
2068
2068
2068
2067
2067
2067
2062
2062
2062
2065
2065
2065
2061
2061
2061
2064
2064
2064
2064
2063
2063
2063
2059
2059
2059
2068
2068
2068
2064
2064
2064
2067
2067
2067
2067
2070
2070
2070
2061
2061
2061
2068
2068
2068
2059
2059
2059
2064
2064
2064
2064
2067
2067
2067
2061
2061
2061
2061
2061
2061
2060
2060
2060
2064
2064
2064
2064
2066
2066
2066
2064
2064
2064
2068
2068
2068
2060
2060
2060
2067
2067
2067
2067
2065
2065
2065
2063
2063
2063
2067
2067
2067
2064
2064
2064
2067
2067
2067
2067
2063
2063
2063
2062
2062
2062
2067
2067
2067
2059
2059
2059
2063
2063
2063
2063
2068
2068
2068
2064
2064
2064
2064
2064
2064
2063
2063
2063
2068
2068
2068
2068
2064
2064
2064
2059
2059
2059
2064
2064
2064
2062
2062
2062
2066
2066
2066
2066
2064
2064
2064
2063
2063
2063
2065
2065
2065
2060
2060
2060
2067
2067
2067
2067
2066
2066
2066
2060
2060
2060
2069
2069
2069
2062
2062
2062
2069
2069
2069
2069
2067
2067
2067
2060
2060
2060
2066
2066
2066
2065
2065
2065
2066
2066
2066
2066
2066
2066
2066
2063
2063
2063
2066
2066
2066
2062
2062
2062
2072
2072
2072
2072
2067
2067
2067
2061
2061
2061
2067
2067
2067
2060
2060
2060
2064
2064
2064
2064
2066
2066
2066
2064
2064
2064
2068
2068
2068
2061
2061
2061
2064
2064
2064
2064
2067
2067
2067
2061
2061
2061
2066
2066
2066
2063
2063
2063
2064
2064
2064
2064
2058
2058
2058
2060
2060
2060
2060
2060
2060
2060
2060
2060
2065
2065
2065
2065
2068
2068
2068
2059
2059
2059
2069
2069
2069
2061
2061
2061
2066
2066
2066
2066
2065
2065
2065
2060
2060
2060
2064
2064
2064
2064
2064
2064
2067
2067
2067
2067
2064
2064
2064
2060
2060
2060
2067
2067
2067
2060
2060
2060
2066
2066
2066
2066
2067
2067
2067
2063
2063
2063
2067
2067
2067
2058
2058
2058
2066
2066
2066
2066
2066
2066
2066
2061
2061
2061
2069
2069
2069
2066
2066
2066
2065
2065
2065
2065
2065
2065
2065
2058
2058
2058
2067
2067
2067
2059
2059
2059
2067
2067
2067
2067
2069
2069
2069
2059
2059
2059
2068
2068
2068
2060
2060
2060
2068
2068
2068
2068
2068
2068
2068
2061
2061
2061
2068
2068
2068
2062
2062
2062
2066
2066
2066
2066
2067
2067
2067
2062
2062
2062
2066
2066
2066
2063
2063
2063
2066
2066
2066
2066
2069
2069
2069
2063
2063
2063
2067
2067
2067
2065
2065
2065
2067
2067
2067
2067
2071
2071
2071
2064
2064
2064
2066
2066
2066
2062
2062
2062
2068
2068
2068
2068
2065
2065
2065
2064
2064
2064
2063
2063
2063
2063
2063
2063
2061
2061
2061
2061
2066
2066
2066
2062
2062
2062
2066
2066
2066
2065
2065
2065
2065
2065
2065
2065
2067
2067
2067
2062
2062
2062
2068
2068
2068
2060
2060
2060
2068
2068
2068
2068
2065
2065
2065
2064
2064
2064
2066
2066
2066
2061
2061
2061
2068
2068
2068
2068
2065
2065
2065
2061
2061
2061
2068
2068
2068
2062
2062
2062
2064
2064
2064
2064
2066
2066
2066
2062
2062
2062
2066
2066
2066
2060
2060
2060
2066
2066
2066
2066
2065
2065
2065
2059
2059
2059
2064
2064
2064
2063
2063
2063
2066
2066
2066
2066
2066
2066
2066
2062
2062
2062
2065
2065
2065
2061
2061
2061
2068
2068
2068
2068
2068
2068
2068
2060
2060
2060
2067
2067
2067
2062
2062
2062
2066
2066
2066
2066
2062
2062
2062
2064
2064
2064
2066
2066
2066
2063
2063
2063
2064
2064
2064
2064
2066
2066
2066
2062
2062
2062
2065
2065
2065
2062
2062
2062
2068
2068
2068
2068
2066
2066
2066
2063
2063
2063
2064
2064
2064
2062
2062
2062
2077
2077
2077
2077
2066
2066
2066
2059
2059
2059
2067
2067
2067
2061
2061
2061
2065
2065
2065
2065
2065
2065
2065
2062
2062
2062
2065
2065
2065
2061
2061
2061
2065
2065
2065
2065
2067
2067
2067
2060
2060
2060
2064
2064
2064
2061
2061
2061
2070
2070
2070
2070
2064
2064
2064
2059
2059
2059
2066
2066
2066
2063
2063
2063
2066
2066
2066
2066
2065
2065
2065
2061
2061
2061
2067
2067
2067
2061
2061
2061
2066
2066
2066
2066
2066
2066
2066
2062
2062
2062
2063
2063
2063
2063
2063
2063
2062
2062
2062
2062
2068
2068
2068
2061
2061
2061
2067
2067
2067
2060
2060
2060
2064
2064
2064
2064
2063
2063
2063
2058
2058
2058
2067
2067
2067
2061
2061
2061
2069
2069
2069
2069
2066
2066
2066
2056
2056
2056
2068
2068
2068
2062
2062
2062
2067
2067
2067
2067
2067
2067
2067
2061
2061
2061
2068
2068
2068
2061
2061
2061
2068
2068
2068
2068
2068
2068
2068
2063
2063
2063
2061
2061
2061
2055
2055
2055
2066
2066
2066
2066
2066
2066
2066
2062
2062
2062
2064
2064
2064
2058
2058
2058
2067
2067
2067
2067
2063
2063
2063
2061
2061
2061
2064
2064
2064
2062
2062
2062
2069
2069
2069
2069
2063
2063
2063
2061
2061
2061
2067
2067
2067
2060
2060
2060
2063
2063
2063
2063
2066
2066
2066
2060
2060
2060
2066
2066
2066
2059
2059
2059
2067
2067
2067
2067
2064
2064
2064
2062
2062
2062
2068
2068
2068
2062
2062
2062
2063
2063
2063
2063
2062
2062
2062
2064
2064
2064
2069
2069
2069
2063
2063
2063
2064
2064
2064
2064
2068
2068
2068
2061
2061
2061
2067
2067
2067
2062
2062
2062
2067
2067
2067
2067
2065
2065
2065
2062
2062
2062
2067
2067
2067
2060
2060
2060
2066
2066
2066
2066
2064
2064
2064
2062
2062
2062
2067
2067
2067
2063
2063
2063
2065
2065
2065
2065
2066
2066
2066
2063
2063
2063
2067
2067
2067
2062
2062
2062
2064
2064
2064
2064
2067
2067
2067
2062
2062
2062
2068
2068
2068
2063
2063
2063
2066
2066
2066
2066
2065
2065
2065
2059
2059
2059
2067
2067
2067
2060
2060
2060
2067
2067
2067
2067
2065
2065
2065
2060
2060
2060
2070
2070
2070
2061
2061
2061
2065
2065
2065
2065
2065
2065
2065
2064
2064
2064
2066
2066
2066
2062
2062
2062
2066
2066
2066
2066
2066
2066
2066
2064
2064
2064
2066
2066
2066
2068
2068
2068
2066
2066
2066
2066
2072
2072
2072
2061
2061
2061
2064
2064
2064
2060
2060
2060
2065
2065
2065
2065
2069
2069
2069
2057
2057
2057
2065
2065
2065
2061
2061
2061
2070
2070
2070
2070
2069
2069
2069
2064
2064
2064
2068
2068
2068
2059
2059
2059
2066
2066
2066
2066
2068
2068
2068
2062
2062
2062
2064
2064
2064
2060
2060
2060
2072
2072
2072
2072
2064
2064
2064
2061
2061
2061
2064
2064
2064
2059
2059
2059
2066
2066
2066
2066
2064
2064
2064
2061
2061
2061
2067
2067
2067
2062
2062
2062
2069
2069
2069
2069
2070
2070
2070
2060
2060
2060
2068
2068
2068
2059
2059
2059
2069
2069
2069
2069
2069
2069
2069
2061
2061
2061
2067
2067
2067
2061
2061
2061
2067
2067
2067
2067
2066
2066
2066
2061
2061
2061
2067
2067
2067
2063
2063
2063
2073
2073
2073
2073
2064
2064
2064
2062
2062
2062
2067
2067
2067
2061
2061
2061
2066
2066
2066
2066
2067
2067
2067
2061
2061
2061
2067
2067
2067
2062
2062
2062
2066
2066
2066
2066
2067
2067
2067
2059
2059
2059
2068
2068
2068
2061
2061
2061
2066
2066
2066
2066
2066
2066
2066
2060
2060
2060
2068
2068
2068
2063
2063
2063
2062
2062
2062
2062
2064
2064
2064
2067
2067
2067
2068
2068
2068
2061
2061
2061
2066
2066
2066
2066
2067
2067
2067
2059
2059
2059
2067
2067
2067
2060
2060
2060
2065
2065
2065
2065
2067
2067
2067
2062
2062
2062
2064
2064
2064
2061
2061
2061
2069
2069
2069
2069
2067
2067
2067
2062
2062
2062
2065
2065
2065
2059
2059
2059
2067
2067
2067
2067
2063
2063
2063
2062
2062
2062
2066
2066
2066
2058
2058
2058
2069
2069
2069
2069
2069
2069
2069
2063
2063
2063
2064
2064
2064
2061
2061
2061
2064
2064
2064
2064
2066
2066
2066
2062
2062
2062
2066
2066
2066
2060
2060
2060
2065
2065
2065
2065
2067
2067
2067
2058
2058
2058
2066
2066
2066
2062
2062
2062
2066
2066
2066
2066
2066
2066
2066
2062
2062
2062
2066
2066
2066
2061
2061
2061
2067
2067
2067
2067
2066
2066
2066
2062
2062
2062
2064
2064
2064
2061
2061
2061
2063
2063
2063
2063
2066
2066
2066
2064
2064
2064
2065
2065
2065
2060
2060
2060
2067
2067
2067
2067
2067
2067
2067
2065
2065
2065
2068
2068
2068
2063
2063
2063
2068
2068
2068
2068
2067
2067
2067
2062
2062
2062
2062
2062
2062
2059
2059
2059
2067
2067
2067
2067
2067
2067
2067
2060
2060
2060
2065
2065
2065
2062
2062
2062
2066
2066
2066
2066
2066
2066
2066
2065
2065
2065
2072
2072
2072
2059
2059
2059
2065
2065
2065
2065
2065
2065
2065
2063
2063
2063
2065
2065
2065
2060
2060
2060
2070
2070
2070
2070
2072
2072
2072
2061
2061
2061
2065
2065
2065
2061
2061
2061
2065
2065
2065
2065
2064
2064
2064
2061
2061
2061
2067
2067
2067
2060
2060
2060
2063
2063
2063
2063
2064
2064
2064
2063
2063
2063
2069
2069
2069
2060
2060
2060
2066
2066
2066
2066
2065
2065
2065
2062
2062
2062
2065
2065
2065
2060
2060
2060
2068
2068
2068
2068
2067
2067
2067
2061
2061
2061
2067
2067
2067
2062
2062
2062
2069
2069
2069
2069
2067
2067
2067
2057
2057
2057
2066
2066
2066
2060
2060
2060
2065
2065
2065
2065
2064
2064
2064
2062
2062
2062
2069
2069
2069
2070
2070
2070
2066
2066
2066
2066
2070
2070
2070
2061
2061
2061
2068
2068
2068
2061
2061
2061
2064
2064
2064
2064
2066
2066
2066
2063
2063
2063
2066
2066
2066
2063
2063
2063
2062
2062
2062
2062
2065
2065
2065
2063
2063
2063
2068
2068
2068
2061
2061
2061
2065
2065
2065
2065
2065
2065
2065
2061
2061
2061
2068
2068
2068
2061
2061
2061
2066
2066
2066
2066
2060
2060
2060
2061
2061
2061
2064
2064
2064
2061
2061
2061
2068
2068
2068
2068
2066
2066
2066
2061
2061
2061
2067
2067
2067
2063
2063
2063
2064
2064
2064
2064
2067
2067
2067
2059
2059
2059
2065
2065
2065
2061
2061
2061
2065
2065
2065
2065
2064
2064
2064
2061
2061
2061
2067
2067
2067
2063
2063
2063
2066
2066
2066
2066
2064
2064
2064
2063
2063
2063
2065
2065
2065
2062
2062
2062
2069
2069
2069
2069
2061
2061
2061
2061
2061
2061
2066
2066
2066
2062
2062
2062
2064
2064
2064
2064
2066
2066
2066
2059
2059
2059
2066
2066
2066
2068
2068
2068
2065
2065
2065
2065
2067
2067
2067
2062
2062
2062
2070
2070
2070
2061
2061
2061
2066
2066
2066
2066
2066
2066
2066
2061
2061
2061
2069
2069
2069
2060
2060
2060
2070
2070
2070
2070
2066
2066
2066
2064
2064
2064
2068
2068
2068
2059
2059
2059
2066
2066
2066
2066
2063
2063
2063
2061
2061
2061
2069
2069
2069
2060
2060
2060
2064
2064
2064
2064
2065
2065
2065
2063
2063
2063
2063
2063
2063
2062
2062
2062
2073
2073
2073
2073
2067
2067
2067
2061
2061
2061
2067
2067
2067
2061
2061
2061
2065
2065
2065
2065
2066
2066
2066
2064
2064
2064
2067
2067
2067
2057
2057
2057
2064
2064
2064
2064
2068
2068
2068
2060
2060
2060
2069
2069
2069
2062
2062
2062
2068
2068
2068
2068
2064
2064
2064
2063
2063
2063
2065
2065
2065
2061
2061
2061
2066
2066
2066
2066
2066
2066
2066
2058
2058
2058
2067
2067
2067
2059
2059
2059
2066
2066
2066
2066
2066
2066
2066
2065
2065
2065
2065
2065
2065
2064
2064
2064
2067
2067
2067
2067
2066
2066
2066
2060
2060
2060
2066
2066
2066
2059
2059
2059
2069
2069
2069
2069
2065
2065
2065
2061
2061
2061
2065
2065
2065
2063
2063
2063
2067
2067
2067
2067
2066
2066
2066
2063
2063
2063
2065
2065
2065
2066
2066
2066
2068
2068
2068
2068
2067
2067
2067
2062
2062
2062
2067
2067
2067
2057
2057
2057
2065
2065
2065
2065
2066
2066
2066
2060
2060
2060
2067
2067
2067
2061
2061
2061
2065
2065
2065
2065
2067
2067
2067
2057
2057
2057
2065
2065
2065
2061
2061
2061
2068
2068
2068
2068
2063
2063
2063
2061
2061
2061
2066
2066
2066
2061
2061
2061
2067
2067
2067
2067
2066
2066
2066
2061
2061
2061
2066
2066
2066
2059
2059
2059
2063
2063
2063
2063
2066
2066
2066
2061
2061
2061
2067
2067
2067
2062
2062
2062
2067
2067
2067
2067
2064
2064
2064
2061
2061
2061
2067
2067
2067
2061
2061
2061
2066
2066
2066
2066
2058
2058
2058
2061
2061
2061
2055
2055
2055
2063
2063
2063
2067
2067
2067
2067
2068
2068
2068
2061
2061
2061
2069
2069
2069
2060
2060
2060
2067
2067
2067
2067
2065
2065
2065
2069
2069
2069
2068
2068
2068
2061
2061
2061
2066
2066
2066
2066
2063
2063
2063
2063
2063
2063
2064
2064
2064
2064
2064
2064
2064
2064
2064
2064
2065
2065
2065
2061
2061
2061
2064
2064
2064
2060
2060
2060
2060
2060
2060
2060
2066
2066
2066
2062
2062
2062
2064
2064
2064
2062
2062
2062
2067
2067
2067
2067
2065
2065
2065
2057
2057
2057
2067
2067
2067
2059
2059
2059
2065
2065
2065
2065
2066
2066
2066
2061
2061
2061
2064
2064
2064
2058
2058
2058
2067
2067
2067
2067
2066
2066
2066
2061
2061
2061
2066
2066
2066
2061
2061
2061
2065
2065
2065
2065
2065
2065
2065
2056
2056
2056
2067
2067
2067
2060
2060
2060
2066
2066
2066
2066
2066
2066
2066
2069
2069
2069
2069
2069
2069
2063
2063
2063
2067
2067
2067
2067
2062
2062
2062
2062
2062
2062
2067
2067
2067
2060
2060
2060
2066
2066
2066
2066
2065
2065
2065
2062
2062
2062
2067
2067
2067
2058
2058
2058
2067
2067
2067
2067
2065
2065
2065
2063
2063
2063
2066
2066
2066
2060
2060
2060
2066
2066
2066
2066
2067
2067
2067
2061
2061
2061
2069
2069
2069
2061
2061
2061
2064
2064
2064
2064
2064
2064
2064
2061
2061
2061
2057
2057
2057
2060
2060
2060
2067
2067
2067
2067
2064
2064
2064
2064
2064
2064
2066
2066
2066
2064
2064
2064
2066
2066
2066
2066
2065
2065
2065
2063
2063
2063
2066
2066
2066
2063
2063
2063
2067
2067
2067
2067
2063
2063
2063
2058
2058
2058
2066
2066
2066
2061
2061
2061
2063
2063
2063
2063
2065
2065
2065
2062
2062
2062
2069
2069
2069
2061
2061
2061
2065
2065
2065
2065
2069
2069
2069
2064
2064
2064
2067
2067
2067
2065
2065
2065
2066
2066
2066
2066
2063
2063
2063
2063
2063
2063
2068
2068
2068
2060
2060
2060
2066
2066
2066
2066
2061
2061
2061
2061
2061
2061
2065
2065
2065
2060
2060
2060
2067
2067
2067
2067
2068
2068
2068
2057
2057
2057
2070
2070
2070
2062
2062
2062
2064
2064
2064
2064
2066
2066
2066
2065
2065
2065
2065
2065
2065
2062
2062
2062
2065
2065
2065
2065
2067
2067
2067
2063
2063
2063
2070
2070
2070
2059
2059
2059
2064
2064
2064
2064
2067
2067
2067
2061
2061
2061
2068
2068
2068
2061
2061
2061
2072
2072
2072
2072
2066
2066
2066
2061
2061
2061
2068
2068
2068
2062
2062
2062
2063
2063
2063
2063
2066
2066
2066
2059
2059
2059
2065
2065
2065
2059
2059
2059
2065
2065
2065
2065
2066
2066
2066
2062
2062
2062
2068
2068
2068
2060
2060
2060
2068
2068
2068
2068
2064
2064
2064
2063
2063
2063
2067
2067
2067
2060
2060
2060
2065
2065
2065
2065
2066
2066
2066
2056
2056
2056
2065
2065
2065
2060
2060
2060
2068
2068
2068
2068
2066
2066
2066
2061
2061
2061
2067
2067
2067
2060
2060
2060
2067
2067
2067
2067
2067
2067
2067
2062
2062
2062
2067
2067
2067
2063
2063
2063
2067
2067
2067
2067
2066
2066
2066
2062
2062
2062
2072
2072
2072
2062
2062
2062
2064
2064
2064
2064
2066
2066
2066
2061
2061
2061
2065
2065
2065
2061
2061
2061
2068
2068
2068
2068
2067
2067
2067
2062
2062
2062
2066
2066
2066
2059
2059
2059
2064
2064
2064
2064
2065
2065
2065
2057
2057
2057
2067
2067
2067
2060
2060
2060
2067
2067
2067
2067
2065
2065
2065
2058
2058
2058
2064
2064
2064
2058
2058
2058
2063
2063
2063
2063
2065
2065
2065
2067
2067
2067
2067
2067
2067
2059
2059
2059
2064
2064
2064
2064
2063
2063
2063
2060
2060
2060
2066
2066
2066
2063
2063
2063
2065
2065
2065
2065
2064
2064
2064
2068
2068
2068
2064
2064
2064
2059
2059
2059
2065
2065
2065
2065
2067
2067
2067
2064
2064
2064
2068
2068
2068
2063
2063
2063
2065
2065
2065
2065
2068
2068
2068
2060
2060
2060
2066
2066
2066
2063
2063
2063
2065
2065
2065
2065
2067
2067
2067
2061
2061
2061
2068
2068
2068
2062
2062
2062
2068
2068
2068
2068
2063
2063
2063
2061
2061
2061
2072
2072
2072
2060
2060
2060
2068
2068
2068
2068
2064
2064
2064
2059
2059
2059
2067
2067
2067
2063
2063
2063
2066
2066
2066
2066
2066
2066
2066
2059
2059
2059
2067
2067
2067
2060
2060
2060
2068
2068
2068
2068
2075
2075
2075
2061
2061
2061
2068
2068
2068
2062
2062
2062
2066
2066
2066
2066
2065
2065
2065
2063
2063
2063
2062
2062
2062
2058
2058
2058
2075
2075
2075
2075
2064
2064
2064
2060
2060
2060
2070
2070
2070
2061
2061
2061
2069
2069
2069
2069
2067
2067
2067
2059
2059
2059
2065
2065
2065
2062
2062
2062
2065
2065
2065
2065
2065
2065
2065
2062
2062
2062
2063
2063
2063
2061
2061
2061
2068
2068
2068
2068
2066
2066
2066
2061
2061
2061
2067
2067
2067
2062
2062
2062
2077
2077
2077
2077
2065
2065
2065
2059
2059
2059
2065
2065
2065
2061
2061
2061
2065
2065
2065
2065
2065
2065
2065
2061
2061
2061
2065
2065
2065
2057
2057
2057
2067
2067
2067
2067
2064
2064
2064
2065
2065
2065
2066
2066
2066
2060
2060
2060
2066
2066
2066
2066
2067
2067
2067
2059
2059
2059
2072
2072
2072
2060
2060
2060
2064
2064
2064
2064
2067
2067
2067
2061
2061
2061
2065
2065
2065
2069
2069
2069
2069
2069
2069
2069
2063
2063
2063
2056
2056
2056
2067
2067
2067
2061
2061
2061
2065
2065
2065
2065
2067
2067
2067
2061
2061
2061
2066
2066
2066
2058
2058
2058
2062
2062
2062
2062
2066
2066
2066
2062
2062
2062
2068
2068
2068
2060
2060
2060
2066
2066
2066
2066
2068
2068
2068
2062
2062
2062
2068
2068
2068
2061
2061
2061
2065
2065
2065
2065
2065
2065
2065
2063
2063
2063
2066
2066
2066
2060
2060
2060
2061
2061
2061
2061
2065
2065
2065
2069
2069
2069
2066
2066
2066
2065
2065
2065
2067
2067
2067
2067
2065
2065
2065
2062
2062
2062
2066
2066
2066
2064
2064
2064
2061
2061
2061
2061
2069
2069
2069
2058
2058
2058
2067
2067
2067
2060
2060
2060
2065
2065
2065
2065
2066
2066
2066
2060
2060
2060
2071
2071
2071
2062
2062
2062
2063
2063
2063
2063
2065
2065
2065
2060
2060
2060
2066
2066
2066
2061
2061
2061
2067
2067
2067
2067
2068
2068
2068
2062
2062
2062
2069
2069
2069
2062
2062
2062
2065
2065
2065
2065
2065
2065
2065
2061
2061
2061
2067
2067
2067
2057
2057
2057
2067
2067
2067
2067
2067
2067
2067
2058
2058
2058
2065
2065
2065
2060
2060
2060
2066
2066
2066
2066
2066
2066
2066
2059
2059
2059
2066
2066
2066
2063
2063
2063
2064
2064
2064
2064
2068
2068
2068
2063
2063
2063
2066
2066
2066
2062
2062
2062
2066
2066
2066
2066
2064
2064
2064
2062
2062
2062
2065
2065
2065
2060
2060
2060
2065
2065
2065
2065
2065
2065
2065
2060
2060
2060
2060
2060
2060
2059
2059
2059
2068
2068
2068
2068
2071
2071
2071
2061
2061
2061
2066
2066
2066
2060
2060
2060
2066
2066
2066
2066
2065
2065
2065
2060
2060
2060
2064
2064
2064
2060
2060
2060
2061
2061
2061
2061
2067
2067
2067
2063
2063
2063
2062
2062
2062
2060
2060
2060
2066
2066
2066
2066
2066
2066
2066
2057
2057
2057
2063
2063
2063
2067
2067
2067
2064
2064
2064
2064
2064
2064
2064
2060
2060
2060
2067
2067
2067
2063
2063
2063
2065
2065
2065
2065
2064
2064
2064
2062
2062
2062
2064
2064
2064
2060
2060
2060
2065
2065
2065
2065
2068
2068
2068
2061
2061
2061
2066
2066
2066
2060
2060
2060
2066
2066
2066
2066
2066
2066
2066
2063
2063
2063
2064
2064
2064
2061
2061
2061
2065
2065
2065
2065
2067
2067
2067
2059
2059
2059
2064
2064
2064
2060
2060
2060
2066
2066
2066
2066
2062
2062
2062
2059
2059
2059
2066
2066
2066
2055
2055
2055
2067
2067
2067
2067
2069
2069
2069
2060
2060
2060
2065
2065
2065
2060
2060
2060
2065
2065
2065
2065
2067
2067
2067
2061
2061
2061
2065
2065
2065
2063
2063
2063
2065
2065
2065
2065
2064
2064
2064
2062
2062
2062
2066
2066
2066
2062
2062
2062
2065
2065
2065
2065
2065
2065
2065
2059
2059
2059
2067
2067
2067
2059
2059
2059
2065
2065
2065
2065
2066
2066
2066
2060
2060
2060
2068
2068
2068
2061
2061
2061
2064
2064
2064
2064
2068
2068
2068
2062
2062
2062
2065
2065
2065
2060
2060
2060
2060
2060
2060
2060
2067
2067
2067
2063
2063
2063
2073
2073
2073
2061
2061
2061
2071
2071
2071
2071
2066
2066
2066
2061
2061
2061
2066
2066
2066
2061
2061
2061
2073
2073
2073
2073
2067
2067
2067
2062
2062
2062
2065
2065
2065
2062
2062
2062
2065
2065
2065
2065
2065
2065
2065
2062
2062
2062
2064
2064
2064
2056
2056
2056
2064
2064
2064
2064
2064
2064
2064
2059
2059
2059
2065
2065
2065
2059
2059
2059
2066
2066
2066
2066
2066
2066
2066
2060
2060
2060
2065
2065
2065
2062
2062
2062
2069
2069
2069
2069
2066
2066
2066
2060
2060
2060
2066
2066
2066
2057
2057
2057
2065
2065
2065
2065
2065
2065
2065
2059
2059
2059
2066
2066
2066
2065
2065
2065
2065
2065
2065
2065
2064
2064
2064
2062
2062
2062
2067
2067
2067
2061
2061
2061
2068
2068
2068
2068
2064
2064
2064
2060
2060
2060
2065
2065
2065
2061
2061
2061
2065
2065
2065
2065
2066
2066
2066
2061
2061
2061
2066
2066
2066
2060
2060
2060
2066
2066
2066
2066
2067
2067
2067
2060
2060
2060
2067
2067
2067
2062
2062
2062
2069
2069
2069
2069
2067
2067
2067
2058
2058
2058
2068
2068
2068
2059
2059
2059
2065
2065
2065
2065
2065
2065
2065
2059
2059
2059
2065
2065
2065
2065
2065
2065
2064
2064
2064
2064
2074
2074
2074
2060
2060
2060
2065
2065
2065
2060
2060
2060
2069
2069
2069
2069
2066
2066
2066
2060
2060
2060
2067
2067
2067
2063
2063
2063
2068
2068
2068
2068
2066
2066
2066
2063
2063
2063
2068
2068
2068
2062
2062
2062
2066
2066
2066
2066
2068
2068
2068
2062
2062
2062
2065
2065
2065
2059
2059
2059
2066
2066
2066
2066
2065
2065
2065
2067
2067
2067
2067
2067
2067
2068
2068
2068
2065
2065
2065
2065
2067
2067
2067
2061
2061
2061
2068
2068
2068
2060
2060
2060
2066
2066
2066
2066
2070
2070
2070
2061
2061
2061
2069
2069
2069
2065
2065
2065
2065
2065
2065
2065
2067
2067
2067
2060
2060
2060
2067
2067
2067
2059
2059
2059
2069
2069
2069
2069
2067
2067
2067
2061
2061
2061
2067
2067
2067
2059
2059
2059
2062
2062
2062
2062
2067
2067
2067
2063
2063
2063
2065
2065
2065
2060
2060
2060
2065
2065
2065
2065
2068
2068
2068
2063
2063
2063
2064
2064
2064
2064
2064
2064
2064
2064
2064
2064
2071
2071
2071
2060
2060
2060
2068
2068
2068
2061
2061
2061
2067
2067
2067
2067
2070
2070
2070
2063
2063
2063
2066
2066
2066
2062
2062
2062
2069
2069
2069
2069
2066
2066
2066
2063
2063
2063
2063
2063
2063
2063
2063
2063
2063
2063
2063
2063
2066
2066
2066
2061
2061
2061
2067
2067
2067
2060
2060
2060
2068
2068
2068
2068
2066
2066
2066
2063
2063
2063
2064
2064
2064
2062
2062
2062
2069
2069
2069
2069
2065
2065
2065
2062
2062
2062
2065
2065
2065
2063
2063
2063
2069
2069
2069
2069
2068
2068
2068
2060
2060
2060
2062
2062
2062
2061
2061
2061
2064
2064
2064
2064
2066
2066
2066
2059
2059
2059
2067
2067
2067
2060
2060
2060
2069
2069
2069
2069
2063
2063
2063
2062
2062
2062
2064
2064
2064
2062
2062
2062
2065
2065
2065
2065
2063
2063
2063
2063
2063
2063
2064
2064
2064
2061
2061
2061
2068
2068
2068
2068
2066
2066
2066
2060
2060
2060
2066
2066
2066
2065
2065
2065
2065
2065
2065
2065
2069
2069
2069
2059
2059
2059
2065
2065
2065
2061
2061
2061
2068
2068
2068
2068
2065
2065
2065
2063
2063
2063
2069
2069
2069
2062
2062
2062
2071
2071
2071
2071
2065
2065
2065
2061
2061
2061
2064
2064
2064
2062
2062
2062
2065
2065
2065
2065
2066
2066
2066
2061
2061
2061
2067
2067
2067
2059
2059
2059
2066
2066
2066
2066
2066
2066
2066
2060
2060
2060
2068
2068
2068
2060
2060
2060
2066
2066
2066
2066
2067
2067
2067
2061
2061
2061
2066
2066
2066
2061
2061
2061
2066
2066
2066
2066
2063
2063
2063
2062
2062
2062
2066
2066
2066
2061
2061
2061
2068
2068
2068
2068
2065
2065
2065
2061
2061
2061
2066
2066
2066
2063
2063
2063
2065
2065
2065
2065
2066
2066
2066
2064
2064
2064
2066
2066
2066
2061
2061
2061
2068
2068
2068
2068
2066
2066
2066
2058
2058
2058
2066
2066
2066
2063
2063
2063
2066
2066
2066
2066
2068
2068
2068
2063
2063
2063
2067
2067
2067
2056
2056
2056
2066
2066
2066
2066
2066
2066
2066
2062
2062
2062
2066
2066
2066
2064
2064
2064
2066
2066
2066
2066
2066
2066
2066
2061
2061
2061
2062
2062
2062
2062
2062
2062
2072
2072
2072
2072
2066
2066
2066
2062
2062
2062
2067
2067
2067
2061
2061
2061
2065
2065
2065
2065
2064
2064
2064
2067
2067
2067
2068
2068
2068
2065
2065
2065
2067
2067
2067
2067
2067
2067
2067
2060
2060
2060
2066
2066
2066
2059
2059
2059
2063
2063
2063
2063
2064
2064
2064
2063
2063
2063
2061
2061
2061
2059
2059
2059
2066
2066
2066
2066
2065
2065
2065
2061
2061
2061
2066
2066
2066
2063
2063
2063
2065
2065
2065
2065
2067
2067
2067
2061
2061
2061
2067
2067
2067
2062
2062
2062
2065
2065
2065
2065
2064
2064
2064
2059
2059
2059
2065
2065
2065
2061
2061
2061
2066
2066
2066
2066
2064
2064
2064
2060
2060
2060
2066
2066
2066
2058
2058
2058
2067
2067
2067
2067
2067
2067
2067
2063
2063
2063
2065
2065
2065
2063
2063
2063
2066
2066
2066
2066
2064
2064
2064
2063
2063
2063
2067
2067
2067
2060
2060
2060
2070
2070
2070
2070
2065
2065
2065
2060
2060
2060
2068
2068
2068
2058
2058
2058
2067
2067
2067
2067
2067
2067
2067
2058
2058
2058
2068
2068
2068
2060
2060
2060
2066
2066
2066
2066
2066
2066
2066
2061
2061
2061
2065
2065
2065
2059
2059
2059
2065
2065
2065
2065
2064
2064
2064
2061
2061
2061
2068
2068
2068
2062
2062
2062
2066
2066
2066
2066
2066
2066
2066
2059
2059
2059
2068
2068
2068
2060
2060
2060
2066
2066
2066
2066
2071
2071
2071
2060
2060
2060
2069
2069
2069
2061
2061
2061
2069
2069
2069
2069
2064
2064
2064
2055
2055
2055
2065
2065
2065
2059
2059
2059
2066
2066
2066
2066
2066
2066
2066
2062
2062
2062
2068
2068
2068
2064
2064
2064
2065
2065
2065
2065
2069
2069
2069
2056
2056
2056
2066
2066
2066
2062
2062
2062
2066
2066
2066
2066
2069
2069
2069
2062
2062
2062
2067
2067
2067
2061
2061
2061
2065
2065
2065
2065
2063
2063
2063
2061
2061
2061
2066
2066
2066
2059
2059
2059
2066
2066
2066
2066
2064
2064
2064
2060
2060
2060
2067
2067
2067
2061
2061
2061
2066
2066
2066
2066
2065
2065
2065
2067
2067
2067
2067
2067
2067
2060
2060
2060
2065
2065
2065
2065
2066
2066
2066
2061
2061
2061
2065
2065
2065
2066
2066
2066
2066
2066
2066
2066
2065
2065
2065
2063
2063
2063
2059
2059
2059
2063
2063
2063
2064
2064
2064
2064
2066
2066
2066
2063
2063
2063
2066
2066
2066
2061
2061
2061
2068
2068
2068
2068
2063
2063
2063
2062
2062
2062
2066
2066
2066
2060
2060
2060
2067
2067
2067
2067
2069
2069
2069
2064
2064
2064
2065
2065
2065
2060
2060
2060
2065
2065
2065
2065
2067
2067
2067
2060
2060
2060
2065
2065
2065
2056
2056
2056
2065
2065
2065
2065
2068
2068
2068
2061
2061
2061
2066
2066
2066
2060
2060
2060
2069
2069
2069
2069
2065
2065
2065
2061
2061
2061
2068
2068
2068
2059
2059
2059
2058
2058
2058
2058
2066
2066
2066
2061
2061
2061
2065
2065
2065
2061
2061
2061
2072
2072
2072
2072
2065
2065
2065
2060
2060
2060
2066
2066
2066
2059
2059
2059
2066
2066
2066
2066
2065
2065
2065
2062
2062
2062
2066
2066
2066
2057
2057
2057
2066
2066
2066
2066
2067
2067
2067
2060
2060
2060
2065
2065
2065
2062
2062
2062
2067
2067
2067
2067
2065
2065
2065
2063
2063
2063
2066
2066
2066
2063
2063
2063
2064
2064
2064
2064
2066
2066
2066
2064
2064
2064
2067
2067
2067
2059
2059
2059
2068
2068
2068
2068
2065
2065
2065
2064
2064
2064
2067
2067
2067
2066
2066
2066
2064
2064
2064
2064
2063
2063
2063
2060
2060
2060
2065
2065
2065
2064
2064
2064
2064
2064
2064
2064
2066
2066
2066
2061
2061
2061
2067
2067
2067
2060
2060
2060
2064
2064
2064
2064
2067
2067
2067
2062
2062
2062
2069
2069
2069
2060
2060
2060
2058
2058
2058
2058
2068
2068
2068
2060
2060
2060
2068
2068
2068
2059
2059
2059
2065
2065
2065
2065
2062
2062
2062
2060
2060
2060
2068
2068
2068
2058
2058
2058
2064
2064
2064
2064
2063
2063
2063
2062
2062
2062
2067
2067
2067
2060
2060
2060
2065
2065
2065
2065
2068
2068
2068
2061
2061
2061
2066
2066
2066
2062
2062
2062
2066
2066
2066
2066
2067
2067
2067
2063
2063
2063
2068
2068
2068
2059
2059
2059
2069
2069
2069
2069
2067
2067
2067
2060
2060
2060
2066
2066
2066
2064
2064
2064
2067
2067
2067
2067
2067
2067
2067
2061
2061
2061
2067
2067
2067
2064
2064
2064
2067
2067
2067
2067
2064
2064
2064
2057
2057
2057
2067
2067
2067
2060
2060
2060
2067
2067
2067
2067
2066
2066
2066
2061
2061
2061
2072
2072
2072
2061
2061
2061
2065
2065
2065
2065
2069
2069
2069
2061
2061
2061
2067
2067
2067
2062
2062
2062
2065
2065
2065
2065
2065
2065
2065
2058
2058
2058
2069
2069
2069
2057
2057
2057
2069
2069
2069
2069
2066
2066
2066
2062
2062
2062
2058
2058
2058
2059
2059
2059
2066
2066
2066
2066
2065
2065
2065
2060
2060
2060
2063
2063
2063
2062
2062
2062
2063
2063
2063
2063
2065
2065
2065
2060
2060
2060
2066
2066
2066
2061
2061
2061
2064
2064
2064
2064
2063
2063
2063
2059
2059
2059
2065
2065
2065
2062
2062
2062
2064
2064
2064
2064
2062
2062
2062
2064
2064
2064
2066
2066
2066
2061
2061
2061
2067
2067
2067
2067
2070
2070
2070
2061
2061
2061
2062
2062
2062
2064
2064
2064
2064
2064
2064
2064
2065
2065
2065
2063
2063
2063
2063
2063
2063
2061
2061
2061
2066
2066
2066
2066
2061
2061
2061
2060
2060
2060
2067
2067
2067
2062
2062
2062
2072
2072
2072
2072
2064
2064
2064
2060
2060
2060
2064
2064
2064
2059
2059
2059
2064
2064
2064
2064
2065
2065
2065
2062
2062
2062
2068
2068
2068
2057
2057
2057
2063
2063
2063
2063
2068
2068
2068
2062
2062
2062
2066
2066
2066
2063
2063
2063
2065
2065
2065
2065
2063
2063
2063
2047
2047
2047
2073
2073
2073
2060
2060
2060
2066
2066
2066
2066
2064
2064
2064
2066
2066
2066
2066
2066
2066
2061
2061
2061
2067
2067
2067
2067
2067
2067
2067
2060
2060
2060
2063
2063
2063
2061
2061
2061
2066
2066
2066
2066
2065
2065
2065
2061
2061
2061
2066
2066
2066
2057
2057
2057
2063
2063
2063
2063
2061
2061
2061
2060
2060
2060
2067
2067
2067
2063
2063
2063
2067
2067
2067
2067
2065
2065
2065
2061
2061
2061
2064
2064
2064
2061
2061
2061
2068
2068
2068
2068
2064
2064
2064
2059
2059
2059
2065
2065
2065
2061
2061
2061
2066
2066
2066
2066
2066
2066
2066
2071
2071
2071
2065
2065
2065
2060
2060
2060
2069
2069
2069
2069
2064
2064
2064
2059
2059
2059
2067
2067
2067
2062
2062
2062
2067
2067
2067
2067
2063
2063
2063
2061
2061
2061
2068
2068
2068
2062
2062
2062
2065
2065
2065
2065
2067
2067
2067
2060
2060
2060
2069
2069
2069
2063
2063
2063
2068
2068
2068
2068
2064
2064
2064
2063
2063
2063
2067
2067
2067
2060
2060
2060
2071
2071
2071
2071
2065
2065
2065
2061
2061
2061
2065
2065
2065
2062
2062
2062
2065
2065
2065
2065
2065
2065
2065
2063
2063
2063
2065
2065
2065
2059
2059
2059
2064
2064
2064
2064
2064
2064
2064
2062
2062
2062
2068
2068
2068
2060
2060
2060
2067
2067
2067
2067
2066
2066
2066
2055
2055
2055
2068
2068
2068
2059
2059
2059
2070
2070
2070
2070
2066
2066
2066
2060
2060
2060
2067
2067
2067
2061
2061
2061
2066
2066
2066
2066
2068
2068
2068
2064
2064
2064
2066
2066
2066
2069
2069
2069
2068
2068
2068
2068
2065
2065
2065
2063
2063
2063
2068
2068
2068
2062
2062
2062
2067
2067
2067
2067
2064
2064
2064
2064
2064
2064
2069
2069
2069
2060
2060
2060
2067
2067
2067
2067
2065
2065
2065
2059
2059
2059
2064
2064
2064
2059
2059
2059
2062
2062
2062
2062
2065
2065
2065
2062
2062
2062
2066
2066
2066
2062
2062
2062
2069
2069
2069
2069
2065
2065
2065
2059
2059
2059
2067
2067
2067
2060
2060
2060
2065
2065
2065
2065
2063
2063
2063
2061
2061
2061
2067
2067
2067
2062
2062
2062
2065
2065
2065
2065
2066
2066
2066
2062
2062
2062
2073
2073
2073
2060
2060
2060
2064
2064
2064
2064
2068
2068
2068
2062
2062
2062
2073
2073
2073
2060
2060
2060
2056
2056
2056
2056
2065
2065
2065
2062
2062
2062
2068
2068
2068
2061
2061
2061
2063
2063
2063
2063
2065
2065
2065
2060
2060
2060
2067
2067
2067
2060
2060
2060
2069
2069
2069
2069
2065
2065
2065
2063
2063
2063
2068
2068
2068
2062
2062
2062
2065
2065
2065
2065
2061
2061
2061
2061
2061
2061
2063
2063
2063
2056
2056
2056
2065
2065
2065
2065
2066
2066
2066
2065
2065
2065
2066
2066
2066
2061
2061
2061
2066
2066
2066
2066
2067
2067
2067
2057
2057
2057
2069
2069
2069
2062
2062
2062
2064
2064
2064
2064
2068
2068
2068
2063
2063
2063
2064
2064
2064
2063
2063
2063
2065
2065
2065
2065
2066
2066
2066
2060
2060
2060
2068
2068
2068
2057
2057
2057
2066
2066
2066
2066
2067
2067
2067
2060
2060
2060
2067
2067
2067
2059
2059
2059
2066
2066
2066
2066
2066
2066
2066
2062
2062
2062
2067
2067
2067
2061
2061
2061
2061
2061
2061
2061
2067
2067
2067
2063
2063
2063
2065
2065
2065
2061
2061
2061
2066
2066
2066
2066
2067
2067
2067
2061
2061
2061
2067
2067
2067
2059
2059
2059
2066
2066
2066
2066
2065
2065
2065
2064
2064
2064
2067
2067
2067
2062
2062
2062
2065
2065
2065
2065
2064
2064
2064
2064
2064
2064
2070
2070
2070
2061
2061
2061
2063
2063
2063
2063
2065
2065
2065
2064
2064
2064
2067
2067
2067
2061
2061
2061
2065
2065
2065
2065
2065
2065
2065
2058
2058
2058
2067
2067
2067
2061
2061
2061
2064
2064
2064
2064
2065
2065
2065
2061
2061
2061
2067
2067
2067
2062
2062
2062
2066
2066
2066
2066
2068
2068
2068
2060
2060
2060
2067
2067
2067
2060
2060
2060
2066
2066
2066
2066
2069
2069
2069
2061
2061
2061
2063
2063
2063
2059
2059
2059
2065
2065
2065
2065
2066
2066
2066
2060
2060
2060
2068
2068
2068
2061
2061
2061
2063
2063
2063
2063
2065
2065
2065
2063
2063
2063
2063
2063
2063
2063
2063
2063
2063
2063
2063
2063
2067
2067
2067
2066
2066
2066
2065
2065
2065
2054
2054
2054
2064
2064
2064
2064
2065
2065
2065
2061
2061
2061
2067
2067
2067
2059
2059
2059
2068
2068
2068
2068
2066
2066
2066
2061
2061
2061
2062
2062
2062
2060
2060
2060
2065
2065
2065
2065
2066
2066
2066
2062
2062
2062
2066
2066
2066
2063
2063
2063
2066
2066
2066
2066
2066
2066
2066
2062
2062
2062
2065
2065
2065
2061
2061
2061
2066
2066
2066
2066
2064
2064
2064
2063
2063
2063
2067
2067
2067
2058
2058
2058
2064
2064
2064
2064
2066
2066
2066
2062
2062
2062
2064
2064
2064
2063
2063
2063
2065
2065
2065
2065
2067
2067
2067
2062
2062
2062
2068
2068
2068
2060
2060
2060
2069
2069
2069
2069
2068
2068
2068
2062
2062
2062
2065
2065
2065
2061
2061
2061
2066
2066
2066
2066
2066
2066
2066
2067
2067
2067
2068
2068
2068
2063
2063
2063
2066
2066
2066
2066
2066
2066
2066
2062
2062
2062
2069
2069
2069
2061
2061
2061
2059
2059
2059
2059
2063
2063
2063
2061
2061
2061
2056
2056
2056
2061
2061
2061
2066
2066
2066
2066
2068
2068
2068
2062
2062
2062
2065
2065
2065
2061
2061
2061
2066
2066
2066
2066
2065
2065
2065
2065
2065
2065
2068
2068
2068
2058
2058
2058
2068
2068
2068
2068
2066
2066
2066
2058
2058
2058
2069
2069
2069
2062
2062
2062
2065
2065
2065
2065
2064
2064
2064
2061
2061
2061
2067
2067
2067
2061
2061
2061
2068
2068
2068
2068
2067
2067
2067
2062
2062
2062
2069
2069
2069
2061
2061
2061
2064
2064
2064
2064
2065
2065
2065
2062
2062
2062
2064
2064
2064
2064
2064
2064
2067
2067
2067
2067
2067
2067
2067
2061
2061
2061
2067
2067
2067
2060
2060
2060
2066
2066
2066
2066
2063
2063
2063
2061
2061
2061
2065
2065
2065
2063
2063
2063
2066
2066
2066
2066
2068
2068
2068
2061
2061
2061
2065
2065
2065
2062
2062
2062
2066
2066
2066
2066
2067
2067
2067
2061
2061
2061
2066
2066
2066
2071
2071
2071
2062
2062
2062
2062
2065
2065
2065
2054
2054
2054
2067
2067
2067
2056
2056
2056
2067
2067
2067
2067
2065
2065
2065
2061
2061
2061
2066
2066
2066
2065
2065
2065
2062
2062
2062
2062
2075
2075
2075
2061
2061
2061
2070
2070
2070
2061
2061
2061
2066
2066
2066
2066
2067
2067
2067
2061
2061
2061
2066
2066
2066
2062
2062
2062
2066
2066
2066
2066
2065
2065
2065
2062
2062
2062
2065
2065
2065
2063
2063
2063
2073
2073
2073
2073
2064
2064
2064
2063
2063
2063
2066
2066
2066
2063
2063
2063
2068
2068
2068
2068
2067
2067
2067
2062
2062
2062
2065
2065
2065
2065
2065
2065
2066
2066
2066
2066
2068
2068
2068
2061
2061
2061
2067
2067
2067
2061
2061
2061
2069
2069
2069
2069
2066
2066
2066
2062
2062
2062
2064
2064
2064
2062
2062
2062
2063
2063
2063
2063
2067
2067
2067
2062
2062
2062
2065
2065
2065
2062
2062
2062
2064
2064
2064
2064
2066
2066
2066
2060
2060
2060
2065
2065
2065
2064
2064
2064
2066
2066
2066
2066
2065
2065
2065
2061
2061
2061
2066
2066
2066
2060
2060
2060
2068
2068
2068
2068
2065
2065
2065
2059
2059
2059
2067
2067
2067
2062
2062
2062
2066
2066
2066
2066
2066
2066
2066
2061
2061
2061
2066
2066
2066
2064
2064
2064
2065
2065
2065
2065
2063
2063
2063
2060
2060
2060
2067
2067
2067
2059
2059
2059
2066
2066
2066
2066
2064
2064
2064
2062
2062
2062
2065
2065
2065
2063
2063
2063
2066
2066
2066
2066
2064
2064
2064
2061
2061
2061
2066
2066
2066
2061
2061
2061
2066
2066
2066
2066
2064
2064
2064
2063
2063
2063
2067
2067
2067
2064
2064
2064
2065
2065
2065
2065
2066
2066
2066
2063
2063
2063
2067
2067
2067
2063
2063
2063
2066
2066
2066
2066
2064
2064
2064
2061
2061
2061
2066
2066
2066
2062
2062
2062
2066
2066
2066
2066
2067
2067
2067
2060
2060
2060
2067
2067
2067
2064
2064
2064
2065
2065
2065
2065
2068
2068
2068
2060
2060
2060
2067
2067
2067
2060
2060
2060
2067
2067
2067
2067
2066
2066
2066
2062
2062
2062
2065
2065
2065
2064
2064
2064
2065
2065
2065
2065
2064
2064
2064
2062
2062
2062
2069
2069
2069
2059
2059
2059
2067
2067
2067
2067
2066
2066
2066
2059
2059
2059
2066
2066
2066
2063
2063
2063
2068
2068
2068
2068
2067
2067
2067
2060
2060
2060
2068
2068
2068
2059
2059
2059
2067
2067
2067
2067
2066
2066
2066
2063
2063
2063
2066
2066
2066
2060
2060
2060
2065
2065
2065
2065
2065
2065
2065
2064
2064
2064
2063
2063
2063
2062
2062
2062
2065
2065
2065
2065
2067
2067
2067
2062
2062
2062
2066
2066
2066
2059
2059
2059
2066
2066
2066
2066
2063
2063
2063
2062
2062
2062
2065
2065
2065
2060
2060
2060
2065
2065
2065
2065
2068
2068
2068
2062
2062
2062
2064
2064
2064
2062
2062
2062
2066
2066
2066
2066
2064
2064
2064
2061
2061
2061
2066
2066
2066
2061
2061
2061
2064
2064
2064
2064
2065
2065
2065
2062
2062
2062
2066
2066
2066
2058
2058
2058
2065
2065
2065
2065
2067
2067
2067
2061
2061
2061
2062
2062
2062
2064
2064
2064
2064
2064
2064
2064
2066
2066
2066
2062
2062
2062
2070
2070
2070
2065
2065
2065
2064
2064
2064
2064
2065
2065
2065
2062
2062
2062
2063
2063
2063
2061
2061
2061
2066
2066
2066
2066
2066
2066
2066
2066
2066
2066
2066
2066
2066
2063
2063
2063
2066
2066
2066
2066
2067
2067
2067
2063
2063
2063
2067
2067
2067
2061
2061
2061
2064
2064
2064
2064
2064
2064
2064
2061
2061
2061
2065
2065
2065
2063
2063
2063
2065
2065
2065
2065
2071
2071
2071
2061
2061
2061
2065
2065
2065
2062
2062
2062
2063
2063
2063
2063
2067
2067
2067
2065
2065
2065
2068
2068
2068
2063
2063
2063
2068
2068
2068
2068
2066
2066
2066
2061
2061
2061
2063
2063
2063
2061
2061
2061
2066
2066
2066
2066
2065
2065
2065
2066
2066
2066
2066
2066
2066
2063
2063
2063
2065
2065
2065
2065
2064
2064
2064
2064
2064
2064
2071
2071
2071
2061
2061
2061
2066
2066
2066
2066
2067
2067
2067
2061
2061
2061
2067
2067
2067
2060
2060
2060
2069
2069
2069
2069
2064
2064
2064
2064
2064
2064
2065
2065
2065
2062
2062
2062
2065
2065
2065
2065
2068
2068
2068
2061
2061
2061
2068
2068
2068
2065
2065
2065
2066
2066
2066
2066
2066
2066
2066
2064
2064
2064
2066
2066
2066
2063
2063
2063
2066
2066
2066
2066
2065
2065
2065
2061
2061
2061
2062
2062
2062
2061
2061
2061
2067
2067
2067
2067
2065
2065
2065
2060
2060
2060
2071
2071
2071
2062
2062
2062
2065
2065
2065
2065
2067
2067
2067
2062
2062
2062
2069
2069
2069
2061
2061
2061
2065
2065
2065
2065
2067
2067
2067
2062
2062
2062
2068
2068
2068
2060
2060
2060
2065
2065
2065
2065
2065
2065
2065
2062
2062
2062
2066
2066
2066
2062
2062
2062
2062
2062
2062
2062
2066
2066
2066
2062
2062
2062
2069
2069
2069
2060
2060
2060
2065
2065
2065
2065
2066
2066
2066
2062
2062
2062
2067
2067
2067
2065
2065
2065
2065
2065
2065
2065
2067
2067
2067
2061
2061
2061
2068
2068
2068
2060
2060
2060
2065
2065
2065
2065
2065
2065
2065
2061
2061
2061
2065
2065
2065
2063
2063
2063
2069
2069
2069
2069
2067
2067
2067
2061
2061
2061
2067
2067
2067
2060
2060
2060
2062
2062
2062
2062
2064
2064
2064
2059
2059
2059
2066
2066
2066
2064
2064
2064
2067
2067
2067
2067
2066
2066
2066
2060
2060
2060
2067
2067
2067
2060
2060
2060
2064
2064
2064
2064
2068
2068
2068
2063
2063
2063
2067
2067
2067
2060
2060
2060
2065
2065
2065
2065
2067
2067
2067
2063
2063
2063
2065
2065
2065
2063
2063
2063
2065
2065
2065
2065
2065
2065
2065
2058
2058
2058
2066
2066
2066
2062
2062
2062
2066
2066
2066
2066
2066
2066
2066
2061
2061
2061
2064
2064
2064
2065
2065
2065
2064
2064
2064
2064
2066
2066
2066
2061
2061
2061
2066
2066
2066
2063
2063
2063
2062
2062
2062
2062
2067
2067
2067
2063
2063
2063
2067
2067
2067
2065
2065
2065
2072
2072
2072
2072
2066
2066
2066
2060
2060
2060
2066
2066
2066
2064
2064
2064
2065
2065
2065
2065
2064
2064
2064
2062
2062
2062
2066
2066
2066
2059
2059
2059
2065
2065
2065
2065
2065
2065
2065
2063
2063
2063
2064
2064
2064
2060
2060
2060
2067
2067
2067
2067
2063
2063
2063
2063
2063
2063
2066
2066
2066
2062
2062
2062
2067
2067
2067
2067
2069
2069
2069
2063
2063
2063
2067
2067
2067
2061
2061
2061
2065
2065
2065
2065
2068
2068
2068
2062
2062
2062
2066
2066
2066
2062
2062
2062
2067
2067
2067
2067
2059
2059
2059
2061
2061
2061
2066
2066
2066
2059
2059
2059
2062
2062
2062
2062
2067
2067
2067
2061
2061
2061
2065
2065
2065
2062
2062
2062
2055
2055
2055
2055
2067
2067
2067
2063
2063
2063
2067
2067
2067
2062
2062
2062
2066
2066
2066
2066
2065
2065
2065
2059
2059
2059
2069
2069
2069
2064
2064
2064
2065
2065
2065
2065
2067
2067
2067
2064
2064
2064
2065
2065
2065
2061
2061
2061
2067
2067
2067
2067
2068
2068
2068
2064
2064
2064
2066
2066
2066
2058
2058
2058
2066
2066
2066
2066
2066
2066
2066
2062
2062
2062
2065
2065
2065
2064
