2109
2109
2109
2114
2114
2114
2111
2111
2111
2110
2110
2110
2111
2111
2111
2111
2108
2108
2108
2111
2111
2111
2111
2111
2111
2109
2109
2109
2109
2109
2109
2109
2107
2107
2107
2110
2110
2110
2107
2107
2107
2110
2110
2110
2107
2107
2107
2107
2109
2109
2109
2111
2111
2111
2108
2108
2108
2109
2109
2109
2107
2107
2107
2107
2110
2110
2110
2113
2113
2113
2111
2111
2111
2109
2109
2109
2112
2112
2112
2112
2107
2107
2107
2112
2112
2112
2109
2109
2109
2109
2109
2109
2108
2108
2108
2108
2108
2108
2108
2114
2114
2114
2109
2109
2109
2110
2110
2110
2109
2109
2109
2109
2110
2110
2110
2111
2111
2111
2111
2111
2111
2108
2108
2108
2111
2111
2111
2111
2110
2110
2110
2112
2112
2112
2107
2107
2107
2111
2111
2111
2106
2106
2106
2106
2108
2108
2108
2109
2109
2109
2107
2107
2107
2109
2109
2109
2108
2108
2108
2108
2109
2109
2109
2111
2111
2111
2110
2110
2110
2109
2109
2109
2104
2104
2104
2104
2107
2107
2107
2110
2110
2110
2109
2109
2109
2108
2108
2108
2110
2110
2110
2110
2110
2110
2110
2109
2109
2109
2108
2108
2108
2109
2109
2109
2112
2112
2112
2112
2109
2109
2109
2113
2113
2113
2114
2114
2114
2106
2106
2106
2111
2111
2111
2111
2111
2111
2111
2110
2110
2110
2112
2112
2112
2109
2109
2109
2107
2107
2107
2107
2108
2108
2108
2109
2109
2109
2109
2109
2109
2112
2112
2112
2110
2110
2110
2110
2109
2109
2109
2110
2110
2110
2110
2110
2110
2111
2111
2111
2112
2112
2112
2112
2108
2108
2108
2109
2109
2109
2099
2099
2099
2110
2110
2110
2106
2106
2106
2106
2109
2109
2109
2110
2110
2110
2107
2107
2107
2106
2106
2106
2107
2107
2107
2107
2107
2107
2107
2113
2113
2113
2105
2105
2105
2111
2111
2111
2108
2108
2108
2108
2110
2110
2110
2111
2111
2111
2107
2107
2107
2106
2106
2106
2113
2113
2113
2113
2105
2105
2105
2107
2107
2107
2110
2110
2110
2111
2111
2111
2112
2112
2112
2112
2109
2109
2109
2114
2114
2114
2110
2110
2110
2112
2112
2112
2110
2110
2110
2110
2108
2108
2108
2110
2110
2110
2109
2109
2109
2107
2107
2107
2106
2106
2106
2106
2107
2107
2107
2109
2109
2109
2108
2108
2108
2112
2112
2112
2111
2111
2111
2111
2108
2108
2108
2111
2111
2111
2107
2107
2107
2109
2109
2109
2108
2108
2108
2108
2110
2110
2110
2112
2112
2112
2108
2108
2108
2109
2109
2109
2109
2109
2109
2109
2107
2107
2107
2110
2110
2110
2111
2111
2111
2110
2110
2110
2113
2113
2113
2113
2106
2106
2106
2107
2107
2107
2108
2108
2108
2112
2112
2112
2112
2112
2112
2112
2107
2107
2107
2107
2107
2107
2111
2111
2111
2109
2109
2109
2107
2107
2107
2107
2106
2106
2106
2105
2105
2105
2109
2109
2109
2108
2108
2108
2110
2110
2110
2110
2110
2110
2110
2110
2110
2110
2109
2109
2109
2107
2107
2107
2108
2108
2108
2108
2106
2106
2106
2110
2110
2110
2111
2111
2111
2110
2110
2110
2108
2108
2108
2108
2109
2109
2109
2109
2109
2109
2111
2111
2111
2113
2113
2113
2109
2109
2109
2109
2109
2109
2109
2109
2109
2109
2106
2106
2106
2113
2113
2113
2110
2110
2110
2110
2107
2107
2107
2112
2112
2112
2110
2110
2110
2110
2110
2110
2109
2109
2109
2109
2108
2108
2108
2111
2111
2111
2110
2110
2110
2108
2108
2108
2111
2111
2111
2111
2117
2117
2117
2109
2109
2109
2108
2108
2108
2110
2110
2110
2109
2109
2109
2109
2110
2110
2110
2110
2110
2110
2107
2107
2107
2109
2109
2109
2108
2108
2108
2108
2108
2108
2108
2109
2109
2109
2110
2110
2110
2112
2112
2112
2110
2110
2110
2110
2110
2110
2110
2112
2112
2112
2112
2112
2112
2108
2108
2108
2109
2109
2109
2109
2112
2112
2112
2111
2111
2111
2110
2110
2110
2106
2106
2106
2107
2107
2107
2107
2107
2107
2107
2108
2108
2108
2109
2109
2109
2112
2112
2112
2112
2112
2112
2112
2105
2105
2105
2111
2111
2111
2108
2108
2108
2111
2111
2111
2118
2118
2118
2118
2108
2108
2108
2111
2111
2111
2110
2110
2110
2111
2111
2111
2111
2111
2111
2111
2110
2110
2110
2112
2112
2112
2112
2112
2112
2109
2109
2109
2111
2111
2111
2111
2106
2106
2106
2112
2112
2112
2110
2110
2110
2105
2105
2105
2107
2107
2107
2107
2112
2112
2112
2110
2110
2110
2110
2110
2110
2113
2113
2113
2107
2107
2107
2107
2110
2110
2110
2110
2110
2110
2108
2108
2108
2109
2109
2109
2113
2113
2113
2113
2109
2109
2109
2104
2104
2104
2109
2109
2109
2109
2109
2109
2112
2112
2112
2112
2110
2110
2110
2110
2110
2110
2110
2110
2110
2111
2111
2111
2107
2107
2107
2107
2108
2108
2108
2108
2108
2108
2107
2107
2107
2108
2108
2108
2110
2110
2110
2110
2108
2108
2108
2111
2111
2111
2109
2109
2109
2109
2109
2109
2111
2111
2111
2111
2108
2108
2108
2108
2108
2108
2109
2109
2109
2112
2112
2112
2107
2107
2107
2107
2109
2109
2109
2107
2107
2107
2112
2112
2112
2111
2111
2111
2113
2113
2113
2113
2110
2110
2110
2109
2109
2109
2109
2109
2109
2110
2110
2110
2109
2109
2109
2109
2109
2109
2109
2112
2112
2112
2113
2113
2113
2107
2107
2107
2109
2109
2109
2109
2108
2108
2108
2112
2112
2112
2108
2108
2108
2109
2109
2109
2110
2110
2110
2110
2110
2110
2110
2110
2110
2110
2108
2108
2108
2109
2109
2109
2107
2107
2107
2107
2108
2108
2108
2110
2110
2110
2110
2110
2110
2106
2106
2106
2109
2109
2109
2109
2110
2110
2110
2111
2111
2111
2109
2109
2109
2109
2109
2109
2108
2108
2108
2108
2111
2111
2111
2109
2109
2109
2111
2111
2111
2110
2110
2110
2111
2111
2111
2111
2109
2109
2109
2110
2110
2110
2109
2109
2109
2110
2110
2110
2110
2110
2110
2110
2110
2110
2110
2111
2111
2111
2108
2108
2108
2111
2111
2111
2106
2106
2106
2106
2103
2103
2103
2110
2110
2110
2110
2110
2110
2111
2111
2111
2107
2107
2107
2107
2111
2111
2111
2105
2105
2105
2107
2107
2107
2107
2107
2107
2110
2110
2110
2110
2109
2109
2109
2108
2108
2108
2113
2113
2113
2107
2107
2107
2110
2110
2110
2110
2108
2108
2108
2109
2109
2109
2110
2110
2110
2112
2112
2112
2109
2109
2109
2109
2107
2107
2107
2109
2109
2109
2108
2108
2108
2112
2112
2112
2110
2110
2110
2110
2110
2110
2110
2111
2111
2111
2109
2109
2109
2109
2109
2109
2111
2111
2111
2111
2110
2110
2110
2111
2111
2111
2114
2114
2114
2111
2111
2111
2110
2110
2110
2110
2105
2105
2105
2101
2101
2101
2108
2108
2108
2109
2109
2109
2109
2109
2109
2109
2111
2111
2111
2112
2112
2112
2108
2108
2108
2109
2109
2109
2110
2110
2110
2110
2110
2110
2110
2109
2109
2109
2112
2112
2112
2108
2108
2108
2110
2110
2110
2110
2109
2109
2109
2111
2111
2111
2111
2111
2111
2108
2108
2108
2107
2107
2107
2107
2106
2106
2106
2112
2112
2112
2109
2109
2109
2110
2110
2110
2108
2108
2108
2108
2108
2108
2108
2111
2111
2111
2106
2106
2106
2111
2111
2111
2107
2107
2107
2107
2112
2112
2112
2107
2107
2107
2110
2110
2110
2109
2109
2109
2111
2111
2111
2111
2109
2109
2109
2108
2108
2108
2109
2109
2109
2109
2109
2109
2109
2109
2109
2109
2109
2109
2109
2109
2109
2109
2108
2108
2108
2109
2109
2109
2109
2109
2109
2109
2109
2109
2109
2111
2111
2111
2107
2107
2107
2107
2107
2107
2110
2110
2110
2110
2111
2111
2111
2108
2108
2108
2109
2109
2109
2109
2109
2109
2108
2108
2108
2108
2107
2107
2107
2109
2109
2109
2110
2110
2110
2109
2109
2109
2111
2111
2111
2111
2112
2112
2112
2111
2111
2111
2110
2110
2110
2109
2109
2109
2105
2105
2105
2105
2109
2109
2109
2114
2114
2114
2108
2108
2108
2111
2111
2111
2110
2110
2110
2110
2110
2110
2110
2112
2112
2112
2106
2106
2106
2107
2107
2107
2109
2109
2109
2109
2108
2108
2108
2110
2110
2110
2106
2106
2106
2110
2110
2110
2108
2108
2108
2108
2108
2108
2108
2111
2111
2111
2109
2109
2109
2106
2106
2106
2109
2109
2109
2109
2110
2110
2110
2113
2113
2113
2111
2111
2111
2109
2109
2109
2109
2109
2109
2109
2108
2108
2108
2101
2101
2101
2113
2113
2113
2110
2110
2110
2108
2108
2108
2108
2112
2112
2112
2110
2110
2110
2105
2105
2105
2109
2109
2109
2111
2111
2111
2111
2109
2109
2109
2108
2108
2108
2106
2106
2106
2106
2106
2106
2110
2110
2110
2110
2109
2109
2109
2109
2109
2109
2109
2109
2109
2111
2111
2111
2110
2110
2110
2110
2112
2112
2112
2108
2108
2108
2108
2108
2108
2114
2114
2114
2108
2108
2108
2108
2110
2110
2110
2110
2110
2110
2109
2109
2109
2110
2110
2110
2106
2106
2106
2106
2107
2107
2107
2111
2111
2111
2110
2110
2110
2111
2111
2111
2109
2109
2109
2109
2109
2109
2109
2111
2111
2111
2105
2105
2105
2108
2108
2108
2109
2109
2109
2109
2107
2107
2107
2109
2109
2109
2108
2108
2108
2111
2111
2111
2112
2112
2112
2112
2109
2109
2109
2107
2107
2107
2109
2109
2109
2108
2108
2108
2109
2109
2109
2109
2109
2109
2109
2111
2111
2111
2108
2108
2108
2112
2112
2112
2108
2108
2108
2108
2108
2108
2108
2113
2113
2113
2110
2110
2110
2111
2111
2111
2110
2110
2110
2110
2109
2109
2109
2109
2109
2109
2108
2108
2108
2109
2109
2109
2108
2108
2108
2108
2111
2111
2111
2113
2113
2113
2110
2110
2110
2110
2110
2110
2109
2109
2109
2109
2108
2108
2108
2113
2113
2113
2112
2112
2112
2114
2114
2114
2109
2109
2109
2109
2107
2107
2107
2111
2111
2111
2109
2109
2109
2113
2113
2113
2109
2109
2109
2109
2110
2110
2110
2109
2109
2109
2109
2109
2109
2112
2112
2112
2108
2108
2108
2108
2110
2110
2110
2111
2111
2111
2111
2111
2111
2111
2111
2111
2111
2111
2111
2111
2106
2106
2106
2111
2111
2111
2109
2109
2109
2109
2109
2109
2110
2110
2110
2110
2108
2108
2108
2107
2107
2107
2108
2108
2108
2111
2111
2111
2112
2112
2112
2112
2108
2108
2108
2108
2108
2108
2111
2111
2111
2109
2109
2109
2109
2109
2109
2109
2110
2110
2110
2110
2110
2110
2114
2114
2114
2112
2112
2112
2109
2109
2109
2109
2109
2109
2109
2111
2111
2111
2113
2113
2113
2106
2106
2106
2110
2110
2110
2110
2107
2107
2107
2111
2111
2111
2108
2108
2108
2109
2109
2109
2104
2104
2104
2104
2104
2104
2104
2111
2111
2111
2112
2112
2112
2109
2109
2109
2107
2107
2107
2107
2107
2107
2107
2111
2111
2111
2113
2113
2113
2110
2110
2110
2109
2109
2109
2109
2108
2108
2108
2107
2107
2107
2109
2109
2109
2110
2110
2110
2111
2111
2111
2111
2110
2110
2110
2111
2111
2111
2108
2108
2108
2112
2112
2112
2109
2109
2109
2109
2110
2110
2110
2111
2111
2111
2109
2109
2109
2110
2110
2110
2109
2109
2109
2109
2107
2107
2107
2110
2110
2110
2108
2108
2108
2111
2111
2111
2109
2109
2109
2109
2109
2109
2109
2110
2110
2110
2111
2111
2111
2109
2109
2109
2109
2109
2109
2109
2103
2103
2103
2109
2109
2109
2105
2105
2105
2111
2111
2111
2111
2111
2111
2111
2110
2110
2110
2113
2113
2113
2111
2111
2111
2110
2110
2110
2110
2110
2110
2110
2109
2109
2109
2112
2112
2112
2108
2108
2108
2109
2109
2109
2108
2108
2108
2108
2110
2110
2110
2111
2111
2111
2108
2108
2108
2109
2109
2109
2108
2108
2108
2108
2109
2109
2109
2110
2110
2110
2109
2109
2109
2111
2111
2111
2109
2109
2109
2109
2106
2106
2106
2111
2111
2111
2110
2110
2110
2110
2110
2110
2106
2106
2106
2106
2111
2111
2111
2109
2109
2109
2109
2109
2109
2110
2110
2110
2110
2110
2110
2110
2106
2106
2106
2112
2112
2112
2111
2111
2111
2110
2110
2110
2108
2108
2108
2108
2109
2109
2109
2110
2110
2110
2111
2111
2111
2112
2112
2112
2109
2109
2109
2109
2109
2109
2109
2109
2109
2109
2111
2111
2111
2109
2109
2109
2107
2107
2107
2107
2109
2109
2109
2108
2108
2108
2109
2109
2109
2113
2113
2113
2108
2108
2108
2108
2109
2109
2109
2109
2109
2109
2109
2109
2109
2115
2115
2115
2110
2110
2110
2110
2106
2106
2106
2111
2111
2111
2114
2114
2114
2113
2113
2113
2111
2111
2111
2111
2111
2111
2111
2113
2113
2113
2108
2108
2108
2111
2111
2111
2110
2110
2110
2110
2107
2107
2107
2108
2108
2108
2109
2109
2109
2110
2110
2110
2113
2113
2113
2113
2109
2109
2109
2111
2111
2111
2111
2111
2111
2108
2108
2108
2108
2108
2108
2108
2109
2109
2109
2110
2110
2110
2115
2115
2115
2109
2109
2109
2109
2109
2109
2109
2111
2111
2111
2110
2110
2110
2112
2112
2112
2111
2111
2111
2112
2112
2112
2112
2109
2109
2109
2110
2110
2110
2109
2109
2109
2112
2112
2112
2109
2109
2109
2109
2106
2106
2106
2109
2109
2109
2110
2110
2110
2109
2109
2109
2111
2111
2111
2111
2111
2111
2111
2114
2114
2114
2110
2110
2110
2109
2109
2109
2103
2103
2103
2103
2109
2109
2109
2112
2112
2112
2109
2109
2109
2110
2110
2110
2110
2110
2110
2110
2109
2109
2109
2107
2107
2107
2108
2108
2108
2111
2111
2111
2106
2106
2106
2106
2110
2110
2110
2111
2111
2111
2104
2104
2104
2108
2108
2108
2110
2110
2110
2110
2109
2109
2109
2111
2111
2111
2106
2106
2106
2112
2112
2112
2108
2108
2108
2108
2106
2106
2106
2111
2111
2111
2111
2111
2111
2112
2112
2112
2108
2108
2108
2108
2113
2113
2113
2109
2109
2109
2110
2110
2110
2109
2109
2109
2112
2112
2112
2112
2117
2117
2117
2109
2109
2109
2108
2108
2108
2111
2111
2111
2109
2109
2109
2109
2107
2107
2107
2106
2106
2106
2107
2107
2107
2109
2109
2109
2113
2113
2113
2113
2108
2108
2108
2112
2112
2112
2111
2111
2111
2109
2109
2109
2110
2110
2110
2110
2108
2108
2108
2114
2114
2114
2107
2107
2107
2106
2106
2106
2108
2108
2108
2108
2112
2112
2112
2110
2110
2110
2112
2112
2112
2112
2112
2112
2109
2109
2109
2109
2105
2105
2105
2110
2110
2110
2108
2108
2108
2109
2109
2109
2109
2109
2109
2109
2106
2106
2106
2108
2108
2108
2109
2109
2109
2114
2114
2114
2116
2116
2116
2116
2108
2108
2108
2106
2106
2106
2109
2109
2109
2108
2108
2108
2112
2112
2112
2112
2109
2109
2109
2114
2114
2114
2111
2111
2111
2109
2109
2109
2110
2110
2110
2110
2109
2109
2109
2112
2112
2112
2108
2108
2108
2109
2109
2109
2109
2109
2109
2109
2109
2109
2109
2110
2110
2110
2111
2111
2111
2111
2111
2111
2109
2109
2109
2109
2107
2107
2107
2111
2111
2111
2111
2111
2111
2112
2112
2112
2109
2109
2109
2109
2103
2103
2103
2113
2113
2113
2109
2109
2109
2110
2110
2110
2105
2105
2105
2105
2111
2111
2111
2111
2111
2111
2107
2107
2107
2107
2107
2107
2105
2105
2105
2105
2106
2106
2106
2112
2112
2112
2106
2106
2106
2108
2108
2108
2108
2108
2108
2108
2108
2108
2108
2106
2106
2106
2110
2110
2110
2110
2110
2110
2109
2109
2109
2109
2109
2109
2109
2107
2107
2107
2107
2107
2107
2111
2111
2111
2109
2109
2109
2109
2109
2109
2109
2111
2111
2111
2109
2109
2109
2111
2111
2111
2108
2108
2108
2108
2110
2110
2110
2109
2109
2109
2111
2111
2111
2107
2107
2107
2107
2107
2107
2107
2111
2111
2111
2109
2109
2109
2108
2108
2108
2104
2104
2104
2107
2107
2107
2107
2103
2103
2103
2106
2106
2106
2109
2109
2109
2110
2110
2110
2107
2107
2107
2107
2107
2107
2107
2107
2107
2107
2108
2108
2108
2109
2109
2109
2110
2110
2110
2110
2109
2109
2109
2109
2109
2109
2111
2111
2111
2109
2109
2109
2108
2108
2108
2108
2109
2109
2109
2110
2110
2110
2106
2106
2106
2107
2107
2107
2110
2110
2110
2110
2110
2110
2110
2108
2108
2108
2107
2107
2107
2108
2108
2108
2112
2112
2112
2112
2109
2109
2109
2109
2109
2109
2110
2110
2110
2105
2105
2105
2109
2109
2109
2109
2107
2107
2107
2108
2108
2108
2110
2110
2110
2110
2110
2110
2110
2110
2110
2110
2109
2109
2109
2108
2108
2108
2111
2111
2111
2110
2110
2110
2108
2108
2108
2108
2110
2110
2110
2111
2111
2111
2109
2109
2109
2110
2110
2110
2107
2107
2107
2107
2109
2109
2109
2109
2109
2109
2109
2109
2109
2109
2109
2109
2109
2109
2109
2109
2108
2108
2108
2110
2110
2110
2108
2108
2108
2111
2111
2111
2112
2112
2112
2112
2108
2108
2108
2109
2109
2109
2108
2108
2108
2111
2111
2111
2111
2111
2111
2111
2106
2106
2106
2112
2112
2112
2109
2109
2109
2108
2108
2108
2109
2109
2109
2109
2107
2107
2107
2112
2112
2112
2109
2109
2109
2108
2108
2108
2107
2107
2107
2107
2113
2113
2113
2111
2111
2111
2111
2111
2111
2109
2109
2109
2109
2109
2109
2109
2111
2111
2111
2108
2108
2108
2109
2109
2109
2111
2111
2111
2110
2110
2110
2110
2110
2110
2110
2107
2107
2107
2110
2110
2110
2109
2109
2109
2105
2105
2105
2105
2107
2107
2107
2110
2110
2110
2108
2108
2108
2109
2109
2109
2111
2111
2111
2111
2111
2111
2111
2109
2109
2109
2111
2111
2111
2108
2108
2108
2109
2109
2109
2109
2108
2108
2108
2110
2110
2110
2110
2110
2110
2110
2110
2110
2110
2110
2110
2110
2108
2108
2108
2110
2110
2110
2108
2108
2108
2112
2112
2112
2111
2111
2111
2111
2110
2110
2110
2109
2109
2109
2109
2109
2109
2111
2111
2111
2111
2111
2111
2111
2108
2108
2108
2110
2110
2110
2109
2109
2109
2111
2111
2111
2108
2108
2108
2108
2110
2110
2110
2110
2110
2110
2110
2110
2110
2112
2112
2112
2110
2110
2110
2110
2110
2110
2110
2112
2112
2112
2107
2107
2107
2111
2111
2111
2109
2109
2109
2109
2110
2110
2110
2111
2111
2111
2110
2110
2110
2110
2110
2110
2110
2110
2110
2110
2111
2111
2111
2109
2109
2109
2107
2107
2107
2112
2112
2112
2108
2108
2108
2108
2109
2109
2109
2111
2111
2111
2110
2110
2110
2111
2111
2111
2108
2108
2108
2108
2111
2111
2111
2111
2111
2111
2109
2109
2109
2114
2114
2114
2110
2110
2110
2110
2109
2109
2109
2109
2109
2109
2106
2106
2106
2108
2108
2108
2116
2116
2116
2116
2110
2110
2110
2111
2111
2111
2108
2108
2108
2111
2111
2111
2108
2108
2108
2108
2108
2108
2108
2115
2115
2115
2110
2110
2110
2110
2110
2110
2109
2109
2109
2109
2109
2109
2109
2109
2109
2109
2109
2109
2109
2108
2108
2108
2107
2107
2107
2107
2107
2107
2107
2111
2111
2111
2111
2111
2111
2111
2111
2111
2110
2110
2110
2110
2109
2109
2109
2109
2109
2109
2109
2109
2109
2109
2109
2109
2109
2109
2109
2109
2107
2107
2107
2110
2110
2110
2112
2112
2112
2107
2107
2107
2111
2111
2111
2111
2108
2108
2108
2109
2109
2109
2108
2108
2108
2109
2109
2109
2108
2108
2108
2108
2105
2105
2105
2108
2108
2108
2108
2108
2108
2109
2109
2109
2105
2105
2105
2105
2109
2109
2109
2113
2113
2113
2110
2110
2110
2109
2109
2109
2108
2108
2108
2108
2106
2106
2106
2114
2114
2114
2110
2110
2110
2109
2109
2109
2109
2109
2109
2109
2108
2108
2108
2109
2109
2109
2110
2110
2110
2108
2108
2108
2110
2110
2110
2110
2108
2108
2108
2112
2112
2112
2108
2108
2108
2108
2108
2108
2106
2106
2106
2106
2111
2111
2111
2110
2110
2110
2106
2106
2106
2109
2109
2109
2106
2106
2106
2106
2108
2108
2108
2108
2108
2108
2107
2107
2107
2111
2111
2111
2110
2110
2110
2110
2108
2108
2108
2109
2109
2109
2109
2109
2109
2110
2110
2110
2111
2111
2111
2111
2111
2111
2111
2111
2111
2111
2110
2110
2110
2109
2109
2109
2113
2113
2113
2113
2108
2108
2108
2110
2110
2110
2109
2109
2109
2109
2109
2109
2109
2109
2109
2109
2108
2108
2108
2109
2109
2109
2108
2108
2108
2110
2110
2110
2107
2107
2107
2107
2108
2108
2108
2110
2110
2110
2108
2108
2108
2107
2107
2107
2109
2109
2109
2109
2107
2107
2107
2109
2109
2109
2111
2111
2111
2109
2109
2109
2109
2109
2109
2109
2108
2108
2108
2107
2107
2107
2108
2108
2108
2110
2110
2110
2107
2107
2107
2107
2108
2108
2108
2109
2109
2109
2110
2110
2110
2116
2116
2116
2105
2105
2105
2105
2113
2113
2113
2109
2109
2109
2109
2109
2109
2109
2109
2109
2110
2110
2110
2110
2108
2108
2108
2110
2110
2110
2109
2109
2109
2110
2110
2110
2106
2106
2106
2106
2108
2108
2108
2110
2110
2110
2110
2110
2110
2110
2110
2110
2107
2107
2107
2107
2110
2110
2110
2117
2117
2117
2107
2107
2107
2110
2110
2110
2110
2110
2110
2110
2108
2108
2108
2111
2111
2111
2105
2105
2105
2110
2110
2110
2109
2109
2109
2109
2109
2109
2109
2110
2110
2110
2111
2111
2111
2109
2109
2109
2111
2111
2111
2111
2110
2110
2110
2110
2110
2110
2107
2107
2107
2110
2110
2110
2108
2108
2108
2108
2107
2107
2107
2111
2111
2111
2110
2110
2110
2111
2111
2111
2110
2110
2110
2110
2109
2109
2109
2110
2110
2110
2109
2109
2109
2109
2109
2109
2113
2113
2113
2113
2109
2109
2109
2111
2111
2111
2111
2111
2111
2111
2111
2111
2111
2111
2111
2111
2109
2109
2109
2109
2109
2109
2109
2109
2109
2109
2109
2109
2109
2109
2109
2109
2110
2110
2110
2108
2108
2108
2109
2109
2109
2110
2110
2110
2108
2108
2108
2108
2109
2109
2109
2109
2109
2109
2110
2110
2110
2109
2109
2109
2109
2109
2109
2109
2107
2107
2107
2109
2109
2109
2110
2110
2110
2110
2110
2110
2111
2111
2111
2111
2110
2110
2110
2109
2109
2109
2111
2111
2111
2107
2107
2107
2110
2110
2110
2110
2109
2109
2109
2107
2107
2107
2106
2106
2106
2109
2109
2109
2108
2108
2108
2108
2101
2101
2101
2109
2109
2109
2106
2106
2106
2109
2109
2109
2107
2107
2107
2107
2105
2105
2105
2107
2107
2107
2109
2109
2109
2108
2108
2108
2108
2108
2108
2108
2108
2108
2108
2110
2110
2110
2112
2112
2112
2108
2108
2108
2107
2107
2107
2107
2106
2106
2106
2105
2105
2105
2107
2107
2107
2110
2110
2110
2109
2109
2109
2109
2110
2110
2110
2112
2112
2112
2111
2111
2111
2106
2106
2106
2108
2108
2108
2108
2111
2111
2111
2110
2110
2110
2111
2111
2111
2107
2107
2107
2110
2110
2110
2110
2109
2109
2109
2107
2107
2107
2108
2108
2108
2117
2117
2117
2109
2109
2109
2109
2110
2110
2110
2112
2112
2112
2109
2109
2109
2109
2109
2109
2107
2107
2107
2107
2111
2111
2111
2111
2111
2111
2109
2109
2109
2107
2107
2107
2112
2112
2112
2112
2111
2111
2111
2110
2110
2110
2109
2109
2109
2109
2109
2109
2111
2111
2111
2111
2107
2107
2107
2110
2110
2110
2108
2108
2108
2111
2111
2111
2110
2110
2110
2110
2109
2109
2109
2106
2106
2106
2109
2109
2109
2112
2112
2112
2110
2110
2110
2110
2111
2111
2111
2107
2107
2107
2110
2110
2110
2109
2109
2109
2109
2109
2109
2109
2109
2109
2109
2110
2110
2110
2110
2110
2110
2109
2109
2109
2110
2110
2110
2110
2108
2108
2108
2110
2110
2110
2107
2107
2107
2107
2107
2107
2110
2110
2110
2110
2107
2107
2107
2110
2110
2110
2110
2110
2110
2105
2105
2105
2110
2110
2110
2110
2110
2110
2110
2111
2111
2111
2108
2108
2108
2105
2105
2105
2108
2108
2108
2108
2108
2108
2108
2107
2107
2107
2111
2111
2111
2112
2112
2112
2109
2109
2109
2109
2112
2112
2112
2110
2110
2110
2107
2107
2107
2111
2111
2111
2109
2109
2109
2109
2112
2112
2112
2111
2111
2111
2108
2108
2108
2109
2109
2109
2111
2111
2111
2111
2108
2108
2108
2107
2107
2107
2109
2109
2109
2110
2110
2110
2115
2115
2115
2115
2108
2108
2108
2110
2110
2110
2110
2110
2110
2109
2109
2109
2111
2111
2111
2111
2109
2109
2109
2110
2110
2110
2104
2104
2104
2111
2111
2111
2109
2109
2109
2109
2111
2111
2111
2110
2110
2110
2111
2111
2111
2113
2113
2113
2108
2108
2108
2108
2106
2106
2106
2109
2109
2109
2108
2108
2108
2112
2112
2112
2109
2109
2109
2109
2105
2105
2105
2110
2110
2110
2109
2109
2109
2108
2108
2108
2110
2110
2110
2110
2112
2112
2112
2108
2108
2108
2109
2109
2109
2109
2109
2109
2111
2111
2111
2111
2110
2110
2110
2105
2105
2105
2109
2109
2109
2109
2109
2109
2111
2111
2111
2111
2109
2109
2109
2110
2110
2110
2110
2110
2110
2107
2107
2107
2107
2107
2107
2107
2108
2108
2108
2111
2111
2111
2107
2107
2107
2111
2111
2111
2108
2108
2108
2108
2113
2113
2113
2109
2109
2109
2107
2107
2107
2110
2110
2110
2108
2108
2108
2108
2111
2111
2111
2110
2110
2110
2111
2111
2111
2109
2109
2109
2108
2108
2108
2108
2108
2108
2108
2112
2112
2112
2110
2110
2110
2110
2110
2110
2109
2109
2109
2109
2109
2109
2109
2111
2111
2111
2111
2111
2111
2109
2109
2109
2108
2108
2108
2108
2107
2107
2107
2110
2110
2110
2105
2105
2105
2110
2110
2110
2110
2110
2110
2110
2109
2109
2109
2112
2112
2112
2111
2111
2111
2110
2110
2110
2107
2107
2107
2107
2107
2107
2107
2119
2119
2119
2105
2105
2105
2108
2108
2108
2109
2109
2109
2109
2106
2106
2106
2107
2107
2107
2112
2112
2112
2108
2108
2108
2109
2109
2109
2109
2109
2109
2109
2109
2109
2109
2108
2108
2108
2110
2110
2110
2110
2110
2110
2110
2108
2108
2108
2111
2111
2111
2111
2111
2111
2108
2108
2108
2113
2113
2113
2113
2109
2109
2109
2111
2111
2111
2109
2109
2109
2112
2112
2112
2108
2108
2108
2108
2103
2103
2103
2109
2109
2109
2111
2111
2111
2111
2111
2111
2110
2110
2110
2110
2110
2110
2110
2111
2111
2111
2109
2109
2109
2109
2109
2109
2107
2107
2107
2107
2107
2107
2107
2107
2107
2107
2109
2109
2109
2109
2109
2109
2105
2105
2105
2105
2108
2108
2108
2111
2111
2111
2110
2110
2110
2108
2108
2108
2108
2108
2108
2108
2108
2108
2108
2107
2107
2107
2111
2111
2111
2109
2109
2109
2106
2106
2106
2106
2109
2109
2109
2111
2111
2111
2110
2110
2110
2109
2109
2109
2108
2108
2108
2108
2109
2109
2109
2106
2106
2106
2107
2107
2107
2111
2111
2111
2108
2108
2108
2108
2113
2113
2113
2107
2107
2107
2108
2108
2108
2110
2110
2110
2109
2109
2109
2109
2106
2106
2106
2110
2110
2110
2112
2112
2112
2111
2111
2111
2109
2109
2109
2109
2104
2104
2104
2112
2112
2112
2111
2111
2111
2109
2109
2109
2107
2107
2107
2107
2107
2107
2107
2111
2111
2111
2108
2108
2108
2111
2111
2111
2110
2110
2110
2110
2109
2109
2109
2113
2113
2113
2109
2109
2109
2112
2112
2112
2111
2111
2111
2111
2108
2108
2108
2113
2113
2113
2110
2110
2110
2112
2112
2112
2109
2109
2109
2109
2113
2113
2113
2106
2106
2106
2108
2108
2108
2110
2110
2110
2106
2106
2106
2106
2107
2107
2107
2108
2108
2108
2107
2107
2107
2109
2109
2109
2108
2108
2108
2108
2109
2109
2109
2109
2109
2109
2111
2111
2111
2111
2111
2111
2108
2108
2108
2108
2111
2111
2111
2112
2112
2112
2107
2107
2107
2110
2110
2110
2110
2110
2110
2110
2108
2108
2108
2109
2109
2109
2107
2107
2107
2111
2111
2111
2106
2106
2106
2106
2108
2108
2108
2108
2108
2108
2107
2107
2107
2108
2108
2108
2109
2109
2109
2109
2109
2109
2109
2110
2110
2110
2104
2104
2104
2109
2109
2109
2105
2105
2105
2105
2110
2110
2110
2109
2109
2109
2109
2109
2109
2111
2111
2111
2107
2107
2107
2107
2110
2110
2110
2109
2109
2109
2106
2106
2106
2109
2109
2109
2110
2110
2110
2110
2110
2110
2110
2110
2110
2110
2109
2109
2109
2107
2107
2107
2111
2111
2111
2111
2109
2109
2109
2112
2112
2112
2114
2114
2114
2106
2106
2106
2111
2111
2111
2111
2108
2108
2108
2111
2111
2111
2110
2110
2110
2113
2113
2113
2110
2110
2110
2110
2109
2109
2109
2106
2106
2106
2108
2108
2108
2114
2114
2114
2109
2109
2109
2109
2111
2111
2111
2112
2112
2112
2108
2108
2108
2108
2108
2108
2108
2108
2108
2108
2106
2106
2106
2114
2114
2114
2107
2107
2107
2107
2107
2107
2104
2104
2104
2104
2109
2109
2109
2110
2110
2110
2112
2112
2112
2107
2107
2107
2109
2109
2109
2109
2108
2108
2108
2110
2110
2110
2108
2108
2108
2112
2112
2112
2106
2106
2106
2106
2104
2104
2104
2108
2108
2108
2106
2106
2106
2111
2111
2111
2110
2110
2110
2110
2104
2104
2104
2108
2108
2108
2113
2113
2113
2110
2110
2110
2110
2110
2110
2110
2108
2108
2108
2111
2111
2111
2111
2111
2111
2110
2110
2110
2109
2109
2109
2109
2108
2108
2108
2110
2110
2110
2112
2112
2112
2113
2113
2113
2111
2111
2111
2111
2108
2108
2108
2110
2110
2110
2109
2109
2109
2103
2103
2103
2109
2109
2109
2109
2115
2115
2115
2108
2108
2108
2109
2109
2109
2110
2110
2110
2107
2107
2107
2107
2107
2107
2107
2109
2109
2109
2107
2107
2107
2110
2110
2110
2110
2110
2110
2110
2106
2106
2106
2111
2111
2111
2109
2109
2109
2108
2108
2108
2110
2110
2110
2110
2109
2109
2109
2110
2110
2110
2110
2110
2110
2111
2111
2111
2108
2108
2108
2108
2110
2110
2110
2109
2109
2109
2109
2109
2109
2110
2110
2110
2110
2110
2110
2110
2107
2107
2107
2109
2109
2109
2109
2109
2109
2109
2109
2109
2112
2112
2112
2112
2109
2109
2109
2110
2110
2110
2108
2108
2108
2107
2107
2107
2108
2108
2108
2108
2109
2109
2109
2114
2114
2114
2109
2109
2109
2113
2113
2113
2108
2108
2108
2108
2104
2104
2104
2111
2111
2111
2108
2108
2108
2109
2109
2109
2110
2110
2110
2110
2110
2110
2110
2110
2110
2110
2111
2111
2111
2111
2111
2111
2110
2110
2110
2110
2108
2108
2108
2104
2104
2104
2108
2108
2108
2109
2109
2109
2112
2112
2112
2112
2108
2108
2108
2110
2110
2110
2108
2108
2108
2110
2110
2110
2114
2114
2114
2114
2107
2107
2107
2108
2108
2108
2114
2114
2114
2110
2110
2110
2109
2109
2109
2109
2107
2107
2107
2108
2108
2108
2110
2110
2110
2108
2108
2108
2110
2110
2110
2110
2108
2108
2108
2110
2110
2110
2108
2108
2108
2109
2109
2109
2110
2110
2110
2110
2109
2109
2109
2110
2110
2110
2108
2108
2108
2110
2110
2110
2110
2110
2110
2110
2109
2109
2109
2108
2108
2108
2108
2108
2108
2106
2106
2106
2110
2110
2110
2110
2109
2109
2109
2113
2113
2113
2113
2113
2113
2108
2108
2108
2109
2109
2109
2109
2105
2105
2105
2110
2110
2110
2110
2110
2110
2109
2109
2109
2110
2110
2110
2110
2110
2110
2110
2111
2111
2111
2110
2110
2110
2110
2110
2110
2111
2111
2111
2111
2110
2110
2110
2110
2110
2110
2109
2109
2109
2110
2110
2110
2109
2109
2109
2109
2111
2111
2111
2114
2114
2114
2109
2109
2109
2110
2110
2110
2110
2110
2110
2110
2109
2109
2109
2111
2111
2111
2108
2108
2108
2108
2108
2108
2109
2109
2109
2109
2108
2108
2108
2109
2109
2109
2113
2113
2113
2108
2108
2108
2107
2107
2107
2107
2111
2111
2111
2112
2112
2112
2107
2107
2107
2112
2112
2112
2110
2110
2110
2110
2110
2110
2110
2108
2108
2108
2111
2111
2111
2112
2112
2112
2110
2110
2110
2110
2110
2110
2110
2109
2109
2109
2109
2109
2109
2106
2106
2106
2109
2109
2109
2109
2108
2108
2108
2111
2111
2111
2109
2109
2109
2111
2111
2111
2107
2107
2107
2107
2109
2109
2109
2108
2108
2108
2110
2110
2110
2108
2108
2108
2107
2107
2107
2107
2112
2112
2112
2111
2111
2111
2116
2116
2116
2112
2112
2112
2111
2111
2111
2111
2108
2108
2108
2116
2116
2116
2112
2112
2112
2111
2111
2111
2107
2107
2107
2107
2109
2109
2109
2111
2111
2111
2109
2109
2109
2109
2109
2109
2112
2112
2112
2112
2112
2112
2112
2112
2112
2112
2109
2109
2109
2110
2110
2110
2109
2109
2109
2109
2110
2110
2110
2107
2107
2107
2109
2109
2109
2109
2109
2109
2108
2108
2108
2108
2109
2109
2109
2111
2111
2111
2105
2105
2105
2107
2107
2107
2107
2107
2107
2107
2110
2110
2110
2112
2112
2112
2111
2111
2111
2110
2110
2110
2109
2109
2109
2109
2109
2109
2109
2108
2108
2108
2109
2109
2109
2117
2117
2117
2108
2108
2108
2108
2113
2113
2113
2110
2110
2110
2111
2111
2111
2109
2109
2109
2111
2111
2111
2111
2111
2111
2111
2109
2109
2109
2109
2109
2109
2111
2111
2111
2111
2111
2111
2111
2107
2107
2107
2108
2108
2108
2107
2107
2107
2111
2111
2111
2115
2115
2115
2115
2109
2109
2109
2111
2111
2111
2108
2108
2108
2111
2111
2111
2110
2110
2110
2110
2107
2107
2107
2107
2107
2107
2108
2108
2108
2110
2110
2110
2108
2108
2108
2108
2110
2110
2110
2110
2110
2110
2112
2112
2112
2110
2110
2110
2109
2109
2109
2109
2108
2108
2108
2109
2109
2109
2108
2108
2108
2110
2110
2110
2109
2109
2109
2109
2107
2107
2107
2110
2110
2110
2110
2110
2110
2105
2105
2105
2108
2108
2108
2108
2110
2110
2110
2109
2109
2109
2109
2109
2109
2107
2107
2107
2111
2111
2111
2111
2107
2107
2107
2110
2110
2110
2109
2109
2109
2108
2108
2108
2109
2109
2109
2109
2116
2116
2116
2111
2111
2111
2108
2108
2108
2110
2110
2110
2105
2105
2105
2105
2108
2108
2108
2111
2111
2111
2109
2109
2109
2111
2111
2111
2107
2107
2107
2107
2109
2109
2109
2110
2110
2110
2109
2109
2109
2107
2107
2107
2109
2109
2109
2109
2109
2109
2109
2111
2111
2111
2110
2110
2110
2109
2109
2109
2107
2107
2107
2107
2107
2107
2107
2108
2108
2108
2110
2110
2110
2111
2111
2111
2110
2110
2110
2110
2108
2108
2108
2111
2111
2111
2109
2109
2109
2109
2109
2109
2110
2110
2110
2110
2108
2108
2108
2111
2111
2111
2111
2111
2111
2111
2111
2111
2108
2108
2108
2108
2107
2107
2107
2110
2110
2110
2109
2109
2109
2111
2111
2111
2110
2110
2110
2110
2108
2108
2108
2111
2111
2111
2110
2110
2110
2110
2110
2110
2112
2112
2112
2112
2107
2107
2107
2107
2107
2107
2104
2104
2104
2110
2110
2110
2111
2111
2111
2111
2108
2108
2108
2113
2113
2113
2108
2108
2108
2111
2111
2111
2110
2110
2110
2110
2108
2108
2108
2111
2111
2111
2110
2110
2110
2109
2109
2109
2109
2109
2109
2109
2108
2108
2108
2109
2109
2109
2110
2110
2110
2109
2109
2109
2107
2107
2107
2107
2110
2110
2110
2109
2109
2109
2111
2111
2111
2111
2111
2111
2108
2108
2108
2108
2104
2104
2104
2109
2109
2109
2112
2112
2112
2111
2111
2111
2110
2110
2110
2110
2106
2106
2106
2111
2111
2111
2109
2109
2109
2109
2109
2109
2110
2110
2110
2110
2110
2110
2110
2109
2109
2109
2109
2109
2109
2110
2110
2110
2111
2111
2111
2111
2110
2110
2110
2108
2108
2108
2108
2108
2108
2111
2111
2111
2113
2113
2113
2113
2109
2109
2109
2109
2109
2109
2111
2111
2111
2111
2111
2111
2111
2111
2111
2111
2110
2110
2110
2113
2113
2113
2107
2107
2107
2110
2110
2110
2110
2110
2110
2110
2111
2111
2111
2111
2111
2111
2111
2111
2111
2112
2112
2112
2109
2109
2109
2109
2107
2107
2107
2112
2112
2112
2109
2109
2109
2111
2111
2111
2109
2109
2109
2109
2109
2109
2109
2111
2111
2111
2109
2109
2109
2111
2111
2111
2111
2111
2111
2111
2108
2108
2108
2110
2110
2110
2110
2110
2110
2110
2110
2110
2110
2110
2110
2110
2111
2111
2111
2110
2110
2110
2113
2113
2113
2109
2109
2109
2109
2109
2109
2109
2108
2108
2108
2109
2109
2109
2109
2109
2109
2109
2109
2109
2103
2103
2103
2103
2107
2107
2107
2114
2114
2114
2110
2110
2110
2109
2109
2109
2111
2111
2111
2111
2108
2108
2108
2108
2108
2108
2109
2109
2109
2112
2112
2112
2110
2110
2110
2110
2110
2110
2110
2109
2109
2109
2113
2113
2113
2109
2109
2109
2108
2108
2108
2108
2105
2105
2105
2109
2109
2109
2106
2106
2106
2109
2109
2109
2109
2109
2109
2109
2107
2107
2107
2111
2111
2111
2105
2105
2105
2111
2111
2111
2110
2110
2110
2110
2109
2109
2109
2110
2110
2110
2109
2109
2109
2110
2110
2110
2109
2109
2109
2109
2108
2108
2108
2110
2110
2110
2108
2108
2108
2110
2110
2110
2111
2111
2111
2111
2106
2106
2106
2108
2108
2108
2111
2111
2111
2113
2113
2113
2110
2110
2110
2110
2111
2111
2111
2110
2110
2110
2114
2114
2114
2108
2108
2108
2106
2106
2106
2106
2109
2109
2109
2112
2112
2112
2107
2107
2107
2108
2108
2108
2110
2110
2110
2110
2108
2108
2108
2109
2109
2109
2110
2110
2110
2110
2110
2110
2108
2108
2108
2108
2107
2107
2107
2109
2109
2109
2109
2109
2109
2109
2109
2109
2107
2107
2107
2107
2108
2108
2108
2109
2109
2109
2109
2109
2109
2109
2109
2109
2111
2111
2111
2111
2108
2108
2108
2112
2112
2112
2114
2114
2114
2109
2109
2109
2109
2109
2109
2109
2108
2108
2108
2110
2110
2110
2110
2110
2110
2111
2111
2111
2109
2109
2109
2109
2107
2107
2107
2110
2110
2110
2109
2109
2109
2113
2113
2113
2110
2110
2110
2110
2108
2108
2108
2109
2109
2109
2108
2108
2108
2110
2110
2110
2107
2107
2107
2107
2108
2108
2108
2112
2112
2112
2109
2109
2109
2108
2108
2108
2111
2111
2111
2111
2110
2110
2110
2113
2113
2113
2110
2110
2110
2109
2109
2109
2105
2105
2105
2105
2106
2106
2106
2107
2107
2107
2108
2108
2108
2110
2110
2110
2108
2108
2108
2108
2109
2109
2109
2107
2107
2107
2108
2108
2108
2109
2109
2109
2109
2109
2109
2109
2108
2108
2108
2109
2109
2109
2109
2109
2109
2109
2109
2109
2107
2107
2107
2107
2108
2108
2108
2111
2111
2111
2113
2113
2113
2111
2111
2111
2113
2113
2113
2113
2110
2110
2110
2113
2113
2113
2113
2113
2113
2108
2108
2108
2109
2109
2109
2109
2110
2110
2110
2108
2108
2108
2108
2108
2108
2105
2105
2105
2109
2109
2109
2109
2111
2111
2111
2109
2109
2109
2109
2109
2109
2110
2110
2110
2110
2110
2110
2110
2110
2110
2110
2110
2110
2110
2109
2109
2109
2111
2111
2111
2115
2115
2115
2115
2109
2109
2109
2109
2109
2109
2112
2112
2112
2110
2110
2110
2109
2109
2109
2109
2105
2105
2105
2109
2109
2109
2110
2110
2110
2110
2110
2110
2108
2108
2108
2108
2106
2106
2106
2110
2110
2110
2111
2111
2111
2111
2111
2111
2110
2110
2110
2110
2111
2111
2111
2106
2106
2106
2107
2107
2107
2110
2110
2110
2107
2107
2107
2107
2108
2108
2108
2112
2112
2112
2109
2109
2109
2109
2109
2109
2110
2110
2110
2110
2108
2108
2108
2110
2110
2110
2115
2115
2115
2109
2109
2109
2108
2108
2108
2108
2107
2107
2107
2109
2109
2109
2109
2109
2109
2115
2115
2115
2110
2110
2110
2110
2111
2111
2111
2112
2112
2112
2111
2111
2111
2110
2110
2110
2107
2107
2107
2107
2106
2106
2106
2110
2110
2110
2112
2112
2112
2114
2114
2114
2107
2107
2107
2107
2106
2106
2106
2111
2111
2111
2110
2110
2110
2110
2110
2110
2112
2112
2112
2112
2110
2110
2110
2110
2110
2110
2109
2109
2109
2108
2108
2108
2110
2110
2110
2110
2106
2106
2106
2106
2106
2106
2107
2107
2107
2109
2109
2109
2108
2108
2108
2108
2109
2109
2109
2107
2107
2107
2111
2111
2111
2109
2109
2109
2108
2108
2108
2108
2108
2108
2108
2110
2110
2110
2107
2107
2107
2109
2109
2109
2109
2109
2109
2109
2109
2109
2109
2111
2111
2111
2109
2109
2109
2112
2112
2112
2111
2111
2111
2111
2109
2109
2109
2109
2109
2109
2109
2109
2109
2111
2111
2111
2111
2111
2111
2111
2107
2107
2107
2110
2110
2110
2106
2106
2106
2109
2109
2109
2109
2109
2109
2109
2108
2108
2108
2114
2114
2114
2108
2108
2108
2108
2108
2108
2110
2110
2110
2110
2107
2107
2107
2109
2109
2109
2111
2111
2111
2111
2111
2111
2109
2109
2109
2109
2110
2110
2110
2111
2111
2111
2109
2109
2109
2110
2110
2110
2110
2110
2110
2110
2108
2108
2108
2109
2109
2109
2110
2110
2110
2106
2106
2106
2111
2111
2111
2111
2109
2109
2109
2106
2106
2106
2108
2108
2108
2109
2109
2109
2110
2110
2110
2110
2109
2109
2109
2109
2109
2109
2110
2110
2110
2110
2110
2110
2112
2112
2112
2112
2109
2109
2109
2113
2113
2113
2109
2109
2109
2112
2112
2112
2110
2110
2110
2110
2108
2108
2108
2110
2110
2110
2112
2112
2112
2106
2106
2106
2109
2109
2109
2109
2107
2107
2107
2110
2110
2110
2111
2111
2111
2108
2108
2108
2108
2108
2108
2108
2111
2111
2111
2110
2110
2110
2114
2114
2114
2107
2107
2107
2109
2109
2109
2109
2113
2113
2113
2111
2111
2111
2106
2106
2106
2109
2109
2109
2109
2109
2109
2109
2108
2108
2108
2109
2109
2109
2109
2109
2109
2109
2109
2109
2108
2108
2108
2108
2111
2111
2111
2110
2110
2110
2110
2110
2110
2106
2106
2106
2108
2108
2108
2108
2108
2108
2108
2109
2109
2109
2111
2111
2111
2113
2113
2113
2111
2111
2111
2111
2109
2109
2109
2112
2112
2112
2110
2110
2110
2108
2108
2108
2109
2109
2109
2109
2107
2107
2107
2110
2110
2110
2109
2109
2109
2110
2110
2110
2110
2110
2110
2110
2109
2109
2109
2111
2111
2111
2108
2108
2108
2110
2110
2110
2107
2107
2107
2107
2109
2109
2109
2106
2106
2106
2108
2108
2108
2109
2109
2109
2111
2111
2111
2111
2109
2109
2109
2108
2108
2108
2109
2109
2109
2112
2112
2112
2109
2109
2109
2109
2108
2108
2108
2115
2115
2115
2107
2107
2107
2111
2111
2111
2108
2108
2108
2108
2108
2108
2108
2110
2110
2110
2107
2107
2107
2111
2111
2111
2110
2110
2110
2110
2108
2108
2108
2110
2110
2110
2112
2112
2112
2108
2108
2108
2111
2111
2111
2111
2108
2108
2108
2110
2110
2110
2111
2111
2111
2111
2111
2111
2108
2108
2108
2108
2109
2109
2109
2109
2109
2109
2110
2110
2110
2105
2105
2105
2110
2110
2110
2110
2113
2113
2113
2113
2113
2113
2110
2110
2110
2108
2108
2108
2110
2110
2110
2110
2108
2108
2108
2113
2113
2113
2110
2110
2110
2110
2110
2110
2110
2110
2110
2110
2109
2109
2109
2110
2110
2110
2110
2110
2110
2109
2109
2109
2108
2108
2108
2108
2108
2108
2108
2113
2113
2113
2110
2110
2110
2110
2110
2110
2108
2108
2108
2108
2108
2108
2108
2110
2110
2110
2108
2108
2108
2110
2110
2110
2114
2114
2114
2114
2109
2109
2109
2112
2112
2112
2106
2106
2106
2109
2109
2109
2108
2108
2108
2108
2110
2110
2110
2108
2108
2108
2110
2110
2110
2110
2110
2110
2110
2110
2110
2110
2109
2109
2109
2112
2112
2112
2110
2110
2110
2107
2107
2107
2109
2109
2109
2109
2108
2108
2108
2110
2110
2110
2111
2111
2111
2109
2109
2109
2114
2114
2114
2114
2109
2109
2109
2110
2110
2110
2110
2110
2110
2107
2107
2107
2110
2110
2110
2110
2105
2105
2105
2110
2110
2110
2111
2111
2111
2108
2108
2108
2105
2105
2105
2105
2109
2109
2109
2109
2109
2109
2109
2109
2109
2106
2106
2106
2111
2111
2111
2111
2108
2108
2108
2112
2112
2112
2107
2107
2107
2109
2109
2109
2109
2109
2109
2109
2110
2110
2110
2110
2110
2110
2105
2105
2105
2108
2108
2108
2106
2106
2106
2106
2107
2107
2107
2114
2114
2114
2108
2108
2108
2110
2110
2110
2109
2109
2109
2109
2112
2112
2112
2110
2110
2110
2108
2108
2108
2109
2109
2109
2109
2109
2109
2109
2109
2109
2109
2106
2106
2106
2103
2103
2103
2109
2109
2109
2110
2110
2110
2110
2110
2110
2110
2110
2110
2110
2107
2107
2107
2111
2111
2111
2108
2108
2108
2108
2110
2110
2110
2109
2109
2109
2106
2106
2106
2108
2108
2108
2109
2109
2109
2109
2109
2109
2109
2111
2111
2111
2113
2113
2113
2106
2106
2106
2109
2109
2109
2109
2109
2109
2109
2108
2108
2108
2109
2109
2109
2109
2109
2109
2111
2111
2111
2111
2113
2113
2113
2108
2108
2108
2110
2110
2110
2109
2109
2109
2107
2107
2107
2107
2108
2108
2108
2108
2108
2108
2109
2109
2109
2110
2110
2110
2110
2110
2110
2110
2108
2108
2108
2105
2105
2105
2113
2113
2113
2109
2109
2109
2109
2109
2109
2109
2108
2108
2108
2111
2111
2111
2108
2108
2108
2107
2107
2107
2109
2109
2109
2109
2108
2108
2108
2110
2110
2110
2109
2109
2109
2112
2112
2112
2110
2110
2110
2110
2108
2108
2108
2109
2109
2109
2110
2110
2110
2111
2111
2111
2109
2109
2109
2109
2110
2110
2110
2109
2109
2109
2110
2110
2110
2111
2111
2111
2108
2108
2108
2108
2111
2111
2111
2111
2111
2111
2111
2111
2111
2108
2108
2108
2108
2108
2108
2108
2109
2109
2109
2108
2108
2108
2110
2110
2110
2111
2111
2111
2109
2109
2109
2109
2109
2109
2109
2110
2110
2110
2109
2109
2109
2113
2113
2113
2110
2110
2110
2110
2106
2106
2106
2109
2109
2109
2109
2109
2109
2109
2109
2109
2107
2107
2107
2107
2106
2106
2106
2112
2112
2112
2112
2112
2112
2107
2107
2107
2110
2110
2110
2110
2111
2111
2111
2112
2112
2112
2108
2108
2108
2113
2113
2113
2109
2109
2109
2109
2108
2108
2108
2111
2111
2111
2109
2109
2109
2110
2110
2110
2110
2110
2110
2110
2109
2109
2109
2112
2112
2112
2108
2108
2108
2110
2110
2110
2109
2109
2109
2109
2109
2109
2109
2109
2109
2109
2106
2106
2106
2114
2114
2114
2108
2108
2108
2108
2108
2108
2108
2111
2111
2111
2103
2103
2103
2112
2112
2112
2110
2110
2110
2110
2104
2104
2104
2107
2107
2107
2107
2107
2107
2115
2115
2115
2108
2108
2108
2108
2107
2107
2107
2111
2111
2111
2111
2111
2111
2108
2108
2108
2109
2109
2109
2109
2106
2106
2106
2108
2108
2108
2109
2109
2109
2106
2106
2106
2107
2107
2107
2107
2109
2109
2109
2110
2110
2110
2110
2110
2110
2108
2108
2108
2110
2110
2110
2110
2107
2107
2107
2107
2107
2107
2111
2111
2111
2107
2107
2107
2104
2104
2104
2104
2107
2107
2107
2111
2111
2111
2108
2108
2108
2110
2110
2110
2107
2107
2107
2107
2111
2111
2111
2110
2110
2110
2107
2107
2107
2109
2109
2109
2111
2111
2111
2111
2110
2110
2110
2109
2109
2109
2113
2113
2113
2110
2110
2110
2109
2109
2109
2109
2108
2108
2108
2111
2111
2111
2111
2111
2111
2111
2111
2111
2108
2108
2108
2108
2109
2109
2109
2110
2110
2110
2108
2108
2108
2108
2108
2108
2109
2109
2109
2109
2108
2108
2108
2108
2108
2108
2110
2110
2110
2112
2112
2112
2109
2109
2109
2109
2109
2109
2109
2110
2110
2110
2109
2109
2109
2104
2104
2104
2109
2109
2109
2109
2107
2107
2107
2109
2109
2109
2109
2109
2109
2111
2111
2111
2110
2110
2110
2110
2110
2110
2110
2110
2110
2110
2111
2111
2111
2110
2110
2110
2110
2110
2110
2110
2111
2111
2111
2108
2108
2108
2108
2108
2108
2110
2110
2110
2111
2111
2111
2111
2106
2106
2106
2111
2111
2111
2108
2108
2108
2108
2108
2108
2106
2106
2106
2106
2109
2109
2109
2105
2105
2105
2107
2107
2107
2109
2109
2109
2113
2113
2113
2113
2108
2108
2108
2110
2110
2110
2110
2110
2110
2110
2110
2110
2113
2113
2113
2113
2109
2109
2109
2109
2109
2109
2111
2111
2111
2109
2109
2109
2109
2109
2109
2109
2106
2106
2106
2110
2110
2110
2109
2109
2109
2112
2112
2112
2110
2110
2110
2110
2108
2108
2108
2110
2110
2110
2112
2112
2112
2110
2110
2110
2110
2110
2110
2110
2107
2107
2107
2109
2109
2109
2107
2107
2107
2109
2109
2109
2108
2108
2108
2108
2111
2111
2111
2111
2111
2111
2110
2110
2110
2110
2110
2110
2108
2108
2108
2108
2109
2109
2109
2111
2111
2111
2106
2106
2106
2110
2110
2110
2108
2108
2108
2108
2109
2109
2109
2109
2109
2109
2107
2107
2107
2112
2112
2112
2110
2110
2110
2110
2115
2115
2115
2108
2108
2108
2109
2109
2109
2109
2109
2109
2109
2109
2109
2109
2112
2112
2112
2110
2110
2110
2109
2109
2109
2114
2114
2114
2102
2102
2102
2102
2108
2108
2108
2107
2107
2107
2111
2111
2111
2111
2111
2111
2107
2107
2107
2107
2108
2108
2108
2104
2104
2104
2109
2109
2109
2111
2111
2111
2108
2108
2108
2108
2110
2110
2110
2108
2108
2108
2111
2111
2111
2110
2110
2110
2108
2108
2108
2108
2112
2112
2112
2104
2104
2104
2109
2109
2109
2111
2111
2111
2109
2109
2109
2109
2108
2108
2108
2109
2109
2109
2112
2112
2112
2110
2110
2110
2109
2109
2109
2109
2109
2109
2109
2109
2109
2109
2110
2110
2110
2109
2109
2109
2108
2108
2108
2108
2108
2108
2108
2110
2110
2110
2111
2111
2111
2111
2111
2111
2109
2109
2109
2109
2108
2108
2108
2109
2109
2109
2107
2107
2107
2109
2109
2109
2109
2109
2109
2109
2110
2110
2110
2111
2111
2111
2110
2110
2110
2111
2111
2111
2109
2109
2109
2109
2105
2105
2105
2110
2110
2110
2108
2108
2108
2106
2106
2106
2110
2110
2110
2110
2107
2107
2107
2111
2111
2111
2110
2110
2110
2108
2108
2108
2108
2108
2108
2108
2112
2112
2112
2111
2111
2111
2107
2107
2107
2109
2109
2109
2109
2109
2109
2109
2107
2107
2107
2109
2109
2109
2108
2108
2108
2110
2110
2110
2108
2108
2108
2108
2108
2108
2108
2104
2104
2104
2107
2107
2107
2111
2111
2111
2111
2111
2111
2111
2110
2110
2110
2111
2111
2111
2109
2109
2109
2109
2109
2109
2108
2108
2108
2108
2109
2109
2109
2109
2109
2109
2107
2107
2107
2107
2107
2107
2111
2111
2111
2111
2109
2109
2109
2111
2111
2111
2107
2107
2107
2110
2110
2110
2110
2110
2110
2110
2109
2109
2109
2109
2109
2109
2112
2112
2112
2111
2111
2111
2110
2110
2110
2110
2110
2110
2110
2116
2116
2116
2111
2111
2111
2108
2108
2108
2111
2111
2111
2111
2110
2110
2110
2109
2109
2109
2112
2112
2112
2108
2108
2108
2115
2115
2115
2115
2108
2108
2108
2111
2111
2111
2111
2111
2111
2110
2110
2110
2109
2109
2109
2109
2104
2104
2104
2111
2111
2111
2109
2109
2109
2109
2109
2109
2109
2109
2109
2109
2106
2106
2106
2108
2108
2108
2110
2110
2110
2112
2112
2112
2109
2109
2109
2109
2103
2103
2103
2113
2113
2113
2109
2109
2109
2111
2111
2111
2110
2110
2110
2110
2110
2110
2110
2111
2111
2111
2107
2107
2107
2108
2108
2108
2107
2107
2107
2107
2110
2110
2110
2110
2110
2110
2109
2109
2109
2106
2106
2106
2109
2109
2109
2109
2111
2111
2111
2111
2111
2111
2110
2110
2110
2108
2108
2108
2111
2111
2111
2111
2107
2107
2107
2112
2112
2112
2108
2108
2108
2107
2107
2107
2108
2108
2108
2108
2107
2107
2107
2110
2110
2110
2113
2113
2113
2109
2109
2109
2108
2108
2108
2108
2108
2108
2108
2109
2109
2109
2106
2106
2106
2115
2115
2115
2112
2112
2112
2112
2108
2108
2108
2111
2111
2111
2110
2110
2110
2108
2108
2108
2109
2109
2109
2109
2106
2106
2106
2109
2109
2109
2110
2110
2110
2111
2111
2111
2109
2109
2109
2109
2109
2109
2109
2109
2109
2109
2109
2109
2109
2103
2103
2103
2110
2110
2110
2110
2110
2110
2110
2108
2108
2108
2111
2111
2111
2110
2110
2110
2110
2110
2110
2110
2108
2108
2108
2109
2109
2109
2107
2107
2107
2109
2109
2109
2107
2107
2107
2107
2111
2111
2111
2112
2112
2112
2110
2110
2110
2110
2110
2110
2108
2108
2108
2108
2106
2106
2106
2108
2108
2108
2107
2107
2107
2108
2108
2108
2109
2109
2109
2109
2108
2108
2108
2109
2109
2109
2110
2110
2110
2110
2110
2110
2109
2109
2109
2109
2108
2108
2108
2111
2111
2111
2110
2110
2110
2111
2111
2111
2109
2109
2109
2109
2108
2108
2108
2110
2110
2110
2107
2107
2107
2106
2106
2106
2109
2109
2109
2109
2109
2109
2109
2111
2111
2111
2107
2107
2107
2110
2110
2110
2109
2109
2109
2109
2109
2109
2109
2108
2108
2108
2110
2110
2110
2109
2109
2109
2111
2111
2111
2111
2111
2111
2111
2110
2110
2110
2108
2108
2108
2109
2109
2109
2107
2107
2107
2107
2109
2109
2109
2112
2112
2112
2111
2111
2111
2106
2106
2106
2110
2110
2110
2110
2105
2105
2105
2111
2111
2111
2109
2109
2109
2107
2107
2107
2111
2111
2111
2111
2109
2109
2109
2113
2113
2113
2111
2111
2111
2108
2108
2108
2109
2109
2109
2109
2108
2108
2108
2109
2109
2109
2108
2108
2108
2109
2109
2109
2108
2108
2108
2108
2113
2113
2113
2113
2113
2113
2107
2107
2107
2110
2110
2110
2112
2112
2112
2112
2109
2109
2109
2109
2109
2109
2111
2111
2111
2109
2109
2109
2113
2113
2113
2113
2111
2111
2111
2112
2112
2112
2110
2110
2110
2101
2101
2101
2110
2110
2110
2110
2108
2108
2108
2110
2110
2110
2108
2108
2108
2111
2111
2111
2112
2112
2112
2112
2110
2110
2110
2110
2110
2110
2110
2110
2110
2109
2109
2109
2110
2110
2110
2110
2108
2108
2108
2110
2110
2110
2111
2111
2111
2106
2106
2106
2107
2107
2107
2107
2109
2109
2109
2110
2110
2110
2110
2110
2110
2112
2112
2112
2110
2110
2110
2110
2109
2109
2109
2110
2110
2110
2109
2109
2109
2107
2107
2107
2109
2109
2109
2109
2111
2111
2111
2110
2110
2110
2110
2110
2110
2108
2108
2108
2109
2109
2109
2109
2108
2108
2108
2110
2110
2110
2109
2109
2109
2110
2110
2110
2111
2111
2111
2111
2114
2114
2114
2108
2108
2108
2105
2105
2105
2105
2105
2105
2108
2108
2108
2108
2108
2108
2108
2108
2108
2108
2105
2105
2105
2109
2109
2109
2109
2109
2109
2109
2109
2109
2109
2110
2110
2110
2109
2109
2109
2109
2109
2109
2111
2111
2111
2111
2109
2109
2109
2108
2108
2108
2109
2109
2109
2110
2110
2110
2105
2105
2105
2105
2108
2108
2108
2109
2109
2109
2109
2109
2109
2108
2108
2108
2113
2113
2113
2113
2107
2107
2107
2111
2111
2111
2110
2110
2110
2112
2112
2112
2108
2108
2108
2108
2108
2108
2108
2110
2110
2110
2108
2108
2108
2109
2109
2109
2109
2109
2109
2109
2106
2106
2106
2109
2109
2109
2111
2111
2111
2110
2110
2110
2107
2107
2107
2107
2109
2109
2109
2110
2110
2110
2110
2110
2110
2110
2110
2110
2109
2109
2109
2109
2110
2110
2110
2110
2110
2110
2108
2108
2108
2109
2109
2109
2109
2109
2109
2109
2109
2109
2109
2110
2110
2110
2112
2112
2112
2109
2109
2109
2110
2110
2110
2110
2108
2108
2108
2113
2113
2113
2110
2110
2110
2111
2111
2111
2111
2111
2111
2111
2109
2109
2109
2110
2110
2110
2109
2109
2109
2111
2111
2111
2110
2110
2110
2110
2109
2109
2109
2108
2108
2108
2108
2108
2108
2109
2109
2109
2106
2106
2106
2106
2111
2111
2111
2111
2111
2111
2110
2110
2110
2108
2108
2108
2111
2111
2111
2111
2110
2110
2110
2113
2113
2113
2110
2110
2110
2109
2109
2109
2110
2110
2110
2110
2110
2110
2110
2111
2111
2111
2108
2108
2108
2110
2110
2110
2109
2109
2109
2109
2109
2109
2109
2110
2110
2110
2107
2107
2107
2110
2110
2110
2109
2109
2109
2109
2109
2109
2109
2113
2113
2113
2111
2111
2111
2110
2110
2110
2110
2110
2110
2110
2108
2108
2108
2110
2110
2110
2103
2103
2103
2107
2107
2107
2106
2106
2106
2106
2107
2107
2107
2108
2108
2108
2108
2108
2108
2110
2110
2110
2110
2110
2110
2110
2109
2109
2109
2111
2111
2111
2108
2108
2108
2107
2107
2107
2108
2108
2108
2108
2109
2109
2109
2109
2109
2109
2110
2110
2110
2110
2110
2110
2108
2108
2108
2108
2110
2110
2110
2109
2109
2109
2109
2109
2109
2108
2108
2108
2107
2107
2107
2107
2107
2107
2107
2109
2109
2109
2110
2110
2110
2107
2107
2107
2108
2108
2108
2108
2111
2111
2111
2107
2107
2107
2109
2109
2109
2109
2109
2109
2109
2109
2109
2109
2109
2109
2109
2106
2106
2106
2109
2109
2109
2110
2110
2110
2111
2111
2111
2111
2107
2107
2107
2110
2110
2110
2108
2108
2108
2110
2110
2110
2106
2106
2106
2106
2109
2109
2109
2105
2105
2105
2109
2109
2109
2109
2109
2109
2105
2105
2105
2105
2107
2107
2107
2110
2110
2110
2113
2113
2113
2111
2111
2111
2107
2107
2107
2107
2111
2111
2111
2111
2111
2111
2111
2111
2111
2111
2111
2111
2111
2111
2111
2111
2109
2109
2109
2110
2110
2110
2110
2110
2110
2112
2112
2112
2107
2107
2107
2107
2110
2110
2110
2109
2109
2109
2108
2108
2108
2109
2109
2109
2109
2109
2109
2109
2108
2108
2108
2111
2111
2111
2105
2105
2105
2109
2109
2109
2107
2107
2107
2107
2110
2110
2110
2112
2112
2112
2113
2113
2113
2107
2107
2107
2108
2108
2108
2108
2110
2110
2110
2109
2109
2109
2110
2110
2110
2109
2109
2109
2108
2108
2108
2108
2108
2108
2108
2109
2109
2109
2109
2109
2109
2110
2110
2110
2105
2105
2105
2105
2108
2108
2108
2110
2110
2110
2108
2108
2108
2108
2108
2108
2108
2108
2108
2108
2108
2108
2108
2111
2111
2111
2108
2108
2108
2112
2112
2112
2106
2106
2106
2106
2111
2111
2111
2110
2110
2110
2108
2108
2108
2109
2109
2109
2100
2100
2100
2100
2109
2109
2109
2109
2109
2109
2111
2111
2111
2109
2109
2109
2110
2110
2110
2110
2109
2109
2109
2109
2109
2109
2107
2107
2107
2110
2110
2110
2111
2111
2111
2111
2107
2107
2107
2107
2107
2107
2110
2110
2110
2111
2111
2111
2113
2113
2113
2113
2107
2107
2107
2107
2107
2107
2101
2101
2101
2110
2110
2110
2109
2109
2109
2109
2108
2108
2108
2110
2110
2110
2110
2110
2110
2110
2110
2110
2110
2110
2110
2110
2108
2108
2108
2109
2109
2109
2109
2109
2109
2111
2111
2111
2107
2107
2107
2107
2109
2109
2109
2109
2109
2109
2114
2114
2114
2110
2110
2110
2110
2110
2110
2110
2109
2109
2109
2109
2109
2109
2107
2107
2107
2105
2105
2105
2107
2107
2107
2107
2108
2108
2108
2109
2109
2109
2111
2111
2111
2111
2111
2111
2108
2108
2108
2108
2108
2108
2108
2107
2107
2107
2109
2109
2109
2110
2110
2110
2110
2110
2110
2110
2108
2108
2108
2111
2111
2111
2110
2110
2110
2109
2109
2109
2110
2110
2110
2110
