2048
2046
2046
2046
2044
2044
2044
2047
2047
2047
2042
2042
2042
2042
2045
2045
2045
2044
2044
2044
2046
2046
2046
2045
2045
2045
2045
2045
2045
2045
2046
2046
2046
2046
2046
2046
2047
2047
2047
2046
2046
2046
2047
2047
2047
2047
2046
2046
2046
2046
2046
2046
2048
2048
2048
2046
2046
2046
2046
2046
2046
2046
2045
2045
2045
2039
2039
2039
2046
2046
2046
2047
2047
2047
2044
2044
2044
2044
2045
2045
2045
2043
2043
2043
2045
2045
2045
2044
2044
2044
2045
2045
2045
2045
2045
2045
2045
2047
2047
2047
2045
2045
2045
2046
2046
2046
2046
2046
2046
2041
2041
2041
2041
2047
2047
2047
2044
2044
2044
2038
2038
2038
2042
2042
2042
2051
2051
2051
2051
2045
2045
2045
2047
2047
2047
2047
2047
2047
2047
2047
2047
2042
2042
2042
2042
2044
2044
2044
2042
2042
2042
2046
2046
2046
2043
2043
2043
2046
2046
2046
2046
2046
2046
2046
2044
2044
2044
2046
2046
2046
2044
2044
2044
2047
2047
2047
2047
2041
2041
2041
2044
2044
2044
2048
2048
2048
2047
2047
2047
2045
2045
2045
2045
2042
2042
2042
2039
2039
2039
2046
2046
2046
2049
2049
2049
2043
2043
2043
2043
2045
2045
2045
2046
2046
2046
2043
2043
2043
2043
2043
2043
2046
2046
2046
2046
2038
2038
2038
2044
2044
2044
2047
2047
2047
2045
2045
2045
2051
2051
2051
2051
2051
2051
2051
2044
2044
2044
2048
2048
2048
2047
2047
2047
2044
2044
2044
2044
2044
2044
2044
2047
2047
2047
2043
2043
2043
2047
2047
2047
2046
2046
2046
2046
2045
2045
2045
2046
2046
2046
2047
2047
2047
2048
2048
2048
2040
2040
2040
2040
2047
2047
2047
2046
2046
2046
2044
2044
2044
2046
2046
2046
2043
2043
2043
2043
2048
2048
2048
2046
2046
2046
2046
2046
2046
2045
2045
2045
2047
2047
2047
2047
2046
2046
2046
2043
2043
2043
2048
2048
2048
2044
2044
2044
2044
2044
2044
2044
2048
2048
2048
2046
2046
2046
2043
2043
2043
2048
2048
2048
2050
2050
2050
2050
2040
2040
2040
2047
2047
2047
2036
2036
2036
2045
2045
2045
2045
2045
2045
2045
2045
2045
2045
2044
2044
2044
2046
2046
2046
2042
2042
2042
2046
2046
2046
2046
2045
2045
2045
2046
2046
2046
2046
2046
2046
2046
2046
2046
2044
2044
2044
2044
2044
2044
2044
2042
2042
2042
2049
2049
2049
2046
2046
2046
2044
2044
2044
2044
2042
2042
2042
2046
2046
2046
2049
2049
2049
2042
2042
2042
2044
2044
2044
2044
2048
2048
2048
2041
2041
2041
2044
2044
2044
2037
2037
2037
2043
2043
2043
2043
2046
2046
2046
2048
2048
2048
2047
2047
2047
2047
2047
2047
2047
2047
2047
2047
2045
2045
2045
2044
2044
2044
2039
2039
2039
2046
2046
2046
2045
2045
2045
2045
2043
2043
2043
2053
2053
2053
2044
2044
2044
2043
2043
2043
2046
2046
2046
2046
2046
2046
2046
2047
2047
2047
2044
2044
2044
2043
2043
2043
2048
2048
2048
2048
2044
2044
2044
2046
2046
2046
2051
2051
2051
2044
2044
2044
2048
2048
2048
2048
2044
2044
2044
2051
2051
2051
2046
2046
2046
2045
2045
2045
2045
2045
2045
2045
2047
2047
2047
2042
2042
2042
2046
2046
2046
2047
2047
2047
2047
2047
2047
2047
2044
2044
2044
2048
2048
2048
2047
2047
2047
2046
2046
2046
2048
2048
2048
2048
2049
2049
2049
2046
2046
2046
2048
2048
2048
2041
2041
2041
2046
2046
2046
2046
2046
2046
2046
2049
2049
2049
2047
2047
2047
2046
2046
2046
2046
2046
2046
2046
2044
2044
2044
2047
2047
2047
2047
2047
2047
2043
2043
2043
2044
2044
2044
2044
2045
2045
2045
2047
2047
2047
2044
2044
2044
2047
2047
2047
2047
2047
2047
2047
2049
2049
2049
2044
2044
2044
2048
2048
2048
2044
2044
2044
2049
2049
2049
2049
2045
2045
2045
2046
2046
2046
2045
2045
2045
2051
2051
2051
2046
2046
2046
2046
2046
2046
2046
2045
2045
2045
2045
2045
2045
2044
2044
2044
2046
2046
2046
2046
2044
2044
2044
2046
2046
2046
2049
2049
2049
2046
2046
2046
2050
2050
2050
2050
2044
2044
2044
2046
2046
2046
2043
2043
2043
2046
2046
2046
2047
2047
2047
2047
2045
2045
2045
2048
2048
2048
2045
2045
2045
2045
2045
2045
2047
2047
2047
2047
2042
2042
2042
2049
2049
2049
2044
2044
2044
2046
2046
2046
2045
2045
2045
2045
2044
2044
2044
2048
2048
2048
2040
2040
2040
2046
2046
2046
2045
2045
2045
2045
2052
2052
2052
2047
2047
2047
2045
2045
2045
2042
2042
2042
2047
2047
2047
2047
2042
2042
2042
2039
2039
2039
2047
2047
2047
2047
2047
2047
2045
2045
2045
2045
2044
2044
2044
2044
2044
2044
2052
2052
2052
2046
2046
2046
2045
2045
2045
2045
2040
2040
2040
2049
2049
2049
2051
2051
2051
2046
2046
2046
2047
2047
2047
2047
2048
2048
2048
2043
2043
2043
2045
2045
2045
2044
2044
2044
2047
2047
2047
2047
2044
2044
2044
2049
2049
2049
2047
2047
2047
2041
2041
2041
2045
2045
2045
2045
2045
2045
2045
2045
2045
2045
2048
2048
2048
2047
2047
2047
2049
2049
2049
2049
2042
2042
2042
2046
2046
2046
2042
2042
2042
2044
2044
2044
2046
2046
2046
2046
2045
2045
2045
2044
2044
2044
2048
2048
2048
2050
2050
2050
2049
2049
2049
2049
2046
2046
2046
2047
2047
2047
2044
2044
2044
2046
2046
2046
2044
2044
2044
2044
2046
2046
2046
2044
2044
2044
2047
2047
2047
2042
2042
2042
2043
2043
2043
2043
2051
2051
2051
2047
2047
2047
2045
2045
2045
2046
2046
2046
2043
2043
2043
2043
2044
2044
2044
2043
2043
2043
2052
2052
2052
2044
2044
2044
2044
2044
2044
2044
2044
2044
2044
2045
2045
2045
2049
2049
2049
2044
2044
2044
2043
2043
2043
2043
2045
2045
2045
2045
2045
2045
2044
