2032
2032
2032
2032
2032
2030
2030
2030
2035
2035
2035
2035
2034
2034
2034
2029
2029
2029
2039
2039
2039
2028
2028
2028
2034
2034
2034
2034
2034
2034
2034
2029
2029
2029
2032
2032
2032
2025
2025
2025
2035
2035
2035
2035
2035
2035
2035
2031
2031
2031
2034
2034
2034
2028
2028
2028
2033
2033
2033
2033
2034
2034
2034
2030
2030
2030
2033
2033
2033
2035
2035
2035
2032
2032
2032
2032
2033
2033
2033
2031
2031
2031
2033
2032
2032
2031
2031
2031
2029
2029
2029
2041
2041
2041
2041
2034
2034
2034
2029
2029
2029
2035
2035
2035
2033
2033
2033
2031
2031
2031
2031
2031
2031
2031
2031
2031
2031
2035
2035
2035
2032
2032
2032
2037
2037
2037
2037
2032
2032
2032
2032
2032
2032
2031
2031
2031
2033
2033
2033
2035
2035
2035
2035
2022
2022
2022
2028
2028
2028
2032
2032
2032
2029
2029
2029
2035
2035
2035
2035
2031
2031
2031
2033
2033
2033
2035
2035
2035
2031
2031
2031
2034
2034
2034
2034
2031
2031
2031
2031
2031
2031
2038
2038
2038
2030
2030
2030
2034
2034
2034
2034
2034
2034
2034
2035
2035
2035
2035
2035
2035
2028
2028
2028
2034
2034
2034
2034
2031
2031
2031
2030
2030
2030
2034
2034
2034
2030
2030
2030
2035
2035
2035
2035
2032
2032
2032
2035
2035
2035
2035
2035
2035
2034
2034
2034
2034
2034
2034
2034
2032
2032
2032
2032
2032
2032
2026
2026
2026
2029
2029
2029
2033
2033
2033
2033
2036
2036
2036
2032
2032
2032
2035
2035
2035
2025
2025
2025
2036
2036
2036
2036
2033
2033
2033
2030
2030
2030
2031
2031
2031
2031
2031
2031
2032
2032
2032
2032
2033
2033
2033
2025
2025
2025
2038
2038
2038
2022
2022
2022
2035
2035
2035
2035
2036
2036
2036
2031
2031
2031
2034
2034
2034
2031
2031
2031
2036
2036
2036
2036
2032
2032
2032
2026
2026
2026
2036
2036
2036
2031
2031
2031
2036
2036
2036
2036
2033
2033
2033
2026
2026
2026
2031
2031
2031
2029
2029
2029
2033
2033
2033
2033
2035
2035
2035
2033
2033
2033
2028
2028
2028
2023
2023
2023
2036
2036
2036
2036
2036
2036
2036
2030
2030
2030
2031
2031
2031
2031
2031
2031
2031
2031
2031
2031
2033
2033
2033
2029
2029
2029
2035
2035
2035
2030
2030
2030
2035
2035
2035
2035
2034
2034
2034
2029
2029
2029
2033
2033
2033
2031
2031
2031
2028
2028
2028
2028
2033
2033
2033
2029
2029
2029
2033
2033
2033
2026
2026
2026
2036
2036
2036
2036
2034
2034
2034
2030
2030
2030
2033
2033
2033
2035
2035
2035
2037
2037
2037
2037
2034
2034
2034
2030
2030
2030
2033
2033
2033
2029
2029
2029
2036
2036
2036
2036
2035
2035
2035
2028
2028
2028
2035
2035
2035
2030
2030
2030
2032
2032
2032
2032
2032
2032
2032
2034
2034
2034
2034
2034
2034
2033
2033
2033
2032
2032
2032
2032
2028
2028
2028
2032
2032
2032
2030
2030
2030
2032
2032
2032
2032
2032
2032
2032
2038
2038
2038
2031
2031
2031
2032
2032
2032
2030
2030
2030
2035
2035
2035
2035
2031
2031
2031
2031
2031
2031
2036
2036
2036
2028
2028
2028
2036
2036
2036
2036
2033
2033
2033
2029
2029
2029
2034
2034
2034
2026
2026
2026
2036
2036
2036
2036
2031
2031
2031
2026
2026
2026
2033
2033
2033
2024
2024
2024
2036
2036
2036
2036
2034
2034
2034
2031
2031
2031
2036
2036
2036
2029
2029
2029
2034
2034
2034
2034
2035
2035
2035
2029
2029
2029
2036
2036
2036
2030
2030
2030
2040
2040
2040
2040
2034
2034
2034
2030
2030
2030
2035
2035
2035
2029
2029
2029
2034
2034
2034
2034
2035
2035
2035
2029
2029
2029
2035
2035
2035
2033
2033
2033
2035
2035
2035
2035
2034
2034
2034
2029
2029
2029
2034
2034
2034
2030
2030
2030
2035
2035
2035
2035
2035
2035
2035
2029
2029
2029
2034
2034
2034
2028
2028
2028
2035
2035
2035
2035
2032
2032
2032
2031
2031
2031
2033
2033
2033
2032
2032
2032
2036
2036
2036
2036
2035
2035
2035
2031
2031
2031
2035
2035
2035
2029
2029
2029
2034
2034
2034
2034
2033
2033
2033
2031
2031
2031
2034
2034
2034
2030
2030
2030
2034
2034
2034
2034
2032
2032
2032
2032
2032
2032
2033
2033
2033
2031
2031
2031
2033
2033
2033
2033
2026
2026
2026
2031
2031
2031
2037
2037
2037
2028
2028
2028
2033
2033
2033
2033
2035
2035
2035
2033
2033
2033
2033
2033
2033
2030
2030
2030
2035
2035
2035
2035
2031
2031
2031
2030
2030
2030
2032
2032
2032
2033
2033
2033
2030
2030
2030
2030
2035
2035
2035
2028
2028
2028
2036
2036
2036
2029
2029
2029
2034
2034
2034
2034
2033
2033
2033
2032
2032
2032
2033
2033
2033
2027
2027
2027
2040
2040
2040
2040
2033
2033
2033
2031
2031
2031
2032
2032
2032
2028
2028
2028
2032
2032
2032
2032
2032
2032
2032
2029
2029
2029
2035
2035
2035
2030
2030
2030
2038
2038
2038
2038
2032
2032
2032
2032
2032
2032
2035
2035
2035
2027
2027
2027
2032
2032
2032
2032
2034
2034
2034
2030
2030
2030
2032
2032
2032
2031
2031
2031
2032
2032
2032
2032
2035
2035
2035
2028
2028
2028
2031
2031
2031
2029
2029
2029
2034
2034
2034
2034
2033
2033
2033
2031
2031
2031
2032
2032
2032
2029
2029
2029
2034
2034
2034
2034
2035
2035
2035
2031
2031
2031
2034
2034
2034
2029
2029
2029
2035
2035
2035
2035
2035
2035
2035
2032
2032
2032
2034
2034
2034
2031
2031
2031
2035
2035
2035
2035
2040
2040
2040
2030
2030
2030
2034
2034
2034
2033
2033
2033
2032
2032
2032
2032
2036
2036
2036
2029
2029
2029
2033
2033
2033
2031
2031
2031
2033
2033
2033
2033
2035
2035
2035
2025
2025
2025
2036
2036
2036
2027
2027
2027
2035
2035
2035
2035
2035
2035
2035
2030
2030
2030
2034
2034
2034
