2028
2033
2033
2033
2033
2031
2031
2031
2026
2026
2026
2026
2026
2026
2026
2026
2026
2031
2031
2031
2031
2029
2029
2029
2023
2023
2023
2029
2029
2029
2030
2030
2030
2030
2030
2030
2030
2028
2028
2028
2022
2022
2022
2030
2030
2030
2029
2029
2029
2024
2024
2024
2024
2029
2029
2029
2026
2026
2026
2031
2031
2031
2033
2033
2033
2029
2029
2029
2029
2031
2031
2031
2025
2025
2025
2032
2032
2032
2023
2023
2023
2030
2030
2026
2028
2028
2028
2028
2030
2030
2030
2025
2025
2025
2028
2028
2028
2026
2026
2026
2029
2029
2029
2029
2025
2025
2025
2025
2025
2025
2030
2030
2030
2027
2027
2027
2029
2029
2029
2029
2028
2028
2028
2024
2024
2024
2027
2027
2027
2025
2025
2025
2030
2030
2030
2030
2029
2029
2029
2025
2025
2025
2030
2030
2030
2026
2026
2026
2025
2025
2025
2025
2028
2028
2028
2028
2028
2028
2030
2030
2030
2027
2027
2027
2028
2028
2028
2028
2031
2031
2031
2029
2029
2029
2029
2029
2029
2027
2027
2027
2028
2028
2028
2028
2027
2027
2027
2026
2026
2026
2027
2027
2027
2024
2024
2024
2028
2028
2028
2028
2028
2028
2028
2026
2026
2026
2030
2030
2030
2025
2025
2025
2028
2028
2028
2028
2029
2029
2029
2025
2025
2025
2028
2028
2028
2027
2027
2027
2029
2029
2029
2029
2030
2030
2030
2027
2027
2027
2027
2027
2027
2027
2027
2027
2027
2027
2027
2027
2027
2027
2027
2019
2019
2019
2029
2029
2029
2027
2027
2027
2029
2029
2029
2029
2028
2028
2028
2026
2026
2026
2030
2030
2030
2025
2025
2025
2030
2030
2030
2030
2028
2028
2028
2025
2025
2025
2034
2034
2034
2029
2029
2029
2026
2026
2026
2026
2027
2027
2027
2026
2026
2026
2028
2028
2028
2018
2018
2018
2024
2024
2024
2024
2034
2034
2034
2027
2027
2027
2030
2030
2030
2025
2025
2025
2028
2028
2028
2028
2029
2029
2029
2024
2024
2024
2028
2028
2028
2025
2025
2025
2026
2026
2026
2026
2030
2030
2030
2023
2023
2023
2030
2030
2030
2025
2025
2025
2031
2031
2031
2031
2030
2030
2030
2029
2029
2029
2032
2032
2032
2025
2025
2025
2031
2031
2031
2031
2028
2028
2028
2026
2026
2026
2027
2027
2027
2027
2027
2027
2017
2017
2017
2017
2027
2027
2027
2015
2015
2015
2032
2032
2032
2026
2026
2026
2031
2031
2031
2031
2028
2028
2028
2028
2028
2028
2029
2029
2029
2017
2017
2017
2027
2027
2027
2027
2020
2020
2020
2027
2027
2027
2034
2034
2034
2024
2024
2024
2030
2030
2030
2030
2027
2027
2027
2025
2025
2025
2027
2027
2027
2036
2036
2036
2029
2029
2029
2029
2028
2028
2028
2025
2025
2025
2028
2028
2028
2024
2024
2024
2027
2027
2027
2027
2022
2022
2022
2025
2025
2025
2030
2030
2030
2026
2026
2026
2030
2030
2030
2030
2028
2028
2028
2025
2025
2025
2029
2029
2029
2029
2029
2029
2028
2028
2028
2028
2031
2031
2031
2024
2024
2024
2030
2030
2030
2024
2024
2024
2028
2028
2028
2028
2026
2026
2026
2027
2027
2027
2025
2025
2025
2023
2023
2023
2031
2031
2031
2031
2029
2029
2029
2025
2025
2025
2029
2029
2029
2023
2023
2023
2032
2032
2032
2032
2027
2027
2027
2025
2025
2025
2029
2029
2029
2024
2024
2024
2029
2029
2029
2029
2027
2027
2027
2027
2027
2027
2029
2029
2029
2024
2024
2024
2030
2030
2030
2030
2033
2033
2033
2025
2025
2025
2028
2028
2028
2026
2026
2026
2030
2030
2030
2030
2028
2028
2028
2024
2024
2024
2024
2024
2024
2028
2028
2028
2028
2028
2028
2028
2029
2029
2029
2025
2025
2025
2028
2028
2028
2022
2022
2022
2034
2034
2034
2034
2028
2028
2028
2025
2025
2025
2027
2027
2027
2025
2025
2025
2032
2032
2032
2032
2026
2026
2026
2025
2025
2025
2030
2030
2030
2025
2025
2025
2029
2029
2029
2029
2031
2031
2031
2028
2028
2028
2023
2023
2023
2028
2028
2028
2037
2037
2037
2037
2028
2028
2028
2022
2022
2022
2029
2029
2029
2026
2026
2026
2029
2029
2029
2029
2028
2028
2028
2026
2026
2026
2026
2026
2026
2031
2031
2031
2034
2034
2034
2034
2023
2023
2023
2025
2025
2025
2031
2031
2031
2025
2025
2025
2033
2033
2033
2033
2028
2028
2028
2021
2021
2021
2028
2028
2028
2022
2022
2022
2026
2026
2026
2026
2031
2031
2031
2024
2024
2024
2031
2031
2031
2027
2027
2027
2032
2032
2032
2032
2026
2026
2026
2024
2024
2024
2029
2029
2029
2023
2023
2023
2025
2025
2025
2025
2027
2027
2027
2027
2027
2027
2029
2029
2029
2032
2032
2032
2028
2028
2028
2028
2028
2028
2028
2029
2029
2029
2015
2015
2015
2026
2026
2026
2024
2024
2024
2024
2028
2028
2028
2027
2027
2027
2031
2031
2031
2028
2028
2028
2028
2028
2028
2028
2028
2028
2028
2028
2028
2028
2027
2027
2027
2026
2026
2026
2027
2027
2027
2027
2027
2027
2027
2028
2028
2028
2031
2031
2031
2026
2026
2026
2030
2030
2030
2030
2030
2030
2030
2027
2027
2027
2030
2030
2030
2028
2028
2028
2023
2023
2023
2023
2022
2022
2022
2026
2026
2026
2028
2028
2028
2027
2027
2027
2027
2027
2027
2027
2024
2024
2024
2025
2025
2025
2027
2027
2027
2025
2025
2025
2030
2030
2030
2030
2025
2025
2025
2027
2027
2027
2027
2027
2027
2026
2026
2026
2031
2031
2031
2031
2027
2027
2027
2023
2023
2023
2028
2028
2028
2026
2026
2026
2028
2028
2028
2028
2028
2028
2028
2026
2026
2026
2029
2029
2029
2025
2025
2025
2028
2028
2028
2028
2028
2028
2028
2025
2025
2025
2029
2029
2029
2025
2025
2025
2030
2030
2030
2030
2028
2028
2028
2026
2026
2026
2029
2029
2029
2024
2024
2024
2028
2028
2028
2028
2028
2028
2028
2025
2025
2025
2027
2027
2027
2023
2023
2023
2029
2029
2029
2029
