2022
2022
2017
2017
2017
2024
2024
2024
2019
2019
2019
2023
2023
2023
2023
2022
2022
2022
2019
2019
2019
2025
2025
2025
2017
2017
2017
2020
2020
2020
2020
2024
2024
2024
2020
2020
2020
2024
2024
2024
2017
2017
2017
2026
2026
2026
2026
2023
2023
2023
2017
2017
2017
2021
2021
2021
2019
2019
2019
2024
2024
2024
2024
2021
2021
2021
2020
2020
2020
2022
2022
2022
2018
2018
2018
2022
2022
2022
2022
2023
2023
2023
2018
2015
2015
2024
2024
2024
2018
2018
2018
2019
2019
2019
2024
2024
2024
2024
2022
2022
2022
2022
2022
2022
2019
2019
2019
2017
2017
2017
2018
2018
2018
2018
2021
2021
2021
2015
2015
2015
2024
2024
2024
2022
2022
2022
2028
2028
2028
2028
2022
2022
2022
2020
2020
2020
2023
2023
2023
2021
2021
2021
2022
2022
2022
2022
2025
2025
2025
2022
2022
2022
2023
2023
2023
2020
2020
2020
2024
2024
2024
2024
2022
2022
2022
2013
2013
2013
2020
2020
2020
2018
2018
2018
2022
2022
2022
2022
2026
2026
2026
2018
2018
2018
2021
2021
2021
2020
2020
2020
2021
2021
2021
2021
2023
2023
2023
2023
2023
2023
2022
2022
2022
2021
2021
2021
2023
2023
2023
2023
2019
2019
2019
2021
2021
2021
2025
2025
2025
2020
2020
2020
2022
2022
2022
2022
2015
2015
2015
2020
2020
2020
2025
2025
2025
2021
2021
2021
2021
2021
2021
2021
2021
2021
2021
2020
2020
2020
2022
2022
2022
2018
2018
2018
2024
2024
2024
2024
2023
2023
2023
2020
2020
2020
2025
2025
2025
2018
2018
2018
2023
2023
2023
2023
2021
2021
2021
2024
2024
2024
2022
2022
2022
2018
2018
2018
2024
2024
2024
2024
2022
2022
2022
2020
2020
2020
2023
2023
2023
2018
2018
2018
2025
2025
2025
2025
2024
2024
2024
2021
2021
2021
2024
2024
2024
2018
2018
2018
2022
2022
2022
2022
2021
2021
2021
2024
2024
2024
2023
2023
2023
2018
2018
2018
2022
2022
2022
2022
2021
2021
2021
2017
2017
2017
2020
2020
2020
2020
2020
2020
2020
2020
2020
2020
2023
2023
2023
2019
2019
2019
2021
2021
2021
2018
2018
2018
2023
2023
2023
2023
2024
2024
2024
2017
2017
2017
2022
2022
2022
2019
2019
2019
2029
2029
2029
2029
2023
2023
2023
2019
2019
2019
2023
2023
2023
2020
2020
2020
2022
2022
2022
2022
2026
2026
2026
2016
2016
2016
2022
2022
2022
2019
2019
2019
2022
2022
2022
2022
2022
2022
2022
2016
2016
2016
2024
2024
2024
2020
2020
2020
2023
2023
2023
2023
2022
2022
2022
2018
2018
2018
2021
2021
2021
2016
2016
2016
2020
2020
2020
2020
2019
2019
2019
2020
2020
2020
2023
2023
2023
2011
2011
2011
2020
2020
2020
2020
2025
2025
2025
2021
2021
2021
2023
2023
2023
2016
2016
2016
2024
2024
2024
2024
2023
2023
2023
2013
2013
2013
2023
2023
2023
2016
2016
2016
2024
2024
2024
2024
2024
2024
2024
2020
2020
2020
2021
2021
2021
2020
2020
2020
2022
2022
2022
2022
2024
2024
2024
2013
2013
2013
2020
2020
2020
2016
2016
2016
2021
2021
2021
2021
2024
2024
2024
2020
2020
2020
2026
2026
2026
2021
2021
2021
2018
2018
2018
2018
2024
2024
2024
2017
2017
2017
2020
2020
2020
2019
2019
2019
2022
2022
2022
2022
2020
2020
2020
2014
2014
2014
2022
2022
2022
2019
2019
2019
2023
2023
2023
2023
2018
2018
2018
2019
2019
2019
2023
2023
2023
2020
2020
2020
2022
2022
2022
2022
2023
2023
2023
2021
2021
2021
2023
2023
2023
2019
2019
2019
2021
2021
2021
2021
2022
2022
2022
2019
2019
2019
2023
2023
2023
2019
2019
2019
2020
2020
2020
2020
2023
2023
2023
2020
2020
2020
2023
2023
2023
2018
2018
2018
2021
2021
2021
2021
2025
2025
2025
2019
2019
2019
2021
2021
2021
2020
2020
2020
2021
2021
2021
2021
2017
2017
2017
2018
2018
2018
2023
2023
2023
2019
2019
2019
2023
2023
2023
2023
2023
2023
2023
2020
2020
2020
2022
2022
2022
2018
2018
2018
2024
2024
2024
2024
2023
2023
2023
2020
2020
2020
2021
2021
2021
2016
2016
2016
2024
2024
2024
2024
2021
2021
2021
2019
2019
2019
2022
2022
2022
2018
2018
2018
2020
2020
2020
2020
2021
2021
2021
2020
2020
2020
2020
2020
2020
2017
2017
2017
2020
2020
2020
2020
2021
2021
2021
2020
2020
2020
2021
2021
2021
2018
2018
2018
2022
2022
2022
2022
2021
2021
2021
2021
2021
2021
2021
2021
2021
2019
2019
2019
2020
2020
2020
2020
2021
2021
2021
2018
2018
2018
2022
2022
2022
2018
2018
2018
2024
2024
2024
2024
2022
2022
2022
2018
2018
2018
2023
2023
2023
2019
2019
2019
2027
2027
2027
2027
2020
2020
2020
2019
2019
2019
2021
2021
2021
2017
2017
2017
2023
2023
2023
2023
2027
2027
2027
2017
2017
2017
2023
2023
2023
2015
2015
2015
2021
2021
2021
2021
2021
2021
2021
2020
2020
2020
2022
2022
2022
2019
2019
2019
2021
2021
2021
2021
2022
2022
2022
2018
2018
2018
2020
2020
2020
2017
2017
2017
2027
2027
2027
2027
2022
2022
2022
2016
2016
2016
2022
2022
2022
2023
2023
2023
2026
2026
2026
2026
2022
2022
2022
2018
2018
2018
2025
2025
2025
2018
2018
2018
2024
2024
2024
2024
2017
2017
2017
2019
2019
2019
2026
2026
2026
2017
2017
2017
2023
2023
2023
2023
2018
2018
2018
2023
2023
2023
2027
2027
2027
2019
2019
2019
2021
2021
2021
2021
2022
2022
2022
2017
2017
2017
2024
2024
2024
2013
2013
2013
2019
2019
2019
2019
2021
2021
2021
2025
2025
2025
2024
2024
2024
2017
2017
2017
2022
2022
2022
2022
2022
2022
2022
2017
2017
2017
2022
2022
2022
2019
2019
2019
2022
2022
2022
2022
2018
2018
2018
2019
2019
2019
2021
2021
2021
2019
2019
2019
2021
2021
2021
2021
2020
2020
2020
2023
2023
2023
