2027
2030
2030
2030
2026
2026
2026
2030
2030
2030
2030
2029
2029
2029
2027
2027
2027
2030
2030
2030
2025
2025
2025
2029
2029
2029
2029
2025
2025
2025
2028
2028
2028
2022
2022
2022
2024
2024
2024
2029
2029
2029
2029
2028
2028
2028
2024
2024
2024
2030
2030
2030
2027
2027
2027
2032
2032
2032
2032
2029
2029
2029
2032
2032
2032
2031
2031
2031
2024
2024
2024
2031
2031
2031
2031
2030
2030
2030
2026
2026
2026
2029
2029
2027
2027
2031
2031
2031
2030
2030
2030
2033
2033
2033
2033
2036
2036
2036
2025
2025
2025
2030
2030
2030
2026
2026
2026
2031
2031
2031
2031
2030
2030
2030
2027
2027
2027
2030
2030
2030
2025
2025
2025
2031
2031
2031
2031
2031
2031
2031
2026
2026
2026
2030
2030
2030
2025
2025
2025
2032
2032
2032
2032
2030
2030
2030
2027
2027
2027
2033
2033
2033
2031
2031
2031
2030
2030
2030
2030
2030
2030
2030
2036
2036
2036
2031
2031
2031
2026
2026
2026
2029
2029
2029
2029
2028
2028
2028
2026
2026
2026
2033
2033
2033
2027
2027
2027
2031
2031
2031
2031
2031
2031
2031
2030
2030
2030
2031
2031
2031
2023
2023
2023
2031
2031
2031
2031
2029
2029
2029
2025
2025
2025
2031
2031
2031
2031
2031
2031
2032
2032
2032
2032
2034
2034
2034
2030
2030
2030
2034
2034
2034
2023
2023
2023
2030
2030
2030
2030
2031
2031
2031
2025
2025
2025
2032
2032
2032
2026
2026
2026
2031
2031
2031
2031
2029
2029
2029
2027
2027
2027
2031
2031
2031
2026
2026
2026
2029
2029
2029
2029
2032
2032
2032
2026
2026
2026
2032
2032
2032
2027
2027
2027
2030
2030
2030
2030
2030
2030
2030
2023
2023
2023
2027
2027
2027
2026
2026
2026
2029
2029
2029
2029
2030
2030
2030
2028
2028
2028
2025
2025
2025
2026
2026
2026
2034
2034
2034
2034
2028
2028
2028
2028
2028
2028
2031
2031
2031
2027
2027
2027
2032
2032
2032
2032
2031
2031
2031
2023
2023
2023
2029
2029
2029
2027
2027
2027
2030
2030
2030
2030
2030
2030
2030
2023
2023
2023
2032
2032
2032
2026
2026
2026
2029
2029
2029
2029
2028
2028
2028
2028
2028
2028
2030
2030
2030
2026
2026
2026
2030
2030
2030
2030
2032
2032
2032
2026
2026
2026
2032
2032
2032
2024
2024
2024
2030
2030
2030
2030
2028
2028
2028
2029
2029
2029
2031
2031
2031
2022
2022
2022
2033
2033
2033
2033
2026
2026
2026
2029
2029
2029
2030
2030
2030
2024
2024
2024
2032
2032
2032
2032
2029
2029
2029
2027
2027
2027
2031
2031
2031
2025
2025
2025
2034
2034
2034
2034
2030
2030
2030
2024
2024
2024
2031
2031
2031
2027
2027
2027
2030
2030
2030
2030
2029
2029
2029
2027
2027
2027
2031
2031
2031
2025
2025
2025
2029
2029
2029
2029
2028
2028
2028
2022
2022
2022
2031
2031
2031
2023
2023
2023
2029
2029
2029
2029
2027
2027
2027
2029
2029
2029
2030
2030
2030
2023
2023
2023
2032
2032
2032
2032
2030
2030
2030
2027
2027
2027
2031
2031
2031
2026
2026
2026
2029
2029
2029
2029
2027
2027
2027
2029
2029
2029
2033
2033
2033
2025
2025
2025
2034
2034
2034
2034
2031
2031
2031
2027
2027
2027
2031
2031
2031
2026
2026
2026
2030
2030
2030
2030
2026
2026
2026
2028
2028
2028
2029
2029
2029
2025
2025
2025
2031
2031
2031
2031
2029
2029
2029
2028
2028
2028
2030
2030
2030
2024
2024
2024
2032
2032
2032
2032
2031
2031
2031
2026
2026
2026
2032
2032
2032
2025
2025
2025
2025
2025
2025
2025
2028
2028
2028
2024
2024
2024
2032
2032
2032
2028
2028
2028
2032
2032
2032
2032
2031
2031
2031
2028
2028
2028
2030
2030
2030
2025
2025
2025
2029
2029
2029
2029
2030
2030
2030
2027
2027
2027
2031
2031
2031
2024
2024
2024
2029
2029
2029
2029
2028
2028
2028
2027
2027
2027
2030
2030
2030
2024
2024
2024
2025
2025
2025
2025
2034
2034
2034
2026
2026
2026
2025
2025
2025
2029
2029
2029
2030
2030
2030
2030
2027
2027
2027
2026
2026
2026
2030
2030
2030
2026
2026
2026
2028
2028
2028
2028
2029
2029
2029
2027
2027
2027
2028
2028
2028
2025
2025
2025
2029
2029
2029
2029
2030
2030
2030
2028
2028
2028
2023
2023
2023
2025
2025
2025
2030
2030
2030
2030
2029
2029
2029
2032
2032
2032
2036
2036
2036
2024
2024
2024
2031
2031
2031
2031
2032
2032
2032
2031
2031
2031
2031
2031
2031
2030
2030
2030
2032
2032
2032
2032
2030
2030
2030
2026
2026
2026
2030
2030
2030
2025
2025
2025
2031
2031
2031
2031
2027
2027
2027
2026
2026
2026
2030
2030
2030
2026
2026
2026
2034
2034
2034
2034
2031
2031
2031
2029
2029
2029
2034
2034
2034
2024
2024
2024
2029
2029
2029
2029
2028
2028
2028
2025
2025
2025
2030
2030
2030
2027
2027
2027
2028
2028
2028
2028
2034
2034
2034
2021
2021
2021
2034
2034
2034
2028
2028
2028
2031
2031
2031
2031
2030
2030
2030
2025
2025
2025
2031
2031
2031
2027
2027
2027
2027
2027
2027
2027
2029
2029
2029
2023
2023
2023
2034
2034
2034
2027
2027
2027
2031
2031
2031
2031
2030
2030
2030
2026
2026
2026
2032
2032
2032
2026
2026
2026
2034
2034
2034
2034
2027
2027
2027
2025
2025
2025
2028
2028
2028
2027
2027
2027
2029
2029
2029
2029
2027
2027
2027
2029
2029
2029
2025
2025
2025
2015
2015
2015
2038
2038
2038
2038
2028
2028
2028
2030
2030
2030
2032
2032
2032
2030
2030
2030
2031
2031
2031
2031
2021
2021
2021
2025
2025
2025
2032
2032
2032
2026
2026
2026
2029
2029
2029
2029
2030
2030
2030
2026
2026
2026
2030
2030
2030
2025
2025
2025
2030
2030
2030
2030
2033
2033
2033
2025
2025
2025
2029
2029
2029
2025
2025
2025
2029
2029
2029
2029
2029
2029
2029
2026
2026
2026
2032
2032
2032
