2024
2024
2024
2033
2033
2033
2030
2030
2030
2033
2033
2033
2033
2038
2038
2038
2034
2034
2034
2033
2033
2033
2033
2033
2033
2034
2034
2034
2034
2034
2034
2034
2031
2031
2031
2032
2032
2032
2030
2030
2030
2034
2034
2034
2034
2034
2034
2034
2031
2031
2031
2033
2033
2033
2030
2030
2030
2025
2025
2025
2025
2033
2033
2033
2031
2031
2031
2035
2035
2035
2039
2039
2039
2035
2035
2035
2035
2033
2033
2033
2030
2030
2030
2030
2030
2030
2036
2036
2036
2030
2030
2030
2033
2033
2033
2033
2033
2033
2033
2028
2028
2028
2027
2027
2027
2032
2032
2032
2029
2029
2029
2029
2035
2035
2035
2027
2027
2027
2031
2031
2031
2031
2031
2031
2032
2032
2032
2032
2027
2027
2027
2032
2032
2032
2034
2034
2034
2028
2028
2028
2031
2031
2031
2031
2034
2034
2034
2032
2032
2032
2035
2035
2035
2028
2028
2028
2035
2035
2035
2035
2037
2037
2037
2032
2032
2032
2035
2035
2035
2031
2031
2031
2037
2037
2037
2037
2035
2035
2035
2031
2031
2031
2035
2035
2035
2027
2027
2027
2034
2034
2034
2034
2031
2031
2031
2030
2030
2030
2025
2025
2025
2031
2031
2031
2036
2036
2036
2036
2034
2034
2034
2039
2039
2039
2037
2037
2037
2029
2029
2029
2037
2037
2037
2037
2042
2042
2042
2035
2035
2035
2036
2036
2036
2029
2029
2029
2035
2035
2035
2035
2034
2034
2034
2030
2030
2030
2033
2033
2033
2030
2030
2030
2033
2033
2033
2033
2036
2036
2036
2033
2033
2033
2034
2034
2034
2032
2032
2032
2041
2041
2041
2041
2034
2034
2034
2032
2032
2032
2035
2035
2035
2031
2031
2031
2035
2035
2035
2035
2034
2034
2034
2030
2030
2030
2038
2038
2038
2030
2030
2030
2036
2036
2036
2036
2035
2035
2035
2035
2035
2035
2030
2030
2030
2028
2028
2028
2033
2033
2033
2033
2036
2036
2036
2030
2030
2030
2035
2035
2035
2029
2029
2029
2036
2036
2036
2036
2034
2034
2034
2030
2030
2030
2033
2033
2033
2030
2030
2030
2033
2033
2033
2033
2032
2032
2032
2030
2030
2030
2033
2033
2033
2031
2031
2031
2044
2044
2044
2044
2034
2034
2034
2032
2032
2032
2034
2034
2034
2034
2034
2034
2035
2035
2035
2035
2035
2035
2035
2031
2031
2031
2035
2035
2035
2027
2027
2027
2037
2037
2037
2037
2034
2034
2034
2033
2033
2033
2035
2035
2035
2026
2026
2026
2033
2033
2033
2033
2043
2043
2043
2031
2031
2031
2030
2030
2030
2028
2028
2028
2031
2031
2031
2031
2033
2033
2033
2030
2030
2030
2031
2031
2031
2033
2033
2033
2031
2031
2031
2031
2032
2032
2032
2027
2027
2027
2033
2033
2033
2028
2028
2028
2029
2029
2029
2029
2033
2033
2033
2030
2030
2030
2035
2035
2035
2030
2030
2030
2035
2035
2035
2035
2032
2032
2032
2028
2028
2028
2024
2024
2024
2031
2031
2031
2036
2036
2036
2036
2032
2032
2032
2026
2026
2026
2034
2034
2034
2029
2029
2029
2035
2035
2035
2035
2037
2037
2037
2026
2026
2026
2034
2034
2034
2030
2030
2030
2034
2034
2034
2034
2033
2033
2033
2032
2032
2032
2034
2034
2034
2029
2029
2029
2037
2037
2037
2037
2030
2030
2030
2027
2027
2027
2035
2035
2035
2030
2030
2030
2036
2036
2036
2036
2034
2034
2034
2030
2030
2030
2034
2034
2034
2038
2038
2038
2036
2036
2036
2036
2035
2035
2035
2028
2028
2028
2038
2038
2038
2029
2029
2029
2032
2032
2032
2032
2036
2036
2036
2033
2033
2033
2037
2037
2037
2029
2029
2029
2032
2032
2032
2032
2028
2028
2028
2029
2029
2029
2032
2032
2032
2031
2031
2031
2035
2035
2035
2035
2032
2032
2032
2030
2030
2030
2036
2036
2036
2029
2029
2029
2033
2033
2033
2033
2036
2036
2036
2030
2030
2030
2033
2033
2033
2032
2032
2032
2031
2031
2031
2031
2035
2035
2035
2030
2030
2030
2034
2034
2034
2029
2029
2029
2043
2043
2043
2043
2030
2030
2030
2031
2031
2031
2033
2033
2033
2032
2032
2032
2033
2033
2033
2033
2029
2029
2029
2033
2033
2033
2033
2033
2033
2021
2021
2021
2033
2033
2033
2033
2031
2031
2031
2021
2021
2021
2034
2034
2034
2035
2035
2035
2035
2035
2035
2035
2034
2034
2034
2032
2032
2032
2037
2037
2037
2031
2031
2031
2034
2034
2034
2034
2022
2022
2022
2032
2032
2032
2032
2032
2032
2031
2031
2031
2034
2034
2034
2034
2031
2031
2031
2033
2033
2033
2034
2034
2034
2034
2034
2034
2036
2036
2036
2036
2040
2040
2040
2032
2032
2032
2034
2034
2034
2029
2029
2029
2035
2035
2035
2035
2034
2034
2034
2031
2031
2031
2039
2039
2039
2030
2030
2030
2033
2033
2033
2033
2036
2036
2036
2032
2032
2032
2033
2033
2033
2026
2026
2026
2037
2037
2037
2037
2036
2036
2036
2027
2027
2027
2032
2032
2032
2032
2032
2032
2034
2034
2034
2034
2035
2035
2035
2028
2028
2028
2034
2034
2034
2030
2030
2030
2034
2034
2034
2034
2034
2034
2034
2030
2030
2030
2033
2033
2033
2031
2031
2031
2024
2024
2024
2024
2035
2035
2035
2033
2033
2033
2033
2033
2033
2031
2031
2031
2035
2035
2035
2035
2037
2037
2037
2027
2027
2027
2034
2034
2034
2023
2023
2023
2031
2031
2031
2031
2033
2033
2033
2032
2032
2032
2036
2036
2036
2034
2034
2034
2034
2034
2034
2034
2031
2031
2031
2028
2028
2028
2025
2025
2025
2030
2030
2030
2035
2035
2035
2035
2033
2033
2033
2026
2026
2026
2035
2035
2035
2032
2032
2032
2033
2033
2033
2033
2036
2036
2036
2024
2024
2024
2032
2032
2032
2031
2031
2031
2033
2033
2033
2033
2038
2038
2038
2031
2031
2031
2035
2035
2035
2030
2030
2030
2033
2033
2033
2033
2037
2037
2037
2031
2031
2031
2034
2034
2034
2029
2029
2029
2030
2030
2030
2030
2034
2034
2034
2030
2030
2030
2035
2035
