2054
2054
2054
2054
2054
2054
2056
2056
2056
2058
2058
2058
2055
2055
2055
2055
2056
2056
2056
2055
2055
2055
2058
2058
2058
2058
2058
2058
2053
2053
2053
2053
2058
2058
2058
2057
2057
2057
2055
2055
2055
2056
2056
2056
2057
2057
2057
2057
2054
2054
2054
2054
2054
2054
2056
2056
2056
2058
2058
2058
2055
2055
2055
2055
2054
2054
2054
2057
2057
2057
2055
2055
2055
2058
2058
2058
2057
2057
2057
2057
2056
2056
2056
2060
2060
2060
2055
2055
2055
2052
2052
2052
2056
2056
2056
2056
2056
2056
2056
2057
2057
2057
2056
2056
2056
2059
2059
2059
2056
2056
2056
2056
2056
2056
2056
2061
2061
2061
2057
2057
2057
2051
2051
2051
2055
2055
2055
2055
2055
2055
2055
2055
2055
2055
2055
2055
2055
2057
2057
2057
2054
2054
2054
2054
2057
2057
2057
2058
2058
2058
2059
2059
2059
2059
2059
2059
2057
2057
2057
2057
2055
2055
2055
2059
2059
2059
2055
2055
2055
2058
2058
2058
2055
2055
2055
2055
2055
2055
2055
2057
2057
2057
2055
2055
2055
2057
2057
2057
2059
2059
2059
2059
2053
2053
2053
2058
2058
2058
2052
2052
2052
2058
2058
2058
2055
2055
2055
2055
2054
2054
2054
2062
2062
2062
2053
2053
2053
2058
2058
2058
2055
2055
2055
2055
2056
2056
2056
2057
2057
2057
2058
2058
2058
2055
2055
2055
2055
2055
2055
2055
2050
2050
2050
2060
2060
2060
2053
2053
2053
2058
2058
2058
2053
2053
2053
2053
2050
2050
2050
2054
2054
2054
2057
2057
2057
2057
2057
2057
2056
2056
2056
2056
2061
2061
2061
2054
2054
2054
2053
2053
2053
2058
2058
2058
2054
2054
2054
2054
2055
2055
2055
2057
2057
2057
2056
2056
2056
2056
2056
2056
2057
2057
2057
2057
2055
2055
2055
2057
2057
2057
2058
2058
2058
2057
2057
2057
2052
2052
2052
2052
2055
2055
2055
2056
2056
2056
2056
2056
2056
2058
2058
2058
2057
2057
2057
2057
2055
2055
2055
2056
2056
2056
2055
2055
2055
2057
2057
2057
2054
2054
2054
2054
2053
2053
2053
2059
2059
2059
2054
2054
2054
2057
2057
2057
2055
2055
2055
2055
2054
2054
2054
2059
2059
2059
2051
2051
2051
2062
2062
2062
2055
2055
2055
2055
2055
2055
2055
2060
2060
2060
2047
2047
2047
2056
2056
2056
2055
2055
2055
2055
2055
2055
2055
2052
2052
2051
2051
2057
2057
2057
2058
2058
2058
2058
2058
2058
2050
2050
2050
2050
2049
2049
2049
2058
2058
2058
2056
2056
2056
2058
2058
2058
2055
2055
2055
2055
2057
2057
2057
2060
2060
2060
2058
2058
2058
2053
2053
2053
2056
2056
2056
2056
2052
2052
2052
2058
2058
2058
2055
2055
2055
2058
2058
2058
2055
2055
2055
2055
2055
2055
2055
2058
2058
2058
2058
2058
2058
2058
2058
2058
2056
2056
2056
2056
2056
2056
2056
2058
2058
2058
2057
2057
2057
2062
2062
2062
2051
2051
2051
2051
2049
2049
2049
2056
2056
2056
2052
2052
2052
2057
2057
2057
2053
2053
2053
2053
2056
2056
2056
2052
2052
2052
2058
2058
2058
2055
2055
2055
2057
2057
2057
2058
2058
2058
2058
2060
2060
2060
2056
2056
2056
2055
2055
2055
2053
2053
2053
2054
2054
2054
2054
2056
2056
2056
2055
2055
2055
2056
2056
2056
2058
2058
2058
2056
2056
2056
2056
2054
2054
2054
2055
2055
2055
2061
2061
2061
2058
2058
2058
2059
2059
2059
2059
2056
2056
2056
2063
2063
2063
2053
2053
2053
2058
2058
2058
2050
2050
2050
2050
2053
2053
2053
2061
2061
2061
2052
2052
2052
2057
2057
2057
2053
2053
2053
2053
2061
2061
2061
2056
2056
2056
2061
2061
2061
2053
2053
2058
2057
2057
2057
2055
2055
2055
2055
2054
2054
2054
2056
2056
2056
2058
2058
2058
2057
2057
2057
2050
2050
2050
2050
2053
2053
2053
2056
2056
2056
2056
2056
2056
2060
2060
2060
2057
2057
2057
2057
2053
2053
2053
2057
2057
2057
2054
2054
2054
2054
2054
2054
2057
2057
2057
2057
2057
2057
2057
2056
2056
2056
2053
2053
2053
2058
2058
2058
2052
2052
2052
2052
2058
2058
2058
2056
2056
2056
2057
2057
2057
2059
2059
2059
2051
2051
2051
2051
2057
2057
2057
2053
2053
2053
2046
2046
2046
2058
2058
2058
2055
2055
2055
2055
2054
2054
2054
2056
2056
2056
2057
2057
2057
2055
2055
2055
2059
2059
2059
2054
2054
2054
2054
2061
2061
2061
2058
2058
2058
2051
2051
2051
2056
2056
2056
2056
2056
2056
2056
2061
2061
2061
2057
2057
2057
2057
2057
2057
2054
2054
2054
2056
2056
2056
2056
2055
2055
2055
2057
2057
2057
2058
2058
2058
2056
2056
2056
2060
2060
2060
2060
2055
2055
2055
2059
2059
2059
2058
2058
2058
2059
2059
2059
2054
2054
2054
2054
2055
2055
2055
2064
2064
2064
2053
2053
2053
2057
2057
2057
2055
2055
2055
2055
2061
2061
2061
2058
2058
2058
2057
2057
2057
2057
2057
2057
2049
2049
2049
2049
2056
2056
2056
2055
2055
2055
2058
2058
2058
2052
2052
2052
2057
2057
2057
2060
2060
2060
2060
2060
2060
2060
2056
2056
2056
2055
2055
2055
2057
2057
2057
2053
2053
2053
2053
2055
2055
2055
2057
2057
2057
2054
2054
2054
2062
2062
2062
2057
2057
2057
2057
2056
2056
2056
2056
2056
2056
2059
2059
2059
2059
2059
2059
2051
2051
2051
2051
2056
2056
2056
2057
2057
2057
2054
2054
2054
2060
2060
2060
2059
2059
2059
2059
2052
2052
2052
2061
2061
2061
2056
2056
2056
2055
2055
2055
2050
2050
2050
2050
2057
2057
2057
2056
2056
2056
2054
2054
2054
2055
2056
2056
2056
2059
2059
2059
2055
2055
2055
2055
2054
2054
2054
2059
2059
2059
2053
2053
2053
2056
2056
2056
2056
2056
2056
2056
2059
2059
2059
2054
2054
2054
2057
2057
2057
2048
2048
2048
2057
2057
2057
2057
2055
2055
2055
2059
2059
2059
2061
2061
2061
2057
2057
2057
2056
2056
2056
2056
2055
2055
2055
2056
2056
2056
2045
2045
2045
2057
2057
2057
2057
2057
2057
2057
2052
2052
2052
2061
2061
2061
2055
2055
2055
2062
2062
2062
2055
2055
2055
2055
2056
2056
2056
2058
2058
2058
2054
2054
2054
2060
2060
2060
2054
2054
2054
2054
2057
2057
2057
2057
2055
2055
2058
2058
2058
2056
2056
2056
2059
2059
2059
2055
2055
2055
2055
2060
2060
2060
2057
2057
2057
2054
2054
2054
2056
2056
2056
2054
2054
2054
2054
2056
2056
2056
2058
2058
2058
2056
2056
2056
2058
2058
2058
2057
2057
2057
2057
2052
2052
2052
2058
2058
2058
2055
2055
2055
2057
2057
2057
2057
2057
2057
2057
2047
2047
2047
2059
2059
2059
2055
2055
2055
2055
2055
2055
2056
2056
2056
2056
2057
2057
2057
2053
2053
2053
2056
2056
2056
2055
2055
2055
2056
2056
2056
2056
2059
2059
2059
2059
2059
2059
2059
2059
2059
2057
2057
2057
2051
2051
2054
2055
2055
2055
2055
2055
2055
2055
2057
2057
2057
2053
2053
2053
2063
2063
2063
2064
2064
2064
2064
2053
2053
2053
2059
2059
2059
2060
2060
2060
2052
2052
2052
2058
2058
2058
2058
2056
2056
2056
2061
2061
2061
2054
2054
2054
2061
2061
2061
2057
2057
2057
2057
2053
2053
2053
2056
2056
2056
2056
2056
2056
2057
2057
2057
2057
2057
2057
2057
2056
2056
2056
2057
2057
2057
2057
2057
2057
2058
2058
2058
2056
2056
2056
2056
2054
2054
2054
2057
2057
2057
2057
2057
2057
2056
2056
2056
2057
2057
2057
2057
2058
2058
2058
2058
2058
2058
2054
2054
2054
2056
2056
2056
2057
2057
2057
2055
2055
2055
2055
2058
2058
2058
2054
2054
2054
2056
2056
2056
2062
2062
2062
2054
2054
2054
2054
2060
2060
2060
2058
2058
2058
2058
2058
2058
2057
2057
2057
2055
2055
2055
2055
2057
2057
2057
2058
2058
2058
2057
2057
2057
2058
2058
2058
2055
2055
2055
2055
2055
2055
2055
2058
2058
2058
2053
2053
2053
2058
2058
2058
2061
2061
2061
2061
2055
2055
2055
2052
2052
2052
2056
2056
2056
2060
2060
2060
2064
2064
2064
2064
2055
2055
2055
2056
2056
2056
2051
2051
2051
2059
2059
2059
2054
2054
2054
2054
2053
2053
2053
2055
2056
2056
2058
2058
2058
2055
2055
2055
2057
2057
2057
2054
2054
2054
2054
2052
2052
2052
2055
2055
2055
2051
2051
2051
2057
2057
2057
2063
2063
2063
2063
2056
2056
2056
2059
2059
2059
2057
2057
2057
2057
2057
2057
2056
2056
2056
2056
2056
2056
2056
2058
2058
2058
2057
2057
2057
2057
2057
2057
2058
2058
2058
2058
2054
2054
2054
2062
2062
2062
2054
2054
2054
2060
2060
2060
2049
2049
2049
2049
2047
2047
2047
2068
2068
2068
2058
2058
2058
2052
2052
2052
2057
2057
2057
2057
2054
2054
2054
2055
2055
2055
2059
2059
2059
2059
2059
2059
2055
2055
2055
2055
2054
2054
2054
2054
2054
2054
2057
2057
2057
2058
2058
2058
2057
2057
2057
2057
2056
2056
2056
2059
2059
2059
2056
2056
2056
2056
2056
2056
2055
2055
2055
2055
2058
2058
2058
2058
2058
2058
2054
2054
2054
2059
2059
2059
2057
2057
2057
2057
2055
2055
2055
2056
2056
2056
2055
2055
2055
2058
2058
2058
2057
2057
2057
2057
2055
2055
2055
2059
2059
2059
2051
2051
2051
2055
2055
2055
2057
2057
2057
2057
2055
2055
2055
2059
2059
2059
2057
2057
2057
2053
2053
2053
2054
2054
2054
2054
2063
2063
2063
2057
2057
2057
2060
2060
2060
2057
2057
2057
2061
2061
2061
2061
2052
2052
2052
2058
2058
2058
2058
2058
2058
2058
2058
2058
2054
2054
2054
2054
2052
2052
2052
2062
2062
2062
2055
2055
2055
2057
2057
2057
2055
2055
2055
2055
2056
2056
2056
2056
2056
2056
2054
2054
2054
2056
2056
2056
2050
2050
2050
2050
2054
2054
2054
2056
2056
2056
2056
2056
2056
2055
2055
2055
2055
2055
2055
2055
2055
2055
2055
2057
2057
2057
2061
2061
2061
2061
2061
2061
2058
2058
2058
2058
2057
2057
2057
2064
2064
2064
2056
2056
2056
2057
2057
2057
2057
2057
2057
2057
2058
2058
2058
2057
2057
2057
2056
2056
2056
2059
2059
2059
2057
2057
2057
2057
2052
2052
2052
2056
2056
2056
2057
2057
2057
2058
2058
2058
2058
2058
2058
2058
2054
2054
2054
2055
2055
2055
2056
2056
2056
2058
2058
2058
2057
2057
2057
2057
2057
2057
2057
2058
2058
2058
2057
2057
2057
2058
2058
2058
2057
2057
2057
2057
2053
2053
2053
2059
2059
2059
2052
2052
2052
2057
2057
2057
2053
2053
2053
2053
2056
2056
2056
2061
2061
2061
2058
2058
2058
2057
2057
2057
2055
2055
2055
2055
2051
2051
2051
2059
2059
2059
2053
2053
2053
2057
2057
2057
2055
2055
2055
2055
2054
2054
2054
2059
2059
2059
2056
2056
2056
2058
2058
2058
2054
2054
2054
2054
2059
2059
2059
2058
2058
2058
2051
2051
2051
2055
2055
2055
2058
2058
2058
2058
2054
2054
2054
2056
2056
2056
2057
2057
2057
2056
2056
2056
2057
2057
2057
2057
2057
2057
2057
2057
2057
2057
2055
2055
2055
2054
2054
2054
2056
2056
2056
2056
2049
2049
2049
2061
2061
2061
2055
2055
2055
2065
2065
2065
2057
2057
2057
2057
2053
2053
2053
2058
2058
2058
2058
2058
2058
2054
2054
2054
2055
2055
2055
2055
2058
2058
2058
2056
2056
2056
2053
2053
2053
2056
2056
2056
2056
2056
2056
2056
2052
2052
2052
2055
2055
2055
2055
2055
2055
2061
2061
2061
2057
2057
2057
2057
2055
2055
2055
2057
2057
2057
2052
2052
2052
2058
2058
2058
2058
2058
2058
2058
2058
2058
2058
2059
2059
2059
2057
2057
2057
2059
2059
2059
2057
2057
2057
2057
2055
2055
2055
2050
2050
2050
2061
2061
2061
2060
2060
2060
2056
2056
2056
2056
2057
2057
2057
2056
2056
2056
2057
2057
2057
2055
2055
2055
2057
2057
2057
2057
2052
2052
2052
2059
2059
2059
2054
2054
2054
2056
2056
2056
2055
2055
2055
2055
2054
2054
2054
2056
2056
2056
2059
2059
2059
2057
2057
2057
2055
2055
2055
2055
2051
2051
2051
2059
2059
2059
2057
2057
2057
2056
2056
2056
2042
2042
2042
2042
2054
2054
2054
2060
2060
2060
2050
2050
2050
2052
2052
2052
2055
2055
2055
2055
2059
2059
2059
2052
2052
2052
2055
2055
2055
2050
2050
2050
2057
2057
2057
2057
2060
2060
2060
2057
2057
2057
2053
2053
2053
2058
2058
2058
2052
2052
2052
2052
2053
2053
2053
2057
2057
2057
2056
2056
2056
2059
2059
2059
2053
2053
2053
2053
2056
2056
2056
2053
2053
2053
2056
2056
2056
2058
2058
2058
2057
2057
2057
2057
2058
2058
2058
2058
2058
2058
2058
2058
2058
2057
2057
2057
2056
2056
2056
2056
2058
2058
2058
2058
2058
2058
2056
2056
2056
2062
2062
2062
2063
2063
2063
2063
2055
2055
2055
2055
2055
2055
2058
2058
2058
2060
2060
2060
2053
2053
2053
2053
2057
2057
2057
2051
2051
2051
2056
2056
2056
2057
2057
2057
2057
2057
2057
2057
2054
2054
2054
2057
2057
2057
2056
2056
2056
2059
2059
2059
2057
2057
2057
2057
2051
2051
2051
2056
2056
2056
2056
2056
2056
2055
2055
2055
2057
2057
2057
2057
2055
2055
2055
2060
2060
2060
2055
2055
2055
2058
2058
2058
2056
2056
2056
2056
2054
2054
2054
2059
2059
2059
2058
2058
2058
2054
2054
2054
2056
2056
2056
2056
2057
2057
2057
2059
2059
2059
2060
2060
2060
2054
2054
2054
2055
2055
2055
2055
2058
2058
2058
2059
2059
2059
2056
2056
2056
2058
2058
2058
2059
2059
2059
2059
2054
2054
2054
2056
2056
2056
2056
2056
2056
2057
2057
2057
2056
2056
2056
2056
2058
2058
2058
2058
2058
2058
2055
2055
2055
2057
2057
2057
2057
2057
2057
2057
2059
2059
2059
2057
2057
2057
2057
2057
2057
2058
2058
2058
2054
2054
2054
2054
2056
2056
2056
2061
2061
2061
2057
2057
2057
2059
2059
2059
2053
2053
2053
2053
2057
2057
2057
2065
2065
2065
2055
2055
2055
2057
2057
2057
2052
2052
2052
2052
2055
2055
2055
2049
2049
2049
2055
2055
2055
2054
2054
2054
2054
2054
2054
2054
2057
2057
2057
2057
2057
2057
2057
2057
2057
2058
2058
2058
2056
2056
2056
2056
2055
2055
2055
2058
2058
2058
2057
2057
2057
2059
2059
2059
2055
2055
2055
2055
2055
2055
2055
2057
2057
2057
2055
2055
2055
2056
2056
2056
2064
2064
2064
2064
2056
2056
2056
2059
2059
2059
2058
2058
2058
2066
2066
2066
2055
2055
2055
2055
2055
2055
2055
2052
2052
2052
2056
2056
2056
2055
2055
2055
2054
2054
2054
2054
2062
2062
2062
2058
2058
2058
2055
2055
2055
2055
2055
2055
2059
2059
2059
2059
2056
2056
2056
2058
2058
2058
2056
2056
2056
2064
2064
2064
2055
2055
2055
2055
2057
2057
2057
2059
2059
2059
2058
2058
2058
2057
2057
2057
2052
2052
2052
2052
2055
2055
2055
2058
2058
2058
2056
2056
2056
2054
2054
2054
2057
2057
2057
2057
2057
2057
2057
2056
2056
2056
2053
2053
2053
2057
2057
2057
2061
2061
2061
2061
2052
2052
2052
2053
2053
2053
2054
2054
2054
2060
2060
2060
2055
2055
2055
2055
2062
2062
2062
2062
2062
2062
2054
2054
2054
2058
2058
2058
2058
2058
2058
2058
2054
2054
2054
2057
2057
2057
2058
2058
2058
2056
2056
2056
2056
2056
2056
2056
2053
2053
2053
2061
2061
2061
2056
2056
2056
2058
2058
2058
2055
2055
2055
2055
2056
2056
2056
2057
2057
2057
2059
2059
2059
2058
2058
2058
2054
2054
2054
2054
2053
2053
2053
2051
2051
2051
2061
2061
2061
2054
2054
2054
2059
2059
2059
2059
2058
2058
2058
2063
2063
2063
2057
2057
2057
2059
2059
2059
2055
2055
2055
2055
2059
2059
2059
2057
2057
2057
2060
2060
2060
2057
2057
2057
2056
2056
2056
2056
2054
2054
2054
2053
2053
2053
2056
2056
2056
2057
2057
2057
2057
2057
2057
2057
2052
2052
2052
2061
2061
2061
2056
2056
2056
2059
2059
2059
2058
2058
2058
2058
2058
2058
2058
2058
2058
2058
2056
2056
2056
2059
2059
2059
2051
2051
2051
2051
2055
2055
2055
2057
2057
2057
2059
2059
2059
2059
2059
2059
2053
2053
2053
2053
2057
2057
2057
2056
2056
2056
2057
2057
2057
2059
2059
2059
2057
2057
2057
2057
2056
2056
2056
2059
2059
2059
2059
2059
2059
2059
2059
2059
2057
2057
2057
2057
2057
2057
2057
2056
2056
2056
2056
2056
2056
2056
2056
2056
2057
2057
2057
2057
2058
2058
2058
2060
2060
2060
2055
2055
2055
2056
2056
2056
2055
2055
2055
2055
2057
2057
2057
2057
2057
2057
2062
2062
2062
2056
2056
2056
2055
2055
2055
2055
2057
2057
2057
2056
2056
2056
2057
2057
2057
2061
2061
2061
2055
2055
2055
2055
2055
2055
2055
2057
2057
2057
2057
2057
2057
2059
2059
2059
2056
2056
2056
2056
2051
2051
2051
2059
2059
2059
2041
2041
2041
2060
2060
2060
2055
2055
2055
2055
2057
2057
2057
2055
2055
2055
2055
2055
2055
2060
2060
2060
2051
2051
2051
2051
2057
2057
2057
2056
2056
2056
2054
2054
2054
2060
2060
2060
2059
2059
2059
2059
2054
2054
2054
2057
2057
2057
2051
2051
2051
2058
2058
2058
2058
2058
2058
2058
2053
2053
2053
2059
2059
2059
2054
2054
2054
2058
2058
2058
2057
2057
2057
2057
2057
2057
2057
2056
2056
2056
2058
2058
2058
2060
2060
2060
2056
2056
2056
2056
2059
2059
2059
2058
2058
2058
2055
2055
2055
2059
2059
2059
2055
2055
2055
2055
2057
2057
2057
2058
2058
2058
2055
2055
2055
2052
2052
2052
2051
2051
2051
2051
2055
2055
2055
2052
2052
2052
2055
2055
2055
2057
2057
2057
2050
2050
2050
2050
2045
2045
2045
2057
2057
2057
2055
2055
2055
2059
2059
2059
2053
2053
2053
2053
2050
2050
2050
2057
2057
2057
2058
2058
2058
2055
2055
2055
2055
2055
2055
2055
2055
2055
2055
2058
2058
2058
2058
2058
2058
2057
2057
2057
2054
2054
2054
2054
2055
2055
2055
2056
2056
2056
2056
2056
2056
2057
2057
2057
2056
2056
2056
2056
2054
2054
2054
2056
2056
2056
2055
2055
2055
2055
2055
2055
2052
2052
2052
2052
2052
2052
2052
2059
2059
2059
2055
2055
2055
2062
2062
2062
2059
2059
2059
2059
2059
2059
2059
2060
2060
2060
2054
2054
2054
2057
2057
2057
2054
2054
2054
2054
2058
2058
2058
2057
2057
2057
2058
2058
2058
2060
2060
2060
2056
2056
2056
2056
2054
2054
2054
2058
2058
2058
2057
2057
2057
2060
2060
2060
2059
2059
2059
2059
2058
2058
2058
2056
2056
2056
2060
2060
2060
2057
2057
2057
2057
2057
2057
2057
2056
2056
2056
2058
2058
2058
2055
2055
2055
2050
2050
2050
2059
2059
2059
2059
2056
2056
2056
2063
2063
2063
2051
2051
2051
2056
2056
2056
2058
2058
2058
2058
2053
2053
2053
2054
2054
2054
2055
2055
2055
2060
2060
2060
2056
2056
2056
2056
2054
2054
2054
2057
2057
2057
2055
2055
2055
2058
2058
2058
2051
2051
2051
2051
2058
2058
2058
2057
2057
2057
2060
2060
2060
2056
2056
2056
2055
2055
2055
2055
2056
2056
2056
2054
2054
2054
2056
2056
2056
2059
2059
2059
2057
2057
2057
2057
2057
2057
2057
2057
2057
2057
2058
2058
2058
2058
2058
2058
2058
2058
2058
2058
2054
2054
2054
2049
2049
2049
2056
2056
2056
2063
2063
2063
2055
2055
2055
2055
2060
2060
2060
2056
2056
2056
2058
2058
2058
2059
2059
2059
2061
2061
2061
2061
2054
2054
2054
2058
2058
2058
2056
2056
2056
2061
2061
2061
2057
2057
2057
2057
2055
2055
2055
2051
2051
2051
2055
2055
2055
2060
2060
2060
2054
2054
2054
2054
2057
2057
2057
2056
2056
2056
2055
2055
2055
2062
2062
2062
2056
2056
2056
2056
2053
2053
2053
2064
2064
2064
2055
2055
2055
2059
2059
2059
2056
2056
2056
2056
2066
2066
2066
2055
2055
2055
2056
2056
2056
2058
2058
2058
2058
2058
2058
2058
2056
2056
2056
2052
2052
2052
2057
2057
2057
2059
2059
2059
2053
2053
2053
2053
2055
2055
2055
2057
2057
2057
2059
2059
2059
2059
2059
2059
2057
2057
2057
2057
2053
2053
2053
2058
2058
2058
2055
2055
2055
2061
2061
2061
2057
2057
2057
2057
2054
2054
2054
2057
2057
2057
2050
2050
2050
2058
2058
2058
2049
2049
2049
2049
2056
2056
2056
2047
2047
2047
2052
2052
2052
2058
2058
2058
2056
2056
2056
2056
2057
2057
2057
2058
2058
2058
2054
2054
2054
2057
2057
2057
2052
2052
2052
2052
2058
2058
2058
2059
2059
2059
2056
2056
2056
2060
2060
2060
2056
2056
2056
2056
2055
2055
2055
2057
2057
2057
2056
2056
2056
2055
2055
2055
2056
2056
2056
2056
2056
2056
2056
2058
2058
2058
2059
2059
2059
2060
2060
2060
2045
2045
2045
2045
2056
2056
2056
2063
2063
2063
2055
2055
2055
2056
2056
2056
2056
2056
2056
2056
2053
2053
2053
2050
2050
2050
2057
2057
2057
2053
2053
2053
2051
2051
2051
2051
2051
2051
2051
2057
2057
2057
2055
2055
2055
2058
2058
2058
2054
2054
2054
2054
2056
2056
2056
2056
2056
2056
2057
2057
2057
2057
2057
2057
2058
2058
2058
2058
2060
2060
2060
2058
2058
2058
2053
2053
2053
2056
2056
2056
2060
2060
2060
2060
2056
2056
2056
2053
2053
2053
2058
2058
2058
2059
2059
2059
2061
2061
2061
2061
2050
2050
2050
2060
2060
2060
2057
2057
2057
2058
2058
2058
2056
2056
2056
2056
2053
2053
2053
2059
2059
2059
2054
2054
2054
2054
2054
2054
2056
2056
2056
2056
2054
2054
2054
2057
2057
2057
2053
2053
2053
2058
2058
2058
2054
2054
2054
2054
2057
2057
2057
2056
2056
2056
2054
2054
2054
2060
2060
2060
2056
2056
2056
2056
2055
2055
2055
2054
2054
2054
2052
2052
2052
2054
2054
2054
2051
2051
2051
2051
2057
2057
2057
2057
2057
2057
2056
2056
2056
2059
2059
2059
2056
2056
2056
2056
2060
2060
2060
2056
2056
2056
2053
2053
2053
2057
2057
2057
2056
2056
2056
2056
2059
2059
2059
2059
2059
2059
2055
2055
2055
2057
2057
2057
2057
2057
2057
2057
2055
2055
2055
2058
2058
2058
2056
2056
2056
2061
2061
2061
2057
2057
2057
2057
2054
2054
2054
2057
2057
2057
2056
2056
2056
2055
2055
2055
2056
2056
2056
2056
2056
2056
2056
2057
2057
2057
2057
2057
2057
2065
2065
2065
2054
2054
2054
2054
2057
2057
2057
2061
2061
2061
2055
2055
2055
2059
2059
2059
2054
2054
2054
2054
2055
2055
2055
2059
2059
2059
2054
2054
2054
2057
2057
2057
2057
2057
2057
2057
2056
2056
2056
2058
2058
2058
2056
2056
2056
2060
2060
2060
2054
2054
2054
2054
2059
2059
2059
2058
2058
2058
2054
2054
2054
2058
2058
2058
2057
2057
2057
2057
2059
2059
2059
2056
2056
2056
2056
2056
2056
2065
2065
2065
2058
2058
2058
2058
2055
2055
2055
2055
2055
2055
2057
2057
2057
2058
2058
2058
2057
2057
2057
2057
2059
2059
2059
2057
2057
2057
2059
2059
2059
2061
2061
2061
2058
2058
2058
2058
2057
2057
2057
2058
2058
2058
2056
2056
2056
2061
2061
2061
2056
2056
2056
2056
2055
2055
2055
2057
2057
2057
2055
2055
2055
2054
2054
2054
2057
2057
2057
2057
2053
2053
2053
2054
2054
2054
2055
2055
2055
2057
2057
2057
2056
2056
2056
2056
2052
2052
2052
2052
2052
2052
2061
2061
2061
2058
2058
2058
2057
2057
2057
2057
2055
2055
2055
2059
2059
2059
2057
2057
2057
2057
2057
2057
2056
2056
2056
2056
2052
2052
2052
2056
2056
2056
2053
2053
2053
2058
2058
2058
2056
2056
2056
2056
2054
2054
2054
2060
2060
2060
2056
2056
2056
2056
2056
2056
2056
2056
2056
2056
2057
2057
2057
2056
2056
2056
2056
2056
2056
2057
2057
2057
2053
2053
2053
2053
2052
2052
2052
2061
2061
2061
2060
2060
2060
2056
2056
2056
2056
2056
2056
2056
2055
2055
2055
2059
2059
2059
2055
2055
2055
2058
2058
2058
2057
2057
2057
2057
2056
2056
2056
2056
2056
2056
2058
2058
2058
2057
2057
2057
2053
2053
2053
2053
2055
2055
2055
2059
2059
2059
2055
2055
2055
2061
2061
2061
2056
2056
2056
2056
2062
2062
2062
2058
2058
2058
2054
2054
2054
2057
2057
2057
2064
2064
2064
2064
2058
2058
2058
2060
2060
2060
2051
2051
2051
2055
2055
2055
2059
2059
2059
2059
2050
2050
2050
2062
2062
2062
2059
2059
2059
2057
2057
2057
2058
2058
2058
2058
2050
2050
2050
2058
2058
2058
2057
2057
2057
2059
2059
2059
2056
2056
2056
2056
2056
2056
2056
2057
2057
2057
2054
2054
2054
2057
2057
2057
2055
2055
2055
2055
2057
2057
2057
2055
2055
2055
2056
2056
2056
2057
2057
2057
2055
2055
2055
2055
2056
2056
2056
2056
2056
2056
2055
2055
2055
2061
2061
2061
2056
2056
2056
2056
2057
2057
2057
2053
2053
2053
2053
2053
2053
2054
2054
2054
2057
2057
2057
2057
2058
2058
2058
2058
2058
2058
2055
2055
2055
2055
2055
2055
2055
2055
2055
2055
2051
2051
2051
2056
2056
2056
2058
2058
2058
2057
2057
2057
2058
2058
2058
2058
2055
2055
2055
2056
2056
2056
2055
2055
2055
2053
2053
2053
2057
2057
2057
2057
2055
2055
2055
2059
2059
2059
2053
2053
2053
2057
2057
2057
2057
2057
2057
2057
2055
2055
2055
2057
2057
2057
2052
2052
2052
2062
2062
2062
2053
2053
2053
2053
2056
2056
2056
2058
2058
2058
2052
2052
2052
2058
2058
2058
2055
2055
2055
2055
2054
2054
2054
2055
2055
2055
2055
2055
2055
2058
2058
2058
2054
2054
2054
2054
2055
2055
2055
2056
2056
2056
2057
2057
2057
2060
2060
2060
2054
2054
2054
2054
2055
2055
2055
2057
2057
2057
2062
2062
2062
2055
2055
2055
2059
2059
2059
2059
2053
2053
2053
2062
2062
2062
2056
2056
2056
2059
2059
2059
2050
2050
2050
2050
2056
2056
2056
2062
2062
2062
2054
2054
2054
2059
2059
2059
2058
2058
2058
2058
2055
2055
2055
2057
2057
2057
2054
2054
2054
2053
2053
2053
2056
2056
2056
2056
2053
2053
2053
2058
2058
2058
2057
2057
2057
2056
2056
2056
2058
2058
2058
2058
2055
2055
2055
2056
2056
2056
2056
2056
2056
2055
2055
2055
2057
2057
2057
2057
2055
2055
2055
2055
2055
2055
2054
2054
2054
2056
2056
2056
2062
2062
2062
2062
2050
2050
2050
2059
2059
2059
2048
2048
2048
2059
2059
2059
2054
2054
2054
2054
2052
2052
2052
2060
2060
2060
2057
2057
2057
2055
2055
2055
2056
2056
2056
2056
2052
2052
2052
2055
2055
2055
2051
2051
2051
2059
2059
2059
2057
2057
2057
2057
2055
2055
2055
2059
2059
2059
2054
2054
2054
2061
2061
2061
2057
2057
2057
2057
2056
2056
2056
2057
2057
2057
2052
2052
2052
2057
2057
2057
2051
2051
2051
2051
2049
2049
2049
2057
2057
2057
2056
2056
2056
2055
2055
2055
2056
2056
2056
2056
2059
2059
2059
2056
2056
2056
2053
2053
2053
2057
2057
2057
2056
2056
2056
2056
2051
2051
2051
2058
2058
2058
2054
2054
2054
2058
2058
2058
2054
2054
2054
2054
2055
2055
2055
2055
2055
2055
2056
2056
2056
2060
2060
2060
2057
2057
2057
2057
2057
2057
2057
2056
2056
2056
2059
2059
2059
2058
2058
2058
2054
2054
2054
2054
2055
2055
2055
2060
2060
2060
2057
2057
2057
2056
2056
2056
2060
2060
2060
2060
2060
2060
2060
2054
2054
2054
2055
2055
2055
2062
2062
2062
2057
2057
2057
2057
2052
2052
2052
2055
2055
2055
2051
2051
2051
2054
2054
2054
2053
2053
2053
2053
2053
2053
2053
2055
2055
2055
2057
2057
2057
2055
2055
2055
2058
2058
2058
2058
2056
2056
2056
2058
2058
2058
2056
2056
2056
2058
2058
2058
2052
2052
2052
2052
2052
2052
2052
2058
2058
2058
2056
2056
2056
2055
2055
2055
2059
2059
2059
2059
2062
2062
2062
2062
2062
2062
2057
2057
2057
2056
2056
2056
2055
2055
2055
2055
2053
2053
2053
2059
2059
2059
2054
2054
2054
2059
2059
2059
2057
2057
2057
2057
2056
2056
2056
2056
2056
2056
2051
2051
2051
2057
2057
2057
2057
2057
2057
2057
2053
2053
2053
2058
2058
2058
2054
2054
2054
2056
2056
2056
2057
2057
2057
2057
2053
2053
2053
2056
2056
2056
2054
2054
2054
2059
2059
2059
2046
2046
2046
2046
2053
2053
2053
2059
2059
2059
2055
2055
2055
2058
2058
2058
2056
2056
2056
2056
2059
2059
2059
2060
2060
2060
2055
2055
2055
2058
2058
2058
2057
2057
2057
2057
2057
2057
2057
2057
2057
2057
2057
2057
2057
2053
2053
2053
2053
2053
2053
2053
2057
2057
2057
2061
2061
2061
2056
2056
2056
2057
2057
2057
2058
2058
2058
2058
2055
2055
2055
2057
2057
2057
2058
2058
2058
2050
2050
2050
2054
2054
2054
2054
2060
2060
2060
2059
2059
2059
2058
2058
2058
2059
2059
2059
2057
2057
2057
2057
2055
2055
2055
2057
2057
2057
2056
2056
2056
2058
2058
2058
2053
2053
2053
2053
2057
2057
2057
2058
2058
2058
2054
2054
2054
2055
2055
2055
2054
2054
2054
2054
2057
2057
2057
2058
2058
2058
2057
2057
2057
2058
2058
2058
2051
2051
2051
2051
2055
2055
2055
2055
2055
2055
2057
2057
2057
2057
2057
2057
2062
2062
2062
2062
2057
2057
2057
2054
2054
2054
2055
2055
2055
2056
2056
2056
2054
2054
2054
2054
2051
2051
2051
2055
2055
2055
2059
2059
2059
2059
2059
2059
2052
2052
2052
2052
2057
2057
2057
2058
2058
2058
2055
2055
2055
2056
2056
2056
2057
2057
2057
2057
2056
2056
2056
2057
2057
2057
2057
2057
2057
2057
2057
2057
2060
2060
2060
2060
2057
2057
2057
2057
2057
2057
2051
2051
2051
2064
2064
2064
2058
2058
2058
2058
2056
2056
2056
2056
2056
2056
2055
2055
2055
2057
2057
2057
2053
2053
2053
2053
2057
2057
2057
2056
2056
2056
2058
2058
2058
2059
2059
2059
2055
2055
2055
2055
2056
2056
2056
2060
2060
2060
2057
2057
2057
2058
2058
2058
2055
2055
2055
2055
2053
2053
2053
2056
2056
2056
2054
2054
2054
2058
2058
2058
2054
2054
2054
2054
2054
2054
2054
2055
2055
2055
2055
2055
2055
2057
2057
2057
2055
2055
2055
2055
2056
2056
2056
2052
2052
2052
2054
2054
2054
2055
2055
2055
2059
2059
2059
2059
2055
2055
2055
2063
2063
2063
2057
2057
2057
2057
2057
2057
2055
2055
2055
2055
2055
2055
2055
2060
2060
2060
2057
2057
2057
2058
2058
2058
2057
2057
2057
2057
2057
2057
2057
2056
2056
2056
2057
2057
2057
2053
2053
2053
2055
2055
2055
2055
2055
2055
2055
2056
2056
2056
2057
2057
2057
2054
2054
2054
2059
2059
2059
2059
2050
2050
2050
2059
2059
2059
2059
2059
2059
2056
2056
2056
2055
2055
2055
2055
2059
2059
2059
2055
2055
2055
2056
2056
2056
2058
2058
2058
2054
2054
2054
2054
2059
2059
2059
2057
2057
2057
2052
2052
2052
2059
2059
2059
2055
2055
2055
2055
2056
2056
2056
2057
2057
2057
2056
2056
2056
2055
2055
2055
2049
2049
2049
2049
2057
2057
2057
2057
2057
2057
2057
2057
2057
2058
2058
2058
2050
2050
2050
2050
2056
2056
2056
2049
2049
2049
2059
2059
2059
2052
2052
2052
2057
2057
2057
2057
2054
2054
2054
2058
2058
2058
2056
2056
2056
2058
2058
2058
2060
2060
2060
2060
2054
2054
2054
2059
2059
2059
2055
2055
2055
2058
2058
2058
2057
2057
2057
2057
2055
2055
2055
2058
2058
2058
2056
2056
2056
2057
2057
2057
2052
2052
2052
2052
2057
2057
2057
2055
2055
2055
2055
2055
2055
2057
2057
2057
2052
2052
2052
2052
2051
2051
2051
2052
2052
2052
2059
2059
2059
2057
2057
2057
2063
2063
2063
2063
2053
2053
2053
2059
2059
2059
2058
2058
2058
2055
2055
2055
2055
2055
2055
2055
2057
2057
2057
2063
2063
2063
2055
2055
2055
2055
2055
2055
2057
2057
2057
2057
2053
2053
2053
2059
2059
2059
2054
2054
2054
2058
2058
2058
2052
2052
2052
2052
2055
2055
2055
2049
2049
2049
2060
2060
2060
2056
2056
2056
2056
2056
2056
2056
2050
2050
2050
2055
2055
2055
2055
2055
2055
2056
2056
2056
2057
2057
2057
2057
2058
2058
2058
2059
2059
2059
2056
2056
2056
2055
2055
2055
2056
2056
2056
2056
2054
2054
2054
2059
2059
2059
2056
2056
2056
2055
2055
2055
2052
2052
2052
2052
2053
2053
2053
2057
2057
2057
2054
2054
2054
2066
2066
2066
2059
2059
2059
2059
2053
2053
2053
2056
2056
2056
2055
2055
2055
2057
2057
2057
2058
2058
2058
2058
2050
2050
2050
2054
2054
2054
2061
2061
2061
2058
2058
2058
2058
2058
2058
2058
2052
2052
2052
2056
2056
2056
2055
2055
2055
2054
2054
2054
2055
2055
2055
2055
2052
2052
2052
2056
2056
2056
2057
2057
2057
2057
2057
2057
2057
2057
2057
2057
2055
2055
2055
2055
2055
2055
2053
2053
2053
2053
2053
2053
2053
2053
2053
2053
2055
2055
2055
2052
2052
2052
2062
2062
2062
2059
2059
2059
2057
2057
2057
2057
2049
2049
2049
2059
2059
2059
2059
2059
2059
2056
2056
2056
2056
2056
2056
2056
2055
2055
2055
2056
2056
2056
2056
2056
2056
2061
2061
2061
2054
2054
2054
2054
2058
2058
2058
2057
2057
2057
2057
2057
2057
2058
2058
2058
2056
2056
2056
2056
2056
2056
2056
2060
2060
2060
2056
2056
2056
2066
2066
2066
2057
2057
2057
2057
2055
2055
2055
2055
2055
2055
2055
2055
2055
2058
2058
2058
2049
2049
2049
2049
2056
2056
2056
2058
2058
2058
2056
2056
2056
2055
2055
2055
2056
2056
2056
2056
2056
2056
2056
2061
2061
2061
2057
2057
2057
2057
2057
2057
2060
2060
2060
2060
2051
2051
2051
2060
2060
2060
2056
2056
2056
2058
2058
2058
2058
2058
2058
2058
2055
2055
2055
2060
2060
2060
2050
2050
2050
2060
2060
2060
2059
2059
2059
2059
2052
2052
2052
2058
2058
2058
2057
2057
2057
2055
2055
2055
2054
2054
2054
2054
2055
2055
2055
2057
2057
2057
2056
2056
2056
2050
2050
2050
2055
2055
2055
2055
2057
2057
2057
2057
2057
2057
2061
2061
2061
2058
2058
2058
2058
2058
2058
2058
2064
2064
2064
2057
2057
2057
2056
2056
2056
2053
2053
2053
2055
2055
2055
2055
2056
2056
2056
2057
2057
2057
2055
2055
2055
2060
2060
2060
2055
2055
2055
2055
2049
2049
2049
2055
2055
2055
2050
2050
2050
2059
2059
2059
2056
2056
2056
2056
2058
2058
2058
2058
2058
2058
2056
2056
2056
2056
2056
2056
2059
2059
2059
2059
2055
2055
2055
2056
2056
2056
2058
2058
2058
2057
2057
2057
2052
2052
2052
2052
2054
2054
2054
2057
2057
2057
2057
2057
2057
2053
2053
2053
2055
2055
2055
2055
2056
2056
2056
2057
2057
2057
2053
2053
2053
2058
2058
2058
2053
2053
2053
2053
2055
2055
2055
2056
2056
2056
2049
2049
2049
2063
2063
2063
2055
2055
2055
2055
2057
2057
2057
2057
2057
2057
2059
2059
2059
2057
2057
2057
2057
2057
2057
2057
2062
2062
2062
2056
2056
2056
2056
2056
2056
2057
2057
2057
2055
2055
2055
2055
2054
2054
2054
2060
2060
2060
2057
2057
2057
2061
2061
2061
2054
2054
2054
2054
2056
2056
2056
2056
2056
2056
2055
2055
2055
2058
2058
2058
2056
2056
2056
2056
2056
2056
2056
2060
2060
2060
2058
2058
2058
2057
2057
2057
2057
2057
2057
2057
2053
2053
2053
2055
2055
2055
2060
2060
2060
2058
2058
2058
2060
2060
2060
2060
2058
2058
2058
2058
2058
2058
2055
2055
2055
2058
2058
2058
2056
2056
2056
2056
2057
2057
2057
2060
2060
2060
2055
2055
2055
2057
2057
2057
2057
2057
2057
2057
2055
2055
2055
2056
2056
2056
2055
2055
2055
2057
2057
2057
2053
2053
2053
2053
2053
2053
2053
2061
2061
2061
2054
2054
2054
2062
2062
2062
2053
2053
2053
2053
2059
2059
2059
2055
2055
2055
2055
2055
2055
2058
2058
2058
2055
2055
2055
2055
2055
2055
2055
2059
2059
2059
2056
2056
2056
2059
2059
2059
2055
2055
2055
2055
2056
2056
2056
2056
2056
2056
2063
2063
2063
2059
2059
2059
2047
2047
2047
2047
2055
2055
2055
2058
2058
2058
2056
2056
2056
2065
2065
2065
2053
2053
2053
2053
2053
2053
2053
2062
2062
2062
2055
2055
2055
2057
2057
2057
2053
2053
2053
2053
2053
2053
2053
2058
2058
2058
2057
2057
2057
2057
2057
2057
2062
2062
2062
2062
2057
2057
2057
2058
2058
2058
2055
2055
2055
2058
2058
2058
2055
2055
2055
2055
2058
2058
2058
2058
2058
2058
2054
2054
2054
2057
2057
2057
2054
2054
2054
2054
2057
2057
2057
2058
2058
2058
2061
2061
2061
2052
2052
2052
2055
2055
2055
2055
2055
2055
2055
2059
2059
2059
2056
2056
2056
2055
2055
2055
2063
2063
2063
2063
2056
2056
2056
2058
2058
2058
2055
2055
2055
2062
2062
2062
2056
2056
2056
2056
2055
2055
2055
2056
2056
2056
2056
2056
2056
2057
2057
2057
2054
2054
2054
2054
2055
2055
2055
2058
2058
2058
2058
2058
2058
2060
2060
2060
2049
2049
2049
2049
2056
2056
2056
2057
2057
2057
2053
2053
2053
2053
2053
2053
2059
2059
2059
2059
2050
2050
2050
2056
2056
2056
2057
2057
2057
2060
2060
2060
2054
2054
2054
2054
2056
2056
2056
2061
2061
2061
2056
2056
2056
2055
2055
2055
2056
2056
2056
2056
2050
2050
2050
2056
2056
2056
2053
2053
2053
2058
2058
2058
2056
2056
2056
2056
2055
2055
2055
2057
2057
2057
2057
2057
2057
2061
2061
2061
2056
2056
2056
2056
2054
2054
2054
2059
2059
2059
2057
2057
2057
2056
2056
2056
2057
2057
2057
2057
2053
2053
2053
2060
2060
2060
2059
2059
2059
2055
2055
2055
2056
2056
2056
2056
2056
2056
2056
2055
2055
2055
2056
2056
2056
2059
2059
2059
2058
2058
2058
2058
2057
2057
2057
2058
2058
2058
2052
2052
2052
2049
2049
2049
2055
2055
2055
2055
2056
2056
2056
2054
2054
2054
2056
2056
2056
2057
2057
2057
2059
2059
2059
2059
2052
2052
2052
2061
2061
2061
2051
2051
2051
2061
2061
2061
2053
2053
2053
2053
2057
2057
2057
2059
2059
2059
2053
2053
2053
2063
2063
2063
2058
2058
2058
2058
2056
2056
2056
2056
2056
2056
2055
2055
2055
2060
2060
2060
2053
2053
2053
2053
2054
2054
2054
2056
2056
2056
2055
2055
2055
2055
2055
2055
2055
2055
2055
2055
2055
2055
2055
2053
2053
2053
2056
2056
2056
2061
2061
2061
2058
2058
2058
2058
2051
2051
2051
2059
2059
2059
2057
2057
2057
2056
2056
2056
2052
2052
2052
2052
2048
2048
2048
2060
2060
2060
2055
2055
2055
2056
2056
2056
2057
2057
2057
2057
2057
2057
2057
2058
2058
2058
2056
2056
2056
2056
2056
2056
2053
2053
2053
2053
2055
2055
2055
2059
2059
2059
2055
2055
2055
2054
2054
2054
2055
2055
2055
2055
2055
2055
2055
2059
2059
2059
2056
2056
2056
2061
2061
2061
2055
2055
2055
2055
2054
2054
2054
2053
2053
2053
2056
2056
2056
2053
2053
2053
2056
2056
2056
2056
2056
2056
2056
2057
2057
2057
2057
2057
2057
2057
2057
2057
2055
2055
2055
2055
2057
2057
2057
2058
2058
2058
2056
2056
2056
2060
2060
2060
2054
2054
2054
2054
2057
2057
2057
2052
2052
2052
2056
2056
2056
2059
2059
2059
2059
2059
2059
2059
2053
2053
2053
2051
2051
2051
2052
2052
2052
2059
2059
2059
2055
2055
2055
2055
2057
2057
2057
2057
2057
2057
2054
2054
2054
2053
2053
2053
2053
2053
2053
2053
2059
2059
2059
2057
2057
2057
2057
2057
2057
2057
2057
2057
2054
2054
2054
2054
2055
2055
2055
2056
2056
2056
2057
2057
2057
2054
2054
2054
2055
2055
2055
2055
2058
2058
2058
2058
2058
2058
2058
2058
2058
2059
2059
2059
2055
2055
2055
2055
2055
2055
2055
2058
2058
2058
2055
2055
2055
2053
2053
2053
2056
2056
2056
2056
2052
2052
2052
2057
2057
2057
2054
2054
2054
2058
2058
2058
2057
2057
2057
2057
2060
2060
2060
2057
2057
2057
2057
2057
2057
2058
2058
2058
2056
2056
2056
2056
2057
2057
2057
2056
2056
2056
2057
2057
2057
2059
2059
2059
2057
2057
2057
2057
2058
2058
2058
2059
2059
2059
2055
2055
2055
2046
2046
2046
2060
2060
2060
2060
2058
2058
2058
2063
2063
2063
2057
2057
2057
2055
2055
2055
2055
2055
2055
2055
2057
2057
2057
2056
2056
2056
2062
2062
2062
2059
2059
2059
2052
2052
2052
2052
2054
2054
2054
2058
2058
2058
2056
2056
2056
2053
2053
2053
2055
2055
2055
2055
2055
2055
2055
2057
2057
2057
2058
2058
2058
2059
2059
2059
2047
2047
2047
2047
2053
2053
2053
2057
2057
2057
2061
2061
2061
2053
2053
2053
2054
2054
2054
2054
2054
2054
2054
2060
2060
2060
2056
2056
2056
2058
2058
2058
2055
2055
2055
2055
2059
2059
2059
2057
2057
2057
2057
2057
2057
2058
2058
2058
2057
2057
2057
2057
2056
2056
2056
2056
2056
2056
2055
2055
2055
2059
2059
2059
2057
2057
2057
2057
2058
2058
2058
2057
2057
2057
2055
2055
2055
2053
2053
2053
2055
2055
2055
2055
2051
2051
2051
2066
2066
2066
2051
2051
2051
2060
2060
2060
2055
2055
2055
2055
2051
2051
2051
2055
2055
2055
2057
2057
2057
2053
2053
2053
2051
2051
2051
2051
2056
2056
2056
2057
2057
2057
2059
2059
2059
2059
2059
2059
2056
2056
2056
2056
2057
2057
2057
2057
2057
2057
2052
2052
2052
2058
2058
2058
2053
2053
2053
2053
2053
2053
2053
2059
2059
2059
2056
2056
2056
2051
2051
2051
2058
2058
2058
2058
2054
2054
2054
2058
2058
2058
2052
2052
2052
2062
2062
2062
2059
2059
2059
2059
2054
2054
2054
2061
2061
2061
2062
2062
2062
2058
2058
2058
2059
2059
2059
2059
2056
2056
2056
2063
2063
2063
2055
2055
2055
2059
2059
2059
2055
2055
2055
2055
2056
2056
2056
2058
2058
2058
2056
2056
2056
2058
2058
2058
2057
2057
2057
2057
2053
2053
2053
2056
2056
2056
2056
2056
2056
2058
2058
2058
2055
2055
2055
2055
2057
2057
2057
2055
2055
2055
2057
2057
2057
2063
2063
2063
2062
2062
2062
2062
2058
2058
2058
2060
2060
2060
2057
2057
2057
2056
2056
2056
2057
2057
2057
2057
2058
2058
2058
2058
2058
2058
2057
2057
2057
2056
2056
2056
2055
2055
2055
2055
2055
2055
2055
2057
2057
2057
2062
2062
2062
2058
2058
2058
2051
2051
2051
2051
2054
2054
2054
2057
2057
2057
2055
2055
2055
2055
2055
2055
2051
2051
2051
2051
2055
2055
2055
2054
2054
2054
2055
2055
2055
2058
2058
2058
2052
2052
2052
2052
2056
2056
2056
2067
2067
2067
2055
2055
2055
2059
2059
2059
2056
2056
2056
2056
2055
2055
2055
2058
2058
2058
2059
2059
2059
2059
2059
2059
2056
2056
2056
2056
2058
2058
2058
2057
2057
2057
2057
2057
2057
2059
2059
2059
2055
2055
2055
2055
2055
2055
2055
2054
2054
2054
2057
2057
2057
2062
2062
2062
2054
2054
2054
2054
2053
2053
2053
2059
2059
2059
2052
2052
2052
2061
2061
2061
2060
2060
2060
2060
2055
2055
2055
2061
2061
2061
2056
2056
2056
2056
2056
2056
2056
2056
2056
2056
2055
2055
2055
2056
2056
2056
2060
2060
2060
2057
2057
2057
2057
2057
2057
2057
2057
2057
2057
2058
2058
2058
2057
2057
2057
2056
2056
2056
2055
2055
2055
2055
2055
2055
2055
2057
2057
2057
2057
2057
2057
2055
2055
2055
2053
2053
2053
2053
2059
2059
2059
2057
2057
2057
2043
2043
2043
2062
2062
2062
2057
2057
2057
2057
2055
2055
2055
2056
2056
2056
2052
2052
2052
2056
2056
2056
2055
2055
2055
2055
2052
2052
2052
2058
2058
2058
2058
2058
2058
2058
2058
2058
2053
2053
2053
2053
2055
2055
2055
2056
2056
2056
2056
2056
2056
2055
2055
2055
2056
2056
2056
2056
2057
2057
2057
2059
2059
2059
2055
2055
2055
2061
2061
2061
2056
2056
2056
2056
2059
2059
2059
2058
2058
2058
2057
2057
2057
2065
2065
2065
2054
2054
2054
2054
2058
2058
2058
2048
2048
2048
2052
2052
2052
2057
2057
2057
2056
2056
2056
2056
2051
2051
2051
2058
2058
2058
2060
2060
2060
2058
2058
2058
2055
2055
2055
2055
2056
2056
2056
2056
2056
2056
2056
2056
2056
2059
2059
2059
2055
2055
2055
2055
2056
2056
2056
2057
2057
2057
2055
2055
2055
2052
2052
2052
2057
2057
2057
2057
2057
2057
2057
2055
2055
2055
2050
2050
2050
2052
2052
2052
2053
2053
2053
2053
2051
2051
2051
2059
2059
2059
2055
2055
2055
2060
2060
2060
2050
2050
2050
2050
2055
2055
2055
2060
2060
2060
2056
2056
2056
2055
2055
2055
2056
2056
2056
2056
2055
2055
2055
2056
2056
2056
2057
2057
2057
2057
2057
2057
2057
2057
2057
2057
2057
2057
2057
2056
2056
2056
2061
2061
2061
2055
2055
2055
2061
2061
2061
2061
2057
2057
2057
2058
2058
2058
2059
2059
2059
2059
2059
2059
2055
2055
2055
2055
2054
2054
2054
2052
2052
2052
2057
2057
2057
2058
2058
2058
2056
2056
2056
2056
2056
2056
2056
2054
2054
2054
2057
2057
2057
2058
2058
2058
2056
2056
2056
2056
2054
2054
2054
2057
2057
2057
2055
2055
2055
2057
2057
2057
2057
2057
2057
2057
2054
2054
2054
2055
2055
2055
2056
2056
2056
2060
2060
2060
2054
2054
2054
2054
2057
2057
2057
2057
2057
2057
2051
2051
2051
2049
2049
2049
2057
2057
2057
2057
2052
2052
2052
2056
2056
2056
2053
2053
2053
2058
2058
2058
2057
2057
2057
2057
2059
2059
2059
2059
2059
2059
2055
2055
2055
2057
2057
2057
2055
2055
2055
2055
2057
2057
2057
2059
2059
2059
2055
2055
2055
2057
2057
2057
2056
2056
2056
2056
2056
2056
2056
2058
2058
2058
2055
2055
2055
2057
2057
2057
2055
2055
2055
2055
2055
2055
2055
2056
2056
2056
2051
2051
2051
2059
2059
2059
2058
2058
2058
2058
2076
2076
2076
2053
2053
2053
2056
2056
2056
2057
2057
2057
2056
2056
2056
2056
2056
2056
2056
2059
2059
2059
2056
2056
2056
2057
2057
2057
2060
2060
2060
2060
2057
2057
2057
2058
2058
2058
2058
2058
2058
2058
2058
2058
2056
2056
2056
2056
2055
2055
2055
2060
2060
2060
2056
2056
2056
2058
2058
2058
2057
2057
2057
2057
2056
2056
2056
2056
2056
2056
2048
2048
2048
2058
2058
2058
2056
2056
2056
2056
2057
2057
2057
2062
2062
2062
2054
2054
2054
2058
2058
2058
2058
2058
2058
2058
2054
2054
2054
2057
2057
2057
2059
2059
2059
2057
2057
2057
2052
2052
2052
2052
2056
2056
2056
2058
2058
2058
2054
2054
2054
2060
2060
2060
2055
2055
2055
2055
2055
2055
2055
2061
2061
2061
2054
2054
2054
2056
2056
2056
2057
2057
2057
2057
2057
2057
2057
2057
2057
2057
2053
2053
2053
2063
2063
2063
2055
2055
2055
2055
2055
2055
2055
2057
2057
2057
2058
2058
2058
2058
2058
2058
2055
2055
2055
2055
2057
2057
2057
2055
2055
2055
2054
2054
2054
2058
2058
2058
2055
2055
2055
2055
2055
2055
2055
2055
2055
2055
2055
2055
2055
2060
2060
2060
2056
2056
2056
2056
2055
2055
2055
2058
2058
2058
2056
2056
2056
2058
2058
2058
2054
2054
2054
2054
2055
2055
2055
2056
2056
2056
2060
2060
2060
2056
2056
2056
2054
2054
2054
2054
2048
2048
2048
2060
2060
2060
2053
2053
2053
2057
2057
2057
2055
2055
2055
2055
2053
2053
2053
2057
2057
2057
2049
2049
2049
2059
2059
2059
2058
2058
2058
2058
2056
2056
2056
2054
2054
2054
2058
2058
2058
2058
2058
2058
2055
2055
2055
2055
2055
2055
2055
2059
2059
2059
2051
2051
2051
2057
2057
2057
2060
2060
2060
2060
2054
2054
2054
2059
2059
2059
2062
2062
2062
2064
2064
2064
2055
2055
2055
2055
2056
2056
2056
2061
2061
2061
2058
2058
2058
2057
2057
2057
2059
2059
2059
2059
2055
2055
2055
2057
2057
2057
2057
2057
2057
2057
2057
2057
2054
2054
2054
2054
2054
2054
2054
2057
2057
2057
2056
2056
2056
2057
2057
2057
2054
2054
2054
2054
2052
2052
2052
2057
2057
2057
2060
2060
2060
2058
2058
2058
2054
2054
2054
2054
2055
2055
2055
2058
2058
2058
2062
2062
2062
2054
2054
2054
2054
2054
2054
2054
2061
2061
2061
2059
2059
2059
2053
2053
2053
2056
2056
2056
2055
2055
2055
2055
2056
2056
2056
2059
2059
2059
2054
2054
2054
2061
2061
2061
2056
2056
2056
2056
2054
2054
2054
2057
2057
2057
2053
2053
2053
2057
2057
2057
2058
2058
2058
2058
2057
2057
2057
2058
2058
2058
2058
2058
2058
2061
2061
2061
2054
2054
2054
2054
2054
2054
2054
2065
2065
2065
2054
2054
2054
2058
2058
2058
2058
2058
2058
2058
2055
2055
2055
2058
2058
2058
2058
2058
2058
2058
2058
2058
2055
2055
2055
2055
2056
2056
2056
2058
2058
2058
2056
2056
2056
2057
2057
2057
2056
2056
2056
2056
2057
2057
2057
2056
2056
2056
2057
2057
2057
2059
2059
2059
2052
2052
2052
2052
2053
2053
2053
2054
2054
2054
2051
2051
2051
2061
2061
2061
2052
2052
2052
2052
2060
2060
2060
2057
2057
2057
2055
2055
2055
2060
2060
2060
2056
2056
2056
2056
2056
2056
2056
2061
2061
2061
2055
2055
2055
2061
2061
2061
2057
2057
2057
2057
2056
2056
2056
2058
2058
2058
2057
2057
2057
2058
2058
2058
2053
2053
2053
2053
2056
2056
2056
2057
2057
2057
2055
2055
2055
2059
2059
2059
2060
2060
2060
2060
2056
2056
2056
2058
2058
2058
2056
2056
2056
2056
2056
2056
2055
2055
2055
2055
2054
2054
2054
2056
2056
2056
2057
2057
2057
2057
2057
2057
2056
2056
2056
2056
2057
2057
2057
2057
2057
2057
2056
2056
2056
2057
2057
2057
2056
2056
2056
2056
2053
2053
2053
2056
2056
2056
2062
2062
2062
2054
2054
2054
2062
2062
2062
2062
2064
2064
2064
2057
2057
2057
2056
2056
2056
2057
2057
2057
2055
2055
2055
2055
2053
2053
2053
2058
2058
2058
2055
2055
2055
2057
2057
2057
2055
2055
2055
2055
2058
2058
2058
2059
2059
2059
2058
2058
2058
2051
2051
2051
2056
2056
2056
2056
2056
2056
2056
2057
2057
2057
2060
2060
2060
2054
2054
2054
2060
2060
2060
2060
2055
2055
2055
2056
2056
2056
2049
2049
2049
2059
2059
2059
2055
2055
2055
2055
2058
2058
2058
2060
2060
2060
2055
2055
2055
2060
2060
2060
2051
2051
2051
2051
2055
2055
2055
2058
2058
2058
2055
2055
2055
2058
2058
2058
2055
2055
2055
2055
2056
2056
2056
2054
2054
2054
2057
2057
2057
2057
2057
2057
2054
2054
2054
2054
2051
2051
2051
2059
2059
2059
2049
2049
2049
2052
2052
2052
2056
2056
2056
2056
2052
2052
2052
2058
2058
2058
2054
2054
2054
2059
2059
2059
2054
2054
2054
2054
2053
2053
2053
2057
2057
2057
2061
2061
2061
2057
2057
2057
2058
2058
2058
2058
2056
2056
2056
2057
2057
2057
2057
2057
2057
2054
2054
2054
2055
2055
2055
2055
2055
2055
2055
2058
2058
2058
2054
2054
2054
2057
2057
2057
2068
2068
2068
2068
2051
2051
2051
2055
2055
2055
2057
2057
2057
2057
2057
2057
2053
2053
2053
2053
2056
2056
2056
2058
2058
2058
2057
2057
2057
2057
2057
2057
2053
2053
2053
2053
2057
2057
2057
2057
2057
2057
2057
2057
2057
2054
2054
2054
2055
2055
2055
2055
2055
2055
2055
2059
2059
2059
2057
2057
2057
2058
2058
2058
2053
2053
2053
2053
2053
2053
2053
2056
2056
2056
2060
2060
2060
2057
2057
2057
2055
2055
2055
2055
2058
2058
2058
2056
2056
2056
2055
2055
2055
2056
2056
2056
2058
2058
2058
2058
2056
2056
2056
2058
2058
2058
2058
2058
2058
2060
2060
2060
2055
2055
2055
2055
2057
2057
2057
2059
2059
2059
2055
2055
2055
2058
2058
2058
2054
2054
2054
2054
2059
2059
2059
2058
2058
2058
2053
2053
2053
2058
2058
2058
2053
2053
2053
2053
2059
2059
2059
2062
2062
2062
2055
2055
2055
2053
2053
2053
2058
2058
2058
2058
2045
2045
2045
2059
2059
2059
2054
2054
2054
2054
2054
2054
2054
2054
2054
2054
2056
2056
2056
2054
2054
2054
2056
2056
2056
2061
2061
2061
2054
2054
2054
2054
2055
2055
2055
2058
2058
2058
2059
2059
2059
2066
2066
2066
2056
2056
2056
2056
2050
2050
2050
2059
2059
2059
2053
2053
2053
2063
2063
2063
2055
2055
2055
2055
2053
2053
2053
2057
2057
2057
2058
2058
2058
2056
2056
2056
2056
2056
2056
2056
2057
2057
2057
2056
2056
2056
2055
2055
2055
2060
2060
2060
2057
2057
2057
2057
2057
2057
2057
2059
2059
2059
2055
2055
2055
2056
2056
2056
2059
2059
2059
2059
2056
2056
2056
2053
2053
2053
2054
2054
2054
2055
2055
2055
2053
2053
2053
2053
2059
2059
2059
2053
2053
2053
2056
2056
2056
2061
2061
2061
2054
2054
2054
2054
2058
2058
2058
2058
2058
2058
2058
2058
2058
2056
2056
2056
2055
2055
2055
2055
2054
2054
2054
2055
2055
2055
2056
2056
2056
2057
2057
2057
2055
2055
2055
2055
2058
2058
2058
2058
2058
2058
2056
2056
2056
2056
2056
2056
2057
2057
2057
2057
2056
2056
2056
2058
2058
2058
2056
2056
2056
2054
2054
2054
2056
2056
2056
2056
2054
2054
2054
2058
2058
2058
2057
2057
2057
2056
2056
2056
2058
2058
2058
2058
2052
2052
2052
2055
2055
2055
2057
2057
2057
2062
2062
2062
2054
2054
2054
2054
2056
2056
2056
2057
2057
2057
2058
2058
2058
2055
2055
2055
2057
2057
2057
2057
2050
2050
2050
2064
2064
2064
2058
2058
2058
2056
2056
2056
2058
2058
2058
2058
2054
2054
2054
2055
2055
2055
2057
2057
2057
2058
2058
2058
2055
2055
2055
2055
2053
2053
2053
2057
2057
2057
2055
2055
2055
2055
2055
2055
2057
2057
2057
2057
2055
2055
2055
2058
2058
2058
2055
2055
2055
2057
2057
2057
2051
2051
2051
2051
2059
2059
2059
2055
2055
2055
2056
2056
2056
2060
2060
2060
2056
2056
2056
2056
2054
2054
2054
2058
2058
2058
2055
2055
2055
2059
2059
2059
2057
2057
2057
2057
2055
2055
2055
2057
2057
2057
2060
2060
2060
2060
2060
2060
2057
2057
2057
2057
2058
2058
2058
2056
2056
2056
2057
2057
2057
2056
2056
2056
2055
2055
2055
2055
2055
2055
2055
2056
2056
2056
2060
2060
2060
2056
2056
2056
2054
2054
2054
2054
2058
2058
2058
2057
2057
2057
2054
2054
2054
2059
2059
2059
2054
2054
2054
2054
2055
2055
2055
2055
2055
2055
2057
2057
2057
2058
2058
2058
2056
2056
2056
2056
2057
2057
2057
2057
2057
2057
2057
2057
2057
2059
2059
2059
2057
2057
2057
2057
2055
2055
2055
2059
2059
2059
2055
2055
2055
2059
2059
2059
2052
2052
2052
2052
2063
2063
2063
2057
2057
2057
2055
2055
2055
2060
2060
2060
2058
2058
2058
2058
2056
2056
2056
2054
2054
2054
2055
2055
2055
2054
2054
2054
2057
2057
2057
2057
2055
2055
2055
2058
2058
2058
2054
2054
2054
2058
2058
2058
2056
2056
2056
2056
2054
2054
2054
2059
2059
2059
2058
2058
2058
2061
2061
2061
2059
2059
2059
2059
2054
2054
2054
2055
2055
2055
2050
2050
2050
2057
2057
2057
2052
2052
2052
2052
2058
2058
2058
2057
2057
2057
2054
2054
2054
2053
2053
2053
2054
2054
2054
2054
2057
2057
2057
2060
2060
2060
2055
2055
2055
2058
2058
2058
2054
2054
2054
2054
2060
2060
2060
2056
2056
2056
2057
2057
2057
2058
2058
2058
2057
2057
2057
2057
2059
2059
2059
2053
2053
2053
2057
2057
2057
2062
2062
2062
2058
2058
2058
2058
2057
2057
2057
2057
2057
2057
2053
2053
2053
2056
2056
2056
2056
2056
2056
2056
2055
2055
2055
2057
2057
2057
2054
2054
2054
2059
2059
2059
2056
2056
2056
2056
2059
2059
2059
2057
2057
2057
2055
2055
2055
2055
2055
2055
2060
2060
2060
2060
2056
2056
2056
2056
2056
2056
2057
2057
2057
2060
2060
2060
2055
2055
2055
2055
2056
2056
2056
2058
2058
2058
2056
2056
2056
2056
2056
2056
2051
2051
2051
2051
2055
2055
2055
2062
2062
2062
2056
2056
2056
2057
2057
2057
2056
2056
2056
2056
2055
2055
2055
2059
2059
2059
2051
2051
2051
2056
2056
2056
2050
2050
2050
2050
2056
2056
2056
2058
2058
2058
2053
2053
2053
2057
2057
2057
2057
2057
2057
2057
2060
2060
2060
2058
2058
2058
2054
2054
2054
2056
2056
2056
2059
2059
2059
2059
2060
2060
2060
2055
2055
2055
2054
2054
2054
2056
2056
2056
2055
2055
2055
2055
2055
2055
2055
2058
2058
2058
2054
2054
2054
2057
2057
2057
2058
2058
2058
2058
2057
2057
2057
2059
2059
2059
2056
2056
2056
2056
2056
2056
2057
2057
2057
2057
2058
2058
2058
2054
2054
2054
2055
2055
2055
2056
2056
2056
2057
2057
2057
2057
2053
2053
2053
2056
2056
2056
2052
2052
2052
2057
2057
2057
2058
2058
2058
2058
2055
2055
2055
2056
2056
2056
2058
2058
2058
2060
2060
2060
2056
2056
2056
2056
2057
2057
2057
2056
2056
2056
2059
2059
2059
2067
2067
2067
2054
2054
2054
2054
2053
2053
2053
2056
2056
2056
2056
2056
2056
2054
2054
2054
2055
2055
2055
2055
2056
2056
2056
2057
2057
2057
2055
2055
2055
2057
2057
2057
2054
2054
2054
2054
2056
2056
2056
2053
2053
2053
2056
2056
2056
2053
2053
2053
2050
2050
2050
2050
2057
2057
2057
2057
2057
2057
2061
2061
2061
2058
2058
2058
2055
2055
2055
2055
2055
2055
2055
2058
2058
2058
2057
2057
2057
2054
2054
2054
2056
2056
2056
2056
2054
2054
2054
2060
2060
2060
2055
2055
2055
2059
2059
2059
2055
2055
2055
2055
2058
2058
2058
2058
2058
2058
2058
2058
2058
2058
2058
2058
2058
2058
2058
2058
2056
2056
2056
2058
2058
2058
2056
2056
2056
2056
2056
2056
2058
2058
2058
2058
2055
2055
2055
2058
2058
2058
2054
2054
2054
2056
2056
2056
2058
2058
2058
2058
2053
2053
2053
2057
2057
2057
2056
2056
2056
2057
2057
2057
2055
2055
2055
2055
2054
2054
2054
2056
2056
2056
2059
2059
2059
2058
2058
2058
2057
2057
2057
2057
2057
2057
2057
2058
2058
2058
2056
2056
2056
2057
2057
2057
2061
2061
2061
2061
2057
2057
2057
2055
2055
2055
2057
2057
2057
2056
2056
2056
2059
2059
2059
2059
2053
2053
2053
2057
2057
2057
2055
2055
2055
2057
2057
2057
2055
2055
2055
2055
2056
2056
2056
2059
2059
2059
2056
2056
2056
2056
2056
2056
2062
2062
2062
2062
2062
2062
2062
2056
2056
2056
2052
2052
2052
2061
2061
2061
2055
2055
2055
2055
2060
2060
2060
2056
2056
2056
2053
2053
2053
2056
2056
2056
2058
2058
2058
2058
2050
2050
2050
2059
2059
2059
2053
2053
2053
2058
2058
2058
2057
2057
2057
2057
