1945
1951
1951
1951
1943
1943
1943
1950
1950
1950
1950
1951
1951
1951
1945
1945
1945
1950
1950
1950
1944
1944
1944
1949
1949
1949
1949
1952
1952
1952
1949
1949
1949
1949
1949
1949
1950
1950
1950
1947
1947
1947
1947
1951
1951
1951
1947
1947
1947
1950
1950
1950
1946
1946
1946
1949
1949
1949
1949
1949
1949
1949
1943
1943
1943
1948
1948
1948
1948
1948
1948
1949
1949
1949
1949
1948
1948
1948
1946
1946
1946
1952
1952
1946
1946
1950
1950
1950
1951
1951
1951
1951
1951
1951
1951
1950
1950
1950
1947
1947
1947
1952
1952
1952
1945
1945
1945
1950
1950
1950
1950
1951
1951
1951
1948
1948
1948
1948
1948
1948
1944
1944
1944
1949
1949
1949
1949
1950
1950
1950
1946
1946
1946
1949
1949
1949
1945
1945
1945
1950
1950
1950
1950
1949
1949
1949
1954
1954
1954
1951
1951
1951
1945
1945
1945
1948
1948
1948
1948
1950
1950
1950
1944
1944
1944
1949
1949
1949
1948
1948
1948
1952
1952
1952
1952
1950
1950
1950
1947
1947
1947
1949
1949
1949
1947
1947
1947
1951
1951
1951
1951
1952
1952
1952
1946
1946
1946
1950
1950
1950
1950
1950
1950
1950
1950
1950
1950
1955
1955
1955
1947
1947
1947
1953
1953
1953
1950
1950
1950
1952
1952
1952
1952
1949
1949
1949
1946
1946
1946
1949
1949
1949
1946
1946
1946
1949
1949
1949
1949
1948
1948
1948
1946
1946
1946
1951
1951
1951
1945
1945
1945
1953
1953
1953
1953
1951
1951
1951
1945
1945
1945
1950
1950
1950
1946
1946
1946
1953
1953
1953
1953
1953
1953
1953
1943
1943
1943
1951
1951
1951
1946
1946
1946
1952
1952
1952
1952
1949
1949
1949
1947
1947
1947
1951
1951
1951
1946
1946
1946
1949
1949
1949
1949
1950
1950
1950
1945
1945
1945
1950
1950
1950
1947
1947
1947
1951
1951
1951
1951
1948
1948
1948
1952
1952
1952
1947
1947
1947
1947
1947
1947
1947
1947
1947
1947
1949
1949
1949
1942
1942
1942
1950
1950
1950
1942
1942
1942
1951
1951
1951
1951
1947
1947
1947
1945
1945
1945
1949
1949
1949
1946
1946
1946
1947
1947
1947
1947
1946
1946
1946
1946
1946
1946
1953
1953
1953
1944
1944
1944
1950
1950
1950
1950
1951
1951
1951
1949
1949
1949
1951
1951
1951
1945
1945
1945
1948
1948
1948
1948
1950
1950
1950
1942
1942
1942
1950
1950
1950
1946
1946
1946
1952
1952
1952
1952
1951
1951
1951
1947
1947
1947
1949
1949
1949
1947
1947
1947
1949
1949
1949
1949
1949
1949
1949
1946
1946
1946
1950
1950
1950
1941
1941
1941
1951
1951
1951
1951
1947
1947
1947
1946
1946
1946
1951
1951
1951
1948
1948
1948
1951
1951
1951
1951
1949
1949
1949
1948
1948
1948
1953
1953
1953
1945
1945
1945
1955
1955
1955
1955
1949
1949
1949
1947
1947
1947
1950
1950
1950
1939
1939
1939
1947
1947
1947
1947
1949
1949
1949
1943
1943
1943
1950
1950
1950
1946
1946
1946
1950
1950
1950
1950
1948
1948
1948
1947
1947
1947
1951
1951
1951
1947
1947
1947
1950
1950
1950
1950
1949
1949
1949
1946
1946
1946
1952
1952
1952
1949
1949
1949
1951
1951
1951
1951
1951
1951
1951
1947
1947
1947
1953
1953
1953
1946
1946
1946
1952
1952
1952
1952
1949
1949
1949
1947
1947
1947
1949
1949
1949
1947
1947
1947
1949
1949
1949
1949
1951
1951
1951
1945
1945
1945
1951
1951
1951
1951
1951
1951
1949
1949
1949
1949
1950
1950
1950
1949
1949
1949
1955
1955
1955
1949
1949
1949
1954
1954
1954
1954
1952
1952
1952
1947
1947
1947
1957
1957
1957
1944
1944
1944
1951
1951
1951
1951
1949
1949
1949
1947
1947
1947
1952
1952
1952
1946
1946
1946
1950
1950
1950
1950
1948
1948
1948
1943
1943
1943
1951
1951
1951
1947
1947
1947
1949
1949
1949
1949
1951
1951
1951
1943
1943
1943
1951
1951
1951
1945
1945
1945
1950
1950
1950
1950
1948
1948
1948
1945
1945
1945
1950
1950
1950
1942
1942
1942
1949
1949
1949
1949
1954
1954
1954
1945
1945
1945
1951
1951
1951
1946
1946
1946
1954
1954
1954
1954
1950
1950
1950
1939
1939
1939
1945
1945
1945
1946
1946
1946
1946
1946
1946
1946
1951
1951
1951
1944
1944
1944
1953
1953
1953
1946
1946
1946
1950
1950
1950
1950
1948
1948
1948
1948
1948
1948
1956
1956
1956
1947
1947
1947
1950
1950
1950
1950
1949
1949
1949
1946
1946
1946
1949
1949
1949
1943
1943
1943
1951
1951
1951
1951
1953
1953
1953
1945
1945
1945
1946
1946
1946
1947
1947
1947
1951
1951
1951
1951
1948
1948
1948
1946
1946
1946
1950
1950
1950
1946
1946
1946
1949
1949
1949
1949
1951
1951
1951
1945
1945
1945
1950
1950
1950
1944
1944
1944
1946
1946
1946
1946
1957
1957
1957
1943
1943
1943
1950
1950
1950
1945
1945
1945
1950
1950
1950
1950
1954
1954
1954
1945
1945
1945
1947
1947
1947
1945
1945
1945
1949
1949
1949
1949
1951
1951
1951
1942
1942
1942
1949
1949
1949
1946
1946
1946
1948
1948
1948
1948
1950
1950
1950
1947
1947
1947
1947
1947
1947
1947
1947
1947
1953
1953
1953
1953
1952
1952
1952
1947
1947
1947
1952
1952
1952
1947
1947
1947
1952
1952
1952
1952
1949
1949
1949
1948
1948
1948
1950
1950
1950
1945
1945
1945
1948
1948
1948
1948
1949
1949
1949
1945
1945
1945
1946
1946
1946
1948
1948
1948
1949
1949
1949
1949
1948
1948
1948
1947
1947
1947
1952
1952
1952
1945
1945
1945
1950
1950
1950
1950
1949
1949
1949
1945
1945
1945
1951
1951
1951
1944
1944
1944
1950
1950
1950
1950
1949
1949
1949
1947
1947
1947
1950
1950
1950
1944
1944
1944
1955
1955
1955
1955
1948
1948
1948
1952
1952
1952
1949
1949
1949
1947
1947
1947
1948
1948
1948
1948
1950
1950
1950
1946
1946
1946
1950
1950
1950
