2123
2123
2120
2120
2120
2120
2120
2120
2120
2122
2122
2122
2119
2119
2119
2123
2123
2123
2120
2120
2120
2120
2119
2119
2119
2121
2121
2121
2121
2121
2121
2125
2125
2125
2122
2122
2122
2122
2116
2116
2116
2122
2122
2122
2119
2119
2119
2120
2120
2120
2118
2118
2118
2118
2119
2119
2119
2121
2121
2121
2119
2119
2119
2126
2126
2126
2121
2121
2121
2121
2123
2123
2123
2120
2120
2120
2118
2118
2118
2124
2124
2124
2121
2121
2121
2121
2121
2121
2121
2121
2121
2121
2121
2121
2121
2129
2129
2129
2121
2121
2121
2121
2120
2120
2120
2122
2122
2122
2120
2120
2120
2120
2120
2120
2120
2120
2120
2120
2117
2117
2117
2121
2121
2121
2126
2126
2126
2122
2122
2122
2118
2118
2118
2118
2119
2119
2119
2123
2123
2123
2122
2122
2122
2122
2122
2122
2122
2122
2122
2122
2120
2120
2120
2122
2122
2122
2117
2117
2117
2122
2122
2122
2122
2122
2122
2122
2122
2122
2122
2120
2120
2120
2120
2120
2120
2120
2120
2120
2121
2121
2121
2121
2120
2120
2120
2120
2120
2120
2119
2119
2119
2119
2119
2119
2121
2121
2121
2121
2120
2120
2120
2121
2121
2121
2119
2119
2119
2122
2122
2122
2121
2121
2121
2121
2120
2120
2120
2118
2118
2118
2122
2122
2122
2120
2120
2120
2123
2123
2123
2123
2121
2121
2121
2120
2120
2120
2121
2121
2121
2123
2123
2123
2117
2117
2117
2117
2118
2118
2118
2121
2121
2121
2122
2122
2122
2121
2121
2121
2119
2119
2119
2119
2118
2118
2118
2121
2121
2121
2119
2119
2119
2122
2122
2122
2121
2121
2121
2121
2118
2118
2118
2126
2126
2126
2118
2118
2118
2123
2123
2123
2122
2122
2122
2122
2114
2114
2114
2121
2121
2121
2121
2121
2121
2120
2120
2120
2121
2121
2121
2121
2119
2119
2119
2121
2121
2121
2123
2123
2123
2123
2123
2123
2121
2121
2121
2121
2120
2120
2120
2122
2122
2122
2119
2119
2119
2120
2120
2120
2120
2120
2120
2120
2119
2119
2119
2123
2123
2123
2121
2121
2121
2120
2120
2120
2121
2121
2121
2121
2120
2120
2120
2120
2120
2120
2122
2122
2122
2123
2123
2123
2122
2122
2122
2122
2120
2120
2120
2122
2122
2122
2122
2122
2122
2118
2118
2118
2120
2120
2120
2120
2120
2120
2120
2119
2119
2119
2121
2121
2121
2122
2122
2122
2122
2122
2122
2122
2120
2120
2120
2119
2119
2119
2121
2121
2121
2120
2120
2120
2123
2123
2123
2123
2120
2120
2120
2120
2120
2120
2121
2121
2121
2123
2123
2123
2120
2120
2120
2120
2118
2118
2118
2123
2123
2123
2120
2120
2120
2122
2122
2122
2121
2121
2121
2121
2121
2121
2121
2122
2122
2122
2122
2122
2122
2119
2119
2119
2122
2122
2122
2122
2121
2121
2121
2124
2124
2124
2118
2118
2118
2123
2123
2123
2121
2121
2121
2121
2121
2121
2121
2126
2126
2126
2119
2119
2119
2122
2122
2122
2122
2122
2122
2122
2120
2120
2120
2121
2121
2121
2120
2120
2120
2122
2122
2122
2114
2114
2114
2114
2117
2117
2117
2121
2121
2121
2121
2121
2121
2122
2122
2122
2121
2121
2121
2121
2121
2121
2121
2121
2121
2121
2120
2120
2120
2120
2120
2120
2118
2118
2118
2118
2122
2122
2122
2121
2121
2121
2119
2119
2119
2121
2121
2121
2120
2120
2120
2120
2122
2122
2122
2120
2120
2120
2122
2122
2122
2125
2125
2125
2122
2122
2122
2122
2121
2121
2121
2123
2123
2123
2120
2120
2120
2121
2121
2121
2121
2121
2121
2121
2120
2120
2120
2117
2117
2117
2119
2119
2119
2121
2121
2121
2122
2122
2122
2122
2118
2118
2118
2119
2119
2119
2121
2121
2121
2119
2119
2119
2120
2120
2120
2120
2121
2121
2121
2122
2122
2122
2120
2120
2120
2121
2121
2121
2119
2119
2119
2119
2119
2119
2119
2120
2120
2120
2123
2123
2123
2120
2120
2120
2121
2121
2121
2121
2122
2122
2122
2122
2122
2122
2123
2123
2123
2121
2121
2121
2118
2118
2118
2118
2121
2121
2121
2121
2121
2121
2120
2120
2120
2121
2121
2121
2119
2119
2119
2119
2120
2120
2120
2124
2124
2124
2119
2119
2119
2123
2123
2123
2119
2119
2119
2119
2121
2121
2121
2123
2123
2123
2120
2120
2120
2120
2120
2120
2125
2125
2125
2125
2120
2120
2120
2117
2117
2117
2121
2121
2121
2121
2121
2121
2118
2118
2118
2118
2119
2119
2119
2121
2121
2121
2121
2121
2121
2122
2122
2122
2124
2124
2124
2124
2119
2119
2119
2124
2124
2124
2121
2121
2121
2121
2121
2121
2124
2124
2124
2124
2121
2121
2121
2123
2123
2123
2121
2121
2121
2120
2120
2120
2125
2125
2125
2125
2119
2119
2119
2123
2123
2123
2120
2120
2120
2121
2121
2121
2122
2122
2122
2122
2124
2124
2124
2122
2122
2122
2120
2120
2120
2121
2121
2121
2122
2122
2122
2122
2123
2123
2123
2122
2122
2122
2119
2119
2119
2119
2119
2119
2119
2119
2119
2119
2117
2117
2117
2120
2120
2120
2121
2121
2121
2123
2123
2123
2124
2124
2124
2124
2126
2126
2126
2121
2121
2121
2121
2121
2121
2121
2121
2121
2122
2122
2122
2122
2116
2116
2116
2122
2122
2122
2122
2122
2122
2123
2123
2123
2119
2119
2119
2119
2120
2120
2120
2125
2125
2125
2121
2121
2121
2122
2122
2122
2122
2122
2122
2122
2121
2121
2121
2123
2123
2123
2119
2119
2119
2125
2125
2125
2124
2124
2124
2124
2120
2120
2120
2121
2121
2121
2117
2117
2117
2121
2121
2121
2121
2121
2121
2121
2121
2121
2121
2120
2120
2120
2120
2120
2120
2119
2119
2119
2122
2122
2122
2122
2121
2121
2121
2122
2122
2122
2120
2120
2120
2122
2122
2122
2118
2118
2118
2118
2121
2121
2121
2123
2123
2123
2114
2114
2114
2119
2119
2119
2119
2119
2119
2119
2119
2119
2119
2121
2121
2121
2120
2120
2120
2119
2119
2119
2121
2121
2121
2121
2120
2120
2120
2121
2121
2121
2122
2122
2122
2121
2121
2121
2119
2119
2119
2119
2121
2121
2121
2120
2120
2120
2121
2121
2121
2122
2122
2122
2121
2121
2121
2121
2122
2122
2122
2128
2128
2128
2121
2121
2121
2122
2122
2122
2118
2118
2118
2118
2120
2120
2120
2120
2120
2120
2121
2121
2121
2122
2122
2122
2122
2122
2122
2122
2120
2120
2120
2125
2125
2125
2124
2124
2124
2121
2121
2121
2121
2121
2121
2121
2118
2118
2118
2120
2120
2120
2120
2120
2120
2121
2121
2121
2118
2118
2118
2118
2119
2119
2119
2114
2114
2114
2119
2119
2119
2120
2120
2120
2120
2120
2120
2120
2120
2120
2120
2120
2120
2120
2120
2120
2120
2121
2121
2121
2121
2121
2121
2121
2122
2122
2122
2123
2123
2123
2121
2121
2121
2120
2120
2120
2118
2118
2118
2118
2119
2119
2119
2120
2120
2120
2121
2121
2121
2121
2121
2121
2120
2120
2120
2120
2121
2121
2121
2124
2124
2124
2121
2121
2121
2120
2120
2120
2120
2120
2120
2120
2119
2119
2119
2120
2120
2120
2122
2122
2122
2124
2124
2124
2118
2118
2118
2118
2119
2119
2119
2121
2121
2121
2122
2122
2122
2118
2118
2118
2121
2121
2121
2121
2120
2120
2120
2125
2125
2125
2119
2119
2119
2120
2120
2120
2121
2121
2121
2121
2119
2119
2119
2122
2122
2122
2120
2120
2120
2122
2122
2122
2118
2118
2118
2118
2119
2119
2119
2121
2121
2121
2121
2121
2121
2123
2123
2123
2120
2120
2120
2120
2120
2120
2120
2123
2123
2123
2121
2121
2121
2121
2121
2121
2121
2121
2121
2121
2119
2119
2119
2120
2120
2120
2122
2122
2122
2121
2121
2121
2122
2122
2122
2122
2119
2119
2119
2119
2119
2119
2121
2121
2121
2121
2121
2121
2121
2121
2121
2121
2118
2118
2118
2124
2124
2124
2121
2121
2121
2123
2123
2123
2119
2119
2119
2119
2119
2119
2119
2124
2124
2124
2119
2119
2119
2121
2121
2121
2117
2117
2117
2117
2119
2119
2119
2118
2118
2118
2121
2121
2121
2124
2124
2124
2120
2120
2120
2120
2119
2119
2119
2121
2121
2121
2120
2120
2120
2119
2119
2119
2123
2123
2123
2123
2120
2120
2120
2119
2119
2119
2121
2121
2121
2123
2123
2123
2118
2118
2118
2118
2118
2118
2118
2122
2122
2122
2121
2121
2121
2121
2121
2121
2118
2118
2118
2118
2120
2120
2120
2123
2123
2123
2122
2122
2122
2121
2121
2121
2117
2117
2117
2117
2119
2119
2119
2122
2122
2122
2118
2118
2118
2119
2119
2119
2120
2120
2120
2120
2118
2118
2118
2121
2121
2121
2122
2122
2122
2122
2122
2122
2121
2121
2121
2121
2127
2127
2127
2124
2124
2124
2120
2120
2120
2123
2123
2123
2121
2121
2121
2121
2114
2114
2114
2121
2121
2121
2121
2121
2121
2119
2119
2119
2122
2122
2122
2122
2120
2120
2120
2120
2120
2120
2113
2113
2113
2125
2125
2125
2120
2120
2120
2120
2118
2118
2118
2122
2122
2122
2120
2120
2120
2122
2122
2122
2122
2122
2122
2122
2119
2119
2119
2123
2123
2123
2121
2121
2121
2123
2123
2123
2121
2121
2121
2121
2121
2121
2121
2123
2123
2123
2117
2117
2117
2121
2121
2121
2119
2119
2119
2119
2118
2118
2118
2123
2123
2123
2122
2122
2122
2122
2122
2122
2121
2121
2121
2121
2121
2121
2121
2122
2122
2122
2123
2123
2123
2121
2121
2121
2122
2122
2122
2122
2122
2122
2122
2121
2121
2121
2118
2118
2118
2119
2119
2119
2119
2119
2119
2119
2119
2119
2119
2118
2118
2118
2121
2121
2121
2122
2122
2122
2118
2118
2118
2118
2122
2122
2122
2121
2121
2121
2120
2120
2120
2123
2123
2123
2120
2120
2120
2120
2122
2122
2122
2117
2117
2117
2121
2121
2121
2120
2120
2120
2122
2122
2122
2122
2122
2122
2122
2118
2118
2118
2123
2123
2123
2122
2122
2122
2125
2125
2125
2125
2119
2119
2119
2125
2125
2125
2119
2119
2119
2122
2122
2122
2121
2121
2121
2121
2121
2121
2121
2125
2125
2125
2122
2122
2122
2120
2120
2120
2117
2117
2117
2117
2120
2120
2120
2120
2120
2120
2123
2123
2123
2121
2121
2121
2121
2121
2121
2121
2120
2120
2120
2124
2124
2124
2121
2121
2121
2119
2119
2119
2121
2121
2121
2121
2119
2119
2119
2121
2121
2121
2121
2121
2121
2122
2122
2122
2117
2117
2117
2117
2124
2124
2124
2123
2123
2123
2123
2123
2123
2122
2122
2122
2121
2121
2121
2121
2119
2119
2119
2123
2123
2123
2121
2121
2121
2122
2122
2122
2122
2122
2122
2122
2117
2117
2117
2124
2124
2124
2120
2120
2120
2127
2127
2127
2118
2118
2118
2118
2122
2122
2122
2121
2121
2121
2120
2120
2120
2125
2125
2125
2122
2122
2122
2122
2121
2121
2121
2120
2120
2120
2120
2120
2120
2120
2120
2120
2120
2120
2120
2120
2121
2121
2121
2121
2121
2121
2122
2122
2122
2116
2116
2116
2121
2121
2121
2121
2120
2120
2120
2122
2122
2122
2123
2123
2123
2122
2122
2122
2122
2122
2122
2122
2120
2120
2120
2122
2122
2122
2120
2120
2120
2123
2123
2123
2120
2120
2120
2120
2120
2120
2120
2122
2122
2122
2125
2125
2125
2121
2121
2121
2119
2119
2119
2119
2120
2120
2120
2121
2121
2121
2124
2124
2124
2120
2120
2120
2121
2121
2121
2121
2121
2121
2121
2120
2120
2120
2124
2124
2124
2122
2122
2122
2121
2121
2121
2121
2119
2119
2119
2119
2119
2119
2122
2122
2122
2121
2121
2121
2119
2119
2119
2119
2122
2122
2122
2121
2121
2121
2119
2119
2119
2122
2122
2122
2121
2121
2121
2121
2121
2121
2121
2121
2121
2121
2116
2116
2116
2121
2121
2121
2122
2122
2122
2122
2121
2121
2121
2115
2115
2115
2121
2121
2121
2119
2119
2119
2122
2122
2122
2122
2120
2120
2120
2119
2119
2119
2119
2119
2119
2123
2123
2123
2125
2125
2125
2125
2122
2122
2122
2122
2122
2122
2122
2122
2122
2122
2122
2122
2125
2125
2125
2125
2122
2122
2122
2124
2124
2124
2121
2121
2121
2120
2120
2120
2121
2121
2121
2121
2120
2120
2120
2122
2122
2122
2121
2121
2121
2119
2119
2119
2117
2117
2117
2117
2121
2121
2121
2123
2123
2123
2120
2120
2120
2120
2120
2120
2120
2120
2120
2120
2118
2118
2118
2122
2122
2122
2121
2121
2121
2119
2119
2119
2121
2121
2121
2121
2119
2119
2119
2121
2121
2121
2120
2120
2120
2122
2122
2122
2119
2119
2119
2119
2122
2122
2122
2123
2123
2123
2121
2121
2121
2117
2117
2117
2118
2118
2118
2118
2120
2120
2120
2120
2120
2120
2122
2122
2122
2122
2122
2122
2120
2120
2120
2120
2121
2121
2121
2121
2121
2121
2122
2122
2122
2122
2122
2122
2122
2122
2122
2122
2120
2120
2120
2121
2121
2121
2120
2120
2120
2123
2123
2123
2119
2119
2119
2119
2119
2119
2119
2125
2125
2125
2124
2124
2124
2123
2123
2123
2119
2119
2119
2119
2120
2120
2120
2119
2119
2119
2125
2125
2125
2121
2121
2121
2119
2119
2119
2119
2121
2121
2121
2122
2122
2122
2115
2115
2115
2120
2120
2120
2119
2119
2119
2119
2120
2120
2120
2123
2123
2123
2119
2119
2119
2119
2119
2119
2119
2119
2119
2119
2120
2120
2120
2122
2122
2122
2120
2120
2120
2122
2122
2122
2120
2120
2120
2120
2120
2120
2120
2122
2122
2122
2122
2122
2122
2123
2123
2123
2121
2121
2121
2121
2119
2119
2119
2123
2123
2123
2120
2120
2120
2121
2121
2121
2123
2123
2123
2123
2120
2120
2120
2118
2118
2118
2119
2119
2119
2123
2123
2123
2121
2121
2121
2121
2119
2119
2119
2120
2120
2120
2119
2119
2119
2120
2120
2120
2119
2119
2119
2119
2123
2123
2123
2120
2120
2120
2123
2123
2123
2123
2123
2123
2120
2120
2120
2120
2122
2122
2122
2120
2120
2120
2123
2123
2123
2123
2123
2123
2120
2120
2120
2120
2117
2117
2117
2122
2122
2122
2121
2121
2121
2123
2123
2123
2119
2119
2119
2119
2115
2115
2115
2121
2121
2121
2120
2120
2120
2120
2120
2120
2123
2123
2123
2123
2119
2119
2119
2121
2121
2121
2123
2123
2123
2131
2131
2131
2122
2122
2122
2122
2123
2123
2123
2122
2122
2122
2122
2122
2122
2120
2120
2120
2119
2119
2119
2119
2119
2119
2119
2122
2122
2122
2120
2120
2120
2120
2120
2120
2123
2123
2123
2123
2119
2119
2119
2121
2121
2121
2118
2118
2118
2121
2121
2121
2120
2120
2120
2120
2121
2121
2121
2121
2121
2121
2121
2121
2121
2120
2120
2120
2121
2121
2121
2121
2117
2117
2117
2120
2120
2120
2124
2124
2124
2123
2123
2123
2120
2120
2120
2120
2121
2121
2121
2120
2120
2120
2120
2120
2120
2121
2121
2121
2121
2121
2121
2121
2122
2122
2122
2119
2119
2119
2120
2120
2120
2122
2122
2122
2120
2120
2120
2120
2120
2120
2120
2120
2120
2120
2119
2119
2119
2122
2122
2122
2118
2118
2118
2118
2122
2122
2122
2130
2130
2130
2120
2120
2120
2120
2120
2120
2124
2124
2124
2124
2121
2121
2121
2126
2126
2126
2122
2122
2122
2122
2122
2122
2116
2116
2116
2116
2118
2118
2118
2121
2121
2121
2120
2120
2120
2123
2123
2123
2120
2120
2120
2120
2115
2115
2115
2123
2123
2123
2122
2122
2122
2123
2123
2123
2121
2121
2121
2121
2120
2120
2120
2120
2120
2120
2118
2118
2118
2122
2122
2122
2122
2122
2122
2122
2120
2120
2120
2123
2123
2123
2119
2119
2119
2124
2124
2124
2120
2120
2120
2120
2122
2122
2122
2122
2122
2122
2119
2119
2119
2120
2120
2120
2118
2118
2118
2118
2122
2122
2122
2119
2119
2119
2119
2119
2119
2121
2121
2121
2120
2120
2120
2120
2120
2120
2120
2120
2120
2120
2120
2120
2120
2122
2122
2122
2121
2121
2121
2121
2118
2118
2118
2120
2120
2120
2119
2119
2119
2121
2121
2121
2120
2120
2120
2120
2120
2120
2120
2117
2117
2117
2120
2120
2120
2122
2122
2122
2122
2122
2122
2122
2123
2123
2123
2122
2122
2122
2122
2122
2122
2120
2120
2120
2122
2122
2122
2122
2121
2121
2121
2120
2120
2120
2116
2116
2116
2122
2122
2122
2121
2121
2121
2121
2122
2122
2122
2121
2121
2121
2117
2117
2117
2120
2120
2120
2121
2121
2121
2121
2121
2121
2121
2122
2122
2122
2122
2122
2122
2120
2120
2120
2115
2115
2115
2115
2121
2121
2121
2119
2119
2119
2121
2121
2121
2122
2122
2122
2120
2120
2120
2120
2118
2118
2118
2119
2119
2119
2120
2120
2120
2120
2120
2120
2119
2119
2119
2119
2118
2118
2118
2120
2120
2120
2122
2122
2122
2122
2122
2122
2118
2118
2118
2118
2118
2118
2118
2120
2120
2120
2119
2119
2119
2123
2123
2123
2119
2119
2119
2119
2123
2123
2123
2124
2124
2124
2121
2121
2121
2124
2124
2124
2122
2122
2122
2122
2118
2118
2118
2120
2120
2120
2117
2117
2117
2119
2119
2119
2120
2120
2120
2120
2120
2120
2120
2121
2121
2121
2119
2119
2119
2122
2122
2122
2121
2121
2121
2121
2115
2115
2115
2120
2120
2120
2121
2121
2121
2116
2116
2116
2121
2121
2121
2121
2121
2121
2121
2121
2121
2121
2118
2118
2118
2118
2118
2118
2121
2121
2121
2121
2120
2120
2120
2119
2119
2119
2120
2120
2120
2120
2120
2120
2119
2119
2119
2119
2125
2125
2125
2122
2122
2122
2121
2121
2121
2122
2122
2122
2117
2117
2117
2117
2120
2120
2120
2119
2119
2119
2119
2119
2119
2122
2122
2122
2121
2121
2121
2121
2119
2119
2119
2122
2122
2122
2124
2124
2124
2121
2121
2121
2119
2119
2119
2119
2120
2120
2120
2120
2120
2120
2122
2122
2122
2123
2123
2123
2120
2120
2120
2120
2120
2120
2120
2120
2120
2120
2120
2120
2120
2121
2121
2121
2118
2118
2118
2118
2122
2122
2122
2121
2121
2121
2122
2122
2122
2122
2122
2122
2119
2119
2119
2119
2121
2121
2121
2128
2128
2128
2121
2121
2121
2121
2121
2121
2122
2122
2122
2122
2117
2117
2117
2123
2123
2123
2122
2122
2122
2122
2122
2122
2120
2120
2120
2120
2120
2120
2120
2120
2120
2120
2122
2122
2122
2119
2119
2119
2122
2122
2122
2122
2119
2119
2119
2122
2122
2122
2118
2118
2118
2123
2123
2123
2120
2120
2120
2120
2117
2117
2117
2124
2124
2124
2122
2122
2122
2121
2121
2121
2125
2125
2125
2125
2118
2118
2118
2123
2123
2123
2119
2119
2119
2121
2121
2121
2124
2124
2124
2124
2116
2116
2116
2122
2122
2122
2120
2120
2120
2121
2121
2121
2117
2117
2117
2117
2120
2120
2120
2124
2124
2124
2120
2120
2120
2122
2122
2122
2123
2123
2123
2123
2121
2121
2121
2121
2121
2121
2121
2121
2121
2124
2124
2124
2118
2118
2118
2118
2116
2116
2116
2120
2120
2120
2119
2119
2119
2114
2114
2114
2121
2121
2121
2121
2121
2121
2121
2119
2119
2119
2119
2119
2119
2121
2121
2121
2121
2121
2121
2121
2120
2120
2120
2122
2122
2122
2120
2120
2120
2123
2123
2123
2121
2121
2121
2121
2121
2121
2121
2121
2121
2121
2120
2120
2120
2122
2122
2122
2121
2121
2121
2121
2121
2121
2121
2121
2121
2121
2129
2129
2129
2121
2121
2121
2122
2122
2122
2122
2119
2119
2119
2122
2122
2122
2120
2120
2120
2119
2119
2119
2121
2121
2121
2121
2121
2121
2121
2121
2121
2121
2124
2124
2124
2121
2121
2121
2123
2123
2123
2123
2119
2119
2119
2123
2123
2123
2121
2121
2121
2121
2121
2121
2121
2121
2121
2121
2121
2121
2121
2118
2118
2118
2118
2118
2118
2121
2121
2121
2120
2120
2120
2120
2122
2122
2122
2121
2121
2121
2119
2119
2119
2119
2119
2119
2120
2120
2120
2120
2120
2120
2120
2122
2122
2122
2120
2120
2120
2123
2123
2123
2129
2129
2129
2129
2121
2121
2121
2122
2122
2122
2120
2120
2120
2122
2122
2122
2121
2121
2121
2121
2120
2120
2120
2121
2121
2121
2121
2121
2121
2122
2122
2122
2121
2121
2121
2121
2122
2122
2122
2123
2123
2123
2124
2124
2124
2122
2122
2122
2118
2118
2118
2118
2118
2118
2118
2121
2121
2121
2117
2117
2117
2125
2125
2125
2120
2120
2120
2120
2120
2120
2120
2123
2123
2123
2123
2123
2123
2120
2120
2120
2120
2120
2120
2120
2118
2118
2118
2120
2120
2120
2116
2116
2116
2121
2121
2121
2116
2116
2116
2116
2119
2119
2119
2123
2123
2123
2122
2122
2122
2119
2119
2119
2120
2120
2120
2120
2120
2120
2120
2121
2121
2121
2120
2120
2120
2122
2122
2122
2121
2121
2121
2121
2120
2120
2120
2122
2122
2122
2114
2114
2114
2123
2123
2123
2120
2120
2120
2120
2120
2120
2120
2124
2124
2124
2121
2121
2121
2126
2126
2126
2120
2120
2120
2120
2117
2117
2117
2124
2124
2124
2120
2120
2120
2122
2122
2122
2121
2121
2121
2121
2120
2120
2120
2127
2127
2127
2120
2120
2120
2124
2124
2124
2121
2121
2121
2121
2122
2122
2122
2119
2119
2119
2121
2121
2121
2121
2121
2121
2120
2120
2120
2120
2118
2118
2118
2124
2124
2124
2121
2121
2121
2123
2123
2123
2118
2118
2118
2118
2120
2120
2120
2119
2119
2119
2121
2121
2121
2123
2123
2123
2121
2121
2121
2121
2117
2117
2117
2120
2120
2120
2122
2122
2122
2121
2121
2121
2120
2120
2120
2120
2122
2122
2122
2119
2119
2119
2121
2121
2121
2116
2116
2116
2121
2121
2121
2121
2122
2122
2122
2122
2122
2122
2123
2123
2123
2119
2119
2119
2120
2120
2120
2120
2118
2118
2118
2122
2122
2122
2120
2120
2120
2118
2118
2118
2119
2119
2119
2119
2119
2119
2119
2121
2121
2121
2121
2121
2121
2121
2121
2121
2123
2123
2123
2123
2121
2121
2121
2121
2121
2121
2119
2119
2119
2122
2122
2122
2121
2121
2121
2121
2120
2120
2120
2122
2122
2122
2120
2120
2120
2119
2119
2119
2123
2123
2123
2123
2122
2122
2122
2121
2121
2121
2121
2121
2121
2122
2122
2122
2123
2123
2123
2123
2119
2119
2119
2124
2124
2124
2120
2120
2120
2123
2123
2123
2121
2121
2121
2121
2120
2120
2120
2121
2121
2121
2119
2119
2119
2121
2121
2121
2119
2119
2119
2119
2106
2106
2106
2124
2124
2124
2119
2119
2119
2121
2121
2121
2122
2122
2122
2122
2118
2118
2118
2121
2121
2121
2119
2119
2119
2121
2121
2121
2120
2120
2120
2120
2119
2119
2119
2121
2121
2121
2120
2120
2120
2121
2121
2121
2118
2118
2118
2118
2119
2119
2119
2123
2123
2123
2120
2120
2120
2121
2121
2121
2118
2118
2118
2118
2119
2119
2119
2122
2122
2122
2119
2119
2119
2120
2120
2120
2119
2119
2119
2119
2119
2119
2119
2122
2122
2122
2121
2121
2121
2122
2122
2122
2123
2123
2123
2123
2122
2122
2122
2121
2121
2121
2122
2122
2122
2118
2118
2118
2122
2122
2122
2122
2120
2120
2120
2121
2121
2121
2119
2119
2119
2121
2121
2121
2120
2120
2120
2120
2121
2121
2121
2123
2123
2123
2120
2120
2120
2124
2124
2124
2121
2121
2121
2121
2118
2118
2118
2121
2121
2121
2117
2117
2117
2123
2123
2123
2119
2119
2119
2119
2121
2121
2121
2122
2122
2122
2124
2124
2124
2123
2123
2123
2120
2120
2120
2120
2119
2119
2119
2123
2123
2123
2120
2120
2120
2121
2121
2121
2119
2119
2119
2119
2122
2122
2122
2122
2122
2122
2121
2121
2121
2120
2120
2120
2120
2120
2120
2120
2121
2121
2121
2129
2129
2129
2121
2121
2121
2120
2120
2120
2115
2115
2115
2115
2119
2119
2119
2120
2120
2120
2121
2121
2121
2120
2120
2120
2116
2116
2116
2116
2122
2122
2122
2124
2124
2124
2121
2121
2121
2118
2118
2118
2121
2121
2121
2121
2118
2118
2118
2122
2122
2122
2123
2123
2123
2119
2119
2119
2121
2121
2121
2121
2120
2120
2120
2122
2122
2122
2120
2120
2120
2117
2117
2117
2121
2121
2121
2121
2121
2121
2121
2121
2121
2121
2122
2122
2122
2125
2125
2125
2123
2123
2123
2123
2123
2123
2123
2121
2121
2121
2121
2121
2121
2121
2121
2121
2123
2123
2123
2123
2121
2121
2121
2124
2124
2124
2122
2122
2122
2124
2124
2124
2122
2122
2122
2122
2123
2123
2123
2122
2122
2122
2122
2122
2122
2121
2121
2121
2122
2122
2122
2122
2121
2121
2121
2122
2122
2122
2121
2121
2121
2120
2120
2120
2122
2122
2122
2122
2122
2122
2122
2122
2122
2122
2125
2125
2125
2124
2124
2124
2121
2121
2121
2121
2120
2120
2120
2123
2123
2123
2117
2117
2117
2121
2121
2121
2121
2121
2121
2121
2122
2122
2122
2124
2124
2124
2119
2119
2119
2119
2119
2119
2121
2121
2121
2121
2122
2122
2122
2117
2117
2117
2132
2132
2132
2121
2121
2121
2127
2127
2127
2127
2119
2119
2119
2117
2117
2117
2120
2120
2120
2120
2120
2120
2121
2121
2121
2121
2118
2118
2118
2127
2127
2127
2121
2121
2121
2122
2122
2122
2120
2120
2120
2120
2120
2120
2120
2120
2120
2120
2119
2119
2119
2122
2122
2122
2122
2122
2122
2122
2118
2118
2118
2119
2119
2119
2120
2120
2120
2121
2121
2121
2119
2119
2119
2119
2120
2120
2120
2120
2120
2120
2120
2120
2120
2123
2123
2123
2120
2120
2120
2120
2121
2121
2121
2120
2120
2120
2123
2123
2123
2122
2122
2122
2122
2122
2122
2122
2119
2119
2119
2121
2121
2121
2118
2118
2118
2124
2124
2124
2118
2118
2118
2118
2118
2118
2118
2121
2121
2121
2118
2118
2118
2120
2120
2120
2121
2121
2121
2121
2119
2119
2119
2121
2121
2121
2120
2120
2120
2122
2122
2122
2117
2117
2117
2117
2122
2122
2122
2122
2122
2122
2119
2119
2119
2121
2121
2121
2120
2120
2120
2120
2120
2120
2120
2121
2121
2121
2125
2125
2125
2122
2122
2122
2122
2122
2122
2122
2117
2117
2117
2119
2119
2119
2121
2121
2121
2121
2121
2121
2121
2121
2121
2121
2119
2119
2119
2121
2121
2121
2122
2122
2122
2125
2125
2125
2118
2118
2118
2118
2119
2119
2119
2124
2124
2124
2121
2121
2121
2121
2121
2121
2123
2123
2123
2123
2121
2121
2121
2122
2122
2122
2123
2123
2123
2119
2119
2119
2123
2123
2123
2123
2120
2120
2120
2120
2120
2120
2121
2121
2121
2120
2120
2120
2121
2121
2121
2121
2121
2121
2121
2122
2122
2122
2120
2120
2120
2124
2124
2124
2122
2122
2122
2122
2121
2121
2121
2120
2120
2120
2119
2119
2119
2120
2120
2120
2122
2122
2122
2122
2120
2120
2120
2121
2121
2121
2123
2123
2123
2123
2123
2123
2120
2120
2120
2120
2120
2120
2120
2117
2117
2117
2121
2121
2121
2126
2126
2126
2120
2120
2120
2120
2118
2118
2118
2123
2123
2123
2120
2120
2120
2122
2122
2122
2123
2123
2123
2123
2119
2119
2119
2122
2122
2122
2122
2122
2122
2124
2124
2124
2121
2121
2121
2121
2120
2120
2120
2123
2123
2123
2121
2121
2121
2121
2121
2121
2118
2118
2118
2118
2121
2121
2121
2122
2122
2122
2125
2125
2125
2121
2121
2121
2121
2121
2121
2121
2119
2119
2119
2125
2125
2125
2121
2121
2121
2120
2120
2120
2121
2121
2121
2121
2120
2120
2120
2124
2124
2124
2117
2117
2117
2124
2124
2124
2112
2112
2112
2112
2123
2123
2123
2123
2123
2123
2120
2120
2120
2122
2122
2122
2124
2124
2124
2124
2117
2117
2117
2122
2122
2122
2121
2121
2121
2123
2123
2123
2120
2120
2120
2120
2119
2119
2119
2121
2121
2121
2122
2122
2122
2122
2122
2122
2119
2119
2119
2119
2116
2116
2116
2123
2123
2123
2121
2121
2121
2122
2122
2122
2123
2123
2123
2123
2119
2119
2119
2120
2120
2120
2122
2122
2122
2123
2123
2123
2119
2119
2119
2119
2120
2120
2120
2123
2123
2123
2121
2121
2121
2125
2125
2125
2121
2121
2121
2121
2122
2122
2122
2121
2121
2121
2118
2118
2118
2124
2124
2124
2120
2120
2120
2120
2121
2121
2121
2121
2121
2121
2119
2119
2119
2124
2124
2124
2120
2120
2120
2120
2119
2119
2119
2120
2120
2120
2121
2121
2121
2124
2124
2124
2120
2120
2120
2120
2119
2119
2119
2120
2120
2120
2122
2122
2122
2123
2123
2123
2120
2120
2120
2120
2121
2121
2121
2126
2126
2126
2119
2119
2119
2123
2123
2123
2124
2124
2124
2124
2121
2121
2121
2121
2121
2121
2117
2117
2117
2123
2123
2123
2126
2126
2126
2126
2119
2119
2119
2123
2123
2123
2121
2121
2121
2118
2118
2118
2121
2121
2121
2121
2120
2120
2120
2121
2121
2121
2119
2119
2119
2121
2121
2121
2122
2122
2122
2122
2122
2122
2122
2123
2123
2123
2120
2120
2120
2124
2124
2124
2120
2120
2120
2120
2124
2124
2124
2123
2123
2123
2121
2121
2121
2118
2118
2118
2121
2121
2121
2121
2120
2120
2120
2120
2120
2120
2121
2121
2121
2120
2120
2120
2124
2124
2124
2124
2121
2121
2121
2119
2119
2119
2121
2121
2121
2119
2119
2119
2120
2120
2120
2120
2123
2123
2123
2120
2120
2120
2118
2118
2118
2121
2121
2121
2120
2120
2120
2120
2120
2120
2120
2117
2117
2117
2120
2120
2120
2123
2123
2123
2121
2121
2121
2121
2121
2121
2121
2121
2121
2121
2118
2118
2118
2122
2122
2122
2118
2118
2118
2118
2117
2117
2117
2120
2120
2120
2119
2119
2119
2122
2122
2122
2118
2118
2118
2118
2120
2120
2120
2117
2117
2117
2121
2121
2121
2120
2120
2120
2118
2118
2118
2118
2120
2120
2120
2125
2125
2125
2120
2120
2120
2122
2122
2122
2120
2120
2120
2120
2120
2120
2120
2123
2123
2123
2120
2120
2120
2122
2122
2122
2122
2122
2122
2122
2121
2121
2121
2121
2121
2121
2120
2120
2120
2123
2123
2123
2120
2120
2120
2120
2112
2112
2112
2120
2120
2120
2121
2121
2121
2121
2121
2121
2121
2121
2121
2121
2122
2122
2122
2125
2125
2125
2120
2120
2120
2121
2121
2121
2122
2122
2122
2122
2120
2120
2120
2121
2121
2121
2116
2116
2116
2121
2121
2121
2123
2123
2123
2123
2118
2118
2118
2121
2121
2121
2117
2117
2117
2123
2123
2123
2120
2120
2120
2120
2119
2119
2119
2123
2123
2123
2120
2120
2120
2120
2120
2120
2120
2120
2120
2120
2122
2122
2122
2133
2133
2133
2123
2123
2123
2120
2120
2120
2124
2124
2124
2124
2119
2119
2119
2120
2120
2120
2119
2119
2119
2123
2123
2123
2117
2117
2117
2117
2121
2121
2121
2121
2121
2121
2118
2118
2118
2123
2123
2123
2120
2120
2120
2120
2120
2120
2120
2127
2127
2127
2119
2119
2119
2121
2121
2121
2126
2126
2126
2126
2122
2122
2122
2121
2121
2121
2118
2118
2118
2121
2121
2121
2124
2124
2124
2124
2120
2120
2120
2121
2121
2121
2121
2121
2121
2122
2122
2122
2120
2120
2120
2120
2123
2123
2123
2121
2121
2121
2121
2121
2121
2109
2109
2109
2122
2122
2122
2122
2125
2125
2125
2120
2120
2120
2119
2119
2119
2121
2121
2121
2121
2121
2121
2121
2121
2121
2121
2120
2120
2120
2122
2122
2122
2122
2122
2122
2121
2121
2121
2121
2121
2121
2121
2120
2120
2120
2125
2125
2125
2122
2122
2122
2120
2120
2120
2120
2119
2119
2119
2118
2118
2118
2124
2124
2124
2120
2120
2120
2122
2122
2122
2122
2121
2121
2121
2120
2120
2120
2121
2121
2121
2122
2122
2122
2120
2120
2120
2120
2121
2121
2121
2120
2120
2120
2123
2123
2123
2120
2120
2120
2122
2122
2122
2122
2119
2119
2119
2126
2126
2126
2119
2119
2119
2122
2122
2122
2123
2123
2123
2123
2121
2121
2121
2123
2123
2123
2122
2122
2122
2120
2120
2120
2123
2123
2123
2123
2123
2123
2123
2120
2120
2120
2123
2123
2123
2125
2125
2125
2122
2122
2122
2122
2118
2118
2118
2120
2120
2120
2121
2121
2121
2123
2123
2123
2121
2121
2121
2121
2120
2120
2120
2121
2121
2121
2127
2127
2127
2120
2120
2120
2120
2120
2120
2120
2119
2119
2119
2121
2121
2121
2120
2120
2120
2125
2125
2125
2120
2120
2120
2120
2122
2122
2122
2119
2119
2119
2121
2121
2121
2120
2120
2120
2120
2120
2120
2120
2118
2118
2118
2121
2121
2121
2117
2117
2117
2121
2121
2121
2119
2119
2119
2119
2120
2120
2120
2121
2121
2121
2121
2121
2121
2122
2122
2122
2121
2121
2121
2121
2120
2120
2120
2121
2121
2121
2122
2122
2122
2123
2123
2123
2120
2120
2120
2120
2119
2119
2119
2120
2120
2120
2120
2120
2120
2126
2126
2126
2121
2121
2121
2121
2125
2125
2125
2121
2121
2121
2123
2123
2123
2119
2119
2119
2119
2119
2119
2119
2120
2120
2120
2120
2120
2120
2119
2119
2119
2122
2122
2122
2118
2118
2118
2118
2122
2122
2122
2123
2123
2123
2121
2121
2121
2123
2123
2123
2120
2120
2120
2120
2123
2123
2123
2120
2120
2120
2120
2120
2120
2121
2121
2121
2120
2120
2120
2120
2119
2119
2119
2121
2121
2121
2121
2121
2121
2122
2122
2122
2119
2119
2119
2119
2119
2119
2119
2120
2120
2120
2113
2113
2113
2123
2123
2123
2120
2120
2120
2120
2120
2120
2120
2123
2123
2123
2119
2119
2119
2119
2119
2119
2122
2122
2122
2122
2121
2121
2121
2130
2130
2130
2120
2120
2120
2122
2122
2122
2117
2117
2117
2117
2123
2123
2123
2120
2120
2120
2120
2120
2120
2127
2127
2127
2118
2118
2118
2118
2121
2121
2121
2122
2122
2122
2120
2120
2120
2119
2119
2119
2120
2120
2120
2120
2121
2121
2121
2121
2121
2121
2120
2120
2120
2119
2119
2119
2120
2120
2120
2120
2120
2120
2120
2123
2123
2123
2117
2117
2117
2120
2120
2120
2120
2120
2120
2120
2121
2121
2121
2121
2121
2121
2120
2120
2120
2118
2118
2118
2121
2121
2121
2121
2118
2118
2118
2120
2120
2120
2122
2122
2122
2120
2120
2120
2118
2118
2118
2118
2116
2116
2116
2120
2120
2120
2125
2125
2125
2121
2121
2121
2121
2121
2121
2121
2121
2121
2121
2121
2121
2121
2121
2121
2121
2118
2118
2118
2122
2122
2122
2122
2120
2120
2120
2121
2121
2121
2120
2120
2120
2119
2119
2119
2120
2120
2120
2120
2119
2119
2119
2124
2124
2124
2115
2115
2115
2121
2121
2121
2120
2120
2120
2120
2122
2122
2122
2120
2120
2120
2120
2120
2120
2118
2118
2118
2122
2122
2122
2122
2118
2118
2118
2124
2124
2124
2121
2121
2121
2120
2120
2120
2120
2120
2120
2120
2119
2119
2119
2120
2120
2120
2121
2121
2121
2119
2119
2119
2122
2122
2122
2122
2123
2123
2123
2121
2121
2121
2119
2119
2119
2122
2122
2122
2121
2121
2121
2121
2118
2118
2118
2123
2123
2123
2118
2118
2118
2119
2119
2119
2121
2121
2121
2121
2119
2119
2119
2121
2121
2121
2119
2119
2119
2126
2126
2126
2121
2121
2121
2121
2120
2120
2120
2121
2121
2121
2121
2121
2121
2119
2119
2119
2117
2117
2117
2117
2121
2121
2121
2119
2119
2119
2119
2119
2119
2120
2120
2120
2121
2121
2121
2121
2121
2121
2121
2118
2118
2118
2122
2122
2122
2123
2123
2123
2124
2124
2124
2124
2123
2123
2123
2122
2122
2122
2120
2120
2120
2122
2122
2122
2122
2122
2122
2122
2119
2119
2119
2120
2120
2120
2120
2120
2120
2119
2119
2119
2120
2120
2120
2120
2120
2120
2120
2120
2120
2120
2125
2125
2125
2120
2120
2120
2122
2122
2122
2122
2119
2119
2119
2120
2120
2120
2120
2120
2120
2118
2118
2118
2120
2120
2120
2120
2118
2118
2118
2121
2121
2121
2118
2118
2118
2121
2121
2121
2122
2122
2122
2122
2117
2117
2117
2121
2121
2121
2122
2122
2122
2119
2119
2119
2123
2123
2123
2123
2119
2119
2119
2122
2122
2122
2119
2119
2119
2121
2121
2121
2120
2120
2120
2120
2118
2118
2118
2121
2121
2121
2120
2120
2120
2120
2120
2120
2121
2121
2121
2121
2120
2120
2120
2121
2121
2121
2128
2128
2128
2119
2119
2119
2121
2121
2121
2121
2121
2121
2121
2121
2121
2121
2120
2120
2120
2122
2122
2122
2120
2120
2120
2120
2120
2120
2120
2120
2120
2120
2120
2120
2120
2119
2119
2119
2124
2124
2124
2124
2118
2118
2118
2120
2120
2120
2120
2120
2120
2118
2118
2118
2120
2120
2120
2120
2117
2117
2117
2121
2121
2121
2119
2119
2119
2132
2132
2132
2120
2120
2120
2120
2121
2121
2121
2121
2121
2121
2121
2121
2121
2119
2119
2119
2119
2119
2119
2119
2117
2117
2117
2121
2121
2121
2121
2121
2121
2122
2122
2122
2123
2123
2123
2123
2121
2121
2121
2117
2117
2117
2120
2120
2120
2120
2120
2120
2121
2121
2121
2121
2120
2120
2120
2125
2125
2125
2119
2119
2119
2122
2122
2122
2119
2119
2119
2119
2121
2121
2121
2119
2119
2119
2121
2121
2121
2123
2123
2123
2124
2124
2124
2124
2116
2116
2116
2122
2122
2122
2119
2119
2119
2124
2124
2124
2120
2120
2120
2120
2120
2120
2120
2124
2124
2124
2119
2119
2119
2118
2118
2118
2121
2121
2121
2121
2121
2121
2121
2120
2120
2120
2119
2119
2119
2120
2120
2120
2123
2123
2123
2123
2120
2120
2120
2120
2120
2120
2118
2118
2118
2123
2123
2123
2121
2121
2121
2121
2118
2118
2118
2120
2120
2120
2118
2118
2118
2121
2121
2121
2117
2117
2117
2117
2116
2116
2116
2117
2117
2117
2123
2123
2123
2121
2121
2121
2121
2121
2121
2121
2118
2118
2118
2121
2121
2121
2120
2120
2120
2125
2125
2125
2119
2119
2119
2119
2119
2119
2119
2121
2121
2121
2119
2119
2119
2121
2121
2121
2120
2120
2120
2120
2123
2123
2123
2121
2121
2121
2122
2122
2122
2121
2121
2121
2124
2124
2124
2124
2123
2123
2123
2119
2119
2119
2120
2120
2120
2123
2123
2123
2119
2119
2119
2119
2119
2119
2119
2118
2118
2118
2121
2121
2121
2122
2122
2122
2120
2120
2120
2120
2114
2114
2114
2121
2121
2121
2121
2121
2121
2122
2122
2122
2121
2121
2121
2121
2119
2119
2119
2120
2120
2120
2121
2121
2121
2121
2121
2121
2122
2122
2122
2122
2121
2121
2121
2121
2121
2121
2119
2119
2119
2122
2122
2122
2121
2121
2121
2121
2117
2117
2117
2122
2122
2122
2120
2120
2120
2121
2121
2121
2120
2120
2120
2120
2121
2121
2121
2122
2122
2122
2118
2118
2118
2124
2124
2124
2121
2121
2121
2121
2120
2120
2120
2120
2120
2120
2118
2118
2118
2122
2122
2122
2118
2118
2118
2118
2121
2121
2121
2119
2119
2119
2118
2118
2118
2121
2121
2121
2116
2116
2116
2116
2121
2121
2121
2122
2122
2122
2121
2121
2121
2125
2125
2125
2118
2118
2118
2118
2123
2123
2123
2121
2121
2121
2119
2119
2119
2122
2122
2122
2120
2120
2120
2120
2120
2120
2120
2120
2120
2120
2122
2122
2122
2119
2119
2119
2121
2121
2121
2121
2123
2123
2123
2122
2122
2122
2120
2120
2120
2119
2119
2119
2121
2121
2121
2121
2121
2121
2121
2120
2120
2120
2121
2121
2121
2121
2121
2121
2119
2119
2119
2119
2120
2120
2120
2119
2119
2119
2120
2120
2120
2123
2123
2123
2111
2111
2111
2111
2120
2120
2120
2118
2118
2118
2121
2121
2121
2120
2120
2120
2120
2120
2120
2120
2119
2119
2119
2121
2121
2121
2120
2120
2120
2125
2125
2125
2120
2120
2120
2120
2121
2121
2121
2121
2121
2121
2121
2121
2121
2123
2123
2123
2118
2118
2118
2118
2120
2120
2120
2119
2119
2119
2122
2122
2122
2118
2118
2118
2123
2123
2123
2123
2121
2121
2121
2121
2121
2121
2120
2120
2120
2122
2122
2122
2119
2119
2119
2119
2122
2122
2122
2122
2122
2122
2117
2117
2117
2122
2122
2122
2122
2122
2122
2122
2118
2118
2118
2120
2120
2120
2118
2118
2118
2117
2117
2117
2118
2118
2118
2118
2122
2122
2122
2122
2122
2122
2120
2120
2120
2123
2123
2123
2120
2120
2120
2120
2119
2119
2119
2120
2120
2120
2117
2117
2117
2120
2120
2120
2119
2119
2119
2119
2118
2118
2118
2122
2122
2122
2121
2121
2121
2122
2122
2122
2121
2121
2121
2121
2121
2121
2121
2122
2122
2122
2120
2120
2120
2119
2119
2119
2122
2122
2122
2122
2119
2119
2119
2121
2121
2121
2119
2119
2119
2120
2120
2120
2122
2122
2122
2122
2122
2122
2122
2124
2124
2124
2121
2121
2121
2123
2123
2123
2121
2121
2121
2121
2122
2122
2122
2122
2122
2122
2120
2120
2120
2123
2123
2123
2119
2119
2119
2119
2119
2119
2119
2121
2121
2121
2117
2117
2117
2123
2123
2123
2119
2119
2119
2119
2121
2121
2121
2120
2120
2120
2122
2122
2122
2122
2122
2122
2121
2121
2121
2121
2122
2122
2122
2120
2120
2120
2121
2121
2121
2119
2119
2119
2121
2121
2121
2121
2116
2116
2116
2120
2120
2120
2118
2118
2118
2125
2125
2125
2123
2123
2123
2123
2120
2120
2120
2122
2122
2122
2120
2120
2120
2123
2123
2123
2122
2122
2122
2122
2117
2117
2117
2119
2119
2119
2121
2121
2121
2118
2118
2118
2121
2121
2121
2121
2120
2120
2120
2122
2122
2122
2119
2119
2119
2125
2125
2125
2121
2121
2121
2121
2119
2119
2119
2119
2119
2119
2118
2118
2118
2122
2122
2122
2120
2120
2120
2120
2121
2121
2121
2118
2118
2118
2117
2117
2117
2119
2119
2119
2121
2121
2121
2121
2119
2119
2119
2124
2124
2124
2120
2120
2120
2121
2121
2121
2120
2120
2120
2120
2120
2120
2120
2119
2119
2119
2120
2120
2120
2122
2122
2122
2120
2120
2120
2120
2118
2118
2118
2120
2120
2120
2120
2120
2120
2119
2119
2119
2120
2120
2120
2120
2113
2113
2113
2119
2119
2119
2119
2119
2119
2121
2121
2121
2123
2123
2123
2123
2121
2121
2121
2120
2120
2120
2122
2122
2122
2121
2121
2121
2120
2120
2120
2120
2121
2121
2121
2120
2120
2120
2121
2121
2121
2120
2120
2120
2120
2120
2120
2120
2125
2125
2125
2120
2120
2120
2119
2119
2119
2121
2121
2121
2121
2121
2121
2121
2121
2121
2121
2119
2119
2119
2122
2122
2122
2123
2123
2123
2118
2118
2118
2118
2123
2123
2123
2122
2122
2122
2120
2120
2120
2124
2124
2124
2120
2120
2120
2120
2119
2119
2119
2122
2122
2122
2120
2120
2120
2116
2116
2116
2120
2120
2120
2120
2118
2118
2118
2123
2123
2123
2117
2117
2117
2122
2122
2122
2121
2121
2121
2121
2119
2119
2119
2119
2119
2119
2115
2115
2115
2120
2120
2120
2119
2119
2119
2119
2118
2118
2118
2124
2124
2124
2120
2120
2120
2121
2121
2121
2120
2120
2120
2120
2121
2121
2121
2116
2116
2116
2121
2121
2121
2120
2120
2120
2119
2119
2119
2119
2118
2118
2118
2122
2122
2122
2120
2120
2120
2120
2120
2120
2117
2117
2117
2117
2113
2113
2113
2119
2119
2119
2119
2119
2119
2123
2123
2123
2122
2122
2122
2122
2118
2118
2118
2120
2120
2120
2120
2120
2120
2120
2120
2120
2120
2120
2120
2120
2119
2119
2119
2121
2121
2121
2124
2124
2124
2121
2121
2121
2120
2120
2120
2120
2121
2121
2121
2122
2122
2122
2120
2120
2120
2121
2121
2121
2121
2121
2121
2121
2119
2119
2119
2122
2122
2122
2121
2121
2121
2120
2120
2120
2123
2123
2123
2123
2120
2120
2120
2118
2118
2118
2120
2120
2120
2117
2117
2117
2120
2120
2120
2120
2122
2122
2122
2121
2121
2121
2121
2121
2121
2123
2123
2123
2119
2119
2119
2119
2120
2120
2120
2119
2119
2119
2120
2120
2120
2122
2122
2122
2122
2122
2122
2122
2119
2119
2119
2121
2121
2121
2121
2121
2121
2121
2121
2121
2120
2120
2120
2120
2120
2120
2120
2121
2121
2121
2121
2121
2121
2122
2122
2122
2121
2121
2121
2121
2121
2121
2121
2124
2124
2124
2121
2121
2121
2125
2125
2125
2122
2122
2122
2122
2119
2119
2119
2123
2123
2123
2120
2120
2120
2123
2123
2123
2121
2121
2121
2121
2121
2121
2121
2121
2121
2121
2122
2122
2122
2120
2120
2120
2122
2122
2122
2122
2119
2119
2119
2119
2119
2119
2121
2121
2121
2118
2118
2118
2120
2120
2120
2120
2121
2121
2121
2118
2118
2118
2123
2123
2123
2122
2122
2122
2120
2120
2120
2120
2123
2123
2123
2120
2120
2120
2124
2124
2124
2122
2122
2122
2124
2124
2124
2124
2122
2122
2122
2123
2123
2123
2121
2121
2121
2123
2123
2123
2119
2119
2119
2119
2120
2120
2120
2126
2126
2126
2121
2121
2121
2123
2123
2123
2123
2123
2123
2123
2124
2124
2124
2122
2122
2122
2124
2124
2124
2120
2120
2120
2122
2122
2122
2122
2119
2119
2119
2120
2120
2120
2120
2120
2120
2123
2123
2123
2120
2120
2120
2120
2121
2121
2121
2121
2121
2121
2120
2120
2120
2121
2121
2121
2120
2120
2120
2120
2118
2118
2118
2121
2121
2121
2124
2124
2124
2121
2121
2121
2119
2119
2119
2119
2122
2122
2122
2121
2121
2121
2119
2119
2119
2120
2120
2120
2122
2122
2122
2122
2120
2120
2120
2121
2121
2121
2120
2120
2120
2123
2123
2123
2121
2121
2121
2121
2123
2123
2123
2121
2121
2121
2117
2117
2117
2120
2120
2120
2117
2117
2117
2117
2119
2119
2119
2122
2122
2122
2117
2117
2117
2122
2122
2122
2122
2122
2122
2122
2119
2119
2119
2123
2123
2123
2120
2120
2120
2123
2123
2123
2121
2121
2121
2121
2121
2121
2121
2122
2122
2122
2124
2124
2124
2122
2122
2122
2123
2123
2123
2123
2121
2121
2121
2122
2122
2122
2119
2119
2119
2123
2123
2123
2118
2118
2118
2118
2120
2120
2120
2122
2122
2122
2120
2120
2120
2123
2123
2123
2121
2121
2121
2121
2122
2122
2122
2122
2122
2122
2116
2116
2116
2120
2120
2120
2118
2118
2118
2118
2121
2121
2121
2121
2121
2121
2121
2121
2121
2121
2121
2121
2121
2121
2121
2121
2119
2119
2119
2122
2122
2122
2119
2119
2119
2122
2122
2122
2122
2122
2122
2122
2118
2118
2118
2122
2122
2122
2123
2123
2123
2121
2121
2121
2120
2120
2120
2120
2122
2122
2122
2118
2118
2118
2119
2119
2119
2121
2121
2121
2119
2119
2119
2119
2120
2120
2120
2123
2123
2123
2119
2119
2119
2120
2120
2120
2120
2120
2120
2120
2117
2117
2117
2122
2122
2122
2116
2116
2116
2123
2123
2123
2120
2120
2120
2120
2119
2119
2119
2122
2122
2122
2118
2118
2118
2124
2124
2124
2120
2120
2120
2120
2122
2122
2122
2122
2122
2122
2123
2123
2123
2123
2123
2123
2121
2121
2121
2121
2120
2120
2120
2122
2122
2122
2112
2112
2112
2123
2123
2123
2118
2118
2118
2118
2120
2120
2120
2120
2120
2120
2120
2120
2120
2121
2121
2121
2120
2120
2120
2120
2119
2119
2119
2123
2123
2123
2120
2120
2120
2122
2122
2122
2123
2123
2123
2123
2125
2125
2125
2120
2120
2120
2120
2120
2120
2120
2120
2120
2121
2121
2121
2121
2117
2117
2117
2121
2121
2121
2120
2120
2120
2124
2124
2124
2120
2120
2120
2120
2120
2120
2120
2123
2123
2123
2122
2122
2122
2121
2121
2121
2121
2121
2121
2121
2122
2122
2122
2120
2120
2120
2121
2121
2121
2120
2120
2120
2119
2119
2119
2119
2122
2122
2122
2118
2118
2118
2118
2118
2118
2120
2120
2120
2120
2120
2120
2120
2121
2121
2121
2119
2119
2119
2120
2120
2120
2123
2123
2123
2118
2118
2118
2118
2123
2123
2123
2123
2123
2123
2120
2120
2120
2123
2123
2123
2120
2120
2120
2120
2120
2120
2120
2121
2121
2121
2120
2120
2120
2119
2119
2119
2120
2120
2120
2120
2120
2120
2120
2118
2118
2118
2120
2120
2120
2122
2122
2122
2122
2122
2122
2122
2121
2121
2121
2121
2121
2121
2114
2114
2114
2120
2120
2120
2120
2120
2120
2120
2121
2121
2121
2126
2126
2126
2125
2125
2125
2122
2122
2122
2120
2120
2120
2120
2119
2119
2119
2118
2118
2118
2120
2120
2120
2121
2121
2121
2119
2119
2119
2119
2123
2123
2123
2118
2118
2118
2118
2118
2118
2123
2123
2123
2123
2123
2123
2123
2120
2120
2120
2121
2121
2121
2117
2117
2117
2119
2119
2119
2120
2120
2120
2120
2120
2120
2120
2120
2120
2120
2122
2122
2122
2123
2123
2123
2121
2121
2121
2121
2121
2121
2121
2122
2122
2122
2116
2116
2116
2123
2123
2123
2121
2121
2121
2121
2120
2120
2120
2119
2119
2119
2122
2122
2122
2121
2121
2121
2120
2120
2120
2120
2121
2121
2121
2118
2118
2118
2128
2128
2128
2121
2121
2121
2119
2119
2119
2119
2121
2121
2121
2122
2122
2122
2123
2123
2123
2118
2118
2118
2119
2119
2119
2119
2118
2118
2118
2120
2120
2120
2122
2122
2122
2123
2123
2123
2123
2123
2123
2123
2119
2119
2119
2119
2119
2119
2121
2121
2121
2119
2119
2119
2118
2118
2118
2118
2121
2121
2121
2120
2120
2120
2125
2125
2125
2121
2121
2121
2122
2122
2122
2122
2120
2120
2120
2123
2123
2123
2119
2119
2119
2120
2120
2120
2122
2122
2122
2122
2119
2119
2119
2121
2121
2121
2119
2119
2119
2123
2123
2123
2120
2120
2120
2120
2122
2122
2122
2122
2122
2122
2121
2121
2121
2123
2123
2123
2118
2118
2118
2118
2117
2117
2117
2123
2123
2123
2123
2123
2123
2122
2122
2122
2120
2120
2120
2120
2121
2121
2121
2124
2124
2124
2115
2115
2115
2120
2120
2120
2121
2121
2121
2121
2119
2119
2119
2121
2121
2121
2121
2121
2121
2121
2121
2121
2119
2119
2119
2119
2120
2120
2120
2122
2122
2122
2119
2119
2119
2121
2121
2121
2123
2123
2123
2123
2121
2121
2121
2121
2121
2121
2120
2120
2120
2120
2120
2120
2121
2121
2121
2121
2121
2121
2121
2122
2122
2122
2120
2120
2120
2127
2127
2127
2123
2123
2123
2123
2119
2119
2119
2119
2119
2119
2122
2122
2122
2123
2123
2123
2122
2122
2122
2122
2121
2121
2121
2122
2122
2122
2119
2119
2119
2121
2121
2121
2120
2120
2120
2120
2119
2119
2119
2123
2123
2123
2118
2118
2118
2121
2121
2121
2122
2122
2122
2122
2123
2123
2123
2123
2123
2123
2122
2122
2122
2120
2120
2120
2119
2119
2119
2119
2121
2121
2121
2120
2120
2120
2120
2120
2120
2122
2122
2122
2120
2120
2120
2120
2119
2119
2119
2118
2118
2118
2119
2119
2119
2121
2121
2121
2122
2122
2122
2122
2120
2120
2120
2121
2121
2121
2121
2121
2121
2121
2121
2121
2122
2122
2122
2122
2119
2119
2119
2123
2123
2123
2120
2120
2120
2120
2120
2120
2122
2122
2122
2122
2119
2119
2119
2121
2121
2121
2120
2120
2120
2122
2122
2122
2117
2117
2117
2117
2120
2120
2120
2123
2123
2123
2120
2120
2120
2123
2123
2123
2121
2121
2121
2121
2122
2122
2122
2120
2120
2120
2120
2120
2120
2124
2124
2124
2120
2120
2120
2120
2119
2119
2119
2122
2122
2122
2120
2120
2120
2122
2122
2122
2118
2118
2118
2118
2118
2118
2118
2120
2120
2120
2111
2111
2111
2122
2122
2122
2118
2118
2118
2118
2120
2120
2120
2122
2122
2122
2121
2121
2121
2122
2122
2122
2120
2120
2120
2120
2120
2120
2120
2119
2119
2119
2121
2121
2121
2124
2124
2124
2123
2123
2123
2123
2123
2123
2123
2122
2122
2122
2121
2121
2121
2119
2119
2119
2119
2119
2119
2119
2116
2116
2116
2121
2121
2121
2119
2119
2119
2120
2120
2120
2121
2121
2121
2121
2121
2121
2121
2124
2124
2124
2120
2120
2120
2120
2120
2120
2122
2122
2122
2122
2120
2120
2120
2121
2121
2121
2116
2116
2116
2122
2122
2122
2120
2120
2120
2120
2121
2121
2121
2121
2121
2121
2118
2118
2118
2125
2125
2125
2118
2118
2118
2118
2120
2120
2120
2121
2121
2121
2120
2120
2120
2125
2125
2125
2125
2125
2125
2125
2121
2121
2121
2121
2121
2121
2120
2120
2120
2121
2121
2121
2120
2120
2120
2120
2124
2124
2124
2119
2119
2119
2122
2122
2122
2117
2117
2117
2120
2120
2120
2120
2119
2119
2119
2120
2120
2120
2120
2120
2120
2121
2121
2121
2122
2122
2122
2122
2120
2120
2120
2122
2122
2122
2114
2114
2114
2122
2122
2122
2121
2121
2121
2121
2120
2120
2120
2127
2127
2127
2121
2121
2121
2123
2123
2123
2119
2119
2119
2119
2120
2120
2120
2123
2123
2123
2119
2119
2119
2120
2120
2120
2122
2122
2122
2122
2119
2119
2119
2120
2120
2120
2120
2120
2120
2120
2120
2120
2121
2121
2121
2121
2119
2119
2119
2120
2120
2120
2121
2121
2121
2124
2124
2124
2118
2118
2118
2118
2121
2121
2121
2122
2122
2122
2122
2122
2122
2119
2119
2119
2120
2120
2120
2120
2118
2118
2118
2121
2121
2121
2119
2119
2119
2119
2119
2119
2121
2121
2121
2121
2121
2121
2121
2126
2126
2126
2120
2120
2120
2121
2121
2121
2122
2122
2122
2122
2118
2118
2118
2121
2121
2121
2120
2120
2120
2120
2120
2120
2119
2119
2119
2119
2121
2121
2121
2121
2121
2121
2118
2118
2118
2124
2124
2124
2122
2122
2122
2122
2120
2120
2120
2120
2120
2120
2119
2119
2119
2125
2125
2125
2120
2120
2120
2120
2121
2121
2121
2120
2120
2120
2115
2115
2115
2119
2119
2119
2121
2121
2121
2121
2119
2119
2119
2120
2120
2120
2119
2119
2119
2122
2122
2122
2121
2121
2121
2121
2121
2121
2121
2122
2122
2122
2119
2119
2119
2122
2122
2122
2115
2115
2115
2115
2120
2120
2120
2122
2122
2122
2122
2122
2122
2121
2121
2121
2121
2121
2121
2121
2121
2121
2121
2121
2121
2121
2122
2122
2122
2125
2125
2125
2122
2122
2122
2122
2115
2115
2115
2122
2122
2122
2120
2120
2120
2123
2123
2123
2121
2121
2121
2121
2120
2120
2120
2123
2123
2123
2121
2121
2121
2121
2121
2121
2119
2119
2119
2119
2120
2120
2120
2120
2120
2120
2117
2117
2117
2121
2121
2121
2122
2122
2122
2122
2119
2119
2119
2127
2127
2127
2120
2120
2120
2120
2120
2120
2122
2122
2122
2122
2123
2123
2123
2122
2122
2122
2119
2119
2119
2119
2119
2119
2123
2123
2123
2123
2119
2119
2119
2122
2122
2122
2123
2123
2123
2122
2122
2122
2120
2120
2120
2120
2123
2123
2123
2124
2124
2124
2121
2121
2121
2120
2120
2120
2120
2120
2120
2120
2122
2122
2122
2120
2120
2120
2120
2120
2120
2121
2121
2121
2121
2121
2121
2121
2124
2124
2124
2118
2118
2118
2121
2121
2121
2122
2122
2122
2122
2122
2122
2122
2117
2117
2117
2120
2120
2120
2117
2117
2117
2123
2123
2123
2117
2117
2117
2117
2116
2116
2116
2124
2124
2124
2121
2121
2121
2121
2121
2121
2121
2121
2121
2121
2119
2119
2119
2123
2123
2123
2119
2119
2119
2118
2118
2118
2119
2119
2119
2119
2120
2120
2120
2124
2124
2124
2122
2122
2122
2120
2120
2120
2121
2121
2121
2121
2120
2120
2120
2121
2121
2121
2118
2118
2118
2122
2122
2122
2121
2121
2121
2121
2121
2121
2121
2123
2123
2123
2123
2123
2123
2122
2122
2122
2116
2116
2116
2116
2120
2120
2120
2120
2120
2120
2120
2120
2120
2118
2118
2118
2121
2121
2121
2121
2120
2120
2120
2119
2119
2119
2119
2119
2119
2118
2118
2118
2123
2123
2123
2123
2118
2118
2118
2124
2124
2124
2122
2122
2122
2121
2121
2121
2121
2121
2121
2121
2120
2120
2120
2125
2125
2125
2120
2120
2120
2120
2120
2120
2120
2120
2120
2120
2117
2117
2117
2124
2124
2124
2121
2121
2121
2122
2122
2122
2121
2121
2121
2121
2123
2123
2123
2125
2125
2125
2122
2122
2122
2123
2123
2123
2120
2120
2120
2120
2123
2123
2123
2120
2120
2120
2120
2120
2120
2124
2124
2124
2120
2120
2120
2120
2121
2121
2121
2122
2122
2122
2121
2121
2121
2120
2120
2120
2120
2120
2120
2120
2119
2119
2119
2120
2120
2120
2121
2121
2121
2120
2120
2120
2120
2120
2120
2120
2122
2122
2122
2119
2119
2119
2122
2122
2122
2122
2122
2122
2122
2122
2122
2122
2120
2120
2120
2122
2122
2122
2119
2119
2119
2119
2119
2119
2123
2123
2123
2123
2122
2122
2122
2122
2122
2122
2121
2121
2121
2120
2120
2120
2122
2122
2122
2122
2121
2121
2121
2120
2120
2120
2121
2121
2121
2117
2117
2117
2121
2121
2121
2121
2120
2120
2120
2121
2121
2121
2119
2119
2119
2121
2121
2121
2121
2121
2121
2121
2118
2118
2118
2120
2120
2120
2120
2120
2120
2121
2121
2121
2124
2124
2124
2124
2120
2120
2120
2118
2118
2118
2121
2121
2121
2121
2121
2121
2119
2119
2119
2119
2120
2120
2120
2117
2117
2117
2119
2119
2119
2121
2121
2121
2123
2123
2123
2123
2121
2121
2121
2123
2123
2123
2123
2123
2123
2122
2122
2122
2118
2118
2118
2118
2123
2123
2123
2120
2120
2120
2120
2120
2120
2121
2121
2121
2120
2120
2120
2120
2118
2118
2118
2121
2121
2121
2120
2120
2120
2123
2123
2123
2121
2121
2121
2121
2121
2121
2121
2121
2121
2121
2115
2115
2115
2122
2122
2122
2121
2121
2121
2121
2118
2118
2118
2118
2118
2118
2119
2119
2119
2118
2118
2118
2121
2121
2121
2121
2121
2121
2121
2126
2126
2126
2122
2122
2122
2124
2124
2124
2117
2117
2117
2117
2120
2120
2120
2123
2123
2123
2120
2120
2120
2119
2119
2119
2124
2124
2124
2124
2122
2122
2122
2120
2120
2120
2122
2122
2122
2120
2120
2120
2120
2120
2120
2120
2121
2121
2121
2121
2121
2121
2122
2122
2122
2123
2123
2123
2118
2118
2118
2118
2120
2120
2120
2122
2122
2122
2115
2115
2115
2121
2121
2121
2121
2121
2121
2121
2120
2120
2120
2123
2123
2123
2119
2119
2119
2120
2120
2120
2122
2122
2122
2122
2123
2123
2123
2124
2124
2124
2121
2121
2121
2123
2123
2123
2121
2121
2121
2121
2119
2119
2119
2123
2123
2123
2122
2122
2122
2121
2121
2121
2123
2123
2123
2123
2122
2122
2122
2120
2120
2120
2121
2121
2121
2120
2120
2120
2120
2120
2120
2120
2115
2115
2115
2122
2122
2122
2120
2120
2120
2123
2123
2123
2121
2121
2121
2121
2121
2121
2121
2123
2123
2123
2121
2121
2121
2119
2119
2119
2119
2119
2119
2119
2121
2121
2121
2118
2118
2118
2118
2118
2118
2123
2123
2123
2120
2120
2120
2120
2120
2120
2120
2121
2121
2121
2118
2118
2118
2123
2123
2123
2121
2121
2121
2121
2119
2119
2119
2121
2121
2121
2123
2123
2123
2121
2121
2121
2117
2117
2117
2117
2121
2121
2121
2122
2122
2122
2120
2120
2120
2115
2115
2115
2121
2121
2121
2121
2122
2122
2122
2122
2122
2122
2121
2121
2121
2118
2118
2118
2119
2119
2119
2119
2121
2121
2121
2121
2121
2121
2119
2119
2119
2120
2120
2120
2121
2121
2121
2121
2119
2119
2119
2123
2123
2123
2121
2121
2121
2120
2120
2120
2120
2120
2120
2120
2120
2120
2120
2121
2121
2121
2121
2121
2121
2121
2121
2121
2120
2120
2120
2120
2120
2120
2120
2125
2125
2125
2118
2118
2118
2122
2122
2122
2118
2118
2118
2118
2116
2116
2116
2122
2122
2122
2119
2119
2119
2123
2123
2123
2121
2121
2121
2121
2122
2122
2122
2121
2121
2121
2121
2121
2121
2125
2125
2125
2119
2119
2119
2119
2119
2119
2119
2120
2120
2120
2119
2119
2119
2120
2120
2120
2122
2122
2122
2122
2120
2120
2120
2122
2122
2122
2122
2122
2122
2120
2120
2120
2121
2121
2121
2121
2121
2121
2121
2120
2120
2120
2116
2116
2116
2122
2122
2122
2120
2120
2120
2120
2119
2119
2119
2123
2123
2123
2120
2120
2120
2123
2123
2123
2117
2117
2117
2117
2121
2121
2121
2123
2123
2123
2118
2118
2118
2122
2122
2122
2121
2121
2121
2121
2120
2120
2120
2122
2122
2122
2123
2123
2123
2125
