2043
2043
2034
2034
2034
2040
2040
2040
2038
2038
2038
2043
2043
2043
2043
2041
2041
2041
2035
2035
2035
2043
2043
2043
2038
2038
2038
2042
2042
2042
2042
2041
2041
2041
2038
2038
2038
2046
2046
2046
2039
2039
2039
2043
2043
2043
2043
2041
2041
2041
2040
2040
2040
2039
2039
2039
2038
2038
2038
2043
2043
2043
2043
2042
2042
2042
2040
2040
2040
2045
2045
2045
2041
2041
2041
2048
2048
2048
2048
2035
2035
2035
2038
2038
2039
2036
2036
2036
2046
2046
2046
2039
2039
2039
2042
2042
2042
2042
2043
2043
2043
2038
2038
2038
2043
2043
2043
2035
2035
2035
2042
2042
2042
2042
2044
2044
2044
2039
2039
2039
2041
2041
2041
2040
2040
2040
2044
2044
2044
2044
2041
2041
2041
2041
2041
2041
2041
2041
2041
2036
2036
2036
2040
2040
2040
2040
2042
2042
2042
2035
2035
2035
2045
2045
2045
2044
2044
2044
2043
2043
2043
2043
2044
2044
2044
2037
2037
2037
2044
2044
2044
2035
2035
2035
2044
2044
2044
2044
2041
2041
2041
2040
2040
2040
2043
2043
2043
2035
2035
2035
2041
2041
2041
2041
2042
2042
2042
2038
2038
2038
2044
2044
2044
2036
2036
2036
2044
2044
2044
2044
2043
2043
2043
2040
2040
2040
2045
2045
2045
2039
2039
2039
2044
2044
2044
2044
2041
2041
2041
2039
2039
2039
2041
2041
2041
2039
2039
2039
2043
2043
2043
2043
2041
2041
2041
2038
2038
2038
2042
2042
2042
2038
2038
2038
2044
2044
2044
2044
2038
2038
2038
2039
2039
2039
2049
2049
2049
2039
2039
2039
2044
2044
2044
2044
2046
2046
2046
2039
2039
2039
2051
2051
2051
2039
2039
2039
2042
2042
2042
2042
2045
2045
2045
2040
2040
2040
2037
2037
2037
2038
2038
2038
2039
2039
2039
2039
2042
2042
2042
2039
2039
2039
2044
2044
2044
2040
2040
2040
2043
2043
2043
2043
2042
2042
2042
2037
2037
2037
2044
2044
2044
2036
2036
2036
2043
2043
2043
2043
2043
2043
2043
2040
2040
2040
2042
2042
2042
2038
2038
2038
2044
2044
2044
2044
2041
2041
2041
2047
2047
2047
2043
2043
2043
2042
2042
2042
2045
2045
2045
2045
2039
2039
2039
2038
2038
2038
2041
2041
2041
2036
2036
2036
2044
2044
2044
2044
2042
2042
2042
2044
2044
2044
2044
2044
2044
2039
2039
2039
2042
2042
2042
2042
2044
2044
2044
2039
2039
2039
2042
2042
2042
2038
2038
2038
2045
2045
2045
2045
2044
2044
2044
2039
2039
2039
2044
2044
2044
2041
2041
2041
2044
2044
2044
2044
2044
2044
2044
2037
2037
2037
2042
2042
2042
2034
2034
2034
2043
2043
2043
2043
2040
2040
2040
2035
2035
2035
2040
2040
2040
2039
2039
2039
2047
2047
2047
2047
2040
2040
2040
2037
2037
2037
2045
2045
2045
2039
2039
2039
2034
2034
2034
2034
2040
2040
2040
2039
2039
2039
2042
2042
2042
2038
2038
2038
2041
2041
2041
2041
2043
2043
2043
2038
2038
2038
2040
2040
2040
2041
2041
2041
2040
2040
2040
2040
2043
2043
2043
2036
2036
2036
2042
2042
2042
2037
2037
2037
2043
2043
2043
2043
2042
2042
2042
2035
2035
2035
2043
2043
2043
2037
2037
2037
2043
2043
2043
2043
2044
2044
2044
2042
2042
2042
2044
2044
2044
2032
2032
2032
2043
2043
2043
2043
2042
2042
2042
2040
2040
2040
2043
2043
2043
2040
2040
2040
2041
2041
2041
2041
2041
2041
2041
2040
2040
2040
2047
2047
2047
2039
2039
2039
2043
2043
2043
2043
2042
2042
2042
2037
2037
2037
2041
2041
2041
2041
2041
2041
2041
2041
2041
2041
2045
2045
2045
2039
2039
2039
2045
2045
2045
2039
2039
2039
2040
2040
2040
2040
2051
2051
2051
2038
2038
2038
2042
2042
2042
2036
2036
2036
2051
2051
2051
2051
2046
2046
2046
2037
2037
2037
2046
2046
2046
2035
2035
2035
2038
2038
2038
2038
2042
2042
2042
2040
2040
2040
2050
2050
2050
2038
2038
2038
2043
2043
2043
2043
2042
2042
2042
2043
2043
2043
2044
2044
2044
2037
2037
2037
2041
2041
2041
2041
2040
2040
2040
2038
2038
2038
2044
2044
2044
2039
2039
2039
2042
2042
2042
2042
2042
2042
2042
2040
2040
2040
2043
2043
2043
2041
2041
2041
2044
2044
2044
2044
2043
2043
2043
2039
2039
2039
2043
2043
2043
2036
2036
2036
2046
2046
2046
2046
2040
2040
2040
2038
2038
2038
2044
2044
2044
2035
2035
2035
2044
2044
2044
2044
2042
2042
2042
2036
2036
2036
2043
2043
2043
2039
2039
2039
2042
2042
2042
2042
2043
2043
2043
2039
2039
2039
2042
2042
2042
2039
2039
2039
2043
2043
2043
2043
2044
2044
2044
2039
2039
2039
2043
2043
2043
2039
2039
2039
2044
2044
2044
2044
2041
2041
2041
2038
2038
2038
2044
2044
2044
2040
2040
2040
2042
2042
2042
2042
2041
2041
2041
2035
2035
2035
2044
2044
2044
2038
2038
2038
2045
2045
2045
2045
2036
2036
2036
2038
2038
2038
2042
2042
2042
2036
2036
2036
2042
2042
2042
2042
2036
2036
2036
2040
2040
2040
2043
2043
2043
2039
2039
2039
2049
2049
2049
2049
2044
2044
2044
2039
2039
2039
2042
2042
2042
2042
2042
2042
2049
2049
2049
2049
2042
2042
2042
2038
2038
2038
2041
2041
2041
2036
2036
2036
2041
2041
2041
2041
2043
2043
2043
2041
2041
2041
2043
2043
2043
2038
2038
2038
2041
2041
2041
2041
2044
2044
2044
2038
2038
2038
2043
2043
2043
2041
2041
2041
2045
2045
2045
2045
2045
2045
2045
2031
2031
2031
2041
2041
2041
2040
2040
2040
2042
2042
2042
2042
2043
2043
2043
2039
2039
2039
2042
2042
2042
2036
2036
2036
2039
2039
2039
2039
2043
2043
2043
2038
2038
2038
2043
2043
2043
2027
2027
2027
2042
2042
2042
2042
2044
2044
2044
2042
2042
2042
2043
2043
2043
2034
2034
2034
2043
2043
2043
2043
2041
2041
2041
2038
2038
2038
