2003
2003
2003
2006
2006
2006
2006
2006
2006
2007
2007
2007
2005
2005
2005
2005
2005
2005
2005
2004
2004
2004
2010
2010
2010
2002
2002
2002
2001
2001
2001
2003
2003
2003
2003
2003
2003
2003
2006
2006
2006
2003
2003
2003
2005
2005
2005
2008
2008
2008
2008
2002
2002
2002
2004
2004
2004
2004
2004
2004
1998
1998
1998
2006
2006
2006
2006
2008
2008
2008
2000
2000
2000
2004
2004
2004
2008
2008
2008
2004
2004
2004
2004
2003
2003
2003
2006
2006
2006
2007
2007
2007
2003
2003
2003
2006
2006
2006
2002
2002
2002
2002
2000
2000
2000
2006
2006
2006
2007
2007
2007
2004
2004
2004
2007
2007
2007
2007
2005
2005
2005
2006
2006
2006
2000
2000
2000
1999
1999
1999
2005
2005
2005
2005
2002
2002
2002
2005
2005
2005
2003
2003
2003
2003
2003
2003
2009
2009
2009
2009
2004
2004
2004
2005
2005
2005
1999
1999
1999
2004
2004
2004
2008
2008
2008
2008
2009
2009
2009
2004
2004
2004
2003
2003
2003
2006
2006
2006
2001
2001
2001
2001
2002
2002
2002
2002
2002
2002
1998
1998
1998
2005
2005
2005
2004
2004
2004
2004
2005
2005
2005
2006
2006
2006
2002
2002
2002
2005
2005
2005
2005
2005
2005
2005
2008
2008
2008
2005
2005
2005
2005
2005
2005
2005
2005
2005
2003
2003
2003
2003
2003
2003
2003
2008
2008
2008
2002
2002
2002
2005
2005
2005
2002
2002
2002
2002
2004
2004
2004
2005
2005
2005
1996
1996
1996
2006
2006
2006
1999
1999
1999
1999
2003
2003
2003
2005
2005
2005
2003
2003
2003
2005
2005
2005
2010
2010
2010
2010
2008
2008
2008
2008
2008
2008
1997
1997
1997
2005
2005
2005
2008
2008
2008
2008
2001
2001
2001
2003
2003
2003
2014
2014
2014
2004
2004
2004
2003
2003
2003
2003
2003
2003
2003
2006
2006
2006
1996
1996
1996
2005
2005
2005
2005
2005
2005
2005
2000
2000
2000
2006
2006
2006
2008
2008
2008
2001
2001
2001
1998
1998
1998
1998
2006
2006
2006
2004
2004
2004
2002
2002
2002
2007
2007
2007
2002
2002
2002
2002
2004
2004
2004
2005
2005
2005
2008
2008
2008
2005
2005
2005
2007
2007
2007
2007
2002
2002
2002
2002
2002
2002
2000
2000
2000
2003
2003
2003
2007
2007
2007
2007
2004
2004
2004
2005
2005
2005
2010
2010
2010
2004
2004
2004
2002
2002
2002
2002
2012
2012
2012
2003
2003
2003
2003
2003
2003
2006
2006
2006
2002
2002
2002
2002
2004
2004
2004
1997
1997
1997
2011
2011
2011
2011
2011
2011
2005
2005
2005
2005
2006
2006
2006
2005
2005
2005
2001
2001
2001
2004
2004
2004
1994
1994
1994
1994
2001
2001
2001
2005
2005
2005
2010
2010
2010
2007
2007
2007
2005
2005
2005
2005
2004
2004
2004
2002
2002
2002
2007
2007
2007
2005
2005
2005
2002
2002
2002
2002
2004
2004
2004
2004
2004
2004
1999
1999
1999
2005
2005
2005
2015
2015
2015
2015
2010
2010
2010
2005
2005
2005
2004
2004
2004
2004
2004
2004
2003
2003
2003
2003
2004
2004
2004
2009
2009
2009
2002
2002
2002
2009
2009
2009
2006
2006
2006
2006
2005
2005
2005
2004
2004
2004
2003
2003
2003
2006
2006
2006
1998
1998
1998
1998
2003
2003
2003
2001
2001
2001
2013
2013
2013
2007
2007
2007
2002
2002
2002
2002
2002
2002
2002
2004
2004
2004
2002
2002
2002
2007
2007
2007
2006
2006
2006
2006
2006
2006
2006
2007
2007
2007
2005
2005
2005
2004
2004
2004
2005
2005
2005
2005
2005
2005
2005
2006
2006
2006
2006
2006
2006
2005
2005
2005
2005
2005
2005
2005
2006
2006
2006
2007
2007
2007
2005
2005
2005
2011
2011
2011
2005
2005
2005
2005
2006
2006
2006
2005
2005
2005
2002
2002
2002
2005
2005
2005
2007
2007
2007
2007
2005
2005
2005
2005
2005
2005
2005
2005
2005
2005
2005
2005
2005
2005
2005
2005
2002
2002
2002
2007
2007
2007
2002
2002
2002
2001
2001
2001
2006
2006
2006
2006
2002
2002
2002
2008
2008
2008
2007
2007
2007
2002
2002
2002
2003
2003
2003
2003
2000
2000
2000
2005
2005
2005
2008
2008
2008
2007
2007
2007
2011
2011
2011
2011
2002
2002
2002
2008
2008
2008
2004
2004
2004
2003
2003
2003
2004
2004
2004
2004
2006
2006
2006
2003
2003
2003
2006
2006
2006
2007
2007
2007
2003
2003
2003
2003
2006
2006
2006
2005
2005
2005
2011
2011
2011
2005
2005
2005
2004
2004
2004
2004
2005
2005
2005
2002
2002
2002
2006
2006
2006
2009
2009
2009
2004
2004
2004
2004
2007
2007
2007
2008
2008
2008
2005
2005
2005
2010
2010
2010
2005
2005
2005
2005
2000
2000
2000
2001
2001
2001
2004
2004
2004
2005
2005
2005
2008
2008
2008
2008
2005
2005
2005
2002
2002
2002
2002
2002
2002
2007
2007
2007
2004
2004
2004
2004
2005
2005
2005
2003
2003
2003
2006
2006
2006
2003
2003
2003
2005
2005
2005
2005
1999
1999
1999
2006
2006
2006
2000
2000
2000
2001
2001
2001
2001
2001
2001
2001
2004
2004
2004
2003
2003
2003
2006
2006
2006
2006
2006
2006
2005
2005
2005
2005
2004
2004
2004
2006
2006
2006
2004
2004
2004
2008
2008
2008
2004
2004
2004
2004
2004
2004
2004
2006
2006
2006
2004
2004
2004
2007
2007
2007
2007
2007
2007
2007
2004
2004
2004
2005
2005
2005
2004
2004
2004
2003
2003
2003
2004
2004
2004
2004
2005
2005
2005
2004
2004
2004
2002
2002
2002
2006
2006
2006
2003
2003
2003
2003
2005
2005
2005
2007
2007
2007
2013
2013
2013
2006
2006
2006
2006
2006
2006
2006
2005
2005
2005
2005
2005
2005
2006
2006
2006
1997
1997
1997
2003
2003
2003
2003
2005
2005
2005
2005
2005
2005
2005
2005
2005
2002
2002
2002
2003
2003
2003
2003
2009
2009
2009
2008
2008
2008
2001
2001
2001
2006
2006
2006
2003
2003
2003
2003
2004
2004
