2075
2077
2077
2077
2078
2078
2078
2073
2073
2073
2072
2072
2072
2076
2076
2076
2076
2075
2075
2075
2069
2069
2069
2078
2078
2078
2070
2070
2070
2078
2078
2078
2078
2075
2075
2075
2070
2070
2070
2075
2075
2075
2070
2070
2070
2073
2073
2073
2073
2076
2076
2076
2071
2071
2071
2078
2078
2078
2071
2071
2071
2076
2076
2076
2076
2076
2076
2076
2073
2073
2073
2077
2077
2077
2074
2074
2074
2076
2076
2076
2076
2074
2074
2074
2071
2071
2071
2076
2076
2076
2069
2069
2069
2071
2071
2071
2071
2078
2078
2078
2072
2072
2072
2077
2077
2077
2071
2071
2071
2076
2076
2076
2076
2075
2075
2075
2072
2072
2072
2079
2079
2079
2071
2071
2071
2076
2076
2076
2076
2074
2074
2074
2071
2071
2071
2078
2078
2078
2071
2071
2071
2073
2073
2073
2073
2075
2075
2075
2071
2071
2071
2078
2078
2078
2072
2072
2072
2076
2076
2076
2076
2073
2073
2073
2071
2071
2071
2074
2074
2074
2072
2072
2072
2078
2078
2078
2078
2081
2081
2081
2072
2072
2072
2078
2078
2078
2069
2069
2069
2077
2077
2077
2077
2076
2076
2076
2072
2072
2072
2076
2076
2076
2073
2073
2073
2077
2077
2077
2077
2077
2077
2077
2071
2071
2071
2077
2077
2077
2072
2072
2072
2079
2079
2079
2079
2075
2075
2075
2073
2073
2073
2076
2076
2076
2070
2070
2070
2074
2074
2074
2074
2077
2077
2077
2070
2070
2070
2078
2078
2078
2072
2072
2072
2076
2076
2076
2076
2075
2075
2075
2070
2070
2070
2075
2075
2075
2072
2072
2072
2077
2077
2077
2077
2075
2075
2075
2069
2069
2069
2074
2074
2074
2071
2071
2071
2075
2075
2075
2075
2075
2075
2075
2070
2070
2070
2077
2077
2077
2075
2075
2075
2074
2074
2074
2074
2076
2076
2076
2071
2071
2071
2077
2077
2077
2070
2070
2070
2076
2076
2076
2076
2073
2073
2073
2074
2074
2074
2081
2081
2081
2072
2072
2072
2075
2075
2075
2075
2076
2076
2076
2072
2072
2072
2077
2077
2077
2072
2072
2072
2079
2079
2079
2079
2079
2079
2079
2072
2072
2072
2076
2076
2076
2071
2071
2071
2079
2079
2079
2079
2077
2077
2077
2070
2070
2070
2077
2077
2077
2070
2070
2070
2078
2078
2078
2078
2077
2077
2077
2071
2071
2071
2077
2077
2077
2073
2073
2073
2080
2080
2080
2080
2079
2079
2079
2071
2071
2071
2075
2075
2075
2073
2073
2073
2081
2081
2081
2081
2076
2076
2076
2072
2072
2072
2079
2079
2079
2075
2075
2075
2074
2074
2074
2074
2080
2080
2080
2071
2071
2071
2079
2079
2079
2071
2071
2071
2076
2076
2076
2076
2078
2078
2078
2074
2074
2074
2080
2080
2080
2071
2071
2071
2076
2076
2076
2076
2074
2074
2074
2069
2069
2069
2073
2073
2073
2069
2069
2069
2077
2077
2077
2077
2075
2075
2075
2072
2072
2072
2076
2076
2076
2071
2071
2071
2077
2077
2077
2077
2077
2077
2077
2073
2073
2073
2077
2077
2077
2070
2070
2070
2077
2077
2077
2077
2074
2074
2074
2070
2070
2070
2075
2075
2075
2068
2068
2068
2075
2075
2075
2075
2076
2076
2076
2073
2073
2073
2076
2076
2076
2073
2073
2073
2076
2076
2076
2076
2077
2077
2077
2068
2068
2068
2077
2077
2077
2072
2072
2072
2076
2076
2076
2076
2076
2076
2076
2071
2071
2071
2077
2077
2077
2069
2069
2069
2077
2077
2077
2077
2078
2078
2078
2072
2072
2072
2075
2075
2075
2075
2075
2075
2083
2083
2083
2083
2075
2075
2075
2070
2070
2070
2077
2077
2077
2070
2070
2070
2078
2078
2078
2078
2077
2077
2077
2073
2073
2073
2078
2078
2078
2070
2070
2070
2074
2074
2074
2074
2077
2077
2077
2070
2070
2070
2077
2077
2077
2073
2073
2073
2078
2078
2078
2078
2077
2077
2077
2071
2071
2071
2077
2077
2077
2071
2071
2071
2073
2073
2073
2073
2077
2077
2077
2068
2068
2068
2079
2079
2079
2072
2072
2072
2079
2079
2079
2079
2075
2075
2075
2073
2073
2073
2077
2077
2077
2071
2071
2071
2079
2079
2079
2079
2081
2081
2081
2073
2073
2073
2080
2080
2080
2075
2075
2075
2070
2070
2070
2070
2074
2074
2074
2071
2071
2071
2080
2080
2080
2074
2074
2074
2076
2076
2076
2076
2076
2076
2076
2071
2071
2071
2076
2076
2076
2072
2072
2072
2075
2075
2075
2075
2076
2076
2076
2072
2072
2072
2077
2077
2077
2074
2074
2074
2075
2075
2075
2075
2077
2077
2077
2071
2071
2071
2075
2075
2075
2072
2072
2072
2076
2076
2076
2076
2075
2075
2075
2072
2072
2072
2078
2078
2078
2072
2072
2072
2077
2077
2077
2077
2076
2076
2076
2073
2073
2073
2075
2075
2075
2074
2074
2074
2075
2075
2075
2075
2076
2076
2076
2070
2070
2070
2075
2075
2075
2071
2071
2071
2077
2077
2077
2077
2075
2075
2075
2071
2071
2071
2077
2077
2077
2064
2064
2064
2076
2076
2076
2076
2077
2077
2077
2066
2066
2066
2076
2076
2076
2071
2071
2071
2073
2073
2073
2073
2077
2077
2077
2072
2072
2072
2078
2078
2078
2071
2071
2071
2076
2076
2076
2076
2077
2077
2077
2074
2074
2074
2077
2077
2077
2073
2073
2073
2075
2075
2075
2075
2077
2077
2077
2071
2071
2071
2077
2077
2077
2064
2064
2064
2077
2077
2077
2077
2075
2075
2075
2072
2072
2072
2077
2077
2077
2073
2073
2073
2074
2074
2074
2074
2076
2076
2076
2073
2073
2073
2077
2077
2077
2072
2072
2072
2079
2079
2079
2079
2076
2076
2076
2073
2073
2073
2080
2080
2080
2074
2074
2074
2074
2074
2074
2074
2077
2077
2077
2073
2073
2073
2075
2075
2075
2073
2073
2073
2076
2076
2076
2076
2076
2076
2076
2070
2070
2070
2075
2075
2075
2073
2073
2073
2080
2080
2080
2080
2075
2075
2075
2071
2071
2071
2075
2075
2075
2074
2074
2074
2074
2074
2074
2074
2077
2077
2077
2072
2072
2072
2078
2078
2078
2072
2072
2072
2081
2081
2081
2081
2077
2077
2077
2071
2071
2071
2077
2077
2077
2072
2072
2072
2079
2079
2079
2079
2075
2075
2075
2072
2072
2072
2081
2081
2081
2070
2070
2070
2077
2077
2077
2077
2077
2077
2077
2072
2072
2072
2078
2078
2078
2073
2073
2073
2078
2078
2078
2078
2075
2075
2075
2073
2073
2073
2075
2075
2075
2072
2072
2072
2080
2080
2080
2080
2078
2078
2078
2072
2072
2072
2077
2077
2077
2069
2069
2069
2074
2074
2074
2074
2074
2074
2074
2071
2071
2071
2076
2076
2076
2071
2071
2071
2077
2077
2077
2077
2075
2075
2075
2075
2075
2075
2077
2077
2077
2070
2070
2070
2078
2078
2078
2078
2071
2071
2071
2078
2078
2078
2078
2078
2078
2069
2069
2069
2077
2077
2077
2077
2076
2076
2076
2072
2072
2072
2076
2076
2076
2074
2074
2074
2076
2076
2076
2076
2077
2077
2077
2072
2072
2072
2077
2077
2077
2070
2070
2070
2076
2076
2076
2076
2075
2075
2075
2075
2075
2075
2078
2078
2078
2069
2069
2069
2076
2076
2076
2076
2076
2076
2076
2072
2072
2072
2076
2076
2076
2073
2073
2073
2078
2078
2078
2078
2078
2078
2078
2072
2072
2072
2075
2075
2075
2071
2071
2071
2075
2075
2075
2075
2077
2077
2077
2072
2072
2072
2075
2075
2075
2071
2071
2071
2078
2078
2078
2078
2076
2076
2076
2073
2073
2073
2076
2076
2076
2069
2069
2069
2075
2075
2075
2075
2075
2075
2075
2072
2072
2072
2080
2080
2080
2072
2072
2072
2074
2074
2074
2074
2076
2076
2076
2072
2072
2072
2076
2076
2076
2072
2072
2072
2072
2072
2072
2072
2076
2076
2076
2072
2072
2072
2076
2076
2076
2072
2072
2072
2076
2076
2076
2076
2079
2079
2079
2070
2070
2070
2077
2077
2077
2071
2071
2071
2077
2077
2077
2077
2077
2077
2077
2073
2073
2073
2079
2079
2079
2074
2074
2074
2078
2078
2078
2078
2078
2078
2078
2073
2073
2073
2076
2076
2076
2073
2073
2073
2076
2076
2076
2076
2076
2076
2076
2073
2073
2073
2077
2077
2077
2071
2071
2071
2077
2077
2077
2077
2076
2076
2076
2072
2072
2072
2077
2077
2077
2069
2069
2069
2076
2076
2076
2076
2076
2076
2076
2073
2073
2073
2075
2075
2075
2071
2071
2071
2075
2075
2075
2075
2076
2076
2076
2073
2073
2073
2077
2077
2077
2078
2078
2078
2075
2075
2075
2075
2075
2075
2075
2070
2070
2070
2077
2077
2077
2071
2071
2071
2080
2080
2080
2080
2077
2077
2077
2069
2069
2069
2077
2077
2077
2071
2071
2071
2077
2077
2077
2077
2075
2075
2075
2075
2075
2075
2078
2078
2078
2072
2072
2072
2078
2078
2078
2078
2076
2076
2076
2071
2071
2071
2078
2078
2078
2073
2073
2073
2078
2078
2078
2078
2076
2076
2076
2075
2075
2075
2078
2078
2078
2069
2069
2069
2080
2080
2080
2080
2075
2075
2075
2073
2073
2073
2077
2077
2077
2075
2075
2075
2073
2073
2073
2073
2077
2077
2077
2071
2071
2071
2076
2076
2076
2070
2070
2070
2071
2071
2071
2071
2079
2079
2079
2074
2074
2074
2073
2073
2073
2073
2073
2073
2076
2076
2076
2076
2070
2070
2070
2074
2074
2074
2075
2075
2075
2071
2071
2071
2076
2076
2076
2076
2074
2074
2074
2074
2074
2074
2076
2076
2076
2073
2073
2073
2078
2078
2078
2078
2076
2076
2076
2073
2073
2073
2074
2074
2074
2073
2073
2073
2076
2076
2076
2076
2074
2074
2074
2072
2072
2072
2077
2077
2077
2072
2072
2072
2076
2076
2076
2076
2075
2075
2075
2073
2073
2073
2078
2078
2078
2073
2073
2073
2079
2079
2079
2079
2077
2077
2077
2072
2072
2072
2077
2077
2077
2071
2071
2071
2076
2076
2076
2076
2077
2077
2077
2071
2071
2071
2076
2076
2076
2071
2071
2071
2077
2077
2077
2077
2076
2076
2076
2075
2075
2075
2076
2076
2076
2071
2071
2071
2077
2077
2077
2077
2076
2076
2076
2070
2070
2070
2079
2079
2079
2071
2071
2071
2074
2074
2074
2074
2075
2075
2075
2073
2073
2073
2078
2078
2078
2072
2072
2072
2077
2077
2077
2077
2076
2076
2076
2076
2076
2076
2078
2078
2078
2073
2073
2073
2076
2076
2076
2076
2077
2077
2077
2070
2070
2070
2077
2077
2077
2070
2070
2070
2076
2076
2076
2076
2075
2075
2075
2069
2069
2069
2078
2078
2078
2071
2071
2071
2075
2075
2075
2075
2074
2074
2074
2070
2070
2070
2079
2079
2079
2073
2073
2073
2079
2079
2079
2079
2077
2077
2077
2073
2073
2073
2077
2077
2077
2071
2071
2071
2075
2075
2075
2075
2076
2076
2076
2071
2071
2071
2074
2074
2074
2074
2074
2074
2077
2077
2077
2077
2076
2076
2076
2074
2074
2074
2082
2082
2082
2073
2073
2073
2074
2074
2074
2074
2076
2076
2076
2070
2070
2070
2078
2078
2078
2071
2071
2071
2078
2078
2078
2078
2076
2076
2076
2072
2072
2072
2077
2077
2077
2072
2072
2072
2078
2078
2078
2078
2074
2074
2074
2070
2070
2070
2077
2077
2077
2073
2073
2073
2076
2076
2076
2076
2078
2078
2078
2071
2071
2071
2076
2076
2076
2074
2074
2074
2075
2075
2075
2075
2078
2078
2078
2071
2071
2071
2076
2076
2076
2072
2072
2072
2077
2077
2077
2077
2078
2078
2078
2072
2072
2072
2078
2078
2078
2073
2073
2073
2075
2075
2075
2075
2077
2077
2077
2070
2070
2070
2075
2075
2075
2076
2076
2076
2076
2076
2076
2076
2078
2078
2078
2074
2074
2074
2078
2078
2078
2072
2072
2072
2076
2076
2076
2076
2077
2077
2077
2073
2073
2073
2078
2078
2078
2071
2071
2071
2078
2078
2078
2078
2077
2077
2077
2073
2073
2073
2076
2076
2076
2072
2072
2072
2075
2075
2075
2075
2079
2079
2079
2069
2069
2069
2076
2076
2076
2070
2070
2070
2076
2076
2076
2076
2075
2075
2075
2070
2070
2070
2078
2078
2078
2072
2072
2072
2077
2077
2077
2077
2074
2074
2074
2072
2072
2072
2075
2075
2075
2072
2072
2072
2075
2075
2075
2075
2079
2079
2079
2072
2072
2072
2078
2078
2078
2073
2073
2073
2073
2073
2073
2073
2077
2077
2077
2073
2073
2073
2078
2078
2078
2073
2073
2073
2073
2073
2073
2073
2072
2072
2072
2072
2072
2072
2078
2078
2078
2071
2071
2071
2078
2078
2078
2078
2077
2077
2077
2072
2072
2072
2077
2077
2077
2071
2071
2071
2076
2076
2076
2076
2080
2080
2080
2074
2074
2074
2075
2075
2075
2071
2071
2071
2073
2073
2073
2073
2076
2076
2076
2072
2072
2072
2077
2077
2077
2071
2071
2071
2076
2076
2076
2076
2075
2075
2075
2072
2072
2072
2077
2077
2077
2073
2073
2073
2078
2078
2078
2078
2077
2077
2077
2073
2073
2073
2077
2077
2077
2074
2074
2074
2077
2077
2077
2077
2076
2076
2076
2072
2072
2072
2076
2076
2076
2072
2072
2072
2075
2075
2075
2075
2076
2076
2076
2072
2072
2072
2077
2077
2077
2070
2070
2070
2076
2076
2076
2076
2075
2075
2075
2073
2073
2073
2075
2075
2075
2071
2071
2071
2076
2076
2076
2076
2077
2077
2077
2072
2072
2072
2075
2075
2075
2074
2074
2074
2077
2077
2077
2077
2077
2077
2077
2078
2078
2078
2077
2077
2077
2069
2069
2069
2077
2077
2077
2077
2077
2077
2077
2075
2075
2075
2078
2078
2078
2064
2064
2064
2076
2076
2076
2076
2078
2078
2078
2072
2072
2072
2078
2078
2078
2072
2072
2072
2077
2077
2077
2077
2073
2073
2073
2072
2072
2072
2075
2075
2075
2074
2074
2074
2077
2077
2077
2077
2076
2076
2076
2070
2070
2070
2079
2079
2079
2070
2070
2070
2076
2076
2076
2076
2076
2076
2076
2073
2073
2073
2078
2078
2078
2073
2073
2073
2078
2078
2078
2078
2074
2074
2074
2072
2072
2072
2078
2078
2078
2073
2073
2073
2074
2074
2074
2074
2076
2076
2076
2069
2069
2069
2085
2085
2085
2070
2070
2070
2077
2077
2077
2077
2076
2076
2076
2072
2072
2072
2078
2078
2078
2073
2073
2073
2075
2075
2075
2075
2078
2078
2078
2070
2070
2070
2080
2080
2080
2070
2070
2070
2076
2076
2076
2076
2076
2076
2076
2071
2071
2071
2071
2071
2071
2072
2072
2072
2078
2078
2078
2078
2079
2079
2079
2074
2074
2074
2081
2081
2081
2072
2072
2072
2075
2075
2075
2075
2075
2075
2075
2077
2077
2077
2078
2078
2078
2069
2069
2069
2077
2077
2077
2077
2073
2073
2073
2075
2075
2075
2080
2080
2080
2071
2071
2071
2078
2078
2078
2078
2076
2076
2076
2071
2071
2071
2078
2078
2078
2073
2073
2073
2076
2076
2076
2076
2077
2077
2077
2073
2073
2073
2079
2079
2079
2075
2075
2075
2077
2077
2077
2077
2076
2076
2076
2072
2072
2072
2078
2078
2078
2072
2072
2072
2078
2078
2078
2078
2076
2076
2076
2071
2071
2071
2077
2077
2077
2072
2072
2072
2075
2075
2075
2075
2077
2077
2077
2073
2073
2073
2081
2081
2081
2069
2069
2069
2075
2075
2075
2075
2077
2077
2077
2073
2073
2073
2076
2076
2076
2073
2073
2073
2076
2076
2076
2076
2076
2076
2076
2071
2071
2071
2077
2077
2077
2073
2073
2073
2076
2076
2076
2076
2076
2076
2076
2068
2068
2068
2073
2073
2073
2067
2067
2067
2078
2078
2078
2078
2075
2075
2075
2073
2073
2073
2078
2078
2078
2070
2070
2070
2078
2078
2078
2078
2078
2078
2078
2071
2071
2071
2077
2077
2077
2072
2072
2072
2078
2078
2078
2078
2074
2074
2074
2072
2072
2072
2074
2074
2074
2071
2071
2071
2086
2086
2086
2086
2079
2079
2079
2071
2071
2071
2076
2076
2076
2071
2071
2071
2076
2076
2076
2076
2076
2076
2076
2072
2072
2072
2072
2072
2072
2071
2071
2071
2077
2077
2077
2077
2077
2077
2077
2069
2069
2069
2073
2073
2073
2072
2072
2072
2074
2074
2074
2074
2076
2076
2076
2073
2073
2073
2075
2075
2075
2071
2071
2071
2075
2075
2075
2075
2075
2075
2075
2070
2070
2070
2075
2075
2075
2073
2073
2073
2076
2076
2076
2076
2078
2078
2078
2071
2071
2071
2078
2078
2078
2072
2072
2072
2076
2076
2076
2076
2077
2077
2077
2072
2072
2072
2077
2077
2077
2070
2070
2070
2076
2076
2076
2076
2077
2077
2077
2069
2069
2069
2078
2078
2078
2071
2071
2071
2076
2076
2076
2076
2073
2073
2073
2074
2074
2074
2079
2079
2079
2073
2073
2073
2080
2080
2080
2080
2076
2076
2076
2074
2074
2074
2078
2078
2078
2070
2070
2070
2077
2077
2077
2077
2076
2076
2076
2068
2068
2068
2076
2076
2076
2071
2071
2071
2075
2075
2075
2075
2073
2073
2073
2069
2069
2069
2079
2079
2079
2074
2074
2074
2078
2078
2078
2078
2075
2075
2075
2075
2075
2075
2078
2078
2078
2067
2067
2067
2078
2078
2078
2078
2076
2076
2076
2072
2072
2072
2075
2075
2075
2072
2072
2072
2076
2076
2076
2076
2077
2077
2077
2068
2068
2068
2074
2074
2074
2070
2070
2070
2074
2074
2074
2074
2074
2074
2074
2072
2072
2072
2078
2078
2078
2070
2070
2070
2078
2078
2078
2078
2075
2075
2075
2069
2069
2069
2075
2075
2075
2074
2074
2074
2077
2077
2077
2077
2079
2079
2079
2073
2073
2073
2073
2073
2073
2071
2071
2071
2074
2074
2074
2074
2076
2076
2076
2071
2071
2071
2075
2075
2075
2071
2071
2071
2077
2077
2077
2077
2074
2074
2074
2073
2073
2073
2079
2079
2079
2073
2073
2073
2078
2078
2078
2078
2075
2075
2075
2076
2076
2076
2079
2079
2079
2073
2073
2073
2081
2081
2081
2081
2075
2075
2075
2071
2071
2071
2078
2078
2078
2071
2071
2071
2076
2076
2076
2076
2079
2079
2079
2071
2071
2071
2078
2078
2078
2074
2074
2074
2075
2075
2075
2075
2080
2080
2080
2071
2071
2071
2076
2076
2076
2071
2071
2071
2077
2077
2077
2077
2075
2075
2075
2071
2071
2071
2077
2077
2077
2070
2070
2070
2078
2078
2078
2078
2078
2078
2078
2069
2069
2069
2078
2078
2078
2070
2070
2070
2075
2075
2075
2075
2076
2076
2076
2071
2071
2071
2076
2076
2076
2070
2070
2070
2076
2076
2076
2076
2077
2077
2077
2073
2073
2073
2076
2076
2076
2073
2073
2073
2078
2078
2078
2078
2076
2076
2076
2073
2073
2073
2078
2078
2078
2067
2067
2067
2079
2079
2079
2079
2075
2075
2075
2071
2071
2071
2077
2077
2077
2072
2072
2072
2078
2078
2078
2078
2077
2077
2077
2070
2070
2070
2078
2078
2078
2072
2072
2072
2076
2076
2076
2076
2080
2080
2080
2071
2071
2071
2079
2079
2079
2068
2068
2068
2076
2076
2076
2076
2077
2077
2077
2075
2075
2075
2076
2076
2076
2070
2070
2070
2074
2074
2074
2074
2078
2078
2078
2073
2073
2073
2077
2077
2077
2072
2072
2072
2079
2079
2079
2079
2076
2076
2076
2071
2071
2071
2078
2078
2078
2073
2073
2073
2077
2077
2077
2077
2075
2075
2075
2072
2072
2072
2078
2078
2078
2072
2072
2072
2078
2078
2078
2078
2075
2075
2075
2070
2070
2070
2075
2075
2075
2071
2071
2071
2075
2075
2075
2075
2073
2073
2073
2073
2073
2073
2079
2079
2079
2073
2073
2073
2077
2077
2077
2077
2078
2078
2078
2072
2072
2072
2076
2076
2076
2073
2073
2073
2080
2080
2080
2080
2077
2077
2077
2077
2077
2077
2079
2079
2079
2072
2072
2072
2073
2073
2073
2073
2079
2079
2079
2071
2071
2071
2077
2077
2077
2071
2071
2071
2077
2077
2077
2077
2072
2072
2072
2071
2071
2071
2075
2075
2075
2074
2074
2074
2079
2079
2079
2079
2074
2074
2074
2071
2071
2071
2076
2076
2076
2070
2070
2070
2076
2076
2076
2076
2075
2075
2075
2072
2072
2072
2080
2080
2080
2072
2072
2072
2077
2077
2077
2077
2070
2070
2070
2071
2071
2071
2078
2078
2078
2072
2072
2072
2079
2079
2079
2079
2079
2079
2079
2077
2077
2077
2079
2079
2079
2074
2074
2074
2078
2078
2078
2078
2074
2074
2074
2071
2071
2071
2078
2078
2078
2073
2073
2073
2078
2078
2078
2078
2074
2074
2074
2071
2071
2071
2079
2079
2079
2073
2073
2073
2077
2077
2077
2077
2077
2077
2077
2072
2072
2072
2075
2075
2075
2069
2069
2069
2073
2073
2073
2073
2077
2077
2077
2071
2071
2071
2078
2078
2078
2072
2072
2072
2078
2078
2078
2078
2074
2074
2074
2069
2069
2069
2076
2076
2076
2076
2076
2076
2078
2078
2078
2078
2077
2077
2077
2077
2077
2077
2076
2076
2076
2074
2074
2074
2074
2074
2074
2074
2077
2077
2077
2078
2078
2078
2075
2075
2075
2075
2075
2075
2079
2079
2079
2079
2078
2078
2078
2069
2069
2069
2078
2078
2078
2069
2069
2069
2080
2080
2080
2080
2077
2077
2077
2072
2072
2072
2076
2076
2076
2071
2071
2071
2078
2078
2078
2078
2076
2076
2076
2075
2075
2075
2076
2076
2076
2072
2072
2072
2077
2077
2077
2077
2074
2074
2074
2070
2070
2070
2076
2076
2076
2074
2074
2074
2079
2079
2079
2079
2079
2079
2079
2073
2073
2073
2077
2077
2077
2073
2073
2073
2076
2076
2076
2076
2077
2077
2077
2073
2073
2073
2074
2074
2074
2072
2072
2072
2077
2077
2077
2077
2076
2076
2076
2075
2075
2075
2078
2078
2078
2074
2074
2074
2077
2077
2077
2077
2077
2077
2077
2074
2074
2074
2081
2081
2081
2073
2073
2073
2078
2078
2078
2078
2075
2075
2075
2072
2072
2072
2080
2080
2080
2071
2071
2071
2080
2080
2080
2080
2073
2073
2073
2074
2074
2074
2076
2076
2076
2073
2073
2073
2077
2077
2077
2077
2078
2078
2078
2074
2074
2074
2076
2076
2076
2073
2073
2073
2076
2076
2076
2076
2077
2077
2077
2072
2072
2072
2077
2077
2077
2072
2072
2072
2076
2076
2076
2076
2077
2077
2077
2072
2072
2072
2075
2075
2075
2069
2069
2069
2076
2076
2076
2076
2076
2076
2076
2073
2073
2073
2075
2075
2075
2068
2068
2068
2077
2077
2077
2077
2075
2075
2075
2072
2072
2072
2077
2077
2077
2070
2070
2070
2075
2075
2075
2075
2076
2076
2076
2074
2074
2074
2080
2080
2080
2075
2075
2075
2076
2076
2076
2076
2076
2076
2076
2073
2073
2073
2076
2076
2076
2071
2071
2071
2076
2076
2076
2076
2078
2078
2078
2065
2065
2065
2077
2077
2077
2066
2066
2066
2080
2080
2080
2080
2078
2078
2078
2080
2080
2080
2077
2077
2077
2074
2074
2074
2077
2077
2077
2077
2077
2077
2077
2072
2072
2072
2077
2077
2077
2072
2072
2072
2075
2075
2075
2075
2081
2081
2081
2069
2069
2069
2076
2076
2076
2073
2073
2073
2076
2076
2076
2076
2079
2079
2079
2072
2072
2072
2077
2077
2077
2073
2073
2073
2075
2075
2075
2075
2078
2078
2078
2074
2074
2074
2078
2078
2078
2073
2073
2073
2072
2072
2072
2072
2074
2074
2074
2069
2069
2069
2078
2078
2078
2073
2073
2073
2076
2076
2076
2076
2075
2075
2075
2073
2073
2073
2078
2078
2078
2071
2071
2071
2075
2075
2075
2075
2077
2077
2077
2075
2075
2075
2077
2077
2077
2072
2072
2072
2079
2079
2079
2079
2078
2078
2078
2073
2073
2073
2081
2081
2081
2072
2072
2072
2074
2074
2074
2074
2073
2073
2073
2073
2073
2073
2081
2081
2081
2072
2072
2072
2078
2078
2078
2078
2078
2078
2078
2070
2070
2070
2076
2076
2076
2073
2073
2073
2077
2077
2077
2077
2077
2077
2077
2069
2069
2069
2076
2076
2076
2070
2070
2070
2078
2078
2078
2078
2074
2074
2074
2075
2075
2075
2077
2077
2077
2072
2072
2072
2076
2076
2076
2076
2079
2079
2079
2071
2071
2071
2078
2078
2078
2072
2072
2072
2077
2077
2077
2077
2081
2081
2081
2077
2077
2077
2084
2084
2084
2072
2072
2072
2076
2076
2076
2076
2076
2076
2076
2073
2073
2073
2077
2077
2077
2072
2072
2072
2077
2077
2077
2077
2076
2076
2076
2072
2072
2072
2077
2077
2077
2071
2071
2071
2075
2075
2075
2075
2077
2077
2077
2073
2073
2073
2082
2082
2082
2074
2074
2074
2077
2077
2077
2077
2076
2076
2076
2070
2070
2070
2076
2076
2076
2072
2072
2072
2075
2075
2075
2075
2075
2075
2075
2074
2074
2074
2077
2077
2077
2071
2071
2071
2077
2077
2077
2077
2077
2077
2077
2074
2074
2074
2077
2077
2077
2069
2069
2069
2076
2076
2076
2076
2075
2075
2075
2072
2072
2072
2079
2079
2079
2073
2073
2073
2077
2077
2077
2077
2076
2076
2076
2071
2071
2071
2075
2075
2075
2072
2072
2072
2078
2078
2078
2078
2079
2079
2079
2071
2071
2071
2076
2076
2076
2073
2073
2073
2073
2073
2073
2073
2077
2077
2077
2072
2072
2072
2076
2076
2076
2073
2073
2073
2079
2079
2079
2079
2077
2077
2077
2077
2077
2077
2079
2079
2079
2071
2071
2071
2077
2077
2077
2077
2077
2077
2077
2076
2076
2076
2077
2077
2077
2071
2071
2071
2076
2076
2076
2076
2078
2078
2078
2072
2072
2072
2077
2077
2077
2071
2071
2071
2078
2078
2078
2078
2077
2077
2077
2072
2072
2072
2074
2074
2074
2075
2075
2075
2078
2078
2078
2078
2077
2077
2077
2069
2069
2069
2076
2076
2076
2072
2072
2072
2077
2077
2077
2077
2076
2076
2076
2071
2071
2071
2078
2078
2078
2072
2072
2072
2077
2077
2077
2077
2073
2073
2073
2073
2073
2073
2076
2076
2076
2068
2068
2068
2077
2077
2077
2077
2075
2075
2075
2072
2072
2072
2078
2078
2078
2073
2073
2073
2077
2077
2077
2077
2077
2077
2077
2073
2073
2073
2077
2077
2077
2073
2073
2073
2078
2078
2078
2078
2075
2075
2075
2071
2071
2071
2080
2080
2080
2073
2073
2073
2076
2076
2076
2076
2076
2076
2076
2072
2072
2072
2077
2077
2077
2073
2073
2073
2078
2078
2078
2078
2076
2076
2076
2073
2073
2073
2076
2076
2076
2071
2071
2071
2079
2079
2079
2079
2072
2072
2072
2073
2073
2073
2074
2074
2074
2072
2072
2072
2076
2076
2076
2076
2079
2079
2079
2072
2072
2072
2071
2071
2071
2071
2071
2071
2079
2079
2079
2079
2079
2079
2079
2072
2072
2072
2081
2081
2081
2069
2069
2069
2076
2076
2076
2076
2074
2074
2074
2071
2071
2071
2079
2079
2079
2072
2072
2072
2077
2077
2077
2077
2077
2077
2077
2070
2070
2070
2078
2078
2078
2072
2072
2072
2078
2078
2078
2078
2078
2078
2078
2073
2073
2073
2076
2076
2076
2073
2073
2073
2076
2076
2076
2076
2078
2078
2078
2075
2075
2075
2079
2079
2079
2072
2072
2072
2077
2077
2077
2077
2077
2077
2077
2074
2074
2074
2079
2079
2079
2071
2071
2071
2076
2076
2076
2076
2075
2075
2075
2072
2072
2072
2077
2077
2077
2074
2074
2074
2075
2075
2075
2075
2079
2079
2079
2075
2075
2075
2077
2077
2077
2067
2067
2067
2077
2077
2077
2077
2077
2077
2077
2072
2072
2072
2080
2080
2080
2071
2071
2071
2075
2075
2075
2075
2076
2076
2076
2071
2071
2071
2078
2078
2078
2067
2067
2067
2078
2078
2078
2078
2077
2077
2077
2071
2071
2071
2077
2077
2077
2074
2074
2074
2077
2077
2077
2077
2076
2076
2076
2071
2071
2071
2076
2076
2076
2075
2075
2075
2079
2079
2079
2079
2076
2076
2076
2069
2069
2069
2080
2080
2080
2071
2071
2071
2078
2078
2078
2078
2077
2077
2077
2074
2074
2074
2077
2077
2077
2072
2072
2072
2078
2078
2078
2078
2068
2068
2068
2074
2074
2074
2076
2076
2076
2071
2071
2071
2074
2074
2074
2074
2074
2074
2074
2071
2071
2071
2079
2079
2079
2073
2073
2073
2078
2078
2078
2078
2079
2079
2079
2073
2073
2073
2076
2076
2076
2071
2071
2071
2078
2078
2078
2078
2075
2075
2075
2072
2072
2072
2075
2075
2075
2072
2072
2072
2075
2075
2075
2075
2079
2079
2079
2074
2074
2074
2078
2078
2078
2073
2073
2073
2078
2078
2078
2078
2075
2075
2075
2072
2072
2072
2078
2078
2078
2071
2071
2071
2072
2072
2072
2072
2079
2079
2079
2072
2072
2072
2076
2076
2076
2072
2072
2072
2082
2082
2082
2082
2072
2072
2072
2069
2069
2069
2079
2079
2079
2074
2074
2074
2081
2081
2081
2081
2074
2074
2074
2073
2073
2073
2078
2078
2078
2070
2070
2070
2080
2080
2080
2080
2072
2072
2072
2073
2073
2073
2075
2075
2075
2072
2072
2072
2075
2075
2075
2075
2080
2080
2080
2074
2074
2074
2081
2081
2081
2072
2072
2072
2076
2076
2076
2076
2075
2075
2075
2072
2072
2072
2077
2077
2077
2072
2072
2072
2077
2077
2077
2077
2079
2079
2079
2075
2075
2075
2078
2078
2078
2074
2074
2074
2074
2074
2074
2074
2074
2074
2074
2074
2074
2074
2076
2076
2076
2073
2073
2073
2079
2079
2079
2079
2077
2077
2077
2069
2069
2069
2077
2077
2077
2072
2072
2072
2075
2075
2075
2075
2077
2077
2077
2070
2070
2070
2076
2076
2076
2070
2070
2070
2074
2074
2074
2074
2076
2076
2076
2073
2073
2073
2078
2078
2078
2074
2074
2074
2077
2077
2077
2077
2077
2077
2077
2073
2073
2073
2076
2076
2076
2073
2073
2073
2076
2076
2076
2076
2076
2076
2076
2073
2073
2073
2076
2076
2076
2072
2072
2072
2078
2078
2078
2078
2075
2075
2075
2075
2075
2075
2079
2079
2079
2076
2076
2076
2078
2078
2078
2078
2075
2075
2075
2071
2071
2071
2078
2078
2078
2073
2073
2073
2076
2076
2076
2076
2077
2077
2077
2074
2074
2074
2076
2076
2076
2072
2072
2072
2078
2078
2078
2078
2077
2077
2077
2076
2076
2076
2078
2078
2078
2072
2072
2072
2076
2076
2076
2076
2073
2073
2073
2073
2073
2073
2077
2077
2077
2072
2072
2072
2079
2079
2079
2079
2075
2075
2075
2072
2072
2072
2078
2078
2078
2073
2073
2073
2075
2075
2075
2075
2077
2077
2077
2072
2072
2072
2077
2077
2077
2073
2073
2073
2077
2077
2077
2077
2074
2074
2074
2068
2068
2068
2073
2073
2073
2071
2071
2071
2077
2077
2077
2077
2077
2077
2077
2073
2073
2073
2078
2078
2078
2073
2073
2073
2079
2079
2079
2079
2077
2077
2077
2071
2071
2071
2077
2077
2077
2074
2074
2074
2078
2078
2078
2078
2077
2077
2077
2070
2070
2070
2078
2078
2078
2072
2072
2072
2078
2078
2078
2078
2077
2077
2077
2071
2071
2071
2075
2075
2075
2070
2070
2070
2078
2078
2078
2078
2077
2077
2077
2070
2070
2070
2077
2077
2077
2072
2072
2072
2076
2076
2076
2076
2074
2074
2074
2071
2071
2071
2076
2076
2076
2069
2069
2069
2080
2080
2080
2080
2076
2076
2076
2071
2071
2071
2076
2076
2076
2073
2073
2073
2078
2078
2078
2078
2074
2074
2074
2073
2073
2073
2081
2081
2081
2073
2073
2073
2081
2081
2081
2081
2075
2075
2075
2074
2074
2074
2076
2076
2076
2073
2073
2073
2078
2078
2078
2078
2080
2080
2080
2073
2073
2073
2075
2075
2075
2071
2071
2071
2079
2079
2079
2079
2078
2078
2078
2074
2074
2074
2081
2081
2081
2073
2073
2073
2075
2075
2075
2075
2078
2078
2078
2073
2073
2073
2075
2075
2075
2070
2070
2070
2075
2075
2075
2075
2077
2077
2077
2070
2070
2070
2078
2078
2078
2070
2070
2070
2077
2077
2077
2077
2074
2074
2074
2073
2073
2073
2077
2077
2077
2071
2071
2071
2076
2076
2076
2076
2076
2076
2076
2074
2074
2074
2079
2079
2079
2076
2076
2076
2076
2076
2076
2076
2075
2075
2075
2073
2073
2073
2078
2078
2078
2072
2072
2072
2078
2078
2078
2078
2077
2077
2077
2074
2074
2074
2080
2080
2080
2072
2072
2072
2078
2078
2078
2078
2076
2076
2076
2070
2070
2070
2074
2074
2074
2070
2070
2070
2075
2075
2075
2075
2071
2071
2071
2072
2072
2072
2076
2076
2076
2072
2072
2072
2080
2080
2080
2080
2074
2074
2074
2072
2072
2072
2073
2073
2073
2072
2072
2072
2077
2077
2077
2077
2077
2077
2077
2072
2072
2072
2073
2073
2073
2072
2072
2072
2077
2077
2077
2077
2074
2074
2074
2073
2073
2073
2077
2077
2077
2069
2069
2069
2075
2075
2075
2075
2076
2076
2076
2075
2075
2075
2074
2074
2074
2072
2072
2072
2075
2075
2075
2075
2075
2075
2075
2071
2071
2071
2080
2080
2080
2074
2074
2074
2075
2075
2075
2075
2078
2078
2078
2073
2073
2073
2080
2080
2080
2073
2073
2073
2076
2076
2076
2076
2075
2075
2075
2073
2073
2073
2076
2076
2076
2071
2071
2071
2075
2075
2075
2075
2078
2078
2078
2072
2072
2072
2074
2074
2074
2072
2072
2072
2077
2077
2077
2077
2077
2077
2077
2073
2073
2073
2077
2077
2077
2071
2071
2071
2078
2078
2078
2078
2079
2079
2079
2076
2076
2076
2080
2080
2080
2074
2074
2074
2079
2079
2079
2079
2078
2078
2078
2072
2072
2072
2078
2078
2078
2071
2071
2071
2077
2077
2077
2077
2077
2077
2077
2074
2074
2074
2078
2078
2078
2070
2070
2070
2077
2077
2077
2077
2073
2073
2073
2071
2071
2071
2076
2076
2076
2076
2076
2076
2075
2075
2075
2075
2077
2077
2077
2075
2075
2075
2078
2078
2078
2066
2066
2066
2076
2076
2076
2076
2076
2076
2076
2071
2071
2071
2079
2079
2079
2075
2075
2075
2077
2077
2077
2077
2076
2076
2076
2072
2072
2072
2077
2077
2077
2074
2074
2074
2077
2077
2077
2077
2075
2075
2075
2072
2072
2072
2079
2079
2079
2074
2074
2074
2077
2077
2077
2077
2077
2077
2077
2073
2073
2073
2080
2080
2080
2069
2069
2069
2077
2077
2077
2077
2075
2075
2075
2070
2070
2070
2075
2075
2075
2073
2073
2073
2075
2075
2075
2075
2075
2075
2075
2072
2072
2072
2079
2079
2079
2072
2072
2072
2076
2076
2076
2076
2074
2074
2074
2072
2072
2072
2080
2080
2080
2071
2071
2071
2076
2076
2076
2076
2077
2077
2077
2071
2071
2071
2076
2076
2076
2072
2072
2072
2078
2078
2078
2078
2077
2077
2077
2073
2073
2073
2074
2074
2074
2072
2072
2072
2076
2076
2076
2076
2073
2073
2073
2073
2073
2073
2071
2071
2071
2070
2070
2070
2073
2073
2073
2073
2073
2073
2073
2072
2072
2072
2074
2074
2074
2072
2072
2072
2078
2078
2078
2078
2073
2073
2073
2072
2072
2072
2075
2075
2075
2071
2071
2071
2072
2072
2072
2072
2076
2076
2076
2071
2071
2071
2078
2078
2078
2070
2070
2070
2074
2074
2074
2074
2074
2074
2074
2072
2072
2072
2076
2076
2076
2072
2072
2072
2076
2076
2076
2076
2077
2077
2077
2073
2073
2073
2077
2077
2077
2071
2071
2071
2078
2078
2078
2078
2078
2078
2078
2071
2071
2071
2077
2077
2077
2071
2071
2071
2075
2075
2075
2075
2074
2074
2074
2071
2071
2071
2075
2075
2075
2069
2069
2069
2077
2077
2077
2077
2077
2077
2077
2073
2073
2073
2077
2077
2077
2071
2071
2071
2074
2074
2074
2074
2075
2075
2075
2074
2074
2074
2077
2077
2077
2076
2076
2076
2077
2077
2077
2077
2076
2076
2076
2071
2071
2071
2076
2076
2076
2071
2071
2071
2077
2077
2077
2077
2074
2074
2074
2071
2071
2071
2077
2077
2077
2071
2071
2071
2078
2078
2078
2078
2075
2075
2075
2072
2072
2072
2077
2077
2077
2070
2070
2070
2077
2077
2077
2077
2075
2075
2075
2074
2074
2074
2077
2077
2077
2074
2074
2074
2077
2077
2077
2077
2077
2077
2077
2068
2068
2068
2077
2077
2077
2070
2070
2070
2076
2076
2076
2076
2076
2076
2076
2074
2074
2074
2076
2076
2076
2071
2071
2071
2076
2076
2076
2076
2077
2077
2077
2072
2072
2072
2078
2078
2078
2074
2074
2074
2077
2077
2077
2077
2077
2077
2077
2072
2072
2072
2076
2076
2076
2076
2076
2076
2077
2077
2077
2077
2075
2075
2075
2069
2069
2069
2076
2076
2076
2072
2072
2072
2078
2078
2078
2078
2077
2077
2077
2070
2070
2070
2078
2078
2078
2073
2073
2073
2075
2075
2075
2075
2076
2076
2076
2071
2071
2071
2076
2076
2076
2073
2073
2073
2076
2076
2076
2076
2074
2074
2074
2070
2070
2070
2074
2074
2074
2073
2073
2073
2075
2075
2075
2075
2076
2076
2076
2073
2073
2073
2077
2077
2077
2071
2071
2071
2077
2077
2077
2077
2078
2078
2078
2074
2074
2074
2078
2078
2078
2072
2072
2072
2079
2079
2079
2079
2076
2076
2076
2071
2071
2071
2078
2078
2078
2071
2071
2071
2076
2076
2076
2076
2075
2075
2075
2072
2072
2072
2074
2074
2074
2071
2071
2071
2079
2079
2079
2079
2076
2076
2076
2073
2073
2073
2076
2076
2076
2072
2072
2072
2077
2077
2077
2077
2075
2075
2075
2071
2071
2071
2079
2079
2079
2071
2071
2071
2077
2077
2077
2077
2073
2073
2073
2069
2069
2069
2076
2076
2076
2071
2071
2071
2075
2075
2075
2075
2080
2080
2080
2073
2073
2073
2082
2082
2082
2072
2072
2072
2072
2072
2072
2072
2072
2072
2072
2070
2070
2070
2078
2078
2078
2069
2069
2069
2072
2072
2072
2072
2077
2077
2077
2071
2071
2071
2079
2079
2079
2071
2071
2071
2076
2076
2076
2076
2075
2075
2075
2070
2070
2070
2080
2080
2080
2070
2070
2070
2081
2081
2081
2081
2078
2078
2078
2072
2072
2072
2078
2078
2078
2072
2072
2072
2077
2077
2077
2077
2077
2077
2077
2073
2073
2073
2077
2077
2077
2071
2071
2071
2078
2078
2078
2078
2081
2081
2081
2075
2075
2075
2078
2078
2078
2070
2070
2070
2076
2076
2076
2076
2078
2078
2078
2073
2073
2073
2078
2078
2078
2072
2072
2072
2076
2076
2076
2076
2076
2076
2076
2072
2072
2072
2078
2078
2078
2072
2072
2072
2077
2077
2077
2077
2077
2077
2077
2074
2074
2074
2081
2081
2081
2074
2074
2074
2076
2076
2076
2076
2074
2074
2074
2072
2072
2072
2078
2078
2078
2075
2075
2075
2077
2077
2077
2077
2077
2077
2077
2073
2073
2073
2076
2076
2076
2069
2069
2069
2075
2075
2075
2075
2077
2077
2077
2075
2075
2075
2077
2077
2077
2075
2075
2075
2077
2077
2077
2077
2075
2075
2075
2067
2067
2067
2077
2077
2077
2071
2071
2071
2075
2075
2075
2075
2075
2075
2075
2072
2072
2072
2075
2075
2075
2074
2074
2074
2075
2075
2075
2075
2077
2077
2077
2068
2068
2068
2075
2075
2075
2069
2069
2069
2076
2076
2076
2076
2076
2076
2076
2074
2074
2074
2075
2075
2075
2071
2071
2071
2077
2077
2077
2077
2078
2078
2078
2074
2074
2074
2077
2077
2077
2071
2071
2071
2077
2077
2077
2077
2078
2078
2078
2074
2074
2074
2077
2077
2077
2072
2072
2072
2076
2076
2076
2076
2076
2076
2076
2074
2074
2074
2076
2076
2076
2071
2071
2071
2075
2075
2075
2075
2075
2075
2075
2069
2069
2069
2072
2072
2072
2068
2068
2068
2074
2074
2074
2074
2076
2076
2076
2070
2070
2070
2075
2075
2075
2072
2072
2072
2078
2078
2078
2078
2075
2075
2075
2072
2072
2072
2077
2077
2077
2070
2070
2070
2075
2075
2075
2075
2073
2073
2073
2070
2070
2070
2074
2074
2074
2072
2072
2072
2076
2076
2076
2076
2074
2074
2074
2071
2071
2071
2082
2082
2082
2072
2072
2072
2074
2074
2074
2074
2077
2077
2077
2071
2071
2071
2080
2080
2080
2071
2071
2071
2078
2078
2078
2078
2077
2077
2077
2072
2072
2072
2076
2076
2076
2071
2071
2071
2078
2078
2078
2078
2070
2070
2070
2070
2070
2070
2073
2073
2073
2069
2069
2069
2073
2073
2073
2073
2070
2070
2070
2073
2073
2073
2075
2075
2075
2072
2072
2072
2076
2076
2076
2076
2078
2078
2078
2070
2070
2070
2072
2072
2072
2069
2069
2069
2075
2075
2075
2075
2076
2076
2076
2071
2071
2071
2078
2078
2078
2071
2071
2071
2075
2075
2075
2075
2075
2075
2075
2072
2072
2072
2078
2078
2078
2072
2072
2072
2075
2075
2075
2075
2077
2077
2077
2075
2075
2075
2075
2075
2075
2072
2072
2072
2073
2073
2073
2073
2077
2077
2077
2072
2072
2072
2080
2080
2080
2072
2072
2072
2075
2075
2075
2075
2077
2077
2077
2071
2071
2071
2077
2077
2077
2071
2071
2071
2075
2075
2075
2075
2076
2076
2076
2073
2073
2073
2080
2080
2080
2071
2071
2071
2076
2076
2076
2076
2076
2076
2076
2068
2068
2068
2076
2076
2076
2072
2072
2072
2079
2079
2079
2079
2078
2078
2078
2067
2067
2067
2076
2076
2076
2073
2073
2073
2079
2079
2079
2079
2075
2075
2075
2071
2071
2071
2076
2076
2076
2071
2071
2071
2076
2076
2076
2076
2075
2075
2075
2070
2070
2070
2077
2077
2077
2069
2069
2069
2079
2079
2079
2079
2076
2076
2076
2073
2073
2073
2075
2075
2075
2068
2068
2068
2076
2076
2076
2076
2075
2075
2075
2069
2069
2069
2076
2076
2076
2075
2075
2075
2078
2078
2078
2078
2078
2078
2078
2072
2072
2072
2076
2076
2076
2073
2073
2073
2076
2076
2076
2076
2076
2076
2076
2071
2071
2071
2076
2076
2076
2071
2071
2071
2078
2078
2078
2078
2074
2074
2074
2072
2072
2072
2077
2077
2077
2073
2073
2073
2074
2074
2074
2074
2079
2079
2079
2072
2072
2072
2077
2077
2077
2073
2073
2073
2073
2073
2073
2073
2076
2076
2076
2072
2072
2072
2079
2079
2079
2071
2071
2071
2080
2080
2080
2080
2075
2075
2075
2073
2073
2073
2079
2079
2079
2069
2069
2069
2074
2074
2074
2074
2074
2074
2074
2072
2072
2072
2075
2075
2075
2073
2073
2073
2077
2077
2077
2077
2075
2075
2075
2071
2071
2071
2079
2079
2079
2071
2071
2071
2077
2077
2077
2077
2074
2074
2074
2073
2073
2073
2076
2076
2076
2074
2074
2074
2077
2077
2077
2077
2077
2077
2077
2070
2070
2070
2078
2078
2078
2069
2069
2069
2076
2076
2076
2076
2077
2077
2077
2069
2069
2069
2074
2074
2074
2073
2073
2073
2074
2074
2074
2074
2075
2075
2075
2074
2074
2074
2078
2078
2078
2073
2073
2073
2076
2076
2076
2076
2076
2076
2076
2073
2073
2073
2076
2076
2076
2073
2073
2073
2077
2077
2077
2077
2077
2077
2077
2071
2071
2071
2076
2076
2076
2071
2071
2071
2076
2076
2076
2076
2076
2076
2076
2075
2075
2075
2075
2075
2075
2071
2071
2071
2078
2078
2078
2078
2076
2076
2076
2071
2071
2071
2076
2076
2076
2072
2072
2072
2073
2073
2073
2073
2078
2078
2078
2071
2071
2071
2076
2076
2076
2070
2070
2070
2076
2076
2076
2076
2073
2073
2073
2071
2071
2071
2076
2076
2076
2070
2070
2070
2077
2077
2077
2077
2079
2079
2079
2072
2072
2072
2078
2078
2078
2072
2072
2072
2075
2075
2075
2075
2074
2074
2074
2071
2071
2071
2077
2077
2077
2071
2071
2071
2074
2074
2074
2074
2074
2074
2074
2074
2074
2074
2078
2078
2078
2072
2072
2072
2077
2077
2077
2077
2075
2075
2075
2071
2071
2071
2076
2076
2076
2073
2073
2073
2077
2077
2077
2077
2076
2076
2076
2071
2071
2071
2078
2078
2078
2073
2073
2073
2076
2076
2076
2076
2079
2079
2079
2073
2073
2073
2077
2077
2077
2073
2073
2073
2078
2078
2078
2078
2076
2076
2076
2067
2067
2067
2076
2076
2076
2072
2072
2072
2075
2075
2075
2075
2077
2077
2077
2069
2069
2069
2077
2077
2077
2072
2072
2072
2077
2077
2077
2077
2075
2075
2075
2074
2074
2074
2077
2077
2077
2066
2066
2066
2076
2076
2076
2076
2075
2075
2075
2074
2074
2074
2077
2077
2077
2071
2071
2071
2075
2075
2075
2075
2074
2074
2074
2069
2069
2069
2072
2072
2072
2071
2071
2071
2073
2073
2073
2073
2077
2077
2077
2072
2072
2072
2076
2076
2076
2072
2072
2072
2078
2078
2078
2078
2073
2073
2073
2074
2074
2074
2084
2084
2084
2071
2071
2071
2078
2078
2078
2078
2073
2073
2073
2073
2073
2073
2076
2076
2076
2072
2072
2072
2079
2079
2079
2079
2078
2078
2078
2074
2074
2074
2079
2079
2079
2069
2069
2069
2078
2078
2078
2078
2078
2078
2078
2072
2072
2072
2076
2076
2076
2073
2073
2073
2078
2078
2078
2078
2076
2076
2076
2072
2072
2072
2075
2075
2075
2073
2073
2073
2074
2074
2074
2074
2075
2075
2075
2072
2072
2072
2078
2078
2078
2071
2071
2071
2077
2077
2077
2077
2074
2074
2074
2072
2072
2072
2077
2077
2077
2075
2075
2075
2076
2076
2076
2076
2076
2076
2076
2070
2070
2070
2076
2076
2076
2072
2072
2072
2076
2076
2076
2076
2078
2078
2078
2072
2072
2072
2078
2078
2078
2073
2073
2073
2076
2076
2076
2076
2077
2077
2077
2076
2076
2076
2082
2082
2082
2075
2075
2075
2074
2074
2074
2074
2078
2078
2078
2073
2073
2073
2076
2076
2076
2072
2072
2072
2078
2078
2078
2078
2075
2075
2075
2073
2073
2073
2078
2078
2078
2073
2073
2073
2077
2077
2077
2077
2077
2077
2077
2073
2073
2073
2076
2076
2076
2073
2073
2073
2075
2075
2075
2075
2075
2075
2075
2071
2071
2071
2076
2076
2076
2071
2071
2071
2075
2075
2075
2075
2075
2075
2075
2070
2070
2070
2074
2074
2074
2073
2073
2073
2075
2075
2075
2075
2074
2074
2074
2072
2072
2072
2077
2077
2077
2072
2072
2072
2070
2070
2070
2070
2070
2070
2070
2069
2069
2069
2077
2077
2077
2074
2074
2074
2073
2073
2073
2073
2075
2075
2075
2073
2073
2073
2076
2076
2076
2071
2071
2071
2073
2073
2073
2073
2073
2073
2073
2070
2070
2070
2076
2076
2076
2073
2073
2073
2074
2074
2074
2074
2078
2078
2078
2072
2072
2072
2077
2077
2077
2072
2072
2072
2076
2076
2076
2076
2077
2077
2077
2071
2071
2071
2075
2075
2075
2073
2073
2073
2074
2074
2074
2074
2078
2078
2078
2071
2071
2071
2078
2078
2078
2064
2064
2064
2075
2075
2075
2075
2077
2077
2077
2075
2075
2075
2077
2077
2077
2070
2070
2070
2079
2079
2079
2079
2077
2077
2077
2080
2080
2080
2079
2079
2079
2072
2072
2072
2077
2077
2077
2077
2075
2075
2075
2069
2069
2069
2076
2076
2076
2071
2071
2071
2077
2077
2077
2077
2078
2078
2078
2072
2072
2072
2077
2077
2077
2077
2077
2077
2077
2077
2077
2077
2076
2076
2076
2071
2071
2071
2075
2075
2075
2073
2073
2073
2075
2075
2075
2075
2077
2077
2077
2072
2072
2072
2076
2076
2076
2071
2071
2071
2074
2074
2074
2074
2079
2079
2079
2072
2072
2072
2076
2076
2076
2073
2073
2073
2076
2076
2076
2076
2071
2071
2071
2072
2072
2072
2076
2076
2076
2072
2072
2072
2076
2076
2076
2076
2071
2071
2071
2070
2070
2070
2077
2077
2077
2073
2073
2073
2075
2075
2075
2075
2076
2076
2076
2071
2071
2071
2079
2079
2079
2072
2072
2072
2070
2070
2070
2070
2076
2076
2076
2074
2074
2074
2078
2078
2078
2070
2070
2070
2075
2075
2075
2075
2079
2079
2079
2071
2071
2071
2076
2076
2076
2072
2072
2072
2077
2077
2077
2077
2078
2078
2078
2073
2073
2073
2076
2076
2076
2072
2072
2072
2074
2074
2074
2074
2076
2076
2076
2072
2072
2072
2078
2078
2078
2073
2073
2073
2075
2075
2075
2075
2074
2074
2074
2071
2071
2071
2076
2076
2076
2071
2071
2071
2073
2073
2073
2073
2073
2073
2073
2068
2068
2068
2073
2073
2073
2066
2066
2066
2073
2073
2073
2073
2077
2077
2077
2075
2075
2075
2076
2076
2076
2065
2065
2065
2075
2075
2075
2075
2075
2075
2075
2072
2072
2072
2078
2078
2078
2072
2072
2072
2078
2078
2078
2078
2075
2075
2075
2076
2076
2076
2076
2076
2076
2072
2072
2072
2072
2072
2072
2072
2076
2076
2076
2070
2070
2070
2075
2075
2075
2072
2072
2072
2077
2077
2077
2077
2076
2076
2076
2070
2070
2070
2077
2077
2077
2072
2072
2072
2074
2074
2074
2074
2077
2077
2077
2067
2067
2067
2075
2075
2075
2071
2071
2071
2075
2075
2075
2075
2074
2074
2074
2072
2072
2072
2076
2076
2076
2071
2071
2071
2074
2074
2074
2074
2076
2076
2076
2072
2072
2072
2074
2074
2074
2071
2071
2071
2077
2077
2077
2077
2079
2079
2079
2076
2076
2076
2079
2079
2079
2073
2073
2073
2080
2080
2080
2080
2071
2071
2071
2072
2072
2072
2075
2075
2075
2073
2073
2073
2074
2074
2074
2074
2074
2074
2074
2072
2072
2072
2076
2076
2076
2075
2075
2075
2075
2075
2075
2075
2075
2075
2075
2072
2072
2072
2076
2076
2076
2071
2071
2071
2080
2080
2080
2080
2077
2077
2077
2072
2072
2072
2079
2079
2079
2071
2071
2071
2076
2076
2076
2076
2072
2072
2072
2069
2069
2069
2073
2073
2073
2069
2069
2069
2071
2071
2071
2071
2077
2077
2077
2068
2068
2068
2077
2077
2077
2072
2072
2072
2075
2075
2075
2075
2075
2075
2075
2066
2066
2066
2077
2077
2077
2079
2079
2079
2077
2077
2077
2077
2075
2075
2075
2076
2076
2076
2076
2076
2076
2072
2072
2072
2076
2076
2076
2076
2076
2076
2076
2074
2074
2074
2076
2076
2076
2076
2076
2076
2075
2075
2075
2075
2076
2076
2076
2073
2073
2073
2079
2079
2079
2072
2072
2072
2075
2075
2075
2075
2077
2077
2077
2071
2071
2071
2078
2078
2078
2070
2070
2070
2075
2075
2075
2075
2077
2077
2077
2072
2072
2072
2075
2075
2075
2071
2071
2071
2071
2071
2071
2071
2079
2079
2079
2073
2073
2073
2078
2078
2078
2073
2073
2073
2078
2078
2078
2078
2076
2076
2076
2071
2071
2071
2076
2076
2076
2071
2071
2071
2072
2072
2072
2072
2079
2079
2079
2070
2070
2070
2076
2076
2076
2072
2072
2072
2076
2076
2076
2076
2073
2073
2073
2071
2071
2071
2075
2075
2075
2072
2072
2072
2077
2077
2077
2077
2078
2078
2078
2073
2073
2073
2076
2076
2076
2070
2070
2070
2075
2075
2075
2075
2076
2076
2076
2074
2074
2074
2076
2076
2076
2069
2069
2069
2076
2076
2076
2076
2075
2075
2075
2069
2069
2069
2079
2079
2079
2070
2070
2070
2073
2073
2073
2073
2077
2077
2077
2072
2072
2072
2076
2076
2076
2071
2071
2071
2074
2074
2074
2074
2076
2076
2076
2073
2073
2073
2078
2078
2078
2071
2071
2071
2078
2078
2078
2078
2077
2077
2077
2074
2074
2074
2077
2077
2077
2074
2074
2074
2077
2077
2077
2077
2076
2076
2076
2082
2082
2082
2078
2078
2078
2072
2072
2072
2075
2075
2075
2075
2075
2075
2075
2073
2073
2073
2077
2077
2077
2070
2070
2070
2076
2076
2076
2076
2077
2077
2077
2071
2071
2071
2077
2077
2077
2075
2075
2075
2077
2077
2077
2077
2076
2076
2076
2069
2069
2069
2075
2075
2075
2072
2072
2072
2079
2079
2079
2079
2075
2075
2075
2076
2076
2076
2076
2076
2076
2072
2072
2072
2076
2076
2076
2076
2075
2075
2075
2073
2073
2073
2077
2077
2077
2072
2072
2072
2077
2077
2077
2077
2077
2077
2077
2069
2069
2069
2077
2077
2077
2074
2074
2074
2076
2076
2076
2076
2076
2076
2076
2071
2071
2071
2075
2075
2075
2075
2075
2075
2076
2076
2076
2076
2075
2075
2075
2075
2075
2075
2077
2077
2077
2072
2072
2072
2078
2078
2078
2078
2075
2075
2075
2073
2073
2073
2078
2078
2078
2072
2072
2072
2075
2075
2075
2075
2077
2077
2077
2074
2074
2074
2081
2081
2081
2072
2072
2072
2074
2074
2074
2074
2077
2077
2077
2071
2071
2071
2078
2078
2078
2072
2072
2072
2069
2069
2069
2069
2073
2073
2073
2071
2071
2071
2079
2079
2079
2072
2072
2072
2078
2078
2078
2078
2074
2074
2074
2071
2071
2071
2071
2071
2071
2071
2071
2071
2071
2071
2071
2071
2075
2075
2075
2071
2071
2071
2077
2077
2077
2074
2074
2074
2076
2076
2076
2076
2079
2079
2079
2073
2073
2073
2075
2075
2075
2074
2074
2074
2077
2077
2077
2077
2077
2077
2077
2071
2071
2071
2076
2076
2076
2071
2071
2071
2080
2080
2080
2080
2077
2077
2077
2073
2073
2073
2074
2074
2074
2071
2071
2071
2075
2075
2075
2075
2076
2076
2076
2070
2070
2070
2077
2077
2077
2074
2074
2074
2077
2077
2077
2077
2077
2077
2077
2066
2066
2066
2077
2077
2077
2074
2074
2074
2077
2077
2077
2077
2075
2075
2075
2074
2074
2074
2077
2077
2077
2078
2078
2078
2078
2078
2078
2078
2074
2074
2074
2072
2072
2072
2077
2077
2077
2072
2072
2072
2075
2075
2075
2075
2077
2077
2077
2074
2074
2074
2074
2074
2074
2074
2074
2074
2076
2076
2076
2076
2077
2077
2077
2072
2072
2072
2072
2072
2072
2074
2074
2074
2074
2074
2074
2074
2073
2073
2073
2069
2069
2069
2074
2074
2074
2076
2076
2076
2075
2075
2075
2075
2077
2077
2077
2071
2071
2071
2077
2077
2077
2072
2072
2072
2074
2074
2074
2074
2080
2080
2080
2071
2071
2071
2075
2075
2075
2073
2073
2073
2079
2079
2079
2079
2074
2074
2074
2069
2069
2069
2077
2077
2077
2072
2072
2072
2079
2079
2079
2079
2076
2076
2076
2072
2072
2072
2072
2072
2072
2071
2071
2071
2074
2074
2074
2074
2078
2078
2078
2072
2072
2072
2076
2076
2076
2073
2073
2073
2075
2075
2075
2075
2075
2075
2075
2072
2072
2072
2076
2076
2076
2072
2072
2072
2076
2076
2076
2076
2076
2076
2076
2071
2071
2071
2074
2074
2074
2072
2072
2072
2078
2078
2078
2078
2075
2075
2075
2072
2072
2072
2077
2077
2077
2071
2071
2071
2080
2080
2080
2080
2075
2075
2075
2071
2071
2071
2078
2078
2078
2073
2073
2073
2074
2074
2074
2074
2077
2077
2077
2073
2073
2073
2078
2078
2078
2070
2070
2070
2077
2077
2077
2077
2077
2077
2077
2076
2076
2076
2077
2077
2077
2072
2072
2072
2077
2077
2077
2077
2077
2077
2077
2072
2072
2072
2075
2075
2075
2072
2072
2072
2075
2075
2075
2075
2077
2077
2077
2072
2072
2072
2076
2076
2076
2072
2072
2072
2075
2075
2075
2075
2079
2079
2079
2076
2076
2076
2079
2079
2079
2076
2076
2076
2077
2077
2077
2077
2078
2078
2078
2072
2072
2072
2077
2077
2077
2073
2073
2073
2076
2076
2076
2076
2076
2076
2076
2072
2072
2072
2077
2077
2077
2073
2073
2073
2074
2074
2074
2074
2078
2078
2078
2072
2072
2072
2076
2076
2076
2071
2071
2071
2073
2073
2073
2073
2071
2071
2071
2072
2072
2072
2075
2075
2075
2072
2072
2072
2078
2078
2078
2078
2077
2077
2077
2073
2073
2073
2079
2079
2079
2075
2075
2075
2081
2081
2081
2081
2078
2078
2078
2073
2073
2073
2080
2080
2080
2073
2073
2073
2075
2075
2075
2075
2076
2076
2076
2070
2070
2070
2077
2077
2077
2073
2073
2073
2076
2076
2076
2076
2076
2076
2076
2072
2072
2072
2076
2076
2076
2075
2075
2075
2077
2077
2077
2077
2079
2079
2079
2073
2073
2073
2078
2078
2078
2066
2066
2066
2080
2080
2080
2080
2077
2077
2077
2072
2072
2072
2076
2076
2076
2067
2067
2067
2075
2075
2075
2075
2078
2078
2078
2069
2069
2069
2077
2077
2077
2075
2075
2075
2075
2075
2075
2075
2075
2075
2075
2071
2071
2071
2077
2077
2077
2073
2073
2073
2072
2072
2072
2072
2076
2076
2076
2072
2072
2072
2076
2076
2076
2071
2071
2071
2075
2075
2075
2075
2073
2073
2073
2071
2071
2071
2077
2077
2077
2075
2075
2075
2081
2081
2081
2081
2073
2073
2073
2071
2071
2071
2075
2075
2075
2072
2072
2072
2081
2081
2081
2081
2069
2069
2069
2069
2069
2069
2077
2077
2077
2073
2073
2073
2081
2081
2081
2081
2074
2074
2074
2071
2071
2071
2074
2074
2074
2071
2071
2071
2075
2075
2075
2075
2076
2076
2076
2073
2073
2073
2069
2069
2069
2072
2072
2072
2073
2073
2073
2073
2077
2077
2077
2072
2072
2072
2077
2077
2077
2071
2071
2071
2073
2073
2073
2073
2075
2075
2075
2071
2071
2071
2076
2076
2076
2073
2073
2073
2075
2075
2075
2075
2077
2077
2077
2071
2071
2071
2075
2075
2075
2070
2070
2070
2075
2075
2075
2075
2077
2077
2077
2071
2071
2071
2078
2078
2078
2074
2074
2074
2075
2075
2075
2075
2078
2078
2078
2075
2075
2075
2077
2077
2077
2074
2074
2074
2075
2075
2075
2075
2076
2076
2076
2071
2071
2071
2078
2078
2078
2076
2076
2076
2076
2076
2076
2076
2075
2075
2075
2075
2075
2075
2077
2077
2077
2071
2071
2071
2077
2077
2077
2077
2075
2075
2075
2070
2070
2070
2077
2077
2077
2073
2073
2073
2076
2076
2076
2076
2076
2076
2076
2069
2069
2069
2077
2077
2077
2073
2073
2073
2077
2077
2077
2077
2076
2076
2076
2073
2073
2073
2077
2077
2077
2069
2069
2069
2075
2075
2075
2075
2076
2076
2076
2070
2070
2070
2077
2077
2077
2072
2072
2072
2074
2074
2074
2074
2074
2074
2074
2071
2071
2071
2076
2076
2076
2073
2073
2073
2073
2073
2073
2073
2078
2078
2078
2074
2074
2074
2077
2077
2077
2071
2071
2071
2079
2079
2079
2079
2071
2071
2071
2073
2073
2073
2080
2080
2080
2072
2072
2072
2074
2074
2074
2074
2071
2071
2071
2073
2073
2073
2078
2078
2078
2070
2070
2070
2073
2073
2073
2073
2077
2077
2077
2073
2073
2073
2076
2076
2076
2071
2071
2071
2073
2073
2073
2073
2074
2074
2074
2071
2071
2071
2077
2077
2077
2072
2072
2072
2073
2073
2073
2073
2077
2077
2077
2069
2069
2069
2077
2077
2077
2071
2071
2071
2076
2076
2076
2076
2074
2074
2074
2068
2068
2068
2076
2076
2076
2070
2070
2070
2074
2074
2074
2074
2078
2078
2078
2067
2067
2067
2077
2077
2077
2073
2073
2073
2075
2075
2075
2075
2076
2076
2076
2073
2073
2073
2076
2076
2076
2076
2076
2076
2076
2076
2076
2076
2078
2078
2078
2075
2075
2075
2077
2077
2077
2069
2069
2069
2076
2076
2076
2076
2075
2075
2075
2071
2071
2071
2076
2076
2076
2073
2073
2073
2073
2073
2073
2073
2074
2074
2074
2072
2072
2072
2076
2076
2076
2071
2071
2071
2075
2075
2075
2075
2076
2076
2076
2072
2072
2072
2075
2075
2075
2071
2071
2071
2075
2075
2075
2075
2084
2084
2084
2072
2072
2072
2075
2075
2075
2069
2069
2069
2074
2074
2074
2074
2076
2076
2076
2071
2071
2071
2072
2072
2072
2072
2072
2072
2077
2077
2077
2077
2078
2078
2078
2072
2072
2072
2074
2074
2074
2072
2072
2072
2075
2075
2075
2075
2076
2076
2076
2071
2071
2071
2073
2073
2073
2073
2073
2073
2075
2075
2075
2075
2073
2073
2073
2071
2071
2071
2078
2078
2078
2071
2071
2071
2076
2076
2076
2076
2075
2075
2075
2073
2073
2073
2081
2081
2081
2073
2073
2073
2078
2078
2078
2078
2076
2076
2076
2070
2070
2070
2076
2076
2076
2074
2074
2074
2076
2076
2076
2076
2077
2077
2077
2073
2073
2073
2077
2077
2077
2073
2073
2073
2075
2075
2075
2075
2078
2078
2078
2073
2073
2073
2076
2076
2076
2072
2072
2072
2075
2075
2075
2075
2076
2076
2076
2071
2071
2071
2076
2076
2076
2071
2071
2071
2076
2076
2076
2076
2075
2075
2075
2074
2074
2074
2076
2076
2076
2068
2068
2068
2074
2074
2074
2074
2077
2077
2077
2076
2076
2076
2078
2078
2078
2071
2071
2071
2077
2077
2077
2077
2078
2078
2078
2070
2070
2070
2079
2079
2079
2075
2075
2075
2078
2078
2078
2078
2075
2075
2075
2072
2072
2072
2077
2077
2077
2071
2071
2071
2074
2074
2074
2074
2076
2076
2076
2072
2072
2072
2080
2080
2080
2072
2072
2072
2075
2075
2075
2075
2078
2078
2078
2072
2072
2072
2080
2080
2080
2073
2073
2073
2074
2074
2074
2074
2072
2072
2072
2072
2072
2072
2075
2075
2075
2071
2071
2071
2077
2077
2077
