31791
31791
31791
31791
31769
31769
31769
31705
31705
31705
31812
31812
31812
31726
31726
31726
31834
31834
31834
31834
31812
31812
31812
31683
31683
31683
31748
31748
31748
31640
31640
31640
31791
31791
31791
31791
31683
31683
31683
31705
31705
31705
31748
31748
31748
31640
31640
31640
31834
31834
31834
31834
31726
31726
31726
31705
31705
31705
31812
31812
31812
31705
31705
31705
31748
31748
31748
31748
31791
31791
31791
31705
31705
31705
31791
31791
31791
31640
31640
31640
31769
31769
31769
31769
31791
31791
31791
31683
31683
31683
31791
31791
31791
31640
31640
31640
31791
31791
31791
31791
31769
31769
31769
31683
31683
31683
31769
31769
31769
31683
31683
31683
31769
31769
31769
31769
31748
31748
31748
31683
31683
31683
31769
31769
31769
31683
31683
31683
31984
31984
31984
31984
31769
31769
31769
31683
31683
31683
31898
31898
31898
31619
31619
31619
31791
31791
31791
31791
31791
31791
31791
31662
31662
31662
31769
31769
31769
31683
31683
31683
31791
31791
31791
31791
31855
31855
31855
31769
31769
31769
31748
31748
31748
31683
31683
31683
31812
31812
31812
31812
31769
31769
31769
31705
31705
31705
31812
31812
31812
31576
31576
31576
31812
31812
31812
31812
31748
31748
31748
31662
31662
31662
31834
31834
31834
31640
31640
31640
31748
31748
31748
31748
31769
31769
31769
31769
31769
31769
31791
31791
31791
31705
31705
31705
31791
31791
31791
31791
31812
31812
31812
31705
31705
31705
31791
31791
31791
31683
31683
31683
31769
31769
31769
31769
31791
31791
31791
31726
31726
31726
31791
31791
31791
31705
31705
31705
31834
31834
31834
31834
31726
31726
31726
31662
31662
31662
31812
31812
31812
31683
31683
31683
31791
31791
31791
31791
31705
31705
31705
31705
31705
31705
31791
31791
31791
31640
31640
31640
31791
31791
31791
31791
31791
31791
31791
31662
31662
31662
31769
31769
31769
31640
31640
31640
31791
31791
31791
31791
31705
31705
31705
31597
31597
31597
31791
31791
31791
31683
31683
31683
31791
31791
31791
31791
31726
31726
31726
31683
31683
31683
31855
31855
31855
31662
31662
31662
31769
31769
31769
31769
31769
31769
31769
31662
31662
31662
31748
31748
31748
31683
31683
31683
31812
31812
31812
31812
31791
31791
31791
31791
31791
31791
31705
31705
31705
31662
31662
31662
31791
31791
31791
31791
31791
31791
31791
31683
31683
31683
31769
31769
31769
31683
31683
31683
31834
31834
31834
31834
31769
31769
31769
31726
31726
31726
31748
31748
31748
31683
31683
31683
31834
31834
31834
31834
31812
31812
31812
31726
31726
31726
31812
31812
31812
31726
31726
31726
31748
31748
31748
31748
31769
31769
31769
31705
31705
31705
31791
31791
31791
31683
31683
31683
31769
31769
31769
31769
31812
31812
31812
31705
31705
31705
31769
31769
31769
31726
31726
31726
31769
31769
31769
31769
31812
31812
31812
31662
31662
31662
31769
31769
31769
31683
31683
31683
31791
31791
31791
31791
31748
31748
31748
31726
31726
31726
31769
31769
31769
31662
31662
31662
31812
31812
31812
31812
31769
31769
31769
31683
31683
31683
31769
31769
31769
31619
31619
31619
31791
31791
31791
31791
31791
31791
31791
31726
31726
31726
31769
31769
31769
31705
31705
31705
31705
31705
31705
31705
31769
31769
31769
31705
31705
31705
31898
31898
31898
31640
31640
31640
31791
31791
31791
31791
31791
31791
31791
31662
31662
31662
31812
31812
31812
31705
31705
31705
31791
31791
31791
31791
31812
31812
31812
31705
31705
31705
31769
31769
31769
31640
31640
31640
31705
31705
31705
31705
31769
31769
31769
31662
31662
31662
31769
31769
31769
31662
31662
31662
31812
31812
31812
31812
31791
31791
31791
31640
31640
31640
31791
31791
31791
31748
31748
31748
31791
31791
31791
31791
31791
31791
31791
31683
31683
31683
31769
31769
31769
31662
31662
31662
31791
31791
31791
31791
31726
31726
31726
31705
31705
31705
31791
31791
31791
31726
31726
31726
31791
31791
31791
31791
31748
31748
31748
31662
31662
31662
31791
31791
31791
31662
31662
31662
31812
31812
31812
31812
31769
31769
31769
31683
31683
31683
31834
31834
31834
31726
31726
31726
31726
31726
31726
31726
31898
31898
31898
31619
31619
31619
31791
31791
31791
31705
31705
31705
31748
31748
31748
31748
31812
31812
31812
31683
31683
31683
31834
31834
31834
31726
31726
31726
31748
31748
31748
31748
31769
31769
31769
31683
31683
31683
31769
31769
31769
31640
31640
31640
31791
31791
31791
31791
31748
31748
31748
31619
31619
31619
31748
31748
31748
31705
31705
31705
31769
31769
31769
31769
31791
31791
31791
31705
31705
31705
31769
31769
31769
31662
31662
31662
31812
31812
31812
31812
31769
31769
31769
31726
31726
31726
31812
31812
31812
31683
31683
31683
31791
31791
31791
31791
31769
31769
31769
31662
31662
31662
31791
31791
31791
31705
31705
31705
31812
31812
31812
31812
31726
31726
31726
31683
31683
31683
31834
31834
31834
31640
31640
31640
31748
31748
31748
31748
31791
31791
31791
31619
31619
31619
31834
31834
31834
31726
31726
31726
31812
31812
31812
31812
31748
31748
31748
31705
31705
31705
31791
31791
31791
31683
31683
31683
31769
31769
31769
31769
31769
31769
31769
31705
31705
31705
31748
31748
31748
31726
31726
31726
31769
31769
31769
31769
31877
31877
31877
31705
31705
31705
31855
31855
31855
31748
31748
31748
31812
31812
31812
31812
31812
31812
31812
31705
31705
31705
31812
31812
31812
31705
31705
31705
31791
31791
31791
31791
31769
31769
31769
31683
31683
31683
31791
31791
31791
31726
31726
31726
31791
31791
31791
31791
31812
31812
31812
31705
31705
31705
31791
31791
31791
31683
31683
31683
31748
31748
31748
31748
31812
31812
31812
31683
31683
31683
31834
31834
31834
31705
31705
31705
31834
31834
31834
31834
31834
31834
31834
31705
31705
31705
31791
31791
31791
31683
31683
31683
31769
31769
31769
31769
31791
31791
31791
31705
31705
31705
31791
31791
31791
31705
31705
31705
31791
31791
31791
31791
31791
31791
31791
31662
31662
31662
31791
31791
31791
31726
31726
31726
31812
31812
31812
31812
31898
31898
31898
31748
31748
31748
31748
31748
31748
31705
31705
31705
31812
31812
31812
31812
31791
31791
31791
31683
31683
31683
31791
31791
31791
31683
31683
31683
31791
31791
31791
31791
31812
31812
31812
31683
31683
31683
31791
31791
31791
31662
31662
31662
31791
31791
31791
31791
31726
31726
31726
31683
31683
31683
31834
31834
31834
31662
31662
31662
31855
31855
31855
31855
31791
31791
31791
31683
31683
31683
31812
31812
31812
31683
31683
31683
31791
31791
31791
31791
31791
31791
31791
31683
31683
31683
31791
31791
31791
31726
31726
31726
31769
31769
31769
31769
31812
31812
31812
31597
31597
31597
31791
31791
31791
31640
31640
31640
31748
31748
31748
31748
31769
31769
31769
31705
31705
31705
31812
31812
31812
31726
31726
31726
31769
31769
31769
31769
31791
31791
31791
31662
31662
31662
31834
31834
31834
31683
31683
31683
31812
31812
31812
31812
31769
31769
31769
31683
31683
31683
31834
31834
31834
31726
31726
31726
31791
31791
31791
31791
31791
31791
31791
31705
31705
31705
31812
31812
31812
31683
31683
31683
31791
31791
31791
31791
31855
31855
31855
31683
31683
31683
31748
31748
31748
31662
31662
31662
31791
31791
31791
31791
31791
31791
31791
31769
31769
31769
31791
31791
31791
31748
31748
31748
31812
31812
31812
31812
31791
31791
31791
31683
31683
31683
31812
31812
31812
31705
31705
31705
31877
31877
31877
31877
31791
31791
31791
31748
31748
31748
31769
31769
31769
31662
31662
31662
31769
31769
31769
31769
31812
31812
31812
31705
31705
31705
31791
31791
31791
31726
31726
31726
31705
31705
31705
31705
31769
31769
31769
31662
31662
31662
31812
31812
31812
31726
31726
31726
31769
31769
31769
31769
31791
31791
31791
31683
31683
31683
31834
31834
31834
31683
31683
31683
31769
31769
31769
31769
31812
31812
31812
31705
31705
31705
31812
31812
31812
31640
31640
31640
31791
31791
31791
31791
31812
31812
31812
31662
31662
31662
31791
31791
31791
31683
31683
31683
31748
31748
31748
31748
31855
31855
31855
31726
31726
31726
31834
31834
31834
31576
31576
31576
31748
31748
31748
31748
31812
31812
31812
31683
31683
31683
31791
31791
31791
31705
31705
31705
31791
31791
31791
31791
31748
31748
31748
31705
31705
31705
31812
31812
31812
31662
31662
31662
31769
31769
31769
31769
31769
31769
31769
31683
31683
31683
31791
31791
31791
31726
31726
31726
31705
31705
31705
31705
31812
31812
31812
31683
31683
31683
31791
31791
31791
31898
31898
31898
31812
31812
31812
31812
31812
31812
31812
31705
31705
31705
31748
31748
31748
31662
31662
31662
31812
31812
31812
31812
31726
31726
31726
31705
31705
31705
31834
31834
31834
31769
31769
31769
31769
31769
31769
31769
31812
31812
31812
31705
31705
31705
31791
31791
31791
31705
31705
31705
31748
31748
31748
31748
31791
31791
31791
31726
31726
31726
31726
31726
31726
31705
31705
31705
31791
31791
31791
31791
31791
31791
31791
31726
31726
31726
31812
31812
31812
31662
31662
31662
31769
31769
31769
31769
31769
31769
31769
31683
31683
31683
31769
31769
31769
31683
31683
31683
31748
31748
31748
31748
31855
31855
31855
31726
31726
31726
31791
31791
31791
31769
31769
31769
31769
31769
31769
31769
31748
31748
31748
31662
31662
31662
31769
31769
31769
31705
31705
31705
31791
31791
31791
31791
31855
31855
31855
31683
31683
31683
31812
31812
31812
31662
31662
31662
31834
31834
31834
31834
31769
31769
31769
31726
31726
31726
31769
31769
31769
31683
31683
31683
31791
31791
31791
31791
31812
31812
31812
31791
31791
31791
31812
31812
31812
31683
31683
31683
31791
31791
31791
31791
31769
31769
31769
31619
31619
31619
31791
31791
31791
31640
31640
31640
31791
31791
31791
31791
31705
31705
31705
31726
31726
31726
31791
31791
31791
31662
31662
31662
31855
31855
31855
31855
31855
31855
31855
31683
31683
31683
31791
31791
31791
31705
31705
31705
31812
31812
31812
31812
31769
31769
31769
31705
31705
31705
31769
31769
31769
31726
31726
31726
31812
31812
31812
31812
31791
31791
31791
31662
31662
31662
31812
31812
31812
31705
31705
31705
31791
31791
31791
31791
31726
31726
31726
31748
31748
31748
31812
31812
31812
31748
31748
31748
31877
31877
31877
31877
31769
31769
31769
31683
31683
31683
31791
31791
31791
31662
31662
31662
31640
31640
31640
31640
31791
31791
31791
31705
31705
31705
31791
31791
31791
31683
31683
31683
31791
31791
31791
31791
31812
31812
31812
31748
31748
31748
31791
31791
31791
31705
31705
31705
31812
31812
31812
31812
31769
31769
31769
31726
31726
31726
31791
31791
31791
31705
31705
31705
31769
31769
31769
31769
31834
31834
31834
31705
31705
31705
31834
31834
31834
31662
31662
31662
31812
31812
31812
31812
31769
31769
31769
31748
31748
31748
31877
31877
31877
31748
31748
31748
31812
31812
31812
31812
31748
31748
31748
31662
31662
31662
31812
31812
31812
31662
31662
31662
31791
31791
31791
31791
31791
31791
31791
31705
31705
31705
31769
31769
31769
31705
31705
31705
31769
31769
31769
31769
31791
31791
31791
31683
31683
31683
31769
31769
31769
31597
31597
31597
31769
31769
31769
31769
31769
31769
31769
31683
31683
31683
31834
31834
31834
31662
31662
31662
31834
31834
31834
31834
31791
31791
31791
31662
31662
31662
31812
31812
31812
31683
31683
31683
31769
31769
31769
31769
31791
31791
31791
31662
31662
31662
31791
31791
31791
31683
31683
31683
31791
31791
31791
31791
31791
31791
31791
31726
31726
31726
31791
31791
31791
31662
31662
31662
31812
31812
31812
31812
31877
31877
31877
31705
31705
31705
31834
31834
31834
31705
31705
31705
31812
31812
31812
31812
31748
31748
31748
31683
31683
31683
31726
31726
31726
31683
31683
31683
31748
31748
31748
31748
31791
31791
31791
31705
31705
31705
31791
31791
31791
31683
31683
31683
31812
31812
31812
31812
31683
31683
31683
31705
31705
31705
31748
31748
31748
31726
31726
31726
31812
31812
31812
31812
31791
31791
31791
31726
31726
31726
31812
31812
31812
31683
31683
31683
31791
31791
31791
31791
31769
31769
31769
31662
31662
31662
31791
31791
31791
31683
31683
31683
31791
31791
31791
31791
31791
31791
31791
31662
31662
31662
31769
31769
31769
31748
31748
31748
31726
31726
31726
31726
31812
31812
31812
31662
31662
31662
31769
31769
31769
31726
31726
31726
31791
31791
31791
31791
31748
31748
31748
31705
31705
31705
31791
31791
31791
31683
31683
31683
31791
31791
31791
31791
31812
31812
31812
31726
31726
31726
31769
31769
31769
31662
31662
31662
31855
31855
31855
31855
31855
31855
31855
31726
31726
31726
31791
31791
31791
31726
31726
31726
31748
31748
31748
31748
31791
31791
31791
31726
31726
31726
31748
31748
31748
31726
31726
31726
31769
31769
31769
31769
31769
31769
31769
31705
31705
31705
31748
31748
31748
31705
31705
31705
31791
31791
31791
31791
31812
31812
31812
31705
31705
31705
31791
31791
31791
31683
31683
31683
31769
31769
31769
31769
31834
31834
31834
31640
31640
31640
31705
31705
31705
31705
31705
31705
31769
31769
31769
31769
31812
31812
31812
31662
31662
31662
31812
31812
31812
31726
31726
31726
31791
31791
31791
31791
31748
31748
31748
31662
31662
31662
31791
31791
31791
31705
31705
31705
31791
31791
31791
31791
31769
31769
31769
31683
31683
31683
31791
31791
31791
31726
31726
31726
31748
31748
31748
31748
31812
31812
31812
31769
31769
31769
31834
31834
31834
31662
31662
31662
31834
31834
31834
31834
31791
31791
31791
31726
31726
31726
31812
31812
31812
31705
31705
31705
31812
31812
31812
31812
31748
31748
31748
31683
31683
31683
31812
31812
31812
31683
31683
31683
31769
31769
31769
31769
31791
31791
31791
31640
31640
31640
31791
31791
31791
31662
31662
31662
31834
31834
31834
31834
31791
31791
31791
31683
31683
31683
31812
31812
31812
31769
31769
31769
31812
31812
31812
31812
31769
31769
31769
31683
31683
31683
31791
31791
31791
31769
31769
31769
31769
31769
31769
31769
31855
31855
31855
31769
31769
31769
31769
31769
31769
31662
31662
31662
31855
31855
31855
31855
31769
31769
31769
31791
31791
31791
31812
31812
31812
31705
31705
31705
31791
31791
31791
31791
31791
31791
31791
31705
31705
31705
31683
31683
31683
31748
31748
31748
31748
31748
31748
31748
31769
31769
31769
31705
31705
31705
31791
31791
31791
31705
31705
31705
31877
31877
31877
31877
31791
31791
31791
31683
31683
31683
31791
31791
31791
31662
31662
31662
31812
31812
31812
31812
31834
31834
31834
31769
31769
31769
31791
31791
31791
31683
31683
31683
31812
31812
31812
31812
31769
31769
31769
31726
31726
31726
31812
31812
31812
31726
31726
31726
31683
31683
31683
31683
31791
31791
31791
31726
31726
31726
31769
31769
31769
31748
31748
31748
31769
31769
31769
31769
31812
31812
31812
31683
31683
31683
31769
31769
31769
31726
31726
31726
31769
31769
31769
31769
31791
31791
31791
31705
31705
31705
31791
31791
31791
31683
31683
31683
31812
31812
31812
31812
31812
31812
31812
31683
31683
31683
31791
31791
31791
31769
31769
31769
31834
31834
31834
31834
31791
31791
31791
31683
31683
31683
31812
31812
31812
31683
31683
31683
31812
31812
31812
31812
31791
31791
31791
31683
31683
31683
31812
31812
31812
31705
31705
31705
31812
31812
31812
31812
31812
31812
31812
31683
31683
31683
31791
31791
31791
31683
31683
31683
31769
31769
31769
31769
31812
31812
31812
31726
31726
31726
31769
31769
31769
31791
31791
31791
31769
31769
31769
31769
31834
31834
31834
31726
31726
31726
31791
31791
31791
31705
31705
31705
31769
31769
31769
31769
31791
31791
31791
31705
31705
31705
31812
31812
31812
31662
31662
31662
31769
31769
31769
31769
31791
31791
31791
31705
31705
31705
31748
31748
31748
31726
31726
31726
31812
31812
31812
31812
31726
31726
31726
31705
31705
31705
31791
31791
31791
31683
31683
31683
31769
31769
31769
31769
31834
31834
31834
31662
31662
31662
31748
31748
31748
31791
31791
31791
31705
31705
31705
31705
31791
31791
31791
31683
31683
31683
31812
31812
31812
31726
31726
31726
31812
31812
31812
31812
31855
31855
31855
31597
31597
31597
31791
31791
31791
31662
31662
31662
31812
31812
31812
31812
31812
31812
31812
31726
31726
31726
31683
31683
31683
31705
31705
31705
31834
31834
31834
31834
31791
31791
31791
31705
31705
31705
31791
31791
31791
31705
31705
31705
31791
31791
31791
31791
31748
31748
31748
31726
31726
31726
31769
31769
31769
31705
31705
31705
31748
31748
31748
31748
31769
31769
31769
31705
31705
31705
31769
31769
31769
31662
31662
31662
31812
31812
31812
31812
31748
31748
31748
31640
31640
31640
31812
31812
31812
31705
31705
31705
31769
31769
31769
31769
31791
31791
31791
31683
31683
31683
31748
31748
31748
31705
31705
31705
31941
31941
31941
31941
31791
31791
31791
31705
31705
31705
31683
31683
31683
31683
31683
31683
31834
31834
31834
31834
31834
31834
31834
31726
31726
31726
31748
31748
31748
31748
31748
31748
31791
31791
31791
31791
31769
31769
31769
31662
31662
31662
31748
31748
31748
31705
31705
31705
31769
31769
31769
31769
31834
31834
31834
31705
31705
31705
31769
31769
31769
31662
31662
31662
31769
31769
31769
31769
31791
31791
31791
31726
31726
31726
31812
31812
31812
31640
31640
31640
31855
31855
31855
31855
31791
31791
31791
31662
31662
31662
31834
31834
31834
31640
31640
31640
31855
31855
31855
31855
31769
31769
31769
31662
31662
31662
31855
31855
31855
31705
31705
31705
31812
31812
31812
31812
31769
31769
31769
31683
31683
31683
31812
31812
31812
31683
31683
31683
31812
31812
31812
31812
31748
31748
31748
31705
31705
31705
31812
31812
31812
31683
31683
31683
31812
31812
31812
31812
31834
31834
31834
31662
31662
31662
31748
31748
31748
31662
31662
31662
31791
31791
31791
31791
31791
31791
31791
31726
31726
31726
31812
31812
31812
31726
31726
31726
31812
31812
31812
31812
31769
31769
31769
31705
31705
31705
31791
31791
31791
31683
31683
31683
31812
31812
31812
31812
31769
31769
31769
31726
31726
31726
31769
31769
31769
31748
31748
31748
31726
31726
31726
31726
31769
31769
31769
31640
31640
31640
31748
31748
31748
31683
31683
31683
31769
31769
31769
31769
31769
31769
31769
31683
31683
31683
31834
31834
31834
31640
31640
31640
31812
31812
31812
31812
31769
31769
31769
31683
31683
31683
31769
31769
31769
31619
31619
31619
31705
31705
31705
31705
31748
31748
31748
31640
31640
31640
31791
31791
31791
31705
31705
31705
31769
31769
31769
31769
31769
31769
31769
31683
31683
31683
31748
31748
31748
31640
31640
31640
31769
31769
31769
31769
31812
31812
31812
31705
31705
31705
31791
31791
31791
31726
31726
31726
31812
31812
31812
31812
31812
31812
31812
31726
31726
31726
31834
31834
31834
31640
31640
31640
31855
31855
31855
31855
31812
31812
31812
31726
31726
31726
31726
31726
31726
31705
31705
31705
31769
31769
31769
31769
31662
31662
31662
31726
31726
31726
31726
31726
31726
31683
31683
31683
31812
31812
31812
31812
31791
31791
31791
31683
31683
31683
31812
31812
31812
31769
31769
31769
31748
31748
31748
31748
31769
31769
31769
31726
31726
31726
31791
31791
31791
31683
31683
31683
31791
31791
31791
31791
31812
31812
31812
31619
31619
31619
31748
31748
31748
31748
31748
31748
31791
31791
31791
31791
31812
31812
31812
31705
31705
31705
31791
31791
31791
31662
31662
31662
31769
31769
31769
31769
31726
31726
31726
31662
31662
31662
31791
31791
31791
31726
31726
31726
31769
31769
31769
31769
31791
31791
31791
31576
31576
31576
31748
31748
31748
31683
31683
31683
31812
31812
31812
31812
31791
31791
31791
31683
31683
31683
31812
31812
31812
31662
31662
31662
31791
31791
31791
31791
31791
31791
31791
31683
31683
31683
31812
31812
31812
31705
31705
31705
31769
31769
31769
31769
31791
31791
31791
31683
31683
31683
31812
31812
31812
31683
31683
31683
31791
31791
31791
31791
31791
31791
31791
31683
31683
31683
31726
31726
31726
31705
31705
31705
31834
31834
31834
31834
31791
31791
31791
31662
31662
31662
31834
31834
31834
31769
31769
31769
31791
31791
31791
31791
31748
31748
31748
31683
31683
31683
31812
31812
31812
31640
31640
31640
31812
31812
31812
31812
31791
31791
31791
31705
31705
31705
31769
31769
31769
31662
31662
31662
31769
31769
31769
31769
31748
31748
31748
31705
31705
31705
31877
31877
31877
31640
31640
31640
31748
31748
31748
31748
31769
31769
31769
31683
31683
31683
31834
31834
31834
31705
31705
31705
31812
31812
31812
31812
31834
31834
31834
31683
31683
31683
31855
31855
31855
31705
31705
31705
31769
31769
31769
31769
31855
31855
31855
31726
31726
31726
31812
31812
31812
31791
31791
31791
31705
31705
31705
31705
31769
31769
31769
31662
31662
31662
31791
31791
31791
31726
31726
31726
31812
31812
31812
31812
31812
31812
31812
31705
31705
31705
31769
31769
31769
31705
31705
31705
31834
31834
31834
31834
31769
31769
31769
31705
31705
31705
31812
31812
31812
31726
31726
31726
31705
31705
31705
31705
31812
31812
31812
31726
31726
31726
31791
31791
31791
31662
31662
31662
31791
31791
31791
31791
31834
31834
31834
31640
31640
31640
31877
31877
31877
31683
31683
31683
31791
31791
31791
31791
31791
31791
31791
31662
31662
31662
31791
31791
31791
31726
31726
31726
31791
31791
31791
31791
31769
31769
31769
31683
31683
31683
31812
31812
31812
31705
31705
31705
31812
31812
31812
31812
31812
31812
31812
31683
31683
31683
31769
31769
31769
31662
31662
31662
31855
31855
31855
31855
31834
31834
31834
31705
31705
31705
31726
31726
31726
31705
31705
31705
31855
31855
31855
31855
31834
31834
31834
31726
31726
31726
31855
31855
31855
31662
31662
31662
31748
31748
31748
31748
31791
31791
31791
31705
31705
31705
31769
31769
31769
31662
31662
31662
31812
31812
31812
31812
31791
31791
31791
31683
31683
31683
31791
31791
31791
31726
31726
31726
31769
31769
31769
31769
31769
31769
31769
31683
31683
31683
31834
31834
31834
31705
31705
31705
31769
31769
31769
31769
31748
31748
31748
31683
31683
31683
31834
31834
31834
31683
31683
31683
31769
31769
31769
31769
31812
31812
31812
31769
31769
31769
31726
31726
31726
31705
31705
31705
31748
31748
31748
31748
31769
31769
31769
31662
31662
31662
31812
31812
31812
31640
31640
31640
31726
31726
31726
31726
31748
31748
31748
31683
31683
31683
31834
31834
31834
31705
31705
31705
31791
31791
31791
31791
31748
31748
31748
31683
31683
31683
31791
31791
31791
31769
31769
31769
31834
31834
31834
31834
31748
31748
31748
31726
31726
31726
31769
31769
31769
31662
31662
31662
31812
31812
31812
31812
31812
31812
31812
31705
31705
31705
31769
31769
31769
31705
31705
31705
31812
31812
31812
31812
31791
31791
31791
31705
31705
31705
31769
31769
31769
31683
31683
31683
31812
31812
31812
31812
31769
31769
31769
31662
31662
31662
31748
31748
31748
31640
31640
31640
31834
31834
31834
31834
31834
31834
31834
31705
31705
31705
31769
31769
31769
31683
31683
31683
31748
31748
31748
31748
31791
31791
31791
31640
31640
31640
31834
31834
31834
31640
31640
31640
31748
31748
31748
31748
31748
31748
31748
31597
31597
31597
31834
31834
31834
31683
31683
31683
31791
31791
31791
31791
31769
31769
31769
31662
31662
31662
31791
31791
31791
31662
31662
31662
31791
31791
31791
31791
31834
31834
31834
31683
31683
31683
31791
31791
31791
31705
31705
31705
31748
31748
31748
31748
31705
31705
31705
31662
31662
31662
31941
31941
31941
31683
31683
31683
31791
31791
31791
31791
31812
31812
31812
31726
31726
31726
31748
31748
31748
31705
31705
31705
31791
31791
31791
31791
31834
31834
31834
31640
31640
31640
31812
31812
31812
31726
31726
31726
31834
31834
31834
31834
31834
31834
31834
31683
31683
31683
31769
31769
31769
31662
31662
31662
31855
31855
31855
31855
31769
31769
31769
31726
31726
31726
31769
31769
31769
31705
31705
31705
31791
31791
31791
31791
31748
31748
31748
31705
31705
31705
31726
31726
31726
31683
31683
31683
31812
31812
31812
31812
31834
31834
31834
31662
31662
31662
31834
31834
31834
31726
31726
31726
31748
31748
31748
31748
31834
31834
31834
31748
31748
31748
31812
31812
31812
31640
31640
31640
31834
31834
31834
31834
31791
31791
31791
31748
31748
31748
31748
31748
31748
31640
31640
31640
31812
31812
31812
31812
31812
31812
31812
31662
31662
31662
31812
31812
31812
31662
31662
31662
31812
31812
31812
31812
31834
31834
31834
31705
31705
31705
31705
31705
31705
31662
31662
31662
31726
31726
31726
31726
31769
31769
31769
31640
31640
31640
31791
31791
31791
31683
31683
31683
31812
31812
31812
31812
31748
31748
31748
31662
31662
31662
31834
31834
31834
31705
31705
31705
31769
31769
31769
31769
31791
31791
31791
31705
31705
31705
31812
31812
31812
31683
31683
31683
31748
31748
31748
31748
31791
31791
31791
31662
31662
31662
31769
31769
31769
31705
31705
31705
31769
31769
31769
31769
31769
31769
31769
31726
31726
31726
31748
31748
31748
31812
31812
31812
31812
31812
31812
31812
31791
31791
31791
31683
31683
31683
31748
31748
31748
31662
31662
31662
31791
31791
31791
31791
31662
31662
31662
31726
31726
31726
31791
31791
31791
31662
31662
31662
31791
31791
31791
31791
31769
31769
31769
31726
31726
31726
31791
31791
31791
31748
31748
31748
31705
31705
31705
31705
31769
31769
31769
31726
31726
31726
31769
31769
31769
31705
31705
31705
31769
31769
31769
31769
31748
31748
31748
31726
31726
31726
31791
31791
31791
31640
31640
31640
31791
31791
31791
31791
31769
31769
31769
31683
31683
31683
31855
31855
31855
31748
31748
31748
31812
31812
31812
31812
31812
31812
31812
31662
31662
31662
31791
31791
31791
31726
31726
31726
31812
31812
31812
31812
31748
31748
31748
31726
31726
31726
31748
31748
31748
31640
31640
31640
31769
31769
31769
31769
31791
31791
31791
31705
31705
31705
31791
31791
31791
31705
31705
31705
31812
31812
31812
31812
31812
31812
31812
31855
31855
31855
31769
31769
31769
31662
31662
31662
31834
31834
31834
31834
31791
31791
31791
31683
31683
31683
31748
31748
31748
31705
31705
31705
31791
31791
31791
31791
31791
31791
31791
31683
31683
31683
31812
31812
31812
31748
31748
31748
31812
31812
31812
31812
31812
31812
31812
31726
31726
31726
31855
31855
31855
31769
31769
31769
31791
31791
31791
31791
31791
31791
31791
31705
31705
31705
31769
31769
31769
31662
31662
31662
31812
31812
31812
31812
31877
31877
31877
31619
31619
31619
31769
31769
31769
31683
31683
31683
31812
31812
31812
31812
31769
31769
31769
31748
31748
31748
31769
31769
31769
31662
31662
31662
31769
31769
31769
31769
31769
31769
31769
31683
31683
31683
31791
31791
31791
31705
31705
31705
31791
31791
31791
31791
31769
31769
31769
31726
31726
31726
31662
31662
31662
31619
31619
31619
31791
31791
31791
31791
31769
31769
31769
31748
31748
31748
31791
31791
31791
31662
31662
31662
31855
31855
31855
31855
31791
31791
31791
31705
31705
31705
31791
31791
31791
31662
31662
31662
31855
31855
31855
31855
31791
31791
31791
31748
31748
31748
31855
31855
31855
31662
31662
31662
31812
31812
31812
31812
31791
31791
31791
31705
31705
31705
31769
31769
31769
31683
31683
31683
31769
31769
31769
31769
31812
31812
31812
31576
31576
31576
31855
31855
31855
31683
31683
31683
31769
31769
31769
31769
31791
31791
31791
31683
31683
31683
31812
31812
31812
31705
31705
31705
31812
31812
31812
31812
31812
31812
31812
31748
31748
31748
31812
31812
31812
31662
31662
31662
31812
31812
31812
31812
31769
31769
31769
31705
31705
31705
31791
31791
31791
31726
31726
31726
31705
31705
31705
31705
31791
31791
31791
31683
31683
31683
31769
31769
31769
31769
31769
31769
31683
31683
31683
31683
31791
31791
31791
31597
31597
31597
31748
31748
31748
31662
31662
31662
31791
31791
31791
31791
31769
31769
31769
31683
31683
31683
31748
31748
31748
31640
31640
31640
31791
31791
31791
31791
31812
31812
31812
31662
31662
31662
31812
31812
31812
31683
31683
31683
31791
31791
31791
31791
31769
31769
31769
31662
31662
31662
31812
31812
31812
31683
31683
31683
31769
31769
31769
31769
31791
31791
31791
31662
31662
31662
31812
31812
31812
31683
31683
31683
31791
31791
31791
31791
31769
31769
31769
31683
31683
31683
31769
31769
31769
31705
31705
31705
31726
31726
31726
31726
31791
31791
31791
31683
31683
31683
31769
31769
31769
31705
31705
31705
31726
31726
31726
31726
31683
31683
31683
31726
31726
31726
31898
31898
31898
31705
31705
31705
31812
31812
31812
31812
31769
31769
31769
31683
31683
31683
31834
31834
31834
31662
31662
31662
31748
31748
31748
31748
31791
31791
31791
31683
31683
31683
31812
31812
31812
31662
31662
31662
31748
31748
31748
31748
31748
31748
31748
31683
31683
31683
31791
31791
31791
31748
31748
31748
31834
31834
31834
31834
31834
31834
31834
31748
31748
31748
31812
31812
31812
31683
31683
31683
31791
31791
31791
31791
31834
31834
31834
31662
31662
31662
31791
31791
31791
31769
31769
31769
31791
31791
31791
31791
31791
31791
31791
31705
31705
31705
31791
31791
31791
31748
31748
31748
31855
31855
31855
31855
31834
31834
31834
31748
31748
31748
31812
31812
31812
31705
31705
31705
31791
31791
31791
31791
31748
31748
31748
31726
31726
31726
31726
31726
31726
31791
31791
31791
31812
31812
31812
31812
31812
31812
31812
31683
31683
31683
31812
31812
31812
31748
31748
31748
31812
31812
31812
31812
31834
31834
31834
31726
31726
31726
31812
31812
31812
31683
31683
31683
31812
31812
31812
31812
31812
31812
31812
31705
31705
31705
31855
31855
31855
31662
31662
31662
31791
31791
31791
31791
31769
31769
31769
31705
31705
31705
31812
31812
31812
31683
31683
31683
31791
31791
31791
31791
31812
31812
31812
31726
31726
31726
31662
31662
31662
31662
31662
31662
31812
31812
31812
31812
31748
31748
31748
31748
31748
31748
31834
31834
31834
31662
31662
31662
31834
31834
31834
31834
31769
31769
31769
31705
31705
31705
31855
31855
31855
31683
31683
31683
31769
31769
31769
31769
31812
31812
31812
31726
31726
31726
31683
31683
31683
31640
31640
31640
31726
31726
31726
31726
31812
31812
31812
31705
31705
31705
31726
31726
31726
31662
31662
31662
31834
31834
31834
31834
31791
31791
31791
31662
31662
31662
31812
31812
31812
31662
31662
31662
31769
31769
31769
31769
31834
31834
31834
31726
31726
31726
31769
31769
31769
31683
31683
31683
31812
31812
31812
31812
31812
31812
31812
31705
31705
31705
31791
31791
31791
31683
31683
31683
31748
31748
31748
31748
31726
31726
31726
31662
31662
31662
31748
31748
31748
31748
31748
31748
31812
31812
31812
31812
31769
31769
31769
31705
31705
31705
31769
31769
31769
31640
31640
31640
31834
31834
31834
31834
31705
31705
31705
31726
31726
31726
31791
31791
31791
31683
31683
31683
31834
31834
31834
31834
31705
31705
31705
31705
31705
31705
31812
31812
31812
31726
31726
31726
31726
31726
31726
31726
31834
31834
31834
31683
31683
31683
31769
31769
31769
31726
31726
31726
31834
31834
31834
31834
31662
31662
31662
31662
31662
31662
31812
31812
31812
31683
31683
31683
31834
31834
31834
31834
31748
31748
31748
31705
31705
31705
31812
31812
31812
31683
31683
31683
31748
31748
31748
31748
31812
31812
31812
31640
31640
31640
31769
31769
31769
31705
31705
31705
31791
31791
31791
31791
31791
31791
31791
31705
31705
31705
31812
31812
31812
31554
31554
31554
31812
31812
31812
31812
31748
31748
31748
31705
31705
31705
31834
31834
31834
31683
31683
31683
31769
31769
31769
31769
31748
31748
31748
31812
31812
31812
31812
31812
31812
31705
31705
31705
31812
31812
31812
31812
31791
31791
31791
31705
31705
31705
31726
31726
31726
31726
31726
31726
31726
31726
31726
31726
31769
31769
31769
31705
31705
31705
31834
31834
31834
31662
31662
31662
31834
31834
31834
31834
31791
31791
31791
31619
31619
31619
31812
31812
31812
31748
31748
31748
31748
31748
31748
31748
31812
31812
31812
31662
31662
31662
31748
31748
31748
31662
31662
31662
31791
31791
31791
31791
31791
31791
31791
31705
31705
31705
31812
31812
31812
31769
31769
31769
31791
31791
31791
31791
31769
31769
31769
31705
31705
31705
31769
31769
31769
31705
31705
31705
31834
31834
31834
31834
31812
31812
31812
31705
31705
31705
31834
31834
31834
31683
31683
31683
31791
31791
31791
31791
31769
31769
31769
31683
31683
31683
31812
31812
31812
31662
31662
31662
31834
31834
31834
31834
31769
31769
31769
31705
31705
31705
31791
31791
31791
31662
31662
31662
31877
31877
31877
31877
31748
31748
31748
31705
31705
31705
31855
31855
31855
31726
31726
31726
31748
31748
31748
31748
31812
31812
31812
31683
31683
31683
31812
31812
31812
31726
31726
31726
31812
31812
31812
31812
31855
31855
31855
31683
31683
31683
31855
31855
31855
31683
31683
31683
31705
31705
31705
31705
31791
31791
31791
31683
31683
31683
31834
31834
31834
31726
31726
31726
31791
31791
31791
31791
31877
31877
31877
31640
31640
31640
31769
31769
31769
31640
31640
31640
31855
31855
31855
31855
31834
31834
31834
31705
31705
31705
31769
31769
31769
31748
31748
31748
31769
31769
31769
31769
31791
31791
31791
31705
31705
31705
31748
31748
31748
31726
31726
31726
31791
31791
31791
31791
31791
31791
31791
31683
31683
31683
31705
31705
31705
31705
31705
31705
31812
31812
31812
31812
31812
31812
31812
31683
31683
31683
31769
31769
31769
31705
31705
31705
31791
31791
31791
31791
31769
31769
31769
31705
31705
31705
31748
31748
31748
31726
31726
31726
31812
31812
31812
31812
31834
31834
31834
31683
31683
31683
31748
31748
31748
31619
31619
31619
31791
31791
31791
31791
31769
31769
31769
31705
31705
31705
31791
31791
31791
31683
31683
31683
31791
31791
31791
31791
31812
31812
31812
31619
31619
31619
31769
31769
31769
31705
31705
31705
31898
31898
31898
31898
31812
31812
31812
31748
31748
31748
31748
31748
31748
31748
31748
31748
31705
31705
31705
31705
31834
31834
31834
31662
31662
31662
31726
31726
31726
31726
31726
31726
31791
31791
31791
31791
31812
31812
31812
31748
31748
31748
31812
31812
31812
31683
31683
31683
31726
31726
31726
31726
31791
31791
31791
31726
31726
31726
31834
31834
31834
31662
31662
31662
31791
31791
31791
31791
31791
31791
31791
31705
31705
31705
31791
31791
31791
31705
31705
31705
31769
31769
31769
31769
31748
31748
31748
31683
31683
31683
31726
31726
31726
31705
31705
31705
31812
31812
31812
31812
31791
31791
31791
31640
31640
31640
31769
31769
31769
31705
31705
31705
31791
31791
31791
31791
31834
31834
31834
31662
31662
31662
31769
31769
31769
31726
31726
31726
31791
31791
31791
31791
31769
31769
31769
31619
31619
31619
31769
31769
31769
31769
31769
31769
31812
31812
31812
31812
31748
31748
31748
31748
31748
31748
31791
31791
31791
31683
31683
31683
31769
31769
31769
31769
31834
31834
31834
31683
31683
31683
31769
31769
31769
31683
31683
31683
31791
31791
31791
31791
31834
31834
31834
31705
31705
31705
31769
31769
31769
31726
31726
31726
31791
31791
31791
31791
31769
31769
31769
31705
31705
31705
31791
31791
31791
31683
31683
31683
31834
31834
31834
31834
31748
31748
31748
31726
31726
31726
31855
31855
31855
31705
31705
31705
31791
31791
31791
31791
31812
31812
31812
31705
31705
31705
31769
31769
31769
31683
31683
31683
31791
31791
31791
31791
31791
31791
31791
31705
31705
31705
31812
31812
31812
31490
31490
31490
31791
31791
31791
31791
31791
31791
31791
31705
31705
31705
31769
31769
31769
31705
31705
31705
31812
31812
31812
31812
31769
31769
31769
31662
31662
31662
31769
31769
31769
31662
31662
31662
31812
31812
31812
31812
31855
31855
31855
31683
31683
31683
31812
31812
31812
31705
31705
31705
31791
31791
31791
31791
31834
31834
31834
31726
31726
31726
31812
31812
31812
31726
31726
31726
31769
31769
31769
31769
31769
31769
31769
31683
31683
31683
31769
31769
31769
31705
31705
31705
31812
31812
31812
31812
31812
31812
31812
31683
31683
31683
31791
31791
31791
31748
31748
31748
31769
31769
31769
31769
31748
31748
31748
31683
31683
31683
31812
31812
31812
31662
31662
31662
31812
31812
31812
31812
31791
31791
31791
31683
31683
31683
31705
31705
31705
31705
31705
31705
31769
31769
31769
31769
31834
31834
31834
31597
31597
31597
31812
31812
31812
31705
31705
31705
31726
31726
31726
31726
31769
31769
31769
31705
31705
31705
31791
31791
31791
31705
31705
31705
31812
31812
31812
31812
31748
31748
31748
31769
31769
31769
31791
31791
31791
31726
31726
31726
31791
31791
31791
31791
31834
31834
31834
31683
31683
31683
31748
31748
31748
31640
31640
31640
31812
31812
31812
31812
31726
31726
31726
31726
31726
31726
31791
31791
31791
31683
31683
31683
31855
31855
31855
31855
31748
31748
31748
31662
31662
31662
31812
31812
31812
31705
31705
31705
31812
31812
31812
31812
31769
31769
31769
31726
31726
31726
31812
31812
31812
31683
31683
31683
31855
31855
31855
31855
31769
31769
31769
31726
31726
31726
31812
31812
31812
31748
31748
31748
31748
31748
31748
31748
31769
31769
31769
31726
31726
31726
31791
31791
31791
31748
31748
31748
31769
31769
31769
31769
31769
31769
31769
31640
31640
31640
31769
31769
31769
31705
31705
31705
31812
31812
31812
31812
31834
31834
31834
31748
31748
31748
31791
31791
31791
31683
31683
31683
31769
31769
31769
31769
31748
31748
31748
31683
31683
31683
31791
31791
31791
31748
31748
31748
31812
31812
31812
31812
31791
31791
31791
31726
31726
31726
31855
31855
31855
31619
31619
31619
31834
31834
31834
31834
31769
31769
31769
31705
31705
31705
31855
31855
31855
31683
31683
31683
31748
31748
31748
31748
31748
31748
31748
31726
31726
31726
31812
31812
31812
31683
31683
31683
31812
31812
31812
31812
31769
31769
31769
31640
31640
31640
31791
31791
31791
31726
31726
31726
31812
31812
31812
31812
31791
31791
31791
31705
31705
31705
31812
31812
31812
31705
31705
31705
31812
31812
31812
31812
31791
31791
31791
31748
31748
31748
31791
31791
31791
31640
31640
31640
31791
31791
31791
31791
31834
31834
31834
31683
31683
31683
31726
31726
31726
31748
31748
31748
31769
31769
31769
31769
31855
31855
31855
31662
31662
31662
31769
31769
31769
31726
31726
31726
31726
31726
31726
31726
31812
31812
31812
31726
31726
31726
31726
31726
31726
31726
31726
31726
31791
31791
31791
31791
31791
31791
31791
31726
31726
31726
31812
31812
31812
31640
31640
31640
31662
31662
31662
31662
31812
31812
31812
31640
31640
31640
31812
31812
31812
31705
31705
31705
31769
31769
31769
31769
31748
31748
31748
31662
31662
31662
31812
31812
31812
31705
31705
31705
31791
31791
31791
31791
31748
31748
31748
31683
31683
31683
31791
31791
31791
31683
31683
31683
31834
31834
31834
31834
31726
31726
31726
31640
31640
31640
31855
31855
31855
31705
31705
31705
31834
31834
31834
31834
31748
31748
31748
31640
31640
31640
31748
31748
31748
31791
31791
31791
31769
31769
31769
31769
31834
31834
31834
31683
31683
31683
31791
31791
31791
31748
31748
31748
31769
31769
31769
31769
31726
31726
31726
31726
31726
31726
31769
31769
31769
31683
31683
31683
31791
31791
31791
31791
31769
31769
31769
31705
31705
31705
31791
31791
31791
31662
31662
31662
31877
31877
31877
31877
31769
31769
31769
31705
31705
31705
31812
31812
31812
31662
31662
31662
31791
31791
31791
31791
31877
31877
31877
31705
31705
31705
31812
31812
31812
31726
31726
31726
31834
31834
31834
31834
31748
31748
31748
31726
31726
31726
31769
31769
31769
31705
31705
31705
31791
31791
31791
31791
31769
31769
31769
31705
31705
31705
31812
31812
31812
31683
31683
31683
31834
31834
31834
31834
31812
31812
31812
31705
31705
31705
31748
31748
31748
31576
31576
31576
31834
31834
31834
31834
31748
31748
31748
31726
31726
31726
31877
31877
31877
31705
31705
31705
31812
31812
31812
31812
31855
31855
31855
31662
31662
31662
31769
31769
31769
31683
31683
31683
31812
31812
31812
31812
31726
31726
31726
31705
31705
31705
31769
31769
31769
31662
31662
31662
31812
31812
31812
31812
31748
31748
31748
31683
31683
31683
31791
31791
31791
31726
31726
31726
31812
31812
31812
31812
31769
31769
31769
31705
31705
31705
31726
31726
31726
31640
31640
31640
31812
31812
31812
31812
31834
31834
31834
31683
31683
31683
31812
31812
31812
31705
31705
31705
31812
31812
31812
31812
31791
31791
31791
31662
31662
31662
31791
31791
31791
31705
31705
31705
31812
31812
31812
31812
31769
31769
31769
31662
31662
31662
31812
31812
31812
31748
31748
31748
31726
31726
31726
31726
31791
31791
31791
31705
31705
31705
31748
31748
31748
31726
31726
31726
31791
31791
31791
31791
31705
31705
31705
31705
31705
31705
31812
31812
31812
31748
31748
31748
31769
31769
31769
31769
31812
31812
31812
31683
31683
31683
31748
31748
31748
31726
31726
31726
31834
31834
31834
31834
31791
31791
31791
31705
31705
31705
31812
31812
31812
31683
31683
31683
31748
31748
31748
31748
31834
31834
31834
31748
31748
31748
31705
31705
31705
31726
31726
31726
31855
31855
31855
31855
31769
31769
31769
31726
31726
31726
31748
31748
31748
31748
31748
31748
31812
31812
31812
31812
31769
31769
31769
31683
31683
31683
31812
31812
31812
31748
31748
31748
31812
31812
31812
31812
31726
31726
31726
31683
31683
31683
31683
31683
31683
31705
31705
31705
31791
31791
31791
31791
31812
31812
31812
31705
31705
31705
31769
31769
31769
31683
31683
31683
31834
31834
31834
31834
31834
31834
31834
31662
31662
31662
31791
31791
31791
31683
31683
31683
31791
31791
31791
31791
31791
31791
31791
31683
31683
31683
31812
31812
31812
31597
31597
31597
31791
31791
31791
31791
31726
31726
31726
31705
31705
31705
31791
31791
31791
31683
31683
31683
31812
31812
31812
31812
31791
31791
31791
31705
31705
31705
31812
31812
31812
31705
31705
31705
31769
31769
31769
31769
31920
31920
31920
31683
31683
31683
31791
31791
31791
31705
31705
31705
31812
31812
31812
31812
31812
31812
31812
31683
31683
31683
31834
31834
31834
31726
31726
31726
31748
31748
31748
31748
31791
31791
31791
31769
31769
31769
31791
31791
31791
31662
31662
31662
31812
31812
31812
31812
31812
31812
31812
31640
31640
31640
31748
31748
31748
31619
31619
31619
31748
31748
31748
31748
31726
31726
31726
31662
31662
31662
31791
31791
31791
31683
31683
31683
31769
31769
31769
31769
31791
31791
31791
31683
31683
31683
31877
31877
31877
31705
31705
31705
31769
31769
31769
31769
31791
31791
31791
31705
31705
31705
31748
31748
31748
31683
31683
31683
31855
31855
31855
31855
31791
31791
31791
31705
31705
31705
31769
31769
31769
31683
31683
31683
31812
31812
31812
31812
31769
31769
31769
31705
31705
31705
31791
31791
31791
31683
31683
31683
31812
31812
31812
31812
31791
31791
31791
31640
31640
31640
31834
31834
31834
31683
31683
31683
31791
31791
31791
31791
31834
31834
31834
31726
31726
31726
31769
31769
31769
31705
31705
31705
31834
31834
31834
31834
31791
31791
31791
31705
31705
31705
31791
31791
31791
31662
31662
31662
31855
31855
31855
31855
31791
31791
31791
31662
31662
31662
31791
31791
31791
31705
31705
31705
31769
31769
31769
31769
31834
31834
31834
31662
31662
31662
31748
31748
31748
31748
31748
31748
31726
31726
31726
31726
31769
31769
31769
31683
31683
31683
31834
31834
31834
31662
31662
31662
31769
31769
31769
31769
31726
31726
31726
31726
31726
31726
31812
31812
31812
31705
31705
31705
31834
31834
31834
31834
31769
31769
31769
31683
31683
31683
31855
31855
31855
31726
31726
31726
31812
31812
31812
31812
31769
31769
31769
31662
31662
31662
31791
31791
31791
31769
31769
31769
31812
31812
31812
31812
31769
31769
31769
31726
31726
31726
31791
31791
31791
31683
31683
31683
31855
31855
31855
31855
31791
31791
31791
31705
31705
31705
31769
31769
31769
31683
31683
31683
31834
31834
31834
31834
31748
31748
31748
31705
31705
31705
31791
31791
31791
31791
31791
31791
31791
31791
31791
31791
31748
31748
31748
31726
31726
31726
31791
31791
31791
31726
31726
31726
31726
31726
31726
31726
31769
31769
31769
31705
31705
31705
31769
31769
31769
31726
31726
31726
31812
31812
31812
31812
31726
31726
31726
31748
31748
31748
31769
31769
31769
31662
31662
31662
31791
31791
31791
31791
31769
31769
31769
31748
31748
31748
31812
31812
31812
31640
31640
31640
31748
31748
31748
31748
31834
31834
31834
31662
31662
31662
31812
31812
31812
31705
31705
31705
31812
31812
31812
31812
31834
31834
31834
31705
31705
31705
31705
31705
31705
31791
31791
31791
31812
31812
31812
31812
31791
31791
31791
31705
31705
31705
31791
31791
31791
31748
31748
31748
31791
31791
31791
31791
31791
31791
31791
31705
31705
31705
31812
31812
31812
31726
31726
31726
31834
31834
31834
31834
31812
31812
31812
31748
31748
31748
31812
31812
31812
31683
31683
31683
31855
31855
31855
31855
31812
31812
31812
31726
31726
31726
31834
31834
31834
31748
31748
31748
31791
31791
31791
31791
31769
31769
31769
31726
31726
31726
31769
31769
31769
31726
31726
31726
31769
31769
31769
31769
31748
31748
31748
31726
31726
31726
31726
31726
31726
31726
31726
31726
31791
31791
31791
31791
31769
31769
31769
31726
31726
31726
31769
31769
31769
31726
31726
31726
31834
31834
31834
31834
31812
31812
31812
31726
31726
31726
31791
31791
31791
31705
31705
31705
31812
31812
31812
31812
31769
31769
31769
31726
31726
31726
31791
31791
31791
31791
31791
31791
31726
31726
31726
31726
31769
31769
31769
31640
31640
31640
31812
31812
31812
31726
31726
31726
31812
31812
31812
31812
31769
31769
31769
31705
31705
31705
31726
31726
31726
31683
31683
31683
31855
31855
31855
31855
31748
31748
31748
31726
31726
31726
31812
31812
31812
31705
31705
31705
31769
31769
31769
31769
31791
31791
31791
31662
31662
31662
31791
31791
31791
31748
31748
31748
31812
31812
31812
31812
31769
31769
31769
31769
31769
31769
31834
31834
31834
31726
31726
31726
31834
31834
31834
31834
31812
31812
31812
31683
31683
31683
31812
31812
31812
31640
31640
31640
31812
31812
31812
31812
31791
31791
31791
31683
31683
31683
31812
31812
31812
31683
31683
31683
31748
31748
31748
31748
31812
31812
31812
31683
31683
31683
31791
31791
31791
31748
31748
31748
31855
31855
31855
31855
31812
31812
31812
31683
31683
31683
31812
31812
31812
31748
31748
31748
31812
31812
31812
31812
31769
31769
31769
31640
31640
31640
31791
31791
31791
31662
31662
31662
31791
31791
31791
31791
31748
31748
31748
31683
31683
31683
31748
31748
31748
31683
31683
31683
31769
31769
31769
31769
31812
31812
31812
31705
31705
31705
31726
31726
31726
31769
31769
31769
31769
31769
31769
31769
31726
31726
31726
31683
31683
31683
31855
31855
31855
31748
31748
31748
31769
31769
31769
31769
31726
31726
31726
31662
31662
31662
31812
31812
31812
31726
31726
31726
31748
31748
31748
31748
31791
31791
31791
31705
31705
31705
31812
31812
31812
31705
31705
31705
31769
31769
31769
31769
31769
31769
31769
31683
31683
31683
31769
31769
31769
31726
31726
31726
31791
31791
31791
31791
31812
31812
31812
31705
31705
31705
31748
31748
31748
31705
31705
31705
31812
31812
31812
31812
31769
31769
31769
31726
31726
31726
31812
31812
31812
31705
31705
31705
31769
31769
31769
31769
31769
31769
31769
31705
31705
31705
31877
31877
31877
31726
31726
31726
31812
31812
31812
31812
31769
31769
31769
31726
31726
31726
31791
31791
31791
31683
31683
31683
31791
31791
31791
31791
31769
31769
31769
31705
31705
31705
31791
31791
31791
31726
31726
31726
31791
31791
31791
31791
31640
31640
31640
31705
31705
31705
31812
31812
31812
31726
31726
31726
31855
31855
31855
31855
31769
31769
31769
31683
31683
31683
31791
31791
31791
31705
31705
31705
31791
31791
31791
31791
31791
31791
31791
31683
31683
31683
31791
31791
31791
31726
31726
31726
31834
31834
31834
31834
31769
31769
31769
31726
31726
31726
31855
31855
31855
31640
31640
31640
31791
31791
31791
31791
31834
31834
31834
31705
31705
31705
31791
31791
31791
31683
31683
31683
31791
31791
31791
31791
31855
31855
31855
31662
31662
31662
31791
31791
31791
31726
31726
31726
31855
31855
31855
31855
31769
31769
31769
31726
31726
31726
31769
31769
31769
31705
31705
31705
31791
31791
31791
31791
31812
31812
31812
31748
31748
31748
31791
31791
31791
31705
31705
31705
31834
31834
31834
31834
31769
31769
31769
31662
31662
31662
31834
31834
31834
31640
31640
31640
31748
31748
31748
31748
31748
31748
31748
31705
31705
31705
31812
31812
31812
31705
31705
31705
31769
31769
31769
31769
31791
31791
31791
31705
31705
31705
31812
31812
31812
31662
31662
31662
31791
31791
31791
31791
31812
31812
31812
31705
31705
31705
31769
31769
31769
31662
31662
31662
31941
31941
31941
31941
31748
31748
31748
31748
31748
31748
31812
31812
31812
31662
31662
31662
31834
31834
31834
31834
31748
31748
31748
31683
31683
31683
31791
31791
31791
31683
31683
31683
31726
31726
31726
31726
31748
31748
31748
31726
31726
31726
31791
31791
31791
31640
31640
31640
31791
31791
31791
31791
31791
31791
31791
31662
31662
31662
31769
31769
31769
31705
31705
31705
31791
31791
31791
31791
31812
31812
31812
31705
31705
31705
31769
31769
31769
31726
31726
31726
31748
31748
31748
31748
31812
31812
31812
31726
31726
31726
31791
31791
31791
31791
31791
31791
31812
31812
31812
31812
31769
31769
31769
31791
31791
31791
31812
31812
31812
31748
31748
31748
31812
31812
31812
31812
31769
31769
31769
31662
31662
31662
31791
31791
31791
31748
31748
31748
31877
31877
31877
31877
31769
31769
31769
31748
31748
31748
31834
31834
31834
31726
31726
31726
31791
31791
31791
31791
31812
31812
31812
31662
31662
31662
31791
31791
31791
31769
31769
31769
31834
31834
31834
31834
31791
31791
31791
31726
31726
31726
31791
31791
31791
31748
31748
31748
31812
31812
31812
31812
31834
31834
31834
31640
31640
31640
31812
31812
31812
31748
31748
31748
31748
31748
31748
31748
31791
31791
31791
31619
31619
31619
31855
31855
31855
31769
31769
31769
31812
31812
31812
31812
31812
31812
31812
31705
31705
31705
31769
31769
31769
31769
31769
31769
31683
31683
31683
31683
31855
31855
31855
31705
31705
31705
31834
31834
31834
31769
31769
31769
31769
31769
31769
31769
31812
31812
31812
31683
31683
31683
31791
31791
31791
31726
31726
31726
31769
31769
31769
31769
31748
31748
31748
31705
31705
31705
31769
31769
31769
31705
31705
31705
31812
31812
31812
31812
31769
31769
31769
31726
31726
31726
31769
31769
31769
31705
31705
31705
31726
31726
31726
31726
31791
31791
31791
31726
31726
31726
31791
31791
31791
31769
31769
31769
31791
31791
31791
31791
31748
31748
31748
31683
31683
31683
31748
31748
31748
31662
31662
31662
31812
31812
31812
31812
31791
31791
31791
31683
31683
31683
31812
31812
31812
31705
31705
31705
31812
31812
31812
31812
31812
31812
31812
31683
31683
31683
31791
31791
31791
31683
31683
31683
31834
31834
31834
31834
31748
31748
31748
31640
31640
31640
31791
31791
31791
31791
31791
31791
31726
31726
31726
31726
32027
32027
32027
31640
31640
31640
31855
31855
31855
31726
31726
31726
31769
31769
31769
31769
31748
31748
31748
31640
31640
31640
31791
31791
31791
31683
31683
31683
31791
31791
31791
31791
31812
31812
31812
31726
31726
31726
31791
31791
31791
31683
31683
31683
31748
31748
31748
31748
31769
31769
31769
31683
31683
31683
31791
31791
31791
31683
31683
31683
31791
31791
31791
31791
31769
31769
31769
31640
31640
31640
31748
31748
31748
31597
31597
31597
31812
31812
31812
31812
31791
31791
31791
31683
31683
31683
31769
31769
31769
31683
31683
31683
31791
31791
31791
31791
31748
31748
31748
31726
31726
31726
31791
31791
31791
31748
31748
31748
31791
31791
31791
31791
31791
31791
31791
31640
31640
31640
31855
31855
31855
31726
31726
31726
31662
31662
31662
31662
31769
31769
31769
31640
31640
31640
31812
31812
31812
31683
31683
31683
31812
31812
31812
31812
31834
31834
31834
31640
31640
31640
31748
31748
31748
31726
31726
31726
31748
31748
31748
31748
31834
31834
31834
31640
31640
31640
31769
31769
31769
31662
31662
31662
31791
31791
31791
31791
31855
31855
31855
31640
31640
31640
31791
31791
31791
31683
31683
31683
31812
31812
31812
31812
31748
31748
31748
31705
31705
31705
31748
31748
31748
31683
31683
31683
31834
31834
31834
31834
31791
31791
31791
31683
31683
31683
31769
31769
31769
31705
31705
31705
31791
31791
31791
31791
31748
31748
31748
31662
31662
31662
31769
31769
31769
31726
31726
31726
31834
31834
31834
31834
31791
31791
31791
31662
31662
31662
31769
31769
31769
31683
31683
31683
31834
31834
31834
31834
31834
31834
31834
31791
31791
31791
31748
31748
31748
31683
31683
31683
31769
31769
31769
31769
31791
31791
31791
31769
31769
31769
31791
31791
31791
31705
31705
31705
31855
31855
31855
31855
31769
31769
31769
31683
31683
31683
31834
31834
31834
31705
31705
31705
31791
31791
31791
31791
31748
31748
31748
31791
31791
31791
31855
31855
31855
31683
31683
31683
31812
31812
31812
31812
31791
31791
31791
31683
31683
31683
31769
31769
31769
31705
31705
31705
31791
31791
31791
31791
31791
31791
31791
31705
31705
31705
31748
31748
31748
31640
31640
31640
31791
31791
31791
31791
31705
31705
31705
31748
31748
31748
31791
31791
31791
31662
31662
31662
31855
31855
31855
31855
31748
31748
31748
31662
31662
31662
31791
31791
31791
31726
31726
31726
31769
31769
31769
31769
31920
31920
31920
31640
31640
31640
31726
31726
31726
31662
31662
31662
31812
31812
31812
31812
31812
31812
31812
31683
31683
31683
31834
31834
31834
31705
31705
31705
31812
31812
31812
31812
31855
31855
31855
31726
31726
31726
31791
31791
31791
31683
31683
31683
31769
31769
31769
31769
31791
31791
31791
31683
31683
31683
31705
31705
31705
31662
31662
31662
31791
31791
31791
31791
31791
31791
31791
31683
31683
31683
31769
31769
31769
31683
31683
31683
31812
31812
31812
31812
31812
31812
31812
31726
31726
31726
31769
31769
31769
31683
31683
31683
31769
31769
31769
31769
31812
31812
31812
31683
31683
31683
31834
31834
31834
31662
31662
31662
31855
31855
31855
31855
31769
31769
31769
31726
31726
31726
31791
31791
31791
31662
31662
31662
31791
31791
31791
31791
31834
31834
31834
31683
31683
31683
31855
31855
31855
31597
31597
31597
31791
31791
31791
31791
31812
31812
31812
31726
31726
31726
31898
31898
31898
31683
31683
31683
31769
31769
31769
31769
31748
31748
31748
31662
31662
31662
31791
31791
31791
31683
31683
31683
31791
31791
31791
31791
31769
31769
31769
31705
31705
31705
31748
31748
31748
31726
31726
31726
31726
31726
31726
31726
31812
31812
31812
31683
31683
31683
31834
31834
31834
31683
31683
31683
31812
31812
31812
31812
31769
31769
31769
31683
31683
31683
31662
31662
31662
31619
31619
31619
31812
31812
31812
31812
31726
31726
31726
31726
31726
31726
31748
31748
31748
31705
31705
31705
31769
31769
31769
31769
31791
31791
31791
31726
31726
31726
31855
31855
31855
31683
31683
31683
31769
31769
31769
31769
31748
31748
31748
31640
31640
31640
31791
31791
31791
31705
31705
31705
31769
31769
31769
31769
31791
31791
31791
31662
31662
31662
31877
31877
31877
31726
31726
31726
31791
31791
31791
31791
31769
31769
31769
31705
31705
31705
31769
31769
31769
31683
31683
31683
31877
31877
31877
31877
31812
31812
31812
31640
31640
31640
31791
31791
31791
31662
31662
31662
31705
31705
31705
31705
31855
31855
31855
31726
31726
31726
31683
31683
31683
31640
31640
31640
31834
31834
31834
31834
31812
31812
31812
31726
31726
31726
31791
31791
31791
31705
31705
31705
31812
31812
31812
31812
31748
31748
31748
31726
31726
31726
31791
31791
31791
31662
31662
31662
31812
31812
31812
31812
31791
31791
31791
31683
31683
31683
31855
31855
31855
31705
31705
31705
31748
31748
31748
31748
31726
31726
31726
31726
31726
31726
31812
31812
31812
31683
31683
31683
31812
31812
31812
31812
31812
31812
31812
31748
31748
31748
31898
31898
31898
31726
31726
31726
31769
31769
31769
31769
31855
31855
31855
31705
31705
31705
31812
31812
31812
31748
31748
31748
31791
31791
31791
31791
31791
31791
31791
31726
31726
31726
31812
31812
31812
31726
31726
31726
31791
31791
31791
31791
31791
31791
31791
31769
31769
31769
31791
31791
31791
31683
31683
31683
31855
31855
31855
31855
31812
31812
31812
31683
31683
31683
31812
31812
31812
31683
31683
31683
31812
31812
31812
31812
31769
31769
31769
31619
31619
31619
31855
31855
31855
31683
31683
31683
31769
31769
31769
31769
31812
31812
31812
31683
31683
31683
31791
31791
31791
31705
31705
31705
31769
31769
31769
31769
31791
31791
31791
31683
31683
31683
31769
31769
31769
31705
31705
31705
31791
31791
31791
31791
31812
31812
31812
31683
31683
31683
31748
31748
31748
31662
31662
31662
31920
31920
31920
31920
31769
31769
31769
31726
31726
31726
31769
31769
31769
31705
31705
31705
31791
31791
31791
31791
31769
31769
31769
31683
31683
31683
31855
31855
31855
31705
31705
31705
31769
31769
31769
31769
31812
31812
31812
31705
31705
31705
31834
31834
31834
31705
31705
31705
31726
31726
31726
31726
31791
31791
31791
31662
31662
31662
31791
31791
31791
31705
31705
31705
31791
31791
31791
31791
31812
31812
31812
31748
31748
31748
31812
31812
31812
31705
31705
31705
31834
31834
31834
31834
31769
31769
31769
31726
31726
31726
31834
31834
31834
31683
31683
31683
31812
31812
31812
31812
31812
31812
31812
31705
31705
31705
31812
31812
31812
31748
31748
31748
31791
31791
31791
31791
31748
31748
31748
31705
31705
31705
31791
31791
31791
31726
31726
31726
31834
31834
31834
31834
31855
31855
31855
31726
31726
31726
31812
31812
31812
31662
31662
31662
31791
31791
31791
31791
31791
31791
31791
31705
31705
31705
31791
31791
31791
31640
31640
31640
31791
31791
31791
31791
31834
31834
31834
31705
31705
31705
31791
31791
31791
31640
31640
31640
31769
31769
31769
31769
31791
31791
31791
31705
31705
31705
31791
31791
31791
31726
31726
31726
31834
31834
31834
31834
31834
31834
31834
31662
31662
31662
31834
31834
31834
31683
31683
31683
31769
31769
31769
31769
31705
31705
31705
31705
31705
31705
31791
31791
31791
31619
31619
31619
31769
31769
31769
31769
31834
31834
31834
31683
31683
31683
31812
31812
31812
31705
31705
31705
31812
31812
31812
31812
31748
31748
31748
31769
31769
31769
31748
31748
31748
31705
31705
31705
31769
31769
31769
31769
31748
31748
31748
31726
31726
31726
31791
31791
31791
31640
31640
31640
31769
31769
31769
31769
31791
31791
31791
31705
31705
31705
31791
31791
31791
31683
31683
31683
31812
31812
31812
31812
31769
31769
31769
31705
31705
31705
31748
31748
31748
31640
31640
31640
31877
31877
31877
31877
31748
31748
31748
31726
31726
31726
31791
31791
31791
31640
31640
31640
31812
31812
31812
31812
31769
31769
31769
31726
31726
31726
31769
31769
31769
31769
31769
31769
31769
31769
31769
31769
31791
31791
31791
31726
31726
31726
31791
31791
31791
31683
31683
31683
31812
31812
31812
31812
31898
31898
31898
31640
31640
31640
31769
31769
31769
31705
31705
31705
31791
31791
31791
31791
31769
31769
31769
31748
31748
31748
31812
31812
31812
31726
31726
31726
31748
31748
31748
31748
31769
31769
31769
31683
31683
31683
31748
31748
31748
31683
31683
31683
31834
31834
31834
31834
31812
31812
31812
31683
31683
31683
31812
31812
31812
31726
31726
31726
31769
31769
31769
31769
31791
31791
31791
31726
31726
31726
31791
31791
31791
31640
31640
31640
31812
31812
31812
31812
31748
31748
31748
31683
31683
31683
31855
31855
31855
31683
31683
31683
31769
31769
31769
31769
31791
31791
31791
31640
31640
31640
31791
31791
31791
31705
31705
31705
31769
31769
31769
31769
31812
31812
31812
31683
31683
31683
31812
31812
31812
31726
31726
31726
31791
31791
31791
31791
31812
31812
31812
31705
31705
31705
31812
31812
31812
31640
31640
31640
31791
31791
31791
31791
31791
31791
31791
31683
31683
31683
31812
31812
31812
31683
31683
31683
31898
31898
31898
31898
31812
31812
31812
31726
31726
31726
31791
31791
31791
31748
31748
31748
31683
31683
31683
31683
31791
31791
31791
31683
31683
31683
31791
31791
31791
31726
31726
31726
31748
31748
31748
31748
31834
31834
31834
31748
31748
31748
31834
31834
31834
31769
31769
31769
31855
31855
31855
31855
31855
31855
31855
31705
31705
31705
31769
31769
31769
31705
31705
31705
31769
31769
31769
31769
31769
31769
31769
31769
31769
31769
31812
31812
31812
31705
31705
31705
31812
31812
31812
31812
31769
31769
31769
31705
31705
31705
31726
31726
31726
31640
31640
31640
31791
31791
31791
31791
31769
31769
31769
31726
31726
31726
31812
31812
31812
31640
31640
31640
31791
31791
31791
31791
31726
31726
31726
31812
31812
31812
31791
31791
31791
31662
31662
31662
31855
31855
31855
31855
31748
31748
31748
31683
31683
31683
31855
31855
31855
31683
31683
31683
31791
31791
31791
31791
31855
31855
31855
31640
31640
31640
31748
31748
31748
31705
31705
31705
31812
31812
31812
31812
31791
31791
31791
31705
31705
31705
31791
31791
31791
31705
31705
31705
31791
31791
31791
31791
31769
31769
31769
31662
31662
31662
31791
31791
31791
31726
31726
31726
31791
31791
31791
31791
31812
31812
31812
31683
31683
31683
31812
31812
31812
31769
31769
31769
31769
31769
31769
31769
31791
31791
31791
31683
31683
31683
31769
31769
31769
31662
31662
31662
31791
31791
31791
31791
31705
31705
31705
31662
31662
31662
31855
31855
31855
31683
31683
31683
31726
31726
31726
31726
31769
31769
31769
31705
31705
31705
31834
31834
31834
31726
31726
31726
31834
31834
31834
31834
31834
31834
31834
31662
31662
31662
31791
31791
31791
31705
31705
31705
31791
31791
31791
31791
31769
31769
31769
31705
31705
31705
31791
31791
31791
31662
31662
31662
31748
31748
31748
31748
31812
31812
31812
31683
31683
31683
31791
31791
31791
31705
31705
31705
31812
31812
31812
31812
31812
31812
31812
31748
31748
31748
31748
31748
31748
31662
31662
31662
31812
31812
31812
31812
31812
31812
31812
31705
31705
31705
31834
31834
31834
31662
31662
31662
31769
31769
31769
31769
31812
31812
31812
31683
31683
31683
31812
31812
31812
31769
31769
31769
31812
31812
31812
31812
31898
31898
31898
31705
31705
31705
31769
31769
31769
31662
31662
31662
31812
31812
31812
31812
31769
31769
31769
31748
31748
31748
31812
31812
31812
31748
31748
31748
31791
31791
31791
31791
31769
31769
31769
31726
31726
31726
31898
31898
31898
31726
31726
31726
31791
31791
31791
31791
31769
31769
31769
31726
31726
31726
31855
31855
31855
31726
31726
31726
