2185
2185
2183
2183
2183
2181
2181
2181
2183
2183
2183
2182
2182
2182
2183
2183
2183
2183
2186
2186
2186
2181
2181
2181
2183
2183
2183
2186
2186
2186
2188
2188
2188
2188
2180
2180
2180
2185
2185
2185
2184
2184
2184
2180
2180
2180
2183
2183
2183
2183
2183
2183
2183
2178
2178
2178
2185
2185
2185
2182
2182
2182
2179
2179
2179
2179
2186
2186
2186
2187
2187
2187
2182
2182
2182
2175
2175
2175
2185
2185
2185
2185
2186
2187
2187
2182
2182
2182
2184
2184
2184
2186
2186
2186
2178
2178
2178
2186
2186
2186
2186
2184
2184
2184
2184
2184
2184
2184
2184
2184
2185
2185
2185
2186
2186
2186
2186
2185
2185
2185
2179
2179
2179
2179
2179
2179
2185
2185
2185
2185
2185
2185
2185
2183
2183
2183
2179
2179
2179
2187
2187
2187
2182
2182
2182
2184
2184
2184
2184
2177
2177
2177
2183
2183
2183
2189
2189
2189
2182
2182
2182
2186
2186
2186
2186
2183
2183
2183
2182
2182
2182
2186
2186
2186
2181
2181
2181
2183
2183
2183
2183
2183
2183
2183
2183
2183
2183
2186
2186
2186
2181
2181
2181
2186
2186
2186
2186
2185
2185
2185
2180
2180
2180
2189
2189
2189
2183
2183
2183
2183
2183
2183
2183
2186
2186
2186
2176
2176
2176
2185
2185
2185
2180
2180
2180
2186
2186
2186
2186
2186
2186
2186
2179
2179
2179
2185
2185
2185
2186
2186
2186
2185
2185
2185
2185
2183
2183
2183
2181
2181
2181
2187
2187
2187
2183
2183
2183
2188
2188
2188
2188
2183
2183
2183
2184
2184
2184
2189
2189
2189
2179
2179
2179
2185
2185
2185
2185
2187
2187
2187
2177
2177
2177
2185
2185
2185
2179
2179
2179
2188
2188
2188
2188
2186
2186
2186
2182
2182
2182
2187
2187
2187
2182
2182
2182
2184
2184
2184
2184
2187
2187
2187
2180
2180
2180
2188
2188
2188
2182
2182
2182
2184
2184
2184
2184
2183
2183
2183
2182
2182
2182
2186
2186
2186
2183
2183
2183
2184
2184
2184
2184
2183
2183
2183
2181
2181
2181
2186
2186
2186
2183
2183
2183
2187
2187
2187
2187
2185
2185
2185
2180
2180
2180
2189
2189
2189
2182
2182
2182
2177
2177
2177
2177
2185
2185
2185
2183
2183
2183
2185
2185
2185
2180
2180
2180
2190
2190
2190
2190
2180
2180
2180
2182
2182
2182
2184
2184
2184
2180
2180
2180
2182
2182
2182
2182
2191
2191
2191
2181
2181
2181
2197
2197
2197
2182
2182
2182
2185
2185
2185
2185
2185
2185
2185
2179
2179
2179
2196
2196
2196
2180
2180
2180
2187
2187
2187
2187
2186
2186
2186
2179
2179
2179
2188
2188
2188
2178
2178
2178
2183
2183
2183
2183
2191
2191
2191
2183
2183
2183
2183
2183
2183
2179
2179
2179
2184
2184
2184
2184
2184
2184
2184
2181
2181
2181
2186
2186
2186
2181
2181
2181
2183
2183
2183
2183
2185
2185
2185
2178
2178
2178
2184
2184
2184
2181
2181
2181
2186
2186
2186
2186
2185
2185
2185
2182
2182
2182
2183
2183
2183
2180
2180
2180
2185
2185
2185
2185
2185
2185
2185
2182
2182
2182
2188
2188
2188
2182
2182
2182
2186
2186
2186
2186
2183
2183
2183
2180
2180
2180
2185
2185
2185
2181
2181
2181
2184
2184
2184
2184
2186
2186
2186
2179
2179
2179
2181
2181
2181
2182
2182
2182
2184
2184
2184
2184
2186
2186
2186
2181
2181
2181
2187
2187
2187
2181
2181
2181
2187
2187
2187
2187
2184
2184
2184
2185
2185
2185
2184
2184
2184
2182
2182
2182
2182
2182
2182
2182
2185
2185
2185
2183
2183
2183
2182
2182
2182
2178
2178
2178
2186
2186
2186
2186
2184
2184
2184
2179
2179
2179
2182
2182
2182
2181
2181
2181
2187
2187
2187
2187
2187
2187
2187
2181
2181
2181
2185
2185
2185
2183
2183
2183
2187
2187
2187
2187
2180
2180
2180
2180
2180
2180
2186
2186
2186
2183
2183
2183
2195
2195
2195
2195
2182
2182
2182
2184
2184
2184
2184
2184
2184
2180
2180
2180
2185
2185
2185
2185
2184
2184
2184
2185
2185
2185
2185
2185
2185
2181
2181
2181
2184
2184
2184
2184
2184
2184
2184
2179
2179
2179
2187
2187
2187
2183
2183
2183
2185
2185
2185
2185
2184
2184
2184
2182
2182
2182
2185
2185
2185
2187
2187
2187
2186
2186
2186
2186
2187
2187
2187
2179
2179
2179
2186
2186
2186
2181
2181
2181
2181
2181
2181
2181
2186
2186
2186
2181
2181
2181
2185
2185
2185
2182
2182
2182
2184
2184
2184
2184
2185
2185
2185
2181
2181
2181
2184
2184
2184
2178
2178
2178
2185
2185
2185
2185
2189
2189
2189
2181
2181
2181
2186
2186
2186
2178
2178
2178
2183
2183
2183
2183
2183
2183
2183
2179
2179
2179
2186
2186
2186
2181
2181
2181
2180
2180
2180
2180
2186
2186
2186
2182
2182
2182
2187
2187
2187
2180
2180
2180
2185
2185
2185
2185
2185
2185
2185
2181
2181
2181
2188
2188
2188
2179
2179
2179
2185
2185
2185
2185
2184
2184
2184
2180
2180
2180
2185
2185
2185
2179
2179
2179
2186
2186
2186
2186
2181
2181
2181
2184
2184
2184
2185
2185
2185
2184
2184
2184
2187
2187
2187
2187
2183
2183
2183
2189
2189
2189
2189
2189
2189
2180
2180
2180
2186
2186
2186
2186
2185
2185
2185
2181
2181
2181
2183
2183
2183
2181
2181
2181
2186
2186
2186
2186
2181
2181
2181
2180
2180
2180
2184
2184
2184
2181
2181
2181
2180
2180
2180
2180
2186
2186
2186
2181
2181
2181
2184
2184
2184
2182
2182
2182
2186
2186
2186
2186
2184
2184
2184
2180
2180
2180
2185
2185
2185
2182
2182
2182
2187
2187
2187
2187
2181
2181
2181
2180
2180
2180
2184
2184
2184
2180
2180
2180
2182
2182
2182
2182
2185
2185
2185
2181
2181
2181
2188
2188
2188
2179
2179
2179
2184
2184
2184
2184
2183
2183
2183
2183
2183
2183
2186
2186
2186
2181
2181
2181
2185
2185
2185
2185
2186
2186
2186
