31856
31856
31987
31987
31987
31856
31856
31856
31987
31987
31987
31987
31944
31944
31944
31748
31748
31748
31965
31965
31965
31856
31856
31856
32031
32031
32031
32031
31878
31878
31878
31813
31813
31813
32031
32031
32031
31856
31856
31856
31944
31944
31944
31944
31965
31965
31965
31856
31856
31856
31922
31922
31922
31769
31769
31769
31965
31965
31965
31965
31965
31965
31965
31813
31813
31813
31944
31944
31944
31878
31878
31878
31987
31987
31987
31987
31987
31987
31987
31835
31835
31835
31922
31922
31922
31878
31878
31878
31944
31944
31944
31944
31944
31944
31944
31878
31878
31878
31922
31922
31922
31944
31944
31944
31987
31987
31987
31987
31944
31944
31944
31856
31856
31856
31965
31965
31965
31922
31922
31922
31987
31987
31987
31987
31835
31835
31835
31813
31813
31813
31965
31965
31965
31769
31769
31769
31922
31922
31922
31922
31944
31944
31944
31835
31835
31835
31878
31878
31878
31791
31791
31791
31922
31922
31922
31922
31900
31900
31900
31878
31878
31878
32009
32009
32009
31813
31813
31813
32009
32009
32009
32009
31965
31965
31965
31900
31900
31900
31944
31944
31944
31813
31813
31813
31965
31965
31965
31965
31944
31944
31944
31835
31835
31835
31987
31987
31987
31813
31813
31813
31835
31835
31835
31835
31944
31944
31944
31769
31769
31769
31835
31835
31835
31856
31856
31856
31944
31944
31944
31944
31856
31856
31856
31748
31748
31748
31922
31922
31922
31944
31944
31944
31878
31878
31878
31878
31987
31987
31987
31813
31813
31813
31944
31944
31944
31856
31856
31856
31922
31922
31922
31922
31900
31900
31900
31835
31835
31835
31922
31922
31922
31856
31856
31856
31965
31965
31965
31965
31878
31878
31878
31726
31726
31726
31987
31987
31987
31835
31835
31835
31922
31922
31922
31922
31944
31944
31944
31856
31856
31856
32031
32031
32031
31878
31878
31878
31900
31900
31900
31900
31900
31900
31900
31835
31835
31835
31944
31944
31944
31856
31856
31856
31922
31922
31922
31922
31944
31944
31944
31835
31835
31835
31987
31987
31987
31835
31835
31835
31944
31944
31944
31944
31987
31987
31987
31835
31835
31835
31965
31965
31965
31878
31878
31878
31965
31965
31965
31965
31900
31900
31900
31813
31813
31813
31944
31944
31944
31987
31987
31987
31922
31922
31922
31922
31944
31944
31944
31856
31856
31856
31922
31922
31922
31813
31813
31813
31944
31944
31944
31944
32052
32052
32052
31835
31835
31835
31944
31944
31944
31813
31813
31813
31965
31965
31965
31965
31965
31965
31965
31835
31835
31835
31900
31900
31900
31856
31856
31856
31944
31944
31944
31944
31900
31900
31900
31835
31835
31835
31944
31944
31944
31856
31856
31856
32009
32009
32009
32009
31922
31922
31922
31791
31791
31791
31965
31965
31965
31922
31922
31922
31856
31856
31856
31856
31900
31900
31900
32074
32074
32074
31922
31922
31922
31878
31878
31878
31856
31856
31856
31856
31856
31856
31856
31878
31878
31878
31878
31878
31878
31856
31856
31856
31965
31965
31965
31965
31878
31878
31878
31813
31813
31813
31922
31922
31922
31791
31791
31791
31878
31878
31878
31878
31922
31922
31922
31856
31856
31856
31965
31965
31965
31813
31813
31813
31878
31878
31878
31878
32074
32074
32074
31813
31813
31813
31922
31922
31922
31813
31813
31813
31922
31922
31922
31922
31900
31900
31900
31900
31900
31900
31965
31965
31965
31835
31835
31835
31900
31900
31900
31900
31922
31922
31922
31900
31900
31900
31900
31900
31900
31878
31878
31878
31944
31944
31944
31944
31965
31965
31965
31900
31900
31900
31944
31944
31944
31791
31791
31791
31965
31965
31965
31965
31944
31944
31944
31791
31791
31791
31965
31965
31965
31856
31856
31856
31944
31944
31944
31944
31900
31900
31900
31835
31835
31835
31900
31900
31900
31835
31835
31835
31922
31922
31922
31922
31944
31944
31944
31922
31922
31922
31987
31987
31987
31835
31835
31835
31944
31944
31944
31944
31922
31922
31922
31856
31856
31856
31965
31965
31965
31878
31878
31878
31900
31900
31900
31900
31878
31878
31878
31856
31856
31856
32009
32009
32009
31835
31835
31835
31922
31922
31922
31922
31922
31922
31922
31769
31769
31769
31944
31944
31944
31769
31769
31769
31922
31922
31922
31922
31965
31965
31965
31835
31835
31835
31922
31922
31922
31769
31769
31769
31791
31791
31791
31791
31987
31987
31987
31813
31813
31813
31922
31922
31922
31813
31813
31813
31965
31965
31965
31965
31922
31922
31922
31835
31835
31835
31900
31900
31900
31944
31944
31944
31878
31878
31878
31878
32031
32031
32031
31878
31878
31878
31856
31856
31856
31813
31813
31813
31922
31922
31922
31922
32009
32009
32009
31769
31769
31769
31878
31878
31878
32052
32052
32052
31922
31922
31922
31922
31922
31922
31922
31922
31922
31922
31987
31987
31987
31835
31835
31835
31965
31965
31965
31965
31987
31987
31987
31878
31878
31878
31944
31944
31944
31813
31813
31813
31944
31944
31944
31944
31878
31878
31878
31661
31661
31661
31878
31878
31878
31878
31878
31878
31922
31922
31922
31922
31878
31878
31878
31856
31856
31856
31965
31965
31965
31856
31856
31856
31922
31922
31922
31922
31922
31922
31922
31856
31856
31856
31965
31965
31965
31856
31856
31856
32031
32031
32031
32031
31965
31965
31965
31813
31813
31813
31944
31944
31944
31835
31835
31835
31944
31944
31944
31944
31900
31900
31900
31878
31878
31878
32009
32009
32009
31856
31856
31856
31900
31900
31900
31900
31900
31900
31900
31835
31835
31835
31944
31944
31944
31835
31835
31835
31944
31944
31944
31944
31944
31944
31944
31835
31835
31835
31922
31922
31922
31835
31835
31835
31878
31878
31878
31878
31987
31987
31987
31878
31878
31878
31922
31922
31922
31813
31813
31813
31900
31900
31900
31900
31944
31944
31944
31791
31791
31791
31987
31987
31987
31595
31595
31595
31944
31944
31944
31944
31965
31965
31965
31835
31835
31835
31965
31965
31965
31791
31791
31791
31769
31769
31769
31769
32031
32031
32031
31878
31878
31878
31944
31944
31944
31748
31748
31748
31965
31965
31965
31965
31965
31965
31965
31987
31987
31987
31944
31944
31944
31791
31791
31791
31922
31922
31922
31922
31922
31922
31922
31944
31944
31944
31922
31922
31922
31791
31791
31791
31922
31922
31922
31922
31965
31965
31965
31791
31791
31791
31987
31987
31987
31661
31661
31661
31922
31922
31922
31922
31878
31878
31878
31878
31878
31878
31878
31878
31878
31835
31835
31835
32031
32031
32031
32031
31922
31922
31922
31856
31856
31856
31878
31878
31878
31856
31856
31856
31922
31922
31922
31922
31922
31922
31922
31835
31835
31835
31944
31944
31944
31835
31835
31835
31965
31965
31965
31965
31965
31965
31965
31813
31813
31813
31944
31944
31944
31856
31856
31856
32052
32052
32052
32052
31856
31856
31856
31856
31856
31856
31965
31965
31965
31835
31835
31835
31900
31900
31900
31900
31878
31878
31878
31835
31835
31835
31944
31944
31944
31856
31856
31856
31922
31922
31922
31922
31965
31965
31965
31878
31878
31878
31965
31965
31965
31856
31856
31856
31878
31878
31878
31878
31922
31922
31922
31835
31835
31835
31987
31987
31987
31922
31922
31922
31965
31965
31965
31965
31922
31922
31922
31791
31791
31791
31965
31965
31965
31856
31856
31856
32009
32009
32009
32009
31878
31878
31878
31878
31878
31878
31878
31878
31878
31922
31922
31922
31878
31878
31878
31878
31922
31922
31922
31856
31856
31856
31922
31922
31922
31900
31900
31900
31900
31900
31900
31900
31944
31944
31944
31813
31813
31813
31878
31878
31878
31922
31922
31922
31813
31813
31813
31813
31987
31987
31987
31835
31835
31835
31965
31965
31965
31878
31878
31878
31944
31944
31944
31944
31944
31944
31944
31856
31856
31856
31900
31900
31900
31900
31900
31900
31922
31922
31922
31922
31965
31965
31965
31791
31791
31791
31878
31878
31878
31900
31900
31900
31878
31878
31878
31878
32009
32009
32009
31791
31791
31791
31900
31900
31900
31856
31856
31856
31922
31922
31922
31922
31922
31922
31922
31944
31944
31944
31856
31856
31856
31835
31835
31835
32009
32009
32009
32009
31900
31900
31900
31878
31878
31878
31900
31900
31900
31835
31835
31835
31965
31965
31965
31965
31965
31965
31965
31856
31856
31856
31965
31965
31965
31813
31813
31813
31944
31944
31944
31944
31922
31922
31922
31878
31878
31878
31922
31922
31922
31813
31813
31813
31965
31965
31965
31965
32031
32031
32031
31878
31878
31878
31944
31944
31944
31878
31878
31878
31965
31965
31965
31965
31944
31944
31944
31856
31856
31856
31987
31987
31987
31987
31987
31987
31900
31900
31900
31900
31944
31944
31944
31835
31835
31835
31965
31965
31965
31856
31856
31856
31900
31900
31900
31900
31813
31813
31813
31900
31900
31900
31965
31965
31965
31813
31813
31813
31944
31944
31944
31944
31944
31944
31944
31856
31856
31856
31987
31987
31987
31769
31769
31769
31922
31922
31922
31922
31878
31878
31878
31856
31856
31856
31878
31878
31878
31813
31813
31813
31900
31900
31900
31900
31922
31922
31922
31791
31791
31791
32009
32009
32009
31682
31682
31682
31900
31900
31900
31900
31900
31900
31900
31835
31835
31835
31922
31922
31922
31813
31813
31813
31922
31922
31922
31922
31922
31922
31922
31878
31878
31878
32009
32009
32009
31835
31835
31835
31944
31944
31944
31944
31900
31900
31900
31791
31791
31791
31878
31878
31878
31813
31813
31813
31944
31944
31944
31944
32031
32031
32031
31878
31878
31878
31922
31922
31922
31878
31878
31878
31835
31835
31835
31835
31965
31965
31965
31835
31835
31835
31922
31922
31922
31878
31878
31878
31922
31922
31922
31922
31944
31944
31944
31922
31922
31922
31922
31922
31922
31835
31835
31835
31965
31965
31965
31965
31922
31922
31922
31878
31878
31878
31856
31856
31856
31878
31878
31878
31987
31987
31987
31987
31922
31922
31922
31835
31835
31835
31922
31922
31922
31769
31769
31769
31944
31944
31944
31944
31922
31922
31922
31856
31856
31856
31987
31987
31987
31856
31856
31856
32009
32009
32009
32009
31922
31922
31922
31856
31856
31856
31878
31878
31878
31878
31878
31878
31922
31922
31922
31922
31965
31965
31965
31856
31856
31856
31900
31900
31900
31704
31704
31704
32031
32031
32031
32031
32009
32009
32009
31922
31922
31922
31987
31987
31987
31835
31835
31835
31944
31944
31944
31944
32161
32161
32161
31835
31835
31835
31878
31878
31878
31878
31878
31878
31944
31944
31944
31944
31987
31987
31987
31856
31856
31856
31944
31944
31944
31835
31835
31835
32074
32074
32074
32074
31965
31965
31965
31813
31813
31813
31944
31944
31944
31835
31835
31835
31878
31878
31878
31878
31878
31878
31878
31878
31878
31878
31900
31900
31900
31791
31791
31791
31922
31922
31922
31922
31922
31922
31922
31856
31856
31856
31965
31965
31965
31835
31835
31835
31965
31965
31965
31965
31878
31878
31878
31813
31813
31813
31900
31900
31900
31856
31856
31856
31944
31944
31944
31944
31900
31900
31900
31835
31835
31835
31944
31944
31944
32009
32009
32009
31944
31944
31944
31944
31922
31922
31922
31813
31813
31813
31944
31944
31944
31813
31813
31813
32031
32031
32031
32031
31944
31944
31944
31835
31835
31835
31878
31878
31878
31835
31835
31835
31922
31922
31922
31922
31944
31944
31944
31878
31878
31878
31922
31922
31922
31791
31791
31791
31944
31944
31944
31944
31922
31922
31922
31900
31900
31900
31922
31922
31922
31835
31835
31835
32074
32074
32074
32074
31922
31922
31922
31835
31835
31835
31944
31944
31944
31922
31922
31922
31987
31987
31987
31987
31944
31944
31944
31922
31922
31922
31922
31922
31922
31856
31856
31856
31922
31922
31922
31922
31922
31922
31922
31856
31856
31856
31944
31944
31944
31813
31813
31813
31987
31987
31987
31987
31900
31900
31900
31835
31835
31835
31944
31944
31944
31900
31900
31900
31944
31944
31944
31944
31900
31900
31900
31856
31856
31856
31878
31878
31878
31835
31835
31835
32052
32052
32052
32052
31965
31965
31965
31878
31878
31878
31987
31987
31987
32096
32096
32096
31900
31900
31900
31900
31835
31835
31835
31878
31878
31878
31987
31987
31987
31835
31835
31835
31944
31944
31944
31944
31922
31922
31922
31813
31813
31813
31987
31987
31987
31878
31878
31878
32096
32096
32096
32096
31769
31769
31769
31856
31856
31856
31944
31944
31944
31856
31856
31856
31965
31965
31965
31965
31900
31900
31900
31813
31813
31813
31878
31878
31878
31813
31813
31813
31922
31922
31922
31922
31900
31900
31900
31791
31791
31791
31987
31987
31987
31856
31856
31856
31900
31900
31900
31900
31965
31965
31965
31900
31900
31900
31922
31922
31922
31813
31813
31813
31965
31965
31965
31965
31922
31922
31922
31878
31878
31878
31944
31944
31944
31856
31856
31856
32052
32052
32052
32052
31835
31835
31835
31878
31878
31878
32096
32096
32096
31856
31856
31856
31944
31944
31944
31944
31922
31922
31922
31835
31835
31835
31944
31944
31944
31965
31965
31965
31900
31900
31900
31900
31987
31987
31987
31813
31813
31813
31900
31900
31900
31835
31835
31835
31944
31944
31944
31944
31922
31922
31922
31856
31856
31856
31922
31922
31922
31856
31856
31856
31987
31987
31987
31987
31900
31900
31900
31813
31813
31813
31987
31987
31987
31922
31922
31922
31900
31900
31900
31900
31944
31944
31944
31791
31791
31791
31922
31922
31922
31835
31835
31835
32031
32031
32031
32031
31987
31987
31987
31813
31813
31813
31922
31922
31922
31900
31900
31900
31965
31965
31965
31965
31922
31922
31922
31900
31900
31900
31900
31900
31900
31748
31748
31748
31922
31922
31922
31922
31987
31987
31987
31835
31835
31835
31965
31965
31965
31856
31856
31856
31922
31922
31922
31922
31900
31900
31900
31900
31900
31900
31965
31965
31965
31922
31922
31922
31922
31922
31922
31922
32009
32009
32009
32139
32139
32139
31922
31922
31922
31813
31813
31813
31922
31922
31922
31922
31922
31922
31922
31835
31835
31835
31900
31900
31900
31878
31878
31878
31944
31944
31944
31944
31900
31900
31900
31769
31769
31769
31944
31944
31944
31878
31878
31878
31900
31900
31900
31900
31944
31944
31944
31835
31835
31835
31922
31922
31922
31856
31856
31856
31965
31965
31965
31965
31791
31791
31791
31878
31878
31878
31965
31965
31965
31813
31813
31813
31856
31856
31856
31856
31944
31944
31944
31856
31856
31856
31944
31944
31944
31791
31791
31791
31922
31922
31922
31922
31900
31900
31900
31900
31900
31900
31987
31987
31987
31878
31878
31878
31987
31987
31987
31987
31922
31922
31922
31791
31791
31791
31944
31944
31944
31791
31791
31791
31965
31965
31965
31965
32031
32031
32031
31878
31878
31878
31900
31900
31900
31813
31813
31813
31856
31856
31856
31856
31900
31900
31900
31878
31878
31878
32031
32031
32031
31813
31813
31813
31944
31944
31944
31944
31987
31987
31987
31878
31878
31878
31965
31965
31965
31856
31856
31856
31944
31944
31944
31944
31878
31878
31878
31900
31900
31900
31878
31878
31878
31813
31813
31813
31878
31878
31878
31878
31922
31922
31922
31878
31878
31878
32031
32031
32031
31835
31835
31835
31922
31922
31922
31922
31856
31856
31856
31835
31835
31835
31965
31965
31965
31944
31944
31944
31900
31900
31900
31900
32009
32009
32009
31856
31856
31856
31922
31922
31922
31791
31791
31791
31835
31835
31835
31835
31856
31856
31856
31835
31835
31835
31922
31922
31922
31835
31835
31835
31922
31922
31922
31922
31900
31900
31900
31900
31900
31900
31944
31944
31944
31856
31856
31856
31965
31965
31965
31965
31922
31922
31922
31856
31856
31856
31944
31944
31944
31900
31900
31900
31987
31987
31987
31987
31900
31900
31900
31835
31835
31835
31944
31944
31944
31878
31878
31878
31900
31900
31900
31900
31965
31965
31965
31922
31922
31922
31922
31922
31922
31856
31856
31856
31922
31922
31922
31922
31944
31944
31944
31878
31878
31878
31965
31965
31965
31878
31878
31878
31878
31878
31878
31878
31878
31878
31878
31878
31878
31878
31965
31965
31965
31748
31748
31748
31922
31922
31922
31922
31922
31922
31922
31900
31900
31900
31922
31922
31922
31856
31856
31856
31987
31987
31987
31987
31900
31900
31900
31813
31813
31813
31965
31965
31965
31835
31835
31835
31987
31987
31987
31987
31987
31987
31987
31813
31813
31813
31878
31878
31878
31965
31965
31965
32009
32009
32009
32009
31965
31965
31965
31878
31878
31878
31878
31878
31878
31856
31856
31856
31878
31878
31878
31878
31835
31835
31835
31922
31922
31922
31900
31900
31900
31835
31835
31835
31922
31922
31922
31922
31900
31900
31900
31835
31835
31835
31944
31944
31944
31835
31835
31835
31900
31900
31900
31900
31944
31944
31944
31835
31835
31835
31922
31922
31922
31835
31835
31835
31878
31878
31878
31878
31900
31900
31900
31791
31791
31791
31965
31965
31965
31856
31856
31856
31922
31922
31922
31922
31922
31922
31922
31769
31769
31769
31944
31944
31944
31922
31922
31922
31900
31900
31900
31900
31856
31856
31856
31835
31835
31835
31835
31835
31835
31878
31878
31878
31922
31922
31922
31922
31835
31835
31835
31878
31878
31878
31944
31944
31944
31835
31835
31835
31922
31922
31922
31922
31987
31987
31987
31791
31791
31791
31900
31900
31900
31813
31813
31813
31965
31965
31965
31965
31922
31922
31922
31856
31856
31856
31900
31900
31900
31878
31878
31878
31944
31944
31944
31944
31922
31922
31922
31835
31835
31835
31944
31944
31944
31878
31878
31878
31856
31856
31856
31856
31987
31987
31987
31878
31878
31878
31944
31944
31944
31835
31835
31835
31944
31944
31944
31944
31922
31922
31922
31835
31835
31835
31965
31965
31965
31835
31835
31835
32052
32052
32052
32052
31922
31922
31922
31813
31813
31813
31878
31878
31878
31748
31748
31748
31922
31922
31922
31922
31922
31922
31922
31856
31856
31856
31878
31878
31878
31813
31813
31813
31944
31944
31944
31944
31922
31922
31922
31813
31813
31813
31944
31944
31944
31813
31813
31813
31944
31944
31944
31944
31944
31944
31944
31769
31769
31769
31856
31856
31856
31878
31878
31878
31944
31944
31944
31944
31900
31900
31900
31769
31769
31769
32009
32009
32009
31856
31856
31856
32074
32074
32074
32074
31878
31878
31878
31878
31878
31878
32009
32009
32009
31878
31878
31878
31944
31944
31944
31944
31900
31900
31900
31769
31769
31769
31878
31878
31878
31835
31835
31835
31900
31900
31900
31900
31878
31878
31878
31813
31813
31813
31965
31965
31965
31856
31856
31856
31944
31944
31944
31944
31878
31878
31878
31813
31813
31813
31922
31922
31922
31835
31835
31835
31900
31900
31900
31900
31856
31856
31856
31835
31835
31835
31965
31965
31965
31813
31813
31813
31922
31922
31922
31922
31900
31900
31900
31835
31835
31835
31922
31922
31922
31856
31856
31856
32009
32009
32009
32009
31944
31944
31944
31878
31878
31878
31987
31987
31987
31791
31791
31791
31922
31922
31922
31922
31900
31900
31900
31856
31856
31856
31944
31944
31944
31878
31878
31878
31900
31900
31900
31900
31944
31944
31944
31878
31878
31878
31878
31878
31878
31856
31856
31856
31922
31922
31922
31922
31922
31922
31922
31965
31965
31965
31878
31878
31878
31835
31835
31835
31965
31965
31965
31965
31944
31944
31944
31856
31856
31856
31922
31922
31922
31835
31835
31835
32031
32031
32031
32031
31900
31900
31900
31856
31856
31856
31944
31944
31944
31813
31813
31813
31922
31922
31922
31922
31944
31944
31944
31878
31878
31878
31922
31922
31922
31813
31813
31813
31965
31965
31965
31965
31900
31900
31900
31813
31813
31813
31856
31856
31856
31769
31769
31769
31922
31922
31922
31922
31922
31922
31922
31900
31900
31900
31965
31965
31965
31835
31835
31835
31878
31878
31878
31878
31944
31944
31944
31835
31835
31835
31987
31987
31987
31835
31835
31835
31965
31965
31965
31965
31900
31900
31900
31769
31769
31769
31791
31791
31791
31856
31856
31856
31922
31922
31922
31922
32031
32031
32031
31922
31922
31922
31922
31922
31922
31878
31878
31878
31965
31965
31965
31965
31922
31922
31922
31856
31856
31856
31922
31922
31922
31813
31813
31813
31944
31944
31944
31944
31987
31987
31987
31878
31878
31878
31965
31965
31965
31856
31856
31856
31944
31944
31944
31944
31944
31944
31944
31791
31791
31791
31965
31965
31965
31856
31856
31856
31922
31922
31922
31922
31900
31900
31900
31878
31878
31878
31900
31900
31900
31835
31835
31835
32052
32052
32052
32052
31944
31944
31944
31835
31835
31835
31965
31965
31965
31878
31878
31878
31944
31944
31944
31944
31922
31922
31922
31813
31813
31813
31965
31965
31965
31922
31922
31922
31922
31922
31922
31922
31944
31944
31944
32118
32118
32118
31944
31944
31944
31856
31856
31856
32009
32009
32009
32009
31900
31900
31900
31856
31856
31856
31965
31965
31965
31922
31922
31922
31900
31900
31900
31900
31922
31922
31922
31878
31878
31878
31922
31922
31922
31813
31813
31813
32031
32031
32031
32031
31987
31987
31987
31878
31878
31878
31922
31922
31922
31878
31878
31878
31878
31878
31878
31878
31900
31900
31900
31878
31878
31878
31965
31965
31965
31726
31726
31726
31944
31944
31944
31944
31944
31944
31944
31878
31878
31878
31944
31944
31944
31813
31813
31813
31922
31922
31922
31922
32096
32096
32096
31944
31944
31944
31856
31856
31856
31900
31900
31900
31965
31965
31965
31965
31922
31922
31922
31835
31835
31835
31900
31900
31900
31682
31682
31682
31944
31944
31944
31944
31878
31878
31878
31835
31835
31835
32052
32052
32052
31856
31856
31856
31856
31856
31856
31856
31748
31748
31748
31856
31856
31856
31856
31856
31856
31791
31791
31791
31878
31878
31878
31878
31900
31900
31900
31813
31813
31813
31922
31922
31922
31835
31835
31835
31944
31944
31944
31944
31900
31900
31900
31813
31813
31813
32009
32009
32009
31856
31856
31856
31922
31922
31922
31922
31944
31944
31944
31900
31900
31900
31922
31922
31922
31900
31900
31900
31965
31965
31965
31965
31900
31900
31900
32074
32074
32074
31944
31944
31944
31835
31835
31835
31965
31965
31965
31965
31922
31922
31922
31878
31878
31878
31878
31878
31878
31835
31835
31835
31922
31922
31922
31922
31900
31900
31900
31835
31835
31835
31965
31965
31965
31748
31748
31748
31944
31944
31944
31944
31922
31922
31922
31769
31769
31769
31900
31900
31900
31856
31856
31856
31900
31900
31900
31900
32031
32031
32031
31856
31856
31856
31791
31791
31791
31900
31900
31900
31922
31922
31922
31922
31944
31944
31944
31856
31856
31856
31944
31944
31944
31748
31748
31748
31944
31944
31944
31944
31944
31944
31944
31835
31835
31835
31987
31987
31987
31813
31813
31813
31965
31965
31965
31965
31878
31878
31878
31900
31900
31900
31922
31922
31922
31835
31835
31835
31900
31900
31900
31900
31965
31965
31965
31878
31878
31878
31878
31878
31878
31813
31813
31813
31922
31922
31922
31922
31944
31944
31944
31835
31835
31835
31900
31900
31900
31878
31878
31878
31965
31965
31965
31965
31987
31987
31987
31835
31835
31835
31965
31965
31965
31900
31900
31900
31944
31944
31944
31944
31900
31900
31900
31922
31922
31922
31944
31944
31944
31791
31791
31791
31944
31944
31944
31944
31922
31922
31922
31900
31900
31900
31878
31878
31878
31856
31856
31856
32074
32074
32074
32074
31900
31900
31900
31835
31835
31835
31944
31944
31944
31900
31900
31900
31987
31987
31987
31987
31965
31965
31965
31813
31813
31813
31944
31944
31944
31922
31922
31922
31922
31922
31922
31922
32052
32052
32052
31791
31791
31791
31878
31878
31878
31791
31791
31791
31987
31987
31987
31987
31965
31965
31965
31748
31748
31748
31965
31965
31965
31813
31813
31813
31900
31900
31900
31900
31944
31944
31944
31835
31835
31835
31965
31965
31965
31856
31856
31856
31900
31900
31900
31900
31900
31900
31900
31813
31813
31813
31900
31900
31900
31835
31835
31835
31748
31748
31748
31748
31878
31878
31878
31748
31748
31748
31922
31922
31922
31856
31856
31856
31922
31922
31922
31922
31922
31922
31922
31813
31813
31813
31922
31922
31922
31835
31835
31835
31965
31965
31965
31965
32009
32009
32009
31835
31835
31835
31856
31856
31856
31900
31900
31900
31944
31944
31944
31944
31922
31922
31922
31791
31791
31791
31944
31944
31944
31835
31835
31835
31900
31900
31900
31900
31878
31878
31878
31856
31856
31856
31922
31922
31922
31900
31900
31900
32052
32052
32052
32052
31748
31748
31748
31856
31856
31856
31900
31900
31900
31856
31856
31856
31944
31944
31944
31944
31922
31922
31922
31791
31791
31791
31944
31944
31944
31791
31791
31791
31944
31944
31944
31944
31944
31944
31944
31856
31856
31856
31965
31965
31965
31835
31835
31835
31922
31922
31922
31922
31922
31922
31922
31856
31856
31856
31944
31944
31944
31878
31878
31878
31922
31922
31922
31922
31987
31987
31987
31922
31922
31922
31922
31922
31922
31878
31878
31878
31878
31878
31878
31878
31944
31944
31944
31791
31791
31791
31944
31944
31944
31835
31835
31835
31900
31900
31900
31900
31922
31922
31922
31878
31878
31878
31900
31900
31900
31748
31748
31748
31856
31856
31856
31856
31900
31900
31900
31922
31922
31922
31965
31965
31965
31813
31813
31813
32139
32139
32139
32139
31835
31835
31835
31835
31835
31835
32009
32009
32009
31856
31856
31856
31987
31987
31987
31987
31965
31965
31965
31900
31900
31900
31900
31900
31900
31617
31617
31617
31835
31835
31835
31835
31922
31922
31922
31900
31900
31900
32031
32031
32031
31922
31922
31922
31965
31965
31965
31965
31965
31965
31965
31922
31922
31922
31922
31922
31922
31900
31900
31900
31878
31878
31878
31878
31900
31900
31900
31878
31878
31878
31965
31965
31965
31856
31856
31856
31944
31944
31944
31944
31987
31987
31987
31856
31856
31856
31878
31878
31878
31856
31856
31856
31878
31878
31878
31878
32009
32009
32009
31856
31856
31856
31922
31922
31922
31900
31900
31900
31944
31944
31944
31944
31944
31944
31944
31813
31813
31813
31922
31922
31922
31922
31922
31922
31900
31900
31900
31900
31944
31944
31944
31856
31856
31856
31944
31944
31944
31835
31835
31835
31922
31922
31922
31922
31922
31922
31922
31813
31813
31813
31900
31900
31900
31856
31856
31856
31900
31900
31900
31900
31922
31922
31922
31856
31856
31856
31878
31878
31878
31856
31856
31856
31878
31878
31878
31878
31856
31856
31856
31856
31856
31856
31726
31726
31726
31878
31878
31878
31965
31965
31965
31965
31922
31922
31922
31900
31900
31900
31922
31922
31922
31813
31813
31813
31900
31900
31900
31900
31878
31878
31878
31813
31813
31813
31922
31922
31922
31835
31835
31835
31791
31791
31791
31791
31813
31813
31813
31878
31878
31878
31922
31922
31922
31922
31922
31922
31856
31856
31856
31856
31900
31900
31900
31856
31856
31856
31965
31965
31965
31856
31856
31856
31900
31900
31900
31900
31944
31944
31944
31856
31856
31856
32009
32009
32009
31791
31791
31791
31965
31965
31965
31965
32074
32074
32074
31856
31856
31856
31922
31922
31922
31813
31813
31813
31987
31987
31987
31987
31922
31922
31922
31878
31878
31878
31856
31856
31856
31704
31704
31704
31944
31944
31944
31944
31900
31900
31900
31813
31813
31813
31944
31944
31944
31900
31900
31900
32009
32009
32009
32009
32074
32074
32074
31813
31813
31813
31856
31856
31856
31900
31900
31900
31944
31944
31944
31944
31900
31900
31900
31922
31922
31922
31856
31856
31856
31878
31878
31878
31922
31922
31922
31922
32009
32009
32009
31813
31813
31813
31965
31965
31965
31835
31835
31835
31965
31965
31965
31965
31965
31965
31965
31769
31769
31769
31922
31922
31922
31856
31856
31856
31987
31987
31987
31987
32009
32009
32009
31791
31791
31791
31922
31922
31922
31835
31835
31835
31965
31965
31965
31965
31835
31835
31835
31769
31769
31769
32009
32009
32009
31856
31856
31856
31944
31944
31944
31944
31922
31922
31922
31900
31900
31900
31944
31944
31944
31835
31835
31835
31900
31900
31900
31900
31965
31965
31965
31835
31835
31835
31922
31922
31922
31878
31878
31878
32009
32009
32009
32009
31900
31900
31900
31878
31878
31878
31987
31987
31987
31856
31856
31856
31965
31965
31965
31965
31944
31944
31944
31791
31791
31791
31922
31922
31922
31878
31878
31878
31922
31922
31922
31922
31965
31965
31965
31835
31835
31835
31944
31944
31944
31835
31835
31835
31856
31856
31856
31856
32096
32096
32096
31813
31813
31813
31944
31944
31944
31835
31835
31835
31944
31944
31944
31944
31900
31900
31900
31813
31813
31813
31965
31965
31965
31878
31878
31878
31944
31944
31944
31944
31900
31900
31900
31856
31856
31856
31878
31878
31878
31813
31813
31813
32009
32009
32009
32009
31987
31987
31987
31856
31856
31856
31922
31922
31922
31878
31878
31878
31922
31922
31922
31922
31900
31900
31900
31900
31900
31900
31835
31835
31835
31769
31769
31769
32074
32074
32074
32074
31835
31835
31835
31922
31922
31922
31944
31944
31944
31813
31813
31813
31944
31944
31944
31944
31922
31922
31922
31878
31878
31878
31965
31965
31965
31769
31769
31769
31944
31944
31944
31944
32031
32031
32031
31900
31900
31900
31944
31944
31944
31835
31835
31835
31965
31965
31965
31965
31900
31900
31900
31835
31835
31835
31922
31922
31922
31878
31878
31878
31944
31944
31944
31944
31900
31900
31900
31900
31900
31900
31878
31878
31878
31856
31856
31856
31944
31944
31944
31944
31835
31835
31835
31813
31813
31813
31922
31922
31922
31878
31878
31878
31922
31922
31922
31922
31878
31878
31878
31813
31813
31813
31965
31965
31965
31813
31813
31813
31922
31922
31922
31922
31922
31922
31922
31748
31748
31748
31922
31922
31922
31856
31856
31856
31987
31987
31987
31987
32009
32009
32009
31856
31856
31856
31856
31856
31856
31878
31878
31878
31944
31944
31944
31944
31944
31944
31944
31965
31965
31965
31922
31922
31922
31704
31704
31704
31965
31965
31965
31965
31965
31965
31965
31856
31856
31856
31900
31900
31900
31769
31769
31769
31878
31878
31878
31878
31813
31813
31813
31878
31878
31878
31965
31965
31965
31856
31856
31856
31965
31965
31965
31965
31944
31944
31944
31878
31878
31878
31922
31922
31922
31813
31813
31813
31965
31965
31965
31965
31944
31944
31944
31900
31900
31900
32009
32009
32009
31856
31856
31856
31965
31965
31965
31965
31944
31944
31944
31878
31878
31878
31900
31900
31900
31878
31878
31878
31987
31987
31987
31987
31922
31922
31922
31878
31878
31878
31944
31944
31944
31769
31769
31769
31813
31813
31813
31813
31900
31900
31900
31900
31900
31900
31900
31900
31900
31661
31661
31661
31878
31878
31878
31878
31944
31944
31944
31856
31856
31856
31965
31965
31965
31748
31748
31748
31922
31922
31922
31922
31922
31922
31922
31878
31878
31878
31922
31922
31922
31900
31900
31900
31922
31922
31922
31922
32074
32074
32074
31922
31922
31922
31944
31944
31944
31835
31835
31835
31965
31965
31965
31965
31965
31965
31965
31856
31856
31856
31944
31944
31944
31878
31878
31878
31965
31965
31965
31965
31965
31965
31965
31900
31900
31900
31922
31922
31922
31813
31813
31813
31965
31965
31965
31965
31900
31900
31900
31856
31856
31856
31900
31900
31900
31748
31748
31748
31944
31944
31944
31944
31900
31900
31900
31922
31922
31922
31922
31922
31922
31835
31835
31835
31922
31922
31922
31922
31987
31987
31987
31856
31856
31856
31944
31944
31944
31878
31878
31878
31944
31944
31944
31944
31922
31922
31922
31835
31835
31835
31922
31922
31922
32052
32052
32052
31944
31944
31944
31944
31922
31922
31922
31835
31835
31835
31965
31965
31965
31856
31856
31856
31965
31965
31965
31965
31965
31965
31965
31856
31856
31856
31944
31944
31944
31813
31813
31813
31944
31944
31944
31944
31922
31922
31922
32139
32139
32139
31922
31922
31922
31835
31835
31835
31944
31944
31944
31944
31922
31922
31922
31791
31791
31791
31813
31813
31813
31878
31878
31878
31922
31922
31922
31922
31922
31922
31922
31769
31769
31769
31900
31900
31900
31856
31856
31856
31965
31965
31965
31965
32052
32052
32052
31791
31791
31791
31856
31856
31856
31748
31748
31748
31944
31944
31944
31944
32009
32009
32009
31900
31900
31900
31878
31878
31878
31835
31835
31835
31878
31878
31878
31878
31987
31987
31987
31856
31856
31856
31922
31922
31922
31813
31813
31813
31944
31944
31944
31944
31856
31856
31856
31835
31835
31835
31856
31856
31856
31856
31856
31856
32009
32009
32009
32009
31944
31944
31944
31878
31878
31878
31944
31944
31944
31878
31878
31878
31922
31922
31922
31922
31965
31965
31965
31922
31922
31922
31965
31965
31965
31856
31856
31856
31900
31900
31900
31900
31922
31922
31922
31856
31856
31856
31965
31965
31965
31835
31835
31835
31944
31944
31944
31944
31965
31965
31965
31878
31878
31878
31965
31965
31965
31835
31835
31835
31965
31965
31965
31965
31900
31900
31900
31856
31856
31856
31878
31878
31878
31835
31835
31835
32009
32009
32009
32009
31987
31987
31987
31813
31813
31813
32031
32031
32031
31835
31835
31835
31900
31900
31900
31900
31878
31878
31878
31965
31965
31965
31965
31965
31965
31835
31835
31835
31922
31922
31922
31922
31965
31965
31965
31813
31813
31813
31922
31922
31922
31878
31878
31878
31835
31835
31835
31835
31900
31900
31900
31835
31835
31835
31965
31965
31965
31922
31922
31922
31965
31965
31965
31965
31922
31922
31922
31856
31856
31856
31987
31987
31987
31835
31835
31835
31922
31922
31922
31922
31878
31878
31878
31878
31878
31878
31987
31987
31987
31922
31922
31922
31922
31922
31922
31922
31900
31900
31900
31965
31965
31965
31944
31944
31944
31726
31726
31726
31965
31965
31965
31965
31878
31878
31878
31835
31835
31835
31944
31944
31944
31878
31878
31878
31922
31922
31922
31922
32118
32118
32118
31835
31835
31835
31922
31922
31922
31813
31813
31813
31944
31944
31944
31944
31922
31922
31922
31769
31769
31769
31922
31922
31922
31769
31769
31769
31900
31900
31900
31900
31922
31922
31922
31813
31813
31813
31965
31965
31965
31878
31878
31878
31878
31878
31878
31878
31900
31900
31900
31835
31835
31835
31944
31944
31944
31856
31856
31856
31965
31965
31965
31965
31900
31900
31900
31835
31835
31835
31922
31922
31922
31856
31856
31856
31922
31922
31922
31922
31965
31965
31965
31835
31835
31835
31987
31987
31987
31878
31878
31878
31922
31922
31922
31922
31922
31922
31922
31878
31878
31878
31922
31922
31922
31813
31813
31813
31965
31965
31965
31965
31900
31900
31900
31769
31769
31769
31944
31944
31944
31856
31856
31856
32074
32074
32074
32074
32009
32009
32009
31813
31813
31813
31813
31813
31813
31856
31856
31856
31965
31965
31965
31965
31900
31900
31900
31878
31878
31878
31878
31878
31878
31900
31900
31900
31987
31987
31987
31987
31900
31900
31900
31856
31856
31856
31900
31900
31900
31835
31835
31835
31835
31835
31835
31835
31965
31965
31965
31856
31856
31856
31965
31965
31965
31835
31835
31835
31965
31965
31965
31965
31944
31944
31944
31878
31878
31878
31900
31900
31900
31856
31856
31856
31944
31944
31944
31944
31944
31944
31944
31878
31878
31878
31922
31922
31922
31856
31856
31856
31922
31922
31922
31922
31965
31965
31965
31856
31856
31856
31987
31987
31987
31835
31835
31835
31922
31922
31922
31922
31944
31944
31944
31856
31856
31856
31965
31965
31965
31878
31878
31878
31922
31922
31922
31922
31922
31922
31922
31922
31922
31922
32031
32031
32031
31835
31835
31835
31965
31965
31965
31965
31922
31922
31922
31900
31900
31900
31944
31944
31944
31922
31922
31922
31965
31965
31965
31965
31900
31900
31900
31856
31856
31856
31900
31900
31900
31900
31900
31900
31944
31944
31944
31944
31944
31944
31944
31791
31791
31791
31944
31944
31944
31900
31900
31900
31965
31965
31965
31965
31965
31965
31965
31856
31856
31856
31944
31944
31944
31813
31813
31813
31878
31878
31878
31878
31965
31965
31965
31878
31878
31878
31987
31987
31987
31835
31835
31835
31987
31987
31987
31987
31856
31856
31856
31835
31835
31835
31987
31987
31987
31748
31748
31748
31922
31922
31922
31922
31987
31987
31987
31813
31813
31813
31965
31965
31965
31922
31922
31922
31922
31922
31922
31922
31900
31900
31900
31791
31791
31791
31987
31987
31987
31813
31813
31813
31922
31922
31922
31922
31922
31922
31922
31726
31726
31726
31856
31856
31856
31835
31835
31835
31987
31987
31987
31987
31944
31944
31944
31748
31748
31748
32009
32009
32009
31878
31878
31878
31987
31987
31987
31987
31835
31835
31835
31835
31835
31835
32031
32031
32031
31856
31856
31856
31944
31944
31944
31944
31878
31878
31878
31878
31878
31878
31900
31900
31900
31856
31856
31856
31944
31944
31944
31944
31878
31878
31878
31791
31791
31791
31900
31900
31900
31878
31878
31878
31878
31878
31878
31878
31856
31856
31856
31835
31835
31835
31944
31944
31944
31856
31856
31856
31900
31900
31900
31900
31987
31987
31987
31900
31900
31900
31922
31922
31922
31813
31813
31813
31987
31987
31987
31987
31987
31987
31987
31878
31878
31878
31965
31965
31965
31813
31813
31813
31944
31944
31944
31944
31987
31987
31987
31835
31835
31835
31987
31987
31987
31813
31813
31813
31922
31922
31922
31922
31944
31944
31944
31922
31922
31922
31944
31944
31944
31878
31878
31878
31922
31922
31922
31922
31965
31965
31965
31835
31835
31835
31922
31922
31922
31856
31856
31856
31835
31835
31835
31835
31922
31922
31922
31835
31835
31835
31944
31944
31944
31878
31878
31878
31900
31900
31900
31900
31944
31944
31944
31878
31878
31878
31922
31922
31922
31900
31900
31900
31878
31878
31878
31878
31922
31922
31922
31878
31878
31878
31987
31987
31987
32009
32009
32009
31922
31922
31922
31922
31944
31944
31944
31813
31813
31813
31965
31965
31965
31748
31748
31748
31900
31900
31900
31900
31922
31922
31922
31900
31900
31900
31965
31965
31965
31856
31856
31856
31965
31965
31965
31965
31944
31944
31944
31922
31922
31922
31944
31944
31944
31900
31900
31900
31922
31922
31922
31922
31900
31900
31900
31813
31813
31813
31922
31922
31922
31726
31726
31726
31922
31922
31922
31922
31965
31965
31965
31878
31878
31878
31878
31878
31878
31878
31878
31878
31900
31900
31900
31900
31965
31965
31965
31856
31856
31856
31878
31878
31878
31791
31791
31791
31922
31922
31922
31922
32031
32031
32031
31813
31813
31813
31944
31944
31944
31900
31900
31900
31944
31944
31944
31944
31987
31987
31987
31813
31813
31813
31922
31922
31922
31900
31900
31900
32009
32009
32009
32009
31791
31791
31791
31922
31922
31922
32118
32118
32118
31856
31856
31856
31965
31965
31965
31965
31878
31878
31878
31813
31813
31813
31922
31922
31922
31726
31726
31726
31944
31944
31944
31944
31922
31922
31922
31900
31900
31900
31922
31922
31922
31835
31835
31835
31835
31835
31835
31835
31922
31922
31922
31856
31856
31856
31987
31987
31987
31813
31813
31813
31900
31900
31900
31900
31944
31944
31944
31878
31878
31878
31922
31922
31922
31856
31856
31856
31922
31922
31922
31922
31965
31965
31965
31878
31878
31878
31987
31987
31987
31835
31835
31835
31922
31922
31922
31922
31900
31900
31900
31813
31813
31813
31922
31922
31922
31835
31835
31835
31944
31944
31944
31944
31900
31900
31900
31813
31813
31813
31922
31922
31922
31878
31878
31878
31900
31900
31900
31900
31900
31900
31900
31813
31813
31813
31922
31922
31922
31856
31856
31856
32074
32074
32074
32074
31922
31922
31922
31878
31878
31878
31987
31987
31987
31813
31813
31813
31987
31987
31987
31987
31944
31944
31944
31661
31661
31661
31900
31900
31900
31835
31835
31835
31878
31878
31878
31878
31944
31944
31944
31856
31856
31856
31900
31900
31900
31878
31878
31878
31900
31900
31900
31900
31944
31944
31944
31856
31856
31856
31944
31944
31944
31835
31835
31835
31944
31944
31944
31944
31922
31922
31922
31769
31769
31769
31878
31878
31878
31878
31878
31878
32031
32031
32031
32031
31965
31965
31965
31878
31878
31878
32074
32074
32074
31791
31791
31791
31965
31965
31965
31965
31965
31965
31965
31878
31878
31878
31900
31900
31900
31856
31856
31856
32052
32052
32052
32052
31965
31965
31965
31900
31900
31900
31922
31922
31922
31835
31835
31835
31813
31813
31813
31813
31965
31965
31965
31944
31944
31944
31900
31900
31900
31878
31878
31878
31944
31944
31944
31944
31987
31987
31987
31856
31856
31856
31856
31856
31856
31965
31965
31965
31878
31878
31878
31878
31987
31987
31987
31813
31813
31813
31900
31900
31900
31835
31835
31835
31856
31856
31856
31856
32074
32074
32074
31835
31835
31835
31987
31987
31987
31835
31835
31835
31944
31944
31944
31944
31922
31922
31922
31748
31748
31748
31987
31987
31987
31835
31835
31835
31987
31987
31987
31987
31922
31922
31922
31856
31856
31856
31987
31987
31987
31835
31835
31835
31900
31900
31900
31900
31900
31900
31900
31835
31835
31835
31965
31965
31965
31769
31769
31769
31965
31965
31965
31965
31900
31900
31900
31878
31878
31878
31944
31944
31944
31878
31878
31878
31922
31922
31922
31922
31965
31965
31965
31835
31835
31835
31922
31922
31922
31835
31835
31835
31965
31965
31965
31965
31922
31922
31922
31835
31835
31835
31922
31922
31922
31900
31900
31900
31965
31965
31965
31965
31944
31944
31944
31878
31878
31878
31922
31922
31922
31856
31856
31856
31900
31900
31900
31900
31987
31987
31987
31878
31878
31878
31944
31944
31944
31878
31878
31878
31987
31987
31987
31987
31944
31944
31944
31856
31856
31856
31965
31965
31965
31878
31878
31878
31944
31944
31944
31944
31922
31922
31922
31900
31900
31900
31878
31878
31878
31922
31922
31922
31856
31856
31856
31856
31944
31944
31944
31856
31856
31856
31922
31922
31922
31856
31856
31856
32009
32009
32009
32009
31965
31965
31965
31856
31856
31856
31900
31900
31900
31944
31944
31944
31965
31965
31965
31965
32031
32031
32031
31900
31900
31900
31922
31922
31922
31813
31813
31813
31922
31922
31922
31922
31987
31987
31987
31769
31769
31769
31922
31922
31922
31726
31726
31726
31922
31922
31922
31922
31965
31965
31965
31987
31987
31987
32009
32009
32009
31791
31791
31791
31944
31944
31944
31944
32009
32009
32009
31835
31835
31835
31965
31965
31965
31835
31835
31835
31965
31965
31965
31965
31944
31944
31944
31922
31922
31922
31944
31944
31944
31813
31813
31813
31965
31965
31965
31965
32074
32074
32074
31878
31878
31878
31944
31944
31944
31900
31900
31900
31944
31944
31944
31944
31878
31878
31878
31835
31835
31835
31922
31922
31922
31856
31856
31856
31965
31965
31965
31965
31922
31922
31922
31900
31900
31900
31965
31965
31965
31835
31835
31835
31965
31965
31965
31965
31922
31922
31922
31856
31856
31856
31900
31900
31900
31856
31856
31856
31944
31944
31944
31944
31944
31944
31944
31856
31856
31856
31922
31922
31922
31856
31856
31856
31900
31900
31900
31900
31965
31965
31965
31878
31878
31878
31965
31965
31965
31878
31878
31878
31922
31922
31922
31922
31900
31900
31900
31856
31856
31856
31965
31965
31965
31835
31835
31835
32009
32009
32009
32009
31965
31965
31965
31900
31900
31900
31965
31965
31965
31748
31748
31748
31922
31922
31922
31922
31922
31922
31922
31878
31878
31878
31900
31900
31900
31856
31856
31856
31748
31748
31748
31748
31965
31965
31965
31856
31856
31856
31987
31987
31987
31748
31748
31748
31944
31944
31944
31944
31922
31922
31922
31856
31856
31856
31965
31965
31965
31769
31769
31769
31965
31965
31965
31965
31944
31944
31944
31900
31900
31900
31878
31878
31878
31944
31944
31944
31922
31922
31922
31922
31965
31965
31965
31835
31835
31835
31965
31965
31965
31922
31922
31922
31922
31922
31922
31922
31900
31900
31900
31835
31835
31835
32009
32009
32009
31726
31726
31726
31944
31944
31944
31944
31944
31944
31944
31835
31835
31835
31922
31922
31922
31922
31922
31922
31900
31900
31900
31900
31748
31748
31748
31900
31900
31900
31922
31922
31922
31791
31791
31791
31944
31944
31944
31944
31900
31900
31900
31682
31682
31682
31900
31900
31900
31835
31835
31835
31922
31922
31922
31922
31944
31944
31944
31835
31835
31835
31965
31965
31965
31813
31813
31813
32031
32031
32031
32031
31748
31748
31748
31791
31791
31791
31944
31944
31944
31835
31835
31835
31944
31944
31944
31944
31900
31900
31900
31856
31856
31856
31944
31944
31944
31987
31987
31987
31944
31944
31944
31944
31878
31878
31878
31878
31878
31878
31965
31965
31965
31878
31878
31878
31856
31856
31856
31856
31922
31922
31922
31900
31900
31900
31944
31944
31944
31965
31965
31965
31922
31922
31922
31922
31900
31900
31900
31791
31791
31791
31944
31944
31944
31900
31900
31900
31878
31878
31878
31878
31900
31900
31900
31900
31900
31900
32009
32009
32009
31835
31835
31835
31900
31900
31900
31900
31944
31944
31944
31791
31791
31791
31965
31965
31965
31813
31813
31813
31965
31965
31965
31965
31878
31878
31878
31813
31813
31813
31965
31965
31965
31835
31835
31835
31944
31944
31944
31944
31900
31900
31900
31856
31856
31856
31878
31878
31878
31835
31835
31835
32031
32031
32031
32031
31944
31944
31944
31835
31835
31835
31944
31944
31944
31791
31791
31791
31922
31922
31922
31922
31878
31878
31878
31900
31900
31900
31922
31922
31922
31856
31856
31856
32009
32009
32009
32009
31987
31987
31987
31835
31835
31835
31878
31878
31878
31856
31856
31856
32009
32009
32009
32009
31987
31987
31987
31922
31922
31922
31965
31965
31965
31922
31922
31922
31944
31944
31944
31944
31987
31987
31987
31813
31813
31813
32009
32009
32009
31878
31878
31878
31944
31944
31944
31944
31965
31965
31965
31813
31813
31813
31856
31856
31856
31922
31922
31922
31965
31965
31965
31965
31900
31900
31900
31856
31856
31856
32009
32009
32009
31878
31878
31878
31965
31965
31965
31965
31965
31965
31965
31878
31878
31878
31878
31878
31878
31900
31900
31900
32009
32009
32009
32009
31856
31856
31856
31878
31878
31878
31987
31987
31987
31835
31835
31835
31944
31944
31944
31944
31922
31922
31922
31856
31856
31856
31922
31922
31922
31878
31878
31878
31878
31878
31878
31878
32031
32031
32031
31856
31856
31856
31922
31922
31922
31856
31856
31856
32031
32031
32031
32031
31944
31944
31944
32139
32139
32139
31944
31944
31944
31878
31878
31878
31965
31965
31965
31965
31944
31944
31944
31900
31900
31900
31965
31965
31965
31835
31835
31835
31987
31987
31987
31987
31922
31922
31922
31813
31813
31813
32118
32118
32118
31791
31791
31791
31922
31922
31922
31922
31922
31922
31922
31791
31791
31791
31987
31987
31987
31900
31900
31900
31965
31965
31965
31965
31944
31944
31944
31856
31856
31856
32009
32009
32009
31878
31878
31878
31922
31922
31922
31922
31922
31922
31922
31856
31856
31856
31922
31922
31922
31878
31878
31878
31835
31835
31835
31835
31965
31965
31965
31856
31856
31856
31944
31944
31944
31878
31878
31878
31944
31944
31944
31944
31987
31987
31987
31835
31835
31835
31965
31965
31965
31791
31791
31791
31987
31987
31987
31987
31856
31856
31856
31878
31878
31878
32161
32161
32161
31813
31813
31813
31944
31944
31944
31944
31922
31922
31922
31856
31856
31856
31900
31900
31900
31856
31856
31856
31987
31987
31987
31987
31965
31965
31965
31835
31835
31835
31965
31965
31965
31878
31878
31878
31987
31987
31987
31987
31878
31878
31878
31813
31813
31813
32183
32183
32183
31813
31813
31813
31878
31878
31878
31878
31944
31944
31944
31878
31878
31878
31922
31922
31922
31922
31922
31922
31900
31900
31900
31900
31922
31922
31922
31878
31878
31878
31965
31965
31965
31856
31856
31856
32009
32009
32009
32009
31878
31878
31878
31769
31769
31769
32052
32052
32052
31922
31922
31922
31965
31965
31965
31965
31878
31878
31878
31922
31922
31922
31965
31965
31965
31726
31726
31726
31922
31922
31922
31922
31900
31900
31900
31856
31856
31856
31965
31965
31965
31835
31835
31835
31965
31965
31965
31965
31987
31987
31987
31856
31856
31856
32009
32009
32009
31791
31791
31791
31944
31944
31944
31944
31813
31813
31813
31835
31835
31835
31944
31944
31944
31813
31813
31813
31944
31944
31944
31944
31965
31965
31965
31900
31900
31900
31944
31944
31944
31856
31856
31856
32009
32009
32009
32009
31922
31922
31922
31813
31813
31813
31769
31769
31769
31900
31900
31900
31922
31922
31922
31922
31944
31944
31944
31856
31856
31856
31987
31987
31987
31900
31900
31900
31900
31900
31900
31900
31944
31944
31944
31856
31856
31856
31965
31965
31965
31835
31835
31835
31965
31965
31965
31965
31944
31944
31944
31813
31813
31813
31878
31878
31878
31856
31856
31856
32009
32009
32009
32009
31922
31922
31922
31835
31835
31835
31987
31987
31987
31791
31791
31791
31922
31922
31922
31922
31944
31944
31944
31791
31791
31791
31965
31965
31965
31856
31856
31856
31944
31944
31944
31944
31987
31987
31987
31856
31856
31856
32118
32118
32118
31856
31856
31856
31965
31965
31965
31965
31922
31922
31922
31835
31835
31835
31965
31965
31965
31944
31944
31944
31900
31900
31900
31900
31944
31944
31944
31878
31878
31878
31965
31965
31965
31878
31878
31878
31900
31900
31900
31900
31922
31922
31922
31856
31856
31856
31965
31965
31965
31856
31856
31856
31987
31987
31987
31987
31922
31922
31922
31835
31835
31835
31944
31944
31944
31813
31813
31813
31965
31965
31965
31965
31944
31944
31944
31878
31878
31878
31922
31922
31922
31856
31856
31856
31922
31922
31922
31922
31922
31922
31922
31856
31856
31856
31856
31856
31856
31769
31769
31769
32009
32009
32009
32009
31900
31900
31900
31856
31856
31856
31944
31944
31944
31856
31856
31856
31900
31900
31900
31900
31965
31965
31965
31856
31856
31856
31878
31878
31878
31944
31944
31944
31965
31965
31965
31965
31944
31944
31944
31769
31769
31769
31878
31878
31878
31900
31900
31900
31900
31900
31900
31900
31944
31944
31944
31835
31835
31835
31922
31922
31922
31748
31748
31748
31944
31944
31944
31944
31900
31900
31900
31987
31987
31987
31900
31900
31900
31769
31769
31769
31922
31922
31922
31922
31965
31965
31965
31922
31922
31922
31965
31965
31965
31856
31856
31856
31965
31965
31965
31965
31878
31878
31878
31922
31922
31922
31965
31965
31965
31856
31856
31856
31944
31944
31944
31944
32074
32074
32074
31835
31835
31835
31922
31922
31922
31878
31878
31878
31922
31922
31922
31922
31944
31944
31944
31878
31878
31878
31922
31922
31922
31856
31856
31856
31900
31900
31900
31900
31987
31987
31987
31835
31835
31835
32052
32052
32052
31813
31813
31813
31922
31922
31922
31922
31922
31922
31922
31856
31856
31856
31922
31922
31922
31835
31835
31835
31965
31965
31965
31965
31922
31922
31922
31878
31878
31878
31944
31944
31944
31878
31878
31878
31922
31922
31922
31922
31965
31965
31965
31835
31835
31835
31922
31922
31922
31856
31856
31856
31987
31987
31987
31987
31922
31922
31922
31835
31835
31835
31944
31944
31944
31835
31835
31835
31856
31856
31856
31856
31987
31987
31987
31878
31878
31878
31900
31900
31900
31856
31856
31856
31900
31900
31900
31900
32118
32118
32118
31856
31856
31856
31944
31944
31944
31791
31791
31791
31944
31944
31944
31944
31922
31922
31922
31922
31922
31922
31944
31944
31944
31922
31922
31922
31944
31944
31944
31944
31878
31878
31878
31856
31856
31856
31900
31900
31900
31856
31856
31856
31922
31922
31922
31922
31878
31878
31878
31835
31835
31835
31944
31944
31944
31878
31878
31878
31965
31965
31965
31965
31944
31944
31944
31835
31835
31835
31965
31965
31965
31856
31856
31856
31944
31944
31944
31944
31944
31944
31944
31878
31878
31878
31944
31944
31944
31900
31900
31900
31922
31922
31922
31922
31835
31835
31835
31813
31813
31813
31922
31922
31922
31878
31878
31878
31878
31878
31878
31878
31965
31965
31965
31835
31835
31835
31987
31987
31987
31791
31791
31791
31900
31900
31900
31900
31922
31922
31922
31769
31769
31769
31922
31922
31922
31813
31813
31813
31944
31944
31944
31944
31900
31900
31900
31835
31835
31835
31965
31965
31965
31726
31726
31726
31987
31987
31987
31987
31965
31965
31965
31726
31726
31726
31900
31900
31900
32052
32052
32052
31922
31922
31922
31922
31987
31987
31987
31878
31878
31878
31813
31813
31813
31922
31922
31922
31965
31965
31965
31965
31900
31900
31900
31835
31835
31835
31900
31900
31900
31878
31878
31878
31965
31965
31965
31965
31878
31878
31878
31813
31813
31813
32009
32009
32009
31922
31922
31922
31944
31944
31944
31944
31878
31878
31878
31900
31900
31900
32009
32009
32009
31813
31813
31813
31922
31922
31922
31922
31900
31900
31900
31878
31878
31878
31944
31944
31944
31856
31856
31856
31965
31965
31965
31965
31944
31944
31944
31726
31726
31726
31922
31922
31922
31682
31682
31682
31944
31944
31944
31944
31922
31922
31922
31856
31856
31856
31922
31922
31922
31878
31878
31878
31900
31900
31900
31900
31922
31922
31922
31856
31856
31856
31965
31965
31965
31813
31813
31813
31944
31944
31944
31944
31922
31922
31922
31965
31965
31965
31922
31922
31922
31856
31856
31856
31965
31965
31965
31965
31922
31922
31922
31878
31878
31878
31944
31944
31944
31813
31813
31813
32009
32009
32009
32009
31900
31900
31900
31856
31856
31856
31922
31922
31922
31617
31617
31617
31900
31900
31900
31900
31944
31944
31944
31813
31813
31813
31944
31944
31944
31835
31835
31835
31878
31878
31878
31878
31965
31965
31965
31900
31900
31900
31987
31987
31987
31856
31856
31856
31922
31922
31922
31922
31856
31856
31856
31813
31813
31813
31900
31900
31900
31791
31791
31791
31965
31965
31965
31965
31965
31965
31965
31878
31878
31878
31922
31922
31922
31856
31856
31856
31965
31965
31965
31965
31922
31922
31922
31856
31856
31856
31878
31878
31878
31856
31856
31856
31922
31922
31922
31922
31878
31878
31878
31878
31878
31878
31922
31922
31922
31922
31922
31922
31965
31965
31965
31965
31944
31944
31944
31944
31944
31944
31856
31856
31856
31878
31878
31878
31900
31900
31900
31900
31900
31900
31900
31813
31813
31813
31965
31965
31965
31878
31878
31878
31965
31965
31965
31965
31900
31900
31900
31748
31748
31748
31987
31987
31987
31835
31835
31835
31900
31900
31900
31900
31944
31944
31944
31878
31878
31878
31965
31965
31965
31748
31748
31748
31835
31835
31835
31835
31900
31900
31900
31922
31922
31922
31878
31878
31878
31900
31900
31900
31922
31922
31922
31922
31878
31878
31878
31791
31791
31791
31748
31748
31748
31835
31835
31835
31900
31900
31900
31900
31987
31987
31987
31922
31922
31922
31856
31856
31856
31965
31965
31965
31944
31944
31944
31944
31965
31965
31965
31835
31835
31835
31856
31856
31856
31878
31878
31878
31965
31965
31965
31965
31944
31944
31944
31878
31878
31878
31965
31965
31965
31878
31878
31878
31944
31944
31944
31944
31900
31900
31900
31878
31878
31878
32009
32009
32009
31900
31900
31900
31944
31944
31944
31944
31987
31987
31987
31944
31944
31944
31987
31987
31987
31856
31856
31856
31987
31987
31987
31987
32031
32031
32031
31900
31900
31900
31900
31900
31900
31835
31835
31835
31965
31965
31965
31965
31944
31944
31944
31856
31856
31856
31965
31965
31965
31856
31856
31856
31944
31944
31944
31944
31922
31922
31922
31835
31835
31835
31922
31922
31922
31813
31813
31813
31944
31944
31944
31944
31987
31987
31987
31856
31856
31856
31944
31944
31944
31835
31835
31835
31944
31944
31944
31944
31944
31944
31944
31900
31900
31900
31965
31965
31965
31835
31835
31835
31922
31922
31922
31922
31987
31987
31987
31835
31835
31835
31944
31944
31944
31856
31856
31856
31965
31965
31965
31965
31922
31922
31922
31856
31856
31856
32031
32031
32031
31835
31835
31835
31944
31944
31944
31944
31878
31878
31878
31878
31878
31878
31922
31922
31922
31704
31704
31704
31922
31922
31922
31922
31944
31944
31944
31900
31900
31900
31922
31922
31922
31922
31922
31922
31813
31813
31813
31813
31944
31944
31944
31856
31856
31856
31965
31965
31965
31900
31900
31900
31900
31900
31900
31900
31944
31944
31944
31813
31813
31813
31922
31922
31922
31835
31835
31835
31900
31900
31900
31900
31965
31965
31965
31856
31856
31856
31922
31922
31922
31769
31769
31769
31922
31922
31922
31922
31944
31944
31944
31900
31900
31900
31856
31856
31856
31791
31791
31791
32031
32031
32031
32031
31965
31965
31965
31769
31769
31769
31965
31965
31965
31878
31878
31878
31900
31900
31900
31900
31835
31835
31835
31900
31900
31900
31900
31900
31900
31835
31835
31835
31813
31813
31813
31813
32074
32074
32074
31900
31900
31900
32009
32009
32009
31922
31922
31922
31922
31922
31922
31922
31965
31965
31965
31835
31835
31835
31900
31900
31900
31922
31922
31922
31965
31965
31965
31965
31878
31878
31878
31900
31900
31900
31965
31965
31965
31835
31835
31835
31900
31900
31900
31900
32009
32009
32009
31922
31922
31922
31965
31965
31965
31878
31878
31878
31922
31922
31922
31922
31965
31965
31965
31835
31835
31835
31922
31922
31922
31835
31835
31835
31944
31944
31944
31944
31922
31922
31922
31878
31878
31878
31944
31944
31944
31856
31856
31856
32139
32139
32139
32139
31835
31835
31835
31856
31856
31856
31900
31900
31900
31813
31813
31813
31944
31944
31944
31944
31944
31944
31944
31900
31900
31900
31944
31944
31944
31900
31900
31900
31922
31922
31922
31922
31965
31965
31965
31835
31835
31835
31944
31944
31944
31835
31835
31835
31987
31987
31987
31987
31900
31900
31900
31878
31878
31878
31944
31944
31944
31835
31835
31835
31878
31878
31878
31878
31900
31900
31900
31878
31878
31878
31922
31922
31922
31748
31748
31748
31987
31987
31987
31987
31922
31922
31922
31856
31856
31856
31944
31944
31944
31856
31856
31856
31922
31922
31922
31922
31965
31965
31965
31835
31835
31835
31856
31856
31856
31856
31856
31856
31900
31900
31900
31900
31922
31922
31922
31856
31856
31856
31922
31922
31922
31769
31769
31769
31900
31900
31900
31900
31922
31922
31922
31856
31856
31856
32009
32009
32009
31856
31856
31856
31965
31965
31965
31965
31900
31900
31900
31813
31813
31813
31856
31856
31856
31835
31835
31835
31922
31922
31922
31922
31944
31944
31944
31813
31813
31813
31944
31944
31944
31769
31769
31769
31944
31944
31944
31944
31900
31900
31900
31856
31856
31856
31878
31878
31878
31835
31835
31835
32009
32009
32009
32009
31944
31944
31944
31835
31835
31835
32009
32009
32009
31813
31813
31813
32009
32009
32009
32009
31944
31944
31944
31900
31900
31900
31965
31965
31965
31878
31878
31878
32009
32009
32009
32009
31944
31944
31944
31813
31813
31813
31944
31944
31944
31944
31944
31944
31965
31965
31965
31965
31922
31922
31922
31878
31878
31878
31878
31878
31878
31813
31813
31813
31835
31835
31835
31835
31922
31922
31922
31856
31856
31856
31856
31856
31856
31965
31965
31965
31856
31856
31856
31856
31900
31900
31900
31878
31878
31878
31922
31922
31922
31856
31856
31856
31944
31944
31944
31944
31987
31987
31987
31835
31835
31835
31900
31900
31900
31856
31856
31856
31922
31922
31922
31922
31922
31922
31922
31856
31856
31856
31944
31944
31944
31922
31922
31922
31922
31922
31922
31922
31878
31878
31878
31748
31748
31748
31900
31900
31900
31835
31835
31835
31944
31944
31944
31944
31944
31944
31944
31835
31835
31835
31791
31791
31791
31878
31878
31878
31965
31965
31965
31965
31856
31856
31856
31900
31900
31900
31878
31878
31878
31791
31791
31791
31922
31922
31922
31922
31922
31922
31922
31835
31835
31835
31922
31922
31922
31922
31922
31922
32009
32009
32009
32009
31922
31922
31922
31791
31791
31791
32052
32052
32052
31813
31813
31813
32031
32031
32031
32031
31856
31856
31856
31856
31856
31856
31878
31878
31878
31769
31769
31769
31922
31922
31922
31922
31965
31965
31965
31726
31726
31726
32009
32009
32009
31748
31748
31748
31900
31900
31900
31900
31900
31900
31900
31856
31856
31856
31878
31878
31878
31813
31813
31813
31878
31878
31878
31878
31813
31813
31813
31835
31835
31835
32139
32139
32139
31769
31769
31769
31900
31900
31900
31900
31987
31987
31987
31835
31835
31835
31922
31922
31922
31944
31944
31944
31900
31900
31900
31900
32031
32031
32031
31791
31791
31791
31922
31922
31922
31856
31856
31856
31900
31900
31900
31900
31944
31944
31944
31835
31835
31835
32009
32009
32009
31595
31595
31595
31944
31944
31944
31944
31900
31900
31900
31944
31944
31944
31900
31900
31900
31813
31813
31813
31965
31965
31965
31965
31944
31944
31944
31922
31922
31922
31856
31856
31856
31813
31813
31813
31922
31922
31922
31922
31922
31922
31922
31922
31922
31922
32031
32031
32031
31835
31835
31835
31922
31922
31922
31922
31944
31944
31944
31813
31813
31813
31944
31944
31944
31878
31878
31878
31944
31944
31944
31944
31900
31900
31900
31856
31856
31856
31965
31965
31965
31900
31900
31900
31987
31987
31987
31987
31878
31878
31878
31900
31900
31900
31987
31987
31987
31813
31813
31813
32074
32074
32074
32074
31748
31748
31748
31813
31813
31813
31878
31878
31878
31835
31835
31835
31944
31944
31944
31944
31922
31922
31922
31922
31922
31922
31944
31944
31944
31878
31878
31878
31944
31944
31944
31944
31835
31835
31835
31856
31856
31856
31965
31965
31965
31878
31878
31878
31922
31922
31922
31922
31922
31922
31922
31900
31900
31900
31878
31878
31878
31856
31856
31856
31944
31944
31944
31944
31835
31835
31835
31835
31835
31835
31922
31922
31922
31769
31769
31769
31944
31944
31944
31944
31922
31922
31922
31835
31835
31835
31965
31965
31965
31856
31856
31856
31922
31922
31922
31922
32031
32031
32031
31922
31922
31922
31987
31987
31987
31900
31900
31900
31965
31965
31965
31965
31965
31965
31965
31813
31813
31813
31878
31878
31878
31965
31965
31965
31944
31944
31944
31944
31900
31900
31900
31748
31748
31748
31965
31965
31965
31856
31856
31856
31900
31900
31900
31900
31965
31965
31965
31856
31856
31856
31878
31878
31878
31856
31856
31856
31813
31813
31813
31813
31791
31791
31791
31835
31835
31835
31944
31944
31944
31835
31835
31835
31944
31944
31944
31944
31944
31944
31944
31856
31856
31856
31987
31987
31987
31900
31900
31900
31944
31944
31944
31944
31900
31900
31900
31835
31835
31835
31922
31922
31922
31856
31856
31856
31791
31791
31791
31791
31987
31987
31987
31878
31878
31878
31900
31900
31900
31813
31813
31813
31944
31944
31944
31944
31922
31922
31922
31922
31922
31922
31944
31944
31944
31878
31878
31878
31922
31922
31922
31922
31965
31965
31965
31856
31856
31856
31944
31944
31944
31835
31835
31835
31944
31944
31944
31944
32009
32009
32009
31835
31835
31835
31922
31922
31922
31835
31835
31835
31965
31965
31965
31965
31922
31922
31922
31856
31856
31856
31944
31944
31944
31856
31856
31856
31965
31965
31965
31965
31878
31878
31878
31856
31856
31856
31965
31965
31965
31856
31856
31856
31813
31813
31813
31813
31987
31987
31987
31835
31835
31835
31965
31965
31965
31835
31835
31835
32009
32009
32009
32009
31922
31922
31922
31813
31813
31813
31944
31944
31944
31900
31900
31900
31922
31922
31922
31922
31922
31922
31922
31878
31878
31878
31965
31965
31965
31835
31835
31835
31878
31878
31878
31878
31835
31835
31835
31835
31835
31835
31835
31835
31835
31878
31878
31878
31944
31944
31944
31944
31922
31922
31922
31813
31813
31813
31922
31922
31922
31813
31813
31813
31944
31944
31944
31944
31944
31944
31944
31878
