{
    "parameters": [[
        0.013157786435934741,
        0.013289591217551782,
        0.013278725265924147,
        0.01335942355249856,
        27.603669123012548,
        27.66421126048064,
        27.74854895481255,
        27.728969751070245
    ]]
}
