2125
2125
2125
2128
2128
2128
2125
2125
2125
2129
2129
2129
2126
2126
2126
2128
2128
2128
2128
2129
2129
2129
2128
2128
2128
2127
2127
2127
2124
2124
2124
2117
2117
2117
2117
2133
2133
2133
2124
2124
2124
2130
2130
2130
2125
2125
2125
2127
2127
2127
2127
2129
2129
2129
2126
2126
2126
2128
2128
2128
2124
2124
2124
2128
2128
2128
2128
2127
2127
2127
2126
2126
2126
2128
2128
2128
2126
2126
2126
2126
2126
2126
2126
2129
2129
2129
2129
2127
2127
2127
2123
2123
2123
2129
2129
2129
2136
2136
2136
2128
2128
2128
2128
2124
2124
2124
2124
2124
2124
2123
2123
2123
2123
2123
2123
2125
2125
2125
2125
2127
2127
2127
2122
2122
2122
2127
2127
2127
2125
2125
2125
2128
2128
2128
2128
2127
2127
2127
2124
2124
2124
2127
2127
2127
2124
2124
2124
2123
2123
2123
2123
2128
2128
2128
2125
2125
2125
2132
2132
2132
2126
2126
2126
2131
2131
2131
2131
2124
2124
2124
2124
2124
2124
2128
2128
2128
2126
2126
2126
2123
2123
2123
2123
2128
2128
2128
2125
2125
2125
2129
2129
2129
2124
2124
2124
2126
2126
2126
2126
2127
2127
2127
2123
2123
2123
2127
2127
2127
2125
2125
2125
2127
2127
2127
2127
2131
2131
2131
2126
2126
2126
2127
2127
2127
2127
2127
2127
2128
2128
2128
2128
2128
2128
2128
2124
2124
2124
2126
2126
2126
2123
2123
2123
2131
2131
2131
2131
2129
2129
2129
2124
2124
2124
2130
2130
2130
2124
2124
2124
2127
2127
2127
2127
2124
2124
2124
2126
2126
2126
2129
2129
2129
2127
2127
2127
2131
2131
2131
2131
2129
2129
2129
2124
2124
2124
2124
2124
2124
2127
2127
2127
2127
2127
2127
2127
2132
2132
2132
2123
2123
2123
2129
2129
2129
2123
2123
2123
2122
2122
2122
2122
2126
2126
2126
2125
2125
2125
2127
2127
2127
2128
2128
2128
2127
2127
2127
2127
2127
2127
2127
2126
2126
2126
2130
2130
2130
2125
2125
2125
2128
2128
2128
2128
2125
2125
2125
2123
2123
2123
2130
2130
2130
2122
2122
2122
2135
2135
2135
2135
2126
2126
2126
2130
2130
2130
2127
2127
2127
2125
2125
2125
2125
2125
2125
2125
2129
2129
2129
2125
2125
2125
2127
2127
2127
2125
2125
2125
2128
2128
2128
2128
2128
2128
2128
2126
2126
2126
2130
2130
2130
2125
2125
2125
2129
2129
2129
2129
2129
2129
2129
2121
2121
2121
2126
2126
2126
2126
2126
2126
2128
2128
2128
2128
2136
2136
2136
2126
2126
2126
2127
2127
2127
2126
2126
2126
2124
2124
2124
2124
2126
2126
2126
2123
2123
2123
2129
2129
2129
2123
2123
2123
2129
2129
2129
2129
2129
2129
2129
2128
2128
2128
2129
2129
2129
2127
2127
2127
2123
2123
2123
2123
2126
2126
2126
2124
2124
2124
2127
2127
2127
2136
2136
2136
2129
2129
2129
2129
2126
2126
2126
2121
2121
2121
2135
2135
2135
2125
2125
2125
2125
2125
2125
2125
2132
2132
2132
2124
2124
2124
2129
2129
2129
2126
2126
2126
2126
2126
2126
2126
2127
2127
2127
2129
2129
2129
2130
2130
2130
2123
2123
2123
2126
2126
2126
2126
2129
2129
2129
2123
2123
2123
2129
2129
2129
2129
2129
2129
2128
2128
2128
2128
2128
2128
2128
2123
2123
2123
2128
2128
2128
2123
2123
2123
2120
2120
2120
2120
2135
2135
2135
2125
2125
2125
2128
2128
2128
2126
2126
2126
2128
2128
2128
2128
2130
2130
2130
2123
2123
2123
2128
2128
2128
2124
2124
2124
2127
2127
2127
2127
2128
2128
2128
2126
2126
2126
2129
2129
2129
2125
2125
2125
2127
2127
2127
2127
2128
2128
2128
2119
2119
2119
2129
2129
2129
2126
2126
2126
2127
2127
2127
2127
2122
2122
2122
2125
2125
2125
2122
2122
2122
2120
2120
2120
2126
2126
2126
2126
2128
2128
2128
2133
2133
2133
2122
2122
2122
2124
2124
2124
2129
2129
2129
2129
2125
2125
2125
2126
2126
2126
2127
2127
2127
2123
2123
2123
2128
2128
2128
2128
2130
2130
2130
2126
2126
2126
2130
2130
2130
2135
2135
2135
2128
2128
2128
2128
2126
2126
2126
2122
2122
2122
2130
2130
2130
2125
2125
2125
2128
2128
2128
2128
2128
2128
2128
2127
2127
2127
2127
2127
2127
2124
2124
2124
2123
2123
2123
2123
2129
2129
2129
2124
2124
2124
2130
2130
2130
2123
2123
2123
2128
2128
2128
2128
2126
2126
2126
2126
2126
2126
2129
2129
2129
2124
2124
2124
2127
2127
2127
2127
2129
2129
2129
2125
2125
2125
2123
2123
2123
2123
2123
2123
2127
2127
2127
2127
2128
2128
2128
2127
2127
2127
2127
2127
2127
2122
2122
2122
2128
2128
2128
2128
2132
2132
2132
2123
2123
2123
2127
2127
2127
2124
2124
2124
2126
2126
2126
2126
2131
2131
2131
2123
2123
2123
2131
2131
2131
2125
2125
2125
2127
2127
2127
2127
2129
2129
2129
2113
2113
2113
2129
2129
2129
2120
2120
2120
2127
2127
2127
2127
2129
2129
2129
2126
2126
2126
2129
2129
2129
2120
2120
2120
2126
2126
2126
2126
2130
2130
2130
2128
2128
2128
2125
2125
2125
2128
2128
2128
2128
2128
2128
2128
2128
2128
2128
2127
2127
2127
2128
2128
2128
2125
2125
2125
2120
2120
2120
2120
2127
2127
2127
2125
2125
2125
2128
2128
2128
2127
2127
2127
2129
2129
2129
2129
2127
2127
2127
2126
2126
2126
2129
2129
2129
2131
2131
2131
2125
2125
2125
2125
2127
2127
2127
2123
2123
2123
2131
2131
2131
2128
2128
2128
2128
2128
2128
2128
2127
2127
2127
2120
2120
2120
2130
2130
2130
2127
2127
2127
2127
2127
2127
2127
2122
2122
2122
2124
2124
2124
2127
2127
2127
2120
2120
2120
2127
2127
2127
2127
2128
2128
2128
2125
2125
2125
2124
2124
2124
2122
2122
2122
2138
2138
2138
2138
2125
2125
2125
2117
2117
2117
2127
2127
2127
2126
2126
2126
2129
2129
2129
2129
2125
