2136
2136
2136
2133
2133
2133
2137
2137
2137
2134
2134
2134
2139
2139
2139
2139
2138
2138
2138
2135
2135
2135
2136
2136
2136
2135
2135
2135
2135
2135
2135
2135
2139
2139
2139
2132
2132
2132
2137
2137
2137
2137
2137
2137
2138
2138
2138
2138
2127
2127
2127
2130
2130
2130
2140
2140
2140
2135
2135
2135
2140
2140
2140
2140
2137
2137
2137
2133
2133
2133
2135
2135
2135
2134
2134
2134
2136
2136
2136
2136
2138
2138
2138
2139
2137
2137
2137
2135
2135
2135
2134
2134
2134
2133
2133
2133
2138
2138
2138
2138
2138
2138
2138
2135
2135
2135
2139
2139
2139
2134
2134
2134
2137
2137
2137
2137
2138
2138
2138
2135
2135
2135
2140
2140
2140
2135
2135
2135
2137
2137
2137
2137
2136
2136
2136
2135
2135
2135
2138
2138
2138
2131
2131
2131
2140
2140
2140
2140
2138
2138
2138
2136
2136
2136
2140
2140
2140
2134
2134
2134
2139
2139
2139
2139
2132
2132
2132
2129
2129
2129
2135
2135
2135
2134
2134
2134
2137
2137
2137
2137
2140
2140
2140
2133
2133
2133
2140
2140
2140
2136
2136
2136
2140
2140
2140
2140
2137
2137
2137
2133
2133
2133
2135
2135
2135
2135
2135
2135
2138
2138
2138
2138
2136
2136
2136
2137
2137
2137
2137
2137
2137
2133
2133
2133
2135
2135
2135
2135
2136
2136
2136
2134
2134
2134
2134
2134
2134
2131
2131
2131
2137
2137
2137
2137
2136
2136
2136
2128
2128
2128
2140
2140
2140
2135
2135
2135
2138
2138
2138
2138
2138
2138
2138
2134
2134
2134
2139
2139
2139
2134
2134
2134
2140
2140
2140
2140
2136
2136
2136
2133
2133
2133
2136
2136
2136
2134
2134
2134
2138
2138
2138
2138
2136
2136
2136
2134
2134
2134
2133
2133
2133
2135
2135
2135
2138
2138
2138
2138
2139
2139
2139
2130
2130
2130
2138
2138
2138
2138
2138
2138
2138
2138
2138
2138
2138
2138
2138
2136
2136
2136
2138
2138
2138
2132
2132
2132
2137
2137
2137
2137
2137
2137
2137
2136
2136
2136
2137
2137
2137
2138
2138
2138
2138
2138
2138
2138
2138
2138
2138
2135
2135
2135
2136
2136
2136
2133
2133
2133
2141
2141
2141
2141
2139
2139
2139
2137
2137
2137
2138
2138
2138
2129
2129
2129
2137
2137
2137
2137
2133
2133
2133
2135
2135
2135
2141
2141
2141
2134
2134
2134
2137
2137
2137
2137
2137
2137
2137
2133
2133
2133
2139
2139
2139
2133
2133
2133
2137
2137
2137
2137
2142
2142
2142
2134
2134
2134
2135
2135
2135
2136
2136
2136
2141
2141
2141
2141
2139
2139
2139
2127
2127
2127
2138
2138
2138
2139
2139
2139
2139
2139
2139
2139
2139
2139
2139
2137
2137
2137
2138
2138
2138
2135
2135
2135
2139
2139
2139
2139
2139
2139
2139
2135
2135
2135
2138
2138
2138
2136
2136
2136
2131
2131
2131
2131
2131
2131
2131
2135
2135
2135
2135
2135
2135
2134
2134
2134
2139
2139
2139
2139
2136
2136
2136
2131
2131
2131
2136
2136
2136
2134
2134
2134
2138
2138
2138
2138
2138
2138
2138
2134
2134
2134
2137
2137
2137
2135
2135
2135
2142
2142
2142
2142
2138
2138
2138
2139
2139
2139
2138
2138
2138
2131
2131
2131
2140
2140
2140
2140
2135
2135
2135
2137
2137
2137
2139
2139
2139
2133
2133
2133
2140
2140
2140
2140
2137
2137
2137
2136
2136
2136
2146
2146
2146
2136
2136
2136
2138
2138
2138
2138
2136
2136
2136
2135
2135
2135
2145
2145
2145
2134
2134
2134
2138
2138
2138
2138
2139
2139
2139
2133
2133
2133
2139
2139
2139
2132
2132
2132
2140
2140
2140
2140
2137
2137
2137
2133
2133
2133
2136
2136
2136
2134
2134
2134
2137
2137
2137
2137
2137
2137
2137
2133
2133
2133
2138
2138
2138
2136
2136
2136
2134
2134
2134
2134
2140
2140
2140
2134
2134
2134
2137
2137
2137
2132
2132
2132
2138
2138
2138
2138
2134
2134
2134
2134
2134
2134
2141
2141
2141
2131
2131
2131
2137
2137
2137
2137
2139
2139
2139
2136
2136
2136
2135
2135
2135
2135
2135
2135
2136
2136
2136
2136
2138
2138
2138
2135
2135
2135
2137
2137
2137
2133
2133
2133
2136
2136
2136
2136
2135
2135
2135
2133
2133
2133
2140
2140
2140
2136
2136
2136
2139
2139
2139
2139
2138
2138
2138
2135
2135
2135
2135
2135
2135
2134
2134
2134
2138
2138
2138
2138
2138
2138
2138
2128
2128
2128
2137
2137
2137
2135
2135
2135
2138
2138
2138
2138
2136
2136
2136
2133
2133
2133
2139
2139
2139
2130
2130
2130
2138
2138
2138
2138
2138
2138
2138
2138
2138
2138
2138
2138
2138
2135
2135
2135
2147
2147
2147
2147
2134
2134
2134
2134
2134
2134
2135
2135
2135
2135
2135
2135
2137
2137
2137
2137
2135
2135
2135
2136
2136
2136
2135
2135
2135
2137
2137
2137
2140
2140
2140
2140
2137
2137
2137
2135
2135
2135
2137
2137
2137
2136
2136
2136
2141
2141
2141
2141
2138
2138
2138
2135
2135
2135
2138
2138
2138
2134
2134
2134
2140
2140
2140
2140
2138
2138
2138
2139
2139
2139
2141
2141
2141
2131
2131
2131
2137
2137
2137
2137
2136
2136
2136
2135
2135
2135
2138
2138
2138
2131
2131
2131
2139
2139
2139
2139
2140
2140
2140
2133
2133
2133
2138
2138
2138
2134
2134
2134
2140
2140
2140
2140
2138
2138
2138
2139
2139
2139
2137
2137
2137
2136
2136
2136
2137
2137
2137
2137
2139
2139
2139
2134
2134
2134
2143
2143
2143
2134
2134
2134
2140
2140
2140
2140
2139
2139
2139
2135
2135
2135
2139
2139
2139
2130
2130
2130
2139
2139
2139
2139
2139
2139
2139
2136
2136
2136
2139
2139
2139
2134
2134
2134
2137
2137
2137
2137
2136
2136
2136
2135
2135
2135
2139
2139
2139
2133
2133
2133
2139
2139
2139
2139
2139
2139
2139
2131
2131
2131
2137
2137
2137
2139
2139
2139
2140
2140
2140
2140
2140
2140
2140
2133
