2152
2149
2149
2149
2150
2150
2150
2148
2148
2148
2146
2146
2146
2146
2150
2150
2150
2150
2150
2150
2153
2153
2153
2148
2148
2148
2153
2153
2153
2153
2153
2153
2153
2141
2141
2141
2155
2155
2155
2144
2154
2154
2148
2148
2148
2153
2153
2153
2153
2153
2153
2153
2148
2148
2148
2155
2155
2155
2147
2147
2147
2151
2151
2151
2151
2152
2152
2152
2147
2147
2147
2154
2154
2154
2148
2148
2148
2151
2151
2151
2151
2152
2152
2152
2148
2148
2148
2154
2154
2154
2148
2148
2148
2152
2152
2152
2152
2150
2150
2150
2146
2146
2146
2154
2154
2154
2148
2148
2148
2152
2152
2152
2152
2154
2154
2154
2148
2148
2148
2153
2153
2153
2150
2150
2150
2152
2152
2152
2152
2155
2155
2155
2151
2151
2151
2151
2151
2151
2149
2149
2149
2149
2149
2149
2149
2151
2151
2151
2145
2149
2149
2148
2148
2148
2149
2149
2149
2146
2146
2146
2151
2151
2151
2151
2152
2152
2152
2147
2147
2147
2151
2151
2151
2151
2151
2151
2153
2153
2153
2153
2152
2152
2152
2146
2146
2146
2151
2151
2151
2148
2148
2148
2149
2149
2149
2149
2156
2156
2156
2151
2151
2151
2154
2154
2154
2147
2147
2147
2151
2151
2151
2151
2155
2155
2155
2148
2148
2148
2156
2156
2156
2149
2149
2149
2151
2151
2151
2151
2154
2154
2154
2146
2146
2146
2156
2156
2156
2149
2149
2149
2151
2151
2151
2151
2153
2153
2153
2147
2147
2147
2153
2153
2153
2152
2152
2152
2149
2149
2149
2149
2152
2152
2152
2148
2148
2148
2152
2152
2152
2146
2146
2146
2151
2151
2151
2151
2153
2153
2153
2148
2148
2148
2157
2157
2157
2148
2148
2148
2151
2151
2151
2151
2150
2150
2150
2151
2151
2151
2151
2151
2151
2147
2147
2147
2150
2150
2150
2150
2158
2158
2158
2151
2151
2151
2153
2153
2153
2148
2148
2148
2151
2151
2151
2151
2151
2151
2151
2151
2151
2151
2153
2153
2153
2148
2148
2148
2152
2152
2152
2152
2154
2154
2154
2147
2147
2147
2151
2151
2151
2148
2148
2148
2150
2150
2150
2150
2153
2153
2153
2147
2147
2147
2150
2150
2150
2151
2151
2151
2153
2153
2153
2153
2153
2153
2153
2150
2150
2150
2155
2155
2155
2148
2148
2148
2149
2149
2149
2149
2154
2154
2154
2151
2151
2151
2150
2150
2150
2149
2149
2149
2149
2149
2149
2149
2152
2152
2152
2147
2147
2147
2153
2153
2153
2150
2150
2150
2151
2151
2151
2151
2151
2151
2151
2149
2149
2149
2152
2152
2152
2151
2151
2151
2150
2150
2150
2150
2153
2153
2153
2148
2148
2148
2150
2150
2150
2150
2150
2150
2146
2146
2146
2146
2153
2153
2153
2147
2147
2147
2153
2153
2153
2148
2148
2148
2150
2150
2150
2150
2149
2149
2149
2149
2149
2149
2152
2152
2152
2152
2152
2152
2145
2145
2145
2145
2153
2153
2153
2145
2145
2145
2153
2153
2153
2147
2147
2147
2151
2151
2151
2151
2148
2148
2148
2148
2148
2148
2154
2154
2154
2148
2148
2148
2150
2150
2150
2150
2153
2153
2153
2149
2149
2149
2148
2148
2148
2149
2149
2149
2153
2153
2153
2153
2153
2153
2153
2150
2150
2150
2152
2152
2152
2147
2147
2147
2152
2152
2152
2152
2154
2154
2154
2149
2149
2149
2154
2154
2154
2150
2150
2150
2151
2151
2151
2151
2156
2156
2156
2148
2148
2148
2167
2167
2167
2146
2146
2146
2150
2150
2150
2150
2158
2158
2158
2151
2151
2151
2151
2151
2151
2147
2147
2147
2150
2150
2150
2150
2150
2150
2150
2148
2148
2148
2153
2153
2153
2148
2148
2148
2150
2150
2150
2150
2154
2154
2154
2148
2148
2148
2154
2154
2154
2152
2152
2152
2151
2151
2151
2151
2153
2153
2153
2148
2148
2148
2150
2150
2150
2151
2151
2151
2153
2153
2153
2153
2151
2151
2151
2146
2146
2146
2153
2153
2153
2148
2148
2148
2150
2150
2150
2150
2153
2153
2153
2148
2148
2148
2156
2156
2156
2151
2151
2151
2150
2150
2150
2150
2154
2154
2154
2148
2148
2148
2155
2155
2155
2147
2147
2147
2152
2152
2152
2152
2153
2153
2153
2147
2147
2147
2153
2153
2153
2146
2146
2146
2150
2150
2150
2150
2154
2154
2154
2149
2149
2149
2154
2154
2154
2148
2148
2148
2150
2150
2150
2150
2155
2155
2155
2149
2149
2149
2153
2153
2153
2148
2148
2148
2151
2151
2151
2151
2153
2153
2153
2147
2147
2147
2154
2154
2154
2148
2148
2148
2147
2147
2147
2147
2154
2154
2154
2149
2149
2149
2151
2151
2151
2149
2149
2149
2152
2152
2152
2152
2149
2149
2149
2144
2144
2144
2154
2154
2154
2149
2149
2149
2153
2153
2153
2153
2153
2153
2153
2146
2146
2146
2153
2153
2153
2149
2149
2149
2153
2153
2153
2153
2149
2149
2149
2148
2148
2148
2152
2152
2152
2149
2149
2149
2152
2152
2152
2152
2151
2151
2151
2149
2149
2149
2155
2155
2155
2149
2149
2149
2154
2154
2154
2154
2152
2152
2152
2147
2147
2147
2153
2153
2153
2147
2147
2147
2151
2151
2151
2151
2152
2152
2152
2153
2153
2153
2153
2153
2153
2153
2153
2153
2144
2144
2144
2144
2154
2154
2154
2148
2148
2148
2154
2154
2154
2146
2146
2146
2150
2150
2150
2150
2154
2154
2154
2157
2157
2157
2152
2152
2152
2149
2149
2149
2152
2152
2152
2152
2154
2154
2154
2149
2149
2149
2153
2153
2153
2148
2148
2148
2152
2152
2152
2152
2153
2153
2153
2149
2149
2149
2152
2152
2152
2150
2150
2150
2150
2150
2150
2150
2152
2152
2152
2148
2148
2148
2153
2153
2153
2148
2148
2148
2153
2153
2153
2153
2149
2149
2149
2147
2147
2147
2153
2153
2153
2148
2148
2148
2148
2148
2148
2148
2152
2152
2152
2145
2145
2145
2158
2158
2158
2145
2145
2145
2152
2152
2152
2152
2153
2153
2153
2150
2150
2150
2153
2153
2153
2147
2147
2147
2152
2152
2152
2152
2145
2145
2145
2151
2151
2151
2155
2155
2155
2148
2148
2148
2151
2151
2151
2151
2158
2158
2158
2148
2148
2148
2154
2154
2154
2146
2146
2146
2154
2154
2154
2154
2153
2153
2153
2148
2148
2148
2153
2153
2153
2148
2148
2148
2150
2150
2150
2150
2154
2154
2154
2149
2149
2149
2156
2156
2156
2148
2148
2148
2149
2149
2149
2149
2154
2154
2154
2149
2149
2149
2154
2154
2154
2148
2148
2148
2153
2153
2153
2153
2155
2155
2155
2151
2151
2151
2154
2154
2154
2148
2148
2148
2151
2151
2151
2151
2152
2152
2152
2150
2150
2150
2156
2156
2156
2149
2149
2149
2150
2150
2150
2150
2152
2152
2152
2149
2149
2149
2152
2152
2152
2149
2149
2149
2152
2152
2152
2152
2151
2151
2151
2148
2148
2148
2153
2153
2153
2149
2149
2149
2144
2144
2144
2144
2152
2152
2152
2145
2145
2145
2152
2152
2152
2150
2150
2150
2153
2153
2153
2153
2152
2152
2152
2153
2153
2153
2154
2154
2154
2153
2153
2153
2152
2152
2152
2152
2151
2151
2151
2147
2147
2147
2153
2153
2153
2146
2146
2146
2150
2150
2150
2150
2148
2148
2148
2149
2149
2149
2152
2152
2152
2153
2153
2153
2153
2153
2153
2153
2154
2154
2154
2149
2149
2149
2154
2154
2154
2147
2147
2147
2151
2151
2151
2151
2153
2153
2153
2152
2152
2152
2151
2151
2151
2148
2148
2148
2149
2149
2149
2149
2152
2152
2152
2148
2148
2148
2152
2152
2152
2150
2150
2150
2149
2149
2149
2149
2155
2155
2155
2151
2151
2151
2152
2152
2152
2148
2148
2148
2151
2151
2151
2151
2154
2154
2154
2148
2148
2148
2151
2151
2151
2147
2147
2147
2146
2146
2146
2146
2156
2156
2156
2148
2148
2148
2152
2152
2152
2150
2150
2150
2150
2150
2150
2150
2151
2151
2151
2150
2150
2150
2152
2152
2152
2146
2146
2146
2151
2151
2151
2151
2152
2152
2152
2148
2148
2148
2155
2155
2155
2150
2150
2150
2151
2151
2151
2151
2152
2152
2152
2150
2150
2150
2153
2153
2153
2146
2146
2146
2153
2153
2153
2153
2152
2152
2152
2150
2150
2150
2154
2154
2154
2150
2150
2150
2148
2148
2148
2148
2153
2153
2153
2145
2145
2145
2152
2152
2152
2148
2148
2148
2149
2149
2149
2149
2155
2155
2155
2147
2147
2147
2150
2150
2150
2149
2149
2149
2159
2159
2159
2159
2155
2155
2155
2146
2146
2146
2153
2153
2153
2150
2150
2150
2152
2152
2152
2152
2146
2146
2146
2149
2149
2149
2153
2153
2153
2149
2149
2149
2151
2151
2151
2151
2155
2155
2155
2150
2150
2150
2152
2152
2152
2145
2145
2145
2150
2150
2150
2150
2152
2152
2152
2149
2149
2149
2154
2154
2154
2148
2148
2148
2151
2151
2151
2151
2152
2152
2152
2150
2150
2150
2154
2154
2154
2148
2148
2148
2151
2151
2151
2151
2153
2153
2153
2149
2149
2149
2153
2153
2153
2148
2148
2148
2149
2149
2149
2149
2154
2154
2154
2148
2148
2148
2157
2157
2157
2150
2150
2150
2144
2144
2144
2144
2151
2151
2151
2148
2148
2148
2150
2150
2150
2148
2148
2148
2149
2149
2149
2149
2152
2152
2152
2142
2142
2142
2153
2153
2153
2145
2145
2145
2145
2145
2145
2145
2149
2149
2149
2149
2149
2149
2150
2150
2150
2146
2146
2146
2151
2151
2151
2151
2153
2153
2153
2151
2151
2151
2149
2149
2149
2147
2147
2147
2151
2151
2151
2151
2151
2151
2151
2148
2148
2148
2152
2152
2152
2147
2147
2147
2153
2153
2153
2153
2151
2151
2151
2147
2147
2147
2153
2153
2153
2151
2151
2151
2151
2151
2151
2151
2152
2152
2152
2148
2148
2148
2152
2152
2152
2148
2148
2148
2150
2150
2150
2150
2150
2150
2150
2149
2149
2149
2152
2152
2152
2151
2151
2151
2152
2152
2152
2152
2154
2154
2154
2149
2149
2149
2152
2152
2152
2149
2149
2149
2155
2155
2155
2155
2153
2153
2153
2148
2148
2148
2153
2153
2153
2148
2148
2148
2151
2151
2151
2151
2151
2151
2151
2147
2147
2147
2151
2151
2151
2148
2148
2148
2153
2153
2153
2153
2152
2152
2152
2150
2150
2150
2154
2154
2154
2149
2149
2149
2149
2149
2149
2149
2153
2153
2153
2151
2151
2151
2148
2148
2148
2148
2148
2148
2150
2150
2150
2150
2151
2151
2151
2148
2148
2148
2154
2154
2154
2150
2150
2150
2151
2151
2151
2151
2149
2149
2149
2151
2151
2151
2154
2154
2154
2149
2149
2149
2153
2153
2153
2153
2153
2153
2153
2147
2147
2147
2154
2154
2154
2145
2145
2145
2152
2152
2152
2152
2152
2152
2152
2150
2150
2150
2153
2153
2153
2149
2149
2149
2151
2151
2151
2151
2153
2153
2153
2149
2149
2149
2152
2152
2152
2146
2146
2146
2149
2149
2149
2149
2151
2151
2151
2149
2149
2149
2152
2152
2152
2149
2149
2149
2152
2152
2152
2152
2154
2154
2154
2147
2147
2147
2153
2153
2153
2149
2149
2149
2151
2151
2151
2151
2153
2153
2153
2150
2150
2150
2155
2155
2155
2148
2148
2148
2151
2151
2151
2151
2152
2152
2152
2149
2149
2149
2154
2154
2154
2149
2149
2149
2153
2153
2153
2153
2152
2152
2152
2146
2146
2146
2153
2153
2153
2149
2149
2149
2149
2149
2149
2149
2153
2153
2153
2148
2148
2148
2152
2152
2152
2148
2148
2148
2149
2149
2149
2149
2151
2151
2151
2147
2147
2147
2154
2154
2154
2148
2148
2148
2151
2151
2151
2151
2154
2154
2154
2150
2150
2150
2147
2147
2147
2144
2144
2144
2149
2149
2149
2149
2152
2152
2152
2152
2152
2152
2152
2152
2152
2148
2148
2148
2152
2152
2152
2152
2153
2153
2153
2145
2145
2145
2157
2157
2157
2145
2145
2145
2149
2149
2149
2149
2151
2151
2151
2148
2148
2148
2154
2154
2154
2147
2147
2147
2152
2152
2152
2152
2151
2151
2151
2151
2151
2151
2153
2153
2153
2148
2148
2148
2151
2151
2151
2151
2153
2153
2153
2149
2149
2149
2151
2151
2151
2147
2147
2147
2151
2151
2151
2151
2149
2149
2149
2148
2148
2148
2154
2154
2154
2147
2147
2147
2150
2150
2150
2150
2153
2153
2153
2153
2153
2153
2154
2154
2154
2149
2149
2149
2148
2148
2148
2148
2155
2155
2155
2149
2149
2149
2155
2155
2155
2148
2148
2148
2148
2148
2148
2148
2153
2153
2153
2151
2151
2151
2152
2152
2152
2151
2151
2151
2148
2148
2148
2148
2151
2151
2151
2147
2147
2147
2151
2151
2151
2147
2147
2147
2150
2150
2150
2150
2156
2156
2156
2150
2150
2150
2153
2153
2153
2151
2151
2151
2151
2151
2151
2151
2154
2154
2154
2147
2147
2147
2153
2153
2153
2149
2149
2149
2151
2151
2151
2151
2147
2147
2147
2153
2153
2153
2153
2153
2153
2149
2149
2149
2148
2148
2148
2148
2152
2152
2152
2150
2150
2150
2153
2153
2153
2148
2148
2148
2148
2148
2148
2148
2154
2154
2154
2151
2151
2151
2152
2152
2152
2150
2150
2150
2150
2150
2150
2150
2154
2154
2154
2150
2150
2150
2153
2153
2153
2145
2145
2145
2151
2151
2151
2151
2152
2152
2152
2150
2150
2150
2151
2151
2151
2149
2149
2149
2151
2151
2151
2151
2153
2153
2153
2147
2147
2147
2150
2150
2150
2149
2149
2149
2148
2148
2148
2148
2154
2154
2154
2151
2151
2151
2151
2151
2151
2148
2148
2148
2150
2150
2150
2150
2155
2155
2155
2149
2149
2149
2153
2153
2153
2147
2147
2147
2151
2151
2151
2151
2149
2149
2149
2147
2147
2147
2155
2155
2155
2150
2150
2150
2151
2151
2151
2151
2152
2152
2152
2148
2148
2148
2157
2157
2157
2147
2147
2147
2152
2152
2152
2152
2152
2152
2152
2150
2150
2150
2153
2153
2153
2148
2148
2148
2151
2151
2151
2151
2154
2154
2154
2147
2147
2147
2147
2147
2147
2147
2147
2147
2150
2150
2150
2150
2149
2149
2149
2150
2150
2150
2150
2150
2150
2147
2147
2147
2149
2149
2149
2149
2153
2153
2153
2145
2145
2145
2153
2153
2153
2147
2147
2147
2150
2150
2150
2150
2154
2154
2154
2148
2148
2148
2152
2152
2152
2151
2151
2151
2148
2148
2148
2148
2152
2152
2152
2148
2148
2148
2154
2154
2154
2147
2147
2147
2150
2150
2150
2150
2152
2152
2152
2148
2148
2148
2151
2151
2151
2149
2149
2149
2151
2151
2151
2151
2152
2152
2152
2147
2147
2147
2153
2153
2153
2148
2148
2148
2147
2147
2147
2147
2150
2150
2150
2150
2150
2150
2153
2153
2153
2146
2146
2146
2150
2150
2150
2150
2151
2151
2151
2148
2148
2148
2158
2158
2158
2148
2148
2148
2150
2150
2150
2150
2155
2155
2155
2147
2147
2147
2149
2149
2149
2143
2143
2143
2147
2147
2147
2147
2152
2152
2152
2147
2147
2147
2154
2154
2154
2148
2148
2148
2148
2148
2148
2148
2152
2152
2152
2145
2145
2145
2156
2156
2156
2146
2146
2146
2149
2149
2149
2149
2153
2153
2153
2148
2148
2148
2153
2153
2153
2147
2147
2147
2149
2149
2149
2149
2152
2152
2152
2151
2151
2151
2153
2153
2153
2148
2148
2148
2151
2151
2151
2151
2148
2148
2148
2150
2150
2150
2154
2154
2154
2148
2148
2148
2149
2149
2149
2149
2150
2150
2150
2149
2149
2149
2152
2152
2152
2152
2152
2152
2150
2150
2150
2150
2153
2153
2153
2149
2149
2149
2152
2152
2152
2149
2149
2149
2151
2151
2151
2151
2152
2152
2152
2147
2147
2147
2150
2150
2150
2150
2150
2150
2152
2152
2152
2152
2152
2152
2152
2147
2147
2147
2152
2152
2152
2155
2155
2155
2149
2149
2149
2149
2150
2150
2150
2150
2150
2150
2155
2155
2155
2150
2150
2150
2152
2152
2152
2152
2150
2150
2150
2148
2148
2148
2154
2154
2154
2150
2150
2150
2151
2151
2151
2151
2153
2153
2153
2147
2147
2147
2154
2154
2154
2149
2149
2149
2150
2150
2150
2150
2153
2153
2153
2148
2148
2148
2156
2156
2156
2150
2150
2150
2149
2149
2149
2149
2154
2154
2154
2151
2151
2151
2152
2152
2152
2147
2147
2147
2149
2149
2149
2149
2154
2154
2154
2146
2146
2146
2152
2152
2152
2148
2148
2148
2151
2151
2151
2151
2151
2151
2151
2149
2149
2149
2154
2154
2154
2148
2148
2148
2150
2150
2150
2150
2150
2150
2150
2149
2149
2149
2155
2155
2155
2149
2149
2149
2151
2151
2151
2151
2153
2153
2153
2148
2148
2148
2153
2153
2153
2146
2146
2146
2147
2147
2147
2147
2154
2154
2154
2149
2149
2149
2153
2153
2153
2149
2149
2149
2150
2150
2150
2150
2151
2151
2151
2148
2148
2148
2157
2157
2157
2151
2151
2151
2148
2148
2148
2148
2152
2152
2152
2149
2149
2149
2153
2153
2153
2148
2148
2148
2151
2151
2151
2151
2152
2152
2152
2154
2154
2154
2150
2150
2150
2154
2154
2154
2148
2148
2148
2148
2152
2152
2152
2148
2148
2148
2156
2156
2156
2148
2148
2148
2151
2151
2151
2151
2156
2156
2156
2150
2150
2150
2152
2152
2152
2147
2147
2147
2153
2153
2153
2153
2151
2151
2151
2146
2146
2146
2151
2151
2151
2146
2146
2146
2152
2152
2152
2152
2144
2144
2144
2147
2147
2147
2148
2148
2148
2148
2148
2148
2150
2150
2150
2150
2154
2154
2154
2147
2147
2147
2151
2151
2151
2151
2151
2151
2150
2150
2150
2150
2154
2154
2154
2148
2148
2148
2149
2149
2149
2147
2147
2147
2152
2152
2152
2152
2154
2154
2154
2150
2150
2150
2153
2153
2153
2150
2150
2150
2146
2146
2146
2146
2153
2153
2153
2152
2152
2152
2153
2153
2153
2149
2149
2149
2151
2151
2151
2151
2152
2152
2152
2147
2147
2147
2153
2153
2153
2151
2151
2151
2152
2152
2152
2152
2153
2153
2153
2149
2149
2149
2152
2152
2152
2148
2148
2148
2150
2150
2150
2150
2152
2152
2152
2146
2146
2146
2155
2155
2155
2148
2148
2148
2153
2153
2153
2153
2155
2155
2155
2149
2149
2149
2152
2152
2152
2147
2147
2147
2153
2153
2153
2153
2153
2153
2153
2149
2149
2149
2153
2153
2153
2147
2147
2147
2150
2150
2150
2150
2152
2152
2152
2148
2148
2148
2154
2154
2154
2149
2149
2149
2151
2151
2151
2151
2148
2148
2148
2152
2152
2152
2153
2153
2153
2155
2155
2155
2149
2149
2149
2149
2152
2152
2152
2148
2148
2148
2152
2152
2152
2143
2143
2143
2151
2151
2151
2151
2151
2151
2151
2148
2148
2148
2155
2155
2155
2149
2149
2149
2152
2152
2152
2152
2150
2150
2150
2147
2147
2147
2152
2152
2152
2149
2149
2149
2152
2152
2152
2152
2152
2152
2152
2150
2150
2150
2153
2153
2153
2149
2149
2149
2152
2152
2152
2152
2158
2158
2158
2150
2150
2150
2152
2152
2152
2147
2147
2147
2153
2153
2153
2153
2151
2151
2151
2149
2149
2149
2154
2154
2154
2147
2147
2147
2152
2152
2152
2152
2152
2152
2152
2149
2149
2149
2155
2155
2155
2150
2150
2150
2150
2150
2150
2150
2151
2151
2151
2151
2151
2151
2154
2154
2154
2147
2147
2147
2151
2151
2151
2151
2154
2154
2154
2148
2148
2148
2154
2154
2154
2155
2155
2155
2149
2149
2149
2149
2150
2150
2150
2152
2152
2152
2153
2153
2153
2145
2145
2145
2152
2152
2152
2152
2152
2152
2152
2151
2151
2151
2149
2149
2149
2147
2147
2147
2151
2151
2151
2151
2154
2154
2154
2150
2150
2150
2152
2152
2152
2148
2148
2148
2151
2151
2151
2151
2150
2150
2150
2146
2146
2146
2151
2151
2151
2148
2148
2148
2148
2148
2148
2148
2152
2152
2152
2152
2152
2152
2152
2152
2152
2149
2149
2149
2150
2150
2150
2150
2151
2151
2151
2148
2148
2148
2153
2153
2153
2147
2147
2147
2151
2151
2151
2151
2154
2154
2154
2148
2148
2148
2150
2150
2150
2151
2151
2151
2153
2153
2153
2153
2153
2153
2153
2148
2148
2148
2155
2155
2155
2146
2146
2146
2150
2150
2150
2150
2149
2149
2149
2149
2149
2149
2150
2150
2150
2149
2149
2149
2153
2153
2153
2153
2153
2153
2153
2149
2149
2149
2153
2153
2153
2147
2147
2147
2151
2151
2151
2151
2154
2154
2154
2149
2149
2149
2151
2151
2151
2148
2148
2148
2154
2154
2154
2154
2154
2154
2154
2148
2148
2148
2152
2152
2152
2146
2146
2146
2151
2151
2151
2151
2150
2150
2150
2148
2148
2148
2151
2151
2151
2144
2144
2144
2149
2149
2149
2149
2152
2152
2152
2150
2150
2150
2156
2156
2156
2150
2150
2150
2151
2151
2151
2151
2145
2145
2145
2149
2149
2149
2155
2155
2155
2147
2147
2147
2154
2154
2154
2154
2154
2154
2154
2146
2146
2146
2151
2151
2151
2147
2147
2147
2151
2151
2151
2151
2153
2153
2153
2150
2150
2150
2153
2153
2153
2145
2145
2145
2150
2150
2150
2150
2154
2154
2154
2149
2149
2149
2150
2150
2150
2148
2148
2148
2151
2151
2151
2151
2153
2153
2153
2146
2146
2146
2153
2153
2153
2147
2147
2147
2151
2151
2151
2151
2153
2153
2153
2147
2147
2147
2152
2152
2152
2150
2150
2150
2151
2151
2151
2151
2153
2153
2153
2145
2145
2145
2154
2154
2154
2149
2149
2149
2152
2152
2152
2152
2153
2153
2153
2149
2149
2149
2150
2150
2150
2149
2149
2149
2152
2152
2152
2152
2152
2152
2152
2149
2149
2149
2155
2155
2155
2151
2151
2151
2152
2152
2152
2152
2152
2152
2152
2146
2146
2146
2153
2153
2153
2149
2149
2149
2147
2147
2147
2147
2153
2153
2153
2147
2147
2147
2152
2152
2152
2146
2146
2146
2152
2152
2152
2152
2154
2154
2154
2150
2150
2150
2150
2150
2150
2151
2151
2151
2149
2149
2149
2149
2153
2153
2153
2147
2147
2147
2153
2153
2153
2150
2150
2150
2151
2151
2151
2151
2151
2151
2151
2147
2147
2147
2149
2149
2149
2148
2148
2148
2151
2151
2151
2151
2153
2153
2153
2148
2148
2148
2153
2153
2153
2149
2149
2149
2152
2152
2152
2152
2153
2153
2153
2153
2153
2153
2153
2153
2153
2149
2149
2149
2151
2151
2151
2151
2153
2153
2153
2145
2145
2145
2153
2153
2153
2147
2147
2147
2149
2149
2149
2149
2151
2151
2151
2149
2149
2149
2153
2153
2153
2148
2148
2148
2145
2145
2145
2145
2152
2152
2152
2150
2150
2150
2152
2152
2152
2149
2149
2149
2150
2150
2150
2150
2154
2154
2154
2147
2147
2147
2151
2151
2151
2146
2146
2146
2140
2140
2140
2140
2154
2154
2154
2150
2150
2150
2154
2154
2154
2148
2148
2148
2141
2141
2141
2141
2154
2154
2154
2145
2145
2145
2154
2154
2154
2148
2148
2148
2152
2152
2152
2152
2150
2150
2150
2147
2147
2147
2154
2154
2154
2143
2143
2143
2153
2153
2153
2153
2154
2154
2154
2148
2148
2148
2152
2152
2152
2148
2148
2148
2152
2152
2152
2152
2151
2151
2151
2150
2150
2150
2149
2149
2149
2143
2143
2143
2150
2150
2150
2150
2151
2151
2151
2147
2147
2147
2153
2153
2153
2147
2147
2147
2150
2150
2150
2150
2155
2155
2155
2149
2149
2149
2154
2154
2154
2150
2150
2150
2152
2152
2152
2152
2156
2156
2156
2147
2147
2147
2155
2155
2155
2149
2149
2149
2151
2151
2151
2151
2152
2152
2152
2146
2146
2146
2153
2153
2153
2149
2149
2149
2150
2150
2150
2150
2152
2152
2152
2149
2149
2149
2153
2153
2153
2148
2148
2148
2153
2153
2153
2153
2151
2151
2151
2147
2147
2147
2153
2153
2153
2147
2147
2147
2151
2151
2151
2151
2153
2153
2153
2148
2148
2148
2152
2152
2152
2149
2149
2149
2152
2152
2152
2152
2154
2154
2154
2152
2152
2152
2155
2155
2155
2147
2147
2147
2151
2151
2151
2151
2154
2154
2154
2148
2148
2148
2156
2156
2156
2146
2146
2146
2149
2149
2149
2149
2155
2155
2155
2149
2149
2149
2153
2153
2153
2150
2150
2150
2150
2150
2150
2150
2152
2152
2152
2148
2148
2148
2152
2152
2152
2146
2146
2146
2151
2151
2151
2151
2153
2153
2153
2147
2147
2147
2149
2149
2149
2142
2142
2142
2150
2150
2150
2150
2154
2154
2154
2149
2149
2149
2160
2160
2160
2151
2151
2151
2150
2150
2150
2150
2153
2153
2153
2148
2148
2148
2151
2151
2151
2151
2151
2151
2151
2151
2151
2151
2153
2153
2153
2149
2149
2149
2151
2151
2151
2152
2152
2152
2147
2147
2147
2147
2152
2152
2152
2150
2150
2150
2150
2150
2150
2149
2149
2149
2152
2152
2152
2152
2154
2154
2154
2151
2151
2151
2156
2156
2156
2153
2153
2153
2150
2150
2150
2150
2153
2153
2153
2148
2148
2148
2154
2154
2154
2148
2148
2148
2148
2148
2148
2148
2151
2151
2151
2149
2149
2149
2151
2151
2151
2149
2149
2149
2149
2149
2149
2149
2149
2149
2149
2148
2148
2148
2153
2153
2153
2149
2149
2149
2150
2150
2150
2150
2153
2153
2153
2149
2149
2149
2151
2151
2151
2146
2146
2146
2150
2150
2150
2150
2152
2152
2152
2147
2147
2147
2154
2154
2154
2148
2148
2148
2152
2152
2152
2152
2153
2153
2153
2148
2148
2148
2151
2151
2151
2147
2147
2147
2150
2150
2150
2150
2155
2155
2155
2147
2147
2147
2153
2153
2153
2149
2149
2149
2153
2153
2153
2153
2153
2153
2153
2150
2150
2150
2153
2153
2153
2149
2149
2149
2150
2150
2150
2150
2153
2153
2153
2150
2150
2150
2152
2152
2152
2149
2149
2149
2147
2147
2147
2147
2152
2152
2152
2148
2148
2148
2150
2150
2150
2150
2150
2150
2152
2152
2152
2152
2151
2151
2151
2148
2148
2148
2153
2153
2153
2151
2151
2151
2153
2153
2153
2153
2154
2154
2154
2147
2147
2147
2148
2148
2148
2146
2146
2146
2151
2151
2151
2151
2153
2153
2153
2147
2147
2147
2151
2151
2151
2146
2146
2146
2149
2149
2149
2149
2153
2153
2153
2147
2147
2147
2154
2154
2154
2148
2148
2148
2150
2150
2150
2150
2152
2152
2152
2148
2148
2148
2160
2160
2160
2147
2147
2147
2149
2149
2149
2149
2152
2152
2152
2148
2148
2148
2151
2151
2151
2149
2149
2149
2149
2149
2149
2149
2148
2148
2148
2153
2153
2153
2150
2150
2150
2151
2151
2151
2152
2152
2152
2152
2154
2154
2154
2150
2150
2150
2153
2153
2153
2146
2146
2146
2151
2151
2151
2151
2155
2155
2155
2149
2149
2149
2152
2152
2152
2149
2149
2149
2151
2151
2151
2151
2153
2153
2153
2148
2148
2148
2153
2153
2153
2149
2149
2149
2149
2149
2149
2149
2156
2156
2156
2150
2150
2150
2153
2153
2153
2147
2147
2147
2149
2149
2149
2149
2151
2151
2151
2149
2149
2149
2154
2154
2154
2148
2148
2148
2152
2152
2152
2152
2152
2152
2152
2145
2145
2145
2154
2154
2154
2144
2144
2144
2153
2153
2153
2153
2151
2151
2151
2148
2148
2148
2155
2155
2155
2148
2148
2148
2151
2151
2151
2151
2153
2153
2153
2147
2147
2147
2151
2151
2151
2147
2147
2147
2152
2152
2152
2152
2152
2152
2152
2146
2146
2146
2152
2152
2152
2147
2147
2147
2154
2154
2154
2154
2152
2152
2152
2149
2149
2149
2154
2154
2154
2147
2147
2147
2150
2150
2150
2150
2151
2151
2151
2145
2145
2145
2153
2153
2153
2153
2153
2153
2153
2153
2153
2153
2153
2153
2153
2150
2150
2150
2154
2154
2154
2149
2149
2149
2150
2150
2150
2150
2149
2149
2149
2145
2145
2145
2156
2156
2156
2146
2146
2146
2153
2153
2153
2153
2154
2154
2154
2151
2151
2151
2152
2152
2152
2148
2148
2148
2150
2150
2150
2150
2150
2150
2150
2147
2147
2147
2148
2148
2148
2150
2150
2150
2148
2148
2148
2148
2154
2154
2154
2150
2150
2150
2152
2152
2152
2148
2148
2148
2151
2151
2151
2151
2158
2158
2158
2149
2149
2149
2153
2153
2153
2150
2150
2150
2151
2151
2151
2151
2152
2152
2152
2146
2146
2146
2155
2155
2155
2150
2150
2150
2149
2149
2149
2149
2150
2150
2150
2146
2146
2146
2151
2151
2151
2147
2147
2147
2153
2153
2153
2153
2152
2152
2152
2151
2151
2151
2155
2155
2155
2150
2150
2150
2150
2150
2150
2150
2152
2152
2152
2151
2151
2151
2154
2154
2154
2148
2148
2148
2150
2150
2150
2150
2153
2153
2153
2148
2148
2148
2153
2153
2153
2147
2147
2147
2152
2152
2152
2152
2153
2153
2153
2145
2145
2145
2154
2154
2154
2148
2148
2148
2150
2150
2150
2150
2150
2150
2150
2149
2149
2149
2153
2153
2153
2151
2151
2151
2150
2150
2150
2150
2151
2151
2151
2147
2147
2147
2151
2151
2151
2147
2147
2147
2150
2150
2150
2150
2153
2153
2153
2148
2148
2148
2154
2154
2154
2148
2148
2148
2148
2148
2148
2148
2152
2152
2152
2148
2148
2148
2154
2154
2154
2148
2148
2148
2150
2150
2150
2150
2151
2151
2151
2147
2147
2147
2155
2155
2155
2152
2152
2152
2146
2146
2146
2146
2151
2151
2151
2149
2149
2149
2155
2155
2155
2152
2152
2152
2149
2149
2149
2149
2155
2155
2155
2148
2148
2148
2155
2155
2155
2143
2143
2143
2148
2148
2148
2148
2153
2153
2153
2148
2148
2148
2152
2152
2152
2147
2147
2147
2149
2149
2149
2149
2150
2150
2150
2136
2136
2136
2152
2152
2152
2148
2148
2148
2152
2152
2152
2152
2153
2153
2153
2148
2148
2148
2154
2154
2154
2148
2148
2148
2149
2149
2149
2149
2155
2155
2155
2145
2145
2145
2153
2153
2153
2147
2147
2147
2151
2151
2151
2151
2154
2154
2154
2149
2149
2149
2151
2151
2151
2148
2148
2148
2149
2149
2149
2149
2153
2153
2153
2151
2151
2151
2152
2152
2152
2148
2148
2148
2150
2150
2150
2150
2153
2153
2153
2149
2149
2149
2153
2153
2153
2150
2150
2150
2149
2149
2149
2149
2153
2153
2153
2153
2153
2153
2153
2153
2153
2146
2146
2146
2151
2151
2151
2151
2152
2152
2152
2149
2149
2149
2155
2155
2155
2147
2147
2147
2151
2151
2151
2151
2150
2150
2150
2149
2149
2149
2152
2152
2152
2149
2149
2149
2149
2149
2149
2149
2153
2153
2153
2144
2144
2144
2151
2151
2151
2150
2150
2150
2154
2154
2154
2154
2153
2153
2153
2150
2150
2150
2152
2152
2152
2145
2145
2145
2152
2152
2152
2152
2158
2158
2158
2148
2148
2148
2154
2154
2154
2151
2151
2151
2152
2152
2152
2152
2153
2153
2153
2147
2147
2147
2149
2149
2149
2148
2148
2148
2151
2151
2151
2151
2154
2154
2154
2148
2148
2148
2153
2153
2153
2151
2151
2151
2151
2151
2151
2151
2153
2153
2153
2149
2149
2149
2154
2154
2154
2148
2148
2148
2152
2152
2152
2152
2152
2152
2152
2147
2147
2147
2156
2156
2156
2149
2149
2149
2152
2152
2152
2152
2154
2154
2154
2148
2148
2148
2154
2154
2154
2147
2147
2147
2152
2152
2152
2152
2154
2154
2154
2144
2144
2144
2159
2159
2159
2150
2150
2150
2152
2152
2152
2152
2152
2152
2152
2148
2148
2148
2153
2153
2153
2148
2148
2148
2149
2149
2149
2149
2152
2152
2152
2149
2149
2149
2150
2150
2150
2144
2144
2144
2152
2152
2152
2152
2153
2153
2153
2148
2148
2148
2153
2153
2153
2147
2147
2147
2153
2153
2153
2153
2153
2153
2153
2147
2147
2147
2155
2155
2155
2146
2146
2146
2152
2152
2152
2152
2152
2152
2152
2149
2149
2149
2153
2153
2153
2147
2147
2147
2149
2149
2149
2149
2154
2154
2154
2148
2148
2148
2152
2152
2152
2150
2150
2150
2150
2150
2150
2150
2154
2154
2154
2149
2149
2149
2152
2152
2152
2148
2148
2148
2150
2150
2150
2150
2148
2148
2148
2149
2149
2149
2155
2155
2155
2145
2145
2145
2150
2150
2150
2150
2155
2155
2155
2150
2150
2150
2154
2154
2154
2147
2147
2147
2151
2151
2151
2151
2151
2151
2151
2149
2149
2149
2156
2156
2156
2148
2148
2148
2150
2150
2150
2150
2151
2151
2151
2147
2147
2147
2153
2153
2153
2148
2148
2148
2154
2154
2154
2154
2152
2152
2152
2147
2147
2147
2152
2152
2152
2148
2148
2148
2158
2158
2158
2158
2154
2154
2154
2150
2150
2150
2155
2155
2155
2148
2148
2148
2150
2150
2150
2150
2151
2151
2151
2147
2147
2147
2153
2153
2153
2148
2148
2148
2151
2151
2151
2151
2152
2152
2152
2146
2146
2146
2153
2153
2153
2147
2147
2147
2154
2154
2154
2154
2154
2154
2154
2149
2149
2149
2153
2153
2153
2148
2148
2148
2147
2147
2147
2147
2149
2149
2149
2146
2146
2146
2155
2155
2155
2149
2149
2149
2151
2151
2151
2151
2153
2153
2153
2148
2148
2148
2153
2153
2153
2149
2149
2149
2150
2150
2150
2150
2151
2151
2151
2151
2151
2151
2152
2152
2152
2152
2152
2152
2151
2151
2151
2151
2152
2152
2152
2142
2142
2142
2153
2153
2153
2148
2148
2148
2151
2151
2151
2151
2155
2155
2155
2148
2148
2148
2156
2156
2156
2146
2146
2146
2150
2150
2150
2150
2155
2155
2155
2147
2147
2147
2152
2152
2152
2148
2148
2148
2150
2150
2150
2150
2153
2153
2153
2148
2148
2148
2157
2157
2157
2147
2147
2147
2150
2150
2150
2150
2153
2153
2153
2148
2148
2148
2151
2151
2151
2148
2148
2148
2150
2150
2150
2150
2153
2153
2153
2153
2153
2153
2151
2151
2151
2148
2148
2148
2153
2153
2153
2153
2152
2152
2152
2147
2147
2147
2154
2154
2154
2145
2145
2145
2150
2150
2150
2150
2154
2154
2154
2151
2151
2151
2151
2151
2151
2149
2149
2149
2150
2150
2150
2150
2153
2153
2153
2150
2150
2150
2152
2152
2152
2149
2149
2149
2146
2146
2146
2146
2151
2151
2151
2151
2151
2151
2153
2153
2153
2150
2150
2150
2152
2152
2152
2152
2152
2152
2152
2153
2153
2153
2152
2152
2152
2146
2146
2146
2154
2154
2154
2154
2153
2153
2153
2147
2147
2147
2152
2152
2152
2149
2149
2149
2151
2151
2151
2151
2154
2154
2154
2149
2149
2149
2156
2156
2156
2149
2149
2149
2149
2149
2149
2149
2153
2153
2153
2150
2150
2150
2155
2155
2155
2148
2148
2148
2150
2150
2150
2150
2150
2150
2150
2147
2147
2147
2155
2155
2155
2148
2148
2148
2153
2153
2153
2153
2157
2157
2157
2150
2150
2150
2153
2153
2153
2145
2145
2145
2149
2149
2149
2149
2156
2156
2156
2151
2151
2151
2152
2152
2152
2147
2147
2147
2150
2150
2150
2150
2153
2153
2153
2150
2150
2150
2154
2154
2154
2148
2148
2148
2151
2151
2151
2151
2154
2154
2154
2146
2146
2146
2152
2152
2152
2148
2148
2148
2151
2151
2151
2151
2154
2154
2154
2152
2152
2152
2153
2153
2153
2147
2147
2147
2150
2150
2150
2150
2154
2154
2154
2148
2148
2148
2154
2154
2154
2148
2148
2148
2149
2149
2149
2149
2151
2151
2151
2148
2148
2148
2153
2153
2153
2150
2150
2150
2149
2149
2149
2149
2153
2153
2153
2145
2145
2145
2151
2151
2151
2149
2149
2149
2152
2152
2152
2152
2153
2153
2153
2143
2143
2143
2152
2152
2152
2149
2149
2149
2149
2149
2149
2149
2154
2154
2154
2149
2149
2149
2153
2153
2153
2147
2147
2147
2146
2146
2146
2146
2153
2153
2153
2148
2148
2148
2153
2153
2153
2147
2147
2147
2153
2153
2153
2153
2151
2151
2151
2148
2148
2148
2153
2153
2153
2149
2149
2149
2150
2150
2150
2150
2153
2153
2153
2147
2147
2147
2154
2154
2154
2147
2147
2147
2145
2145
2145
2145
2155
2155
2155
2145
2145
2145
2152
2152
2152
2149
2149
2149
2151
2151
2151
2151
2147
2147
2147
2150
2150
2150
2152
2152
2152
2145
2145
2145
2148
2148
2148
2148
2152
2152
2152
2149
2149
2149
2154
2154
2154
2147
2147
2147
2149
2149
2149
2149
2152
2152
2152
2148
2148
2148
2151
2151
2151
2147
2147
2147
2149
2149
2149
2149
2154
2154
2154
2151
2151
2151
2154
2154
2154
2149
2149
2149
2150
2150
2150
2150
2156
2156
2156
2147
2147
2147
2154
2154
2154
2150
2150
2150
2151
2151
2151
2151
2151
2151
2151
2149
2149
2149
2154
2154
2154
2148
2148
2148
2151
2151
2151
2151
2155
2155
2155
2149
2149
2149
2153
2153
2153
2149
2149
2149
2152
2152
2152
2152
2152
2152
2152
2148
2148
2148
2150
2150
2150
2149
2149
2149
2151
2151
2151
2151
2152
2152
2152
2147
2147
2147
2152
2152
2152
2147
2147
2147
2151
2151
2151
2151
2153
2153
2153
2152
2152
2152
2153
2153
2153
2149
2149
2149
2155
2155
2155
2155
2153
2153
2153
2148
2148
2148
2154
2154
2154
2147
2147
2147
2152
2152
2152
2152
2150
2150
2150
2145
2145
2145
2155
2155
2155
2150
2150
2150
2148
2148
2148
2148
2153
2153
2153
2147
2147
2147
2151
2151
2151
2148
2148
2148
2151
2151
2151
2151
2151
2151
2151
2150
2150
2150
2151
2151
2151
2153
2153
2153
2154
2154
2154
2154
2151
2151
2151
2148
2148
2148
2153
2153
2153
2151
2151
2151
2151
2151
2151
2151
2154
2154
2154
2146
2146
2146
2153
2153
2153
2147
2147
2147
2152
2152
2152
2152
2154
2154
2154
2149
2149
2149
2152
2152
2152
2147
2147
2147
2149
2149
2149
2149
2156
2156
2156
2146
2146
2146
2152
2152
2152
2150
2150
2150
2149
2149
2149
2149
2151
2151
2151
2149
2149
2149
2153
2153
2153
2146
2146
2146
2154
2154
2154
2154
2156
2156
2156
2148
2148
2148
2155
2155
2155
2149
2149
2149
2152
2152
2152
2152
2153
2153
2153
2146
2146
2146
2152
2152
2152
2147
2147
2147
2150
2150
2150
2150
2153
2153
2153
2150
2150
2150
2150
2150
2150
2149
2149
2149
2150
2150
2150
2150
2154
2154
2154
2149
2149
2149
2152
2152
2152
2150
2150
2150
2151
2151
2151
2151
2154
2154
2154
2146
2146
2146
2154
2154
2154
2148
2148
2148
2152
2152
2152
2152
2154
2154
2154
2148
2148
2148
2154
2154
2154
2144
2144
2144
2149
2149
2149
2149
2155
2155
2155
2147
2147
2147
2151
2151
2151
2145
2145
2145
2151
2151
2151
2151
2153
2153
2153
2150
2150
2150
2154
2154
2154
2150
2150
2150
2154
2154
2154
2154
2150
2150
2150
2149
2149
2149
2152
2152
2152
2146
2146
2146
2151
2151
2151
2151
2154
2154
2154
2141
2141
2141
2151
2151
2151
2152
2152
2152
2150
2150
2150
2150
2154
2154
2154
2148
2148
2148
2153
2153
2153
2149
2149
2149
2151
2151
2151
2151
2151
2151
2151
2156
2156
2156
2151
2151
2151
2151
2151
2151
2147
2147
2147
2147
2152
2152
2152
2147
2147
2147
2152
2152
2152
2148
2148
2148
2151
2151
2151
2151
2153
2153
2153
2147
2147
2147
2155
2155
2155
2146
2146
2146
2152
2152
2152
2152
2151
2151
2151
2149
2149
2149
2153
2153
2153
2147
2147
2147
2151
2151
2151
2151
2150
2150
2150
2149
2149
2149
2153
2153
2153
2150
2150
2150
2158
2158
2158
2158
2153
2153
2153
2149
2149
2149
2154
2154
2154
2150
2150
2150
2149
2149
2149
2149
2150
2150
2150
2149
2149
2149
2152
2152
2152
2149
2149
2149
2152
2152
2152
2152
2152
2152
2152
2149
2149
2149
2154
2154
2154
2149
2149
2149
2148
2148
2148
2148
2154
2154
2154
2151
2151
2151
2152
2152
2152
2150
2150
2150
2151
2151
2151
2151
2149
2149
2149
2148
2148
2148
2153
2153
2153
2145
2145
2145
2154
2154
2154
2154
2152
2152
2152
2150
2150
2150
2154
2154
2154
2149
2149
2149
2151
2151
2151
2151
2153
2153
2153
2154
2154
2154
2151
2151
2151
2146
2146
2146
2151
2151
2151
2151
2153
2153
2153
2146
2146
2146
2154
2154
2154
2149
2149
2149
2152
2152
2152
2152
2156
2156
2156
2153
2153
2153
2155
2155
2155
2142
2142
2142
2151
2151
2151
2151
2154
2154
2154
2149
2149
2149
2153
2153
2153
2150
2150
2150
2151
2151
2151
2151
2154
2154
2154
2139
2139
2139
2154
2154
2154
2149
2149
2149
2151
2151
2151
2151
2152
2152
2152
2148
2148
2148
2153
2153
2153
2147
2147
2147
2149
2149
2149
2149
2150
2150
2150
2151
2151
2151
2149
2149
2149
2156
2156
2156
2149
2149
2149
2149
2152
2152
2152
2148
2148
2148
2155
2155
2155
2147
2147
2147
2150
2150
2150
2150
2148
2148
2148
2147
2147
2147
2152
2152
2152
2149
2149
2149
2151
2151
2151
2151
2152
2152
2152
2148
2148
2148
2152
2152
2152
2147
2147
2147
2149
2149
2149
2149
2150
2150
2150
2145
2145
2145
2153
2153
2153
2148
2148
2148
2152
2152
2152
2152
2155
2155
2155
2148
2148
2148
2153
2153
2153
2148
2148
2148
2151
2151
2151
2151
2148
2148
2148
2148
2148
2148
2153
2153
2153
2150
2150
2150
2152
2152
2152
2152
2152
2152
2152
2151
2151
2151
2151
2151
2151
2148
2148
2148
2149
2149
2149
2149
2152
2152
2152
2148
2148
2148
2154
2154
2154
2151
2151
2151
2152
2152
2152
2152
2154
2154
2154
2150
2150
2150
2153
2153
2153
2150
2150
2150
2149
2149
2149
2149
2151
2151
2151
2148
2148
2148
2153
2153
2153
2149
2149
2149
2150
2150
2150
2150
2152
2152
2152
2148
2148
2148
2156
2156
2156
2149
2149
2149
2152
2152
2152
2152
2153
2153
2153
2148
2148
2148
2155
2155
2155
2148
2148
2148
2151
2151
2151
2151
2153
2153
2153
2150
2150
2150
2152
2152
2152
2146
2146
2146
2152
2152
2152
2152
2152
2152
2152
2151
2151
2151
2155
2155
2155
2146
2146
2146
2153
2153
2153
2153
2152
2152
2152
2154
2154
2154
2155
2155
2155
2151
2151
2151
2153
2153
2153
2153
2153
2153
2153
2148
2148
2148
2151
2151
2151
2149
2149
2149
2150
2150
2150
2150
2145
2145
2145
2153
2153
2153
2151
2151
2151
2142
2142
2142
2149
2149
2149
2149
2150
2150
2150
2147
2147
2147
2155
2155
2155
2149
2149
2149
2152
2152
2152
2152
2154
2154
2154
2150
2150
2150
2149
2149
2149
2147
2147
2147
2151
2151
2151
2151
2154
2154
2154
2147
2147
2147
2152
2152
2152
2148
2148
2148
2149
2149
2149
2149
2152
2152
2152
2150
2150
2150
2152
2152
2152
2148
2148
2148
2151
2151
2151
2151
2155
2155
2155
2150
2150
2150
2151
2151
2151
2148
2148
2148
2151
2151
2151
2151
2151
2151
2151
2150
2150
2150
2154
2154
2154
2149
2149
2149
2149
2149
2149
2149
2149
2149
2149
2149
2149
2149
2153
2153
2153
2136
2136
2136
2151
2151
2151
2151
2153
2153
2153
2149
2149
2149
2155
2155
2155
2149
2149
2149
2150
2150
2150
2150
2153
2153
2153
2149
2149
2149
2154
2154
2154
2147
2147
2147
2154
2154
2154
2154
2153
2153
2153
2150
2150
2150
2154
2154
2154
2148
2148
2148
2152
2152
2152
2152
2154
2154
2154
2148
2148
2148
2153
2153
2153
2146
2146
2146
2148
2148
2148
2148
2151
2151
2151
2149
2149
2149
2153
2153
2153
2147
2147
2147
2148
2148
2148
2148
2152
2152
2152
2147
2147
2147
2155
2155
2155
2146
2146
2146
2146
2146
2146
2146
2150
2150
2150
2150
2150
2150
2155
2155
2155
2147
2147
2147
2150
2150
2150
2150
2153
2153
2153
2150
2150
2150
2156
2156
2156
2152
2152
2152
2156
2156
2156
2156
2153
2153
2153
2147
2147
2147
2155
2155
2155
2150
2150
2150
2150
2150
2150
2150
2152
2152
2152
2147
2147
2147
2156
2156
2156
2153
2153
2153
2153
2153
2153
2153
2153
2153
2153
2149
2149
2149
2153
2153
2153
2147
2147
2147
2151
2151
2151
2151
2155
2155
2155
2143
2143
2143
2149
2149
2149
2145
2145
2145
2150
2150
2150
2150
2153
2153
2153
2146
2146
2146
2155
2155
2155
2148
2148
2148
2149
2149
2149
2149
2153
2153
2153
2148
2148
2148
2155
2155
2155
2150
2150
2150
2152
2152
2152
2152
2151
2151
2151
2148
2148
2148
2153
2153
2153
2150
2150
2150
2151
2151
2151
2151
2161
2161
2161
2145
2145
2145
2151
2151
2151
2147
2147
2147
2151
2151
2151
2151
2153
2153
2153
2149
2149
2149
2153
2153
2153
2151
2151
2151
2149
2149
2149
2149
2152
2152
2152
2153
2153
2153
2154
2154
2154
2150
2150
2150
2152
2152
2152
2152
2153
2153
2153
2144
2144
2144
2152
2152
2152
2147
2147
2147
2150
2150
2150
2150
2151
2151
2151
2150
2150
2150
2152
2152
2152
2149
2149
2149
2150
2150
2150
2150
2153
2153
2153
2151
2151
2151
2153
2153
2153
2150
2150
2150
2151
2151
2151
2151
2153
2153
2153
2148
2148
2148
2154
2154
2154
2148
2148
2148
2152
2152
2152
2152
2155
2155
2155
2150
2150
2150
2154
2154
2154
2148
2148
2148
2148
2148
2148
2148
2150
2150
2150
2149
2149
2149
2154
2154
2154
2150
2150
2150
2150
2150
2150
2150
2153
2153
2153
2149
2149
2149
2154
2154
2154
2150
2150
2150
2151
2151
2151
2151
2152
2152
2152
2146
2146
2146
2154
2154
2154
2147
2147
2147
2148
2148
2148
2148
2153
2153
2153
2149
2149
2149
2153
2153
2153
2147
2147
2147
2152
2152
2152
2152
2153
2153
2153
2150
2150
2150
2153
2153
2153
2148
2148
2148
2151
2151
2151
2151
2155
2155
2155
2146
2146
2146
2155
2155
2155
2143
2143
2143
2149
2149
2149
2149
2153
2153
2153
2149
2149
2149
2150
2150
2150
2149
2149
2149
2151
2151
2151
2151
2154
2154
2154
2152
2152
2152
2148
2148
2148
2149
2149
2149
2152
2152
2152
2152
2157
2157
2157
2150
2150
2150
2155
2155
2155
2148
2148
2148
2150
2150
2150
2150
2153
2153
2153
2154
2154
2154
2147
2147
2147
2148
2148
2148
2150
2150
2150
2150
2154
2154
2154
2147
2147
2147
2153
2153
2153
2148
2148
2148
2150
2150
2150
2150
2153
2153
2153
2151
2151
2151
2153
2153
2153
2148
2148
2148
2149
2149
2149
2149
2153
2153
2153
2149
2149
2149
2152
2152
2152
2147
2147
2147
2152
2152
2152
2152
2155
2155
2155
2148
2148
2148
2154
2154
2154
2147
2147
2147
2152
2152
2152
2152
2154
2154
2154
2148
2148
2148
2153
2153
2153
2150
2150
2150
2151
2151
2151
2151
2153
2153
2153
2149
2149
2149
2154
2154
2154
2146
2146
2146
2150
2150
2150
2150
2153
2153
2153
2151
2151
2151
2152
2152
2152
2149
2149
2149
2149
2149
2149
2149
2150
2150
2150
2148
2148
2148
2152
2152
2152
2151
2151
2151
2151
2151
2151
2151
2149
2149
2149
2147
2147
2147
2155
2155
2155
2149
2149
2149
2153
2153
2153
2153
2151
2151
2151
2147
2147
2147
2153
2153
2153
2147
2147
2147
2150
2150
2150
2150
2152
2152
2152
2145
2145
2145
2150
2150
2150
2148
2148
2148
2147
2147
2147
2147
2153
2153
2153
2150
2150
2150
2152
2152
2152
2148
2148
2148
2149
2149
2149
2149
2152
2152
2152
2146
2146
2146
2151
2151
2151
2148
2148
2148
2153
2153
2153
2153
2155
2155
2155
2147
2147
2147
2156
2156
2156
2150
2150
2150
2149
2149
2149
2149
2151
2151
2151
2150
2150
2150
2149
2149
2149
2147
2147
2147
2152
2152
2152
2152
2155
2155
2155
2149
2149
2149
2151
2151
2151
2149
2149
2149
2151
2151
2151
2151
2157
2157
2157
2149
2149
2149
2154
2154
2154
2148
2148
2148
2147
2147
2147
2147
2153
2153
2153
2148
2148
2148
2151
2151
2151
2143
2143
2143
2150
2150
2150
2150
2155
2155
2155
2149
2149
2149
2149
2149
2149
2150
2150
2150
2150
2150
2150
2150
2152
2152
2152
2148
2148
2148
2149
2149
2149
2148
2148
2148
2150
2150
2150
2150
2152
2152
2152
2146
2146
2146
2155
2155
2155
2148
2148
2148
2149
2149
2149
2149
2153
2153
2153
2149
2149
2149
2154
2154
2154
2150
2150
2150
2151
2151
2151
2151
2153
2153
2153
2154
2154
2154
2151
2151
2151
2148
2148
2148
2151
2151
2151
2151
2154
2154
2154
2146
2146
2146
2151
2151
2151
2149
2149
2149
2152
2152
2152
2152
2149
2149
2149
2149
2149
2149
2156
2156
2156
2149
2149
2149
2152
2152
2152
2152
2155
2155
2155
2148
2148
2148
2152
2152
2152
2149
2149
2149
2149
2149
2149
2149
2152
2152
2152
2149
2149
2149
2153
2153
2153
2147
2147
2147
2150
2150
2150
2150
2153
2153
2153
2147
2147
2147
2150
2150
2150
2148
2148
2148
2149
2149
2149
2149
2154
2154
2154
2147
2147
2147
2152
2152
2152
2148
2148
2148
2152
2152
2152
2152
2153
2153
2153
2150
2150
2150
2151
2151
2151
2146
2146
2146
2151
2151
2151
2151
2150
2150
2150
2149
2149
2149
2155
2155
2155
2150
2150
2150
2149
2149
2149
2149
2151
2151
2151
2149
2149
2149
2149
2149
2149
2150
2150
2150
2144
2144
2144
2144
2151
2151
2151
2146
2146
2146
2154
2154
2154
2149
2149
2149
2151
2151
2151
2151
2153
2153
2153
2150
2150
2150
2154
2154
2154
2151
2151
2151
2145
2145
2145
2145
2150
2150
2150
2148
2148
2148
2152
2152
2152
2147
2147
2147
2152
2152
2152
2152
2155
2155
2155
2149
2149
2149
2156
2156
2156
2151
2151
2151
2146
2146
2146
2146
2151
2151
2151
2151
2151
2151
2155
2155
2155
2147
2147
2147
2151
2151
2151
2151
2152
2152
2152
2148
2148
2148
2152
2152
2152
2153
2153
2153
2157
2157
2157
2157
2154
2154
2154
2149
2149
2149
2151
2151
2151
2149
2149
2149
2148
2148
2148
2148
2150
2150
2150
2149
2149
2149
2150
2150
2150
2151
2151
2151
2153
2153
2153
2153
2152
2152
2152
2148
2148
2148
2156
2156
2156
2146
2146
2146
2149
2149
2149
2149
2154
2154
2154
2153
2153
2153
2154
2154
2154
2148
2148
2148
2145
2145
2145
2145
2152
2152
2152
2148
2148
2148
2152
2152
2152
2151
2151
2151
2153
2153
2153
2153
2152
2152
2152
2146
2146
2146
2155
2155
2155
2149
2149
2149
2148
2148
2148
2148
2153
2153
2153
2149
2149
2149
2151
2151
2151
2149
2149
2149
2150
2150
2150
2150
2153
2153
2153
2145
2145
2145
2148
2148
2148
2149
2149
2149
2147
2147
2147
2147
2153
2153
2153
2148
2148
2148
2153
2153
2153
2151
2151
2151
2153
2153
2153
2153
2156
2156
2156
2145
2145
2145
2155
2155
2155
2149
2149
2149
2151
2151
2151
2151
2154
2154
2154
2149
2149
2149
2153
2153
2153
2150
2150
2150
2152
2152
2152
2152
2154
2154
2154
2145
2145
2145
2148
2148
2148
2149
2149
2149
2151
2151
2151
2151
2153
2153
2153
2151
2151
2151
2151
2151
2151
2150
2150
2150
2149
2149
2149
2149
2156
2156
2156
2150
2150
2150
2151
2151
2151
2150
2150
2150
2151
2151
2151
2151
2152
2152
2152
2147
2147
2147
2152
2152
2152
2148
2148
2148
2148
2148
2148
2148
2152
2152
2152
2148
2148
2148
2157
2157
2157
2150
2150
2150
2151
2151
2151
2151
2151
2151
2151
2149
2149
2149
2154
2154
2154
2147
2147
2147
2150
2150
2150
2150
2151
2151
2151
2149
2149
2149
2151
2151
2151
2149
2149
2149
2151
2151
2151
2151
2153
2153
2153
2149
2149
2149
2153
2153
2153
2148
2148
2148
2151
2151
2151
2151
2149
2149
2149
2148
2148
2148
2152
2152
2152
2148
2148
2148
2152
2152
2152
2152
2151
2151
2151
2148
2148
2148
2156
2156
2156
2148
2148
2148
2150
2150
2150
2150
2155
2155
2155
2149
2149
2149
2151
2151
2151
2148
2148
2148
2145
2145
2145
2145
2152
2152
2152
2149
2149
2149
2153
2153
2153
2149
2149
2149
2148
2148
2148
2148
2147
2147
2147
2147
2147
2147
2154
2154
2154
2148
2148
2148
2150
2150
2150
2150
2153
2153
2153
2149
2149
2149
2151
2151
2151
2146
2146
2146
2153
2153
2153
2153
2152
2152
2152
2150
2150
2150
2154
2154
2154
2147
2147
2147
2152
2152
2152
2152
2152
2152
2152
2149
2149
2149
2154
2154
2154
2150
2150
2150
2153
2153
2153
2153
2156
2156
2156
2147
2147
2147
2153
2153
2153
2145
2145
2145
2153
2153
2153
2153
2152
2152
2152
2146
2146
2146
2153
2153
2153
2147
2147
2147
2151
2151
2151
2151
2153
2153
2153
2148
2148
2148
2153
2153
2153
2149
2149
2149
2155
2155
2155
2155
2153
2153
2153
2149
2149
2149
2155
2155
2155
2147
2147
2147
2142
2142
2142
2142
2154
2154
2154
2148
2148
2148
2153
2153
2153
2150
2150
2150
2150
2150
2150
2150
2154
2154
2154
2150
2150
2150
2152
2152
2152
2146
2146
2146
2148
2148
2148
2148
2152
2152
2152
2150
2150
2150
2153
2153
2153
2148
2148
2148
2152
2152
2152
2152
2154
2154
2154
2150
2150
2150
2154
2154
2154
2150
2150
2150
2154
2154
2154
2154
2153
2153
2153
2148
2148
2148
2153
2153
2153
2152
2152
2152
2151
2151
2151
2151
2152
2152
2152
2150
2150
2150
2153
2153
2153
2152
2152
2152
2152
2152
2152
2152
2153
2153
2153
2148
2148
2148
2154
2154
2154
2148
2148
2148
2153
2153
2153
2153
2150
2150
2150
2149
2149
2149
2151
2151
2151
2149
2149
2149
2155
2155
2155
2155
2152
2152
2152
2149
2149
2149
2154
2154
2154
2149
2149
2149
2149
2149
2149
2149
2151
2151
2151
2151
2151
2151
2155
2155
2155
2149
2149
2149
2149
2149
2149
2149
2154
2154
2154
2146
2146
2146
2152
2152
2152
2148
2148
2148
2150
2150
2150
2150
2153
2153
2153
2151
2151
2151
2149
2149
2149
2148
2148
2148
2144
2144
2144
2144
2151
2151
2151
2154
2154
2154
2152
2152
2152
2147
2147
2147
2151
2151
2151
2151
2154
2154
2154
2148
2148
2148
2152
2152
2152
2151
2151
2151
2149
2149
2149
2149
2153
2153
2153
2150
2150
2150
2154
2154
2154
2147
2147
2147
2149
2149
2149
2149
2152
2152
2152
2148
2148
2148
2157
2157
2157
2145
2145
2145
2152
2152
2152
2152
2151
2151
2151
2149
2149
2149
2153
2153
2153
2147
2147
2147
2150
2150
2150
2150
2154
2154
2154
2153
2153
2153
2153
2153
2153
2145
2145
2145
2151
2151
2151
2151
2152
2152
2152
2151
2151
2151
2152
2152
2152
2150
2150
2150
2149
2149
2149
2149
2150
2150
2150
2148
2148
2148
2150
2150
2150
2145
2145
2145
2148
2148
2148
2148
2152
2152
2152
2150
2150
2150
2153
2153
2153
2148
2148
2148
2147
2147
2147
2147
2150
2150
2150
2147
2147
2147
2153
2153
2153
2150
2150
2150
2150
2150
2150
2150
2151
2151
2151
2150
2150
2150
2153
2153
2153
2150
2150
2150
2139
2139
2139
2139
2154
2154
2154
2149
2149
2149
2153
2153
2153
2146
2146
2146
2150
2150
2150
2150
2153
2153
2153
2148
2148
2148
2152
2152
2152
2148
2148
2148
2151
2151
2151
2151
2154
2154
2154
2149
2149
2149
2154
2154
2154
2147
2147
2147
2153
2153
2153
2153
2152
2152
2152
2148
2148
2148
2153
2153
2153
2147
2147
2147
2153
2153
2153
2153
2154
2154
2154
2148
2148
2148
2158
2158
2158
2151
2151
2151
2148
2148
2148
2148
2151
2151
2151
2147
2147
2147
2152
2152
2152
2149
2149
2149
2148
2148
2148
2148
2152
2152
2152
2148
2148
2148
2153
2153
2153
2150
2150
2150
2152
2152
2152
2152
2152
2152
2152
2148
2148
2148
2153
2153
2153
2147
2147
2147
2152
2152
2152
2152
2155
2155
2155
2150
2150
2150
2155
2155
2155
2146
2146
2146
2152
2152
2152
2152
2148
2148
2148
2149
2149
2149
2154
2154
2154
2149
2149
2149
2151
2151
2151
2151
2151
2151
2151
2149
2149
2149
2153
2153
2153
2153
2153
2153
2153
2153
2153
2153
2153
2153
2153
2151
2151
2151
2154
2154
2154
2148
2148
2148
2150
2150
2150
2150
2154
2154
2154
2148
2148
2148
2155
2155
2155
2144
2144
2144
2151
2151
2151
2151
2152
2152
2152
2150
2150
2150
2162
2162
2162
2147
2147
2147
2150
2150
2150
2150
2153
2153
2153
2151
2151
2151
2155
2155
2155
2149
2149
2149
2153
2153
2153
2153
2152
2152
2152
2147
2147
2147
2154
2154
2154
2147
2147
2147
2153
2153
2153
2153
2154
2154
2154
2151
2151
2151
2152
2152
2152
2146
2146
2146
2151
2151
2151
2151
2150
2150
2150
2148
2148
2148
2152
2152
2152
2150
2150
2150
2150
2150
2150
2150
2154
2154
2154
2147
2147
2147
2153
2153
2153
2147
2147
2147
2152
2152
2152
2152
2154
2154
2154
2151
2151
2151
2152
2152
2152
2149
2149
2149
2152
2152
2152
2152
2153
2153
2153
2146
2146
2146
2147
2147
2147
2149
2149
2149
2149
2149
2149
2149
2153
2153
2153
2149
2149
2149
2153
2153
2153
2149
2149
2149
2150
2150
2150
2150
2151
2151
2151
2142
2142
2142
2149
2149
2149
2149
2149
2149
2146
2146
2146
2146
2152
2152
2152
2149
2149
2149
2155
2155
2155
2149
2149
2149
2150
2150
2150
2150
2154
2154
2154
2146
2146
2146
2149
2149
2149
2148
2148
2148
2147
2147
2147
2147
2150
2150
2150
2150
2150
2150
2152
2152
2152
2148
2148
2148
2151
2151
2151
2151
2150
2150
2150
2141
2141
2141
2149
2149
2149
2145
2145
2145
2150
2150
2150
2150
2154
2154
2154
2149
2149
2149
2154
2154
2154
2149
2149
2149
2150
2150
2150
2150
2154
2154
2154
2150
2150
2150
2153
2153
2153
2146
2146
2146
2149
2149
2149
2149
2152
2152
2152
2150
2150
2150
2155
2155
2155
2147
2147
2147
2152
2152
2152
2152
2153
2153
2153
2153
2153
2153
2151
2151
2151
2147
2147
2147
2154
2154
2154
2154
2153
2153
2153
2150
2150
2150
2153
2153
2153
2147
2147
2147
2151
2151
2151
2151
2153
2153
2153
2149
2149
2149
2152
2152
2152
2142
2142
2142
2150
2150
2150
2150
2152
2152
2152
2153
2153
2153
2153
2153
2153
2146
2146
2146
2150
2150
2150
2150
2153
2153
2153
2144
2144
2144
2155
2155
2155
2149
2149
2149
2147
2147
2147
2147
2151
2151
2151
2150
2150
2150
2151
2151
2151
2148
2148
2148
2149
2149
2149
2149
2150
2150
2150
2146
2146
2146
2156
2156
2156
2150
2150
2150
2151
2151
2151
2151
2153
2153
2153
2150
2150
2150
2154
2154
2154
2147
2147
2147
2148
2148
2148
2148
2152
2152
2152
2152
2152
2152
2150
2150
2150
2153
2153
2153
2148
2148
2148
2148
2155
2155
2155
2146
2146
2146
2153
2153
2153
2151
2151
2151
2150
2150
2150
2150
2152
2152
2152
2151
2151
2151
2155
2155
2155
2144
2144
2144
2148
2148
2148
2148
2153
2153
2153
2148
2148
2148
2151
2151
2151
2146
2146
2146
2149
2149
2149
2149
2152
2152
2152
2146
2146
2146
2153
2153
2153
2146
2146
2146
2153
2153
2153
2153
2154
2154
2154
2146
2146
2146
2154
2154
2154
2148
2148
2148
2151
2151
2151
2151
2154
2154
2154
2149
2149
2149
2153
2153
2153
2146
2146
2146
2149
2149
2149
2149
2153
2153
2153
2149
2149
2149
2153
2153
2153
2151
2151
2151
2154
2154
2154
2154
2149
2149
2149
2151
2151
2151
2155
2155
2155
2150
2150
2150
2148
2148
2148
2148
2154
2154
2154
2147
2147
2147
2154
2154
2154
2149
2149
2149
2151
2151
2151
2151
2154
2154
2154
2145
2145
2145
2149
2149
2149
2147
2147
2147
2152
2152
2152
2152
2153
2153
2153
2149
2149
2149
2153
2153
2153
2148
2148
2148
2152
2152
2152
2152
2151
2151
2151
2146
2146
2146
2146
2146
2146
2150
2150
2150
2146
2146
2146
2146
2156
2156
2156
2148
2148
2148
2155
2155
2155
2147
2147
2147
2150
2150
2150
2150
2159
2159
2159
2144
2144
2144
2153
2153
2153
2146
2146
2146
2151
2151
2151
2151
2153
2153
2153
2150
2150
2150
2155
2155
2155
2148
2148
2148
2149
2149
2149
2149
2151
2151
2151
2151
2151
2151
2157
2157
2157
2146
2146
2146
2149
2149
2149
2149
2154
2154
2154
2149
2149
2149
2154
2154
2154
2147
2147
2147
2149
2149
2149
2149
2151
2151
2151
2148
2148
2148
2158
2158
2158
2156
2156
2156
2148
2148
2148
2148
2154
2154
2154
2150
2150
2150
2154
2154
2154
2148
2148
2148
2150
2150
2150
2150
2153
2153
2153
2151
2151
2151
2151
2151
2151
2151
2151
2151
