1960
1960
1960
1963
1963
1963
1963
1963
1963
1963
1963
1963
1963
1964
1964
1964
1963
1963
1963
1961
1961
1961
1963
1963
1963
1963
1961
1961
1961
1959
1959
1959
1962
1962
1962
1960
1960
1960
1962
1962
1962
1962
1965
1965
1965
1961
1961
1961
1962
1962
1962
1960
1960
1960
1963
1963
1963
1963
1963
1963
1963
1961
1961
1961
1957
1957
1957
1964
1964
1964
1965
1965
1965
1965
1964
1964
1964
1961
1961
1961
1963
1963
1963
1964
1964
1964
1962
1962
1962
1962
1965
1965
1965
1967
1967
1967
1963
1963
1963
1962
1962
1962
1966
1966
1966
1966
1963
1963
1963
1965
1965
1965
1963
1963
1963
1963
1963
1963
1962
1962
1962
1962
1955
1955
1955
1963
1963
1963
1963
1963
1963
1960
1960
1960
1962
1962
1962
1962
1962
1962
1962
1961
1961
1961
1962
1962
1962
1964
1964
1964
1961
1961
1961
1961
1964
1964
1964
1963
1963
1963
1961
1961
1961
1960
1960
1960
1963
1963
1963
1963
1963
1963
1963
1959
1959
1959
1963
1963
1963
1965
1965
1965
1963
1963
1963
1963
1964
1964
1964
1962
1962
1962
1961
1961
1961
1961
1961
1961
1965
1965
1965
1965
1959
1959
1959
1962
1962
1962
1961
1961
1961
1961
1961
1961
1964
1964
1964
1964
1962
1962
1962
1965
1965
1965
1962
1962
1962
1964
1964
1964
1964
1964
1964
1964
1965
1965
1965
1963
1963
1963
1962
1962
1962
1962
1962
1962
1963
1963
1963
1963
1965
1965
1965
1962
1962
1962
1963
1963
1963
1965
1965
1965
1962
1962
1962
1962
1963
1963
1963
1962
1962
1962
1963
1963
1963
1963
1963
1963
1963
1963
1963
1963
1964
1964
1964
1962
1962
1962
1966
1966
1966
1962
1962
1962
1962
1962
1962
1962
1961
1961
1961
1961
1961
1961
1963
1963
1963
1961
1961
1961
1962
1962
1962
1962
1962
1962
1962
1963
1963
1963
1962
1962
1962
1963
1963
1963
1965
1965
1965
1965
1965
1965
1965
1964
1964
1964
1963
1963
1963
1962
1962
1962
1964
1964
1964
1964
1963
1963
1963
1963
1963
1963
1963
1963
1963
1963
1963
1963
1961
1961
1961
1961
1962
1962
1962
1961
1961
1961
1963
1963
1963
1962
1962
1962
1962
1962
1962
1962
1962
1962
1962
1963
1963
1963
1964
1964
1964
1962
1962
1962
1963
1963
1963
1963
1962
1962
1962
1962
1962
1962
1965
1965
1965
1963
1963
1963
1963
1963
1963
1963
1960
1960
1960
1962
1962
1962
1960
1960
1960
1964
1964
1964
1965
1965
1965
1965
1960
1960
1960
1966
1966
1966
1962
1962
1962
1961
1961
1961
1963
1963
1963
1963
1962
1962
1962
1965
1965
1965
1965
1965
1965
1966
1966
1966
1965
1965
1965
1965
1957
1957
1957
1962
1962
1962
1960
1960
1960
1962
1962
1962
1961
1961
1961
1961
1965
1965
1965
1961
1961
1961
1961
1961
1961
1966
1966
1966
1964
1964
1964
1964
1963
1963
1963
1965
1965
1965
1962
1962
1962
1962
1962
1962
1963
1963
1963
1963
1963
1963
1963
1974
1974
1974
1964
1964
1964
1961
1961
1961
1964
1964
1964
1964
1963
1963
1963
1963
1963
1963
1963
1963
1963
1963
1963
1963
1954
1954
1954
1954
1962
1962
1962
1963
1963
1963
1964
1964
1964
1964
1964
1964
1964
1964
1964
1964
1960
1960
1960
1954
1954
1954
1963
1963
1963
1963
1963
1963
1960
1960
1960
1960
1966
1966
1966
1963
1963
1963
1961
1961
1961
1963
1963
1963
1964
1964
1964
1964
1960
1960
1960
1959
1959
1959
1963
1963
1963
1966
1966
1966
1965
1965
1965
1965
1962
1962
1962
1961
1961
1961
1963
1963
1963
1962
1962
1962
1962
1962
1962
1962
1960
1960
1960
1960
1960
1960
1959
1959
1959
1962
1962
1962
1966
1966
1966
1966
1962
1962
1962
1963
1963
1963
1961
1961
1961
1964
1964
1964
1962
1962
1962
1962
1964
1964
1964
1962
1962
1962
1962
1962
1962
1960
1960
1960
1963
1963
1963
1963
1962
1962
1962
1962
1962
1962
1962
1962
1962
1962
1962
1962
1964
1964
1964
1964
1966
1966
1966
1963
1963
1963
1963
1963
1963
1962
1962
1962
1962
1962
1962
1962
1962
1962
1962
1962
1962
1962
1963
1963
1963
1962
1962
1962
1963
1963
1963
1963
1961
1961
1961
1961
1961
1961
1964
1964
1964
1963
1963
1963
1964
1964
1964
1964
1963
1963
1963
1961
1961
1961
1962
1962
1962
1963
1963
1963
1964
1964
1964
1964
1963
1963
1963
1960
1960
1960
1964
1964
1964
1964
1964
1964
1962
1962
1962
1962
1962
1962
1962
1963
1963
1963
1962
1962
1962
1964
1964
1964
1962
1962
1962
1962
1964
1964
1964
1962
1962
1962
1961
1961
1961
1963
1963
1963
1961
1961
1961
1961
1964
1964
1964
1962
1962
1962
1959
1959
1959
1960
1960
1960
1962
1962
1962
1962
1966
1966
1966
1962
1962
1962
1963
1963
1963
1961
1961
1961
1967
1967
1967
1967
1963
1963
1963
1961
1961
1961
1961
1961
1961
1961
1961
1961
1967
1967
1967
1967
1963
1963
1963
1962
1962
1962
1962
1962
1962
1965
1965
1965
1961
1961
1961
1961
1963
1963
1963
1964
1964
1964
1958
1958
1958
1965
1965
1965
1962
1962
1962
1962
1960
1960
1960
1966
1966
1966
1958
1958
1958
1965
1965
1965
1966
1966
1966
1966
1961
1961
1961
1962
1962
1962
1965
1965
1965
1964
1964
1964
1964
1964
1964
1964
1964
1964
1964
1960
1960
1960
1967
1967
1967
1962
1962
1962
1964
1964
1964
1964
1964
1964
1964
1962
1962
1962
1960
1960
1960
1961
1961
1961
1964
1964
1964
1964
1964
1964
1964
1961
1961
1961
1962
1962
1962
1961
1961
1961
1959
1959
1959
1959
1962
1962
1962
1963
1963
1963
1962
1962
1962
1964
1964
1964
1963
1963
1963
1963
1960
1960
1960
1965
1965
1965
1962
1962
1962
1963
1963
1963
1962
1962
1962
1962
1963
1963
1963
1960
1960
1960
1963
1963
1963
1962
1962
1962
1967
1967
1967
1967
1959
1959
1959
1959
1959
1959
1960
1960
1960
1961
1961
1961
1964
1964
1964
1964
1963
1963
1963
1961
1961
1961
1962
1962
1962
1968
1968
1968
1964
1964
1964
1964
1960
1960
1960
1962
1962
1962
1963
1963
1963
1966
1966
1966
1962
1962
1962
1962
1963
1963
1963
1961
1961
1961
1964
1964
1964
1967
1967
1967
1962
1962
1962
1962
1963
1963
1963
1958
1958
1958
1970
1970
1970
1963
1963
1963
1962
1962
1962
1962
1964
1964
1964
1962
1962
1962
1958
1958
1958
1958
1958
1958
1963
1963
1963
1963
1959
1959
1959
1960
1960
1960
1958
1958
1958
1960
1960
1960
1965
1965
1965
1965
1961
1961
1961
1964
1964
1964
1964
1964
1964
1964
1964
1964
1965
1965
1965
1965
1962
1962
1962
1961
1961
1961
1960
1960
1960
1959
1959
1959
1959
1959
1959
1959
1962
1962
1962
1964
1964
1964
1960
1960
1960
1965
1965
1965
1963
1963
1963
1963
1960
1960
1960
1963
1963
1963
1961
1961
1961
1962
1962
1962
1962
1962
1962
1962
1961
1961
1961
1962
1962
1962
1964
1964
1964
1964
1964
1964
1963
1963
1963
1963
1960
1960
1960
1961
1961
1961
1960
1960
1960
1965
1965
1965
1961
1961
1961
1961
1962
1962
1962
1960
1960
1960
1959
1959
1959
1958
1958
1958
1964
1964
1964
1964
1965
1965
1965
1963
1963
1963
1963
1963
1963
1964
1964
1964
1964
1964
1964
1964
1959
1959
1959
1962
1962
1962
1961
1961
1961
1961
1961
1961
1964
1964
1964
1964
1966
1966
1966
1963
1963
1963
1962
1962
1962
1965
1965
1965
1960
1960
1960
1960
1964
1964
1964
1962
1962
1962
1963
1963
1963
1967
1967
1967
1962
1962
1962
1962
1964
1964
1964
1965
1965
1965
1965
1965
1965
1962
1962
1962
1962
1962
1962
1962
1959
1959
1959
1960
1960
1960
1959
1959
1959
1960
1960
1960
1962
1962
1962
1962
1963
1963
1963
1959
1959
1959
1962
1962
1962
1961
1961
1961
1964
1964
1964
1964
1963
1963
1963
1959
1959
1959
1963
1963
1963
1963
1963
1963
1964
1964
1964
1964
1962
1962
1962
1959
1959
1959
1957
1957
1957
1963
1963
1963
1962
1962
1962
1962
1963
1963
1963
1961
1961
1961
1961
1961
1961
1968
1968
1968
1962
1962
1962
1962
1961
1961
1961
1963
1963
1963
1964
1964
1964
1964
1964
1964
1963
1963
1963
1963
1962
1962
1962
1961
1961
1961
1963
1963
1963
1962
1962
1962
1963
1963
1963
1963
1961
1961
1961
1964
1964
1964
1956
1956
1956
1962
1962
1962
1964
1964
1964
1964
1962
1962
1962
1964
1964
1964
1961
1961
1961
1964
1964
1964
1961
1961
1961
1961
1963
1963
1963
1965
1965
1965
1962
1962
1962
1963
1963
1963
1961
1961
1961
1961
1961
1961
1961
1963
1963
1963
1960
1960
1960
1962
1962
1962
1953
1953
1953
1953
1964
1964
1964
1963
1963
1963
1961
1961
1961
1965
1965
1965
1966
1966
1966
1966
1963
1963
1963
1963
1963
1963
1963
1963
1963
1960
1960
1960
1962
1962
1962
1962
1963
1963
1963
1963
1963
1963
1960
1960
1960
1963
1963
1963
1960
1960
1960
1960
1961
1961
1961
1963
1963
1963
1964
1964
1964
1963
1963
1963
1960
1960
1960
1960
1963
1963
1963
1964
1964
1964
1962
1962
1962
1963
1963
1963
1962
1962
1962
1962
1961
1961
1961
1963
1963
1963
1962
1962
1962
1958
1958
1958
1969
1969
1969
1969
1960
1960
1960
1963
1963
1963
1964
1964
1964
1963
1963
1963
1957
1957
1957
1957
1961
1961
1961
1962
1962
1962
1962
1962
1962
1960
1960
1960
1962
1962
1962
1962
1960
1960
1960
1962
1962
1962
1963
1963
1963
1965
1965
1965
1963
1963
1963
1963
1961
1961
1961
1961
1961
1961
1960
1960
1960
1962
1962
1962
1962
1962
1962
1962
1962
1962
1962
1958
1958
1958
1964
1964
1964
1964
1964
1964
1961
1961
1961
1961
1962
1962
1962
1960
1960
1960
1965
1965
1965
1963
1963
1963
1960
1960
1960
1960
1962
1962
1962
1963
1963
1963
1964
1964
1964
1960
1960
1960
1961
1961
1961
1961
1959
1959
1959
1959
1959
1959
1961
1961
1961
1960
1960
1960
1960
1960
1960
1960
1964
1964
1964
1963
1963
1963
1961
1961
1961
1961
1961
1961
1962
1962
1962
1962
1965
1965
1965
1962
1962
1962
1967
1967
1967
1962
1962
1962
1966
1966
1966
1966
1965
1965
1965
1962
1962
1962
1960
1960
1960
1962
1962
1962
1962
1962
1962
1962
1959
1959
1959
1965
1965
1965
1963
1963
1963
1963
1963
1963
1963
1963
1963
1963
1960
1960
1960
1966
1966
1966
1966
1966
1966
1962
1962
1962
1961
1961
1961
1961
1959
1959
1959
1959
1959
1959
1966
1966
1966
1962
1962
1962
1962
1962
1962
1962
1960
1960
1960
1963
1963
1963
1965
1965
1965
1961
1961
1961
1964
1964
1964
1964
1963
1963
1963
1962
1962
1962
1964
1964
1964
1962
1962
1962
1962
1962
1962
1962
1959
1959
1959
1963
1963
1963
1961
1961
1961
1959
1959
1959
1964
1964
1964
1964
1962
1962
1962
1962
1962
1962
1961
1961
1961
1965
1965
1965
1964
1964
1964
1964
1961
1961
1961
1963
1963
1963
1962
1962
1962
1962
1962
1962
1962
1962
1962
1962
1960
1960
1960
1961
1961
1961
1958
1958
1958
1963
1963
1963
1963
1963
1963
1963
1963
1963
1963
1962
1962
1962
1963
1963
1963
1961
1961
1961
1963
1963
1963
1963
1962
1962
1962
1960
1960
1960
1963
1963
1963
1964
1964
1964
1961
1961
1961
1961
1961
1961
1961
1965
1965
1965
1961
1961
1961
1959
1959
1959
1963
1963
1963
1963
1963
1963
1963
1962
1962
1962
1963
1963
1963
1962
1962
1962
1963
1963
1963
1963
1955
1955
1955
1960
1960
1960
1961
1961
1961
1963
1963
1963
1966
1966
1966
1966
1961
1961
1961
1962
1962
1962
1961
1961
1961
1961
1961
1961
1963
1963
1963
1963
1961
1961
1961
1961
1961
1961
1959
1959
1959
1961
1961
1961
1963
1963
1963
1963
1961
1961
1961
1962
1962
1962
1963
1963
1963
1963
1963
1963
1965
1965
1965
1965
1960
1960
1960
1958
1958
1958
1964
1964
1964
1961
1961
1961
1962
1962
1962
1962
1963
1963
1963
1960
1960
1960
1963
1963
1963
1963
1963
1963
1964
1964
1964
1964
1959
1959
1959
1964
1964
1964
1962
1962
1962
1962
1962
1962
1960
1960
1960
1960
1958
1958
1958
1962
1962
1962
1961
1961
1961
1966
1966
1966
1964
1964
1964
1964
1963
1963
1963
1962
1962
1962
1961
1961
1961
1963
1963
1963
1963
1963
1963
1963
1961
1961
1961
1962
1962
1962
1961
1961
1961
1964
1964
1964
1963
1963
1963
1963
1961
1961
1961
1961
1961
1961
1961
1961
1961
1963
1963
1963
1962
1962
1962
1962
1960
1960
1960
1964
1964
1964
1963
1963
1963
1962
1962
1962
1961
1961
1961
1961
1962
1962
1962
1961
1961
1961
1963
1963
1963
1960
1960
1960
1965
1965
1965
1965
1960
1960
1960
1963
1963
1963
1963
1963
1963
1962
1962
1962
1962
1962
1962
1962
1960
1960
1960
1962
1962
1962
1963
1963
1963
1963
1963
1963
1962
1962
1962
1962
1961
1961
1961
1961
1961
1961
1961
1961
1961
1967
1967
1967
1963
1963
1963
1963
1963
1963
1963
1962
1962
1962
1960
1960
1960
1961
1961
1961
1960
1960
1960
1960
1961
1961
1961
1964
1964
1964
1965
1965
1965
1961
1961
1961
1962
1962
1962
1962
1963
1963
1963
1964
1964
1964
1959
1959
1959
1960
1960
1960
1961
1961
1961
1961
1962
1962
1962
1955
1955
1955
1960
1960
1960
1963
1963
1963
1961
1961
1961
1961
1959
1959
1959
1961
1961
1961
1961
1961
1961
1965
1965
1965
1957
1957
1957
1957
1965
1965
1965
1961
1961
1961
1960
1960
1960
1962
1962
1962
1964
1964
1964
1964
1961
1961
1961
1961
1961
1961
1962
1962
1962
1963
1963
1963
1960
1960
1960
1960
1963
1963
1963
1963
1963
1963
1962
1962
1962
1959
1959
1959
1961
1961
1961
1961
1961
1961
1961
1964
1964
1964
1962
1962
1962
1963
1963
1963
1963
1963
1963
1963
1962
1962
1962
1957
1957
1957
1959
1959
1959
1964
1964
1964
1960
1960
1960
1960
1961
1961
1961
1958
1958
1958
1959
1959
1959
1961
1961
1961
1966
1966
1966
1966
1961
1961
1961
1963
1963
1963
1962
1962
1962
1959
1959
1959
1961
1961
1961
1961
1955
1955
1955
1962
1962
1962
1959
1959
1959
1964
1964
1964
1962
1962
1962
1962
1960
1960
1960
1961
1961
1961
1962
1962
1962
1963
1963
1963
1962
1962
1962
1962
1962
1962
1962
1963
1963
1963
1958
1958
1958
1964
1964
1964
1962
1962
1962
1962
1962
1962
1962
1963
1963
1963
1959
1959
1959
1960
1960
1960
1961
1961
1961
1961
1961
1961
1961
1961
1961
1961
1966
1966
1966
1963
1963
1963
1961
1961
1961
1961
1962
1962
1962
1959
1959
1959
1962
1962
1962
1965
1965
1965
1961
1961
1961
1961
1965
1965
1965
1964
1964
1964
1966
1966
1966
1961
1961
1961
1963
1963
1963
1963
1964
1964
1964
1960
1960
1960
1962
1962
1962
1964
1964
1964
1962
1962
1962
1962
1961
1961
1961
1958
1958
1958
1961
1961
1961
1959
1959
1959
1963
1963
1963
1963
1961
1961
1961
1962
1962
1962
1958
1958
1958
1962
1962
1962
1962
1962
1962
1962
1965
1965
1965
1962
1962
1962
1965
1965
1965
1962
1962
1962
1961
1961
1961
1961
1961
1961
1961
1955
1955
1955
1963
1963
1963
1961
1961
1961
1965
1965
1965
1965
1967
1967
1967
1957
1957
1957
1960
1960
1960
1963
1963
1963
1964
1964
1964
1964
1959
1959
1959
1962
1962
1962
1962
1962
1962
1963
1963
1963
1964
1964
1964
1964
1961
1961
1961
1961
1961
1961
1961
1961
1961
1965
1965
1965
1962
1962
1962
1962
1962
1962
1962
1964
1964
1964
1962
1962
1962
1966
1966
1966
1962
1962
1962
1962
1963
1963
1963
1963
1963
1963
1966
1966
1966
1962
1962
1962
1963
1963
1963
1963
1962
1962
1962
1961
1961
1961
1960
1960
1960
1963
1963
1963
1962
1962
1962
1962
1960
1960
1960
1962
1962
1962
1963
1963
1963
1964
1964
1964
1962
1962
1962
1962
1958
1958
1958
1960
1960
1960
1962
1962
1962
1964
1964
1964
1963
1963
1963
1963
1956
1956
1956
1962
1962
1962
1964
1964
1964
1960
1960
1960
1963
1963
1963
1963
1959
1959
1959
1962
1962
1962
1961
1961
1961
1959
1959
1959
1964
1964
1964
1964
1963
1963
1963
1961
1961
1961
1961
1961
1961
1960
1960
1960
1962
1962
1962
1962
1960
1960
1960
1963
1963
1963
1962
1962
1962
1961
1961
1961
1960
1960
1960
1960
1961
1961
1961
1961
1961
1961
1962
1962
1962
1963
1963
1963
1964
1964
1964
1964
1960
1960
1960
1962
1962
1962
1965
1965
1965
1961
1961
1961
1963
1963
1963
1963
1961
1961
1961
1961
1961
1961
1961
1961
1961
1962
1962
1962
1961
1961
1961
1961
1965
1965
1965
1963
1963
1963
1962
1962
1962
1961
1961
1961
1962
1962
1962
1962
1961
1961
1961
1962
1962
1962
1963
1963
1963
1962
1962
1962
1963
1963
1963
1963
1963
1963
1963
1962
1962
1962
1965
1965
1965
1963
1963
1963
1962
1962
1962
1962
1961
1961
1961
1962
1962
1962
1960
1960
1960
1962
1962
1962
1963
1963
1963
1963
1960
1960
1960
1962
1962
1962
1961
1961
1961
1962
1962
1962
1964
1964
1964
1964
1961
1961
1961
1964
1964
1964
1962
1962
1962
1961
1961
1961
1961
1961
1961
1961
1961
1961
1961
1956
1956
1956
1963
1963
1963
1962
1962
1962
1963
1963
1963
1963
1960
1960
1960
1964
1964
1964
1963
1963
1963
1962
1962
1962
1961
1961
1961
1961
1958
1958
1958
1962
1962
1962
1960
1960
1960
1965
1965
1965
1960
1960
1960
1960
1960
1960
1960
1963
1963
1963
1961
1961
1961
1962
1962
1962
1964
1964
1964
1964
1962
1962
1962
1964
1964
1964
1959
1959
1959
1961
1961
1961
1961
1961
1961
1961
1962
1962
1962
1962
1962
1962
1963
1963
1963
1963
1963
1963
1961
1961
1961
1961
1963
1963
1963
1963
1963
1963
1962
1962
1962
1963
1963
1963
1962
1962
1962
1962
1961
1961
1961
1962
1962
1962
1960
1960
1960
1961
1961
1961
1959
1959
1959
1959
1962
1962
1962
1962
1962
1962
1960
1960
1960
1963
1963
1963
1962
1962
1962
1962
1966
1966
1966
1962
1962
1962
1964
1964
1964
1965
1965
1965
1963
1963
1963
1963
1963
1963
1963
1962
1962
1962
1963
1963
1963
1961
1961
1961
1964
1964
1964
1964
1963
1963
1963
1963
1963
1963
1967
1967
1967
1962
1962
1962
1961
1961
1961
1961
1962
1962
1962
1962
1962
1962
1957
1957
1957
1962
1962
1962
1964
1964
1964
1964
1962
1962
1962
1958
1958
1958
1963
1963
1963
1961
1961
1961
1962
1962
1962
1962
1961
1961
1961
1969
1969
1969
1963
1963
1963
1961
1961
1961
1962
1962
1962
1962
1962
1962
1962
1961
1961
1961
1962
1962
1962
1963
1963
1963
1961
1961
1961
1961
1961
1961
1961
1963
1963
1963
1963
1963
1963
1965
1965
1965
1964
1964
1964
1964
1962
1962
1962
1963
1963
1963
1965
1965
1965
1962
1962
1962
1962
1962
1962
1962
1962
1962
1962
1961
1961
1961
1956
1956
1956
1963
1963
1963
1962
1962
1962
1962
1962
1962
1962
1962
1962
1962
1960
1960
1960
1963
1963
1963
1961
1961
1961
1961
1963
1963
1963
1961
1961
1961
1964
1964
1964
1963
1963
1963
1963
1963
1963
1963
1962
1962
1962
1959
1959
1959
1961
1961
1961
1962
1962
1962
1966
1966
1966
1966
1962
1962
1962
1964
1964
1964
1963
1963
1963
1961
1961
1961
1963
1963
1963
1963
1966
1966
1966
1961
1961
1961
1963
1963
1963
1964
1964
1964
1962
1962
1962
1962
1962
1962
1962
1963
1963
1963
1961
1961
1961
1961
1961
1961
1962
1962
1962
1962
1961
1961
1961
1961
1961
1961
1964
1964
1964
1961
1961
1961
1962
1962
1962
1962
1960
1960
1960
1963
1963
1963
1963
1963
1963
1962
1962
1962
1962
1962
1962
1962
1960
1960
1960
1965
1965
1965
1962
1962
1962
1963
1963
1963
1963
1963
1963
1963
1960
1960
1960
1956
1956
1956
1963
1963
1963
1961
1961
1961
1965
1965
1965
1965
1963
1963
1963
1962
1962
1962
1962
1962
1962
1961
1961
1961
1962
1962
1962
1962
1963
1963
1963
1961
1961
1961
1964
1964
1964
1966
1966
1966
1963
1963
1963
1963
1962
1962
1962
1962
1962
1962
1961
1961
1961
1961
1961
1961
1963
1963
1963
1963
1961
1961
1961
1962
1962
1962
1964
1964
1964
1963
1963
1963
1961
1961
1961
1961
1962
1962
1962
1961
1961
1961
1962
1962
1962
1961
1961
1961
1962
1962
1962
1962
1961
1961
1961
1957
1957
1957
1962
1962
1962
1961
1961
1961
1963
1963
1963
1963
1961
1961
1961
1959
1959
1959
1962
1962
1962
1961
1961
1961
1963
1963
1963
1963
1963
1963
1963
1961
1961
1961
1963
1963
1963
1962
1962
1962
1962
1962
1962
1962
1968
1968
1968
1961
1961
1961
1962
1962
1962
1960
1960
1960
1964
1964
1964
1964
1963
1963
1963
1963
1963
1963
1961
1961
1961
1963
1963
1963
1961
1961
1961
1961
1961
1961
1961
1962
1962
1962
1963
1963
1963
1962
1962
1962
1965
1965
1965
1965
1963
1963
1963
1961
1961
1961
1962
1962
1962
1963
1963
1963
1965
1965
1965
1965
1965
1965
1965
1961
1961
1961
1962
1962
1962
1963
1963
1963
1959
1959
1959
1959
1961
1961
1961
1962
1962
1962
1963
1963
1963
1958
1958
1958
1962
1962
1962
1962
1963
1963
1963
1964
1964
1964
1962
1962
1962
1959
1959
1959
1964
1964
1964
1964
1964
1964
1964
1962
1962
1962
1963
1963
1963
1961
1961
1961
1963
1963
1963
1963
1961
1961
1961
1959
1959
1959
1969
1969
1969
1963
1963
1963
1961
1961
1961
1961
1962
1962
1962
1962
1962
1962
1964
1964
1964
1961
1961
1961
1962
1962
1962
1962
1961
1961
1961
1960
1960
1960
1963
1963
1963
1965
1965
1965
1962
1962
1962
1962
1961
1961
1961
1962
1962
1962
1962
1962
1962
1965
1965
1965
1963
1963
1963
1963
1962
1962
1962
1962
1962
1962
1961
1961
1961
1960
1960
1960
1966
1966
1966
1966
1962
1962
1962
1961
1961
1961
1973
1973
1973
1967
1967
1967
1964
1964
1964
1964
1963
1963
1963
1961
1961
1961
1960
1960
1960
1961
1961
1961
1963
1963
1963
1963
1962
1962
1962
1961
1961
1961
1963
1963
1963
1963
1963
1963
1964
1964
1964
1964
1961
1961
1961
1961
1961
1961
1962
1962
1962
1963
1963
1963
1961
1961
1961
1961
1963
1963
1963
1963
1963
1963
1963
1963
1963
1961
1961
1961
1964
1964
1964
1964
1962
1962
1962
1960
1960
1960
1961
1961
1961
1962
1962
1962
1964
1964
1964
1964
1959
1959
1959
1963
1963
1963
1960
1960
1960
1961
1961
1961
1963
1963
1963
1963
1962
1962
1962
1962
1962
1962
1962
1962
1962
1964
1964
1964
1964
1964
1964
1964
1964
1964
1964
1962
1962
1962
1964
1964
1964
1962
1962
1962
1965
1965
1965
1965
1960
1960
1960
1962
1962
1962
1962
1962
1962
1960
1960
1960
1963
1963
1963
1963
1962
1962
1962
1961
1961
1961
1963
1963
1963
1962
1962
1962
1963
1963
1963
1963
1961
1961
1961
1965
1965
1965
1963
1963
1963
1961
1961
1961
1962
1962
1962
1962
1963
1963
1963
1962
1962
1962
1963
1963
1963
1962
1962
1962
1962
1962
1962
1962
1962
1962
1962
1963
1963
1963
1963
1963
1963
1967
1967
1967
1962
1962
1962
1962
1962
1962
1962
1963
1963
1963
1962
1962
1962
1961
1961
1961
1962
1962
1962
1962
1961
1961
1961
1963
1963
1963
1959
1959
1959
1961
1961
1961
1964
1964
1964
1964
1962
1962
1962
1963
1963
1963
1962
1962
1962
1962
1962
1962
1961
1961
1961
1961
1961
1961
1961
1963
1963
1963
1963
1963
1963
1962
1962
1962
1961
1961
1961
1961
1964
1964
1964
1962
1962
1962
1959
1959
1959
1964
1964
1964
1962
1962
1962
1962
1960
1960
1960
1965
1965
1965
1962
1962
1962
1963
1963
1963
1963
1963
1963
1963
1959
1959
1959
1962
1962
1962
1962
1962
1962
1961
1961
1961
1963
1963
1963
1963
1962
1962
1962
1962
1962
1962
1963
1963
1963
1962
1962
1962
1966
1966
1966
1966
1962
1962
1962
1964
1964
1964
1962
1962
1962
1962
1962
1962
1964
1964
1964
1964
1961
1961
1961
1966
1966
1966
1961
1961
1961
1962
1962
1962
1968
1968
1968
1968
1960
1960
1960
1963
1963
1963
1962
1962
1962
1963
1963
1963
1961
1961
1961
1961
1960
1960
1960
1963
1963
1963
1963
1963
1963
1960
1960
1960
1961
1961
1961
1961
1957
1957
1957
1970
1970
1970
1962
1962
1962
1958
1958
1958
1961
1961
1961
1961
1964
1964
1964
1963
1963
1963
1967
1967
1967
1961
1961
1961
1962
1962
1962
1962
1962
1962
1962
1963
1963
1963
1964
1964
1964
1965
1965
1965
1962
1962
1962
1962
1963
1963
1963
1967
1967
1967
1960
1960
1960
1962
1962
1962
1962
1962
1962
1962
1961
1961
1961
1964
1964
1964
1963
1963
1963
1964
1964
1964
1963
1963
1963
1963
1960
1960
1960
1963
1963
1963
1963
1963
1963
1963
1963
1963
1963
1963
1963
1963
1960
1960
1960
1962
1962
1962
1963
1963
1963
1963
1963
1963
1965
1965
1965
1965
1961
1961
1961
1959
1959
1959
1963
1963
1963
1962
1962
1962
1964
1964
1964
1964
1960
1960
1960
1963
1963
1963
1958
1958
1958
1961
1961
1961
1965
1965
1965
1965
1961
1961
1961
1962
1962
1962
1962
1962
1962
1963
1963
1963
1961
1961
1961
1961
1962
1962
1962
1961
1961
1961
1965
1965
1965
1964
1964
1964
1966
1966
1966
1966
1963
1963
1963
1961
1961
1961
1963
1963
1963
1963
1963
1963
1961
1961
1961
1961
1965
1965
1965
1962
1962
1962
1963
1963
1963
1967
1967
1967
1968
1968
1968
1968
1963
1963
1963
1964
1964
1964
1962
1962
1962
1963
1963
1963
1962
1962
1962
1962
1962
1962
1962
1962
1962
1962
1970
1970
1970
1964
1964
1964
1965
1965
1965
1965
1962
1962
1962
1964
1964
1964
1961
1961
1961
1960
1960
1960
1964
1964
1964
1964
1962
1962
1962
1966
1966
1966
1965
1965
1965
1963
1963
1963
1963
1963
1963
1963
1962
1962
1962
1964
1964
1964
1963
1963
1963
1962
1962
1962
1965
1965
1965
1965
1963
1963
1963
1963
1963
1963
1962
1962
1962
1965
1965
1965
1963
1963
1963
1963
1961
1961
1961
1961
1961
1961
1962
1962
1962
1964
1964
1964
1963
1963
1963
1963
1962
1962
1962
1963
1963
1963
1959
1959
1959
1962
1962
1962
1963
1963
1963
1963
1963
1963
1963
1959
1959
1959
1968
1968
1968
1963
1963
1963
1963
1963
1963
1963
1961
1961
1961
1963
1963
1963
1963
1963
1963
1965
1965
1965
1961
1961
1961
1961
1962
1962
1962
1963
1963
1963
1962
1962
1962
1961
1961
1961
1962
1962
1962
1962
1963
1963
1963
1963
1963
1963
1963
1963
1963
1963
1963
1963
1960
1960
1960
1960
1962
1962
1962
1964
1964
1964
1961
1961
1961
1964
1964
1964
1961
1961
1961
1961
1962
1962
1962
1962
1962
1962
1963
1963
1963
1962
1962
1962
1961
1961
1961
1961
1962
1962
1962
1960
1960
1960
1960
1960
1960
1965
1965
1965
1961
1961
1961
1961
1963
1963
1963
1964
1964
1964
1960
1960
1960
1962
1962
1962
1960
1960
1960
1960
1961
1961
1961
1965
1965
1965
1962
1962
1962
1961
1961
1961
1966
1966
1966
1966
1962
1962
1962
1963
1963
1963
1963
1963
1963
1961
1961
1961
1965
1965
1965
1965
1964
1964
1964
1963
1963
1963
1964
1964
1964
1966
1966
1966
1962
1962
1962
1962
1966
1966
1966
1964
1964
1964
1963
1963
1963
1961
1961
1961
1964
1964
1964
1964
1962
1962
1962
1962
1962
1962
1963
1963
1963
1962
1962
1962
1967
1967
1967
1967
1962
1962
1962
1963
1963
1963
1964
1964
1964
1961
1961
1961
1964
1964
1964
1964
1962
1962
1962
1966
1966
1966
1962
1962
1962
1963
1963
1963
1966
1966
1966
1966
1962
1962
1962
1961
1961
1961
1963
1963
1963
1964
1964
1964
1955
1955
1955
1955
1959
1959
1959
1962
1962
1962
1964
1964
1964
1962
1962
1962
1960
1960
1960
1960
1962
1962
1962
1964
1964
1964
1963
1963
1963
1958
1958
1958
1963
1963
1963
1963
1961
1961
1961
1963
1963
1963
1963
1963
1963
1961
1961
1961
1962
1962
1962
1962
1962
1962
1962
1963
1963
1963
1959
1959
1959
1963
1963
1963
1962
1962
1962
1962
1963
1963
1963
1965
1965
1965
1963
1963
1963
1964
1964
1964
1964
1964
1964
1964
1964
1964
1964
1962
1962
1962
1964
1964
1964
1963
1963
1963
1966
1966
1966
1966
1961
1961
1961
1964
1964
1964
1965
1965
1965
1964
1964
1964
1961
1961
1961
1961
1964
1964
1964
1962
1962
1962
1961
1961
1961
1961
1961
1961
1964
1964
1964
1964
1963
1963
1963
1960
1960
1960
1963
1963
1963
1962
1962
1962
1964
1964
1964
1964
1961
1961
1961
1967
1967
1967
1965
1965
1965
1960
1960
1960
1965
1965
1965
1965
1961
1961
1961
1962
1962
1962
1963
1963
1963
1960
1960
1960
1963
1963
1963
1963
1962
1962
1962
1963
1963
1963
1963
1963
1963
1963
1963
1963
1959
1959
1959
1959
1960
1960
1960
1962
1962
1962
1963
1963
1963
1964
1964
1964
1962
1962
1962
1962
1967
1967
1967
1963
1963
1963
1962
1962
1962
1965
1965
1965
1963
1963
1963
1963
1962
1962
1962
1961
1961
1961
1962
1962
1962
1961
1961
1961
1961
1961
1961
1961
1963
1963
1963
1964
1964
1964
1962
1962
1962
1961
1961
1961
1960
1960
1960
1960
1960
1960
1960
1960
1960
1960
1962
1962
1962
1962
1962
1962
1962
1962
1962
1962
1961
1961
1961
1960
1960
1960
1960
1960
1960
1962
1962
1962
1960
1960
1960
1960
1964
1964
1964
1963
1963
1963
1963
1963
1963
1963
1963
1963
1959
1959
1959
1959
1963
1963
1963
1961
1961
1961
1964
1964
1964
1963
1963
1963
1960
1960
1960
1960
1963
1963
1963
1961
1961
1961
1962
1962
1962
1959
1959
1959
1964
1964
1964
1964
1961
1961
1961
1963
1963
1963
1965
1965
1965
1958
1958
1958
1961
1961
1961
1961
1963
1963
1963
1962
1962
1962
1965
1965
1965
1961
1961
1961
1963
1963
1963
1963
1963
1963
1963
1962
1962
1962
1963
1963
1963
1961
1961
1961
1966
1966
1966
1966
1961
1961
1961
1965
1965
1965
1962
1962
1962
1962
1962
1962
1961
1961
1961
1961
1954
1954
1954
1962
1962
1962
1963
1963
1963
1965
1965
1965
1963
1963
1963
1963
1966
1966
1966
1965
1965
1965
1962
1962
1962
1962
1962
1962
1963
1963
1963
1963
1961
1961
1961
1962
1962
1962
1964
1964
1964
1962
1962
1962
1962
1962
1962
1962
1959
1959
1959
1961
1961
1961
1961
1961
1961
1963
1963
1963
1960
1960
1960
1960
1964
1964
1964
1957
1957
1957
1961
1961
1961
1963
1963
1963
1961
1961
1961
1961
1968
1968
1968
1964
1964
1964
1962
1962
1962
1961
1961
1961
1965
1965
1965
1965
1962
1962
1962
1962
1962
1962
1964
1964
1964
1960
1960
1960
1962
1962
1962
1962
1960
1960
1960
1961
1961
1961
1962
1962
1962
1961
1961
1961
1963
1963
1963
1963
1961
1961
1961
1962
1962
1962
1960
1960
1960
1961
1961
1961
1964
1964
1964
1964
1963
1963
1963
1963
1963
1963
1968
1968
1968
1959
1959
1959
1966
1966
1966
1966
1959
1959
1959
1963
1963
1963
1965
1965
1965
1962
1962
1962
1962
1962
1962
1962
1959
1959
1959
1963
1963
1963
1963
1963
1963
1961
1961
1961
1964
1964
1964
1964
1962
1962
1962
1962
1962
1962
1965
1965
1965
1961
1961
1961
1966
1966
1966
1966
1963
1963
1963
1964
1964
1964
1963
1963
1963
1962
1962
1962
1962
1962
1962
1962
1964
1964
1964
1962
1962
1962
1963
1963
1963
1966
1966
1966
1963
1963
1963
1963
1962
1962
1962
1963
1963
1963
1963
1963
1963
1962
1962
1962
1961
1961
1961
1961
1963
1963
1963
1962
1962
1962
1962
1962
1962
1962
1962
1962
1962
1962
1962
1962
1962
1962
1962
1961
1961
1961
1962
1962
1962
1960
1960
1960
1958
1958
1958
1958
1956
1956
1956
1962
1962
1962
1965
1965
1965
1961
1961
1961
1963
1963
1963
1963
1964
1964
1964
1970
1970
1970
1960
1960
1960
1963
1963
1963
1963
1963
1963
1963
1960
1960
1960
1961
1961
1961
1968
1968
1968
1960
1960
1960
1962
1962
1962
1962
1962
1962
1962
1962
1962
1962
1962
1962
1962
1962
1962
1962
1959
1959
1959
1959
1963
1963
1963
1963
1963
1963
1964
1964
1964
1964
1964
1964
1965
1965
1965
1965
1961
1961
1961
1963
1963
1963
1961
1961
1961
1962
1962
1962
1962
1962
1962
1962
1963
1963
1963
1961
1961
1961
1963
1963
1963
1962
1962
1962
1964
1964
1964
1964
1961
1961
1961
1965
1965
1965
1961
1961
1961
1962
1962
1962
1957
1957
1957
1957
1960
1960
1960
1961
1961
1961
1963
1963
1963
1965
1965
1965
1962
1962
1962
1962
1963
1963
1963
1965
1965
1965
1961
1961
1961
1963
1963
1963
1963
1963
1963
1963
1963
1963
1963
1960
1960
1960
1956
1956
1956
1964
1964
1964
1961
1961
1961
1961
1965
1965
1965
1963
1963
1963
1964
1964
1964
1962
1962
1962
1958
1958
1958
1958
1964
1964
1964
1963
1963
1963
1963
1963
1963
1962
1962
1962
1964
1964
1964
1964
1965
1965
1965
1961
1961
1961
1965
1965
1965
1963
1963
1963
1969
1969
1969
1969
1962
1962
1962
1961
1961
1961
1965
1965
1965
1964
1964
1964
1961
1961
1961
1961
1964
1964
1964
1957
1957
1957
1965
1965
1965
1960
1960
1960
1970
1970
1970
1970
1964
1964
1964
1960
1960
1960
1964
1964
1964
1962
1962
1962
1962
1962
1962
1962
1957
1957
1957
1963
1963
1963
1960
1960
1960
1965
1965
1965
1964
1964
1964
1964
1962
1962
1962
1965
1965
1965
1956
1956
1956
1961
1961
1961
1962
1962
1962
1962
1962
1962
1962
1961
1961
1961
1961
1961
1961
1960
1960
1960
1964
1964
1964
1964
1964
1964
1964
1962
1962
1962
1963
1963
1963
1963
1963
1963
1960
1960
1960
1960
1962
1962
1962
1960
1960
1960
1961
1961
1961
1962
1962
1962
1963
1963
1963
1963
1961
1961
1961
1962
1962
1962
1960
1960
1960
1962
1962
1962
1963
1963
1963
1963
1962
1962
1962
1962
1962
1962
1962
1962
1962
1961
1961
1961
1961
1961
1961
1961
1961
1961
1961
1966
1966
1966
1960
1960
1960
1960
1960
1960
1961
1961
1961
1961
1965
1965
1965
1963
1963
1963
1964
1964
1964
1964
1964
1964
1962
1962
1962
1962
1963
1963
1963
1961
1961
1961
1964
1964
1964
1963
1963
1963
1964
1964
1964
1964
1964
1964
1964
1959
1959
1959
1962
1962
1962
1964
1964
1964
1963
1963
1963
1963
1963
1963
1963
1963
1963
1963
1963
1963
1963
1960
1960
1960
1960
1960
1960
1960
1964
1964
1964
1963
1963
1963
1963
1963
1963
1963
1963
1963
1964
1964
1964
1964
1960
1960
1960
1963
1963
1963
1961
1961
1961
1961
1961
1961
1963
1963
1963
1963
1962
1962
1962
1963
1963
1963
1962
1962
1962
1961
1961
1961
1961
1961
1961
1961
1962
1962
1962
1964
1964
1964
1962
1962
1962
1964
1964
1964
1963
1963
1963
1963
1965
1965
1965
1961
1961
1961
1963
1963
1963
1964
1964
1964
1960
1960
1960
1960
1960
1960
1960
1963
1963
1963
1963
1963
1963
1961
1961
1961
1962
1962
1962
1962
1961
1961
1961
1960
1960
1960
1965
1965
1965
1961
1961
1961
1966
1966
1966
1966
1961
1961
1961
1961
1961
1961
1963
1963
1963
1963
1963
1963
1960
1960
1960
1960
1961
1961
1961
1962
1962
1962
1964
1964
1964
1958
1958
1958
1961
1961
1961
1961
1962
1962
1962
1962
1962
1962
1969
1969
1969
1962
1962
1962
1962
1962
1962
1962
1964
1964
1964
1962
1962
1962
1962
1962
1962
1962
1962
1962
1962
1962
1962
1962
1962
1962
1962
1962
1962
1962
1962
1962
1962
1963
1963
1963
1960
1960
1960
1960
1967
1967
1967
1963
1963
1963
1964
1964
1964
1960
1960
1960
1963
1963
1963
1963
1959
1959
1959
1961
1961
1961
1966
1966
1966
1962
1962
1962
1962
1962
1962
1962
1962
1962
1962
1958
1958
1958
1965
1965
1965
1962
1962
1962
1962
1962
1962
1962
1961
1961
1961
1965
1965
1965
1960
1960
1960
1960
1960
1960
1962
1962
1962
1962
1963
1963
1963
1961
1961
1961
1963
1963
1963
1963
1963
1963
1964
1964
1964
1964
1962
1962
1962
1963
1963
1963
1958
1958
1958
1964
1964
1964
1960
1960
1960
1960
1964
1964
1964
1959
1959
1959
1965
1965
1965
1961
1961
1961
1964
1964
1964
1964
1964
1964
1964
1962
1962
1962
1963
1963
1963
1962
1962
1962
1963
1963
1963
1963
1956
1956
1956
1964
1964
1964
1963
1963
1963
1963
1963
1963
1964
1964
1964
1964
1962
1962
1962
1961
1961
1961
1964
1964
1964
1961
1961
1961
1962
1962
1962
1962
1961
1961
1961
1960
1960
1960
1963
1963
1963
1963
1963
1963
1962
1962
1962
1962
1959
1959
1959
1963
1963
1963
1961
1961
1961
1964
1964
1964
1959
1959
1959
1959
1960
1960
1960
1967
1967
1967
1959
1959
1959
1955
1955
1955
1965
1965
1965
1965
1963
1963
1963
1961
1961
1961
1966
1966
1966
1962
1962
1962
1963
1963
1963
1963
1962
1962
1962
1963
1963
1963
1959
1959
1959
1960
1960
1960
1967
1967
1967
1967
1960
1960
1960
1962
1962
1962
1962
1962
1962
1965
1965
1965
1968
1968
1968
1968
1962
1962
1962
1962
1962
1962
1961
1961
1961
1963
1963
1963
1964
1964
1964
1964
1964
1964
1964
1963
1963
1963
1966
1966
1966
1963
1963
1963
1963
1963
1963
1963
1963
1963
1963
1964
1964
1964
1961
1961
1961
1962
1962
1962
1967
1967
1967
1967
1961
1961
1961
1961
1961
1961
1960
1960
1960
1961
1961
1961
1960
1960
1960
1960
1966
1966
1966
1961
1961
1961
1961
1961
1961
1962
1962
1962
1961
1961
1961
1961
1958
1958
1958
1962
1962
1962
1963
1963
1963
1961
1961
1961
1961
1961
1961
1961
1961
1961
1961
1965
1965
1965
1961
1961
1961
1963
1963
1963
1964
1964
1964
1964
1962
1962
1962
1963
1963
1963
1963
1963
1963
1962
1962
1962
1961
1961
1961
1961
1962
1962
1962
1962
1962
1962
1964
1964
1964
1964
1964
1964
1961
1961
1961
1961
1963
1963
1963
1963
1963
1963
1965
1965
1965
1961
1961
1961
1960
1960
1960
1960
1963
1963
1963
1965
1965
1965
1960
1960
1960
1963
1963
1963
1965
1965
1965
1965
1961
1961
1961
1964
1964
1964
1961
1961
1961
1967
1967
1967
1962
1962
1962
1962
1960
1960
1960
1960
1960
1960
1962
1962
1962
1959
1959
1959
1963
1963
1963
1963
1963
1963
1963
1962
1962
1962
1959
1959
1959
1963
1963
1963
1961
1961
1961
1961
1964
1964
1964
1962
1962
1962
1962
1962
1962
1961
1961
1961
1963
1963
1963
1963
1961
1961
1961
1963
1963
1963
1959
1959
1959
1962
1962
1962
1963
1963
1963
1963
1963
1963
1963
1960
1960
1960
1966
1966
1966
1962
1962
1962
1963
1963
1963
1963
1962
1962
1962
1964
1964
1964
1959
1959
1959
1960
1960
1960
1961
1961
1961
1961
1961
1961
1961
1958
1958
1958
1961
1961
1961
1959
1959
1959
1955
1955
1955
1955
1961
1961
1961
1962
1962
1962
1963
1963
1963
1962
1962
1962
1963
1963
1963
1963
1962
1962
1962
1961
1961
1961
1963
1963
1963
1960
1960
1960
1961
1961
1961
1961
1963
1963
1963
1961
1961
1961
1965
1965
1965
1961
1961
1961
1961
1961
1961
1961
1961
1961
1961
1964
1964
1964
1961
1961
1961
1963
1963
1963
1965
1965
1965
1965
1959
1959
1959
1962
1962
1962
1962
1962
1962
1961
1961
1961
1963
1963
1963
1963
1958
1958
1958
1961
1961
1961
1964
1964
1964
1964
1964
1964
1963
1963
1963
1963
1960
1960
1960
1962
1962
1962
1961
1961
1961
1962
1962
1962
1962
1962
1962
1962
1963
1963
1963
1955
1955
1955
1962
1962
1962
1962
1962
1962
1961
1961
1961
1961
1962
1962
1962
1965
1965
1965
1960
1960
1960
1964
1964
1964
1960
1960
1960
1960
1960
1960
1960
1963
1963
1963
1963
1963
1963
1958
1958
1958
1963
1963
1963
1963
1962
1962
1962
1962
1962
1962
1963
1963
1963
1961
1961
1961
1962
1962
1962
1962
1961
1961
1961
1961
1961
1961
1961
1961
1961
1963
1963
1963
1961
1961
1961
1961
1959
1959
1959
1963
1963
1963
1962
1962
1962
1962
1962
1962
1964
1964
1964
1964
1961
1961
1961
1962
1962
1962
1964
1964
1964
1963
1963
1963
1961
1961
1961
1961
1964
1964
1964
1959
1959
1959
1962
1962
1962
1962
1962
1962
1962
1962
1962
1962
1961
1961
1961
1959
1959
1959
1960
1960
1960
1962
1962
1962
1969
1969
1969
1969
1962
1962
1962
1964
1964
1964
1964
1964
1964
1964
1964
1964
1961
1961
1961
1961
1962
1962
1962
1962
1962
1962
1961
1961
1961
1959
1959
1959
1964
1964
1964
1964
1961
1961
1961
1961
1961
1961
1961
1961
1961
1962
1962
1962
1962
1962
1962
1962
1962
1962
1962
1961
1961
1961
1961
1961
1961
1964
1964
1964
1963
1963
1963
1963
1966
1966
1966
1963
1963
1963
1962
1962
1962
1964
1964
1964
1963
1963
1963
1963
1961
1961
1961
1961
1961
1961
1959
1959
1959
1962
1962
1962
1961
1961
1961
1961
1961
1961
1961
1959
1959
1959
1962
1962
1962
1961
1961
1961
1958
1958
1958
1958
1964
1964
1964
1961
1961
1961
1964
1964
1964
1962
1962
1962
1962
1962
1962
1962
1965
1965
1965
1963
1963
1963
1962
1962
1962
1962
1962
1962
1964
1964
1964
1964
1963
1963
1963
1964
1964
1964
1959
1959
1959
1963
1963
1963
1961
1961
1961
1961
1963
1963
1963
1962
1962
1962
1963
1963
1963
1962
1962
1962
1966
1966
1966
1966
1961
1961
1961
1956
1956
1956
1963
1963
1963
1966
1966
1966
1961
1961
1961
1961
1960
1960
1960
1963
1963
1963
1961
1961
1961
1961
1961
1961
1961
1961
1961
1961
1963
1963
1963
1960
1960
1960
1965
1965
1965
1962
1962
1962
1964
1964
1964
1964
1962
1962
1962
1965
1965
1965
1962
1962
1962
1962
1962
1962
1965
1965
1965
1965
1960
1960
1960
1963
1963
1963
1962
1962
1962
1961
1961
1961
1962
1962
1962
1962
1960
1960
1960
1961
1961
1961
1965
1965
1965
1960
1960
1960
1965
1965
1965
1965
1961
1961
1961
1963
1963
1963
1957
1957
1957
1963
1963
1963
1959
1959
1959
1959
1962
1962
1962
1966
1966
1966
1964
1964
1964
1960
1960
1960
1965
1965
1965
1965
1960
1960
1960
1963
1963
1963
1962
1962
1962
1961
1961
1961
1961
1961
1961
1961
1961
1961
1961
1962
1962
1962
1962
1962
1962
1966
1966
1966
1961
1961
1961
1961
1961
1961
1961
1961
1961
1961
1964
1964
1964
1963
1963
1963
1961
1961
1961
1961
1965
1965
1965
1958
1958
1958
1962
1962
1962
1964
1964
1964
1955
1955
1955
1955
1965
1965
1965
1961
1961
1961
1962
1962
1962
1963
1963
1963
1961
1961
1961
1961
1960
1960
1960
1963
1963
1963
1959
1959
1959
1963
1963
1963
1960
1960
1960
1960
1962
1962
1962
1962
1962
1962
1959
1959
1959
1962
1962
1962
1961
1961
1961
1961
1962
1962
1962
1966
1966
1966
1962
1962
1962
1961
1961
1961
1959
1959
1959
1959
1961
1961
1961
1959
1959
1959
1962
1962
1962
1963
1963
1963
1962
1962
1962
1962
1960
1960
1960
1964
1964
1964
1962
1962
1962
1960
1960
1960
1962
1962
1962
1962
1961
1961
1961
1963
1963
1963
1963
1963
1963
1961
1961
1961
1963
1963
1963
1963
1963
1963
1963
1956
1956
1956
1961
1961
1961
1960
1960
1960
1964
1964
1964
1964
1964
1964
1964
1962
1962
1962
1961
1961
1961
1967
1967
1967
1962
1962
1962
1962
1965
1965
1965
1963
1963
1963
1957
1957
1957
1963
1963
1963
1964
1964
1964
1964
1962
1962
1962
1962
1962
1962
1961
1961
1961
1961
1961
1961
1960
1960
1960
1960
1961
1961
1961
1962
1962
1962
1960
1960
1960
1964
1964
1964
1961
1961
1961
1961
1961
1961
1961
1959
1959
1959
1962
1962
1962
1959
1959
1959
1963
1963
1963
1963
1962
1962
1962
1962
1962
1962
1962
1962
1962
1965
1965
1965
1961
1961
1961
1961
1960
1960
1960
1963
1963
1963
1965
1965
1965
1961
1961
1961
1962
1962
1962
1962
1960
1960
1960
1960
1960
1960
1963
1963
1963
1966
1966
1966
1961
1961
1961
1961
1960
1960
1960
1964
1964
1964
1962
1962
1962
1963
1963
1963
1963
1963
1963
1963
1964
1964
1964
1962
1962
1962
1962
1962
1962
1961
1961
1961
1961
1961
1961
1961
1960
1960
1960
1970
1970
1970
1961
1961
1961
1962
1962
1962
1960
1960
1960
1960
1957
1957
1957
1963
1963
1963
1962
1962
1962
1962
1962
1962
1963
1963
1963
1963
1962
1962
1962
1961
1961
1961
1961
1961
1961
1964
1964
1964
1963
1963
1963
1963
1963
1963
1963
1958
1958
1958
1960
1960
1960
1962
1962
1962
1961
1961
1961
1961
1962
1962
1962
1960
1960
1960
1964
1964
1964
1963
1963
1963
1957
1957
1957
1957
1964
1964
1964
1962
1962
1962
1963
1963
1963
1959
1959
1959
1964
1964
1964
1964
1959
1959
1959
1962
1962
1962
1959
1959
1959
1962
1962
1962
1962
1962
1962
1962
1962
1962
1962
1962
1962
1962
1961
1961
1961
1962
1962
1962
1962
1962
1962
1962
1965
1965
1965
1959
1959
1959
1964
1964
1964
1962
1962
1962
1961
1961
1961
1961
1959
1959
1959
1964
1964
1964
1963
1963
1963
1961
1961
1961
1965
1965
1965
1965
1959
1959
1959
1963
1963
1963
1959
1959
1959
1961
1961
1961
1963
1963
1963
1963
1960
1960
1960
1963
1963
1963
1963
1963
1963
1961
1961
1961
1969
1969
1969
1969
1962
1962
1962
1962
1962
1962
1961
1961
1961
1964
1964
1964
1963
1963
1963
1963
1964
1964
1964
1963
1963
1963
1962
1962
1962
1963
1963
1963
1961
1961
1961
1961
1963
1963
1963
1963
1963
1963
1959
1959
1959
1960
1960
1960
1960
1960
1960
1960
1965
1965
1965
1962
1962
1962
1963
1963
1963
1962
1962
1962
1962
1962
1962
1962
1960
1960
1960
1965
1965
1965
1961
1961
1961
1960
1960
1960
1961
1961
1961
1961
1962
1962
1962
1960
1960
1960
1963
1963
1963
1957
1957
1957
1962
1962
1962
1962
1958
1958
1958
1962
1962
1962
1962
1962
1962
1965
1965
1965
1958
1958
1958
1958
1965
1965
1965
1957
1957
1957
1966
1966
1966
1965
1965
1965
1960
1960
1960
1960
1964
1964
1964
1960
1960
1960
1961
1961
1961
1964
1964
1964
1959
1959
1959
1959
1961
1961
1961
1963
1963
1963
1965
1965
1965
1962
1962
1962
1964
1964
1964
1964
1962
1962
1962
1960
1960
1960
1960
1960
1960
1961
1961
1961
1964
1964
1964
1964
1966
1966
1966
1962
1962
1962
1961
1961
1961
1964
1964
1964
1962
1962
1962
1962
1960
1960
1960
1962
1962
1962
1957
1957
1957
1964
1964
1964
1962
1962
1962
1962
1962
1962
1962
1958
1958
1958
1961
1961
1961
1962
1962
1962
1965
1965
1965
1965
1962
1962
1962
1963
1963
1963
1961
1961
1961
1963
1963
1963
1964
1964
1964
1964
1955
1955
1955
1961
1961
1961
1962
1962
1962
1959
1959
1959
1962
1962
1962
1962
1963
1963
1963
1964
1964
1964
1968
1968
1968
1960
1960
1960
1963
1963
1963
1963
1962
1962
1962
1961
1961
1961
1962
1962
1962
1960
1960
1960
1963
1963
1963
1963
1963
1963
1963
1963
1963
1963
1962
1962
1962
1963
1963
1963
1961
1961
1961
1961
1960
1960
1960
1962
1962
1962
1963
1963
1963
1966
1966
1966
1961
1961
1961
1961
1959
1959
1959
1961
1961
1961
1961
1961
1961
1960
1960
1960
1960
1960
1960
1960
1962
1962
1962
1962
1962
1962
1963
1963
1963
1962
1962
1962
1963
1963
1963
1963
1961
1961
1961
1964
1964
1964
1963
1963
1963
1962
1962
1962
1965
1965
1965
1965
1958
1958
1958
1961
1961
1961
1964
1964
1964
1965
1965
1965
1962
1962
1962
1962
1963
1963
1963
1961
1961
1961
1960
1960
1960
1963
1963
1963
1963
1963
1963
1963
1959
1959
1959
1963
1963
1963
1961
1961
1961
1964
1964
1964
1963
1963
1963
1963
1958
1958
1958
1960
1960
1960
1964
1964
1964
1960
1960
1960
1963
1963
1963
1963
1961
1961
1961
1963
1963
1963
1966
1966
1966
1962
1962
1962
1961
1961
1961
1961
1963
1963
1963
1955
1955
1955
1962
1962
1962
1963
1963
1963
1965
1965
1965
1965
1960
1960
1960
1960
1960
1960
1962
1962
1962
1960
1960
1960
1962
1962
1962
1962
1960
1960
1960
1962
1962
1962
1960
1960
1960
1965
1965
1965
1963
1963
1963
1963
1961
1961
1961
1965
1965
1965
1959
1959
1959
1965
1965
1965
1961
1961
1961
1961
1963
1963
1963
1958
1958
1958
1957
1957
1957
1966
1966
1966
1959
1959
1959
1959
1957
1957
1957
1961
1961
1961
1964
1964
1964
1967
1967
1967
1961
1961
1961
1961
1961
1961
1961
1962
1962
1962
1962
1962
1962
1963
1963
1963
1962
1962
1962
1962
1962
1962
1962
1961
1961
1961
1962
1962
1962
1962
1962
1962
1963
1963
1963
1963
1963
1963
1963
1962
1962
1962
1965
1965
1965
1964
1964
1964
1962
1962
1962
1962
1964
1964
1964
1961
1961
1961
1961
1961
1961
1960
1960
1960
1963
1963
1963
1963
1964
1964
1964
1960
1960
1960
1963
1963
1963
1962
1962
1962
1962
1962
1962
1962
1965
1965
1965
1958
1958
1958
1962
1962
1962
1960
1960
1960
1963
1963
1963
1963
1961
1961
1961
1961
1961
1961
1960
1960
1960
1964
1964
1964
1965
1965
1965
1965
1963
1963
1963
1962
1962
1962
1955
1955
1955
1964
1964
1964
1961
1961
1961
1961
1973
1973
1973
1961
1961
1961
1960
1960
1960
1962
1962
1962
1964
1964
1964
1964
1962
1962
1962
1961
1961
1961
1961
1961
1961
1960
1960
1960
1963
1963
1963
1963
1961
1961
1961
1964
1964
1964
1961
1961
1961
1960
1960
1960
1964
1964
1964
1964
1961
1961
1961
1964
1964
1964
1962
1962
1962
1960
1960
1960
1965
1965
1965
1965
1965
1965
1965
1957
1957
1957
1962
1962
1962
1962
1962
1962
1964
1964
1964
1964
1959
1959
1959
1963
1963
1963
1961
1961
1961
1961
1961
1961
1962
1962
1962
1962
1960
1960
1960
1961
1961
1961
1968
1968
1968
1963
1963
1963
1961
1961
1961
1961
1962
1962
1962
1959
1959
1959
1962
1962
1962
1963
1963
1963
1961
1961
1961
1961
1963
1963
1963
1963
1963
1963
1962
1962
1962
1961
1961
1961
1963
1963
1963
1963
1967
1967
1967
1962
1962
1962
1961
1961
1961
1961
1961
1961
1965
1965
1965
1965
1961
1961
1961
1963
1963
1963
1958
1958
1958
1962
1962
1962
1964
1964
1964
1964
1962
1962
1962
1968
1968
1968
1962
1962
1962
1964
1964
1964
1960
1960
1960
1960
1962
1962
1962
1961
1961
1961
1962
1962
1962
1966
1966
1966
1963
1963
1963
1963
1967
1967
1967
1964
1964
1964
1961
1961
1961
1959
1959
1959
1962
1962
1962
1962
1962
1962
1962
1965
1965
1965
1960
1960
1960
1963
1963
1963
1961
1961
1961
1961
1960
1960
1960
1962
1962
1962
1961
1961
1961
1966
1966
1966
1959
1959
1959
1959
1965
1965
1965
1961
1961
1961
1963
1963
1963
1959
1959
1959
1962
1962
1962
1962
1962
1962
1962
1962
1962
1962
1961
1961
1961
1965
1965
1965
1960
1960
1960
1960
1964
1964
1964
1963
1963
1963
1962
1962
1962
1961
1961
1961
1963
1963
1963
1963
1962
1962
1962
1963
1963
1963
1962
1962
1962
1964
1964
1964
1962
1962
1962
1962
1966
1966
1966
1959
1959
1959
1962
1962
1962
1961
1961
1961
1963
1963
1963
1963
1965
1965
1965
1962
1962
1962
1964
1964
1964
1963
1963
1963
1964
1964
1964
1964
1961
1961
1961
1962
1962
1962
1963
1963
1963
1963
1963
1963
1966
1966
1966
1966
1960
1960
1960
1961
1961
1961
1962
1962
1962
1961
1961
1961
1964
1964
1964
1964
1962
1962
1962
1965
1965
1965
1963
1963
1963
1960
1960
1960
1971
1971
1971
1971
1962
1962
1962
1963
1963
1963
1963
1963
1963
1960
1960
1960
1964
1964
1964
1964
1960
1960
1960
1960
1960
1960
1961
1961
1961
1965
1965
1965
1960
1960
1960
1960
1960
1960
1960
1963
1963
1963
1964
1964
1964
1964
1964
1964
1962
1962
1962
1962
1965
1965
1965
1960
1960
1960
1963
1963
1963
1962
1962
1962
1961
1961
1961
1961
1961
1961
1961
1954
1954
1954
1960
1960
1960
1964
1964
1964
1964
1964
1964
1964
1962
1962
1962
1963
1963
1963
1961
1961
1961
1965
1965
1965
1964
1964
1964
1964
1963
1963
1963
1960
1960
1960
1963
1963
1963
1962
1962
1962
1963
1963
1963
1963
1964
1964
1964
1958
1958
1958
1966
1966
1966
1959
1959
1959
1967
1967
1967
1967
1960
1960
1960
1967
1967
1967
1962
1962
1962
1962
1962
1962
1960
1960
1960
1960
1960
1960
1960
1962
1962
1962
1962
1962
1962
1961
1961
1961
1965
1965
1965
1965
1961
1961
1961
1964
1964
1964
1964
1964
1964
1962
1962
1962
1962
1962
1962
1962
1962
1962
1962
1960
1960
1960
1963
1963
1963
1963
1963
1963
1962
1962
1962
1962
1964
1964
1964
1962
1962
1962
1962
1962
1962
1962
1962
1962
1963
1963
1963
1963
1966
1966
1966
1959
1959
1959
1961
1961
1961
1963
1963
1963
1960
1960
1960
1960
1960
1960
1960
1967
1967
1967
1961
1961
1961
1962
1962
1962
1960
1960
1960
1960
1962
1962
1962
1962
1962
1962
1963
1963
1963
1965
1965
1965
1967
1967
1967
1967
1959
1959
1959
1962
1962
1962
1962
1962
1962
1962
1962
1962
1961
1961
1961
1961
1962
1962
1962
1958
1958
1958
1961
1961
1961
1961
1961
1961
1965
1965
1965
1965
1963
1963
1963
1962
1962
1962
1960
1960
1960
1961
1961
1961
1963
1963
1963
1963
1960
1960
1960
1962
1962
1962
1962
1962
1962
1962
1962
1962
1962
1962
1962
1962
1961
1961
1961
1959
1959
1959
1962
1962
1962
1960
1960
1960
1963
1963
1963
1963
1965
1965
1965
1965
1965
1965
1963
1963
1963
1962
1962
1962
1959
1959
1959
1959
1963
1963
1963
1964
1964
1964
1966
1966
1966
1964
1964
1964
1964
1964
1964
1964
1960
1960
1960
1963
1963
1963
1959
1959
1959
1963
1963
1963
1962
1962
1962
1962
1961
1961
1961
1965
1965
1965
1965
1965
1965
1962
1962
1962
1965
1965
1965
1965
1963
1963
1963
1961
1961
1961
1963
1963
1963
1962
1962
1962
1961
1961
1961
1961
1964
1964
1964
1962
1962
1962
1961
1961
1961
1962
1962
1962
1962
1962
1962
1962
1961
1961
1961
1961
1961
1961
1965
1965
1965
1960
1960
1960
1963
1963
1963
1963
1964
1964
1964
1964
1964
1964
1962
1962
1962
1963
1963
1963
1967
1967
1967
1967
1963
1963
1963
1960
1960
1960
1964
1964
1964
1958
1958
1958
1962
1962
1962
1962
1963
1963
1963
1962
1962
1962
1963
1963
1963
1961
1961
1961
1963
1963
1963
1963
1961
1961
1961
1967
1967
1967
1959
1959
1959
1963
1963
1963
1958
1958
1958
1958
1962
1962
1962
1960
1960
1960
1963
1963
1963
1962
1962
1962
1965
1965
1965
1965
1959
1959
1959
1962
1962
1962
1963
1963
1963
1962
1962
1962
1963
1963
1963
1963
1961
1961
1961
1963
1963
1963
1961
1961
1961
1963
1963
1963
1964
1964
1964
1964
1961
1961
1961
1961
1961
1961
1961
1961
1961
1963
1963
1963
1961
1961
1961
1961
1963
1963
1963
1962
1962
1962
1963
1963
1963
1964
1964
1964
1964
1964
1964
1964
1962
1962
1962
1960
1960
1960
1957
1957
1957
1962
1962
1962
1963
1963
1963
1963
1959
1959
1959
1964
1964
1964
1962
1962
1962
1963
1963
1963
1960
1960
1960
1960
1961
1961
1961
1963
1963
1963
1962
1962
1962
1964
1964
1964
1959
1959
1959
1959
1960
1960
1960
1963
1963
1963
1964
1964
1964
1958
1958
1958
1960
1960
1960
1960
1961
1961
1961
1963
1963
1963
1960
1960
1960
1961
1961
1961
1965
1965
1965
1965
1962
1962
1962
1967
1967
1967
1963
1963
1963
1961
1961
1961
1960
1960
1960
1960
1963
1963
1963
1960
1960
1960
1962
1962
1962
1965
1965
1965
1962
1962
1962
1962
1966
1966
1966
1962
1962
1962
1964
1964
1964
1959
1959
1959
1962
1962
1962
1962
1961
1961
1961
1961
1961
1961
1960
1960
1960
1961
1961
1961
1962
1962
1962
1962
1963
1963
1963
1964
1964
1964
1962
1962
1962
1963
1963
1963
1963
1963
1963
1963
1958
1958
1958
1965
1965
1965
1960
1960
1960
1963
1963
1963
1962
1962
1962
1962
1963
1963
1963
1963
1963
1963
1967
1967
1967
1962
1962
1962
1963
1963
1963
1963
1962
1962
1962
1962
1962
1962
1966
1966
1966
1962
1962
1962
1956
1956
1956
1956
1963
1963
1963
1962
1962
1962
1962
1962
1962
1963
1963
1963
1963
1963
1963
1963
1957
1957
1957
1961
1961
1961
1961
1961
1961
1965
1965
1965
1962
1962
1962
1962
1961
1961
1961
1962
1962
1962
1964
1964
1964
1963
1963
1963
1965
1965
1965
1965
1962
1962
1962
1964
1964
1964
1960
1960
1960
1962
1962
1962
1957
1957
1957
1957
1962
1962
1962
1962
1962
1962
1964
1964
1964
1962
1962
1962
1964
1964
1964
1964
1962
1962
1962
1963
1963
1963
1961
1961
1961
1961
1961
1961
1964
1964
1964
1964
1963
1963
1963
1958
1958
1958
1963
1963
1963
1962
1962
1962
1961
1961
1961
1961
1962
1962
1962
1964
1964
1964
1964
1964
1964
1961
1961
1961
1962
1962
1962
1962
1961
1961
1961
1963
1963
1963
1960
1960
1960
1959
1959
1959
1963
1963
1963
1963
1963
1963
1963
1962
1962
1962
1959
1959
1959
1965
1965
1965
1961
1961
1961
1961
1962
1962
1962
1964
1964
1964
1960
1960
1960
1962
1962
1962
1961
1961
1961
1961
1965
1965
1965
1962
1962
1962
1960
1960
1960
1959
1959
1959
1962
1962
1962
1962
1961
1961
1961
1964
1964
1964
1963
1963
1963
1960
1960
1960
1963
1963
1963
1963
1962
1962
1962
1961
1961
1961
1958
1958
1958
1962
1962
1962
1963
1963
1963
1963
1961
1961
1961
1965
1965
1965
1961
1961
1961
1964
1964
1964
1968
1968
1968
1968
1961
1961
1961
1961
1961
1961
1963
1963
1963
1959
1959
1959
1963
1963
1963
1963
1962
1962
1962
1963
1963
1963
1960
1960
1960
1963
1963
1963
1961
1961
1961
1961
1961
1961
1961
1958
1958
1958
1963
1963
1963
1963
1963
1963
1955
1955
1955
1955
1963
1963
1963
1961
1961
1961
1963
1963
1963
1963
1963
1963
1962
1962
1962
1962
1963
1963
1963
1965
1965
1965
1961
1961
1961
1963
1963
1963
1963
1963
1963
1963
1962
1962
1962
1960
1960
1960
1963
1963
1963
1964
1964
1964
1961
1961
1961
1961
1961
1961
1961
1964
1964
1964
1963
1963
1963
1964
1964
1964
1962
1962
1962
1962
1965
1965
1965
1962
1962
1962
1961
1961
1961
1965
1965
1965
1962
1962
1962
1962
1963
1963
1963
1964
1964
1964
