2176
2176
2182
2182
2182
2179
2179
2179
2180
2180
2180
2182
2182
2182
2180
2180
2180
2180
2180
2180
2180
2175
2175
2175
2181
2181
2181
2187
2187
2187
2183
2183
2183
2183
2181
2181
2181
2176
2176
2176
2178
2178
2178
2177
2177
2177
2182
2182
2182
2182
2183
2183
2183
2178
2178
2178
2181
2181
2181
2179
2179
2179
2180
2180
2180
2180
2178
2178
2178
2181
2181
2181
2176
2176
2176
2173
2173
2173
2184
2184
2184
2184
2177
2177
2179
2179
2182
2182
2182
2182
2182
2182
2179
2179
2179
2182
2182
2182
2179
2179
2179
2179
2180
2180
2180
2181
2181
2181
2180
2180
2180
2182
2182
2182
2189
2189
2189
2189
2180
2180
2180
2183
2183
2183
2180
2180
2180
2177
2177
2177
2187
2187
2187
2187
2181
2181
2181
2177
2177
2177
2180
2180
2180
2184
2184
2184
2179
2179
2179
2179
2177
2177
2177
2181
2181
2181
2181
2181
2181
2170
2170
2170
2182
2182
2182
2182
2176
2176
2176
2183
2183
2183
2181
2181
2181
2181
2181
2181
2180
2180
2180
2180
2174
2174
2174
2180
2180
2180
2181
2181
2181
2178
2178
2178
2181
2181
2181
2181
2182
2182
2182
2181
2181
2181
2180
2180
2180
2183
2183
2183
2178
2178
2178
2178
2181
2181
2181
2180
2180
2180
2185
2185
2185
2179
2179
2179
2177
2177
2177
2177
2180
2180
2180
2185
2185
2185
2182
2182
2182
2182
2182
2182
2180
2180
2180
2180
2180
2180
2180
2183
2183
2183
2177
2177
2177
2185
2185
2185
2184
2184
2184
2184
2179
2179
2179
2172
2172
2172
2187
2187
2187
2180
2180
2180
2181
2181
2181
2181
2180
2180
2180
2183
2183
2183
2177
2177
2177
2181
2181
2181
2182
2182
2182
2182
2178
2178
2178
2180
2180
2180
2179
2179
2179
2181
2181
2181
2178
2178
2178
2178
2180
2180
2180
2181
2181
2181
2177
2177
2177
2181
2181
2181
2185
2185
2185
2185
2177
2177
2177
2178
2178
2178
2178
2178
2178
2181
2181
2181
2180
2180
2180
2180
2180
2180
2180
2180
2180
2180
2183
2183
2183
2180
2180
2180
2176
2176
2176
2176
2179
2179
2179
2180
2180
2180
2179
2179
2179
2187
2187
2187
2179
2179
2179
2179
2181
2181
2181
2175
2175
2175
2179
2179
2179
2179
2179
2179
2180
2180
2180
2180
2176
2176
2176
2184
2184
2184
2180
2180
2180
2179
2179
2179
2179
2179
2179
2179
2174
2174
2174
2181
2181
2181
2183
2183
2183
2185
2185
2185
2179
2179
2179
2179
2184
2184
2184
2182
2182
2182
2182
2182
2182
2184
2184
2184
2183
2183
2183
2183
2180
2180
2180
2180
2180
2180
2175
2175
2175
2179
2179
2179
2181
2181
2181
2181
2180
2180
2180
2176
2176
2176
2180
2180
2180
2181
2181
2181
2179
2179
2179
2179
2178
2178
2178
2180
2180
2180
2187
2187
2187
2181
2181
2181
2180
2180
2180
2180
2179
2179
2179
2183
2183
2183
2178
2178
2178
2183
2183
2183
2180
2180
2180
2180
2180
2180
2180
2181
2181
2181
2181
2181
2181
2182
2182
2182
2179
2179
2179
2179
2174
2174
2174
2177
2177
2177
2180
2180
2180
2180
2180
2180
2177
2177
2177
2177
2179
2179
2179
2178
2178
2178
2176
2176
2176
2180
2180
2180
2177
2177
2177
2177
2178
2178
2178
2184
2184
2184
2181
2181
2181
2168
2168
2168
2178
2178
2178
2178
2179
2179
2179
2181
2181
2181
2181
2181
2181
2178
2178
2178
2183
2183
2183
2183
2183
2183
2183
2179
2179
2179
2179
2179
2179
2176
2176
2176
2183
2183
2183
2183
2178
2178
2178
2182
2182
2182
2180
2180
2180
2182
2182
2182
2181
2181
2181
2181
2181
2181
2181
2182
2182
2182
2182
2182
2182
2180
2180
2180
2181
2181
2181
2181
2175
2175
2175
2178
2178
2178
2184
2184
2184
2182
2182
2182
2183
2183
2183
2183
2172
2172
2172
2181
2181
2181
2178
2178
2178
2188
2188
2188
2178
2178
2178
2178
2178
2178
2178
2181
2181
2181
2181
2181
2181
2184
2184
2184
2179
2179
2179
2179
2178
2178
2178
2175
2175
2175
2171
2171
2171
2182
2182
2182
2181
2181
2181
2181
2178
2178
2178
2185
2185
2185
2183
2183
2183
2178
2178
2178
2180
2180
2180
2180
2179
2179
2179
2182
2182
2182
2179
2179
2179
2179
2179
2179
2181
2181
2181
2181
2177
2177
2177
2185
2185
2185
2180
2180
2180
2182
2182
2182
2181
2181
2181
2181
2175
2175
2175
2184
2184
2184
2181
2181
2181
2181
2181
2181
2179
2179
2179
2179
2176
2176
2176
2183
2183
2183
2184
2184
2184
2181
2181
2181
2187
2187
2187
2187
2178
2178
2178
2182
2182
2182
2178
2178
2178
2180
2180
2180
2176
2176
2176
2176
2179
2179
2179
2175
2175
2175
2179
2179
2179
2180
2180
2180
2178
2178
2178
2178
2184
2184
2184
2178
2178
2178
2180
2180
2180
2173
2173
2173
2178
2178
2178
2178
2177
2177
2177
2182
2182
2182
2181
2181
2181
2180
2180
2180
2178
2178
2178
2178
2179
2179
2179
2180
2180
2180
2180
2180
2180
2182
2182
2182
2180
2180
2180
2180
2171
2171
2171
2181
2181
2181
2182
2182
2182
2180
2180
2180
2181
2181
2181
2181
2177
2177
2177
2179
2179
2179
2179
2179
2179
2182
2182
2182
2177
2177
2177
2177
2180
2180
2180
2181
2181
2181
2186
2186
2186
2181
2181
2181
2180
2180
2180
2180
2181
2181
2181
2185
2185
2185
2178
2178
2178
2182
2182
2182
2177
2177
2177
2177
2180
2180
2180
2184
2184
2184
2181
2181
2181
2189
2189
2189
2180
2180
2180
2180
2180
2180
2180
2179
2179
2179
2180
2180
2180
2182
2182
2182
2181
2181
2181
2181
2182
2182
2182
2179
2179
2179
2175
2175
2175
2183
2183
2183
2180
2180
2180
2180
2182
2182
2182
2177
2177
2177
2179
2179
2179
2181
2181
2181
2171
2171
2171
2171
2181
2181
2181
2188
2188
2188
2180
2180
2180
2176
2176
2176
2181
2181
2181
2181
2173
2173
