2157
2157
2151
2151
2151
2151
2153
2153
2153
2153
2153
2153
2155
2155
2155
2151
2151
2151
2154
2154
2154
2154
2157
2157
2157
2151
2151
2151
2155
2155
2155
2155
2155
2155
2154
2154
2154
2154
2153
2153
2153
2152
2152
2152
2151
2151
2151
2151
2151
2151
2157
2157
2157
2157
2156
2156
2156
2151
2151
2151
2153
2153
2153
2152
2152
2152
2155
2155
2155
2155
2154
2154
2154
2155
2155
2155
2153
2153
2153
2156
2156
2156
2155
2155
2155
2155
2154
2154
2154
2155
2155
2155
2152
2152
2152
2154
2154
2154
2148
2148
2148
2148
2153
2153
2153
2156
2156
2156
2152
2152
2152
2153
2153
2153
2155
2155
2155
2155
2154
2154
2154
2153
2153
2153
2154
2154
2154
2152
2152
2152
2151
2151
2151
2151
2154
2154
2154
2152
2152
2152
2152
2152
2152
2157
2157
2157
2152
2152
2152
2152
2154
2154
2154
2154
2154
2154
2151
2151
2151
2153
2153
2153
2151
2151
2151
2151
2154
2154
2154
2154
2154
2154
2153
2153
2153
2145
2145
2145
2152
2152
2152
2152
2155
2155
2155
2154
2154
2154
2153
2153
2153
2153
2153
2153
2154
2154
2154
2154
2151
2151
2151
2155
2155
2155
2152
2152
2152
2152
2152
2152
2152
2152
2152
2152
2149
2149
2149
2154
2154
2154
2151
2151
2151
2154
2154
2154
2153
2153
2153
2153
2154
2154
2154
2152
2152
2152
2154
2154
2154
2148
2148
2148
2151
2151
2151
2151
2152
2152
2152
2155
2155
2155
2152
2152
2152
2153
2153
2153
2155
2155
2155
2155
2152
2152
2152
2154
2154
2154
2155
2155
2155
2154
2154
2154
2154
2154
2154
2154
2152
2152
2152
2156
2156
2156
2154
2154
2154
2150
2150
2150
2152
2152
2152
2152
2153
2153
2153
2153
2153
2153
2154
2154
2154
2154
2154
2154
2153
2153
2153
2153
2154
2154
2154
2153
2153
2153
2158
2158
2158
2153
2153
2153
2155
2155
2155
2155
2152
2152
2152
2153
2153
2153
2154
2154
2154
2151
2151
2151
2156
2156
2156
2156
2152
2152
2152
2151
2151
2151
2154
2154
2154
2154
2154
2154
2154
2154
2154
2154
2154
2154
2154
2153
2153
2153
2157
2157
2157
2153
2153
2153
2156
2156
2156
2156
2149
2149
2149
2154
2154
2154
2153
2153
2153
2153
2153
2153
2152
2152
2152
2152
2153
2153
2153
2157
2157
2157
2150
2150
2150
2150
2150
2150
2155
2155
2155
2155
2152
2152
2152
2151
2151
2151
2156
2156
2156
2150
2150
2150
2150
2150
2150
2150
2149
2149
2149
2152
2152
2152
2155
2155
2155
2151
2151
2151
2154
2154
2154
2154
2153
2153
2153
2156
2156
2156
2153
2153
2153
2155
2155
2155
2154
2154
2154
2154
2155
2155
2155
2153
2153
2153
2151
2151
2151
2153
2153
2153
2154
2154
2154
2154
2156
2156
2156
2153
2153
2153
2152
2152
2152
2155
2155
2155
2153
2153
2153
2153
2152
2152
2152
2158
2158
2158
2150
2150
2150
2148
2148
2148
2152
2152
2152
2152
2153
2153
2153
2153
2153
2153
2153
2153
2153
2155
2155
2155
2154
2154
2154
2154
2152
2152
2152
2154
2154
2154
2155
2155
2155
2154
2154
2154
2152
2152
2152
2152
2151
2151
2151
2153
2153
2153
2155
2155
2155
2153
2153
2153
2153
2153
2153
2153
2153
2153
2153
2157
2157
2157
2154
2154
2154
2154
2154
2154
2154
2154
2154
2154
2153
2153
2153
2152
2152
2152
2152
2152
2152
2155
2155
2155
2155
2155
2155
2155
2150
2150
2150
2153
2153
2153
2155
2155
2155
2151
2151
2151
2156
2156
2156
2156
2155
2155
2155
2149
2149
2149
2154
2154
2154
2153
2153
2153
2152
2152
2152
2152
2152
2152
2152
2153
2153
2153
2154
2154
2154
2154
2154
2154
2152
2152
2152
2152
2154
2154
2154
2153
2153
2153
2153
2153
2153
2153
2153
2153
2152
2152
2152
2152
2154
2154
2154
2157
2157
2157
2153
2153
2153
2158
2158
2158
2152
2152
2152
2152
2151
2151
2151
2154
2154
2154
2154
2154
2154
2153
2153
2153
2155
2155
2155
2155
2151
2151
2151
2155
2155
2155
2159
2159
2159
2153
2153
2153
2156
2156
2156
2156
2153
2153
2153
2152
2152
2152
2155
2155
2155
2154
2154
2154
2156
2156
2156
2156
2154
2154
2154
2155
2155
2155
2152
2152
2152
2151
2151
2151
2155
2155
2155
2155
2151
2151
2151
2155
2155
2155
2155
2155
2155
2153
2153
2153
2155
2155
2155
2155
2154
2154
2154
2154
2154
2154
2153
2153
2153
2153
2153
2153
2154
2154
2154
2154
2155
2155
2155
2148
2148
2148
2156
2156
2156
2152
2152
2152
2155
2155
2155
2155
2155
2155
2155
2156
2156
2156
2152
2152
2152
2155
2155
2155
2150
2150
2150
2150
2153
2153
2153
2153
2153
2153
2156
2156
2156
2154
2154
2154
2153
2153
2153
2153
2152
2152
2152
2155
2155
2155
2154
2154
2154
2156
2156
2156
2154
2154
2154
2154
2153
2153
2153
2156
2156
2156
2153
2153
2153
2153
2153
2153
2154
2154
2154
2154
2154
2154
2154
2153
2153
2153
2152
2152
2152
2153
2153
2153
2155
2155
2155
2155
2153
2153
2153
2153
2153
2153
2154
2154
2154
2152
2152
2152
2151
2151
2151
2151
2157
2157
2157
2147
2147
2147
2152
2152
2152
2154
2154
2154
2153
2153
2153
2153
2154
2154
2154
2152
2152
2152
2151
2151
2151
2154
2154
2154
2155
2155
2155
2155
2152
2152
2152
2155
2155
2155
2154
2154
2154
2152
2152
2152
2152
2152
2152
2152
2153
2153
2153
2155
2155
2155
2155
2155
2155
2156
2156
2156
2155
2155
2155
2155
2154
2154
2154
2157
2157
2157
2155
2155
2155
2152
2152
2152
2152
2152
2152
2152
2152
2152
2152
2154
2154
2154
2152
2152
2152
2155
2155
2155
2151
2151
2151
2151
2149
2149
2149
2157
2157
2157
2154
2154
2154
2153
2153
2153
2156
2156
2156
2156
2153
2153
2153
2160
2160
2160
2152
2152
2152
2153
2153
2153
2158
2158
2158
2158
2152
2152
2152
2157
2157
2157
2157
2157
2157
2153
2153
2153
2151
2151
2151
2151
2153
2153
2153
2154
2154
2154
2152
2152
2152
2155
2155
2155
2154
2154
2154
2154
2146
2146
2146
2155
2155
2155
2156
2156
2156
2152
2152
2152
2153
2153
2153
2153
2151
2151
2151
2158
2158
2158
2152
2152
2152
2156
2156
2156
2148
2148
2148
2148
2150
2150
2150
2153
2153
2153
2152
2152
2152
2154
2154
2154
2154
2154
2154
2154
2153
2153
2153
2157
2157
2157
2154
2154
2154
2154
2154
2154
2154
2154
2154
2154
2153
2153
2153
2153
2153
2153
2155
2155
2155
2154
2154
2154
2153
2153
2153
2153
2153
2153
2153
2153
2153
2153
2154
2154
2154
2154
2154
2154
2153
2153
2153
2153
2156
2156
2156
2154
2154
2154
2154
2154
2154
2146
2146
2146
2155
2155
2155
2155
2151
2151
2151
2156
2156
2156
2151
2151
2151
2155
2155
2155
2153
2153
2153
2153
2153
2153
2153
2154
2154
2154
2149
2149
2149
2154
2154
2154
2154
2154
2154
2154
2152
2152
2152
2155
2155
2155
2154
2154
2154
2154
2154
2154
2150
2150
2150
2150
2152
2152
2152
2154
2154
2154
2153
2153
2153
2155
2155
2155
2153
2153
2153
2153
2153
2153
2153
2154
2154
2154
2155
2155
2155
2152
2152
2152
2155
2155
2155
2155
2151
2151
2151
2154
2154
2154
2154
2154
2154
2152
2152
2152
2152
2152
2152
2152
2152
2152
2152
2155
2155
2155
2150
2150
2150
2155
2155
2155
2154
2154
2154
2154
2153
2153
2153
2154
2154
2154
2151
2151
2151
2151
2151
2151
2156
2156
2156
2156
2154
2154
2154
2155
2155
2155
2155
2155
2155
2154
2154
2154
2152
2152
2152
2152
2152
2152
2152
2154
2154
2154
2154
2154
2154
2154
2154
2154
2152
2152
2152
2152
2151
2151
2151
2153
2153
2153
2152
2152
2152
2154
2154
2154
2150
2150
2150
2150
2155
2155
2155
2155
2155
2155
2152
2152
2152
2151
2151
2151
2153
2153
2153
2153
2156
2156
2156
2153
2153
2153
2154
2154
2154
2152
2152
2152
2154
2154
2154
2154
2154
2154
2154
2153
2153
2153
2154
2154
2154
2152
2152
2152
2155
2155
2155
2155
2150
2150
2150
2154
2154
2154
2158
2158
2158
2150
2150
2150
2154
2154
2154
2154
2154
2154
2154
2154
2154
2154
2156
2156
2156
2154
2154
2154
2151
2151
2151
2151
2154
2154
2154
2154
2154
2154
2152
2152
2152
2154
2154
2154
2154
2154
2154
2154
2152
2152
2152
2154
2154
2154
2151
2151
2151
2154
2154
2154
2151
2151
2151
2151
2153
2153
2153
2155
2155
2155
2151
2151
2151
2155
2155
2155
2154
2154
2154
2154
2151
2151
2151
2157
2157
2157
2151
2151
2151
2152
2152
2152
2151
2151
2151
2151
2153
2153
2153
2154
2154
2154
2153
2153
2153
2156
2156
2156
2152
2152
2152
2152
2153
2153
2153
2154
2154
2154
2153
2153
2153
2150
2150
2150
2159
2159
2159
2159
2152
2152
2152
2155
2155
2155
2155
2155
2155
2147
2147
2147
2152
2152
2152
2152
2154
2154
2154
2154
2154
2154
2152
2152
2152
2153
2153
2153
2153
2153
2153
2153
2158
2158
2158
2151
2151
2151
2153
2153
2153
2153
2153
2153
2154
2154
2154
2154
2153
2153
2153
2154
2154
2154
2159
2159
2159
2155
2155
2155
2155
2155
2155
2155
2153
2153
2153
2157
2157
2157
2155
2155
2155
2149
2149
2149
2154
2154
2154
2154
2157
2157
2157
2155
2155
2155
2157
2157
2157
2155
2155
2155
2151
2151
2151
2151
2152
2152
2152
2153
2153
2153
2154
2154
2154
2155
2155
2155
2153
2153
2153
2153
2153
2153
2153
2156
2156
2156
2154
2154
2154
2155
2155
2155
2155
2155
2155
2155
2153
2153
2153
2153
2153
2153
2151
2151
2151
2154
2154
2154
2155
2155
2155
2155
2151
2151
2151
2157
2157
2157
2153
2153
2153
2152
2152
2152
2158
2158
2158
2158
2152
2152
2152
2158
2158
2158
2151
2151
2151
2155
2155
2155
2153
2153
2153
2153
2153
2153
2153
2153
2153
2153
2153
2153
2153
2153
2153
2153
2148
2148
2148
2148
2154
2154
2154
2155
2155
2155
2155
2155
2155
2154
2154
2154
2155
2155
2155
2155
2155
2155
2155
2154
2154
2154
2153
2153
2153
2154
2154
2154
2153
2153
2153
2153
2150
2150
2150
2155
2155
2155
2153
2153
2153
2153
2153
2153
2157
2157
2157
2157
2154
2154
2154
2153
2153
2153
2156
2156
2156
2151
2151
2151
2155
2155
2155
2155
2152
2152
2152
2155
2155
2155
2157
2157
2157
2150
2150
2150
2158
2158
2158
2158
2154
2154
2154
2153
2153
2153
2155
2155
2155
2154
2154
2154
2157
2157
2157
2157
2150
2150
2150
2153
2153
2153
2158
2158
2158
2153
2153
2153
2152
2152
2152
2152
2152
2152
2152
2155
2155
2155
2152
2152
2152
2152
2152
2152
2153
2153
2153
2153
2154
2154
2154
2156
2156
2156
2155
2155
2155
2151
2151
2151
2155
2155
2155
2155
2149
2149
2149
2158
2158
2158
2156
2156
2156
2154
2154
2154
2153
2153
2153
2153
2156
2156
2156
2154
2154
2154
2154
2154
2154
2153
2153
2153
2154
2154
2154
2154
2154
2154
2154
2153
2153
2153
2155
2155
2155
2154
2154
2154
2153
2153
2153
2153
2155
2155
2155
2154
2154
2154
2155
2155
2155
2153
2153
2153
2152
2152
2152
2152
2149
2149
2149
2156
2156
2156
2154
2154
2154
2154
2154
2154
2153
2153
2153
2153
2151
2151
2151
2152
2152
2152
2159
2159
2159
2154
2154
2154
2156
2156
2156
2156
2151
2151
2151
2156
2156
2156
2155
2155
2155
2153
2153
2153
2151
2151
2151
2151
2150
2150
2150
2153
2153
2153
2152
2152
2152
2154
2154
2154
2153
2153
2153
2153
2153
2153
2153
2156
2156
2156
2154
2154
2154
2150
2150
2150
2153
2153
2153
2153
2153
2153
2153
2154
2154
2154
2156
2156
2156
2153
2153
2153
2155
2155
2155
2155
2159
2159
2159
2153
2153
2153
2151
2151
2151
2153
2153
2153
2153
2153
2153
2153
2150
2150
2150
2155
2155
2155
2152
2152
2152
2151
2151
2151
2158
2158
2158
2158
2153
2153
2153
2155
2155
2155
2150
2150
2150
2153
2153
2153
2156
2156
2156
2156
2152
2152
2152
2155
2155
2155
2156
2156
2156
2153
2153
2153
2152
2152
2152
2152
2153
2153
2153
2156
2156
2156
2153
2153
2153
2148
2148
2148
2155
2155
2155
2155
2154
2154
2154
2153
2153
2153
2155
2155
2155
2153
2153
2153
2152
2152
2152
2152
2156
2156
2156
2152
2152
2152
2155
2155
2155
2153
2153
2153
2150
2150
2150
2150
2151
2151
2151
2156
2156
2156
2152
2152
2152
2153
2153
2153
2156
2156
2156
2156
2154
2154
2154
2149
2149
2149
2154
2154
2154
2153
2153
2153
2152
2152
2152
2152
2151
2151
2151
2153
2153
2153
2153
2153
2153
2154
2154
2154
2153
2153
2153
2153
2151
2151
2151
2154
2154
2154
2153
2153
2153
2153
2153
2153
2155
2155
2155
2155
2151
2151
2151
2155
2155
2155
2153
2153
2153
2151
2151
2151
2153
2153
2153
2153
2153
2153
2153
2158
2158
2158
2150
2150
2150
2154
2154
2154
2153
2153
2153
2153
2154
2154
2154
2153
2153
2153
2153
2153
2153
2154
2154
2154
2155
2155
2155
2155
2153
2153
2153
2154
2154
2154
2153
2153
2153
2155
2155
2155
2153
2153
2153
2153
2153
2153
2153
2154
2154
2154
2153
2153
2153
2155
2155
2155
2154
2154
2154
2154
2153
2153
2153
2154
2154
2154
2150
2150
2150
2154
2154
2154
2156
2156
2156
2156
2150
2150
2150
2156
2156
2156
2154
2154
2154
2153
2153
2153
2155
2155
2155
2155
2156
2156
2156
2152
2152
2152
2157
2157
2157
2151
2151
2151
2157
2157
2157
2157
2155
2155
2155
2152
2152
2152
2155
2155
2155
2155
2155
2155
2148
2148
2148
2148
2151
2151
2151
2155
2155
2155
2152
2152
2152
2152
2152
2152
2155
2155
2155
2155
2155
2155
2155
2152
2152
2152
2154
2154
2154
2157
2157
2157
2152
2152
2152
2152
2151
2151
2151
2153
2153
2153
2152
2152
2152
2155
2155
2155
2157
2157
2157
2157
2149
2149
2149
2157
2157
2157
2152
2152
2152
2156
2156
2156
2154
2154
2154
2154
2154
2154
2154
2151
2151
2151
2154
2154
2154
2154
2154
2154
2153
2153
2153
2153
2153
2153
2153
2156
2156
2156
2154
2154
2154
2154
2154
2154
2151
2151
2151
2151
2153
2153
2153
2153
2153
2153
2153
2153
2153
2153
2153
2153
2151
2151
2151
2151
2151
2151
2151
2156
2156
2156
2153
2153
2153
2153
2153
2153
2152
2152
2152
2152
2153
2153
2153
2158
2158
2158
2154
2154
2154
2149
2149
2149
2153
2153
2153
2153
2151
2151
2151
2156
2156
2156
2153
2153
2153
2154
2154
2154
2155
2155
2155
2155
2151
2151
2151
2154
2154
2154
2155
2155
2155
2154
2154
2154
2155
2155
2155
2155
2152
2152
2152
2156
2156
2156
2154
2154
2154
2152
2152
2152
2151
2151
2151
2151
2156
2156
2156
2153
2153
2153
2153
2153
2153
2154
2154
2154
2154
2154
2154
2154
2151
2151
2151
2153
2153
2153
2156
2156
2156
2154
2154
2154
2155
2155
2155
2155
2152
2152
2152
2153
2153
2153
2154
2154
2154
2152
2152
2152
2154
2154
2154
2154
2155
2155
2155
2151
2151
2151
2153
2153
2153
2153
2153
2153
2153
2153
2153
2153
2155
2155
2155
2153
2153
2153
2152
2152
2152
2157
2157
2157
2154
2154
2154
2154
2154
2154
2154
2154
2154
2154
2154
2154
2154
2155
2155
2155
2154
2154
2154
2154
2151
2151
2151
2154
2154
2154
2156
2156
2156
2150
2150
2150
2153
2153
2153
2153
2153
2153
2153
2153
2153
2153
2153
2153
2153
2154
2154
2154
2155
2155
2155
2155
2154
2154
2154
2153
2153
2153
2156
2156
2156
2154
2154
2154
2153
2153
2153
2153
2153
2153
2153
2153
2153
2153
2151
2151
2151
2151
2151
2151
2154
2154
2154
2154
2152
2152
2152
2153
2153
2153
2155
2155
2155
2155
2155
2155
2152
2152
2152
2152
2154
2154
2154
2155
2155
2155
2155
2155
2155
2155
2155
2155
2149
2149
2149
2149
2152
2152
2152
2155
2155
2155
2153
2153
2153
2152
2152
2152
2152
2152
2152
2152
2152
2152
2152
2155
2155
2155
2154
2154
2154
2153
2153
2153
2154
2154
2154
2154
2150
2150
2150
2156
2156
2156
2151
2151
2151
2154
2154
2154
2158
2158
2158
2158
2157
2157
2157
2156
2156
2156
2155
2155
2155
2154
2154
2154
2156
2156
2156
2156
2154
2154
2154
2150
2150
2150
2153
2153
2153
2157
2157
2157
2154
2154
2154
2154
2152
2152
2152
2154
2154
2154
2153
2153
2153
2153
2153
2153
2154
2154
2154
2154
2154
2154
2154
2153
2153
2153
2151
2151
2151
2154
2154
2154
2153
2153
2153
2153
2154
2154
2154
2153
2153
2153
2155
2155
2155
2150
2150
2150
2155
2155
2155
2155
2154
2154
2154
2152
2152
2152
2153
2153
2153
2149
2149
2149
2155
2155
2155
2155
2153
2153
2153
2156
2156
2156
2153
2153
2153
2153
2153
2153
2157
2157
2157
2157
2153
2153
2153
2153
2153
2153
2154
2154
2154
2154
2154
2154
2154
2154
2154
2154
2155
2155
2155
2151
2151
2151
2154
2154
2154
2155
2155
2155
2153
2153
2153
2153
2154
2154
2154
2155
2155
2155
2155
2155
2155
2155
2155
2155
2155
2155
2155
2155
2149
2149
2149
2152
2152
2152
2155
2155
2155
2152
2152
2152
2155
2155
2155
2155
2153
2153
2153
2151
2151
2151
2156
2156
2156
2155
2155
2155
2151
2151
2151
2151
2152
2152
2152
2154
2154
2154
2153
2153
2153
2152
2152
2152
2156
2156
2156
2156
2153
2153
2153
2152
2152
2152
2152
2152
2152
2155
2155
2155
2153
2153
2153
2153
2153
2153
2153
2153
2153
2153
2153
2153
2153
2154
2154
2154
2151
2151
2151
2151
2152
2152
2152
2151
2151
2151
2155
2155
2155
2153
2153
2153
2153
2153
2153
2153
2157
2157
2157
2153
2153
2153
2153
2153
2153
2154
2154
2154
2156
2156
2156
2156
2155
2155
2155
2154
2154
2154
2153
2153
2153
2152
2152
2152
2154
2154
2154
2154
2152
2152
2152
2155
2155
2155
2154
2154
2154
2155
2155
2155
2154
2154
2154
2154
2152
2152
2152
2153
2153
2153
2153
2153
2153
2154
2154
2154
2150
2150
2150
2150
2154
2154
2154
2154
2154
2154
2154
2154
2154
2151
2151
2151
2153
2153
2153
2153
2152
2152
2152
2149
2149
2149
2149
2149
2149
2151
2151
2151
2152
2152
2152
2152
2150
2150
2150
2154
2154
2154
2152
2152
2152
2155
2155
2155
2155
2155
2155
2155
2154
2154
2154
2155
2155
2155
2155
2155
2155
2151
2151
2151
2155
2155
2155
2155
2152
2152
2152
2154
2154
2154
2154
2154
2154
2149
2149
2149
2155
2155
2155
2155
2151
2151
2151
2154
2154
2154
2154
2154
2154
2155
2155
2155
2151
2151
2151
2151
2153
2153
2153
2153
2153
2153
2154
2154
2154
2153
2153
2153
2155
2155
2155
2155
2151
2151
2151
2156
2156
2156
2152
2152
2152
2156
2156
2156
2154
2154
2154
2154
2153
2153
2153
2154
2154
2154
2154
2154
2154
2150
2150
2150
2152
2152
2152
2152
2153
2153
2153
2153
2153
2153
2152
2152
2152
2154
2154
2154
2154
2154
2154
2154
2154
2154
2154
2151
2151
2151
2153
2153
2153
2155
2155
2155
2153
2153
2153
2153
2153
2153
2153
2155
2155
2155
2154
2154
2154
2154
2154
2154
2149
2149
2149
2149
2150
2150
2150
2152
2152
2152
2155
2155
2155
2151
2151
2151
2154
2154
2154
2154
2154
2154
2154
2151
2151
2151
2146
2146
2146
2154
2154
2154
2152
2152
2152
2152
2154
2154
2154
2155
2155
2155
2151
2151
2151
2152
2152
2152
2153
2153
2153
2153
2152
2152
2152
2156
2156
2156
2154
2154
2154
2154
2154
2154
2153
2153
2153
2153
2152
2152
2152
2154
2154
2154
2152
2152
2152
2152
2152
2152
2159
2159
2159
2159
2147
2147
2147
2156
2156
2156
2151
2151
2151
2154
2154
2154
2153
2153
2153
2153
2152
2152
2152
2154
2154
2154
2155
2155
2155
2148
2148
2148
2153
2153
2153
2153
2153
2153
2153
2152
2152
2152
2152
2152
2152
2154
2154
2154
2153
2153
2153
2153
2157
2157
2157
2155
2155
2155
2156
2156
2156
2154
2154
2154
2155
2155
2155
2155
2153
2153
2153
2152
2152
2152
2153
2153
2153
2151
2151
2151
2154
2154
2154
2154
2154
2154
2154
2155
2155
2155
2151
2151
2151
2154
2154
2154
2152
2152
2152
2152
2156
2156
2156
2152
2152
2152
2150
2150
2150
2155
2155
2155
2150
2150
2150
2150
2150
2150
2150
2152
2152
2152
2154
2154
2154
2156
2156
2156
2153
2153
2153
2153
2153
2153
2153
2155
2155
2155
2151
2151
2151
2153
2153
2153
2152
2152
2152
2152
2153
2153
2153
2153
2153
2153
2154
2154
2154
2152
2152
2152
2154
2154
2154
2154
2155
2155
2155
2155
2155
2155
2157
2157
2157
2153
2153
2153
2152
2152
2152
2152
2153
2153
2153
2151
2151
2151
2155
2155
2155
2152
2152
2152
2158
2158
2158
2158
2152
2152
2152
2151
2151
2151
2152
2152
2152
2152
2152
2152
2153
2153
2153
2153
2152
2152
2152
2151
2151
2151
2157
2157
2157
2150
2150
2150
2153
2153
2153
2153
2154
2154
2154
2153
2153
2153
2151
2151
2151
2154
2154
2154
2154
2154
2154
2154
2153
2153
2153
2153
2153
2153
2152
2152
2152
2155
2155
2155
2152
2152
2152
2152
2150
2150
2150
2168
2168
2168
2152
2152
2152
2154
2154
2154
2153
2153
2153
2153
2154
2154
2154
2154
2154
2154
2155
2155
2155
2153
2153
2153
2154
2154
2154
2154
2154
2154
2154
2155
2155
2155
2154
2154
2154
2156
2156
2156
2155
2155
2155
2155
2152
2152
2152
2159
2159
2159
2155
2155
2155
2154
2154
2154
2155
2155
2155
2155
2153
2153
2153
2155
2155
2155
2152
2152
2152
2154
2154
2154
2155
2155
2155
2155
2146
2146
2146
2155
2155
2155
2148
2148
2148
2152
2152
2152
2155
2155
2155
2155
2151
2151
2151
2155
2155
2155
2155
2155
2155
2149
2149
2149
2154
2154
2154
2154
2151
2151
2151
2157
2157
2157
2153
2153
2153
2153
2153
2153
2152
2152
2152
2152
2154
2154
2154
2155
2155
2155
2156
2156
2156
2152
2152
2152
2152
2152
2152
2152
2155
2155
2155
2155
2155
2155
2152
2152
2152
2155
2155
2155
2157
2157
2157
2157
2153
2153
2153
2148
2148
2148
2155
2155
2155
2151
2151
2151
2153
2153
2153
2153
2154
2154
2154
2157
2157
2157
2152
2152
2152
2150
2150
2150
2156
2156
2156
2156
2147
2147
2147
2154
2154
2154
2152
2152
2152
2150
2150
2150
2156
2156
2156
2156
2153
2153
2153
2151
2151
2151
2152
2152
2152
2155
2155
2155
2154
2154
2154
2154
2152
2152
2152
2155
2155
2155
2152
2152
2152
2155
2155
2155
2154
2154
2154
2154
2150
2150
2150
2154
2154
2154
2154
2154
2154
2153
2153
2153
2156
2156
2156
2156
2153
2153
2153
2150
2150
2150
2156
2156
2156
2152
2152
2152
2153
2153
2153
2153
2155
2155
2155
2153
2153
2153
2150
2150
2150
2156
2156
2156
2153
2153
2153
2153
2154
2154
2154
2156
2156
2156
2153
2153
2153
2152
2152
2152
2154
2154
2154
2154
2153
2153
2153
2153
2153
2153
2155
2155
2155
2152
2152
2152
2151
2151
2151
2151
2152
2152
2152
2154
2154
2154
2154
2154
2154
2152
2152
2152
2154
2154
2154
2154
2154
2154
2154
2152
2152
2152
2154
2154
2154
2153
2153
2153
2156
2156
2156
2156
2155
2155
2155
2153
2153
2153
2155
2155
2155
2153
2153
2153
2153
2153
2153
2153
2153
2153
2153
2153
2153
2153
2153
2153
2153
2152
2152
2152
2155
2155
2155
2155
2153
2153
2153
2154
2154
2154
2155
2155
2155
2154
2154
2154
2153
2153
2153
2153
2154
2154
2154
2154
2154
2154
2149
2149
2149
2154
2154
2154
2152
2152
2152
2152
2156
2156
2156
2157
2157
2157
2157
2157
2157
2153
2153
2153
2154
2154
2154
2154
2153
2153
2153
2157
2157
2157
2156
2156
2156
2155
2155
2155
2148
2148
2148
2148
2154
2154
2154
2153
2153
2153
2154
2154
2154
2154
2154
2154
2149
2149
2149
2149
2153
2153
2153
2155
2155
2155
2150
2150
2150
2156
2156
2156
2156
2156
2156
2156
2154
2154
2154
2152
2152
2152
2155
2155
2155
2151
2151
2151
2153
2153
2153
2153
2153
2153
2153
2154
2154
2154
2152
2152
2152
2156
2156
2156
2151
2151
2151
2151
2151
2151
2151
2157
2157
2157
2150
2150
2150
2153
2153
2153
2153
2153
2153
2153
2150
2150
2150
2153
2153
2153
2154
2154
2154
2154
2154
2154
2154
2154
2154
2154
2153
2153
2153
2154
2154
2154
2154
2154
2154
2153
2153
2153
2154
2154
2154
2154
2154
2154
2154
2152
2152
2152
2155
2155
2155
2153
2153
2153
2149
2149
2149
2149
2149
2149
2149
2156
2156
2156
2153
2153
2153
2151
2151
2151
2155
2155
2155
2155
2154
2154
2154
2154
2154
2154
2152
2152
2152
2158
2158
2158
2152
2152
2152
2152
2153
2153
2153
2152
2152
2152
2152
2152
2152
2151
2151
2151
2154
2154
2154
2154
2154
2154
2154
2153
2153
2153
2154
2154
2154
2153
2153
2153
2154
2154
2154
2154
2154
2154
2154
2155
2155
2155
2154
2154
2154
2152
2152
2152
2153
2153
2153
2153
2152
2152
2152
2155
2155
2155
2153
2153
2153
2153
2153
2153
2154
2154
2154
2154
2153
2153
2153
2152
2152
2152
2155
2155
2155
2153
2153
2153
2151
2151
2151
2151
2155
2155
2155
2153
2153
2153
2154
2154
2154
2154
2154
2154
2152
2152
2152
2152
2155
2155
2155
2154
2154
2154
2154
2154
2154
2153
2153
2153
2154
2154
2154
2154
2153
2153
2153
2154
2154
2154
2155
2155
2155
2153
2153
2153
2154
2154
2154
2154
2152
2152
2152
2155
2155
2155
2146
2146
2146
2154
2154
2154
2154
2154
2154
2154
2149
2149
2149
2149
2149
2149
2158
2158
2158
2151
2151
2151
2155
2155
2155
2155
2153
2153
2153
2152
2152
2152
2154
2154
2154
2152
2152
2152
2154
2154
2154
2154
2152
2152
2152
2155
2155
2155
2152
2152
2152
2155
2155
2155
2153
2153
2153
2153
2148
2148
2148
2155
2155
2155
2152
2152
2152
2153
2153
2153
2155
2155
2155
2155
2152
2152
2152
2154
2154
2154
2152
2152
2152
2152
2152
2152
2155
2155
2155
2155
2154
2154
2154
2150
2150
2150
2158
2158
2158
2150
2150
2150
2155
2155
2155
2155
2151
2151
2151
2153
2153
2153
2155
2155
2155
2153
2153
2153
2154
2154
2154
2154
2149
2149
2149
2154
2154
2154
2154
2154
2154
2152
2152
2152
2155
2155
2155
2155
2152
2152
2152
2157
2157
2157
2155
2155
2155
2151
2151
2151
2155
2155
2155
2155
2155
2155
2155
2155
2155
2155
2155
2155
2155
2154
2154
2154
2154
2154
2154
2154
2148
2148
2148
2152
2152
2152
2158
2158
2158
2150
2150
2150
2153
2153
2153
2153
2153
2153
2153
2153
2153
2153
2154
2154
2154
2150
2150
2150
2153
2153
2153
2153
2153
2153
2153
2155
2155
2155
2153
2153
2153
2152
2152
2152
2155
2155
2155
2155
2153
2153
2153
2153
2153
2153
2149
2149
2149
2153
2153
2153
2157
2157
2157
2157
2157
2157
2157
2152
2152
2152
2156
2156
2156
2152
2152
2152
2155
2155
2155
2155
2151
2151
2151
2157
2157
2157
2151
2151
2151
2153
2153
2153
2153
2153
2153
2153
2152
2152
2152
2153
2153
2153
2157
2157
2157
2157
2157
2157
2157
2157
2157
2157
2156
2156
2156
2155
2155
2155
2152
2152
2152
2152
2152
2152
2153
2153
2153
2153
2155
2155
2155
2152
2152
2152
2152
2152
2152
2150
2150
2150
2154
2154
2154
2154
2155
2155
2155
2152
2152
2152
2153
2153
2153
2154
2154
2154
2154
2154
2154
2154
2153
2153
2153
2153
2153
2153
2150
2150
2150
2154
2154
2154
2157
2157
2157
2157
2150
2150
2150
2155
2155
2155
2154
2154
2154
2152
2152
2152
2155
2155
2155
2155
2153
2153
2153
2153
2153
2153
2153
2153
2153
2155
2155
2155
2153
2153
2153
2153
2153
2153
2153
2156
2156
2156
2155
2155
2155
2152
2152
2152
2152
2152
2152
2152
2157
2157
2157
2152
2152
2152
2157
2157
2157
2152
2152
2152
2153
2153
2153
2153
2151
2151
2151
2159
2159
2159
2153
2153
2153
2156
2156
2156
2153
2153
2153
2153
2152
2152
2152
2159
2159
2159
2156
2156
2156
2153
2153
2153
2156
2156
2156
2156
2156
2156
2156
2157
2157
2157
2153
2153
2153
2153
2153
2153
2152
2152
2152
2152
2150
2150
2150
2157
2157
2157
2153
2153
2153
2152
2152
2152
2153
2153
2153
2153
2151
2151
2151
2156
2156
2156
2152
2152
2152
2159
2159
2159
2154
2154
2154
2154
2153
2153
2153
2151
2151
2151
2154
2154
2154
2151
2151
2151
2156
2156
2156
2156
2150
2150
2150
2150
2150
2150
2157
2157
2157
2153
2153
2153
2152
2152
2152
2152
2152
2152
2152
2156
2156
2156
2153
2153
2153
2150
2150
2150
2154
2154
2154
2154
2153
2153
2153
2154
2154
2154
2155
2155
2155
2157
2157
2157
2154
2154
2154
2154
2155
2155
2155
2153
2153
2153
2151
2151
2151
2154
2154
2154
2152
2152
2152
2152
2150
2150
2150
2151
2151
2151
2160
2160
2160
2152
2152
2152
2155
2155
2155
2155
2154
2154
2154
2153
2153
2153
2153
2153
2153
2152
2152
2152
2156
2156
2156
2156
2152
2152
2152
2155
2155
2155
2154
2154
2154
2154
2154
2154
2157
2157
2157
2157
2153
2153
2153
2154
2154
2154
2153
2153
2153
2154
2154
2154
2153
2153
2153
2153
2150
2150
2150
2152
2152
2152
2154
2154
2154
2154
2154
2154
2153
2153
2153
2153
2151
2151
2151
2154
2154
2154
2153
2153
2153
2152
2152
2152
2155
2155
2155
2155
2154
2154
2154
2153
2153
2153
2156
2156
2156
2154
2154
2154
2152
2152
2152
2152
2152
2152
2152
2156
2156
2156
2151
2151
2151
2156
2156
2156
2155
2155
2155
2155
2155
2155
2155
2155
2155
2155
2153
2153
2153
2152
2152
2152
2154
2154
2154
2154
2154
2154
2154
2153
2153
2153
2154
2154
2154
2153
2153
2153
2155
2155
2155
2155
2150
2150
2150
2159
2159
2159
2152
2152
2152
2153
2153
2153
2151
2151
2151
2151
2155
2155
2155
2152
2152
2152
2152
2152
2152
2151
2151
2151
2156
2156
2156
2156
2152
2152
2152
2156
2156
2156
2153
2153
2153
2154
2154
2154
2153
2153
2153
2153
2154
2154
2154
2152
2152
2152
2152
2152
2152
2154
2154
2154
2156
2156
2156
2156
2151
2151
2151
2153
2153
2153
2151
2151
2151
2154
2154
2154
2154
2154
2154
2154
2154
2154
2154
2153
2153
2153
2154
2154
2154
2151
2151
2151
2155
2155
2155
2155
2155
2155
2155
2156
2156
2156
2153
2153
2153
2153
2153
2153
2151
2151
2151
2151
2151
2151
2151
2153
2153
2153
2155
2155
2155
2152
2152
2152
2152
2152
2152
2152
2157
2157
2157
2153
2153
2153
2155
2155
2155
2152
2152
2152
2153
2153
2153
2153
2155
2155
2155
2155
2155
2155
2156
2156
2156
2152
2152
2152
2154
2154
2154
2154
2152
2152
2152
2152
2152
2152
2153
2153
2153
2156
2156
2156
2150
2150
2150
2150
2152
2152
2152
2154
2154
2154
2151
2151
2151
2154
2154
2154
2155
2155
2155
2155
2158
2158
2158
2152
2152
2152
2155
2155
2155
2154
2154
2154
2153
2153
2153
2153
2150
2150
2150
2155
2155
2155
2154
2154
2154
2153
2153
2153
2154
2154
2154
2154
2154
2154
2154
2158
2158
2158
2155
2155
2155
2156
2156
2156
2152
2152
2152
2152
2154
2154
2154
2157
2157
2157
2153
2153
2153
2152
2152
2152
2152
2152
2152
2152
2153
2153
2153
2153
2153
2153
2153
2153
2153
2154
2154
2154
2157
2157
2157
2157
2153
2153
2153
2153
2153
2153
2151
2151
2151
2154
2154
2154
2155
2155
2155
2155
2151
2151
2151
2151
2151
2151
2154
2154
2154
2155
2155
2155
2156
2156
2156
2156
2153
2153
2153
2159
2159
2159
2154
2154
2154
2154
2154
2154
2155
2155
2155
2155
2153
2153
2153
2152
2152
2152
2153
2153
2153
2153
2153
2153
2154
2154
2154
2154
2150
2150
2150
2156
2156
2156
2155
2155
2155
2151
2151
2151
2151
2151
2151
2151
2151
2151
2151
2152
2152
2152
2154
2154
2154
2153
2153
2153
2152
2152
2152
2152
2153
2153
2153
2153
2153
2153
2156
2156
2156
2154
2154
2154
2153
2153
2153
2153
2152
2152
2152
2152
2152
2152
2154
2154
2154
2154
2154
2154
2151
2151
2151
2151
2155
2155
2155
2151
2151
2151
2152
2152
2152
2155
2155
2155
2154
2154
2154
2154
2152
2152
2152
2151
2151
2151
2155
2155
2155
2156
2156
2156
2158
2158
2158
2158
2156
2156
2156
2156
2156
2156
2150
2150
2150
2153
2153
2153
2154
2154
2154
2154
2153
2153
2153
2151
2151
2151
2155
2155
2155
2154
2154
2154
2152
2152
2152
2152
2151
2151
2151
2148
2148
2148
2158
2158
2158
2151
2151
2151
2151
2151
2151
2151
2153
2153
2153
2150
2150
2150
2156
2156
2156
2145
2145
2145
2153
2153
2153
2153
2151
2151
2151
2155
2155
2155
2151
2151
2151
2153
2153
2153
2153
2153
2153
2153
2150
2150
2150
2157
2157
2157
2155
2155
2155
2152
2152
2152
2153
2153
2153
2153
2154
2154
2154
2154
2154
2154
2154
2154
2154
2153
2153
2153
2153
2153
2153
2153
2152
2152
2152
2151
2151
2151
2154
2154
2154
2155
2155
2155
2154
2154
2154
2154
2154
2154
2154
2153
2153
2153
2154
2154
2154
2153
2153
2153
2156
2156
2156
2156
2153
2153
2153
2153
2153
2153
2154
2154
2154
2154
2154
2154
2151
2151
2151
2151
2151
2151
2151
2153
2153
2153
2156
2156
2156
2152
2152
2152
2152
2152
2152
2152
2152
2152
2152
2155
2155
2155
2154
2154
2154
2154
2154
2154
2153
2153
2153
2153
2151
2151
2151
2151
2151
2151
2151
2151
2151
2153
2153
2153
2152
2152
2152
2152
2152
2152
2152
2154
2154
2154
2155
2155
2155
2153
2153
2153
2151
2151
2151
2151
2153
2153
2153
2155
2155
2155
2156
2156
2156
2153
2153
2153
2151
2151
2151
2151
2155
2155
2155
2155
2155
2155
2156
2156
2156
2153
2153
2153
2155
2155
2155
2155
2153
2153
2153
2153
2153
2153
2152
2152
2152
2152
2152
2152
2154
2154
2154
2154
2153
2153
2153
2153
2153
2153
2155
2155
2155
2155
2155
2155
2154
2154
2154
2154
2153
2153
2153
2148
2148
2148
2148
2148
2148
2153
2153
2153
2154
2154
2154
2154
2157
2157
2157
2153
2153
2153
2149
2149
2149
2155
2155
2155
2154
2154
2154
2154
2151
2151
2151
2155
2155
2155
2151
2151
2151
2152
2152
2152
2155
2155
2155
2155
2157
2157
2157
2153
2153
2153
2153
2153
2153
2152
2152
2152
2154
2154
2154
2154
2153
2153
2153
2155
2155
2155
2152
2152
2152
2152
2152
2152
2155
2155
2155
2155
2152
2152
2152
2154
2154
2154
2153
2153
2153
2153
2153
2153
2151
2151
2151
2151
2153
2153
2153
2151
2151
2151
2153
2153
2153
2153
2153
2153
2154
2154
2154
2154
2153
2153
2153
2154
2154
2154
2152
2152
2152
2153
2153
2153
2150
2150
2150
2150
2157
2157
2157
2155
2155
2155
2152
2152
2152
2153
2153
2153
2155
2155
2155
2155
2155
2155
2155
2149
2149
2149
2152
2152
2152
2156
2156
2156
2153
2153
2153
2153
2154
2154
2154
2158
2158
2158
2152
2152
2152
2152
2152
2152
2155
2155
2155
2155
2151
2151
2151
2155
2155
2155
2152
2152
2152
2154
2154
2154
2152
2152
2152
2152
2150
2150
2150
2145
2145
2145
2154
2154
2154
2155
2155
2155
2156
2156
2156
2156
2154
2154
2154
2151
2151
2151
2151
2151
2151
2154
2154
2154
2153
2153
2153
2153
2153
2153
2153
2155
2155
2155
2154
2154
2154
2153
2153
2153
2155
2155
2155
2155
2149
2149
2149
2153
2153
2153
2152
2152
2152
2155
2155
2155
2154
2154
2154
2154
2155
2155
2155
2154
2154
2154
2151
2151
2151
2153
2153
2153
2151
2151
2151
2151
2152
2152
2152
2154
2154
2154
2152
2152
2152
2151
2151
2151
2153
2153
2153
2153
2153
2153
2153
2156
2156
2156
2153
2153
2153
2153
2153
2153
2153
2153
2153
2153
2152
2152
2152
2155
2155
2155
2153
2153
2153
2154
2154
2154
2154
2154
2154
2154
2153
2153
2153
2152
2152
2152
2153
2153
2153
2155
2155
2155
2156
2156
2156
2156
2154
2154
2154
2155
2155
2155
2155
2155
2155
2153
2153
2153
2154
2154
2154
2154
2154
2154
2154
2154
2154
2154
2152
2152
2152
2153
2153
2153
2151
2151
2151
2151
2154
2154
2154
2155
2155
2155
2155
2155
2155
2152
2152
2152
2153
2153
2153
2153
2153
2153
2153
2153
2153
2153
2154
2154
2154
2153
2153
2153
2153
2153
2153
2153
2154
2154
2154
2155
2155
2155
2154
2154
2154
2153
2153
2153
2153
2153
2153
2153
2150
2150
2150
2155
2155
2155
2158
2158
2158
2148
2148
2148
2152
2152
2152
2152
2154
2154
2154
2155
2155
2155
2154
2154
2154
2155
2155
2155
2153
2153
2153
2153
2153
2153
2153
2153
2153
2153
2155
2155
2155
2152
2152
2152
2157
2157
2157
2157
2151
2151
2151
2154
2154
2154
2154
2154
2154
2152
2152
2152
2150
2150
2150
2150
2152
2152
2152
2152
2152
2152
2154
2154
2154
2155
2155
2155
2156
2156
2156
2156
2153
2153
2153
2150
2150
2150
2153
2153
2153
2152
2152
2152
2154
2154
2154
2154
2154
2154
2154
2154
2154
2154
2152
2152
2152
2154
2154
2154
2151
2151
2151
2151
2152
2152
2152
2151
2151
2151
2153
2153
2153
2151
2151
2151
2155
2155
2155
2155
2151
2151
2151
2153
2153
2153
2151
2151
2151
2154
2154
2154
2153
2153
2153
2153
2152
2152
2152
2152
2152
2152
2152
2152
2152
2152
2152
2152
2152
2152
2152
2152
2152
2152
2152
2151
2151
2151
2154
2154
2154
2154
2154
2154
2153
2153
2153
2153
2150
2150
2150
2150
2150
2150
2155
2155
2155
2155
2155
2155
2155
2155
2155
2155
2153
2153
2153
2153
2153
2153
2152
2152
2152
2154
2154
2154
2150
2150
2150
2150
2152
2152
2152
2153
2153
2153
2158
2158
2158
2153
2153
2153
2157
2157
2157
2157
2157
2157
2157
2153
2153
2153
2151
2151
2151
2153
2153
2153
2159
2159
2159
2159
2152
2152
2152
2154
2154
2154
2152
2152
2152
2149
2149
2149
2153
2153
2153
2153
2154
2154
2154
2155
2155
2155
2152
2152
2152
2154
2154
2154
2154
2154
2154
2154
2152
2152
2152
2151
2151
2151
2154
2154
2154
2154
2154
2154
2151
2151
2151
2151
2158
2158
2158
2154
2154
2154
2153
2153
2153
2152
2152
2152
2159
2159
2159
2159
2155
2155
2155
2154
2154
2154
2153
2153
2153
2152
2152
2152
2151
2151
2151
2151
2153
2153
2153
2153
2153
2153
2156
2156
2156
2153
2153
2153
2152
2152
2152
2152
2151
2151
2151
2157
2157
2157
2154
2154
2154
2147
2147
2147
2152
2152
2152
2152
2153
2153
2153
2156
2156
2156
2153
2153
2153
2153
2153
2153
2154
2154
2154
2154
2153
2153
2153
2153
2153
2153
2156
2156
2156
2152
2152
2152
2153
2153
2153
2153
2152
2152
2152
2155
2155
2155
2152
2152
2152
2154
2154
2154
2155
2155
2155
2155
2151
2151
2151
2155
2155
2155
2155
2155
2155
2153
2153
2153
2155
2155
2155
2155
2152
2152
2152
2154
2154
2154
2152
2152
2152
2151
2151
2151
2153
2153
2153
2153
2151
2151
2151
2156
2156
2156
2153
2153
2153
2152
2152
2152
2152
2152
2152
2152
2149
2149
2149
2154
2154
2154
2158
2158
2158
2152
2152
2152
2152
2152
2152
2152
2150
2150
2150
2155
2155
2155
2153
2153
2153
2152
2152
2152
2155
2155
2155
2155
2149
2149
2149
2152
2152
2152
2153
2153
2153
2152
2152
2152
2153
2153
2153
2153
2151
2151
2151
2152
2152
2152
2150
2150
2150
2152
2152
2152
2156
2156
2156
2156
2155
2155
2155
2156
2156
2156
2154
2154
2154
2155
2155
2155
2151
2151
2151
2151
2153
2153
2153
2158
2158
2158
2153
2153
2153
2152
2152
2152
2155
2155
2155
2155
2152
2152
2152
2154
2154
2154
2154
2154
2154
2154
2154
2154
2153
2153
2153
2153
2153
2153
2153
2154
2154
2154
2153
2153
2153
2153
2153
2153
2146
2146
2146
2146
2153
2153
2153
2155
2155
2155
2152
2152
2152
2154
2154
2154
2153
2153
2153
2153
2153
2153
2153
2153
2153
2153
2153
2153
2153
2151
2151
2151
2153
2153
2153
2153
2153
2153
2153
2151
2151
2151
2155
2155
2155
2156
2156
2156
2154
2154
2154
2154
2153
2153
2153
2156
2156
2156
2153
2153
2153
2153
2153
2153
2151
2151
2151
2151
2154
2154
2154
2155
2155
2155
2153
2153
2153
2153
2153
2153
2149
2149
2149
2149
2148
2148
2148
2158
2158
2158
2154
2154
2154
2149
2149
2149
2152
2152
2152
2152
2152
2152
2152
2153
2153
2153
2154
2154
2154
2157
2157
2157
2152
2152
2152
2152
2151
2151
2151
2156
2156
2156
2152
2152
2152
2155
2155
2155
2151
2151
2151
2151
2150
2150
2150
2156
2156
2156
2155
2155
2155
2153
2153
2153
2154
2154
2154
2154
2153
2153
2153
2150
2150
2150
2152
2152
2152
2155
2155
2155
2157
2157
2157
2157
2152
2152
2152
2152
2152
2152
2156
2156
2156
2153
2153
2153
2154
2154
2154
2154
2154
2154
2154
2155
2155
2155
2153
2153
2153
2153
2153
2153
2153
2153
2153
2153
2150
2150
2150
2151
2151
2151
2152
2152
2152
2149
2149
2149
2154
2154
2154
2154
2152
2152
2152
2155
2155
2155
2155
2155
2155
2153
2153
2153
2153
2153
2153
2153
2153
2153
2153
2149
2149
2149
2154
2154
2154
2155
2155
2155
2154
2154
2154
2154
2151
2151
2151
2157
2157
2157
2158
2158
2158
2151
2151
2151
2153
2153
2153
2153
2153
2153
2153
2155
2155
2155
2151
2151
2151
2153
2153
2153
2155
2155
2155
2155
2154
2154
2154
2154
2154
2154
2154
2154
2154
2152
2152
2152
2152
2152
2152
2152
2153
2153
2153
2155
2155
2155
2153
2153
2153
2154
2154
2154
2154
2154
2154
2154
2153
2153
2153
2152
2152
2152
2152
2152
2152
2153
2153
2153
2155
2155
2155
2155
2152
2152
2152
2153
2153
2153
2155
2155
2155
2153
2153
2153
2153
2153
2153
2153
2153
2153
2153
2153
2153
2153
2155
2155
2155
2152
2152
2152
2153
2153
2153
2153
2152
2152
2152
2155
2155
2155
2155
2155
2155
2153
2153
2153
2155
2155
2155
2155
2146
2146
2146
2153
2153
2153
2155
2155
2155
2155
2155
2155
2152
2152
2152
2152
2152
2152
2152
2155
2155
2155
2154
2154
2154
2155
2155
2155
2153
2153
2153
2153
2157
2157
2157
2160
2160
2160
2153
2153
2153
2156
2156
2156
2153
2153
2153
2153
2153
2153
2153
2155
2155
2155
2157
2157
2157
2154
2154
2154
2155
2155
2155
2155
2155
2155
2155
2154
2154
2154
2152
2152
2152
2152
2152
2152
2157
2157
2157
2157
2149
2149
2149
2149
2149
2149
2155
2155
2155
2154
2154
2154
2155
2155
2155
2155
2148
2148
2148
2151
2151
2151
2154
2154
2154
2157
2157
2157
2156
2156
2156
2156
2154
2154
2154
2153
2153
2153
2152
2152
2152
2154
2154
2154
2155
2155
2155
2155
2153
2153
2153
2148
2148
2148
2153
2153
2153
2156
2156
2156
2154
2154
2154
2154
2150
2150
2150
2154
2154
2154
2149
2149
2149
2150
2150
2150
2151
2151
2151
2151
2152
2152
2152
2152
2152
2152
2152
2152
2152
2156
2156
2156
2153
2153
2153
2153
2151
2151
2151
2153
2153
2153
2148
2148
2148
2153
2153
2153
2149
2149
2149
2149
2148
2148
2148
2159
2159
2159
2154
2154
2154
2151
2151
2151
2152
2152
2152
2152
2153
2153
2153
2154
2154
2154
2155
2155
2155
2152
2152
2152
2154
2154
2154
2154
2152
2152
2152
2153
2153
2153
2154
2154
2154
2154
2154
2154
2152
2152
2152
2152
2153
2153
2153
2155
2155
2155
2154
2154
2154
2153
2153
2153
2153
2153
2153
2153
2154
2154
2154
2154
2154
2154
2151
2151
2151
2153
2153
2153
2151
2151
2151
2151
2153
2153
2153
2155
2155
2155
2154
2154
2154
2154
2154
2154
2153
2153
2153
2153
2151
2151
2151
2155
2155
2155
2155
2155
2155
2153
2153
2153
2153
2153
2153
2153
2153
2153
2153
2154
2154
2154
2155
2155
2155
2156
2156
2156
2155
2155
2155
2155
2153
2153
2153
2155
2155
2155
2152
2152
2152
2154
2154
2154
2153
2153
2153
2153
2153
2153
2153
2153
2153
2153
2154
2154
2154
2152
2152
2152
2154
2154
2154
2154
2154
2154
2154
2153
2153
2153
2147
2147
2147
2151
2151
2151
2154
2154
2154
2154
2154
2154
2154
2154
2154
2154
2154
2154
2154
2153
2153
2153
2153
2153
2153
2153
2154
2154
2154
2155
2155
2155
2153
2153
2153
2153
2153
2153
2154
2154
2154
2154
2153
2153
2153
2156
2156
2156
2152
2152
2152
2150
2150
2150
2152
2152
2152
2152
2152
2152
2152
2155
2155
2155
2152
2152
2152
2151
2151
2151
2150
2150
2150
2150
2150
2150
2150
2155
2155
2155
2151
2151
2151
2151
2151
2151
2153
2153
2153
2153
2150
2150
2150
2153
2153
2153
2157
2157
2157
2153
2153
2153
2151
2151
2151
2151
2146
2146
2146
2155
2155
2155
2146
2146
2146
2150
2150
2150
2154
2154
2154
2154
2152
2152
2152
2152
2152
2152
2153
2153
2153
2152
2152
2152
2156
2156
2156
2156
2151
2151
2151
2155
2155
2155
2152
2152
2152
2154
2154
2154
2154
2154
2154
2154
2155
2155
2155
2156
2156
2156
2151
2151
2151
2153
2153
2153
2152
2152
2152
2152
2151
2151
2151
2154
2154
2154
2157
2157
2157
2152
2152
2152
2152
2152
2152
2152
2153
2153
2153
2155
2155
2155
2157
2157
2157
2152
2152
2152
2151
2151
2151
2151
2150
2150
2150
2154
2154
2154
2155
2155
2155
2153
2153
2153
2156
2156
2156
2156
2151
2151
2151
2153
2153
2153
2153
2153
2153
2153
2153
2153
2155
2155
2155
2155
2154
2154
2154
2154
2154
2154
2154
2154
2154
2151
2151
2151
2153
2153
2153
2153
2152
2152
2152
2153
2153
2153
2154
2154
2154
2152
2152
2152
2152
2152
2152
2152
2152
2152
2152
2152
2152
2152
2152
2152
2152
2153
2153
2153
2152
2152
2152
2152
2152
2152
2152
2153
2153
2153
2155
2155
2155
2152
2152
2152
2153
2153
2153
2153
2154
2154
2154
2154
2154
2154
2151
2151
2151
2154
2154
2154
2154
2154
2154
2154
2150
2150
2150
2154
2154
2154
2155
2155
2155
2153
2153
2153
2152
2152
2152
2152
2154
2154
2154
2159
2159
2159
2152
2152
2152
2158
2158
2158
2155
2155
2155
2155
2155
2155
2155
2154
2154
2154
2152
2152
2152
2154
2154
2154
2154
2154
2154
2154
2155
2155
2155
2155
2155
2155
2157
2157
2157
2152
2152
2152
2154
2154
2154
2154
2152
2152
2152
2153
2153
2153
2155
2155
2155
2155
2155
2155
2152
2152
2152
2152
2154
2154
2154
2154
2154
2154
2153
2153
2153
2154
2154
2154
2153
2153
2153
2153
2153
2153
2153
2154
2154
2154
2154
2154
2154
2151
2151
2151
2155
2155
2155
2155
2154
2154
2154
2152
2152
2152
2153
2153
2153
2154
2154
2154
2149
2149
2149
2149
2151
2151
2151
2154
2154
2154
2152
2152
2152
2155
2155
2155
2152
2152
2152
2152
2151
2151
2151
2153
2153
2153
2154
2154
2154
2153
2153
2153
2153
2153
2153
2153
2143
2143
2143
2157
2157
2157
2151
2151
2151
2151
2151
2151
2152
2152
2152
2152
2149
2149
2149
2151
2151
2151
2156
2156
2156
2151
2151
2151
2154
2154
2154
2154
2156
2156
2156
2155
2155
2155
2155
2155
2155
2150
2150
2150
2159
2159
2159
2159
2148
2148
2148
2148
2148
2148
2155
2155
2155
2151
2151
2151
2155
2155
2155
2155
2151
2151
2151
2151
2151
2151
2152
2152
2152
2155
2155
2155
2155
2155
2155
2155
2152
2152
2152
2156
2156
2156
2153
2153
2153
2154
2154
2154
2154
2154
2154
2154
2156
2156
2156
2152
2152
2152
2158
2158
2158
2152
2152
2152
2153
2153
2153
2153
2155
2155
2155
2153
2153
2153
2153
2153
2153
2151
2151
2151
2153
2153
2153
2153
2151
2151
2151
2153
2153
2153
2154
2154
2154
2152
2152
2152
2153
2153
2153
2153
2153
2153
2153
2151
2151
2151
2157
2157
2157
2146
2146
2146
2151
2151
2151
2151
2152
2152
2152
2156
2156
2156
2154
2154
2154
2153
2153
2153
2153
2153
2153
2153
2150
2150
2150
2155
2155
2155
2152
2152
2152
2153
2153
2153
2153
2153
2153
2153
2154
2154
2154
2155
2155
2155
2156
2156
2156
2152
2152
2152
2154
2154
2154
2154
2151
2151
2151
2151
2151
2151
2147
2147
2147
2155
2155
2155
2153
2153
2153
2153
2150
2150
2150
2154
2154
2154
2151
2151
2151
2153
2153
2153
2154
2154
2154
2154
2153
2153
2153
2153
2153
2153
2153
2153
2153
2155
2155
2155
2155
2155
2155
2155
2155
2155
2155
2149
2149
2149
2154
2154
2154
2155
2155
2155
2154
2154
2154
2154
2154
2154
2154
2155
2155
2155
2156
2156
2156
2152
2152
2152
2156
2156
2156
2156
2155
2155
2155
2158
2158
2158
2151
2151
2151
2153
2153
2153
2152
2152
2152
2152
2156
2156
2156
2153
2153
2153
2156
2156
2156
2153
2153
2153
2153
2153
2153
2153
2156
2156
2156
2154
2154
2154
2152
2152
2152
2155
2155
2155
2153
2153
2153
2153
2152
2152
2152
2153
2153
2153
2153
2153
2153
2152
2152
2152
2154
2154
2154
2154
2151
2151
2151
2156
2156
2156
2152
2152
2152
2149
2149
2149
2153
2153
2153
2153
2153
2153
2153
2155
2155
2155
2155
2155
2155
2156
2156
2156
2151
2151
2151
2151
2153
2153
2153
2154
2154
2154
2156
2156
2156
2154
2154
2154
2148
2148
2148
2148
2148
2148
2148
2153
2153
2153
2160
2160
2160
2153
2153
2153
2151
2151
2151
2151
2154
2154
2154
2152
2152
2152
2148
2148
2148
2151
2151
2151
2155
2155
2155
2155
2151
2151
2151
2154
2154
2154
2153
2153
2153
2154
2154
2154
2153
2153
2153
2153
2154
2154
2154
2155
2155
2155
2153
2153
2153
2153
2153
2153
2154
2154
2154
2154
2156
2156
2156
2154
2154
2154
2151
2151
2151
2151
2151
2151
2151
2151
2151
2151
2152
2152
2152
2155
2155
2155
2152
2152
2152
2153
2153
2153
2153
2153
2153
2153
2156
2156
2156
2152
2152
2152
2157
2157
2157
2152
2152
2152
2153
2153
2153
2153
2153
2153
2153
2151
2151
2151
2155
2155
2155
2159
2159
2159
2153
2153
2153
2153
2154
2154
2154
2155
2155
2155
2153
2153
2153
2151
2151
2151
2152
2152
2152
2152
2151
2151
2151
2155
2155
2155
2154
2154
2154
2151
2151
2151
2153
2153
2153
2153
2151
2151
2151
2158
2158
2158
2154
2154
2154
2154
2154
2154
2153
2153
2153
2153
2153
2153
2153
2153
2153
2153
2153
2153
2153
2155
2155
2155
2156
2156
2156
2156
2154
2154
2154
2152
2152
2152
2152
2152
2152
2153
2153
2153
2150
2150
2150
2150
2149
2149
2149
2152
2152
2152
2156
2156
2156
2154
2154
2154
2155
2155
2155
2155
2151
2151
2151
2156
2156
2156
2154
2154
2154
2152
2152
2152
2153
2153
2153
2153
2154
2154
2154
2150
2150
2150
2152
2152
2152
2155
2155
2155
2153
2153
2153
2153
2153
2153
2153
2154
2154
2154
2153
2153
2153
2158
2158
2158
2154
2154
2154
2154
2153
2153
2153
2153
2153
2153
2154
2154
2154
2154
2154
2154
2153
2153
2153
2153
2153
2153
2153
2155
2155
2155
2153
2153
2153
2152
2152
2152
2150
2150
2150
2150
2154
2154
2154
2155
2155
2155
2156
2156
2156
2153
2153
2153
2148
2148
2148
2148
2152
2152
2152
2153
2153
2153
2149
2149
2149
2154
2154
2154
2155
2155
2155
2155
2154
2154
2154
2153
2153
2153
2153
2153
2153
2152
2152
2152
2153
2153
2153
2153
2150
2150
2150
2153
2153
2153
2154
2154
2154
2148
2148
2148
2152
2152
2152
2152
2155
2155
2155
2152
2152
2152
2151
2151
2151
2149
2149
2149
2154
2154
2154
2154
2156
2156
2156
2158
2158
2158
2152
2152
2152
2149
2149
2149
2151
2151
2151
2151
2151
2151
2151
2153
2153
2153
2152
2152
2152
2153
2153
2153
2158
2158
2158
2158
2149
2149
2149
2154
2154
2154
2156
2156
2156
2153
2153
2153
2154
2154
2154
2154
2151
2151
2151
2156
2156
2156
2153
2153
2153
2153
2153
2153
2152
2152
2152
2152
2153
2153
2153
2153
2153
2153
2154
2154
2154
2156
2156
2156
2154
2154
2154
2154
2152
2152
2152
2157
2157
2157
2153
2153
2153
2153
2153
2153
2153
2153
2153
2153
2153
2153
2153
2154
2154
2154
2151
2151
2151
2151
2151
2151
2153
2153
2153
2153
2154
2154
2154
2152
2152
2152
2155
2155
2155
2153
2153
2153
2152
2152
2152
2152
2153
2153
2153
2155
2155
2155
2151
2151
2151
2155
2155
2155
2152
2152
2152
2152
2152
2152
2152
2152
2152
2152
2152
2152
2152
2156
2156
2156
2158
2158
2158
2158
2151
2151
2151
2154
2154
2154
2152
2152
2152
2152
2152
2152
2159
2159
2159
2159
2153
2153
2153
2152
2152
2152
2156
2156
2156
2159
2159
2159
2154
2154
2154
2154
2149
2149
2149
2154
2154
2154
2155
2155
2155
2156
2156
2156
2152
2152
2152
2152
2152
2152
2152
2154
2154
2154
2151
2151
2151
2153
2153
2153
2155
2155
2155
2155
2152
2152
2152
2154
2154
2154
2151
2151
2151
2153
2153
2153
2155
2155
2155
2155
2151
2151
2151
2152
2152
2152
2157
2157
2157
2152
2152
2152
2154
2154
2154
2154
2150
2150
2150
2152
2152
2152
2156
2156
2156
2155
2155
2155
2151
2151
2151
2151
2152
2152
2152
2152
2152
2152
2154
2154
2154
2151
2151
2151
2154
2154
2154
2154
2152
2152
2152
2152
2152
2152
2152
2152
2152
2153
2153
2153
2154
2154
2154
2154
2151
2151
2151
2154
2154
2154
2153
2153
2153
2155
2155
2155
2156
2156
2156
2156
2152
2152
2152
2155
2155
2155
2154
2154
2154
2153
2153
2153
2152
2152
2152
2152
2152
2152
2152
2152
2152
2152
2151
2151
2151
2155
2155
2155
2154
2154
2154
2154
2155
2155
2155
2155
2155
2155
2153
2153
2153
2154
2154
2154
2153
2153
2153
2153
2154
2154
2154
2155
2155
2155
2153
2153
2153
2157
2157
2157
2155
2155
2155
2155
2153
2153
2153
2154
2154
2154
2153
2153
2153
2153
2153
2153
2152
2152
2152
2152
2155
2155
2155
2150
2150
2150
2151
2151
2151
2153
2153
2153
2155
2155
2155
2155
2156
2156
2156
2154
2154
2154
2154
2154
2154
2154
2154
2154
2150
2150
2150
2150
2153
2153
2153
2153
2153
2153
2153
2153
2153
2155
2155
2155
2154
2154
2154
2154
2149
2149
2149
2156
2156
2156
2157
2157
2157
2154
2154
2154
2154
2154
2154
2154
2148
2148
2148
2152
2152
2152
2158
2158
2158
2157
2157
2157
2152
2152
2152
2152
2152
2152
2152
2156
2156
2156
2153
2153
2153
2152
2152
2152
2153
2153
2153
2153
2154
2154
2154
2153
2153
2153
2153
2153
2153
2153
2153
2153
2153
2153
2153
2153
2153
2153
2153
2158
2158
2158
2154
2154
2154
2151
2151
2151
2154
2154
2154
2154
2151
2151
2151
2155
2155
2155
2153
2153
2153
2154
2154
2154
2153
2153
2153
2153
2154
2154
2154
2155
2155
2155
2155
2155
2155
2154
2154
2154
2153
2153
2153
2153
2152
2152
2152
2153
2153
2153
2151
2151
2151
2150
2150
2150
2152
2152
2152
2152
2154
2154
2154
2147
2147
2147
2151
2151
2151
2153
2153
2153
2154
2154
2154
2154
2154
2154
2154
2153
2153
2153
2150
2150
2150
2153
2153
2153
2152
2152
2152
2152
2155
2155
2155
2154
2154
2154
2152
2152
2152
2155
2155
2155
2151
2151
2151
2151
2158
2158
2158
2154
2154
2154
2155
2155
2155
2152
2152
2152
2156
2156
2156
2156
2154
2154
2154
2154
2154
2154
2153
2153
2153
2156
2156
2156
2154
2154
2154
2154
2154
2154
2154
2155
2155
2155
2154
2154
2154
2157
2157
2157
2154
2154
2154
2154
2150
2150
2150
2155
2155
2155
2155
2155
2155
2155
2155
2155
2152
2152
2152
2152
2151
2151
2151
2151
2151
2151
2154
2154
2154
2155
2155
2155
2149
2149
2149
2149
2151
2151
2151
2154
2154
2154
2155
2155
2155
2154
2154
2154
2154
2154
2154
2154
2152
2152
2152
2154
2154
2154
2154
2154
2154
2152
2152
2152
2153
2153
2153
2153
2154
2154
2154
2156
2156
2156
2152
2152
2152
2151
2151
2151
2154
2154
2154
2154
2151
2151
2151
2154
2154
2154
2152
2152
2152
2151
2151
2151
2154
2154
2154
2154
2152
2152
2152
2153
2153
2153
2153
2153
2153
2156
2156
2156
2154
2154
2154
2154
2155
2155
2155
2153
2153
2153
2153
2153
2153
2155
2155
2155
2151
2151
2151
2151
2156
2156
2156
2153
2153
2153
2154
2154
2154
2151
2151
2151
2152
2152
2152
2152
2153
2153
2153
2153
2153
2153
2152
2152
2152
2151
2151
2151
2154
2154
2154
2154
2152
2152
2152
2148
2148
2148
2153
2153
2153
2153
2153
2153
2154
2154
2154
2154
2155
2155
2155
2153
2153
2153
2153
2153
2153
2152
2152
2152
2156
2156
2156
2156
2152
2152
2152
2155
2155
2155
2150
2150
2150
2153
2153
2153
2157
2157
2157
2157
2155
2155
2155
2154
2154
2154
2156
2156
2156
2154
2154
2154
2152
2152
2152
2152
2155
2155
2155
2155
2155
2155
2153
2153
2153
2155
2155
2155
2155
2155
2155
2155
2151
2151
2151
2154
2154
2154
2156
2156
2156
2154
2154
2154
2150
2150
2150
2150
2149
2149
2149
2155
2155
2155
2156
2156
2156
2153
2153
2153
2152
2152
2152
2152
2153
2153
2153
2154
2154
2154
2153
2153
2153
2155
2155
2155
2152
2152
2152
2152
2153
2153
2153
2154
2154
2154
2151
2151
2151
2153
2153
2153
2155
2155
2155
2155
2153
2153
2153
2153
2153
2153
2150
2150
2150
2154
2154
2154
2154
2154
2154
2154
2153
2153
2153
2155
2155
2155
2152
2152
2152
2153
2153
2153
2154
2154
2154
2154
2153
2153
2153
2153
2153
2153
2154
2154
2154
2153
2153
2153
2151
2151
2151
2151
2155
2155
2155
2154
2154
2154
2156
2156
2156
2156
2156
2156
2151
2151
2151
2151
2151
2151
2151
2154
2154
2154
2155
2155
2155
2154
2154
2154
2153
2153
2153
2153
2151
2151
2151
2154
2154
2154
2154
2154
2154
2155
2155
2155
2153
2153
2153
2153
2148
2148
2148
2153
2153
2153
2154
2154
2154
2152
2152
2152
2152
2152
2152
2152
2151
2151
2151
2153
2153
2153
2153
2153
2153
2156
2156
2156
2154
2154
2154
2154
2154
2154
2154
2152
2152
2152
2152
2152
2152
2155
2155
2155
2154
2154
2154
2154
2154
2154
2154
2156
2156
2156
2156
2156
2156
2153
2153
2153
2154
2154
2154
2154
2152
2152
2152
2153
2153
2153
2149
2149
2149
2158
2158
2158
2150
2150
2150
2150
2152
2152
2152
2154
2154
2154
2150
2150
2150
2153
2153
2153
2157
2157
2157
2157
2154
2154
2154
2155
2155
2155
2154
2154
2154
2153
2153
2153
2153
2153
2153
2153
2154
2154
2154
2153
2153
2153
2152
2152
2152
2156
2156
2156
2156
2156
2156
2156
2153
2153
2153
2154
2154
2154
2153
2153
2153
2152
2152
2152
2154
2154
2154
2154
2155
2155
2155
2154
2154
2154
2153
2153
2153
2154
2154
2154
2152
2152
2152
2152
2151
2151
2151
2155
2155
2155
2154
2154
2154
2153
