2158
2158
2158
2158
2158
2160
2160
2160
2160
2160
2160
2160
2164
2164
2164
2161
2161
2161
2155
2155
2155
2158
2158
2158
2159
2159
2159
2159
2156
2156
2156
2160
2160
2160
2158
2158
2158
2152
2152
2152
2158
2158
2158
2158
2158
2158
2158
2154
2154
2154
2161
2161
2161
2157
2157
2157
2160
2160
2160
2160
2158
2158
2158
2158
2158
2158
2156
2156
2156
2159
2159
2159
2155
2155
2155
2155
2150
2150
2150
2159
2159
2159
2167
2167
2167
2158
2158
2158
2157
2157
2157
2157
2157
2157
2157
2160
2160
2160
2157
2157
2157
2163
2163
2163
2158
2158
2158
2158
2158
2158
2158
2160
2160
2160
2158
2158
2158
2159
2159
2159
2159
2159
2159
2159
2146
2146
2146
2159
2159
2159
2154
2154
2154
2160
2160
2160
2157
2157
2157
2157
2156
2156
2156
2158
2158
2158
2154
2154
2154
2154
2154
2154
2156
2156
2156
2156
2157
2157
2157
2158
2158
2158
2158
2158
2158
2159
2159
2159
2153
2153
2153
2153
2156
2156
2156
2160
2160
2160
2163
2163
2163
2159
2159
2159
2161
2161
2161
2161
2157
2157
2157
2158
2158
2158
2160
2160
2160
2154
2154
2154
2157
2157
2157
2157
2159
2159
2159
2156
2156
2156
2156
2156
2156
2158
2158
2158
2161
2161
2161
2161
2155
2155
2155
2158
2158
2158
2157
2157
2157
2157
2157
2157
2157
2157
2157
2157
2152
2152
2152
2161
2161
2161
2159
2159
2159
2158
2158
2158
2158
2158
2158
2158
2158
2158
2158
2157
2157
2157
2159
2159
2159
2156
2156
2156
2160
2160
2160
2160
2158
2158
2158
2159
2159
2159
2158
2158
2158
2154
2154
2154
2161
2161
2161
2161
2158
2158
2158
2159
2159
2159
2157
2157
2157
2161
2161
2161
2158
2158
2158
2158
2159
2159
2159
2160
2160
2160
2157
2157
2157
2159
2159
2159
2157
2157
2157
2157
2158
2158
2158
2157
2157
2157
2158
2158
2158
2158
2158
2158
2157
2157
2157
2157
2158
2158
2158
2159
2159
2159
2162
2162
2162
2160
2160
2160
2157
2157
2157
2157
2154
2154
2154
2160
2160
2160
2158
2158
2158
2157
2157
2157
2155
2155
2155
2155
2154
2154
2154
2157
2157
2157
2156
2156
2156
2161
2161
2161
2157
2157
2157
2157
2155
2155
2155
2159
2159
2159
2155
2155
2155
2154
2154
2154
2156
2156
2156
2156
2156
2156
2156
2155
2155
2155
2157
2157
2157
2158
2158
2158
2158
2158
2158
2158
2157
2157
2157
2156
2156
2156
2159
2159
2159
2161
2161
2161
2156
2156
2156
2156
2158
2158
2158
2158
2158
2158
2156
2156
2156
2161
2161
2161
2154
2154
2154
2154
2163
2163
2163
2159
2159
2159
2157
2157
2157
2156
2156
2156
2159
2159
2159
2159
2162
2162
2162
2158
2158
2158
2154
2154
2154
2157
2157
2157
2155
2155
2155
2155
2157
2157
2157
2158
2158
2158
2156
2156
2156
2157
2157
2157
2159
2159
2159
2159
2156
2156
2156
2156
2156
2156
2153
2153
2153
2159
2159
2159
2159
2159
2159
2159
2157
2157
2157
2160
2160
2160
2160
2160
2160
2158
2158
2158
2155
2155
2155
2155
2157
2157
2157
2153
2153
2153
2159
2159
2159
2156
2156
2156
2161
2161
2161
2161
2157
2157
2157
2154
2154
2154
2157
2157
2157
2155
2155
2155
2157
2157
2157
2157
2165
2165
2165
2157
2157
2157
2156
2156
2156
2157
2157
2157
2158
2158
2158
2158
2157
2157
2157
2154
2154
2154
2159
2159
2159
2157
2157
2157
2166
2166
2166
2166
2157
2157
2157
2153
2153
2153
2161
2161
2161
2159
2159
2159
2156
2156
2156
2156
2166
2166
2166
2157
2157
2157
2157
2157
2157
2159
2159
2159
2159
2159
2159
2159
2157
2157
2157
2154
2154
2154
2155
2155
2155
2161
2161
2161
2155
2155
2155
2155
2157
2157
2157
2155
2155
2155
2160
2160
2160
2161
2161
2161
2162
2162
2162
2162
2157
2157
2157
2160
2160
2160
2156
2156
2156
2161
2161
2161
2157
2157
2157
2157
2156
2156
2156
2159
2159
2159
2157
2157
2157
2156
2156
2156
2157
2157
2157
2157
2161
2161
2161
2160
2160
2160
2155
2155
2155
2161
2161
2161
2156
2156
2156
2156
2154
2154
2154
2161
2161
2161
2163
2163
2163
2157
2157
2157
2157
2157
2157
2157
2157
2157
2157
2161
2161
2161
2158
2158
2158
2160
2160
2160
2160
2160
2160
2160
2156
2156
2156
2159
2159
2159
2155
2155
2155
2161
2161
2161
2157
2157
2157
2157
2154
2154
2154
2162
2162
2162
2157
2157
2157
2160
2160
2160
2162
2162
2162
2162
2157
2157
2157
2159
2159
2159
2156
2156
2156
2161
2161
2161
2164
2164
2164
2164
2158
2158
2158
2161
2161
2161
2164
2164
2164
2156
2156
2156
2159
2159
2159
2159
2162
2162
2162
2157
2157
2157
2156
2156
2156
2160
2160
2160
2163
2163
2163
2163
2155
2155
2155
2159
2159
2159
2160
2160
2160
2163
2163
2163
2157
2157
2157
2157
2156
2156
2156
2156
2156
2156
2160
2160
2160
2153
2153
2153
2156
2156
2156
2156
2159
2159
2159
2163
2163
2163
2155
2155
2155
2158
2158
2158
2157
2157
2157
2157
2157
2157
2157
2158
2158
2158
2160
2160
2160
2159
2159
2159
2163
2163
2163
2163
2158
2158
2158
2159
2159
2159
2163
2163
2163
2151
2151
2151
2156
2156
2156
2156
2159
2159
2159
2150
2150
2150
2156
2156
2156
2158
2158
2158
2155
2155
2155
2155
2153
2153
2153
2159
2159
2159
2157
2157
2157
2161
2161
2161
2156
2156
2156
2156
2156
2156
2156
2157
2157
2157
2155
2155
2155
2158
2158
2158
2160
2160
2160
2160
2158
2158
2158
2156
2156
2156
2158
2158
2158
2152
2152
2152
2159
2159
2159
2159
2159
2159
2159
2158
2158
2158
2160
2160
2160
2157
2157
2157
2149
2149
2149
2149
2151
2151
2151
2157
2157
2157
2158
2158
2158
2159
2159
2159
2160
2160
2160
2160
2155
2155
2155
2157
2157
2157
2149
2149
2149
2162
2162
2162
2159
2159
2159
2159
2158
2158
2158
2159
2159
2159
2157
2157
2157
2160
2160
2160
2160
2160
2160
2160
2160
2160
2160
2158
2158
2158
2152
2152
2152
2156
2156
2156
2156
2156
2156
2156
2156
2156
2156
2167
2167
2167
2158
2158
2158
2157
2157
2157
2158
2158
2158
2158
2155
2155
2155
2160
2160
2160
2157
2157
2157
2160
2160
2160
2153
2153
2153
2153
2158
2158
2158
2159
2159
2159
2156
2156
2156
2155
2155
2155
2154
2154
2154
2154
2156
2156
2156
2162
2162
2162
2155
2155
2155
2155
2155
2155
2159
2159
2159
2159
2154
2154
2154
2158
2158
2158
2157
2157
2157
2155
2155
2155
2161
2161
2161
2161
2161
2161
2161
2158
2158
2158
2166
2166
2166
2158
2158
2158
2160
2160
2160
2160
2156
2156
2156
2162
2162
2162
2159
2159
2159
2160
2160
2160
2158
2158
2158
2158
2157
2157
2157
2159
2159
2159
2156
2156
2156
2158
2158
2158
2158
2158
2158
2158
2157
2157
2157
2160
2160
2160
2154
2154
2154
2157
2157
2157
2157
2157
2157
2157
2156
2156
2156
2157
2157
2157
2156
2156
2156
2166
2166
2166
2161
2161
2161
2161
2154
2154
2154
2161
2161
2161
2158
2158
2158
2157
2157
2157
2156
2156
2156
2156
2157
2157
2157
2157
2157
2157
2157
2157
2157
2155
2155
2155
2157
2157
2157
2157
2155
2155
2155
2161
2161
2161
2159
2159
2159
2161
2161
2161
2156
2156
2156
2156
2155
2155
2155
2158
2158
2158
2158
2158
2158
2162
2162
2162
2158
2158
2158
2158
2155
2155
2155
2158
2158
2158
2161
2161
2161
2159
2159
2159
2161
2161
2161
2161
2153
2153
2153
2159
2159
2159
2156
2156
2156
2162
2162
2162
2158
2158
2158
2158
2152
2152
2152
2160
2160
2160
2158
2158
2158
2155
2155
2155
2157
2157
2157
2157
2161
2161
2161
2161
2161
2161
2158
2158
2158
2161
2161
2161
2158
2158
2158
2158
2162
2162
2162
2158
2158
2158
2157
2157
2157
2157
2157
2157
2158
2158
2158
2158
2157
2157
2157
2158
2158
2158
2160
2160
2160
2157
2157
2157
2157
2157
2157
2157
2157
2157
2157
2163
2163
2163
2156
2156
2156
2157
2157
2157
2158
2158
2158
2158
2157
2157
2157
2162
2162
2162
2158
2158
2158
2155
2155
2155
2162
2162
2162
2162
2153
2153
2153
2160
2160
2160
2156
2156
2156
2159
2159
2159
2160
2160
2160
2160
2154
2154
2154
2159
2159
2159
2157
2157
2157
2159
2159
2159
2156
2156
2156
2156
2154
2154
2154
2159
2159
2159
2159
2159
2159
2162
2162
2162
2161
2161
2161
2161
2157
2157
2157
2158
2158
2158
2156
2156
2156
2162
2162
2162
2159
2159
2159
2159
2160
2160
2160
2160
2160
2160
2159
2159
2159
2154
2154
2154
2158
2158
2158
2158
2159
2159
2159
2159
2159
2159
2157
2157
2157
2158
2158
2158
2155
2155
2155
2155
2156
2156
2156
2157
2157
2157
2160
2160
2160
2160
2160
2160
2161
2161
2161
2161
2149
2149
2149
2160
2160
2160
2161
2161
2161
2158
2158
2158
2158
2158
2158
2158
2159
2159
2159
2155
2155
2155
2157
2157
2157
2158
2158
2158
2157
2157
2157
2157
2159
2159
2159
2158
2158
2158
2161
2161
2161
2158
2158
2158
2154
2154
2154
2154
2157
2157
2157
2161
2161
2161
2159
2159
2159
2156
2156
2156
2159
2159
2159
2159
2154
2154
2154
2159
2159
2159
2156
2156
2156
2163
2163
2163
2158
2158
2158
2158
2158
2158
2158
2159
2159
2159
2155
2155
2155
2162
2162
2162
2155
2155
2155
2155
2157
2157
2157
2154
2154
2154
2162
2162
2162
2160
2160
2160
2157
2157
2157
2157
2155
2155
2155
2160
2160
2160
2158
2158
2158
2159
2159
2159
2159
2159
2159
2159
2158
2158
2158
2159
2159
2159
2156
2156
2156
2162
2162
2162
2161
2161
2161
2161
2154
2154
2154
2158
2158
2158
2156
2156
2156
2161
2161
2161
2157
2157
2157
2157
2155
2155
2155
2163
2163
2163
2158
2158
2158
2151
2151
2151
2157
2157
2157
2157
2157
2157
2157
2158
2158
2158
2159
2159
2159
2159
2159
2159
2157
2157
2157
2157
2149
2149
2149
2159
2159
2159
2154
2154
2154
2164
2164
2164
2157
2157
2157
2157
2154
2154
2154
2160
2160
2160
2158
2158
2158
2160
2160
2160
2155
2155
2155
2155
2158
2158
2158
2161
2161
2161
2157
2157
2157
2158
2158
2158
2160
2160
2160
2160
2154
2154
2154
2161
2161
2161
2165
2165
2165
2158
2158
2158
2155
2155
2155
2155
2158
2158
2158
2157
2157
2157
2160
2160
2160
2156
2156
2156
2158
2158
2158
2158
2158
2158
2158
2154
2154
2154
2157
2157
2157
2159
2159
2159
2160
2160
2160
2160
2156
2156
2156
2160
2160
2160
2155
2155
2155
2159
2159
2159
2165
2165
2165
2165
2154
2154
2154
2155
2155
2155
2157
2157
2157
2159
2159
2159
2159
2159
2159
2159
2156
2156
2156
2161
2161
2161
2160
2160
2160
2159
2159
2159
2159
2159
2159
2159
2157
2157
2157
2158
2158
2158
2157
2157
2157
2160
2160
2160
2155
2155
2155
2155
2165
2165
2165
2158
2158
2158
2156
2156
2156
2160
2160
2160
2156
2156
2156
2156
2159
2159
2159
2160
2160
2160
2158
2158
2158
2153
2153
2153
2159
2159
2159
2159
2156
2156
2156
2161
2161
2161
2157
2157
2157
2157
2157
2157
2159
2159
2159
2159
2159
2159
2159
2158
2158
2158
2156
2156
2156
2165
2165
2165
2157
2157
2157
2157
2155
2155
2155
2161
2161
2161
2157
2157
2157
2160
2160
2160
2159
2159
2159
2159
2156
2156
2156
2161
2161
2161
2158
2158
2158
2157
2157
2157
2160
2160
2160
2160
2155
2155
2155
2159
2159
2159
2159
2159
2159
2155
2155
2155
2162
2162
2162
2162
2154
2154
2154
2154
2154
2154
2158
2158
2158
2152
2152
2152
2158
2158
2158
2158
2159
2159
2159
2163
2163
2163
2156
2156
2156
2159
2159
2159
2162
2162
2162
2162
2155
2155
2155
2160
2160
2160
2156
2156
2156
2164
2164
2164
2157
2157
2157
2157
2157
2157
2157
2162
2162
2162
2158
2158
2158
2155
2155
2155
2157
2157
2157
2157
2159
2159
2159
2159
2159
2159
2152
2152
2152
2163
2163
2163
2159
2159
2159
2159
2158
2158
2158
2158
2158
2158
2158
2158
2158
2156
2156
2156
2163
2163
2163
2163
2159
2159
2159
2159
2159
2159
2155
2155
2155
2157
2157
2157
2160
2160
2160
2160
2157
2157
2157
2160
2160
2160
2157
2157
2157
2159
2159
2159
2158
2158
2158
2158
2156
2156
2156
2161
2161
2161
2158
2158
2158
2159
2159
2159
2161
2161
2161
2161
2157
2157
2157
2160
2160
2160
2167
2167
2167
2157
2157
2157
2159
2159
2159
2159
2150
2150
2150
2164
2164
2164
2161
2161
2161
2159
2159
2159
2158
2158
2158
2158
2158
2158
2158
2159
2159
2159
2158
2158
2158
2159
2159
2159
2155
2155
2155
2155
2157
2157
2157
2159
2159
2159
2160
2160
2160
2159
2159
2159
2159
2159
2159
2159
2164
2164
2164
2157
2157
2157
2161
2161
2161
2159
2159
2159
2159
2159
2159
2159
2159
2159
2159
2158
2158
2158
2158
2158
2158
2151
2151
2151
2155
2155
2155
2155
2158
2158
2158
2160
2160
2160
2156
2156
2156
2154
2154
2154
2154
2154
2154
2154
2157
2157
2157
2160
2160
2160
2155
2155
2155
2159
2159
2159
2156
2156
2156
2156
2161
2161
2161
2159
2159
2159
2158
2158
2158
2156
2156
2156
2158
2158
2158
2158
2159
2159
2159
2157
2157
2157
2156
2156
2156
2161
2161
2161
2152
2152
2152
2152
2156
2156
2156
2158
2158
2158
2160
2160
2160
2161
2161
2161
2157
2157
2157
2157
2157
2157
2157
2157
2157
2157
2155
2155
2155
2159
2159
2159
2155
2155
2155
2155
2156
2156
2156
2160
2160
2160
2156
2156
2156
2155
2155
2155
2160
2160
2160
2160
2157
2157
2157
2160
2160
2160
2157
2157
2157
2161
2161
2161
2157
2157
2157
2157
2156
2156
2156
2153
2153
2153
2160
2160
2160
2159
2159
2159
2161
2161
2161
2161
2159
2159
2159
2159
2159
2159
2156
2156
2156
2155
2155
2155
2159
2159
2159
2159
2158
2158
2158
2159
2159
2159
2153
2153
2153
2162
2162
2162
2156
2156
2156
2156
2158
2158
2158
2161
2161
2161
2158
2158
2158
2159
2159
2159
2155
2155
2155
2155
2162
2162
2162
2158
2158
2158
2155
2155
2155
2157
2157
2157
2158
2158
2158
2158
2157
2157
2157
2156
2156
2156
2165
2165
2165
2151
2151
2151
2156
2156
2156
2156
2156
2156
2156
2159
2159
2159
2159
2159
2159
2160
2160
2160
2157
2157
2157
2157
2160
2160
2160
2159
2159
2159
2154
2154
2154
2161
2161
2161
2154
2154
2154
2154
2155
2155
2155
2159
2159
2159
2158
2158
2158
2161
2161
2161
2156
2156
2156
2156
2159
2159
2159
2162
2162
2162
2155
2155
2155
2161
2161
2161
2160
2160
2160
2160
2158
2158
2158
2159
2159
2159
2158
2158
2158
2160
2160
2160
2156
2156
2156
2156
2157
2157
2157
2159
2159
2159
2153
2153
2153
2157
2157
2157
2156
2156
2156
2156
2156
2156
2156
2161
2161
2161
2158
2158
2158
2159
2159
2159
2158
2158
2158
2158
2157
2157
2157
2161
2161
2161
2161
2161
2161
2157
2157
2157
2160
2160
2160
2160
2156
2156
2156
2158
2158
2158
2156
2156
2156
2157
2157
2157
2159
2159
2159
2159
2158
2158
2158
2157
2157
2157
2159
2159
2159
2160
2160
2160
2157
2157
2157
2157
2160
2160
2160
2158
2158
2158
2158
2158
2158
2158
2158
2158
2157
2157
2157
2157
2158
2158
2158
2159
2159
2159
2157
2157
2157
2161
2161
2161
2160
2160
2160
2160
2157
2157
2157
2161
2161
2161
2155
2155
2155
2155
2155
2155
2157
2157
2157
2157
2158
2158
2158
2160
2160
2160
2156
2156
2156
2158
2158
2158
2156
2156
2156
2156
2157
2157
2157
2159
2159
2159
2156
2156
2156
2158
2158
2158
2163
2163
2163
2163
2159
2159
2159
2159
2159
2159
2159
2159
2159
2156
2156
2156
2158
2158
2158
2158
2156
2156
2156
2158
2158
2158
2156
2156
2156
2155
2155
2155
2159
2159
2159
2159
2159
2159
2159
2157
2157
2157
2156
2156
2156
2158
2158
2158
2161
2161
2161
2161
2159
2159
2159
2158
2158
2158
2159
2159
2159
2163
2163
2163
2159
2159
2159
2159
2158
2158
2158
2156
2156
2156
2157
2157
2157
2160
2160
2160
2160
2160
2160
2160
2156
2156
2156
2157
2157
2157
2157
2157
2157
2156
2156
2156
2159
2159
2159
2159
2157
2157
2157
2157
2157
2157
2156
2156
2156
2157
2157
2157
2156
2156
2156
2156
2156
2156
2156
2158
2158
2158
2157
2157
2157
2159
2159
2159
2157
2157
2157
2157
2151
2151
2151
2159
2159
2159
2157
2157
2157
2157
2157
2157
2159
2159
2159
2159
2157
2157
2157
2159
2159
2159
2157
2157
2157
2161
2161
2161
2155
2155
2155
2155
2155
2155
2155
2145
2145
2145
2158
2158
2158
2162
2162
2162
2165
2165
2165
2165
2157
2157
2157
2157
2157
2157
2159
2159
2159
2159
2159
2159
2157
2157
2157
2157
2157
2157
2157
2159
2159
2159
2156
2156
2156
2160
2160
2160
2158
2158
2158
2158
2159
2159
2159
2160
2160
2160
2157
2157
2157
2157
2157
2157
2156
2156
2156
2156
2156
2156
2156
2160
2160
2160
2159
2159
2159
2161
2161
2161
2157
2157
2157
2157
2156
2156
2156
2159
2159
2159
2155
2155
2155
2158
2158
2158
2158
2158
2158
2158
2156
2156
2156
2160
2160
2160
2161
2161
2161
2153
2153
2153
2157
2157
2157
2157
2157
2157
2157
2164
2164
2164
2155
2155
2155
2157
2157
2157
2170
2170
2170
2170
2157
2157
2157
2161
2161
2161
2157
2157
2157
2158
2158
2158
2157
2157
2157
2157
2157
2157
2157
2160
2160
2160
2156
2156
2156
2161
2161
2161
2159
2159
2159
2159
2154
2154
2154
2161
2161
2161
2156
2156
2156
2162
2162
2162
2158
2158
2158
2158
2155
2155
2155
2163
2163
2163
2158
2158
2158
2159
2159
2159
2153
2153
2153
2153
2157
2157
2157
2159
2159
2159
2169
2169
2169
2156
2156
2156
2155
2155
2155
2155
2159
2159
2159
2160
2160
2160
2155
2155
2155
2159
2159
2159
2157
2157
2157
2157
2155
2155
2155
2155
2155
2155
2157
2157
2157
2156
2156
2156
2158
2158
2158
2158
2157
2157
2157
2158
2158
2158
2156
2156
2156
2156
2156
2156
2158
2158
2158
2158
2156
2156
2156
2162
2162
2162
2159
2159
2159
2160
2160
2160
2159
2159
2159
2159
2157
2157
2157
2158
2158
2158
2157
2157
2157
2156
2156
2156
2159
2159
2159
2159
2161
2161
2161
2156
2156
2156
2160
2160
2160
2166
2166
2166
2161
2161
2161
2161
2160
2160
2160
2154
2154
2154
2157
2157
2157
2161
2161
2161
2169
2169
2169
2169
2152
2152
2152
2159
2159
2159
2157
2157
2157
2158
2158
2158
2157
2157
2157
2157
2156
2156
2156
2161
2161
2161
2158
2158
2158
2155
2155
2155
2161
2161
2161
2161
2158
2158
2158
2159
2159
2159
2157
2157
2157
2158
2158
2158
2155
2155
2155
2155
2152
2152
2152
2161
2161
2161
2161
2161
2161
2157
2157
2157
2158
2158
2158
2158
2154
2154
2154
2158
2158
2158
2159
2159
2159
2157
2157
2157
2151
2151
2151
2151
2157
2157
2157
2162
2162
2162
2158
2158
2158
2166
2166
2166
2157
2157
2157
2157
2153
2153
2153
2161
2161
2161
2156
2156
2156
2158
2158
2158
2157
2157
2157
2157
2159
2159
2159
2160
2160
2160
2157
2157
2157
2159
2159
2159
2159
2159
2159
2159
2157
2157
2157
2159
2159
2159
2158
2158
2158
2158
2158
2158
2158
2158
2158
2158
2153
2153
2153
2158
2158
2158
2159
2159
2159
2159
2159
2159
2159
2159
2159
2159
2156
2156
2156
2157
2157
2157
2157
2157
2157
2160
2160
2160
2153
2153
2153
2153
2156
2156
2156
2159
2159
2159
2162
2162
2162
2156
2156
2156
2158
2158
2158
2158
2154
2154
2154
2154
2154
2154
2154
2154
2154
2158
2158
2158
2160
2160
2160
2160
2154
2154
2154
2157
2157
2157
2155
2155
2155
2158
2158
2158
2155
2155
2155
2155
2153
2153
2153
2160
2160
2160
2154
2154
2154
2161
2161
2161
2159
2159
2159
2159
2158
2158
2158
2164
2164
2164
2156
2156
2156
2159
2159
2159
2157
2157
2157
2157
2158
2158
2158
2158
2158
2158
2156
2156
2156
2157
2157
2157
2156
2156
2156
2156
2156
2156
2156
2159
2159
2159
2157
2157
2157
2159
2159
2159
2157
2157
2157
2157
2166
2166
2166
2156
2156
2156
2156
2156
2156
2160
2160
2160
2155
2155
2155
2155
2155
2155
2155
2158
2158
2158
2158
2158
2158
2155
2155
2155
2155
2155
2155
2155
2158
2158
2158
2159
2159
2159
2157
2157
2157
2160
2160
2160
2160
2160
2160
2160
2154
2154
2154
2162
2162
2162
2158
2158
2158
2157
2157
2157
2164
2164
2164
2164
2162
2162
2162
2160
2160
2160
2160
2160
2160
2153
2153
2153
2158
2158
2158
2158
2157
2157
2157
2160
2160
2160
2154
2154
2154
2155
2155
2155
2156
2156
2156
2156
2158
2158
2158
2157
2157
2157
2159
2159
2159
2166
2166
2166
2157
2157
2157
2157
2154
2154
2154
2162
2162
2162
2155
2155
2155
2158
2158
2158
2161
2161
2161
2161
2159
2159
2159
2160
2160
2160
2157
2157
2157
2158
2158
2158
2159
2159
2159
2159
2156
2156
2156
2158
2158
2158
2155
2155
2155
2157
2157
2157
2159
2159
2159
2159
2154
2154
2154
2160
2160
2160
2156
2156
2156
2159
2159
2159
2156
2156
2156
2156
2156
2156
2156
2159
2159
2159
2154
2154
2154
2158
2158
2158
2164
2164
2164
2164
2160
2160
2160
2158
2158
2158
2157
2157
2157
2161
2161
2161
2157
2157
2157
2157
2158
2158
2158
2167
2167
2167
2156
2156
2156
2156
2156
2156
2156
2156
2156
2156
2162
2162
2162
2158
2158
2158
2159
2159
2159
2155
2155
2155
2158
2158
2158
2158
2153
2153
2153
2158
2158
2158
2150
2150
2150
2158
2158
2158
2157
2157
2157
2157
2157
2157
2157
2161
2161
2161
2157
2157
2157
2158
2158
2158
2159
2159
2159
2159
2155
2155
2155
2164
2164
2164
2156
2156
2156
2159
2159
2159
2158
2158
2158
2158
2158
2158
2158
2159
2159
2159
2156
2156
2156
2157
2157
2157
2158
2158
2158
2158
2156
2156
2156
2162
2162
2162
2152
2152
2152
2161
2161
2161
2158
2158
2158
2158
2157
2157
2157
2159
2159
2159
2157
2157
2157
2154
2154
2154
2158
2158
2158
2158
2155
2155
2155
2167
2167
2167
2159
2159
2159
2161
2161
2161
2156
2156
2156
2156
2157
2157
2157
2158
2158
2158
2157
2157
2157
2159
2159
2159
2155
2155
2155
2155
2155
2155
2155
2159
2159
2159
2157
2157
2157
2160
2160
2160
2159
2159
2159
2159
2157
2157
2157
2161
2161
2161
2157
2157
2157
2161
2161
2161
2159
2159
2159
2159
2158
2158
2158
2159
2159
2159
2156
2156
2156
2161
2161
2161
2160
2160
2160
2160
2159
2159
2159
2156
2156
2156
2163
2163
2163
2157
2157
2157
2149
2149
2149
2149
2155
2155
2155
2158
2158
2158
2159
2159
2159
2158
2158
2158
2156
2156
2156
2156
2157
2157
2157
2154
2154
2154
2156
2156
2156
2152
2152
2152
2158
2158
2158
2158
2158
2158
2158
2162
2162
2162
2156
2156
2156
2158
2158
2158
2161
2161
2161
2161
2160
2160
2160
2159
2159
2159
2157
2157
2157
2159
2159
2159
2158
2158
2158
2158
2158
2158
2158
2159
2159
2159
2158
2158
2158
2156
2156
2156
2160
2160
2160
2160
2158
2158
2158
2162
2162
2162
2154
2154
2154
2158
2158
2158
2154
2154
2154
2154
2162
2162
2162
2159
2159
2159
2161
2161
2161
2158
2158
2158
2165
2165
2165
2165
2157
2157
2157
2160
2160
2160
2155
2155
2155
2162
2162
2162
2158
2158
2158
2158
2156
2156
2156
2161
2161
2161
2153
2153
2153
2159
2159
2159
2158
2158
2158
2158
2156
2156
2156
2159
2159
2159
2156
2156
2156
2161
2161
2161
2155
2155
2155
2155
2155
2155
2155
2159
2159
2159
2161
2161
2161
2162
2162
2162
2151
2151
2151
2151
2164
2164
2164
2159
2159
2159
2155
2155
2155
2160
2160
2160
2158
2158
2158
2158
2154
2154
2154
2159
2159
2159
2157
2157
2157
2165
2165
2165
2157
2157
2157
2157
2158
2158
2158
2157
2157
2157
2155
2155
2155
2161
2161
2161
2159
2159
2159
2159
2157
2157
2157
2160
2160
2160
2155
2155
2155
2157
2157
2157
2165
2165
2165
2165
2152
2152
2152
2157
2157
2157
2155
2155
2155
2158
2158
2158
2159
2159
2159
2159
2158
2158
2158
2160
2160
2160
2156
2156
2156
2159
2159
2159
2162
2162
2162
2162
2159
2159
2159
2160
2160
2160
2155
2155
2155
2165
2165
2165
2159
2159
2159
2159
2161
2161
2161
2157
2157
2157
2165
2165
2165
2160
2160
2160
2158
2158
2158
2158
2157
2157
2157
2159
2159
2159
2160
2160
2160
2158
2158
2158
2157
2157
2157
2157
2153
2153
2153
2157
2157
2157
2153
2153
2153
2163
2163
2163
2159
2159
2159
2159
2157
2157
2157
2161
2161
2161
2159
2159
2159
2158
2158
2158
2159
2159
2159
2159
2155
2155
2155
2160
2160
2160
2156
2156
2156
2159
2159
2159
2150
2150
2150
2150
2154
2154
2154
2158
2158
2158
2156
2156
2156
2164
2164
2164
2157
2157
2157
2157
2158
2158
2158
2166
2166
2166
2154
2154
2154
2157
2157
2157
2155
2155
2155
2155
2159
2159
2159
2159
2159
2159
2155
2155
2155
2160
2160
2160
2156
2156
2156
2156
2154
2154
2154
2158
2158
2158
2155
2155
2155
2161
2161
2161
2156
2156
2156
2156
2157
2157
2157
2164
2164
2164
2157
2157
2157
2161
2161
2161
2158
2158
2158
2158
2154
2154
2154
2170
2170
2170
2154
2154
2154
2157
2157
2157
2158
2158
2158
2158
2156
2156
2156
2157
2157
2157
2159
2159
2159
2160
2160
2160
2164
2164
2164
2164
2166
2166
2166
2162
2162
2162
2154
2154
2154
2163
2163
2163
2159
2159
2159
2159
2153
2153
2153
2159
2159
2159
2154
2154
2154
2160
2160
2160
2160
2160
2160
2160
2158
2158
2158
2162
2162
2162
2157
2157
2157
2160
2160
2160
2158
2158
2158
2158
2155
2155
2155
2160
2160
2160
2154
2154
2154
2157
2157
2157
2163
2163
2163
2163
2155
2155
2155
2161
2161
2161
2156
2156
2156
2158
2158
2158
2160
2160
2160
2160
2157
2157
2157
2156
2156
2156
2157
2157
2157
2158
2158
2158
2159
2159
2159
2159
2157
2157
2157
2157
2157
2157
2152
2152
2152
2152
2152
2152
2160
2160
2160
2160
2158
2158
2158
2159
2159
2159
2156
2156
2156
2160
2160
2160
2157
2157
2157
2157
2156
2156
2156
2160
2160
2160
2157
2157
2157
2158
2158
2158
2157
2157
2157
2157
2157
2157
2157
2159
2159
2159
2154
2154
2154
2156
2156
2156
2156
2156
2156
2156
2156
2156
2156
2160
2160
2160
2157
2157
2157
2159
2159
2159
2160
2160
2160
2160
2160
2160
2160
2158
2158
2158
2160
2160
2160
2160
2160
2160
2158
2158
2158
2158
2157
2157
2157
2159
2159
2159
2155
2155
2155
2154
2154
2154
2155
2155
2155
2155
2156
2156
2156
2163
2163
2163
2157
2157
2157
2155
2155
2155
2156
2156
2156
2156
2163
2163
2163
2157
2157
2157
2153
2153
2153
2159
2159
2159
2154
2154
2154
2154
2156
2156
2156
2159
2159
2159
2153
2153
2153
2162
2162
2162
2156
2156
2156
2156
2149
2149
2149
2160
2160
2160
2154
2154
2154
2161
2161
2161
2157
2157
2157
2157
2154
2154
2154
2158
2158
2158
2157
2157
2157
2158
2158
2158
2157
2157
2157
2157
2156
2156
2156
2158
2158
2158
2159
2159
2159
2161
2161
2161
2159
2159
2159
2159
2161
2161
2161
2157
2157
2157
2154
2154
2154
2156
2156
2156
2159
2159
2159
2159
2159
2159
2159
2153
2153
2153
2156
2156
2156
2160
2160
2160
2157
2157
2157
2157
2156
2156
2156
2160
2160
2160
2158
2158
2158
2162
2162
2162
2158
2158
2158
2158
2158
2158
2158
2157
2157
2157
2158
2158
2158
2160
2160
2160
2157
2157
2157
2157
2153
2153
2153
2157
2157
2157
2158
2158
2158
2160
2160
2160
2152
2152
2152
2152
2157
2157
2157
2158
2158
2158
2156
2156
2156
2160
2160
2160
2155
2155
2155
2155
2158
2158
2158
2154
2154
2154
2160
2160
2160
2158
2158
2158
2159
2159
2159
2159
2159
2159
2159
2157
2157
2157
2156
2156
2156
2157
2157
2157
2156
2156
2156
2156
2156
2156
2156
2159
2159
2159
2153
2153
2153
2158
2158
2158
2155
2155
2155
2155
2155
2155
2155
2159
2159
2159
2160
2160
2160
2157
2157
2157
2155
2155
2155
2155
2159
2159
2159
2154
2154
2154
2157
2157
2157
2157
2157
2157
2159
2159
2159
2159
2158
2158
2158
2160
2160
2160
2161
2161
2161
2157
2157
2157
2161
2161
2161
2161
2158
2158
2158
2156
2156
2156
2159
2159
2159
2159
2159
2159
2161
2161
2161
2161
2159
2159
2159
2158
2158
2158
2159
2159
2159
2162
2162
2162
2157
2157
2157
2157
2156
2156
2156
2166
2166
2166
2158
2158
2158
2158
2158
2158
2157
2157
2157
2157
2156
2156
2156
2158
2158
2158
2159
2159
2159
2155
2155
2155
2151
2151
2151
2151
2151
2151
2151
2155
2155
2155
2154
2154
2154
2161
2161
2161
2158
2158
2158
2158
2156
2156
2156
2158
2158
2158
2157
2157
2157
2158
2158
2158
2159
2159
2159
2159
2154
2154
2154
2159
2159
2159
2157
2157
2157
2161
2161
2161
2154
2154
2154
2154
2154
2154
2154
2160
2160
2160
2162
2162
2162
2160
2160
2160
2155
2155
2155
2155
2154
2154
2154
2164
2164
2164
2155
2155
2155
2159
2159
2159
2159
2159
2159
2159
2158
2158
2158
2158
2158
2158
2157
2157
2157
2158
2158
2158
2160
2160
2160
2160
2156
2156
2156
2160
2160
2160
2151
2151
2151
2156
2156
2156
2157
2157
2157
2157
2156
2156
2156
2155
2155
2155
2159
2159
2159
2160
2160
2160
2156
2156
2156
2156
2153
2153
2153
2159
2159
2159
2154
2154
2154
2160
2160
2160
2157
2157
2157
2157
2158
2158
2158
2162
2162
2162
2158
2158
2158
2156
2156
2156
2152
2152
2152
2152
2158
2158
2158
2159
2159
2159
2156
2156
2156
2153
2153
2153
2157
2157
2157
2157
2158
2158
2158
2157
2157
2157
2154
2154
2154
2157
2157
2157
2159
2159
2159
2159
2155
2155
2155
2159
2159
2159
2158
2158
2158
2157
2157
2157
2158
2158
2158
2158
2159
2159
2159
2157
2157
2157
2158
2158
2158
2156
2156
2156
2159
2159
2159
2159
2157
2157
2157
2162
2162
2162
2156
2156
2156
2161
2161
2161
2156
2156
2156
2156
2157
2157
2157
2159
2159
2159
2157
2157
2157
2159
2159
2159
2158
2158
2158
2158
2156
2156
2156
2157
2157
2157
2157
2157
2157
2157
2157
2157
2155
2155
2155
2155
2151
2151
2151
2154
2154
2154
2157
2157
2157
2159
2159
2159
2157
2157
2157
2157
2155
2155
2155
2156
2156
2156
2156
2156
2156
2164
2164
2164
2161
2161
2161
2161
2155
2155
2155
2159
2159
2159
2157
2157
2157
2157
2157
2157
2157
2157
2157
2157
2155
2155
2155
2160
2160
2160
2155
2155
2155
2157
2157
2157
2158
2158
2158
2158
2157
2157
2157
2159
2159
2159
2158
2158
2158
2147
2147
2147
2157
2157
2157
2157
2158
2158
2158
2160
2160
2160
2154
2154
2154
2161
2161
2161
2158
2158
2158
2158
2157
2157
2157
2155
2155
2155
2156
2156
2156
2161
2161
2161
2156
2156
2156
2156
2152
2152
2152
2158
2158
2158
2157
2157
2157
2159
2159
2159
2155
2155
2155
2155
2164
2164
2164
2161
2161
2161
2159
2159
2159
2157
2157
2157
2159
2159
2159
2159
2159
2159
2159
2161
2161
2161
2156
2156
2156
2157
2157
2157
2157
2157
2157
2157
2158
2158
2158
2162
2162
2162
2156
2156
2156
2155
2155
2155
2159
2159
2159
2159
2158
2158
2158
2164
2164
2164
2158
2158
2158
2158
2158
2158
2158
2158
2158
2158
2158
2158
2158
2160
2160
2160
2157
2157
2157
2157
2157
2157
2157
2157
2157
2157
2157
2157
2157
2160
2160
2160
2151
2151
2151
2159
2159
2159
2159
2159
2159
2159
2150
2150
2150
2160
2160
2160
2158
2158
2158
2159
2159
2159
2153
2153
2153
2153
2154
2154
2154
2156
2156
2156
2156
2156
2156
2160
2160
2160
2152
2152
2152
2152
2154
2154
2154
2162
2162
2162
2155
2155
2155
2155
2155
2155
2158
2158
2158
2158
2156
2156
2156
2156
2156
2156
2158
2158
2158
2157
2157
2157
2159
2159
2159
2159
2157
2157
2157
2160
2160
2160
2157
2157
2157
2158
2158
2158
2159
2159
2159
2159
2158
2158
2158
2158
2158
2158
2158
2158
2158
2170
2170
2170
2152
2152
2152
2152
2154
2154
2154
2157
2157
2157
2161
2161
2161
2159
2159
2159
2161
2161
2161
2161
2155
2155
2155
2163
2163
2163
2154
2154
2154
2158
2158
2158
2158
2158
2158
2158
2155
2155
2155
2158
2158
2158
2158
2158
2158
2155
2155
2155
2155
2155
2155
2155
2156
2156
2156
2167
2167
2167
2155
2155
2155
2158
2158
2158
2156
2156
2156
2156
2158
2158
2158
2153
2153
2153
2158
2158
2158
2159
2159
2159
2159
2159
2159
2159
2157
2157
2157
2159
2159
2159
2157
2157
2157
2158
2158
2158
2150
2150
2150
2150
2160
2160
2160
2160
2160
2160
2156
2156
2156
2160
2160
2160
2161
2161
2161
2161
2158
2158
2158
2158
2158
2158
2157
2157
2157
2157
2157
2157
2157
2157
2157
2157
2159
2159
2159
2161
2161
2161
2157
2157
2157
2158
2158
2158
2158
2158
2158
2158
2155
2155
2155
2162
2162
2162
2157
2157
2157
2157
2157
2157
2158
2158
2158
2158
2155
2155
2155
2159
2159
2159
2158
2158
2158
2159
2159
2159
2154
2154
2154
2154
2156
2156
2156
2159
2159
2159
2151
2151
2151
2162
2162
2162
2160
2160
2160
2160
2159
2159
2159
2158
2158
2158
2157
2157
2157
2157
2157
2157
2157
2157
2157
2157
2155
2155
2155
2159
2159
2159
2155
2155
2155
2158
2158
2158
2158
2158
2158
2158
2154
2154
2154
2158
2158
2158
2156
2156
2156
2160
2160
2160
2159
2159
2159
2159
2159
2159
2159
2154
2154
2154
2157
2157
2157
2160
2160
2160
2153
2153
2153
2153
2157
2157
2157
2154
2154
2154
2153
2153
2153
2153
2153
2153
2156
2156
2156
2156
2154
2154
2154
2160
2160
2160
2160
2160
2160
2157
2157
2157
2158
2158
2158
2158
2155
2155
2155
2157
2157
2157
2157
2157
2157
2155
2155
2155
2154
2154
2154
2154
2158
2158
2158
2160
2160
2160
2151
2151
2151
2155
2155
2155
2156
2156
2156
2156
2155
2155
2155
2159
2159
2159
2157
2157
2157
2157
2157
2157
2154
2154
2154
2154
2157
2157
2157
2158
2158
2158
2155
2155
2155
2160
2160
2160
2159
2159
2159
2159
2153
2153
2153
2158
2158
2158
2157
2157
2157
2164
2164
2164
2157
2157
2157
2157
2157
2157
2157
2158
2158
2158
2156
2156
2156
2156
2156
2156
2161
2161
2161
2161
2157
2157
2157
2155
2155
2155
2156
2156
2156
2161
2161
2161
2156
2156
2156
2156
2155
2155
2155
2158
2158
2158
2158
2158
2158
2158
2158
2158
2158
2158
2158
2158
2161
2161
2161
2160
2160
2160
2158
2158
2158
2156
2156
2156
2158
2158
2158
2158
2160
2160
2160
2154
2154
2154
2157
2157
2157
2159
2159
2159
2157
2157
2157
2157
2156
2156
2156
2152
2152
2152
2159
2159
2159
2156
2156
2156
2158
2158
2158
2158
2156
2156
2156
2158
2158
2158
2154
2154
2154
2158
2158
2158
2158
2158
2158
2158
2157
2157
2157
2157
2157
2157
2156
2156
2156
2159
2159
2159
2159
2159
2159
2159
2154
2154
2154
2157
2157
2157
2155
2155
2155
2165
2165
2165
2166
2166
2166
2166
2156
2156
2156
2155
2155
2155
2156
2156
2156
2158
2158
2158
2157
2157
2157
2157
2157
2157
2157
2159
2159
2159
2158
2158
2158
2156
2156
2156
2158
2158
2158
2158
2157
2157
2157
2155
2155
2155
2157
2157
2157
2158
2158
2158
2156
2156
2156
2156
2155
2155
2155
2158
2158
2158
2158
2158
2158
2158
2158
2158
2154
2154
2154
2154
2156
2156
2156
2157
2157
2157
2155
2155
2155
2155
2155
2155
2155
2155
2155
2155
2155
2155
2155
2157
2157
2157
2158
2158
2158
2158
2158
2158
2154
2154
2154
2154
2161
2161
2161
2157
2157
2157
2155
2155
2155
2158
2158
2158
2158
2158
2158
2158
2156
2156
2156
2156
2156
2156
2155
2155
2155
2160
2160
2160
2158
2158
2158
2158
2159
2159
2159
2155
2155
2155
2157
2157
2157
2154
2154
2154
2157
2157
2157
2157
2157
2157
2157
2158
2158
2158
2156
2156
2156
2154
2154
2154
2153
2153
2153
2153
2153
2153
2153
2154
2154
2154
2160
2160
2160
2156
2156
2156
2156
2156
2156
2156
2158
2158
2158
2159
2159
2159
2162
2162
2162
2158
2158
2158
2156
2156
2156
2156
2154
2154
2154
2157
2157
2157
2156
2156
2156
2156
2156
2156
2158
2158
2158
2158
2152
2152
2152
2160
2160
2160
2155
2155
2155
2164
2164
2164
2157
2157
2157
2157
2156
2156
2156
2160
2160
2160
2159
2159
2159
2164
2164
2164
2155
2155
2155
2155
2157
2157
2157
2160
2160
2160
2156
2156
2156
2157
2157
2157
2160
2160
2160
2160
2156
2156
2156
2160
2160
2160
2157
2157
2157
2157
2157
2157
2159
2159
2159
2159
2158
2158
2158
2158
2158
2158
2155
2155
2155
2158
2158
2158
2156
2156
2156
2156
2156
2156
2156
2157
2157
2157
2159
2159
2159
2158
2158
2158
2158
2158
2158
2158
2153
2153
2153
2160
2160
2160
2151
2151
2151
2163
2163
2163
2155
2155
2155
2155
2159
2159
2159
2160
2160
2160
2155
2155
2155
2160
2160
2160
2157
2157
2157
2157
2152
2152
2152
2167
2167
2167
2158
2158
2158
2160
2160
2160
2156
2156
2156
2156
2157
2157
2157
2160
2160
2160
2162
2162
2162
2153
2153
2153
2156
2156
2156
2156
2154
2154
2154
2160
2160
2160
2157
2157
2157
2159
2159
2159
2158
2158
2158
2158
2156
2156
2156
2157
2157
2157
2157
2157
2157
2160
2160
2160
2156
2156
2156
2156
2159
2159
2159
2157
2157
2157
2150
2150
2150
2159
2159
2159
2166
2166
2166
2166
2161
2161
2161
2159
2159
2159
2159
2159
2159
2160
2160
2160
2155
2155
2155
2155
2157
2157
2157
2157
2157
2157
2159
2159
2159
2156
2156
2156
2158
2158
2158
2158
2158
2158
2158
2158
2158
2158
2158
2158
2158
2160
2160
2160
2158
2158
2158
2158
2158
2158
2158
2160
2160
2160
2157
2157
2157
2161
2161
2161
2156
2156
2156
2156
2157
2157
2157
2154
2154
2154
2158
2158
2158
2155
2155
2155
2161
2161
2161
2161
2154
2154
2154
2173
2173
2173
2158
2158
2158
2159
2159
2159
2158
2158
2158
2158
2156
2156
2156
2159
2159
2159
2163
2163
2163
2157
2157
2157
2155
2155
2155
2155
2156
2156
2156
2158
2158
2158
2160
2160
2160
2158
2158
2158
2157
2157
2157
2157
2156
2156
2156
2160
2160
2160
2158
2158
2158
2157
2157
2157
2158
2158
2158
2158
2157
2157
2157
2162
2162
2162
2156
2156
2156
2160
2160
2160
2156
2156
2156
2156
2158
2158
2158
2163
2163
2163
2154
2154
2154
2159
2159
2159
2160
2160
2160
2160
2156
2156
2156
2159
2159
2159
2157
2157
2157
2158
2158
2158
2161
2161
2161
2161
2155
2155
2155
2157
2157
2157
2156
2156
2156
2158
2158
2158
2158
2158
2158
2158
2156
2156
2156
2159
2159
2159
2158
2158
2158
2160
2160
2160
2157
2157
2157
2157
2155
2155
2155
2158
2158
2158
2155
2155
2155
2160
2160
2160
2156
2156
2156
2156
2155
2155
2155
2160
2160
2160
2156
2156
2156
2156
2156
2156
2160
2160
2160
2160
2156
2156
2156
2157
2157
2157
2159
2159
2159
2154
2154
2154
2155
2155
2155
2155
2158
2158
2158
2157
2157
2157
2157
2157
2157
2158
2158
2158
2158
2158
2158
2158
2157
2157
2157
2159
2159
2159
2157
2157
2157
2157
2157
2157
2157
2157
2157
2157
2154
2154
2154
2158
2158
2158
2163
2163
2163
2155
2155
2155
2155
2155
2155
2155
2156
2156
2156
2157
2157
2157
2160
2160
2160
2158
2158
2158
2156
2156
2156
2156
2161
2161
2161
2159
2159
2159
2158
2158
2158
2161
2161
2161
2157
2157
2157
2157
2155
2155
2155
2152
2152
2152
2158
2158
2158
2157
2157
2157
2157
2157
2157
2157
2156
2156
2156
2165
2165
2165
2154
2154
2154
2160
2160
2160
2153
2153
2153
2153
2159
2159
2159
2156
2156
2156
2162
2162
2162
2164
2164
2164
2158
2158
2158
2158
2155
2155
2155
2156
2156
2156
2155
2155
2155
2159
2159
2159
2157
2157
2157
2157
2156
2156
2156
2160
2160
2160
2157
2157
2157
2161
2161
2161
2152
2152
2152
2152
2159
2159
2159
2159
2159
2159
2157
2157
2157
2158
2158
2158
2157
2157
2157
2157
2155
2155
2155
2158
2158
2158
2158
2158
2158
2159
2159
2159
2155
2155
2155
2155
2158
2158
2158
2156
2156
2156
2160
2160
2160
2158
2158
2158
2157
2157
2157
2157
2158
2158
2158
2158
2158
2158
2158
2158
2158
2158
2158
2158
2158
2158
2158
2158
2158
2158
2158
2159
2159
2159
2156
2156
2156
2162
2162
2162
2159
2159
2159
2159
2157
2157
2157
2160
2160
2160
2157
2157
2157
2158
2158
2158
2157
2157
2157
2157
2152
2152
2152
2159
2159
2159
2152
2152
2152
2159
2159
2159
2155
2155
2155
2155
2158
2158
2158
2158
2158
2158
2159
2159
2159
2159
2159
2159
2155
2155
2155
2155
2162
2162
2162
2155
2155
2155
2156
2156
2156
2159
2159
2159
2160
2160
2160
2160
2157
2157
2157
2159
2159
2159
2156
2156
2156
2160
2160
2160
2153
2153
2153
2153
2156
2156
2156
2158
2158
2158
2158
2158
2158
2157
2157
2157
2159
2159
2159
2159
2157
2157
2157
2156
2156
2156
2156
2156
2156
2158
2158
2158
2157
2157
2157
2157
2156
2156
2156
2158
2158
2158
2157
2157
2157
2158
2158
2158
2162
2162
2162
2162
2155
2155
2155
2161
2161
2161
2163
2163
2163
2158
2158
2158
2159
2159
2159
2159
2160
2160
2160
2161
2161
2161
2157
2157
2157
2159
2159
2159
2158
2158
2158
2158
2157
2157
2157
2158
2158
2158
2154
2154
2154
2158
2158
2158
2158
2158
2158
2158
2157
2157
2157
2156
2156
2156
2158
2158
2158
2156
2156
2156
2159
2159
2159
2159
2158
2158
2158
2159
2159
2159
2159
2159
2159
2153
2153
2153
2161
2161
2161
2161
2159
2159
2159
2159
2159
2159
2160
2160
2160
2157
2157
2157
2156
2156
2156
2156
2155
2155
2155
2157
2157
2157
2157
2157
2157
2160
2160
2160
2156
2156
2156
2156
2157
2157
2157
2157
2157
2157
2156
2156
2156
2159
2159
2159
2160
2160
2160
2160
2153
2153
2153
2158
2158
2158
2156
2156
2156
2160
2160
2160
2157
2157
2157
2157
2155
2155
2155
2159
2159
2159
2158
2158
2158
2156
2156
2156
2161
2161
2161
2161
2158
2158
2158
2157
2157
2157
2160
2160
2160
2160
2160
2160
2160
2160
2160
2160
2159
2159
2159
2156
2156
2156
2158
2158
2158
2160
2160
2160
2157
2157
2157
2157
2157
2157
2157
2156
2156
2156
2157
2157
2157
2159
2159
2159
2157
2157
2157
2157
2155
2155
2155
2159
2159
2159
2154
2154
2154
2159
2159
2159
2156
2156
2156
2156
2158
2158
2158
2157
2157
2157
2158
2158
2158
2157
2157
2157
2158
2158
2158
2158
2156
2156
2156
2158
2158
2158
2164
2164
2164
2159
2159
2159
2155
2155
2155
2155
2156
2156
2156
2158
2158
2158
2158
2158
2158
2160
2160
2160
2153
2153
2153
2153
2159
2159
2159
2157
2157
2157
2156
2156
2156
2158
2158
2158
2157
2157
2157
2157
2164
2164
2164
2160
2160
2160
2159
2159
2159
2152
2152
2152
2157
2157
2157
2157
2158
2158
2158
2159
2159
2159
2158
2158
2158
2160
2160
2160
2153
2153
2153
2153
2156
2156
2156
2157
2157
2157
2154
2154
2154
2157
2157
2157
2157
2157
2157
2157
2162
2162
2162
2157
2157
2157
2159
2159
2159
2158
2158
2158
2156
2156
2156
2156
2158
2158
2158
2160
2160
2160
2163
2163
2163
2158
2158
2158
2157
2157
2157
2157
2154
2154
2154
2157
2157
2157
2158
2158
2158
2157
2157
2157
2157
2157
2157
2157
2158
2158
2158
2157
2157
2157
2155
2155
2155
2158
2158
2158
2158
2158
2158
2158
2156
2156
2156
2162
2162
2162
2152
2152
2152
2158
2158
2158
2158
2158
2158
2158
2157
2157
2157
2159
2159
2159
2158
2158
2158
2157
2157
2157
2159
2159
2159
2159
2158
2158
2158
2158
2158
2158
2156
2156
2156
2155
2155
2155
2158
2158
2158
2158
2158
2158
2158
2157
2157
2157
2157
2157
2157
2159
2159
2159
2158
2158
2158
2158
2157
2157
2157
2158
2158
2158
2156
2156
2156
2155
2155
2155
2164
2164
2164
2164
2153
2153
2153
2163
2163
2163
2155
2155
2155
2157
2157
2157
2159
2159
2159
2159
2153
2153
2153
2157
2157
2157
2156
2156
2156
2158
2158
2158
2155
2155
2155
2155
2159
2159
2159
2160
2160
2160
2154
2154
2154
2160
2160
2160
2155
2155
2155
2155
2153
2153
2153
2161
2161
2161
2157
2157
2157
2159
2159
2159
2156
2156
2156
2156
2157
2157
2157
2155
2155
2155
2158
2158
2158
2160
2160
2160
2154
2154
2154
2154
2158
2158
2158
2170
2170
2170
2154
2154
2154
2156
2156
2156
2159
2159
2159
2159
2153
2153
2153
2157
2157
2157
2159
2159
2159
2160
2160
2160
2154
2154
2154
2154
2156
2156
2156
2159
2159
2159
2160
2160
2160
2157
2157
2157
2159
2159
2159
2159
2154
2154
2154
2159
2159
2159
2162
2162
2162
2158
2158
2158
2154
2154
2154
2154
2160
2160
2160
2157
2157
2157
2166
2166
2166
2159
2159
2159
2159
2159
2159
2159
2158
2158
2158
2161
2161
2161
2153
2153
2153
2157
2157
2157
2157
2157
2157
2157
2158
2158
2158
2158
2158
2158
2156
2156
2156
2161
2161
2161
2156
2156
2156
2156
2158
2158
2158
2155
2155
2155
2158
2158
2158
2154
2154
2154
2158
2158
2158
2158
2158
2158
2158
2156
2156
2156
2157
2157
2157
2162
2162
2162
2158
2158
2158
2158
2156
2156
2156
2161
2161
2161
2159
2159
2159
2159
2159
2159
2155
2155
2155
2155
2157
2157
2157
2159
2159
2159
2159
2159
2159
2159
2159
2159
2160
2160
2160
2160
2160
2160
2160
2157
2157
2157
2154
2154
2154
2159
2159
2159
2157
2157
2157
2157
2156
2156
2156
2160
2160
2160
2155
2155
2155
2157
2157
2157
2155
2155
2155
2155
2151
2151
2151
2156
2156
2156
2157
2157
2157
2157
2157
2157
2156
2156
2156
2156
2158
2158
2158
2158
2158
2158
2159
2159
2159
2160
2160
2160
2154
2154
2154
2154
2157
2157
2157
2159
2159
2159
2157
2157
2157
2160
2160
2160
2157
2157
2157
2157
2163
2163
2163
2156
2156
2156
2156
2156
2156
2156
2156
2156
2157
2157
2157
2157
2155
2155
2155
2162
2162
2162
2155
2155
2155
2153
2153
2153
2158
2158
2158
2158
2160
2160
2160
2154
2154
2154
2158
2158
2158
2159
2159
2159
2161
2161
2161
2161
2159
2159
2159
2159
2159
2159
2157
2157
2157
2157
2157
2157
2158
2158
2158
2158
2156
2156
2156
2159
2159
2159
2157
2157
2157
2160
2160
2160
2155
2155
2155
2155
2152
2152
2152
2156
2156
2156
2149
2149
2149
2156
2156
2156
2161
2161
2161
2161
2153
2153
2153
2158
2158
2158
2158
2158
2158
2158
2158
2158
2157
2157
2157
2157
2153
2153
2153
2159
2159
2159
2157
2157
2157
2162
2162
2162
2157
2157
2157
2157
2157
2157
2157
2155
2155
2155
2157
2157
2157
2155
2155
2155
2157
2157
2157
2157
2158
2158
2158
2161
2161
2161
2157
2157
2157
2155
2155
2155
2157
2157
2157
2157
2154
2154
2154
2164
2164
2164
2158
2158
2158
2157
2157
2157
2157
2157
2157
2157
2155
2155
2155
2159
2159
2159
2155
2155
2155
2157
2157
2157
2158
2158
2158
2158
2159
2159
2159
2157
2157
2157
2155
2155
2155
2159
2159
2159
2154
2154
2154
2154
2153
2153
2153
2158
2158
2158
2159
2159
2159
2160
2160
2160
2163
2163
2163
2163
2159
2159
2159
2158
2158
2158
2154
2154
2154
2159
2159
2159
2157
2157
2157
2157
2149
2149
2149
2161
2161
2161
2157
2157
2157
2157
2157
2157
2156
2156
2156
2156
2156
2156
2156
2159
2159
2159
2157
2157
2157
2160
2160
2160
2158
2158
2158
2158
2155
2155
2155
2157
2157
2157
2158
2158
2158
2162
2162
2162
2158
2158
2158
2158
2156
2156
2156
2157
2157
2157
2155
2155
2155
2166
2166
2166
2154
2154
2154
2154
2155
2155
2155
2166
2166
2166
2157
2157
2157
2161
2161
2161
2157
2157
2157
2157
2160
2160
2160
2153
2153
2153
2158
2158
2158
2158
2158
2158
2160
2160
2160
2160
2157
2157
2157
2159
2159
2159
2156
2156
2156
2160
2160
2160
2158
2158
2158
2158
2163
2163
2163
2159
2159
2159
2159
2159
2159
2156
2156
2156
2158
2158
2158
2158
2160
2160
2160
2160
2160
2160
2155
2155
2155
2158
2158
2158
2156
2156
2156
2156
2156
2156
2156
2160
2160
2160
2159
2159
2159
2155
2155
2155
2156
2156
2156
2156
2160
2160
2160
2150
2150
2150
2157
2157
2157
2155
2155
2155
2161
2161
2161
2161
2158
2158
2158
2158
2158
2158
2157
2157
2157
2155
2155
2155
2159
2159
2159
2159
2155
2155
2155
2162
2162
2162
2156
2156
2156
2161
2161
2161
2159
2159
2159
2159
2158
2158
2158
2156
2156
2156
2155
2155
2155
2157
2157
2157
2155
2155
2155
2155
2158
2158
2158
2159
2159
2159
2159
2159
2159
2160
2160
2160
2156
2156
2156
2156
2158
2158
2158
2156
2156
2156
2165
2165
2165
2157
2157
2157
2162
2162
2162
2162
2155
2155
2155
2158
2158
2158
2160
2160
2160
2159
2159
2159
2156
2156
2156
2156
2157
2157
2157
2161
2161
2161
2157
2157
2157
2156
2156
2156
2159
2159
2159
2159
2155
2155
2155
2161
2161
2161
2157
2157
2157
2168
2168
2168
2156
2156
2156
2156
2157
2157
2157
2159
2159
2159
2154
2154
2154
2160
2160
2160
2159
2159
2159
2159
2155
2155
2155
2153
2153
2153
2156
2156
2156
2157
2157
2157
2159
2159
2159
2159
2154
2154
2154
2158
2158
2158
2157
2157
2157
2156
2156
2156
2157
2157
2157
2157
2157
2157
2157
2161
2161
2161
2155
2155
2155
2158
2158
2158
2160
2160
2160
2160
2156
2156
2156
2159
2159
2159
2157
2157
2157
2157
2157
2157
2156
2156
2156
2156
2156
2156
2156
2158
2158
2158
2152
2152
2152
2162
2162
2162
2156
2156
2156
2156
2157
2157
2157
2155
2155
2155
2156
2156
2156
2159
2159
2159
2159
2159
2159
2159
2155
2155
2155
2157
2157
2157
2155
2155
2155
2153
2153
2153
2160
2160
2160
2160
2157
2157
2157
2156
2156
2156
2157
2157
2157
2158
2158
2158
2160
2160
2160
2160
2154
2154
2154
2159
2159
2159
2158
2158
2158
2160
2160
2160
2159
2159
2159
2159
2154
2154
2154
2156
2156
2156
2157
2157
2157
2163
2163
2163
2157
2157
2157
2157
2154
2154
2154
2172
2172
2172
2159
2159
2159
2150
2150
2150
2159
2159
2159
2159
2154
2154
2154
2160
2160
2160
2155
2155
2155
2157
2157
2157
2160
2160
2160
2160
2159
2159
2159
2156
2156
2156
2156
2156
2156
2158
2158
2158
2160
2160
2160
2160
2156
2156
2156
2157
2157
2157
2162
2162
2162
2158
2158
2158
2158
2158
2158
2158
2155
2155
2155
2160
2160
2160
2163
2163
2163
2156
2156
2156
2158
2158
2158
2158
2152
2152
2152
2164
2164
2164
2154
2154
2154
2156
2156
2156
2159
2159
2159
2159
2156
2156
2156
2160
2160
2160
2158
2158
2158
2159
2159
2159
2155
2155
2155
2155
2156
2156
2156
2159
2159
2159
2160
2160
2160
2158
2158
2158
2159
2159
2159
2159
2156
2156
2156
2159
2159
2159
2155
2155
2155
2156
2156
2156
2161
2161
2161
2161
2156
2156
2156
2159
2159
2159
2155
2155
2155
2153
2153
2153
2159
2159
2159
2159
2155
2155
2155
2166
2166
2166
2155
2155
2155
2163
2163
2163
2158
2158
2158
2158
2155
2155
2155
2157
2157
2157
2158
2158
2158
2158
2158
2158
2156
2156
2156
2156
2155
2155
2155
2164
2164
2164
2158
2158
2158
2159
2159
2159
2157
2157
2157
2157
2156
2156
2156
2160
2160
2160
2157
2157
2157
2156
2156
2156
2160
2160
2160
2160
2156
2156
2156
2159
2159
2159
2158
2158
2158
2158
2158
2158
2157
2157
2157
2157
2162
2162
2162
2154
2154
2154
2161
2161
2161
2156
2156
2156
2160
2160
2160
2160
2154
2154
2154
2160
2160
2160
2157
2157
2157
2156
2156
2156
2159
2159
2159
2159
2157
2157
2157
2160
2160
2160
2156
2156
2156
2156
2156
2156
2157
2157
2157
2157
2156
2156
2156
2161
2161
2161
2157
2157
2157
2160
2160
2160
2156
2156
2156
2156
2157
2157
2157
2160
2160
2160
2161
2161
2161
2148
2148
2148
2160
2160
2160
2160
2154
2154
2154
2157
2157
2157
2157
2157
2157
2159
2159
2159
2159
2159
2159
2159
2157
2157
2157
2161
2161
2161
2155
2155
2155
2159
2159
2159
2159
2159
2159
2159
2152
2152
2152
2163
2163
2163
2156
2156
2156
2156
2156
2156
2158
2158
2158
2158
2159
2159
2159
2156
2156
2156
2157
2157
2157
2158
2158
2158
2162
2162
2162
2162
2158
2158
2158
2155
2155
2155
2154
2154
2154
2163
2163
2163
2156
2156
2156
2156
2161
2161
2161
2157
2157
2157
2157
2157
2157
2158
2158
2158
2160
2160
2160
2160
2157
2157
2157
2165
2165
2165
2157
2157
2157
2157
2157
2157
2152
2152
2152
2152
2157
2157
2157
2160
2160
2160
2155
2155
2155
2159
2159
2159
2156
2156
2156
2156
2158
2158
2158
2159
2159
2159
2157
2157
2157
2158
2158
2158
2158
2158
2158
2158
2156
2156
2156
2159
2159
2159
2152
2152
2152
2160
2160
2160
2161
2161
2161
2161
2159
2159
2159
2156
2156
2156
2160
2160
2160
2159
2159
2159
2158
2158
2158
2158
2157
2157
2157
2157
2157
2157
2160
2160
2160
2157
2157
2157
2158
2158
2158
2158
2154
2154
2154
2156
2156
2156
2157
2157
2157
2159
2159
2159
2159
2159
2159
2159
2159
2159
2159
2162
2162
2162
2158
2158
2158
2157
2157
2157
2157
2157
2157
2157
2156
2156
2156
2163
2163
2163
2151
2151
2151
2152
2152
2152
2161
2161
2161
2161
2157
2157
2157
2164
2164
2164
2156
2156
2156
2158
2158
2158
2156
2156
2156
2156
2156
2156
2156
2159
2159
2159
2158
2158
2158
2155
2155
2155
2160
2160
2160
2160
2157
2157
2157
2160
2160
2160
2160
2160
2160
2157
2157
2157
2158
2158
2158
2158
2159
2159
2159
2158
2158
2158
2159
2159
2159
2159
2159
2159
2161
2161
2161
2161
2157
2157
2157
2157
2157
2157
2160
2160
2160
2157
2157
2157
2160
2160
2160
2160
2156
2156
2156
2158
2158
2158
2157
2157
2157
2158
2158
2158
2158
2158
2158
2158
2156
2156
2156
2158
2158
2158
2156
2156
2156
2156
2156
2156
2157
2157
2157
2157
2158
2158
2158
2156
2156
2156
2159
2159
2159
2158
2158
2158
2158
2158
2158
2158
2156
2156
2156
2156
2156
2156
2159
2159
2159
2159
2159
2159
2158
2158
2158
2158
2158
2158
2158
2161
2161
2161
2160
2160
2160
2159
2159
2159
2160
2160
2160
2160
2153
2153
2153
2163
2163
2163
2158
2158
2158
2156
2156
2156
2155
2155
2155
2155
2154
2154
2154
2157
2157
2157
2155
2155
2155
2159
2159
2159
2157
2157
2157
2157
2159
2159
2159
2158
2158
2158
2166
2166
2166
2161
2161
2161
2156
2156
2156
2156
2156
2156
2156
2159
2159
2159
2157
2157
2157
2159
2159
2159
2159
2159
2159
2159
2158
2158
2158
2159
2159
2159
2155
2155
2155
2160
2160
2160
2157
2157
2157
2157
2157
2157
2157
2150
2150
2150
2157
2157
2157
2158
2158
2158
2156
2156
2156
2156
2157
2157
2157
2159
2159
2159
2157
2157
2157
2163
2163
2163
2157
2157
2157
2157
2158
2158
2158
2157
2157
2157
2157
2157
2157
2162
2162
2162
2156
2156
2156
2156
2155
2155
2155
2158
2158
2158
2159
2159
2159
2158
2158
2158
2153
2153
2153
2153
2156
2156
2156
2160
2160
2160
2153
2153
2153
2160
2160
2160
2159
2159
2159
2159
2160
2160
2160
2163
2163
2163
2156
2156
2156
2160
2160
2160
2171
2171
2171
2171
2157
2157
2157
2158
2158
2158
2155
2155
2155
2159
2159
2159
2157
2157
2157
2157
2156
2156
2156
2156
2156
2156
2156
2156
2156
2153
2153
2153
2157
2157
2157
2157
2156
2156
2156
2159
2159
2159
2157
2157
2157
2155
2155
2155
2158
2158
2158
2158
2157
2157
2157
2160
2160
2160
2157
2157
2157
2157
2157
2157
2159
2159
2159
2159
2157
2157
2157
2166
2166
2166
2159
2159
2159
2156
2156
2156
2155
2155
2155
2155
2160
2160
2160
2158
2158
2158
2155
2155
2155
2157
2157
2157
2158
2158
2158
2158
2157
2157
2157
2159
2159
2159
2154
2154
2154
2157
2157
2157
2156
2156
2156
2156
2157
2157
2157
2159
2159
2159
2154
2154
2154
2159
2159
2159
2158
2158
2158
2158
2153
2153
2153
2159
2159
2159
2166
2166
2166
2161
2161
2161
2159
2159
2159
2159
2159
2159
2159
2159
2159
2159
2157
2157
2157
2159
2159
2159
2159
2159
2159
2159
2155
2155
2155
2159
2159
2159
2157
2157
2157
2158
2158
2158
2160
2160
2160
2160
2155
2155
2155
2161
2161
2161
2159
2159
2159
2161
2161
2161
2159
2159
2159
2159
2156
2156
2156
2155
2155
2155
2160
2160
2160
2158
2158
2158
2157
2157
2157
2157
2156
2156
2156
2159
2159
2159
2156
2156
2156
2154
2154
2154
2156
2156
2156
2156
2157
2157
2157
2157
2157
2157
2153
2153
2153
2157
2157
2157
2160
2160
2160
2160
2156
2156
2156
2160
2160
2160
2156
2156
2156
2156
2156
2156
2154
2154
2154
2154
2158
2158
2158
2159
2159
2159
2158
2158
2158
2159
2159
2159
2158
2158
2158
2158
2157
2157
2157
2153
2153
2153
2160
2160
2160
2158
2158
2158
2158
2158
2158
2158
2156
2156
2156
2159
2159
2159
2157
2157
2157
2159
2159
2159
2157
2157
2157
2157
2157
2157
2157
2159
2159
2159
2165
2165
2165
2158
2158
2158
2159
2159
2159
2159
2155
2155
2155
2156
2156
2156
2155
2155
2155
2156
2156
2156
2161
2161
2161
2161
2158
2158
2158
2157
2157
2157
2158
2158
2158
2156
2156
2156
2154
2154
2154
2154
2157
2157
2157
2161
2161
2161
2158
2158
2158
2157
2157
2157
2152
2152
2152
2152
2158
2158
2158
2160
2160
2160
2159
2159
2159
2157
2157
2157
2166
2166
2166
2166
2158
2158
2158
2159
2159
2159
2152
2152
2152
2160
2160
2160
2156
2156
2156
2156
2162
2162
2162
2156
2156
2156
2157
2157
2157
2159
2159
2159
2161
2161
2161
2161
2157
2157
2157
2159
2159
2159
2158
2158
2158
2159
2159
2159
2158
2158
2158
2158
2158
2158
2158
2159
2159
2159
2156
2156
2156
2155
2155
2155
2159
2159
2159
2159
2157
2157
2157
2157
2157
2157
2162
2162
2162
2163
2163
2163
2157
2157
2157
2157
2157
2157
2157
2161
2161
2161
2158
2158
2158
2158
2158
2158
2159
2159
2159
2159
2156
2156
2156
2159
2159
2159
2158
2158
2158
2157
2157
2157
2158
2158
2158
2158
2155
2155
2155
2159
